{
  "meta": {
    "page": {
      "currentPage": 2,
      "from": 11,
      "lastPage": 2,
      "perPage": 10,
      "to": 20,
      "total": 14
    }
  },
  "data": [
    {
      "type": "tdpseTerbit",
      "id": 169,
      "attributes": {
        "nomor_pb_umku": null,
        "nama": "SUMBER TUNAI PRO",
        "website": "-",
        "sektor": "Sektor Keuangan",
        "nama_perusahaan": "SIMPAN PINJAM DANA PASTI JAYA",
        "tanggal_daftar": "2021-02-24",
        "nomor_tanda_daftar": "000150.01/DJAI.PSE/02/2021",
        "qr_code": "https://pse.kominfo.go.id/storage/images/qr_code/b6cb782901e8e44ae15ead82d7905e69.png",
        "status_id": "DICABUT",
        "sistem_elektronik_id": 4011
      }
    },
    {
      "type": "tdpseTerbit",
      "id": 138,
      "attributes": {
        "nomor_pb_umku": null,
        "nama": "INDOCASH",
        "website": "-",
        "sektor": "Sektor Keuangan",
        "nama_perusahaan": "SIMPAN PINJAM RENGAS DENGKLOK INDONESIA",
        "tanggal_daftar": "2021-02-24",
        "nomor_tanda_daftar": "000124.01/DJAI.PSE/02/2021",
        "qr_code": "https://pse.kominfo.go.id/storage/images/qr_code/a8113d4d1bbf9db1f31faab79dfe234a.png",
        "status_id": "DICABUT",
        "sistem_elektronik_id": 4002
      }
    },
    {
      "type": "tdpseTerbit",
      "id": 89,
      "attributes": {
        "nomor_pb_umku": null,
        "nama": "ONE DANA",
        "website": "-",
        "sektor": "Sektor Keuangan",
        "nama_perusahaan": "SIMPAN PINJAM MAJU INDAH BERSAMA",
        "tanggal_daftar": "2021-02-23",
        "nomor_tanda_daftar": "000079.01/DJAI.PSE/02/2021",
        "qr_code": "https://pse.kominfo.go.id/storage/images/qr_code/5e3a96eeceff7f01a5ead1d37bcda58a.png",
        "status_id": "DICABUT",
        "sistem_elektronik_id": 4014
      }
    },
    {
      "type": "tdpseTerbit",
      "id": 88,
      "attributes": {
        "nomor_pb_umku": null,
        "nama": "DANA RAKYAT PRO",
        "website": "-",
        "sektor": "Sektor Keuangan",
        "nama_perusahaan": "SIMPAN PINJAM MUARA BARU INDAH",
        "tanggal_daftar": "2021-02-23",
        "nomor_tanda_daftar": "000078.01/DJAI.PSE/02/2021",
        "qr_code": "https://pse.kominfo.go.id/storage/images/qr_code/3ec25fa88fee6cb8c342e217d83ee7df.png",
        "status_id": "DICABUT",
        "sistem_elektronik_id": 4006
      }
    }
  ]
}