{
  "meta": {
    "page": {
      "currentPage": 1,
      "from": 1,
      "lastPage": 2,
      "perPage": 10,
      "to": 10,
      "total": 16
    }
  },
  "data": [
    {
      "type": "tdpseTerbit",
      "id": 9404,
      "attributes": {
        "nomor_pb_umku": null,
        "nama": "PAYPAL",
        "website": "paypal.com",
        "sektor": "Sektor Keuangan",
        "nama_perusahaan": "PAYPAL INC.",
        "tanggal_daftar": "2022-07-29",
        "nomor_tanda_daftar": "006579.01/DJAI.PSE/07/2022",
        "qr_code": "https://pse.kominfo.go.id/storage/images/qr_code/7aa7b928d50d20fa31c928c0265428cd.png",
        "status_id": "SUSPENDED_BY_TAKEL",
        "sistem_elektronik_id": 9314
      }
    },
    {
      "type": "tdpseTerbit",
      "id": 9254,
      "attributes": {
        "nomor_pb_umku": null,
        "nama": "TOPFUN",
        "website": "mytopfun.com",
        "sektor": "Sektor Teknologi Informasi dan Komunikasi",
        "nama_perusahaan": "Topfun Domino Qiu Qiu",
        "tanggal_daftar": "2022-07-28",
        "nomor_tanda_daftar": "006489.02/DJAI.PSE/07/2022",
        "qr_code": "https://pse.kominfo.go.id/storage/images/qr_code/6aedec7a9740ff9b1bd071416f698bd5.png",
        "status_id": "SUSPENDED_BY_PAI",
        "sistem_elektronik_id": 9166
      }
    },
    {
      "type": "tdpseTerbit",
      "id": 9253,
      "attributes": {
        "nomor_pb_umku": null,
        "nama": "DOMINO QIU QIU",
        "website": "mytopfun.com",
        "sektor": "Sektor Teknologi Informasi dan Komunikasi",
        "nama_perusahaan": "Topfun Domino Qiu Qiu",
        "tanggal_daftar": "2022-07-28",
        "nomor_tanda_daftar": "006489.01/DJAI.PSE/07/2022",
        "qr_code": "https://pse.kominfo.go.id/storage/images/qr_code/19b8198efff737adf7cb294204f171a4.png",
        "status_id": "SUSPENDED_BY_PAI",
        "sistem_elektronik_id": 9165
      }
    },
    {
      "type": "tdpseTerbit",
      "id": 8476,
      "attributes": {
        "nomor_pb_umku": null,
        "nama": "HIGGS SLOT-DOMINO GAPLE QIUQIU",
        "website": "play.google.com/store/apps/details?id=com.big.hsidn",
        "sektor": "Sektor Teknologi Informasi dan Komunikasi",
        "nama_perusahaan": "B.I.G TECHNOLOGY CO., LIMITED",
        "tanggal_daftar": "2022-07-21",
        "nomor_tanda_daftar": "005938.03/DJAI.PSE/07/2022",
        "qr_code": "https://pse.kominfo.go.id/storage/images/qr_code/42d77edf36659783552207b358b799a9.png",
        "status_id": "SUSPENDED_BY_PAI",
        "sistem_elektronik_id": 8393
      }
    },
    {
      "type": "tdpseTerbit",
      "id": 8475,
      "attributes": {
        "nomor_pb_umku": null,
        "nama": "LUDO DREAM",
        "website": "play.google.com/store/apps/details?id=com.neptune.ludo",
        "sektor": "Sektor Teknologi Informasi dan Komunikasi",
        "nama_perusahaan": "B.I.G TECHNOLOGY CO., LIMITED",
        "tanggal_daftar": "2022-07-21",
        "nomor_tanda_daftar": "005938.02/DJAI.PSE/07/2022",
        "qr_code": "https://pse.kominfo.go.id/storage/images/qr_code/e454d5a3b64b4dcf357073e705c07b7f.png",
        "status_id": "SUSPENDED_BY_PAI",
        "sistem_elektronik_id": 8392
      }
    },
    {
      "type": "tdpseTerbit",
      "id": 8474,
      "attributes": {
        "nomor_pb_umku": null,
        "nama": "HIGGS DOMINO ISLAND",
        "website": "play.google.com/store/apps/details?id=com.neptune.domino; www.topbos.com; apps.apple.com/id/app/higgs-domino-gaple-qiu-qiu/id1456356688",
        "sektor": "Sektor Teknologi Informasi dan Komunikasi",
        "nama_perusahaan": "B.I.G TECHNOLOGY CO., LIMITED",
        "tanggal_daftar": "2022-07-21",
        "nomor_tanda_daftar": "005938.01/DJAI.PSE/07/2022",
        "qr_code": "https://pse.kominfo.go.id/storage/images/qr_code/4a693735dab45443acb212fad141df86.png",
        "status_id": "SUSPENDED_BY_PAI",
        "sistem_elektronik_id": 8391
      }
    },
    {
      "type": "tdpseTerbit",
      "id": 8224,
      "attributes": {
        "nomor_pb_umku": null,
        "nama": "MVP DOMINO",
        "website": "play.google.com/store/apps/details?id=com.ipoker.domino&hl=en&gl=US",
        "sektor": "Sektor Teknologi Informasi dan Komunikasi",
        "nama_perusahaan": "SHENZHEN ULOVE CREATIVE TECHNOLOGY CO., LTD",
        "tanggal_daftar": "2022-07-20",
        "nomor_tanda_daftar": "005808.05/DJAI.PSE/07/2022",
        "qr_code": "https://pse.kominfo.go.id/storage/images/qr_code/28722932f48da4a28c21599f2d5d85f7.png",
        "status_id": "SUSPENDED_BY_PAI",
        "sistem_elektronik_id": 8143
      }
    },
    {
      "type": "tdpseTerbit",
      "id": 8223,
      "attributes": {
        "nomor_pb_umku": null,
        "nama": "POP GAPLE",
        "website": "play.google.com/store/apps/details?id=com.popgames.gaple",
        "sektor": "Sektor Teknologi Informasi dan Komunikasi",
        "nama_perusahaan": "SHENZHEN ULOVE CREATIVE TECHNOLOGY CO., LTD",
        "tanggal_daftar": "2022-07-20",
        "nomor_tanda_daftar": "005808.04/DJAI.PSE/07/2022",
        "qr_code": "https://pse.kominfo.go.id/storage/images/qr_code/ef320b6de376fd4c47a655783a1ca5aa.png",
        "status_id": "SUSPENDED_BY_PAI",
        "sistem_elektronik_id": 8142
      }
    },
    {
      "type": "tdpseTerbit",
      "id": 8222,
      "attributes": {
        "nomor_pb_umku": null,
        "nama": "POP POKER",
        "website": "play.google.com/store/apps/details?id=com.seagames.texas&hl=en&gl=US",
        "sektor": "Sektor Teknologi Informasi dan Komunikasi",
        "nama_perusahaan": "SHENZHEN ULOVE CREATIVE TECHNOLOGY CO., LTD",
        "tanggal_daftar": "2022-07-20",
        "nomor_tanda_daftar": "005808.03/DJAI.PSE/07/2022",
        "qr_code": "https://pse.kominfo.go.id/storage/images/qr_code/e02b9dfbf10bfe55c83908216b348470.png",
        "status_id": "SUSPENDED_BY_PAI",
        "sistem_elektronik_id": 8141
      }
    },
    {
      "type": "tdpseTerbit",
      "id": 8221,
      "attributes": {
        "nomor_pb_umku": null,
        "nama": "POP DOMINO",
        "website": "play.google.com/store/apps/details?id=com.seagames.dominoqq&hl=en&gl=US",
        "sektor": "Sektor Teknologi Informasi dan Komunikasi",
        "nama_perusahaan": "SHENZHEN ULOVE CREATIVE TECHNOLOGY CO., LTD",
        "tanggal_daftar": "2022-07-20",
        "nomor_tanda_daftar": "005808.02/DJAI.PSE/07/2022",
        "qr_code": "https://pse.kominfo.go.id/storage/images/qr_code/f0c468b29feaabbbe8ca2e3234433efd.png",
        "status_id": "SUSPENDED_BY_PAI",
        "sistem_elektronik_id": 8140
      }
    }
  ]
}