{
  "meta": {
    "page": {
      "currentPage": 2,
      "from": 11,
      "lastPage": 2,
      "perPage": 10,
      "to": 20,
      "total": 18
    }
  },
  "data": [
    {
      "type": "tdpseTerbit",
      "id": 8222,
      "attributes": {
        "nomor_pb_umku": null,
        "nama": "POP POKER",
        "website": "play.google.com/store/apps/details?id=com.seagames.texas&hl=en&gl=US",
        "sektor": "Sektor Teknologi Informasi dan Komunikasi",
        "nama_perusahaan": "SHENZHEN ULOVE CREATIVE TECHNOLOGY CO., LTD",
        "tanggal_daftar": "2022-07-20",
        "nomor_tanda_daftar": "005808.03/DJAI.PSE/07/2022",
        "qr_code": "https://pse.kominfo.go.id/storage/images/qr_code/e02b9dfbf10bfe55c83908216b348470.png",
        "status_id": "SUSPENDED_BY_PAI",
        "sistem_elektronik_id": 8141
      }
    },
    {
      "type": "tdpseTerbit",
      "id": 8221,
      "attributes": {
        "nomor_pb_umku": null,
        "nama": "POP DOMINO",
        "website": "play.google.com/store/apps/details?id=com.seagames.dominoqq&hl=en&gl=US; ttp://gamespic.uloveplay.com/; http://oss-ap-southeast-1.aliyuncs.com/; id.sunnymars.com",
        "sektor": "Sektor Teknologi Informasi dan Komunikasi",
        "nama_perusahaan": "SHENZHEN ULOVE CREATIVE TECHNOLOGY CO., LTD",
        "tanggal_daftar": "2022-07-20",
        "nomor_tanda_daftar": "005808.02/DJAI.PSE/07/2022",
        "qr_code": "https://pse.kominfo.go.id/storage/images/qr_code/f0c468b29feaabbbe8ca2e3234433efd.png",
        "status_id": "SUSPENDED_BY_PAI",
        "sistem_elektronik_id": 8140
      }
    },
    {
      "type": "tdpseTerbit",
      "id": 8220,
      "attributes": {
        "nomor_pb_umku": null,
        "nama": "POP BIG2",
        "website": "play.google.com/store/apps/details?id=com.seagames.big2",
        "sektor": "Sektor Teknologi Informasi dan Komunikasi",
        "nama_perusahaan": "SHENZHEN ULOVE CREATIVE TECHNOLOGY CO., LTD",
        "tanggal_daftar": "2022-07-20",
        "nomor_tanda_daftar": "005808.01/DJAI.PSE/07/2022",
        "qr_code": "https://pse.kominfo.go.id/storage/images/qr_code/6c6f5eceee3fabe2358c2441da262f09.png",
        "status_id": "SUSPENDED_BY_PAI",
        "sistem_elektronik_id": 8139
      }
    },
    {
      "type": "tdpseTerbit",
      "id": 4079,
      "attributes": {
        "nomor_pb_umku": "",
        "nama": "APPOINTED CROSS CURRENCY DEALER & SUB DEPOSITORY ACCOUNT",
        "website": "abcd.com",
        "sektor": "Sektor Keuangan",
        "nama_perusahaan": "DANA PENSIUN LEMBAGA KEUANGAN PT.BANK MUAMALAT INDONESIA",
        "tanggal_daftar": "2022-05-23",
        "nomor_tanda_daftar": "002754.01/DJAI.PSE/05/2022",
        "qr_code": "https://pse.kominfo.go.id/storage/images/qr_code/c911b1e66254b82cdba9fa53511a544f.png",
        "status_id": "SUSPENDED_BY_TAKEL",
        "sistem_elektronik_id": 4078
      }
    },
    {
      "type": "tdpseTerbit",
      "id": 4077,
      "attributes": {
        "nomor_pb_umku": "",
        "nama": "MARIA KALAIJ BLOCKCHAIN TECHNOLOGY SYSTEM",
        "website": "bankmandirish.com",
        "sektor": "Sektor Keuangan",
        "nama_perusahaan": "BANK RAKYAT INDONESIA",
        "tanggal_daftar": "2022-05-23",
        "nomor_tanda_daftar": "002753.01/DJAI.PSE/05/2022",
        "qr_code": "https://pse.kominfo.go.id/storage/images/qr_code/0b090935b47097a95955bfae73f645b8.png",
        "status_id": "SUSPENDED_BY_TAKEL",
        "sistem_elektronik_id": 4076
      }
    },
    {
      "type": "tdpseTerbit",
      "id": 4068,
      "attributes": {
        "nomor_pb_umku": "",
        "nama": "SPECIAL EDUCATION & SCHOOL FUND INSURANCE",
        "website": "transpeninsular.wordpress.com",
        "sektor": "Sektor Keuangan",
        "nama_perusahaan": "MAHIR MUDA PRATAMA",
        "tanggal_daftar": "2022-05-23",
        "nomor_tanda_daftar": "002749.01/DJAI.PSE/05/2022",
        "qr_code": "https://pse.kominfo.go.id/storage/images/qr_code/f68ef4b0ddf78034ea52f740d4c730e6.png",
        "status_id": "SUSPENDED_BY_TAKEL",
        "sistem_elektronik_id": 4067
      }
    },
    {
      "type": "tdpseTerbit",
      "id": 4078,
      "attributes": {
        "nomor_pb_umku": "",
        "nama": "MARIA TIURMA",
        "website": "no-websiteyet.com",
        "sektor": "Sektor Keuangan",
        "nama_perusahaan": "MARIA TIURMA",
        "tanggal_daftar": "2022-05-23",
        "nomor_tanda_daftar": "002744.02/DJAI.PSE/05/2022",
        "qr_code": "https://pse.kominfo.go.id/storage/images/qr_code/ee5f00eb26ccd20e1aafd61d251ccc46.png",
        "status_id": "SUSPENDED_BY_TAKEL",
        "sistem_elektronik_id": 4077
      }
    },
    {
      "type": "tdpseTerbit",
      "id": 4059,
      "attributes": {
        "nomor_pb_umku": "",
        "nama": "MARIA TIURMA",
        "website": "no-website.yet.com",
        "sektor": "Sektor Keuangan",
        "nama_perusahaan": "MARIA TIURMA",
        "tanggal_daftar": "2022-05-23",
        "nomor_tanda_daftar": "002744.01/DJAI.PSE/05/2022",
        "qr_code": "https://pse.kominfo.go.id/storage/images/qr_code/5cc4fbbfa8c1f61c7dc78a723711de2e.png",
        "status_id": "SUSPENDED_BY_TAKEL",
        "sistem_elektronik_id": 4058
      }
    }
  ]
}