{
  "meta": {
    "page": {
      "currentPage": 1,
      "from": 1,
      "lastPage": 5,
      "perPage": 10,
      "to": 10,
      "total": 50
    }
  },
  "data": [
    {
      "type": "tdpseTerbit",
      "id": 9138,
      "attributes": {
        "nomor_pb_umku": "912030726281200010004",
        "nama": "POKER PRO.ID",
        "website": "vip.boyaa.com",
        "sektor": "Sektor Teknologi Informasi dan Komunikasi",
        "nama_perusahaan": "BOYAA INTERACTIVE INDONESIA",
        "tanggal_daftar": "2022-07-27",
        "nomor_tanda_daftar": "006263.04/DJAI.PSE/07/2022",
        "qr_code": "https://pse.kominfo.go.id/storage/images/qr_code/135901174f611db44a71b1bed7fb11b1.png",
        "status_id": "SUSPENDED_BY_PAI",
        "sistem_elektronik_id": 9048
      }
    },
    {
      "type": "tdpseTerbit",
      "id": 9107,
      "attributes": {
        "nomor_pb_umku": "912030726281200010003",
        "nama": "DOMINO GAPLE BOYA:QIUQIU CAPSA",
        "website": "boyaa.id",
        "sektor": "Sektor Teknologi Informasi dan Komunikasi",
        "nama_perusahaan": "BOYAA INTERACTIVE INDONESIA",
        "tanggal_daftar": "2022-07-27",
        "nomor_tanda_daftar": "006263.03/DJAI.PSE/07/2022",
        "qr_code": "https://pse.kominfo.go.id/storage/images/qr_code/affa33fca2a1141e257ee1778812d846.png",
        "status_id": "SUSPENDED_BY_PAI",
        "sistem_elektronik_id": 9016
      }
    },
    {
      "type": "tdpseTerbit",
      "id": 9045,
      "attributes": {
        "nomor_pb_umku": "912030726281200010002",
        "nama": "POKER TEXAS BOYAA",
        "website": "boyaa.id",
        "sektor": "Sektor Teknologi Informasi dan Komunikasi",
        "nama_perusahaan": "BOYAA INTERACTIVE INDONESIA",
        "tanggal_daftar": "2022-07-26",
        "nomor_tanda_daftar": "006263.02/DJAI.PSE/07/2022",
        "qr_code": "https://pse.kominfo.go.id/storage/images/qr_code/2fd8e1b1982db2efc9b52b9f9932c2c4.png",
        "status_id": "SUSPENDED_BY_PAI",
        "sistem_elektronik_id": 8922
      }
    },
    {
      "type": "tdpseTerbit",
      "id": 8986,
      "attributes": {
        "nomor_pb_umku": "912030726281200000001",
        "nama": "DOMINO QIUQIU 99 BOYAA QQ KIU",
        "website": "-",
        "sektor": "Sektor Teknologi Informasi dan Komunikasi",
        "nama_perusahaan": "BOYAA INTERACTIVE INDONESIA",
        "tanggal_daftar": "2022-07-25",
        "nomor_tanda_daftar": "006263.01/DJAI.PSE/07/2022",
        "qr_code": "https://pse.kominfo.go.id/storage/images/qr_code/39432d14b38597b7b5bcc7a108cb3850.png",
        "status_id": "SUSPENDED_BY_PAI",
        "sistem_elektronik_id": 8898
      }
    },
    {
      "type": "tdpseTerbit",
      "id": 8678,
      "attributes": {
        "nomor_pb_umku": "022020177183100020003",
        "nama": "WHAT.IF WHATSAPP NOTIFICATION PT. BPR BANK DAERAH KARANGANYAR (PERSERODA)",
        "website": "-",
        "sektor": "Sektor Keuangan",
        "nama_perusahaan": "BANK PERKREDITAN RAKYAT BANK DAERAH KARANGANYAR PERSERODA",
        "tanggal_daftar": "2022-07-21",
        "nomor_tanda_daftar": "006057.02/DJAI.PSE/07/2022",
        "qr_code": "https://pse.kominfo.go.id/storage/images/qr_code/59994c69ea90c39e4085bd64588d5abd.png",
        "status_id": "SUSPENDED_BY_TAKEL",
        "sistem_elektronik_id": 8597
      }
    },
    {
      "type": "tdpseTerbit",
      "id": 8757,
      "attributes": {
        "nomor_pb_umku": "912021100160700000002",
        "nama": "WHATSAPP BANKING SYSTEM",
        "website": "-",
        "sektor": "Sektor Keuangan",
        "nama_perusahaan": "BANK PERKREDITAN RAKYAT BADAN KREDIT KECAMATAN TASIKMADU PERSERODA",
        "tanggal_daftar": "2022-07-22",
        "nomor_tanda_daftar": "006055.03/DJAI.PSE/07/2022",
        "qr_code": "https://pse.kominfo.go.id/storage/images/qr_code/bf360bb8b8e472b2062f4afb6d0aae7f.png",
        "status_id": "SUSPENDED_BY_TAKEL",
        "sistem_elektronik_id": 8674
      }
    },
    {
      "type": "tdpseTerbit",
      "id": 8617,
      "attributes": {
        "nomor_pb_umku": "812001816259400010004",
        "nama": "WHATSAPP BANKING SYSTEM BANK SOLO",
        "website": "-",
        "sektor": "Sektor Teknologi Informasi dan Komunikasi",
        "nama_perusahaan": "BPR BANK SOLO",
        "tanggal_daftar": "2022-07-21",
        "nomor_tanda_daftar": "005990.04/DJAI.PSE/07/2022",
        "qr_code": "https://pse.kominfo.go.id/storage/images/qr_code/25074fe1bd7713890dba96f969d4886b.png",
        "status_id": "SUSPENDED_BY_TAKEL",
        "sistem_elektronik_id": 8536
      }
    },
    {
      "type": "tdpseTerbit",
      "id": 7570,
      "attributes": {
        "nomor_pb_umku": "912020784340100010001",
        "nama": "BPR KBS (INSTAGRAM)",
        "website": "instagram.com",
        "sektor": "Sektor Keuangan",
        "nama_perusahaan": "BANK PERKREDITAN RAKYAT KARYA BAKTI SEJAHTERA",
        "tanggal_daftar": "2022-07-20",
        "nomor_tanda_daftar": "005202.04/DJAI.PSE/07/2022",
        "qr_code": "https://pse.kominfo.go.id/storage/images/qr_code/f889c17ccb7a3db4a8ba7b74b6548595.png",
        "status_id": "SUSPENDED_BY_TAKEL",
        "sistem_elektronik_id": 7449
      }
    },
    {
      "type": "tdpseTerbit",
      "id": 7406,
      "attributes": {
        "nomor_pb_umku": "129100011219400000005",
        "nama": "WHATSAPP BPR ANA - 081222554596",
        "website": "-",
        "sektor": "Sektor Keuangan",
        "nama_perusahaan": "BANK PERKREDITAN RAKYAT ARTHA NUSANTARA ABADI",
        "tanggal_daftar": "2022-07-20",
        "nomor_tanda_daftar": "004927.05/DJAI.PSE/07/2022",
        "qr_code": "https://pse.kominfo.go.id/storage/images/qr_code/4ffd11340ce570303225fed93eae60aa.png",
        "status_id": "SUSPENDED_BY_TAKEL",
        "sistem_elektronik_id": 7311
      }
    },
    {
      "type": "tdpseTerbit",
      "id": 7365,
      "attributes": {
        "nomor_pb_umku": "129100011219400000004",
        "nama": "WHATSAPP BPR ANA - 082223755562",
        "website": "-",
        "sektor": "Sektor Keuangan",
        "nama_perusahaan": "BANK PERKREDITAN RAKYAT ARTHA NUSANTARA ABADI",
        "tanggal_daftar": "2022-07-20",
        "nomor_tanda_daftar": "004927.04/DJAI.PSE/07/2022",
        "qr_code": "https://pse.kominfo.go.id/storage/images/qr_code/81eb8e7ba5e3abee7ec45c0f0d31e32c.png",
        "status_id": "SUSPENDED_BY_TAKEL",
        "sistem_elektronik_id": 7265
      }
    }
  ]
}