{
  "meta": {
    "page": {
      "currentPage": 2,
      "from": 11,
      "lastPage": 6,
      "perPage": 10,
      "to": 20,
      "total": 52
    }
  },
  "data": [
    {
      "type": "tdpseTerbit",
      "id": 7334,
      "attributes": {
        "nomor_pb_umku": "129100011219400000002",
        "nama": "FACEBOOK BPR ANA",
        "website": "-",
        "sektor": "Sektor Keuangan",
        "nama_perusahaan": "BANK PERKREDITAN RAKYAT ARTHA NUSANTARA ABADI",
        "tanggal_daftar": "2022-07-20",
        "nomor_tanda_daftar": "004927.02/DJAI.PSE/07/2022",
        "qr_code": "https://pse.kominfo.go.id/storage/images/qr_code/660bc30bf130c336cd2629f9aa8fd065.png",
        "status_id": "SUSPENDED_BY_TAKEL",
        "sistem_elektronik_id": 7231
      }
    },
    {
      "type": "tdpseTerbit",
      "id": 7538,
      "attributes": {
        "nomor_pb_umku": "912020577232100010001",
        "nama": "INSTAGRAM",
        "website": "-",
        "sektor": "Sektor Keuangan",
        "nama_perusahaan": "BANK PERKREDITAN RAKYAT MERTOYUDAN MAKMUR",
        "tanggal_daftar": "2022-07-20",
        "nomor_tanda_daftar": "004841.01/DJAI.PSE/07/2022",
        "qr_code": "https://pse.kominfo.go.id/storage/images/qr_code/987cc9e33c3c466984ee79d8e9dec44b.png",
        "status_id": "SUSPENDED_BY_TAKEL",
        "sistem_elektronik_id": 7435
      }
    },
    {
      "type": "tdpseTerbit",
      "id": 6335,
      "attributes": {
        "nomor_pb_umku": "812000393047500010002",
        "nama": "WHATSAPP PT BPR SURYA UTAMA",
        "website": "-",
        "sektor": "Sektor Keuangan",
        "nama_perusahaan": "BANK PERKREDITAN RAKYAT SURYA UTAMA",
        "tanggal_daftar": "2022-07-18",
        "nomor_tanda_daftar": "004411.02/DJAI.PSE/07/2022",
        "qr_code": "https://pse.kominfo.go.id/storage/images/qr_code/8d5c1a4f1e0ca83bd2fd1d53e699c025.png",
        "status_id": "SUSPENDED_BY_TAKEL",
        "sistem_elektronik_id": 6201
      }
    },
    {
      "type": "tdpseTerbit",
      "id": 5880,
      "attributes": {
        "nomor_pb_umku": "912010444120500020006",
        "nama": "WA BUSINESS BPRKS",
        "website": "panel.damcorp.id",
        "sektor": "Sektor Keuangan",
        "nama_perusahaan": "BANK PERKREDITAN RAKYAT KARYAJATNIKA SADAYA",
        "tanggal_daftar": "2022-07-15",
        "nomor_tanda_daftar": "004305.07/DJAI.PSE/07/2022",
        "qr_code": "https://pse.kominfo.go.id/storage/images/qr_code/ae07fc3868b4e82058ba4a938e4f312a.png",
        "status_id": "SUSPENDED_BY_TAKEL",
        "sistem_elektronik_id": 5744
      }
    },
    {
      "type": "tdpseTerbit",
      "id": 6137,
      "attributes": {
        "nomor_pb_umku": "260422004343700010005",
        "nama": "WHATSAPP BUSINESS BPR SUPRA",
        "website": "chat.wappin.id",
        "sektor": "Sektor Keuangan",
        "nama_perusahaan": "BANK PERKREDITAN RAKYAT SUPRA ARTAPERSADA",
        "tanggal_daftar": "2022-07-18",
        "nomor_tanda_daftar": "004223.05/DJAI.PSE/07/2022",
        "qr_code": "https://pse.kominfo.go.id/storage/images/qr_code/7badf3932864657db37729412cdad773.png",
        "status_id": "SUSPENDED_BY_TAKEL",
        "sistem_elektronik_id": 6005
      }
    },
    {
      "type": "tdpseTerbit",
      "id": 5825,
      "attributes": {
        "nomor_pb_umku": "912010671095200100006",
        "nama": "WHATSAPP BISNIS - BPR PALU LOKADANA UTAMA",
        "website": "panel.damcorp.id",
        "sektor": "Sektor Keuangan",
        "nama_perusahaan": "BANK PERKREDITAN RAKYAT PALU LOKADANA UTAMA",
        "tanggal_daftar": "2022-07-15",
        "nomor_tanda_daftar": "004168.06/DJAI.PSE/07/2022",
        "qr_code": "https://pse.kominfo.go.id/storage/images/qr_code/f2a46d72c8fc67d3d92c6914fc87885e.png",
        "status_id": "SUSPENDED_BY_TAKEL",
        "sistem_elektronik_id": 5684
      }
    },
    {
      "type": "tdpseTerbit",
      "id": 10931,
      "attributes": {
        "nomor_pb_umku": "120722005076900020001",
        "nama": "CANDY",
        "website": "candylive.xyz",
        "sektor": "Sektor Teknologi Informasi dan Komunikasi",
        "nama_perusahaan": "BRILLIANT FUTURE TECHNOLOGY",
        "tanggal_daftar": "2022-09-05",
        "nomor_tanda_daftar": "004053.03/DJAI.PSE/08/2022",
        "qr_code": "https://pse.kominfo.go.id/storage/images/qr_code/c9542abce57cb841361808103b6f37d5.png",
        "status_id": "SUSPENDED_BY_PAI",
        "sistem_elektronik_id": 10740
      }
    },
    {
      "type": "tdpseTerbit",
      "id": 5405,
      "attributes": {
        "nomor_pb_umku": "",
        "nama": "CANDY LIVE",
        "website": "candylive.xyz",
        "sektor": "Sektor Teknologi Informasi dan Komunikasi",
        "nama_perusahaan": "BRILLIANT FUTURE TECHNOLOGY",
        "tanggal_daftar": "2022-09-05",
        "nomor_tanda_daftar": "004053.01/DJAI.PSE/07/2022",
        "qr_code": "https://pse.kominfo.go.id/storage/images/qr_code/c25947f2033a9e8730a5f1db70cb330e.png",
        "status_id": "SUSPENDED_BY_PAI",
        "sistem_elektronik_id": 5277
      }
    },
    {
      "type": "tdpseTerbit",
      "id": 5292,
      "attributes": {
        "nomor_pb_umku": "812021918055300000003",
        "nama": "SHOPEE, TOKOPEDIA, LAZADA, DLL",
        "website": "-",
        "sektor": "Sektor Perdagangan",
        "nama_perusahaan": "FORMULA JELITA INTERNASIONAL",
        "tanggal_daftar": "2022-07-11",
        "nomor_tanda_daftar": "003954.02/DJAI.PSE/07/2022",
        "qr_code": "https://pse.kominfo.go.id/storage/images/qr_code/743e9a973dad1e6830ba1b0afdc3c30d.png",
        "status_id": "SUSPENDED_BY_TAKEL",
        "sistem_elektronik_id": 5161
      }
    },
    {
      "type": "tdpseTerbit",
      "id": 5278,
      "attributes": {
        "nomor_pb_umku": "812021918055300000002",
        "nama": "TOKOPEDIA, SHOPEE, LAZADA, DLL",
        "website": "-",
        "sektor": "Sektor Perdagangan",
        "nama_perusahaan": "FORMULA JELITA INTERNASIONAL",
        "tanggal_daftar": "2022-07-11",
        "nomor_tanda_daftar": "003954.01/DJAI.PSE/07/2022",
        "qr_code": "https://pse.kominfo.go.id/storage/images/qr_code/345e063c3eb3c09b21c8464fb133f825.png",
        "status_id": "SUSPENDED_BY_TAKEL",
        "sistem_elektronik_id": 5147
      }
    }
  ]
}