{
  "meta": {
    "page": {
      "currentPage": 3,
      "from": 21,
      "lastPage": 6,
      "perPage": 10,
      "to": 30,
      "total": 52
    }
  },
  "data": [
    {
      "type": "tdpseTerbit",
      "id": 5216,
      "attributes": {
        "nomor_pb_umku": "080722000906200000003",
        "nama": "STARINDO.SANTOSO (SHOPEE)",
        "website": "-",
        "sektor": "Sektor Perdagangan",
        "nama_perusahaan": "RATNAWATI",
        "tanggal_daftar": "2022-07-08",
        "nomor_tanda_daftar": "003876.04/DJAI.PSE/07/2022",
        "qr_code": "https://pse.kominfo.go.id/storage/images/qr_code/71258503f09fcb6d7e2dd0077f7ffe06.png",
        "status_id": "SUSPENDED_BY_TAKEL",
        "sistem_elektronik_id": 5086
      }
    },
    {
      "type": "tdpseTerbit",
      "id": 5212,
      "attributes": {
        "nomor_pb_umku": "",
        "nama": "STARINDO_SAN (LAZADA)",
        "website": "-",
        "sektor": "Sektor Perdagangan",
        "nama_perusahaan": "RATNAWATI",
        "tanggal_daftar": "2022-07-08",
        "nomor_tanda_daftar": "003876.02/DJAI.PSE/07/2022",
        "qr_code": "https://pse.kominfo.go.id/storage/images/qr_code/a43512fdb1aad420235922b8eb7c238c.png",
        "status_id": "SUSPENDED_BY_TAKEL",
        "sistem_elektronik_id": 5083
      }
    },
    {
      "type": "tdpseTerbit",
      "id": 5205,
      "attributes": {
        "nomor_pb_umku": "",
        "nama": "LAZADA (STARINDO_SAN)",
        "website": "-",
        "sektor": "Sektor Perdagangan",
        "nama_perusahaan": "RATNAWATI",
        "tanggal_daftar": "2022-07-08",
        "nomor_tanda_daftar": "003876.01/DJAI.PSE/07/2022",
        "qr_code": "https://pse.kominfo.go.id/storage/images/qr_code/f087070c2a7092fc7122d5ba61fbf3de.png",
        "status_id": "SUSPENDED_BY_TAKEL",
        "sistem_elektronik_id": 5076
      }
    },
    {
      "type": "tdpseTerbit",
      "id": 7019,
      "attributes": {
        "nomor_pb_umku": "912001321370600000011",
        "nama": "YOUTUBE (KLEANER INDONESIA)",
        "website": "-",
        "sektor": "Sektor Perdagangan",
        "nama_perusahaan": "INTERNUSA TERUS JAYA",
        "tanggal_daftar": "2022-07-19",
        "nomor_tanda_daftar": "002962.12/DJAI.PSE/07/2022",
        "qr_code": "https://pse.kominfo.go.id/storage/images/qr_code/685aef9b016eb2d30cef831b9fb4c6fd.png",
        "status_id": "SUSPENDED_BY_TAKEL",
        "sistem_elektronik_id": 6867
      }
    },
    {
      "type": "tdpseTerbit",
      "id": 4259,
      "attributes": {
        "nomor_pb_umku": "912001321370600000010",
        "nama": "GOOGLE (KLEANER INDONESIA)",
        "website": "-",
        "sektor": "Sektor Perdagangan",
        "nama_perusahaan": "INTERNUSA TERUS JAYA",
        "tanggal_daftar": "2022-06-07",
        "nomor_tanda_daftar": "002962.11/DJAI.PSE/06/2022",
        "qr_code": "https://pse.kominfo.go.id/storage/images/qr_code/693c3a32e7682545e2f73eda353835d3.png",
        "status_id": "SUSPENDED_BY_TAKEL",
        "sistem_elektronik_id": 4254
      }
    },
    {
      "type": "tdpseTerbit",
      "id": 4258,
      "attributes": {
        "nomor_pb_umku": "912001321370600000009",
        "nama": "TWITTER (@KLEANER_ID)",
        "website": "-",
        "sektor": "Sektor Perdagangan",
        "nama_perusahaan": "INTERNUSA TERUS JAYA",
        "tanggal_daftar": "2022-06-07",
        "nomor_tanda_daftar": "002962.10/DJAI.PSE/06/2022",
        "qr_code": "https://pse.kominfo.go.id/storage/images/qr_code/ce90581bba7b81ac0becb462572dd718.png",
        "status_id": "SUSPENDED_BY_TAKEL",
        "sistem_elektronik_id": 4253
      }
    },
    {
      "type": "tdpseTerbit",
      "id": 4256,
      "attributes": {
        "nomor_pb_umku": "912001321370600000008",
        "nama": "TIKTOK (@KLEANER.INDONESIA)",
        "website": "-",
        "sektor": "Sektor Perdagangan",
        "nama_perusahaan": "INTERNUSA TERUS JAYA",
        "tanggal_daftar": "2022-06-07",
        "nomor_tanda_daftar": "002962.09/DJAI.PSE/06/2022",
        "qr_code": "https://pse.kominfo.go.id/storage/images/qr_code/e8a354b2be5e8687440b8cf02dc077f8.png",
        "status_id": "SUSPENDED_BY_TAKEL",
        "sistem_elektronik_id": 4251
      }
    },
    {
      "type": "tdpseTerbit",
      "id": 4255,
      "attributes": {
        "nomor_pb_umku": "912001321370600000007",
        "nama": "LAZADA (KLEANER INDONESIA)",
        "website": "-",
        "sektor": "Sektor Perdagangan",
        "nama_perusahaan": "INTERNUSA TERUS JAYA",
        "tanggal_daftar": "2022-06-07",
        "nomor_tanda_daftar": "002962.08/DJAI.PSE/06/2022",
        "qr_code": "https://pse.kominfo.go.id/storage/images/qr_code/00968f6fd59afd1e0f2349d8689129fe.png",
        "status_id": "SUSPENDED_BY_TAKEL",
        "sistem_elektronik_id": 4250
      }
    },
    {
      "type": "tdpseTerbit",
      "id": 4254,
      "attributes": {
        "nomor_pb_umku": "912001321370600000006",
        "nama": "BUKALAPAK (KLEANER)",
        "website": "-",
        "sektor": "Sektor Perdagangan",
        "nama_perusahaan": "INTERNUSA TERUS JAYA",
        "tanggal_daftar": "2022-06-07",
        "nomor_tanda_daftar": "002962.07/DJAI.PSE/06/2022",
        "qr_code": "https://pse.kominfo.go.id/storage/images/qr_code/37c08947ecdc9a5203c459830bcf7d4d.png",
        "status_id": "SUSPENDED_BY_TAKEL",
        "sistem_elektronik_id": 4249
      }
    },
    {
      "type": "tdpseTerbit",
      "id": 4253,
      "attributes": {
        "nomor_pb_umku": "912001321370600000005",
        "nama": "SHOPEE (KLEANER OFFICIAL SHOP)",
        "website": "-",
        "sektor": "Sektor Perdagangan",
        "nama_perusahaan": "INTERNUSA TERUS JAYA",
        "tanggal_daftar": "2022-06-07",
        "nomor_tanda_daftar": "002962.06/DJAI.PSE/06/2022",
        "qr_code": "https://pse.kominfo.go.id/storage/images/qr_code/864797708b51dd1dbe0cced38284049f.png",
        "status_id": "SUSPENDED_BY_TAKEL",
        "sistem_elektronik_id": 4248
      }
    }
  ]
}