{
  "meta": {
    "page": {
      "currentPage": 4,
      "from": 31,
      "lastPage": 6,
      "perPage": 10,
      "to": 40,
      "total": 52
    }
  },
  "data": [
    {
      "type": "tdpseTerbit",
      "id": 4251,
      "attributes": {
        "nomor_pb_umku": "912001321370600000004",
        "nama": "TOKOPEDIA (KLEANER OFFICIAL STORE)",
        "website": "-",
        "sektor": "Sektor Perdagangan",
        "nama_perusahaan": "INTERNUSA TERUS JAYA",
        "tanggal_daftar": "2022-06-07",
        "nomor_tanda_daftar": "002962.05/DJAI.PSE/06/2022",
        "qr_code": "https://pse.kominfo.go.id/storage/images/qr_code/f5eeafdce6829468a3fe27725716f575.png",
        "status_id": "SUSPENDED_BY_TAKEL",
        "sistem_elektronik_id": 4247
      }
    },
    {
      "type": "tdpseTerbit",
      "id": 4250,
      "attributes": {
        "nomor_pb_umku": "912001321370600000003",
        "nama": "FACEBOOK (@KLEANER.INDONESIA)",
        "website": "-",
        "sektor": "Sektor Perdagangan",
        "nama_perusahaan": "INTERNUSA TERUS JAYA",
        "tanggal_daftar": "2022-06-07",
        "nomor_tanda_daftar": "002962.04/DJAI.PSE/06/2022",
        "qr_code": "https://pse.kominfo.go.id/storage/images/qr_code/2dfe3910ee4592c6b9d97f90e3b910e4.png",
        "status_id": "SUSPENDED_BY_TAKEL",
        "sistem_elektronik_id": 4246
      }
    },
    {
      "type": "tdpseTerbit",
      "id": 4236,
      "attributes": {
        "nomor_pb_umku": "912001321370600000001",
        "nama": "INSTAGRAM (@KLEANER.INDONESIA)",
        "website": "-",
        "sektor": "Sektor Perdagangan",
        "nama_perusahaan": "INTERNUSA TERUS JAYA",
        "tanggal_daftar": "2022-06-06",
        "nomor_tanda_daftar": "002962.02/DJAI.PSE/06/2022",
        "qr_code": "https://pse.kominfo.go.id/storage/images/qr_code/76b1ab839bdaa7f99146a3bf0814b0f4.png",
        "status_id": "SUSPENDED_BY_TAKEL",
        "sistem_elektronik_id": 4232
      }
    },
    {
      "type": "tdpseTerbit",
      "id": 4118,
      "attributes": {
        "nomor_pb_umku": "121700063012700070001",
        "nama": "SHINE ATTRACTION AMAZON",
        "website": "Amazon.com",
        "sektor": "Sektor Perdagangan",
        "nama_perusahaan": "FLUFFY VANILLA NUTS",
        "tanggal_daftar": "2022-05-24",
        "nomor_tanda_daftar": "002801.01/DJAI.PSE/05/2022",
        "qr_code": "https://pse.kominfo.go.id/storage/images/qr_code/fc6921e78be883686d9785a2f87dff62.png",
        "status_id": "SUSPENDED_BY_TAKEL",
        "sistem_elektronik_id": 4118
      }
    },
    {
      "type": "tdpseTerbit",
      "id": 4412,
      "attributes": {
        "nomor_pb_umku": null,
        "nama": "Silvi Accessories",
        "website": "shopee.co.id",
        "sektor": "Sektor Perdagangan",
        "nama_perusahaan": "ZELVI IRAWAN",
        "tanggal_daftar": "2022-05-06",
        "nomor_tanda_daftar": "002647.01/DJAI.PSE/05/2022",
        "qr_code": "https://pse.kominfo.go.id/storage/images/qr_code/c8c92f803e2afcb648c8f9e006087229.png",
        "status_id": "SUSPENDED_BY_TAKEL",
        "sistem_elektronik_id": 4396
      }
    },
    {
      "type": "tdpseTerbit",
      "id": 4393,
      "attributes": {
        "nomor_pb_umku": null,
        "nama": "FACEBOOK DAN MEDIA WEB LAINYA",
        "website": "-",
        "sektor": "Sektor Transportasi",
        "nama_perusahaan": "OMEGA PERKASA MANDIRI",
        "tanggal_daftar": "2022-04-27",
        "nomor_tanda_daftar": "002632.01/DJAI.PSE/04/2022",
        "qr_code": "https://pse.kominfo.go.id/storage/images/qr_code/97ea317dc651a08979f77ac21d354e60.png",
        "status_id": "SUSPENDED_BY_TAKEL",
        "sistem_elektronik_id": 4377
      }
    },
    {
      "type": "tdpseTerbit",
      "id": 6373,
      "attributes": {
        "nomor_pb_umku": null,
        "nama": "Whatsapp Bussiness",
        "website": "https://bkharisma.business.site//",
        "sektor": "Sektor Perdagangan, Sektor Teknologi Informasi dan Komunikasi",
        "nama_perusahaan": "KURNIA HASIBUAN ARISMA",
        "tanggal_daftar": "2022-04-24",
        "nomor_tanda_daftar": "002604.01/DJAI.PSE/04/2022",
        "qr_code": "https://pse.kominfo.go.id/storage/images/qr_code/a725c831499233aca1172c306b45dca4.png",
        "status_id": "SUSPENDED_BY_TAKEL",
        "sistem_elektronik_id": 3872
      }
    },
    {
      "type": "tdpseTerbit",
      "id": 3781,
      "attributes": {
        "nomor_pb_umku": null,
        "nama": "Jakarta Post etc,Facebook ,ESPN",
        "website": "www.availelok.co.id",
        "sektor": "Sektor Kesehatan, Sektor Perdagangan",
        "nama_perusahaan": "AVAIL ELOK INDONESIA",
        "tanggal_daftar": "2022-04-05",
        "nomor_tanda_daftar": "002455.01/DJAI.PSE/04/2022",
        "qr_code": "https://pse.kominfo.go.id/storage/images/qr_code/d6b6c4b210ef7bd4970822ce2cc5c6dc.png",
        "status_id": "SUSPENDED_BY_TAKEL",
        "sistem_elektronik_id": 3903
      }
    },
    {
      "type": "tdpseTerbit",
      "id": 3752,
      "attributes": {
        "nomor_pb_umku": null,
        "nama": "Instagram",
        "website": "-",
        "sektor": "Sektor Perdagangan",
        "nama_perusahaan": "KONVERSI PLASTIK BUMI LESTARI",
        "tanggal_daftar": "2022-04-02",
        "nomor_tanda_daftar": "002433.01/DJAI.PSE/04/2022",
        "qr_code": "https://pse.kominfo.go.id/storage/images/qr_code/1436db57a9e656ff42b2a086a289429f.png",
        "status_id": "SUSPENDED_BY_TAKEL",
        "sistem_elektronik_id": 3504
      }
    },
    {
      "type": "tdpseTerbit",
      "id": 3625,
      "attributes": {
        "nomor_pb_umku": null,
        "nama": "Google",
        "website": "-",
        "sektor": "Sektor Perdagangan, Sektor Teknologi Informasi dan Komunikasi",
        "nama_perusahaan": "CITRA LESTARI",
        "tanggal_daftar": "2022-03-23",
        "nomor_tanda_daftar": "002363.01/DJAI.PSE/03/2022",
        "qr_code": "https://pse.kominfo.go.id/storage/images/qr_code/c6c5afba38c7df6f7656086388f4ca7d.png",
        "status_id": "SUSPENDED_BY_TAKEL",
        "sistem_elektronik_id": 3644
      }
    }
  ]
}