{
  "meta": {
    "page": {
      "currentPage": 5,
      "from": 41,
      "lastPage": 6,
      "perPage": 10,
      "to": 50,
      "total": 52
    }
  },
  "data": [
    {
      "type": "tdpseTerbit",
      "id": 3547,
      "attributes": {
        "nomor_pb_umku": null,
        "nama": "FACEBOOK DAN MEDIA SOSIAL LAINYA",
        "website": "-",
        "sektor": "Sektor Perdagangan",
        "nama_perusahaan": "ADI SETIYAWAN",
        "tanggal_daftar": "2022-03-15",
        "nomor_tanda_daftar": "002312.01/DJAI.PSE/03/2022",
        "qr_code": "https://pse.kominfo.go.id/storage/images/qr_code/9188f35f23e29b09df14a72efe5b18ee.png",
        "status_id": "SUSPENDED_BY_TAKEL",
        "sistem_elektronik_id": 2993
      }
    },
    {
      "type": "tdpseTerbit",
      "id": 3546,
      "attributes": {
        "nomor_pb_umku": null,
        "nama": "- GMAIL dan  - Google Drive untuk Google Sheet dan Google Word",
        "website": "mail.gmail.com  & drive.google.com",
        "sektor": "Sektor Perdagangan",
        "nama_perusahaan": "NIRAH DIGITAL MEDIA",
        "tanggal_daftar": "2022-03-15",
        "nomor_tanda_daftar": "002311.01/DJAI.PSE/03/2022",
        "qr_code": "https://pse.kominfo.go.id/storage/images/qr_code/143aa0b899583248d851b8fcea1ea084.png",
        "status_id": "SUSPENDED_BY_TAKEL",
        "sistem_elektronik_id": 2939
      }
    },
    {
      "type": "tdpseTerbit",
      "id": 3315,
      "attributes": {
        "nomor_pb_umku": null,
        "nama": "GOOGLE",
        "website": "google.com",
        "sektor": "Sektor Perdagangan, Sektor Teknologi Informasi dan Komunikasi",
        "nama_perusahaan": "CV. DAUN JATI",
        "tanggal_daftar": "2022-02-18",
        "nomor_tanda_daftar": "002147.01/DJAI.PSE/02/2022",
        "qr_code": "https://pse.kominfo.go.id/storage/images/qr_code/533b87ddf3e0a914d519bf01e1a3542b.png",
        "status_id": "SUSPENDED_BY_TAKEL",
        "sistem_elektronik_id": 1732
      }
    },
    {
      "type": "tdpseTerbit",
      "id": 3037,
      "attributes": {
        "nomor_pb_umku": null,
        "nama": "Let’s Domino Gaple QiuQiu Poker Game Online",
        "website": "www.letusdomino.com",
        "sektor": "Sektor Teknologi Informasi dan Komunikasi",
        "nama_perusahaan": "FUN WORLD TECHNOLOGY",
        "tanggal_daftar": "2022-01-12",
        "nomor_tanda_daftar": "001942.01/DJAI.PSE/01/2022",
        "qr_code": "https://pse.kominfo.go.id/storage/images/qr_code/12009c58a325869d6aac00a84ddb8fa5.png",
        "status_id": "SUSPENDED_BY_PAI",
        "sistem_elektronik_id": 1614
      }
    },
    {
      "type": "tdpseTerbit",
      "id": 3989,
      "attributes": {
        "nomor_pb_umku": null,
        "nama": "BBTI Testing",
        "website": "-",
        "sektor": "Sektor Teknologi Informasi dan Komunikasi",
        "nama_perusahaan": "LAKU6 ONLINE INDONESIA",
        "tanggal_daftar": "2022-04-21",
        "nomor_tanda_daftar": "001807.05/DJAI.PSE/04/2022",
        "qr_code": "https://pse.kominfo.go.id/storage/images/qr_code/1be633380117dee6c0dddb08f60b5fb0.png",
        "status_id": "SUSPENDED_BY_TAKEL",
        "sistem_elektronik_id": 3956
      }
    },
    {
      "type": "tdpseTerbit",
      "id": 2507,
      "attributes": {
        "nomor_pb_umku": null,
        "nama": "facebook",
        "website": "-",
        "sektor": "Sektor Perdagangan",
        "nama_perusahaan": "MOCH YUSUF NOVI ARDIANSYAH",
        "tanggal_daftar": "2021-11-30",
        "nomor_tanda_daftar": "001660.01/DJAI.PSE/11/2021",
        "qr_code": "https://pse.kominfo.go.id/storage/images/qr_code/449e84b0f5cd6bae5760bb280aa29ff1.png",
        "status_id": "SUSPENDED_BY_TAKEL",
        "sistem_elektronik_id": 1740
      }
    },
    {
      "type": "tdpseTerbit",
      "id": 2153,
      "attributes": {
        "nomor_pb_umku": null,
        "nama": "ALLO BANK OLLA",
        "website": "api.whatsapp.com/send/?phone=%2B6282208224110&text&app_absent=0",
        "sektor": "Sektor Keuangan",
        "nama_perusahaan": "PT Allo Bank Indonesia Tbk",
        "tanggal_daftar": "2021-10-26",
        "nomor_tanda_daftar": "001435.06/DJAI.PSE/10/2021",
        "qr_code": "https://pse.kominfo.go.id/storage/images/qr_code/1ebb26bc467062d0cbc2c9c4c04f60d3.png",
        "status_id": "SUSPENDED_BY_TAKEL",
        "sistem_elektronik_id": 3341
      }
    },
    {
      "type": "tdpseTerbit",
      "id": 2128,
      "attributes": {
        "nomor_pb_umku": null,
        "nama": "MANDITO",
        "website": "www.whatsapp.com",
        "sektor": "Sektor Keuangan, Sektor Teknologi Informasi dan Komunikasi",
        "nama_perusahaan": "PT MANDITO DIGITAL TEKNOLOGI",
        "tanggal_daftar": "2021-10-26",
        "nomor_tanda_daftar": "001423.01/DJAI.PSE/10/2021",
        "qr_code": "https://pse.kominfo.go.id/storage/images/qr_code/1b904a6a7d944a0f884d49eb83c7e0e7.png",
        "status_id": "SUSPENDED_BY_TAKEL",
        "sistem_elektronik_id": 3038
      }
    },
    {
      "type": "tdpseTerbit",
      "id": 1747,
      "attributes": {
        "nomor_pb_umku": null,
        "nama": "Esquira-Hego's-Sunruble-Cocopack-GeraiSanlie",
        "website": "-",
        "sektor": "Sektor Perdagangan",
        "nama_perusahaan": "KAYUMANIS INTI MAKMUR",
        "tanggal_daftar": "2021-07-22",
        "nomor_tanda_daftar": "001161.01/DJAI.PSE/07/2021",
        "qr_code": "https://pse.kominfo.go.id/storage/images/qr_code/bf742a476560c25a8272fcd54b309aef.png",
        "status_id": "SUSPENDED_BY_TAKEL",
        "sistem_elektronik_id": 1295
      }
    },
    {
      "type": "tdpseTerbit",
      "id": 1929,
      "attributes": {
        "nomor_pb_umku": null,
        "nama": "Bank Mega Mila - Mega Intelligent Assistant",
        "website": "https://api.whatsapp.com/send/?phone=6282208225000&text=Hai&app_absent=0",
        "sektor": "Sektor Teknologi Informasi dan Komunikasi",
        "nama_perusahaan": "BANK MEGA",
        "tanggal_daftar": "2021-09-29",
        "nomor_tanda_daftar": "001040.17/DJAI.PSE/09/2021",
        "qr_code": "https://pse.kominfo.go.id/storage/images/qr_code/d41acc99be38c27aaae922fc5709af98.png",
        "status_id": "SUSPENDED_BY_TAKEL",
        "sistem_elektronik_id": 1167
      }
    }
  ]
}