{
  "meta": {
    "page": {
      "currentPage": 6,
      "from": 51,
      "lastPage": 6,
      "perPage": 10,
      "to": 60,
      "total": 52
    }
  },
  "data": [
    {
      "type": "tdpseTerbit",
      "id": 6641,
      "attributes": {
        "nomor_pb_umku": "912050483066500030004",
        "nama": "WHATSAPP BANKING",
        "website": "panel.damcorp.id",
        "sektor": "Sektor Keuangan",
        "nama_perusahaan": "BANK MANDIRI TASPEN",
        "tanggal_daftar": "2022-07-19",
        "nomor_tanda_daftar": "000851.05/DJAI.PSE/07/2022",
        "qr_code": "https://pse.kominfo.go.id/storage/images/qr_code/29b9f73b594e06140da9c42677aedaf3.png",
        "status_id": "SUSPENDED_BY_TAKEL",
        "sistem_elektronik_id": 6498
      }
    },
    {
      "type": "tdpseTerbit",
      "id": 523,
      "attributes": {
        "nomor_pb_umku": null,
        "nama": "Steve Domino QiuQiu Poker Slots Game Online",
        "website": "http://www.steveziogames.com",
        "sektor": "Sektor Perdagangan, Sektor Teknologi Informasi dan Komunikasi",
        "nama_perusahaan": "STEVE ZIO GAMES",
        "tanggal_daftar": "2021-04-20",
        "nomor_tanda_daftar": "000426.01/DJAI.PSE/04/2021",
        "qr_code": "https://pse.kominfo.go.id/storage/images/qr_code/c49811af706de3737a91e219a2de41e6.png",
        "status_id": "SUSPENDED_BY_PAI",
        "sistem_elektronik_id": 333
      }
    }
  ]
}