{
  "meta": {
    "page": {
      "currentPage": 1,
      "from": 1,
      "lastPage": 1063,
      "perPage": 10,
      "to": 10,
      "total": 10630
    }
  },
  "data": [
    {
      "type": "tdpseTerbit",
      "id": 11831,
      "attributes": {
        "nomor_pb_umku": "912020091277100000003",
        "nama": "HAYUNI",
        "website": "hayuni.id",
        "sektor": "Sektor Teknologi Informasi dan Komunikasi",
        "nama_perusahaan": "HAYUNI AMAN SEJAHTERA",
        "tanggal_daftar": "2022-10-17",
        "nomor_tanda_daftar": "008140.01/DJAI.PSE/10/2022",
        "qr_code": "https://pse.kominfo.go.id/storage/images/qr_code/ce5a2addb9213831d953a58edcc80dda.png",
        "status_id": "TERDAFTAR",
        "sistem_elektronik_id": 11634
      }
    },
    {
      "type": "tdpseTerbit",
      "id": 11834,
      "attributes": {
        "nomor_pb_umku": "240122005840500000001",
        "nama": "MEKARI FLEX",
        "website": "mekari.com",
        "sektor": "Sektor Teknologi Informasi dan Komunikasi",
        "nama_perusahaan": "CIPTA FASILITAS SATU",
        "tanggal_daftar": "2022-10-17",
        "nomor_tanda_daftar": "008139.01/DJAI.PSE/10/2022",
        "qr_code": "https://pse.kominfo.go.id/storage/images/qr_code/f1e21656484131767c5b1cf46e963fa4.png",
        "status_id": "TERDAFTAR",
        "sistem_elektronik_id": 11637
      }
    },
    {
      "type": "tdpseTerbit",
      "id": 11829,
      "attributes": {
        "nomor_pb_umku": "230622002618900000001",
        "nama": "FLEXY TECHNOLOGY",
        "website": "flexy.id",
        "sektor": "Sektor Perdagangan, Sektor Teknologi Informasi dan Komunikasi",
        "nama_perusahaan": "FLEXI TEKNOLOGI INDONESIA",
        "tanggal_daftar": "2022-10-17",
        "nomor_tanda_daftar": "008138.01/DJAI.PSE/10/2022",
        "qr_code": "https://pse.kominfo.go.id/storage/images/qr_code/84deebb44a3e643797afd2ac9d085865.png",
        "status_id": "TERDAFTAR",
        "sistem_elektronik_id": 11631
      }
    },
    {
      "type": "tdpseTerbit",
      "id": 11833,
      "attributes": {
        "nomor_pb_umku": "022010543239800010002",
        "nama": "FINPEDIA",
        "website": "finpedia.id",
        "sektor": "Sektor Keuangan",
        "nama_perusahaan": "SOLUSI INKLUSI FINANSIAL",
        "tanggal_daftar": "2022-10-17",
        "nomor_tanda_daftar": "008136.01/DJAI.PSE/10/2022",
        "qr_code": "https://pse.kominfo.go.id/storage/images/qr_code/b72e96842608f25e809367b40563914a.png",
        "status_id": "TERDAFTAR",
        "sistem_elektronik_id": 11636
      }
    },
    {
      "type": "tdpseTerbit",
      "id": 11827,
      "attributes": {
        "nomor_pb_umku": "912010383089500010001",
        "nama": "ISLAMIC BANKING APLICATION (IBA)",
        "website": "bprsgma.co.id",
        "sektor": "Sektor Keuangan",
        "nama_perusahaan": "BANK PEMBIAYAAN RAKYAT SYARIAH GALA MITRA ABADI",
        "tanggal_daftar": "2022-10-17",
        "nomor_tanda_daftar": "008135.01/DJAI.PSE/10/2022",
        "qr_code": "https://pse.kominfo.go.id/storage/images/qr_code/348a3a295733afc1fcfcac1042ead671.png",
        "status_id": "TERDAFTAR",
        "sistem_elektronik_id": 11629
      }
    },
    {
      "type": "tdpseTerbit",
      "id": 11828,
      "attributes": {
        "nomor_pb_umku": "912011018015600000003",
        "nama": "SERUNI",
        "website": "seruniaman.id",
        "sektor": "Sektor Teknologi Informasi dan Komunikasi",
        "nama_perusahaan": "SERUNI AMAN SEJAHTERA",
        "tanggal_daftar": "2022-10-17",
        "nomor_tanda_daftar": "008134.01/DJAI.PSE/10/2022",
        "qr_code": "https://pse.kominfo.go.id/storage/images/qr_code/c01adb167f42ee0e01042301dc633528.png",
        "status_id": "TERDAFTAR",
        "sistem_elektronik_id": 11630
      }
    },
    {
      "type": "tdpseTerbit",
      "id": 11821,
      "attributes": {
        "nomor_pb_umku": "912010659033900050001",
        "nama": "BERANDATOKO",
        "website": "jatismobile.com",
        "sektor": "Sektor Teknologi Informasi dan Komunikasi",
        "nama_perusahaan": "JASA KELOLA ASIA",
        "tanggal_daftar": "2022-10-17",
        "nomor_tanda_daftar": "008130.01/DJAI.PSE/10/2022",
        "qr_code": "https://pse.kominfo.go.id/storage/images/qr_code/52795cae65790a9c1493f4fe5b54b17a.png",
        "status_id": "TERDAFTAR",
        "sistem_elektronik_id": 11623
      }
    },
    {
      "type": "tdpseTerbit",
      "id": 11820,
      "attributes": {
        "nomor_pb_umku": "080822002533100010001",
        "nama": "ISOCARE CLINIC",
        "website": "isomedik.com",
        "sektor": "Sektor Kesehatan, Sektor Teknologi Informasi dan Komunikasi",
        "nama_perusahaan": "INTEGRITAS SOLUSI MEDIKA",
        "tanggal_daftar": "2022-10-17",
        "nomor_tanda_daftar": "008129.01/DJAI.PSE/10/2022",
        "qr_code": "https://pse.kominfo.go.id/storage/images/qr_code/ae988eb69d9b666547e5fd67f7d525bb.png",
        "status_id": "TERDAFTAR",
        "sistem_elektronik_id": 11622
      }
    },
    {
      "type": "tdpseTerbit",
      "id": 11814,
      "attributes": {
        "nomor_pb_umku": "121021000374500000001",
        "nama": "AQIQAHUP.ID",
        "website": "aqiqahup.id",
        "sektor": "Sektor Teknologi Informasi dan Komunikasi",
        "nama_perusahaan": "M AKBAR PRIBADI",
        "tanggal_daftar": "2022-10-16",
        "nomor_tanda_daftar": "008126.01/DJAI.PSE/10/2022",
        "qr_code": "https://pse.kominfo.go.id/storage/images/qr_code/b42c6acd7cc19b4165629251e38bd21b.png",
        "status_id": "TERDAFTAR",
        "sistem_elektronik_id": 11616
      }
    },
    {
      "type": "tdpseTerbit",
      "id": 11813,
      "attributes": {
        "nomor_pb_umku": "010822004071900000001",
        "nama": "DELIFREE",
        "website": "-",
        "sektor": "Sektor Perdagangan",
        "nama_perusahaan": "RIAN YULIANDRI",
        "tanggal_daftar": "2022-10-15",
        "nomor_tanda_daftar": "008124.01/DJAI.PSE/10/2022",
        "qr_code": "https://pse.kominfo.go.id/storage/images/qr_code/61b449609ae6408e9432f7476ec2623e.png",
        "status_id": "TERDAFTAR",
        "sistem_elektronik_id": 11615
      }
    }
  ]
}