{
  "meta": {
    "page": {
      "currentPage": 2,
      "from": 11,
      "lastPage": 985,
      "perPage": 10,
      "to": 20,
      "total": 9842
    }
  },
  "data": [
    {
      "type": "tdpseTerbit",
      "id": 10676,
      "attributes": {
        "nomor_pb_umku": "220822006556600000001",
        "nama": "WWW.BINNEWSTV.COM",
        "website": "binnewstv.com",
        "sektor": "Sektor Teknologi Informasi dan Komunikasi",
        "nama_perusahaan": "BINTANG NUSANTARA FAMILY",
        "tanggal_daftar": "2022-08-22",
        "nomor_tanda_daftar": "007425.01/DJAI.PSE/08/2022",
        "qr_code": "https://pse.kominfo.go.id/storage/images/qr_code/2c66bb697ec5a24154fc3281fc90ebe4.png",
        "status_id": "TERDAFTAR",
        "sistem_elektronik_id": 10509
      }
    },
    {
      "type": "tdpseTerbit",
      "id": 10687,
      "attributes": {
        "nomor_pb_umku": "",
        "nama": "WEBSITE",
        "website": "bpram.co.id",
        "sektor": "Sektor Teknologi Informasi dan Komunikasi",
        "nama_perusahaan": "BANK PERKREDITAN RAKYAT ARTHA MERTOYUDAN",
        "tanggal_daftar": "2022-08-23",
        "nomor_tanda_daftar": "007424.01/DJAI.PSE/08/2022",
        "qr_code": "https://pse.kominfo.go.id/storage/images/qr_code/441129f06247593a07ea6b8104e86e26.png",
        "status_id": "TERDAFTAR",
        "sistem_elektronik_id": 10520
      }
    },
    {
      "type": "tdpseTerbit",
      "id": 10710,
      "attributes": {
        "nomor_pb_umku": "200822001434300000001",
        "nama": "BPR UKABIMA BMMS",
        "website": "ukabima-bmms.co.id",
        "sektor": "Sektor Keuangan",
        "nama_perusahaan": "BANK PERKREDITAN RAKYAT UKABIMA BMMS",
        "tanggal_daftar": "2022-08-23",
        "nomor_tanda_daftar": "007423.01/DJAI.PSE/08/2022",
        "qr_code": "https://pse.kominfo.go.id/storage/images/qr_code/7830567dc2fab2c25a30c4ed389eedac.png",
        "status_id": "TERDAFTAR",
        "sistem_elektronik_id": 10507
      }
    },
    {
      "type": "tdpseTerbit",
      "id": 10680,
      "attributes": {
        "nomor_pb_umku": "912020511148200000001",
        "nama": "INFINESSEGLOBAL.COM",
        "website": "infinesseglobal.com",
        "sektor": "Sektor Perdagangan",
        "nama_perusahaan": "INFINESSE SEMPURNA ABADI",
        "tanggal_daftar": "2022-08-22",
        "nomor_tanda_daftar": "007422.01/DJAI.PSE/08/2022",
        "qr_code": "https://pse.kominfo.go.id/storage/images/qr_code/af0b7bf5e22fa4ebf9e32e22746c701e.png",
        "status_id": "TERDAFTAR",
        "sistem_elektronik_id": 10513
      }
    },
    {
      "type": "tdpseTerbit",
      "id": 10719,
      "attributes": {
        "nomor_pb_umku": "120822004671100010003",
        "nama": "POT2.PILARMAS-INVESTINDO.CO.ID",
        "website": "pot2.pilarmas-investindo.co.id",
        "sektor": "Sektor Keuangan",
        "nama_perusahaan": "PILARMAS INVESTINDO SEKURITAS",
        "tanggal_daftar": "2022-08-23",
        "nomor_tanda_daftar": "007421.03/DJAI.PSE/08/2022",
        "qr_code": "https://pse.kominfo.go.id/storage/images/qr_code/fcce0c9bd38ef72fb3067acfa5b49223.png",
        "status_id": "TERDAFTAR",
        "sistem_elektronik_id": 10551
      }
    },
    {
      "type": "tdpseTerbit",
      "id": 10702,
      "attributes": {
        "nomor_pb_umku": "120822004671100010002",
        "nama": "POT.PILARMAS-INVESTINDO.CO.ID",
        "website": "pot.pilarmas-investindo.co.id",
        "sektor": "Sektor Keuangan",
        "nama_perusahaan": "PILARMAS INVESTINDO SEKURITAS",
        "tanggal_daftar": "2022-08-23",
        "nomor_tanda_daftar": "007421.02/DJAI.PSE/08/2022",
        "qr_code": "https://pse.kominfo.go.id/storage/images/qr_code/26d840ab12c7bffa1e11bd7d769d0779.png",
        "status_id": "TERDAFTAR",
        "sistem_elektronik_id": 10535
      }
    },
    {
      "type": "tdpseTerbit",
      "id": 10699,
      "attributes": {
        "nomor_pb_umku": "120822004671100010001",
        "nama": "PILARMAS ONLINE TRADING",
        "website": "-",
        "sektor": "Sektor Keuangan",
        "nama_perusahaan": "PILARMAS INVESTINDO SEKURITAS",
        "tanggal_daftar": "2022-08-23",
        "nomor_tanda_daftar": "007421.01/DJAI.PSE/08/2022",
        "qr_code": "https://pse.kominfo.go.id/storage/images/qr_code/ca6806ef7fa45780fba98853c5c2fce2.png",
        "status_id": "TERDAFTAR",
        "sistem_elektronik_id": 10533
      }
    },
    {
      "type": "tdpseTerbit",
      "id": 10673,
      "attributes": {
        "nomor_pb_umku": "022000662032700010001",
        "nama": "VIUGRAPH",
        "website": "viugraph.com",
        "sektor": "Sektor Teknologi Informasi dan Komunikasi",
        "nama_perusahaan": "SVARGA INDOMULIA MEDIATAMA",
        "tanggal_daftar": "2022-08-22",
        "nomor_tanda_daftar": "007420.01/DJAI.PSE/08/2022",
        "qr_code": "https://pse.kominfo.go.id/storage/images/qr_code/a82cbb38f3735dddf411c22fc162ed3c.png",
        "status_id": "TERDAFTAR",
        "sistem_elektronik_id": 10505
      }
    },
    {
      "type": "tdpseTerbit",
      "id": 10716,
      "attributes": {
        "nomor_pb_umku": "128500033044700080001",
        "nama": "WWW.MINUMYUKKAKA.COM",
        "website": "-",
        "sektor": "Sektor Perdagangan",
        "nama_perusahaan": "MINUM YUK KAKA",
        "tanggal_daftar": "2022-08-23",
        "nomor_tanda_daftar": "007418.01/DJAI.PSE/08/2022",
        "qr_code": "https://pse.kominfo.go.id/storage/images/qr_code/ba6defe556bd37151cf784ee586ebbd5.png",
        "status_id": "TERDAFTAR",
        "sistem_elektronik_id": 10547
      }
    },
    {
      "type": "tdpseTerbit",
      "id": 10666,
      "attributes": {
        "nomor_pb_umku": "260522002750800010001",
        "nama": "KILAT",
        "website": "-",
        "sektor": "Sektor Perdagangan, Sektor Transportasi, Sektor Teknologi Informasi dan Komunikasi",
        "nama_perusahaan": "KILAT HALILINTAR INDONESIA",
        "tanggal_daftar": "2022-08-22",
        "nomor_tanda_daftar": "007416.01/DJAI.PSE/08/2022",
        "qr_code": "https://pse.kominfo.go.id/storage/images/qr_code/6fe09e8ad686e2a0a3524ff9ba77a949.png",
        "status_id": "TERDAFTAR",
        "sistem_elektronik_id": 10499
      }
    }
  ]
}