{
  "meta": {
    "page": {
      "currentPage": 11,
      "from": 101,
      "lastPage": 1001,
      "perPage": 10,
      "to": 110,
      "total": 10002
    }
  },
  "data": [
    {
      "type": "tdpseTerbit",
      "id": 10690,
      "attributes": {
        "nomor_pb_umku": "022000659114700010001",
        "nama": "BPRBKKLASEM@YAHOO.COM",
        "website": "bprbkklasem.co.id",
        "sektor": "Sektor Teknologi Informasi dan Komunikasi",
        "nama_perusahaan": "BPR BKK LASEM PERSERODA",
        "tanggal_daftar": "2022-08-23",
        "nomor_tanda_daftar": "007439.01/DJAI.PSE/08/2022",
        "qr_code": "https://pse.kominfo.go.id/storage/images/qr_code/b072fa98d732f7d322ba00c56d69044c.png",
        "status_id": "TERDAFTAR",
        "sistem_elektronik_id": 10523
      }
    },
    {
      "type": "tdpseTerbit",
      "id": 10802,
      "attributes": {
        "nomor_pb_umku": "022010336043800010001",
        "nama": "EDUPARX",
        "website": "-",
        "sektor": "Sektor Teknologi Informasi dan Komunikasi",
        "nama_perusahaan": "INIXINDO WIDYA ISWARA NUSANTARA",
        "tanggal_daftar": "2022-08-25",
        "nomor_tanda_daftar": "007438.01/DJAI.PSE/08/2022",
        "qr_code": "https://pse.kominfo.go.id/storage/images/qr_code/bd8929e2cc9f0bc3644bd19dbf673a23.png",
        "status_id": "TERDAFTAR",
        "sistem_elektronik_id": 10601
      }
    },
    {
      "type": "tdpseTerbit",
      "id": 10696,
      "attributes": {
        "nomor_pb_umku": "300322004380900090002",
        "nama": "WEPOS.ID",
        "website": "wepos.id",
        "sektor": "Sektor Perdagangan, Sektor Teknologi Informasi dan Komunikasi",
        "nama_perusahaan": "RANARA CREATIVE STUDIO",
        "tanggal_daftar": "2022-08-23",
        "nomor_tanda_daftar": "007436.02/DJAI.PSE/08/2022",
        "qr_code": "https://pse.kominfo.go.id/storage/images/qr_code/86f57cc92bebe99423f3220b1a971c20.png",
        "status_id": "TERDAFTAR",
        "sistem_elektronik_id": 10531
      }
    },
    {
      "type": "tdpseTerbit",
      "id": 10686,
      "attributes": {
        "nomor_pb_umku": "300322004380900090001",
        "nama": "WEPOS",
        "website": "wepos.id",
        "sektor": "Sektor Perdagangan, Sektor Teknologi Informasi dan Komunikasi",
        "nama_perusahaan": "RANARA CREATIVE STUDIO",
        "tanggal_daftar": "2022-08-22",
        "nomor_tanda_daftar": "007436.01/DJAI.PSE/08/2022",
        "qr_code": "https://pse.kominfo.go.id/storage/images/qr_code/e1b48e0251497ccaa5c38ce5344bb3d1.png",
        "status_id": "TERDAFTAR",
        "sistem_elektronik_id": 10519
      }
    },
    {
      "type": "tdpseTerbit",
      "id": 10891,
      "attributes": {
        "nomor_pb_umku": "180122004005700010001",
        "nama": "RAIHMIMPI",
        "website": "raihmimpi.id",
        "sektor": "Sektor Teknologi Informasi dan Komunikasi",
        "nama_perusahaan": "RAIHMIMPI ANAK BANGSA",
        "tanggal_daftar": "2022-08-30",
        "nomor_tanda_daftar": "007432.01/DJAI.PSE/08/2022",
        "qr_code": "https://pse.kominfo.go.id/storage/images/qr_code/d137f1e0014fd99ef3b063cea8f39fab.png",
        "status_id": "TERDAFTAR",
        "sistem_elektronik_id": 10703
      }
    },
    {
      "type": "tdpseTerbit",
      "id": 10679,
      "attributes": {
        "nomor_pb_umku": "912030162278200040003",
        "nama": "ECKLIK",
        "website": "ecklik.com",
        "sektor": "Sektor Perdagangan",
        "nama_perusahaan": "BISMACINDO PERKASA",
        "tanggal_daftar": "2022-08-22",
        "nomor_tanda_daftar": "007426.01/DJAI.PSE/08/2022",
        "qr_code": "https://pse.kominfo.go.id/storage/images/qr_code/1e4593f8a29dcd762af15b9e4b409186.png",
        "status_id": "TERDAFTAR",
        "sistem_elektronik_id": 10510
      }
    },
    {
      "type": "tdpseTerbit",
      "id": 10676,
      "attributes": {
        "nomor_pb_umku": "220822006556600000001",
        "nama": "WWW.BINNEWSTV.COM",
        "website": "binnewstv.com",
        "sektor": "Sektor Teknologi Informasi dan Komunikasi",
        "nama_perusahaan": "BINTANG NUSANTARA FAMILY",
        "tanggal_daftar": "2022-08-22",
        "nomor_tanda_daftar": "007425.01/DJAI.PSE/08/2022",
        "qr_code": "https://pse.kominfo.go.id/storage/images/qr_code/2c66bb697ec5a24154fc3281fc90ebe4.png",
        "status_id": "TERDAFTAR",
        "sistem_elektronik_id": 10509
      }
    },
    {
      "type": "tdpseTerbit",
      "id": 10687,
      "attributes": {
        "nomor_pb_umku": "",
        "nama": "WEBSITE",
        "website": "bpram.co.id",
        "sektor": "Sektor Teknologi Informasi dan Komunikasi",
        "nama_perusahaan": "BANK PERKREDITAN RAKYAT ARTHA MERTOYUDAN",
        "tanggal_daftar": "2022-08-23",
        "nomor_tanda_daftar": "007424.01/DJAI.PSE/08/2022",
        "qr_code": "https://pse.kominfo.go.id/storage/images/qr_code/441129f06247593a07ea6b8104e86e26.png",
        "status_id": "TERDAFTAR",
        "sistem_elektronik_id": 10520
      }
    },
    {
      "type": "tdpseTerbit",
      "id": 10710,
      "attributes": {
        "nomor_pb_umku": "200822001434300000001",
        "nama": "BPR UKABIMA BMMS",
        "website": "ukabima-bmms.co.id",
        "sektor": "Sektor Keuangan",
        "nama_perusahaan": "BANK PERKREDITAN RAKYAT UKABIMA BMMS",
        "tanggal_daftar": "2022-08-23",
        "nomor_tanda_daftar": "007423.01/DJAI.PSE/08/2022",
        "qr_code": "https://pse.kominfo.go.id/storage/images/qr_code/7830567dc2fab2c25a30c4ed389eedac.png",
        "status_id": "TERDAFTAR",
        "sistem_elektronik_id": 10507
      }
    },
    {
      "type": "tdpseTerbit",
      "id": 10680,
      "attributes": {
        "nomor_pb_umku": "912020511148200000001",
        "nama": "INFINESSEGLOBAL.COM",
        "website": "infinesseglobal.com",
        "sektor": "Sektor Perdagangan",
        "nama_perusahaan": "INFINESSE SEMPURNA ABADI",
        "tanggal_daftar": "2022-08-22",
        "nomor_tanda_daftar": "007422.01/DJAI.PSE/08/2022",
        "qr_code": "https://pse.kominfo.go.id/storage/images/qr_code/af0b7bf5e22fa4ebf9e32e22746c701e.png",
        "status_id": "TERDAFTAR",
        "sistem_elektronik_id": 10513
      }
    }
  ]
}