{
  "meta": {
    "page": {
      "currentPage": 1001,
      "from": 10001,
      "lastPage": 1072,
      "perPage": 10,
      "to": 10010,
      "total": 10718
    }
  },
  "data": [
    {
      "type": "tdpseTerbit",
      "id": 461,
      "attributes": {
        "nomor_pb_umku": null,
        "nama": "MNC Play",
        "website": "https://www.mncplay.id",
        "sektor": "Sektor Teknologi Informasi dan Komunikasi",
        "nama_perusahaan": "MNC KABEL MEDIACOM",
        "tanggal_daftar": "2021-04-14",
        "nomor_tanda_daftar": "000376.01/DJAI.PSE/04/2021",
        "qr_code": "https://pse.kominfo.go.id/storage/images/qr_code/4bd330ff9e473fcef0fed00234d4fc65.png",
        "status_id": "TERDAFTAR",
        "sistem_elektronik_id": 278
      }
    },
    {
      "type": "tdpseTerbit",
      "id": 460,
      "attributes": {
        "nomor_pb_umku": null,
        "nama": "Gaji.id",
        "website": "https://gaji.id",
        "sektor": "Sektor Teknologi Informasi dan Komunikasi",
        "nama_perusahaan": "SOFCO GRAHA",
        "tanggal_daftar": "2021-04-14",
        "nomor_tanda_daftar": "000375.01/DJAI.PSE/04/2021",
        "qr_code": "https://pse.kominfo.go.id/storage/images/qr_code/951a6db08a0e597d063cd7787463aad0.png",
        "status_id": "TERDAFTAR",
        "sistem_elektronik_id": 209
      }
    },
    {
      "type": "tdpseTerbit",
      "id": 459,
      "attributes": {
        "nomor_pb_umku": null,
        "nama": "MIGO EBIKE",
        "website": "www.migo-ebike.id",
        "sektor": "Sektor Transportasi",
        "nama_perusahaan": "MIGO ANUGERAH SINERGI",
        "tanggal_daftar": "2021-04-14",
        "nomor_tanda_daftar": "000374.01/DJAI.PSE/04/2021",
        "qr_code": "https://pse.kominfo.go.id/storage/images/qr_code/e82a366e13213497e88551890956a969.png",
        "status_id": "TERDAFTAR",
        "sistem_elektronik_id": 263
      }
    },
    {
      "type": "tdpseTerbit",
      "id": 5523,
      "attributes": {
        "nomor_pb_umku": "812021410008400010001",
        "nama": "JURAGANDISKON",
        "website": "juragandiskon.id",
        "sektor": "Sektor Perdagangan, Sektor Teknologi Informasi dan Komunikasi",
        "nama_perusahaan": "ANUGERAH BINTANG INSANI",
        "tanggal_daftar": "2022-07-13",
        "nomor_tanda_daftar": "000373.02/DJAI.PSE/07/2022",
        "qr_code": "https://pse.kominfo.go.id/storage/images/qr_code/9717bbe82695105fb211611a77521439.png",
        "status_id": "TERDAFTAR",
        "sistem_elektronik_id": 5389
      }
    },
    {
      "type": "tdpseTerbit",
      "id": 458,
      "attributes": {
        "nomor_pb_umku": null,
        "nama": "FOODNESIA",
        "website": "www. foodnesia. Id",
        "sektor": "Sektor Perdagangan",
        "nama_perusahaan": "ANUGERAH BINTANG INSANI",
        "tanggal_daftar": "2021-04-14",
        "nomor_tanda_daftar": "000373.01/DJAI.PSE/04/2021",
        "qr_code": "https://pse.kominfo.go.id/storage/images/qr_code/23ca42e8096c55226265071c495a513c.png",
        "status_id": "TERDAFTAR",
        "sistem_elektronik_id": 266
      }
    },
    {
      "type": "tdpseTerbit",
      "id": 456,
      "attributes": {
        "nomor_pb_umku": null,
        "nama": "PT Bareksa Inovasi Digital",
        "website": "www.bareksa.com",
        "sektor": "Sektor Perdagangan",
        "nama_perusahaan": "BAREKSA INOVASI DIGITAL",
        "tanggal_daftar": "2021-04-14",
        "nomor_tanda_daftar": "000372.01/DJAI.PSE/04/2021",
        "qr_code": "https://pse.kominfo.go.id/storage/images/qr_code/81d7e95c2a20bbd9708bf9ae9e150da0.png",
        "status_id": "TERDAFTAR",
        "sistem_elektronik_id": 2711
      }
    },
    {
      "type": "tdpseTerbit",
      "id": 457,
      "attributes": {
        "nomor_pb_umku": null,
        "nama": "sbuxcard.com",
        "website": "sbuxcard.com",
        "sektor": "Sektor Perdagangan",
        "nama_perusahaan": "SARI COFFEE INDONESIA",
        "tanggal_daftar": "2021-04-14",
        "nomor_tanda_daftar": "000371.02/DJAI.PSE/04/2021",
        "qr_code": "https://pse.kominfo.go.id/storage/images/qr_code/31931f2e83d096ca3b76567f4a510ad4.png",
        "status_id": "TERDAFTAR",
        "sistem_elektronik_id": 269
      }
    },
    {
      "type": "tdpseTerbit",
      "id": 455,
      "attributes": {
        "nomor_pb_umku": null,
        "nama": "starbucks.co.id",
        "website": "starbucks.co.id",
        "sektor": "Sektor Perdagangan",
        "nama_perusahaan": "SARI COFFEE INDONESIA",
        "tanggal_daftar": "2021-04-14",
        "nomor_tanda_daftar": "000371.01/DJAI.PSE/04/2021",
        "qr_code": "https://pse.kominfo.go.id/storage/images/qr_code/cbde29395fd3e2955ab9a6e1862430d1.png",
        "status_id": "TERDAFTAR",
        "sistem_elektronik_id": 268
      }
    },
    {
      "type": "tdpseTerbit",
      "id": 454,
      "attributes": {
        "nomor_pb_umku": null,
        "nama": "Bliaja.com",
        "website": "https://bliaja.com/",
        "sektor": "Sektor Perdagangan",
        "nama_perusahaan": "CENTRAL PLOTTER INDONESIA",
        "tanggal_daftar": "2021-04-14",
        "nomor_tanda_daftar": "000370.01/DJAI.PSE/04/2021",
        "qr_code": "https://pse.kominfo.go.id/storage/images/qr_code/b82ee7a269e6b93bb6e180fe7c751886.png",
        "status_id": "TERDAFTAR",
        "sistem_elektronik_id": 272
      }
    },
    {
      "type": "tdpseTerbit",
      "id": 453,
      "attributes": {
        "nomor_pb_umku": null,
        "nama": "Sipundi.id",
        "website": "http://sipundi.id/",
        "sektor": "Sektor Teknologi Informasi dan Komunikasi",
        "nama_perusahaan": "SOLUSI PUNDI INDONESIA",
        "tanggal_daftar": "2021-04-14",
        "nomor_tanda_daftar": "000369.01/DJAI.PSE/04/2021",
        "qr_code": "https://pse.kominfo.go.id/storage/images/qr_code/ebac4c188fb82278762c40eb8f88eafa.png",
        "status_id": "TERDAFTAR",
        "sistem_elektronik_id": 137
      }
    }
  ]
}