{
  "meta": {
    "page": {
      "currentPage": 1002,
      "from": 10011,
      "lastPage": 1086,
      "perPage": 10,
      "to": 10020,
      "total": 10851
    }
  },
  "data": [
    {
      "type": "tdpseTerbit",
      "id": 603,
      "attributes": {
        "nomor_pb_umku": null,
        "nama": "PAPRIKA",
        "website": "https://paprika.co.id/",
        "sektor": "Sektor Keuangan",
        "nama_perusahaan": "PAPRIKA MULTI MEDIA",
        "tanggal_daftar": "2021-04-26",
        "nomor_tanda_daftar": "000454.03/DJAI.PSE/04/2021",
        "qr_code": "https://pse.kominfo.go.id/storage/images/qr_code/80e03fcd404071ec80b704229722938f.png",
        "status_id": "TERDAFTAR",
        "sistem_elektronik_id": 3246
      }
    },
    {
      "type": "tdpseTerbit",
      "id": 583,
      "attributes": {
        "nomor_pb_umku": null,
        "nama": "PAPRIKA",
        "website": "https://paprika.co.id/",
        "sektor": "Sektor Keuangan",
        "nama_perusahaan": "PAPRIKA MULTI MEDIA",
        "tanggal_daftar": "2021-04-26",
        "nomor_tanda_daftar": "000454.02/DJAI.PSE/04/2021",
        "qr_code": "https://pse.kominfo.go.id/storage/images/qr_code/89360e07e2bffad7f17a71e37ce053db.png",
        "status_id": "TERDAFTAR",
        "sistem_elektronik_id": 3245
      }
    },
    {
      "type": "tdpseTerbit",
      "id": 558,
      "attributes": {
        "nomor_pb_umku": null,
        "nama": "PAPRIKA",
        "website": "https://paprika.co.id/",
        "sektor": "Sektor Keuangan",
        "nama_perusahaan": "PAPRIKA MULTI MEDIA",
        "tanggal_daftar": "2021-04-26",
        "nomor_tanda_daftar": "000454.01/DJAI.PSE/04/2021",
        "qr_code": "https://pse.kominfo.go.id/storage/images/qr_code/4c4006cc3070c8682edd398dc073f208.png",
        "status_id": "TERDAFTAR",
        "sistem_elektronik_id": 3244
      }
    },
    {
      "type": "tdpseTerbit",
      "id": 5024,
      "attributes": {
        "nomor_pb_umku": "912050589239700010002",
        "nama": "MOTIONBANKING.ID",
        "website": "motionbanking.id",
        "sektor": "Sektor Keuangan",
        "nama_perusahaan": "BANK MNC INTERNASIONAL",
        "tanggal_daftar": "2022-07-01",
        "nomor_tanda_daftar": "000453.03/DJAI.PSE/07/2022",
        "qr_code": "https://pse.kominfo.go.id/storage/images/qr_code/1c008d167b8567d464cc9a77fa683fd5.png",
        "status_id": "TERDAFTAR",
        "sistem_elektronik_id": 4877
      }
    },
    {
      "type": "tdpseTerbit",
      "id": 5015,
      "attributes": {
        "nomor_pb_umku": "912050589239700010001",
        "nama": "WEBSITE PT BANK MNC INTERNASIONAL TBK",
        "website": "mncbank.co.id",
        "sektor": "Sektor Keuangan",
        "nama_perusahaan": "BANK MNC INTERNASIONAL",
        "tanggal_daftar": "2022-07-01",
        "nomor_tanda_daftar": "000453.02/DJAI.PSE/07/2022",
        "qr_code": "https://pse.kominfo.go.id/storage/images/qr_code/8dbebcab5759fcd3222b1e037d896eb3.png",
        "status_id": "TERDAFTAR",
        "sistem_elektronik_id": 4876
      }
    },
    {
      "type": "tdpseTerbit",
      "id": 557,
      "attributes": {
        "nomor_pb_umku": null,
        "nama": "Motion dan eBiz",
        "website": "ebiz : https://cms.mncbank.co.id",
        "sektor": "Sektor Keuangan",
        "nama_perusahaan": "BANK MNC INTERNASIONAL",
        "tanggal_daftar": "2021-04-26",
        "nomor_tanda_daftar": "000453.01/DJAI.PSE/04/2021",
        "qr_code": "https://pse.kominfo.go.id/storage/images/qr_code/d1454bb756267d6454e7b85d700c8bf1.png",
        "status_id": "TERDAFTAR",
        "sistem_elektronik_id": 3356
      }
    },
    {
      "type": "tdpseTerbit",
      "id": 556,
      "attributes": {
        "nomor_pb_umku": null,
        "nama": "Wahed Invest",
        "website": "www.wahedinvest.co.id",
        "sektor": "Sektor Keuangan",
        "nama_perusahaan": "WAHED INVESTASI INDONESIA",
        "tanggal_daftar": "2021-04-26",
        "nomor_tanda_daftar": "000452.01/DJAI.PSE/04/2021",
        "qr_code": "https://pse.kominfo.go.id/storage/images/qr_code/506cd66cde856fd7a10afd53d44ac2f7.png",
        "status_id": "TERDAFTAR",
        "sistem_elektronik_id": 267
      }
    },
    {
      "type": "tdpseTerbit",
      "id": 555,
      "attributes": {
        "nomor_pb_umku": null,
        "nama": "klikUMKM",
        "website": "https://www.klikumkm.co.id/",
        "sektor": "Sektor Keuangan",
        "nama_perusahaan": "PINJAMAN KEMAKMURAN RAKYAT",
        "tanggal_daftar": "2021-04-26",
        "nomor_tanda_daftar": "000451.01/DJAI.PSE/04/2021",
        "qr_code": "https://pse.kominfo.go.id/storage/images/qr_code/95f6bd5aa5e2ec2c8390f66425096f22.png",
        "status_id": "TERDAFTAR",
        "sistem_elektronik_id": 337
      }
    },
    {
      "type": "tdpseTerbit",
      "id": 705,
      "attributes": {
        "nomor_pb_umku": null,
        "nama": "Smart Store Indonesia (SSI)",
        "website": "www.smartstoreindonesia.com",
        "sektor": "Sektor Perdagangan, Sektor Teknologi Informasi dan Komunikasi",
        "nama_perusahaan": "SANGKURIANG SAKTI INDONESIA",
        "tanggal_daftar": "2021-04-26",
        "nomor_tanda_daftar": "000450.02/DJAI.PSE/04/2021",
        "qr_code": "https://pse.kominfo.go.id/storage/images/qr_code/0f695e1ce220c395de80e4cf5d419328.png",
        "status_id": "TERDAFTAR",
        "sistem_elektronik_id": 3243
      }
    },
    {
      "type": "tdpseTerbit",
      "id": 554,
      "attributes": {
        "nomor_pb_umku": null,
        "nama": "Smart Store Indonesia (SSI)",
        "website": "www.smartstoreindonesia.com",
        "sektor": "Sektor Perdagangan, Sektor Teknologi Informasi dan Komunikasi",
        "nama_perusahaan": "SANGKURIANG SAKTI INDONESIA",
        "tanggal_daftar": "2021-04-26",
        "nomor_tanda_daftar": "000450.01/DJAI.PSE/04/2021",
        "qr_code": "https://pse.kominfo.go.id/storage/images/qr_code/d6838cc583f9dacbea62bd06c44ef7fb.png",
        "status_id": "TERDAFTAR",
        "sistem_elektronik_id": 3242
      }
    }
  ]
}