{
  "meta": {
    "page": {
      "currentPage": 1004,
      "from": 10031,
      "lastPage": 1025,
      "perPage": 10,
      "to": 10040,
      "total": 10245
    }
  },
  "data": [
    {
      "type": "tdpseTerbit",
      "id": 4527,
      "attributes": {
        "nomor_pb_umku": null,
        "nama": "Spotgue Tenant",
        "website": "www.spotgue.com",
        "sektor": "Sektor Teknologi Informasi dan Komunikasi",
        "nama_perusahaan": "SPOTGUE APLIKASI PRATAMA",
        "tanggal_daftar": "2021-02-24",
        "nomor_tanda_daftar": "000127.02/DJAI.PSE/02/2021",
        "qr_code": "https://pse.kominfo.go.id/storage/images/qr_code/1557b66965b66b40ceeb9c062a7d685d.png",
        "status_id": "TERDAFTAR",
        "sistem_elektronik_id": 4511
      }
    },
    {
      "type": "tdpseTerbit",
      "id": 4526,
      "attributes": {
        "nomor_pb_umku": null,
        "nama": "Spotgue",
        "website": "www.spotgue.com",
        "sektor": "Sektor Teknologi Informasi dan Komunikasi",
        "nama_perusahaan": "SPOTGUE APLIKASI PRATAMA",
        "tanggal_daftar": "2021-02-24",
        "nomor_tanda_daftar": "000127.01/DJAI.PSE/02/2021",
        "qr_code": "https://pse.kominfo.go.id/storage/images/qr_code/fd23558c780c1fd39dd49767d1095563.png",
        "status_id": "TERDAFTAR",
        "sistem_elektronik_id": 4510
      }
    },
    {
      "type": "tdpseTerbit",
      "id": 140,
      "attributes": {
        "nomor_pb_umku": null,
        "nama": "Flash Mobile",
        "website": "flashmobile.co.id",
        "sektor": "Sektor Teknologi Informasi dan Komunikasi",
        "nama_perusahaan": "FLASH MOBILE",
        "tanggal_daftar": "2021-02-24",
        "nomor_tanda_daftar": "000126.01/DJAI.PSE/02/2021",
        "qr_code": "https://pse.kominfo.go.id/storage/images/qr_code/d91e16225e7adbd95d65792f3d7a1dc2.png",
        "status_id": "TERDAFTAR",
        "sistem_elektronik_id": 2320
      }
    },
    {
      "type": "tdpseTerbit",
      "id": 294,
      "attributes": {
        "nomor_pb_umku": null,
        "nama": "Lababook",
        "website": "www.lababook.com",
        "sektor": "Sektor Keuangan, Sektor Teknologi Informasi dan Komunikasi",
        "nama_perusahaan": "LABA KISAH KARUNIA",
        "tanggal_daftar": "2021-03-04",
        "nomor_tanda_daftar": "000125.02/DJAI.PSE/03/2021",
        "qr_code": "https://pse.kominfo.go.id/storage/images/qr_code/3d780c2a0b358241b0e02561bffe2f36.png",
        "status_id": "TERDAFTAR",
        "sistem_elektronik_id": 2518
      }
    },
    {
      "type": "tdpseTerbit",
      "id": 139,
      "attributes": {
        "nomor_pb_umku": null,
        "nama": "Lababook",
        "website": "www.lababook.com",
        "sektor": "Sektor Keuangan, Sektor Teknologi Informasi dan Komunikasi",
        "nama_perusahaan": "LABA KISAH KARUNIA",
        "tanggal_daftar": "2021-02-24",
        "nomor_tanda_daftar": "000125.01/DJAI.PSE/02/2021",
        "qr_code": "https://pse.kominfo.go.id/storage/images/qr_code/ace05650fadc98161cee8abc98b2b078.png",
        "status_id": "TERDAFTAR",
        "sistem_elektronik_id": 2517
      }
    },
    {
      "type": "tdpseTerbit",
      "id": 136,
      "attributes": {
        "nomor_pb_umku": null,
        "nama": "GGPin",
        "website": "www.ggpin.id",
        "sektor": "Sektor Teknologi Informasi dan Komunikasi",
        "nama_perusahaan": "GGPIN INDONESIA MAKMUR",
        "tanggal_daftar": "2021-02-24",
        "nomor_tanda_daftar": "000123.01/DJAI.PSE/02/2021",
        "qr_code": "https://pse.kominfo.go.id/storage/images/qr_code/03ff6523aa3129a5899d56c7b1c7915b.png",
        "status_id": "TERDAFTAR",
        "sistem_elektronik_id": 2557
      }
    },
    {
      "type": "tdpseTerbit",
      "id": 135,
      "attributes": {
        "nomor_pb_umku": null,
        "nama": "BookingDokter",
        "website": "www.bookingdokter.com",
        "sektor": "Sektor Kesehatan",
        "nama_perusahaan": "SOLUSI RESERVASI SEHAT",
        "tanggal_daftar": "2021-02-24",
        "nomor_tanda_daftar": "000122.01/DJAI.PSE/02/2021",
        "qr_code": "https://pse.kominfo.go.id/storage/images/qr_code/ac5b8808e9e4d1e9537a6a981bc9ac6d.png",
        "status_id": "TERDAFTAR",
        "sistem_elektronik_id": 2480
      }
    },
    {
      "type": "tdpseTerbit",
      "id": 360,
      "attributes": {
        "nomor_pb_umku": null,
        "nama": "temprina.co.id",
        "website": "temprina.co.id",
        "sektor": "Sektor Perdagangan",
        "nama_perusahaan": "TEMPRINA MEDIA GRAFIKA",
        "tanggal_daftar": "2021-03-10",
        "nomor_tanda_daftar": "000121.02/DJAI.PSE/03/2021",
        "qr_code": "https://pse.kominfo.go.id/storage/images/qr_code/78e3c608c230d20a4f17696b502f09bb.png",
        "status_id": "TERDAFTAR",
        "sistem_elektronik_id": 2546
      }
    },
    {
      "type": "tdpseTerbit",
      "id": 134,
      "attributes": {
        "nomor_pb_umku": null,
        "nama": "jpstore.id",
        "website": "jpstore.id",
        "sektor": "Sektor Perdagangan",
        "nama_perusahaan": "TEMPRINA MEDIA GRAFIKA",
        "tanggal_daftar": "2021-02-24",
        "nomor_tanda_daftar": "000121.01/DJAI.PSE/02/2021",
        "qr_code": "https://pse.kominfo.go.id/storage/images/qr_code/6d494f32d2406ecce93aadd6f4c78c92.png",
        "status_id": "TERDAFTAR",
        "sistem_elektronik_id": 2545
      }
    },
    {
      "type": "tdpseTerbit",
      "id": 133,
      "attributes": {
        "nomor_pb_umku": null,
        "nama": "Hiberlin.co.id",
        "website": "Hiberlin.co.id",
        "sektor": "Sektor Perdagangan",
        "nama_perusahaan": "JAYA BERDIKARI TEKNOLOGI INFORMATIKA",
        "tanggal_daftar": "2021-02-24",
        "nomor_tanda_daftar": "000120.01/DJAI.PSE/02/2021",
        "qr_code": "https://pse.kominfo.go.id/storage/images/qr_code/42b783f923ca3055c3dad1a1a0ba2e08.png",
        "status_id": "TERDAFTAR",
        "sistem_elektronik_id": 2435
      }
    }
  ]
}