{
  "meta": {
    "page": {
      "currentPage": 1005,
      "from": 10041,
      "lastPage": 1044,
      "perPage": 10,
      "to": 10050,
      "total": 10437
    }
  },
  "data": [
    {
      "type": "tdpseTerbit",
      "id": 7598,
      "attributes": {
        "nomor_pb_umku": "912020150003700010004",
        "nama": "BRAVO",
        "website": "bravo.generali.co.id",
        "sektor": "Sektor Keuangan",
        "nama_perusahaan": "ASURANSI JIWA GENERALI INDONESIA",
        "tanggal_daftar": "2022-07-20",
        "nomor_tanda_daftar": "000217.13/DJAI.PSE/07/2022",
        "qr_code": "https://pse.kominfo.go.id/storage/images/qr_code/8c2728b6f6c7700340f9684d35568e1a.png",
        "status_id": "TERDAFTAR",
        "sistem_elektronik_id": 7485
      }
    },
    {
      "type": "tdpseTerbit",
      "id": 5744,
      "attributes": {
        "nomor_pb_umku": "912020150003700010003",
        "nama": "IPROPOSE YOU",
        "website": "-",
        "sektor": "Sektor Keuangan",
        "nama_perusahaan": "ASURANSI JIWA GENERALI INDONESIA",
        "tanggal_daftar": "2022-07-15",
        "nomor_tanda_daftar": "000217.12/DJAI.PSE/07/2022",
        "qr_code": "https://pse.kominfo.go.id/storage/images/qr_code/35ef5298a153c20881cdec20a9e7f6aa.png",
        "status_id": "TERDAFTAR",
        "sistem_elektronik_id": 5609
      }
    },
    {
      "type": "tdpseTerbit",
      "id": 5732,
      "attributes": {
        "nomor_pb_umku": "912020150003700010002",
        "nama": "AKUBERBAGI.COM",
        "website": "akuberbagi.com",
        "sektor": "Sektor Keuangan",
        "nama_perusahaan": "ASURANSI JIWA GENERALI INDONESIA",
        "tanggal_daftar": "2022-07-15",
        "nomor_tanda_daftar": "000217.11/DJAI.PSE/07/2022",
        "qr_code": "https://pse.kominfo.go.id/storage/images/qr_code/a6d03af5a74d3ea513699ce509256a3f.png",
        "status_id": "TERDAFTAR",
        "sistem_elektronik_id": 5595
      }
    },
    {
      "type": "tdpseTerbit",
      "id": 2105,
      "attributes": {
        "nomor_pb_umku": null,
        "nama": "iRecruit",
        "website": "https://irecruit-wa.generali.co.id/#/",
        "sektor": "Sektor Keuangan",
        "nama_perusahaan": "ASURANSI JIWA GENERALI INDONESIA",
        "tanggal_daftar": "2021-10-26",
        "nomor_tanda_daftar": "000217.10/DJAI.PSE/10/2021",
        "qr_code": "https://pse.kominfo.go.id/storage/images/qr_code/f4c66f02bcbc99db75acda5d75858090.png",
        "status_id": "TERDAFTAR",
        "sistem_elektronik_id": 2694
      }
    },
    {
      "type": "tdpseTerbit",
      "id": 2083,
      "attributes": {
        "nomor_pb_umku": null,
        "nama": "iLearn",
        "website": "https://ilearn.generali.co.id",
        "sektor": "Sektor Keuangan",
        "nama_perusahaan": "ASURANSI JIWA GENERALI INDONESIA",
        "tanggal_daftar": "2021-10-26",
        "nomor_tanda_daftar": "000217.09/DJAI.PSE/10/2021",
        "qr_code": "https://pse.kominfo.go.id/storage/images/qr_code/7b0787d444d38703011ea2883e7f8b5b.png",
        "status_id": "TERDAFTAR",
        "sistem_elektronik_id": 2693
      }
    },
    {
      "type": "tdpseTerbit",
      "id": 1527,
      "attributes": {
        "nomor_pb_umku": null,
        "nama": "iservices.generali.co.id",
        "website": "https://iservices.generali.co.id",
        "sektor": "Sektor Keuangan",
        "nama_perusahaan": "ASURANSI JIWA GENERALI INDONESIA",
        "tanggal_daftar": "2021-06-24",
        "nomor_tanda_daftar": "000217.08/DJAI.PSE/06/2021",
        "qr_code": "https://pse.kominfo.go.id/storage/images/qr_code/d728fa5f0cab4ee02ae70dce8e5f4512.png",
        "status_id": "TERDAFTAR",
        "sistem_elektronik_id": 2692
      }
    },
    {
      "type": "tdpseTerbit",
      "id": 1526,
      "attributes": {
        "nomor_pb_umku": null,
        "nama": "iPropose",
        "website": "-",
        "sektor": "Sektor Keuangan",
        "nama_perusahaan": "ASURANSI JIWA GENERALI INDONESIA",
        "tanggal_daftar": "2021-06-24",
        "nomor_tanda_daftar": "000217.07/DJAI.PSE/06/2021",
        "qr_code": "https://pse.kominfo.go.id/storage/images/qr_code/0824f7fa9a967ccfc48b2384d577a234.png",
        "status_id": "TERDAFTAR",
        "sistem_elektronik_id": 2691
      }
    },
    {
      "type": "tdpseTerbit",
      "id": 1412,
      "attributes": {
        "nomor_pb_umku": null,
        "nama": "iclick.generali.co.id",
        "website": "https://iclick.generali.co.id",
        "sektor": "Sektor Keuangan",
        "nama_perusahaan": "ASURANSI JIWA GENERALI INDONESIA",
        "tanggal_daftar": "2021-06-09",
        "nomor_tanda_daftar": "000217.06/DJAI.PSE/06/2021",
        "qr_code": "https://pse.kominfo.go.id/storage/images/qr_code/7caa6f042a7c2f2c84c13b7a2797a1d2.png",
        "status_id": "TERDAFTAR",
        "sistem_elektronik_id": 2690
      }
    },
    {
      "type": "tdpseTerbit",
      "id": 1391,
      "attributes": {
        "nomor_pb_umku": null,
        "nama": "Gen iClick",
        "website": "-",
        "sektor": "Sektor Keuangan",
        "nama_perusahaan": "ASURANSI JIWA GENERALI INDONESIA",
        "tanggal_daftar": "2021-06-09",
        "nomor_tanda_daftar": "000217.05/DJAI.PSE/06/2021",
        "qr_code": "https://pse.kominfo.go.id/storage/images/qr_code/829fb83eab06114807751af156822f11.png",
        "status_id": "TERDAFTAR",
        "sistem_elektronik_id": 2689
      }
    },
    {
      "type": "tdpseTerbit",
      "id": 1390,
      "attributes": {
        "nomor_pb_umku": null,
        "nama": "iconnectagency.generali.co.id",
        "website": "https://iconnectagency.generali.co.id/",
        "sektor": "Sektor Keuangan",
        "nama_perusahaan": "ASURANSI JIWA GENERALI INDONESIA",
        "tanggal_daftar": "2021-06-02",
        "nomor_tanda_daftar": "000217.04/DJAI.PSE/06/2021",
        "qr_code": "https://pse.kominfo.go.id/storage/images/qr_code/bb06c8d61c3d305c318c01b0596e2dab.png",
        "status_id": "TERDAFTAR",
        "sistem_elektronik_id": 2688
      }
    }
  ]
}