{
  "meta": {
    "page": {
      "currentPage": 1006,
      "from": 10051,
      "lastPage": 1055,
      "perPage": 10,
      "to": 10060,
      "total": 10545
    }
  },
  "data": [
    {
      "type": "tdpseTerbit",
      "id": 342,
      "attributes": {
        "nomor_pb_umku": null,
        "nama": "CTBC Digital Lending",
        "website": "https://eloan.ctbcbank.co.id/danacinta; (landing page) Ktadigital.com, Ktainstan.com, Danacintadigital.com",
        "sektor": "Sektor Keuangan",
        "nama_perusahaan": "BANK CTBC INDONESIA",
        "tanggal_daftar": "2021-03-09",
        "nomor_tanda_daftar": "000270.02/DJAI.PSE/03/2021",
        "qr_code": "https://pse.kominfo.go.id/storage/images/qr_code/265d8a5efd3c2715b5b88a3299bc0450.png",
        "status_id": "TERDAFTAR",
        "sistem_elektronik_id": 17
      }
    },
    {
      "type": "tdpseTerbit",
      "id": 319,
      "attributes": {
        "nomor_pb_umku": null,
        "nama": "CTBC Website",
        "website": "https://ctbcbank.co.id/",
        "sektor": "Sektor Keuangan",
        "nama_perusahaan": "BANK CTBC INDONESIA",
        "tanggal_daftar": "2021-03-04",
        "nomor_tanda_daftar": "000270.01/DJAI.PSE/03/2021",
        "qr_code": "https://pse.kominfo.go.id/storage/images/qr_code/7bebee63faf180f32b47ac6a71e2dade.png",
        "status_id": "TERDAFTAR",
        "sistem_elektronik_id": 16
      }
    },
    {
      "type": "tdpseTerbit",
      "id": 318,
      "attributes": {
        "nomor_pb_umku": null,
        "nama": "Direct Sales Portal (DSP)",
        "website": "www.etiqa.co.id",
        "sektor": "Sektor Keuangan",
        "nama_perusahaan": "ASURANSI ETIQA INTERNASIONAL INDONESIA",
        "tanggal_daftar": "2021-03-04",
        "nomor_tanda_daftar": "000269.01/DJAI.PSE/03/2021",
        "qr_code": "https://pse.kominfo.go.id/storage/images/qr_code/06ddcb68ba6707ad4e69b5c1f8684e1d.png",
        "status_id": "TERDAFTAR",
        "sistem_elektronik_id": 2771
      }
    },
    {
      "type": "tdpseTerbit",
      "id": 317,
      "attributes": {
        "nomor_pb_umku": null,
        "nama": "Unicoop",
        "website": "http://unicoop.id/",
        "sektor": "Sektor Teknologi Informasi dan Komunikasi",
        "nama_perusahaan": "VASCOMM SOLUSI TEKNOLOGI",
        "tanggal_daftar": "2021-03-04",
        "nomor_tanda_daftar": "000268.01/DJAI.PSE/03/2021",
        "qr_code": "https://pse.kominfo.go.id/storage/images/qr_code/43f58b6b0edf994dd2e8daffb57aa234.png",
        "status_id": "TERDAFTAR",
        "sistem_elektronik_id": 2735
      }
    },
    {
      "type": "tdpseTerbit",
      "id": 316,
      "attributes": {
        "nomor_pb_umku": null,
        "nama": "PLM STORE",
        "website": "http://store.penawarlegendamaju.co.id/",
        "sektor": "Sektor Perdagangan",
        "nama_perusahaan": "PERSAUDARAAN LINTAS MANDIRI JAYA",
        "tanggal_daftar": "2021-03-04",
        "nomor_tanda_daftar": "000267.01/DJAI.PSE/03/2021",
        "qr_code": "https://pse.kominfo.go.id/storage/images/qr_code/e036a3c387fbd9ba8bab0bafb395ce73.png",
        "status_id": "TERDAFTAR",
        "sistem_elektronik_id": 92
      }
    },
    {
      "type": "tdpseTerbit",
      "id": 315,
      "attributes": {
        "nomor_pb_umku": null,
        "nama": "MyDoctors",
        "website": "https://mydoctors.id",
        "sektor": "Sektor Kesehatan, Sektor Perdagangan",
        "nama_perusahaan": "MYDOCTORS INDONESIA NUSANTARA TEKNOLOGI",
        "tanggal_daftar": "2021-03-04",
        "nomor_tanda_daftar": "000266.01/DJAI.PSE/03/2021",
        "qr_code": "https://pse.kominfo.go.id/storage/images/qr_code/6ddfb7a7c1652653db8c2211fc5e26cd.png",
        "status_id": "TERDAFTAR",
        "sistem_elektronik_id": 94
      }
    },
    {
      "type": "tdpseTerbit",
      "id": 314,
      "attributes": {
        "nomor_pb_umku": null,
        "nama": "Tokocrypto",
        "website": "https://www.tokocrypto.com/",
        "sektor": "Sektor Perdagangan",
        "nama_perusahaan": "ASET DIGITAL BERKAT",
        "tanggal_daftar": "2021-03-04",
        "nomor_tanda_daftar": "000265.01/DJAI.PSE/03/2021",
        "qr_code": "https://pse.kominfo.go.id/storage/images/qr_code/c7f442e8e90637999e1ff7994b71445f.png",
        "status_id": "TERDAFTAR",
        "sistem_elektronik_id": 3509
      }
    },
    {
      "type": "tdpseTerbit",
      "id": 312,
      "attributes": {
        "nomor_pb_umku": null,
        "nama": "Gudang Game",
        "website": "https://gudanggame.id/",
        "sektor": "Sektor Perdagangan",
        "nama_perusahaan": "GUDANG INOVASI INDONESIA",
        "tanggal_daftar": "2021-03-04",
        "nomor_tanda_daftar": "000264.01/DJAI.PSE/03/2021",
        "qr_code": "https://pse.kominfo.go.id/storage/images/qr_code/89e0a0c340bb424c32aacb88263e422f.png",
        "status_id": "TERDAFTAR",
        "sistem_elektronik_id": 52
      }
    },
    {
      "type": "tdpseTerbit",
      "id": 311,
      "attributes": {
        "nomor_pb_umku": null,
        "nama": "Nono_Style",
        "website": "www.nonostyle.id",
        "sektor": "Sektor Perdagangan",
        "nama_perusahaan": "NONO STYLE INDONESIA",
        "tanggal_daftar": "2021-03-04",
        "nomor_tanda_daftar": "000263.01/DJAI.PSE/03/2021",
        "qr_code": "https://pse.kominfo.go.id/storage/images/qr_code/9822905554e59a6516aa9e121b93c78c.png",
        "status_id": "TERDAFTAR",
        "sistem_elektronik_id": 2731
      }
    },
    {
      "type": "tdpseTerbit",
      "id": 310,
      "attributes": {
        "nomor_pb_umku": null,
        "nama": "REERACOEN INDONESIA",
        "website": "www.reeracoen.co.id",
        "sektor": "Sektor Teknologi Informasi dan Komunikasi",
        "nama_perusahaan": "REERACOEN INDONESIA",
        "tanggal_daftar": "2021-03-04",
        "nomor_tanda_daftar": "000262.01/DJAI.PSE/03/2021",
        "qr_code": "https://pse.kominfo.go.id/storage/images/qr_code/517abaa78b7033b03b8ecd3e6d6a265f.png",
        "status_id": "TERDAFTAR",
        "sistem_elektronik_id": 21
      }
    }
  ]
}