{
  "meta": {
    "page": {
      "currentPage": 1007,
      "from": 10061,
      "lastPage": 1059,
      "perPage": 10,
      "to": 10070,
      "total": 10586
    }
  },
  "data": [
    {
      "type": "tdpseTerbit",
      "id": 350,
      "attributes": {
        "nomor_pb_umku": null,
        "nama": "Jasa penitipan pembelian melalui sistem online",
        "website": "www.titipbeliin.com",
        "sektor": "Sektor Perdagangan, Sektor Teknologi Informasi dan Komunikasi",
        "nama_perusahaan": "TITIPBELIIN GLOBAL INTERNASIONAL",
        "tanggal_daftar": "2021-03-09",
        "nomor_tanda_daftar": "000289.01/DJAI.PSE/03/2021",
        "qr_code": "https://pse.kominfo.go.id/storage/images/qr_code/5341ebb832826f645526c55f0b36f9cf.png",
        "status_id": "TERDAFTAR",
        "sistem_elektronik_id": 116
      }
    },
    {
      "type": "tdpseTerbit",
      "id": 348,
      "attributes": {
        "nomor_pb_umku": null,
        "nama": "Aplikasi Super",
        "website": "superapp.id",
        "sektor": "Sektor Perdagangan",
        "nama_perusahaan": "KRAKATAU KARYA ABADI",
        "tanggal_daftar": "2021-03-09",
        "nomor_tanda_daftar": "000288.01/DJAI.PSE/03/2021",
        "qr_code": "https://pse.kominfo.go.id/storage/images/qr_code/0306a5b0afef01fe95dc8bbabc78eaa7.png",
        "status_id": "TERDAFTAR",
        "sistem_elektronik_id": 124
      }
    },
    {
      "type": "tdpseTerbit",
      "id": 347,
      "attributes": {
        "nomor_pb_umku": null,
        "nama": "insankreatif.co.id",
        "website": "http://insankreatif.co.id/",
        "sektor": "Sektor Perdagangan",
        "nama_perusahaan": "AURA INSAN KREATIF",
        "tanggal_daftar": "2021-03-09",
        "nomor_tanda_daftar": "000287.01/DJAI.PSE/03/2021",
        "qr_code": "https://pse.kominfo.go.id/storage/images/qr_code/1e4a42d8ce76c8440817e4848a4f9403.png",
        "status_id": "TERDAFTAR",
        "sistem_elektronik_id": 123
      }
    },
    {
      "type": "tdpseTerbit",
      "id": 343,
      "attributes": {
        "nomor_pb_umku": null,
        "nama": "Digital Exchange Indonesia",
        "website": "https://digitalexchange.id/",
        "sektor": "Sektor Perdagangan",
        "nama_perusahaan": "INDONESIA DIGITAL EXCHANGE",
        "tanggal_daftar": "2021-03-09",
        "nomor_tanda_daftar": "000286.01/DJAI.PSE/03/2021",
        "qr_code": "https://pse.kominfo.go.id/storage/images/qr_code/bc4dd12144245e579ee65f90576c00d9.png",
        "status_id": "TERDAFTAR",
        "sistem_elektronik_id": 117
      }
    },
    {
      "type": "tdpseTerbit",
      "id": 341,
      "attributes": {
        "nomor_pb_umku": null,
        "nama": "Relasi Bisnis Bersama",
        "website": "www.rbb-world.com",
        "sektor": "Sektor Teknologi Informasi dan Komunikasi",
        "nama_perusahaan": "MAHAKARYA CITRA INTERNASIONAL",
        "tanggal_daftar": "2021-03-09",
        "nomor_tanda_daftar": "000285.01/DJAI.PSE/03/2021",
        "qr_code": "https://pse.kominfo.go.id/storage/images/qr_code/85f25a0f8bf935eb3305ffe34dd813e8.png",
        "status_id": "TERDAFTAR",
        "sistem_elektronik_id": 2649
      }
    },
    {
      "type": "tdpseTerbit",
      "id": 340,
      "attributes": {
        "nomor_pb_umku": null,
        "nama": "ArtaKu",
        "website": "http://artaku.id/",
        "sektor": "Sektor Keuangan",
        "nama_perusahaan": "SARANA PASAR DIGITAL",
        "tanggal_daftar": "2021-03-08",
        "nomor_tanda_daftar": "000284.01/DJAI.PSE/03/2021",
        "qr_code": "https://pse.kominfo.go.id/storage/images/qr_code/0043e6b94db1b90760ecb1cf41c965ba.png",
        "status_id": "TERDAFTAR",
        "sistem_elektronik_id": 122
      }
    },
    {
      "type": "tdpseTerbit",
      "id": 339,
      "attributes": {
        "nomor_pb_umku": null,
        "nama": "PT. INSPIRE MULTI SOLUSINDO",
        "website": "www.inspiremultisolusindo.com",
        "sektor": "Sektor Perdagangan, Sektor Teknologi Informasi dan Komunikasi",
        "nama_perusahaan": "INSPIRE MULTI SOLUSINDO",
        "tanggal_daftar": "2021-03-08",
        "nomor_tanda_daftar": "000283.01/DJAI.PSE/03/2021",
        "qr_code": "https://pse.kominfo.go.id/storage/images/qr_code/1ffca97196fd67e9fae4ff515b2ffec4.png",
        "status_id": "TERDAFTAR",
        "sistem_elektronik_id": 2738
      }
    },
    {
      "type": "tdpseTerbit",
      "id": 470,
      "attributes": {
        "nomor_pb_umku": null,
        "nama": "eBuy",
        "website": "www.ebuy.com",
        "sektor": "Sektor Perdagangan, Sektor Teknologi Informasi dan Komunikasi",
        "nama_perusahaan": "ETOP GLOBAL TECHNOLOGY",
        "tanggal_daftar": "2021-04-19",
        "nomor_tanda_daftar": "000282.02/DJAI.PSE/04/2021",
        "qr_code": "https://pse.kominfo.go.id/storage/images/qr_code/4f8a9d3d946f5073786b46283b42217a.png",
        "status_id": "TERDAFTAR",
        "sistem_elektronik_id": 2793
      }
    },
    {
      "type": "tdpseTerbit",
      "id": 337,
      "attributes": {
        "nomor_pb_umku": null,
        "nama": "eBuy",
        "website": "www.ebuy.com",
        "sektor": "Sektor Perdagangan",
        "nama_perusahaan": "ETOP GLOBAL TECHNOLOGY",
        "tanggal_daftar": "2021-03-08",
        "nomor_tanda_daftar": "000282.01/DJAI.PSE/03/2021",
        "qr_code": "https://pse.kominfo.go.id/storage/images/qr_code/f230a5634a0503ed45f4e790bd2642fb.png",
        "status_id": "TERDAFTAR",
        "sistem_elektronik_id": 2792
      }
    },
    {
      "type": "tdpseTerbit",
      "id": 336,
      "attributes": {
        "nomor_pb_umku": null,
        "nama": "Popaket",
        "website": "https://www.popaket.com/",
        "sektor": "Sektor Perdagangan, Sektor Teknologi Informasi dan Komunikasi, Sektor Transportasi",
        "nama_perusahaan": "TRADARU DIGITAL NIAGA",
        "tanggal_daftar": "2021-03-05",
        "nomor_tanda_daftar": "000281.01/DJAI.PSE/03/2021",
        "qr_code": "https://pse.kominfo.go.id/storage/images/qr_code/d00924acf5a58560ed778f20ac0d24b6.png",
        "status_id": "TERDAFTAR",
        "sistem_elektronik_id": 115
      }
    }
  ]
}