{
  "meta": {
    "page": {
      "currentPage": 1008,
      "from": 10071,
      "lastPage": 1052,
      "perPage": 10,
      "to": 10080,
      "total": 10513
    }
  },
  "data": [
    {
      "type": "tdpseTerbit",
      "id": 272,
      "attributes": {
        "nomor_pb_umku": null,
        "nama": "PGMALL ECOMMERCE INDONESIA",
        "website": "https://pgmall.co.id/",
        "sektor": "Sektor Perdagangan, Sektor Teknologi Informasi dan Komunikasi",
        "nama_perusahaan": "PGMALL ECOMMERCE INDONESIA",
        "tanggal_daftar": "2021-02-26",
        "nomor_tanda_daftar": "000232.02/DJAI.PSE/02/2021",
        "qr_code": "https://pse.kominfo.go.id/storage/images/qr_code/a1d78a0a8b514870bb82513baca1931a.png",
        "status_id": "TERDAFTAR",
        "sistem_elektronik_id": 44
      }
    },
    {
      "type": "tdpseTerbit",
      "id": 271,
      "attributes": {
        "nomor_pb_umku": null,
        "nama": "PGMALL ECOMMERCE INDONESIA",
        "website": "pgmall.co.id",
        "sektor": "Sektor Perdagangan, Sektor Teknologi Informasi dan Komunikasi",
        "nama_perusahaan": "PGMALL ECOMMERCE INDONESIA",
        "tanggal_daftar": "2021-02-26",
        "nomor_tanda_daftar": "000232.01/DJAI.PSE/02/2021",
        "qr_code": "https://pse.kominfo.go.id/storage/images/qr_code/e66c488d182285408047428053dba619.png",
        "status_id": "TERDAFTAR",
        "sistem_elektronik_id": 43
      }
    },
    {
      "type": "tdpseTerbit",
      "id": 3491,
      "attributes": {
        "nomor_pb_umku": null,
        "nama": "SITUANSAN",
        "website": "Alamat Website: situansan.com, situansan.id, situansan.co.id",
        "sektor": "Sektor Perdagangan",
        "nama_perusahaan": "SITU PESAN SINI ANTAR",
        "tanggal_daftar": "2022-03-09",
        "nomor_tanda_daftar": "000231.02/DJAI.PSE/03/2022",
        "qr_code": "https://pse.kominfo.go.id/storage/images/qr_code/b414678f14e66bffe23809ff6c319df7.png",
        "status_id": "TERDAFTAR",
        "sistem_elektronik_id": 3196
      }
    },
    {
      "type": "tdpseTerbit",
      "id": 270,
      "attributes": {
        "nomor_pb_umku": null,
        "nama": "Situansan",
        "website": "Situansan",
        "sektor": "Sektor Perdagangan",
        "nama_perusahaan": "SITU PESAN SINI ANTAR",
        "tanggal_daftar": "2021-02-26",
        "nomor_tanda_daftar": "000231.01/DJAI.PSE/02/2021",
        "qr_code": "https://pse.kominfo.go.id/storage/images/qr_code/778bd7397142be46c5750cf7ee100595.png",
        "status_id": "TERDAFTAR",
        "sistem_elektronik_id": 2774
      }
    },
    {
      "type": "tdpseTerbit",
      "id": 269,
      "attributes": {
        "nomor_pb_umku": null,
        "nama": "SHAFIQ",
        "website": "https://www.shafiq.id/",
        "sektor": "Sektor Keuangan",
        "nama_perusahaan": "SHAFIQ DIGITAL INDONESIA",
        "tanggal_daftar": "2021-02-26",
        "nomor_tanda_daftar": "000230.01/DJAI.PSE/02/2021",
        "qr_code": "https://pse.kominfo.go.id/storage/images/qr_code/27f94c4abe0738b584f3021de1322d6d.png",
        "status_id": "TERDAFTAR",
        "sistem_elektronik_id": 2303
      }
    },
    {
      "type": "tdpseTerbit",
      "id": 321,
      "attributes": {
        "nomor_pb_umku": null,
        "nama": "Sistem Teknologi Informasi Desa (STID)",
        "website": "https://demosid.karyabangun.co.id/",
        "sektor": "Sektor Teknologi Informasi dan Komunikasi",
        "nama_perusahaan": "KARYA BANGUN INFORMASI",
        "tanggal_daftar": "2021-03-04",
        "nomor_tanda_daftar": "000229.02/DJAI.PSE/03/2021",
        "qr_code": "https://pse.kominfo.go.id/storage/images/qr_code/c11460b8ce7f5d17058c5f288899e68f.png",
        "status_id": "TERDAFTAR",
        "sistem_elektronik_id": 8
      }
    },
    {
      "type": "tdpseTerbit",
      "id": 268,
      "attributes": {
        "nomor_pb_umku": null,
        "nama": "Karya Bangun Informasi",
        "website": "https://karyabangun.co.id/, https://karyabangun.co.id/e-shop/",
        "sektor": "Sektor Perdagangan, Sektor Teknologi Informasi dan Komunikasi",
        "nama_perusahaan": "KARYA BANGUN INFORMASI",
        "tanggal_daftar": "2021-02-26",
        "nomor_tanda_daftar": "000229.01/DJAI.PSE/02/2021",
        "qr_code": "https://pse.kominfo.go.id/storage/images/qr_code/8744db30a938c94ea129dc5596a84254.png",
        "status_id": "TERDAFTAR",
        "sistem_elektronik_id": 7
      }
    },
    {
      "type": "tdpseTerbit",
      "id": 279,
      "attributes": {
        "nomor_pb_umku": null,
        "nama": "KIOSBANK",
        "website": "www.kiosbank.id",
        "sektor": "Sektor Teknologi Informasi dan Komunikasi",
        "nama_perusahaan": "DESIGN JAYA INDONESIA",
        "tanggal_daftar": "2021-03-04",
        "nomor_tanda_daftar": "000228.02/DJAI.PSE/03/2021",
        "qr_code": "https://pse.kominfo.go.id/storage/images/qr_code/ba9e48272c70554b7a9dc0a4a29cadbb.png",
        "status_id": "TERDAFTAR",
        "sistem_elektronik_id": 13
      }
    },
    {
      "type": "tdpseTerbit",
      "id": 267,
      "attributes": {
        "nomor_pb_umku": null,
        "nama": "KIOSBANK",
        "website": "www.kiosbank.id",
        "sektor": "Sektor Teknologi Informasi dan Komunikasi",
        "nama_perusahaan": "DESIGN JAYA INDONESIA",
        "tanggal_daftar": "2021-02-26",
        "nomor_tanda_daftar": "000228.01/DJAI.PSE/02/2021",
        "qr_code": "https://pse.kominfo.go.id/storage/images/qr_code/902d296e934c2e76aa989a76abd7aa50.png",
        "status_id": "TERDAFTAR",
        "sistem_elektronik_id": 12
      }
    },
    {
      "type": "tdpseTerbit",
      "id": 266,
      "attributes": {
        "nomor_pb_umku": null,
        "nama": "Grivy",
        "website": "https://business.grivy.com/",
        "sektor": "Sektor Teknologi Informasi dan Komunikasi",
        "nama_perusahaan": "GRIVY DOTCOM",
        "tanggal_daftar": "2021-02-26",
        "nomor_tanda_daftar": "000227.01/DJAI.PSE/02/2021",
        "qr_code": "https://pse.kominfo.go.id/storage/images/qr_code/f8a2ba38fb99ea7ea86fd0241e087091.png",
        "status_id": "TERDAFTAR",
        "sistem_elektronik_id": 6
      }
    }
  ]
}