{
  "meta": {
    "page": {
      "currentPage": 1009,
      "from": 10081,
      "lastPage": 1074,
      "perPage": 10,
      "to": 10090,
      "total": 10738
    }
  },
  "data": [
    {
      "type": "tdpseTerbit",
      "id": 416,
      "attributes": {
        "nomor_pb_umku": null,
        "nama": "KSP BERSAMA SATU BERKAH",
        "website": "http://www.bsbksp.org/",
        "sektor": "Sektor Teknologi Informasi dan Komunikasi",
        "nama_perusahaan": "SIMPAN PINJAM BERSAMA SATU BERKAH",
        "tanggal_daftar": "2021-04-09",
        "nomor_tanda_daftar": "000340.01/DJAI.PSE/04/2021",
        "qr_code": "https://pse.kominfo.go.id/storage/images/qr_code/fe64897c0006dfbd8f25f2b336c93bbc.png",
        "status_id": "TERDAFTAR",
        "sistem_elektronik_id": 215
      }
    },
    {
      "type": "tdpseTerbit",
      "id": 1110,
      "attributes": {
        "nomor_pb_umku": null,
        "nama": "GreatExchange-ID",
        "website": "(1) Agency sales: https://greatexchange-id.greateasterngeneral.com/AgencySales; (2) Direct sale: https://greatexchange-id.greateasterngeneral.com/AgencySales/public",
        "sektor": "Sektor Keuangan",
        "nama_perusahaan": "GREAT EASTERN GENERAL INSURANCE INDONESIA",
        "tanggal_daftar": "2021-06-02",
        "nomor_tanda_daftar": "000339.02/DJAI.PSE/06/2021",
        "qr_code": "https://pse.kominfo.go.id/storage/images/qr_code/f93c2e36d300b41bb134847824712df3.png",
        "status_id": "TERDAFTAR",
        "sistem_elektronik_id": 71
      }
    },
    {
      "type": "tdpseTerbit",
      "id": 414,
      "attributes": {
        "nomor_pb_umku": null,
        "nama": "Affinity Exchange (AX)",
        "website": "https://greataxchange.greateasterngeneral.com",
        "sektor": "Sektor Keuangan",
        "nama_perusahaan": "GREAT EASTERN GENERAL INSURANCE INDONESIA",
        "tanggal_daftar": "2021-03-31",
        "nomor_tanda_daftar": "000339.01/DJAI.PSE/03/2021",
        "qr_code": "https://pse.kominfo.go.id/storage/images/qr_code/dfc257481f4cf4f22ec70c2a1112bf6e.png",
        "status_id": "TERDAFTAR",
        "sistem_elektronik_id": 70
      }
    },
    {
      "type": "tdpseTerbit",
      "id": 446,
      "attributes": {
        "nomor_pb_umku": null,
        "nama": "E-Commerce",
        "website": "https://www.niagahoster.co.id/",
        "sektor": "Sektor Perdagangan",
        "nama_perusahaan": "PELITA MEDIA INDONESIA",
        "tanggal_daftar": "2021-04-14",
        "nomor_tanda_daftar": "000338.02/DJAI.PSE/04/2021",
        "qr_code": "https://pse.kominfo.go.id/storage/images/qr_code/51623778646993c68010e10dd714e571.png",
        "status_id": "TERDAFTAR",
        "sistem_elektronik_id": 201
      }
    },
    {
      "type": "tdpseTerbit",
      "id": 413,
      "attributes": {
        "nomor_pb_umku": null,
        "nama": "E-Commerce",
        "website": "https://www.niagahoster.co.id/",
        "sektor": "Sektor Perdagangan",
        "nama_perusahaan": "PELITA MEDIA INDONESIA",
        "tanggal_daftar": "2021-03-31",
        "nomor_tanda_daftar": "000338.01/DJAI.PSE/03/2021",
        "qr_code": "https://pse.kominfo.go.id/storage/images/qr_code/5352a42b3ab182b30cec7ab32b9e8af7.png",
        "status_id": "TERDAFTAR",
        "sistem_elektronik_id": 200
      }
    },
    {
      "type": "tdpseTerbit",
      "id": 8310,
      "attributes": {
        "nomor_pb_umku": "812011410320700830016",
        "nama": "NADA SAMBUNG PRIBADI [NSP]",
        "website": "nsp.telkomsel.com",
        "sektor": "Sektor Teknologi Informasi dan Komunikasi",
        "nama_perusahaan": "TELEKOMUNIKASI SELULAR",
        "tanggal_daftar": "2022-07-20",
        "nomor_tanda_daftar": "000337.40/DJAI.PSE/07/2022",
        "qr_code": "https://pse.kominfo.go.id/storage/images/qr_code/a75bfe3e81467ca66fc5be2fca1383a7.png",
        "status_id": "TERDAFTAR",
        "sistem_elektronik_id": 8231
      }
    },
    {
      "type": "tdpseTerbit",
      "id": 8284,
      "attributes": {
        "nomor_pb_umku": "812011410320700830015",
        "nama": "MYNSP ATAU NADA SAMBUNG PRIBADI KREASI",
        "website": "mynsp.langitmusik.co.id",
        "sektor": "Sektor Teknologi Informasi dan Komunikasi",
        "nama_perusahaan": "TELEKOMUNIKASI SELULAR",
        "tanggal_daftar": "2022-07-20",
        "nomor_tanda_daftar": "000337.39/DJAI.PSE/07/2022",
        "qr_code": "https://pse.kominfo.go.id/storage/images/qr_code/cf0911a02715cc61c10d048cb046c1f6.png",
        "status_id": "TERDAFTAR",
        "sistem_elektronik_id": 8200
      }
    },
    {
      "type": "tdpseTerbit",
      "id": 7164,
      "attributes": {
        "nomor_pb_umku": "812011410320700830014",
        "nama": "LANGIT MUSIK",
        "website": "langitmusik.co.id",
        "sektor": "Sektor Teknologi Informasi dan Komunikasi",
        "nama_perusahaan": "TELEKOMUNIKASI SELULAR",
        "tanggal_daftar": "2022-07-19",
        "nomor_tanda_daftar": "000337.38/DJAI.PSE/07/2022",
        "qr_code": "https://pse.kominfo.go.id/storage/images/qr_code/b9f679b10548d9df65935725b09ffca6.png",
        "status_id": "TERDAFTAR",
        "sistem_elektronik_id": 7043
      }
    },
    {
      "type": "tdpseTerbit",
      "id": 7159,
      "attributes": {
        "nomor_pb_umku": "812011410320700830013",
        "nama": "CONDOR HEROES",
        "website": "condorheroes.duniagames.co.id",
        "sektor": "Sektor Teknologi Informasi dan Komunikasi",
        "nama_perusahaan": "TELEKOMUNIKASI SELULAR",
        "tanggal_daftar": "2022-07-19",
        "nomor_tanda_daftar": "000337.37/DJAI.PSE/07/2022",
        "qr_code": "https://pse.kominfo.go.id/storage/images/qr_code/ef212e128d44e05b7436ad0e962e1fa1.png",
        "status_id": "TERDAFTAR",
        "sistem_elektronik_id": 7037
      }
    },
    {
      "type": "tdpseTerbit",
      "id": 7135,
      "attributes": {
        "nomor_pb_umku": "812011410320700830012",
        "nama": "SHELLFIRE",
        "website": "-",
        "sektor": "Sektor Teknologi Informasi dan Komunikasi",
        "nama_perusahaan": "TELEKOMUNIKASI SELULAR",
        "tanggal_daftar": "2022-07-19",
        "nomor_tanda_daftar": "000337.36/DJAI.PSE/07/2022",
        "qr_code": "https://pse.kominfo.go.id/storage/images/qr_code/f95f7066f9a753f9094efe4d31539012.png",
        "status_id": "TERDAFTAR",
        "sistem_elektronik_id": 7011
      }
    }
  ]
}