{
  "meta": {
    "page": {
      "currentPage": 1010,
      "from": 10091,
      "lastPage": 1111,
      "perPage": 10,
      "to": 10100,
      "total": 11105
    }
  },
  "data": [
    {
      "type": "tdpseTerbit",
      "id": 735,
      "attributes": {
        "nomor_pb_umku": null,
        "nama": "KlikUT.com",
        "website": "www.klikut.com",
        "sektor": "Sektor Perdagangan",
        "nama_perusahaan": "UNITED TRACTORS",
        "tanggal_daftar": "2021-05-07",
        "nomor_tanda_daftar": "000543.02/DJAI.PSE/05/2021",
        "qr_code": "https://pse.kominfo.go.id/storage/images/qr_code/bb6836b069ceea54e9091c36eed678bc.png",
        "status_id": "TERDAFTAR",
        "sistem_elektronik_id": 2
      }
    },
    {
      "type": "tdpseTerbit",
      "id": 672,
      "attributes": {
        "nomor_pb_umku": null,
        "nama": "Website UT",
        "website": "www.unitedtractors.com",
        "sektor": "Sektor Teknologi Informasi dan Komunikasi",
        "nama_perusahaan": "UNITED TRACTORS",
        "tanggal_daftar": "2021-04-26",
        "nomor_tanda_daftar": "000543.01/DJAI.PSE/04/2021",
        "qr_code": "https://pse.kominfo.go.id/storage/images/qr_code/274bc03ab7acf6c5f6204dc38a2d8cb7.png",
        "status_id": "TERDAFTAR",
        "sistem_elektronik_id": 1
      }
    },
    {
      "type": "tdpseTerbit",
      "id": 671,
      "attributes": {
        "nomor_pb_umku": null,
        "nama": "Indosurya Online Trading",
        "website": "www.indosurya.net   www.indosuryaonline.co.id    https://webtrading.indosuryaonline.co.id    https://live.itradeindonesia.com    103.138.41.238",
        "sektor": "Sektor Keuangan",
        "nama_perusahaan": "INDOSURYA BERSINAR SEKURITAS",
        "tanggal_daftar": "2021-04-26",
        "nomor_tanda_daftar": "000542.01/DJAI.PSE/04/2021",
        "qr_code": "https://pse.kominfo.go.id/storage/images/qr_code/613805221dcb7107862655d036a11a33.png",
        "status_id": "TERDAFTAR",
        "sistem_elektronik_id": 455
      }
    },
    {
      "type": "tdpseTerbit",
      "id": 669,
      "attributes": {
        "nomor_pb_umku": null,
        "nama": "PILIH KREDIT",
        "website": "www.pilihkredit.id",
        "sektor": "Sektor Keuangan",
        "nama_perusahaan": "ESTREND TEKNOLOGI DIGITAL",
        "tanggal_daftar": "2021-04-26",
        "nomor_tanda_daftar": "000541.01/DJAI.PSE/04/2021",
        "qr_code": "https://pse.kominfo.go.id/storage/images/qr_code/26d6f41fdded9cd680c3b63534ba834e.png",
        "status_id": "TERDAFTAR",
        "sistem_elektronik_id": 3280
      }
    },
    {
      "type": "tdpseTerbit",
      "id": 668,
      "attributes": {
        "nomor_pb_umku": null,
        "nama": "OJEG",
        "website": "www.ojeg.id",
        "sektor": "Sektor Teknologi Informasi dan Komunikasi, Sektor Transportasi",
        "nama_perusahaan": "OJEG INDONESIA RAYA",
        "tanggal_daftar": "2021-04-26",
        "nomor_tanda_daftar": "000540.01/DJAI.PSE/04/2021",
        "qr_code": "https://pse.kominfo.go.id/storage/images/qr_code/8d92975f8673a2f080b44cb649d9ae30.png",
        "status_id": "TERDAFTAR",
        "sistem_elektronik_id": 460
      }
    },
    {
      "type": "tdpseTerbit",
      "id": 667,
      "attributes": {
        "nomor_pb_umku": null,
        "nama": "HYPERNET",
        "website": "www.hypernet.co.id",
        "sektor": "Sektor Perdagangan, Sektor Teknologi Informasi dan Komunikasi",
        "nama_perusahaan": "HIPERNET INDODATA",
        "tanggal_daftar": "2021-04-26",
        "nomor_tanda_daftar": "000539.01/DJAI.PSE/04/2021",
        "qr_code": "https://pse.kominfo.go.id/storage/images/qr_code/9acf9dd56a46e9c044e3290c9ba64ed5.png",
        "status_id": "TERDAFTAR",
        "sistem_elektronik_id": 153
      }
    },
    {
      "type": "tdpseTerbit",
      "id": 12401,
      "attributes": {
        "nomor_pb_umku": "022010544269300020005",
        "nama": "PERFECT ASSISTANCE",
        "website": "-",
        "sektor": "Sektor Keuangan",
        "nama_perusahaan": "AXA MANDIRI FINANCIAL SERVICES",
        "tanggal_daftar": "2022-11-20",
        "nomor_tanda_daftar": "000538.11/DJAI.PSE/11/2022",
        "qr_code": "https://pse.kominfo.go.id/storage/images/qr_code/a183ffd391fed739d31c1a57a18e4c8f.png",
        "status_id": "TERDAFTAR",
        "sistem_elektronik_id": 12187
      }
    },
    {
      "type": "tdpseTerbit",
      "id": 12402,
      "attributes": {
        "nomor_pb_umku": "022010544269300020006",
        "nama": "API MANAGEMENT",
        "website": "developers.axa.co.id",
        "sektor": "Sektor Keuangan",
        "nama_perusahaan": "AXA MANDIRI FINANCIAL SERVICES",
        "tanggal_daftar": "2022-11-20",
        "nomor_tanda_daftar": "000538.10/DJAI.PSE/11/2022",
        "qr_code": "https://pse.kominfo.go.id/storage/images/qr_code/a28a8260d3666f7a7a14f9de869f61ac.png",
        "status_id": "TERDAFTAR",
        "sistem_elektronik_id": 12186
      }
    },
    {
      "type": "tdpseTerbit",
      "id": 7633,
      "attributes": {
        "nomor_pb_umku": "022010544269300020004",
        "nama": "AXA MANDIRI MOBILE SYSTEM ( AMOST)",
        "website": "-",
        "sektor": "Sektor Keuangan, Sektor Teknologi Informasi dan Komunikasi",
        "nama_perusahaan": "AXA MANDIRI FINANCIAL SERVICES",
        "tanggal_daftar": "2022-07-20",
        "nomor_tanda_daftar": "000538.09/DJAI.PSE/07/2022",
        "qr_code": "https://pse.kominfo.go.id/storage/images/qr_code/da86fc98e734962dd14c01788169e04d.png",
        "status_id": "TERDAFTAR",
        "sistem_elektronik_id": 7513
      }
    },
    {
      "type": "tdpseTerbit",
      "id": 7492,
      "attributes": {
        "nomor_pb_umku": "022010544269300020003",
        "nama": "ASMIK",
        "website": "layanan.axa-mandiri.co.id",
        "sektor": "Sektor Keuangan",
        "nama_perusahaan": "AXA MANDIRI FINANCIAL SERVICES",
        "tanggal_daftar": "2022-07-20",
        "nomor_tanda_daftar": "000538.08/DJAI.PSE/07/2022",
        "qr_code": "https://pse.kominfo.go.id/storage/images/qr_code/dc0261477207e8ecf1d7b0c3d71c4d41.png",
        "status_id": "TERDAFTAR",
        "sistem_elektronik_id": 7178
      }
    }
  ]
}