{
  "meta": {
    "page": {
      "currentPage": 102,
      "from": 1011,
      "lastPage": 1059,
      "perPage": 10,
      "to": 1020,
      "total": 10586
    }
  },
  "data": [
    {
      "type": "tdpseTerbit",
      "id": 10056,
      "attributes": {
        "nomor_pb_umku": "120722001360800010001",
        "nama": "MO88I",
        "website": "mo88i.com",
        "sektor": "Sektor Perdagangan",
        "nama_perusahaan": "ASTRA DIGITAL MOBIL",
        "tanggal_daftar": "2022-08-08",
        "nomor_tanda_daftar": "006993.01/DJAI.PSE/08/2022",
        "qr_code": "https://pse.kominfo.go.id/storage/images/qr_code/526104f63fe43d1196ee01d6c638c2c1.png",
        "status_id": "TERDAFTAR",
        "sistem_elektronik_id": 9943
      }
    },
    {
      "type": "tdpseTerbit",
      "id": 10188,
      "attributes": {
        "nomor_pb_umku": "071221004972300000001",
        "nama": "FOODS.ID",
        "website": "foods.id",
        "sektor": "Sektor Teknologi Informasi dan Komunikasi",
        "nama_perusahaan": "FOODSID MEDIA INTEGRA",
        "tanggal_daftar": "2022-08-10",
        "nomor_tanda_daftar": "006992.01/DJAI.PSE/08/2022",
        "qr_code": "https://pse.kominfo.go.id/storage/images/qr_code/1859bcb402eda449f9238d1805295896.png",
        "status_id": "TERDAFTAR",
        "sistem_elektronik_id": 10067
      }
    },
    {
      "type": "tdpseTerbit",
      "id": 10779,
      "attributes": {
        "nomor_pb_umku": "",
        "nama": "WEBSITE BANK PERKREDITAN RAKYAT SUKMA KEMANG AGUNG",
        "website": "bprsukmakemangagung.co.id",
        "sektor": "Sektor Keuangan",
        "nama_perusahaan": "BANK PERKREDITAN RAKYAT SUKMA KEMANG AGUNG",
        "tanggal_daftar": "2022-08-24",
        "nomor_tanda_daftar": "006991.01/DJAI.PSE/08/2022",
        "qr_code": "https://pse.kominfo.go.id/storage/images/qr_code/29f77c5219fb71b56bdad2b43bc44cfa.png",
        "status_id": "TERDAFTAR",
        "sistem_elektronik_id": 9821
      }
    },
    {
      "type": "tdpseTerbit",
      "id": 10416,
      "attributes": {
        "nomor_pb_umku": "812001125203900030001",
        "nama": "ABI E-PORTAL",
        "website": "abhitech.co.id",
        "sektor": "Sektor Perdagangan, Sektor Transportasi, Sektor Teknologi Informasi dan Komunikasi",
        "nama_perusahaan": "ABHITECH MATRA INDAH",
        "tanggal_daftar": "2022-08-25",
        "nomor_tanda_daftar": "006989.01/DJAI.PSE/08/2022",
        "qr_code": "https://pse.kominfo.go.id/storage/images/qr_code/1f801374ec6e2567e7830e4cd096ab7d.png",
        "status_id": "TERDAFTAR",
        "sistem_elektronik_id": 10274
      }
    },
    {
      "type": "tdpseTerbit",
      "id": 9959,
      "attributes": {
        "nomor_pb_umku": "912020481133200000001",
        "nama": "ARTHA MITRA INTERNASIONAL",
        "website": "klik4it.com",
        "sektor": "Sektor Perdagangan",
        "nama_perusahaan": "ARTHA MITRA INTERNASIONAL",
        "tanggal_daftar": "2022-08-05",
        "nomor_tanda_daftar": "006987.01/DJAI.PSE/08/2022",
        "qr_code": "https://pse.kominfo.go.id/storage/images/qr_code/f07881d12e01626741c7d0a6dfc5ed34.png",
        "status_id": "TERDAFTAR",
        "sistem_elektronik_id": 9828
      }
    },
    {
      "type": "tdpseTerbit",
      "id": 9939,
      "attributes": {
        "nomor_pb_umku": "300322003845700000001",
        "nama": "DIUNDUHAJA.COM",
        "website": "diunduhaja.com",
        "sektor": "Sektor Teknologi Informasi dan Komunikasi",
        "nama_perusahaan": "SIHOL CHRISTIAN ROBIROSA SIMANIHURUK",
        "tanggal_daftar": "2022-08-05",
        "nomor_tanda_daftar": "006986.01/DJAI.PSE/08/2022",
        "qr_code": "https://pse.kominfo.go.id/storage/images/qr_code/c1b335e469a409637830754b186a2364.png",
        "status_id": "TERDAFTAR",
        "sistem_elektronik_id": 9826
      }
    },
    {
      "type": "tdpseTerbit",
      "id": 10062,
      "attributes": {
        "nomor_pb_umku": "812020297045100000001",
        "nama": "SEEKMI",
        "website": "seekmi.com",
        "sektor": "Sektor Teknologi Informasi dan Komunikasi",
        "nama_perusahaan": "SEEKMI GLOBAL SERVICES",
        "tanggal_daftar": "2022-08-08",
        "nomor_tanda_daftar": "006985.01/DJAI.PSE/08/2022",
        "qr_code": "https://pse.kominfo.go.id/storage/images/qr_code/3a8bec1f0799487a7abe856ce581608f.png",
        "status_id": "TERDAFTAR",
        "sistem_elektronik_id": 9950
      }
    },
    {
      "type": "tdpseTerbit",
      "id": 9929,
      "attributes": {
        "nomor_pb_umku": "030122003096300010001",
        "nama": "ARYA FARMA",
        "website": "-",
        "sektor": "Sektor Kesehatan",
        "nama_perusahaan": "ARYA AURA ABADI",
        "tanggal_daftar": "2022-08-05",
        "nomor_tanda_daftar": "006984.01/DJAI.PSE/08/2022",
        "qr_code": "https://pse.kominfo.go.id/storage/images/qr_code/d577ad374aae9d7d1270bc908ce259a5.png",
        "status_id": "TERDAFTAR",
        "sistem_elektronik_id": 9815
      }
    },
    {
      "type": "tdpseTerbit",
      "id": 9924,
      "attributes": {
        "nomor_pb_umku": "912010088236100010001",
        "nama": "PT. BPR SENTRA DANA MAKMUR",
        "website": "bprsentradanamakmur.com",
        "sektor": "Sektor Keuangan",
        "nama_perusahaan": "BANK PERKREDITAN RAKYAT SENTRA DANA MAKMUR",
        "tanggal_daftar": "2022-08-05",
        "nomor_tanda_daftar": "006982.01/DJAI.PSE/08/2022",
        "qr_code": "https://pse.kominfo.go.id/storage/images/qr_code/6754bec01d9da5ca38b17637b7a38df1.png",
        "status_id": "TERDAFTAR",
        "sistem_elektronik_id": 9812
      }
    },
    {
      "type": "tdpseTerbit",
      "id": 10052,
      "attributes": {
        "nomor_pb_umku": "912011719261100010004",
        "nama": "BOC JAKARTA WEBSITE",
        "website": "bankofchina.co.id",
        "sektor": "Sektor Keuangan",
        "nama_perusahaan": "BANK OF CHINA (HONGKONG) LIMITED JAKARTA",
        "tanggal_daftar": "2022-08-08",
        "nomor_tanda_daftar": "006979.04/DJAI.PSE/08/2022",
        "qr_code": "https://pse.kominfo.go.id/storage/images/qr_code/69541096aaa6ea31edad464dc40170d9.png",
        "status_id": "TERDAFTAR",
        "sistem_elektronik_id": 9929
      }
    }
  ]
}