{
  "meta": {
    "page": {
      "currentPage": 1011,
      "from": 10101,
      "lastPage": 1047,
      "perPage": 10,
      "to": 10110,
      "total": 10470
    }
  },
  "data": [
    {
      "type": "tdpseTerbit",
      "id": 308,
      "attributes": {
        "nomor_pb_umku": null,
        "nama": "AFI One",
        "website": "https://axa.co.id/",
        "sektor": "Sektor Keuangan",
        "nama_perusahaan": "AXA FINANCIAL INDONESIA",
        "tanggal_daftar": "2021-03-04",
        "nomor_tanda_daftar": "000209.03/DJAI.PSE/03/2021",
        "qr_code": "https://pse.kominfo.go.id/storage/images/qr_code/c3eab2b996330558614a990358409236.png",
        "status_id": "TERDAFTAR",
        "sistem_elektronik_id": 2318
      }
    },
    {
      "type": "tdpseTerbit",
      "id": 292,
      "attributes": {
        "nomor_pb_umku": null,
        "nama": "AXA Direct",
        "website": "https://axa.co.id/",
        "sektor": "Sektor Keuangan",
        "nama_perusahaan": "AXA FINANCIAL INDONESIA",
        "tanggal_daftar": "2021-03-04",
        "nomor_tanda_daftar": "000209.02/DJAI.PSE/03/2021",
        "qr_code": "https://pse.kominfo.go.id/storage/images/qr_code/67336757dc762178fb68f6d21bf3e147.png",
        "status_id": "TERDAFTAR",
        "sistem_elektronik_id": 2317
      }
    },
    {
      "type": "tdpseTerbit",
      "id": 247,
      "attributes": {
        "nomor_pb_umku": null,
        "nama": "AFI DNA Sales Tool",
        "website": "https://axa.co.id/",
        "sektor": "Sektor Keuangan",
        "nama_perusahaan": "AXA FINANCIAL INDONESIA",
        "tanggal_daftar": "2021-02-25",
        "nomor_tanda_daftar": "000209.01/DJAI.PSE/02/2021",
        "qr_code": "https://pse.kominfo.go.id/storage/images/qr_code/c4a6cd3d666516773faaea73428bac59.png",
        "status_id": "TERDAFTAR",
        "sistem_elektronik_id": 2316
      }
    },
    {
      "type": "tdpseTerbit",
      "id": 246,
      "attributes": {
        "nomor_pb_umku": null,
        "nama": "Venteny",
        "website": "www.venteny.co.id",
        "sektor": "Sektor Perdagangan, Sektor Teknologi Informasi dan Komunikasi",
        "nama_perusahaan": "VENTENY MATAHARI INDONESIA",
        "tanggal_daftar": "2021-02-25",
        "nomor_tanda_daftar": "000208.01/DJAI.PSE/02/2021",
        "qr_code": "https://pse.kominfo.go.id/storage/images/qr_code/166194bad415e3dfaca3e2348050ccd4.png",
        "status_id": "TERDAFTAR",
        "sistem_elektronik_id": 2723
      }
    },
    {
      "type": "tdpseTerbit",
      "id": 245,
      "attributes": {
        "nomor_pb_umku": null,
        "nama": "Bantu Legal Indonesia",
        "website": "http://bantulegal.id",
        "sektor": "Sektor Teknologi Informasi dan Komunikasi",
        "nama_perusahaan": "GENERASI NUSA KREATIF",
        "tanggal_daftar": "2021-02-25",
        "nomor_tanda_daftar": "000207.01/DJAI.PSE/02/2021",
        "qr_code": "https://pse.kominfo.go.id/storage/images/qr_code/31cbfdf2fccb96934a8a5c87a49f4170.png",
        "status_id": "TERDAFTAR",
        "sistem_elektronik_id": 2455
      }
    },
    {
      "type": "tdpseTerbit",
      "id": 2024,
      "attributes": {
        "nomor_pb_umku": null,
        "nama": "SOLUSI LEGAL",
        "website": "www.solusilegal.co.id",
        "sektor": "Sektor Teknologi Informasi dan Komunikasi",
        "nama_perusahaan": "SOLUSI TEKNO KONSULTAN",
        "tanggal_daftar": "2021-10-26",
        "nomor_tanda_daftar": "000206.03/DJAI.PSE/10/2021",
        "qr_code": "https://pse.kominfo.go.id/storage/images/qr_code/c3f127c0d50995d15b5bdfb0ff1b0910.png",
        "status_id": "TERDAFTAR",
        "sistem_elektronik_id": 2777
      }
    },
    {
      "type": "tdpseTerbit",
      "id": 600,
      "attributes": {
        "nomor_pb_umku": null,
        "nama": "SOMASI LEGAL",
        "website": "www.somasilegal.com",
        "sektor": "Sektor Teknologi Informasi dan Komunikasi",
        "nama_perusahaan": "SOLUSI TEKNO KONSULTAN",
        "tanggal_daftar": "2021-04-26",
        "nomor_tanda_daftar": "000206.02/DJAI.PSE/04/2021",
        "qr_code": "https://pse.kominfo.go.id/storage/images/qr_code/4d41e69a3539b90bab37807b6fc6423d.png",
        "status_id": "TERDAFTAR",
        "sistem_elektronik_id": 2776
      }
    },
    {
      "type": "tdpseTerbit",
      "id": 244,
      "attributes": {
        "nomor_pb_umku": null,
        "nama": "SOLUSI LEGALINDO",
        "website": "www.solusilegalindo.co.id",
        "sektor": "Sektor Teknologi Informasi dan Komunikasi",
        "nama_perusahaan": "SOLUSI TEKNO KONSULTAN",
        "tanggal_daftar": "2021-02-25",
        "nomor_tanda_daftar": "000206.01/DJAI.PSE/02/2021",
        "qr_code": "https://pse.kominfo.go.id/storage/images/qr_code/fe7cd590fa2462922d7af33436c661ef.png",
        "status_id": "TERDAFTAR",
        "sistem_elektronik_id": 2775
      }
    },
    {
      "type": "tdpseTerbit",
      "id": 243,
      "attributes": {
        "nomor_pb_umku": null,
        "nama": "Garapin",
        "website": "garap.in",
        "sektor": "Sektor Perdagangan, Sektor Teknologi Informasi dan Komunikasi",
        "nama_perusahaan": "VISI TEKNOLOGI DIGITAL",
        "tanggal_daftar": "2021-02-25",
        "nomor_tanda_daftar": "000205.02/DJAI.PSE/02/2021",
        "qr_code": "https://pse.kominfo.go.id/storage/images/qr_code/b41cd45d182caa53d62e7f4a19aca5a7.png",
        "status_id": "TERDAFTAR",
        "sistem_elektronik_id": 2773
      }
    },
    {
      "type": "tdpseTerbit",
      "id": 242,
      "attributes": {
        "nomor_pb_umku": null,
        "nama": "Garapin",
        "website": "garap.in",
        "sektor": "Sektor Perdagangan, Sektor Teknologi Informasi dan Komunikasi",
        "nama_perusahaan": "VISI TEKNOLOGI DIGITAL",
        "tanggal_daftar": "2021-02-25",
        "nomor_tanda_daftar": "000205.01/DJAI.PSE/02/2021",
        "qr_code": "https://pse.kominfo.go.id/storage/images/qr_code/cbba3834ec445fb6145a687724804aa6.png",
        "status_id": "TERDAFTAR",
        "sistem_elektronik_id": 2772
      }
    }
  ]
}