{
  "meta": {
    "page": {
      "currentPage": 1012,
      "from": 10111,
      "lastPage": 1070,
      "perPage": 10,
      "to": 10120,
      "total": 10698
    }
  },
  "data": [
    {
      "type": "tdpseTerbit",
      "id": 392,
      "attributes": {
        "nomor_pb_umku": null,
        "nama": "Buka Investasi Bersama",
        "website": "www.bukainvestasi.com",
        "sektor": "Sektor Teknologi Informasi dan Komunikasi",
        "nama_perusahaan": "BUKA INVESTASI BERSAMA",
        "tanggal_daftar": "2021-03-15",
        "nomor_tanda_daftar": "000319.01/DJAI.PSE/03/2021",
        "qr_code": "https://pse.kominfo.go.id/storage/images/qr_code/b02999df9451aa883ef6eca118fa5f0e.png",
        "status_id": "TERDAFTAR",
        "sistem_elektronik_id": 184
      }
    },
    {
      "type": "tdpseTerbit",
      "id": 391,
      "attributes": {
        "nomor_pb_umku": null,
        "nama": "DETELNET",
        "website": "detelnetworks.id",
        "sektor": "Sektor Teknologi Informasi dan Komunikasi",
        "nama_perusahaan": "DEWATA TELEMATIKA",
        "tanggal_daftar": "2021-03-15",
        "nomor_tanda_daftar": "000318.01/DJAI.PSE/03/2021",
        "qr_code": "https://pse.kominfo.go.id/storage/images/qr_code/362bf55b6e025ce9a53a0c8758991dfe.png",
        "status_id": "TERDAFTAR",
        "sistem_elektronik_id": 185
      }
    },
    {
      "type": "tdpseTerbit",
      "id": 390,
      "attributes": {
        "nomor_pb_umku": null,
        "nama": "Legalforte.id",
        "website": "https://legalforte.id/",
        "sektor": "Sektor Perdagangan",
        "nama_perusahaan": "SYAREKAT LEGALFORTE INDONESIA",
        "tanggal_daftar": "2021-03-15",
        "nomor_tanda_daftar": "000317.01/DJAI.PSE/03/2021",
        "qr_code": "https://pse.kominfo.go.id/storage/images/qr_code/f949fd0c2d8da8ec6d0554183592cbd2.png",
        "status_id": "TERDAFTAR",
        "sistem_elektronik_id": 188
      }
    },
    {
      "type": "tdpseTerbit",
      "id": 389,
      "attributes": {
        "nomor_pb_umku": null,
        "nama": "Knowme",
        "website": "https://www.knowme.link",
        "sektor": "Sektor Teknologi Informasi dan Komunikasi",
        "nama_perusahaan": "SERTIFIKASI BIODATA DIRI",
        "tanggal_daftar": "2021-03-15",
        "nomor_tanda_daftar": "000316.01/DJAI.PSE/03/2021",
        "qr_code": "https://pse.kominfo.go.id/storage/images/qr_code/7f0bb393d8236dc91f66f92fa5fb20d4.png",
        "status_id": "TERDAFTAR",
        "sistem_elektronik_id": 163
      }
    },
    {
      "type": "tdpseTerbit",
      "id": 387,
      "attributes": {
        "nomor_pb_umku": null,
        "nama": "Mangdropship",
        "website": "mangdropship.id",
        "sektor": "Sektor Perdagangan, Sektor Teknologi Informasi dan Komunikasi",
        "nama_perusahaan": "MANGDROPSHIP KARYA INTERLOKA",
        "tanggal_daftar": "2021-03-15",
        "nomor_tanda_daftar": "000315.01/DJAI.PSE/03/2021",
        "qr_code": "https://pse.kominfo.go.id/storage/images/qr_code/81beac8e9949643b44636d2215c5e160.png",
        "status_id": "TERDAFTAR",
        "sistem_elektronik_id": 152
      }
    },
    {
      "type": "tdpseTerbit",
      "id": 7229,
      "attributes": {
        "nomor_pb_umku": "022020872134800000003",
        "nama": "EANTREAN ONLINE",
        "website": "eantrean.id",
        "sektor": "Sektor Kesehatan, Sektor Teknologi Informasi dan Komunikasi",
        "nama_perusahaan": "INFOKES INDONESIA",
        "tanggal_daftar": "2022-07-19",
        "nomor_tanda_daftar": "000314.11/DJAI.PSE/07/2022",
        "qr_code": "https://pse.kominfo.go.id/storage/images/qr_code/1b6f359ffc76dc1549f804419800e4eb.png",
        "status_id": "TERDAFTAR",
        "sistem_elektronik_id": 7118
      }
    },
    {
      "type": "tdpseTerbit",
      "id": 7218,
      "attributes": {
        "nomor_pb_umku": "022020872134800000002",
        "nama": "EPOSYANDU",
        "website": "eposyandu.id",
        "sektor": "Sektor Kesehatan, Sektor Teknologi Informasi dan Komunikasi",
        "nama_perusahaan": "INFOKES INDONESIA",
        "tanggal_daftar": "2022-07-19",
        "nomor_tanda_daftar": "000314.10/DJAI.PSE/07/2022",
        "qr_code": "https://pse.kominfo.go.id/storage/images/qr_code/ac74cee3c948113820d281673b248c8d.png",
        "status_id": "TERDAFTAR",
        "sistem_elektronik_id": 7104
      }
    },
    {
      "type": "tdpseTerbit",
      "id": 7190,
      "attributes": {
        "nomor_pb_umku": "022020872134800000001",
        "nama": "EPOSKESTREN",
        "website": "eposkestren.id",
        "sektor": "Sektor Kesehatan, Sektor Teknologi Informasi dan Komunikasi",
        "nama_perusahaan": "INFOKES INDONESIA",
        "tanggal_daftar": "2022-07-19",
        "nomor_tanda_daftar": "000314.09/DJAI.PSE/07/2022",
        "qr_code": "https://pse.kominfo.go.id/storage/images/qr_code/879e2f841855b03636c5678a1ebbaa69.png",
        "status_id": "TERDAFTAR",
        "sistem_elektronik_id": 7077
      }
    },
    {
      "type": "tdpseTerbit",
      "id": 1416,
      "attributes": {
        "nomor_pb_umku": null,
        "nama": "ePustu",
        "website": "epuskesmas.id",
        "sektor": "Sektor Kesehatan, Sektor Teknologi Informasi dan Komunikasi",
        "nama_perusahaan": "INFOKES INDONESIA",
        "tanggal_daftar": "2021-06-09",
        "nomor_tanda_daftar": "000314.08/DJAI.PSE/06/2021",
        "qr_code": "https://pse.kominfo.go.id/storage/images/qr_code/bedbcd019436b945c32cf5e1c992c0a3.png",
        "status_id": "TERDAFTAR",
        "sistem_elektronik_id": 2511
      }
    },
    {
      "type": "tdpseTerbit",
      "id": 1415,
      "attributes": {
        "nomor_pb_umku": null,
        "nama": "eBidan",
        "website": "ebidan.id",
        "sektor": "Sektor Kesehatan, Sektor Teknologi Informasi dan Komunikasi",
        "nama_perusahaan": "INFOKES INDONESIA",
        "tanggal_daftar": "2021-06-09",
        "nomor_tanda_daftar": "000314.07/DJAI.PSE/06/2021",
        "qr_code": "https://pse.kominfo.go.id/storage/images/qr_code/94922e4859370496e568786f1073c13f.png",
        "status_id": "TERDAFTAR",
        "sistem_elektronik_id": 2510
      }
    }
  ]
}