{
  "meta": {
    "page": {
      "currentPage": 1014,
      "from": 10131,
      "lastPage": 1025,
      "perPage": 10,
      "to": 10140,
      "total": 10245
    }
  },
  "data": [
    {
      "type": "tdpseTerbit",
      "id": 64,
      "attributes": {
        "nomor_pb_umku": null,
        "nama": "Dolpheen",
        "website": "www.dolpheen.id",
        "sektor": "Sektor Teknologi Informasi dan Komunikasi",
        "nama_perusahaan": "SCOREX TEKNOLOGI INDONESIA",
        "tanggal_daftar": "2021-02-23",
        "nomor_tanda_daftar": "000055.01/DJAI.PSE/02/2021",
        "qr_code": "https://pse.kominfo.go.id/storage/images/qr_code/64ddd3857e67ce31a896ca5a38136a2c.png",
        "status_id": "TERDAFTAR",
        "sistem_elektronik_id": 2489
      }
    },
    {
      "type": "tdpseTerbit",
      "id": 5032,
      "attributes": {
        "nomor_pb_umku": "021000192150500050002",
        "nama": "DESTY.PAGE",
        "website": "desty.app",
        "sektor": "Sektor Teknologi Informasi dan Komunikasi",
        "nama_perusahaan": "DESTY KARSA WESYA",
        "tanggal_daftar": "2022-07-02",
        "nomor_tanda_daftar": "000054.04/DJAI.PSE/07/2022",
        "qr_code": "https://pse.kominfo.go.id/storage/images/qr_code/66b97464fd8b617194634114dd369169.png",
        "status_id": "TERDAFTAR",
        "sistem_elektronik_id": 4904
      }
    },
    {
      "type": "tdpseTerbit",
      "id": 4343,
      "attributes": {
        "nomor_pb_umku": null,
        "nama": "Desty.app",
        "website": "Desty.app",
        "sektor": "Sektor Perdagangan",
        "nama_perusahaan": "DESTY KARSA WESYA",
        "tanggal_daftar": "2022-04-28",
        "nomor_tanda_daftar": "000054.03/DJAI.PSE/04/2022",
        "qr_code": "https://pse.kominfo.go.id/storage/images/qr_code/091b91edc47475c85746e7a84edf661a.png",
        "status_id": "TERDAFTAR",
        "sistem_elektronik_id": 4329
      }
    },
    {
      "type": "tdpseTerbit",
      "id": 63,
      "attributes": {
        "nomor_pb_umku": null,
        "nama": "desty",
        "website": "https://www.desty.app/",
        "sektor": "Sektor Perdagangan, Sektor Teknologi Informasi dan Komunikasi",
        "nama_perusahaan": "DESTY KARSA WESYA",
        "tanggal_daftar": "2021-02-23",
        "nomor_tanda_daftar": "000054.02/DJAI.PSE/02/2021",
        "qr_code": "https://pse.kominfo.go.id/storage/images/qr_code/6657d93dafab8448cd57fcf5e6194eb6.png",
        "status_id": "TERDAFTAR",
        "sistem_elektronik_id": 2451
      }
    },
    {
      "type": "tdpseTerbit",
      "id": 62,
      "attributes": {
        "nomor_pb_umku": null,
        "nama": "desty",
        "website": "https://www.desty.app/",
        "sektor": "Sektor Perdagangan, Sektor Teknologi Informasi dan Komunikasi",
        "nama_perusahaan": "DESTY KARSA WESYA",
        "tanggal_daftar": "2021-02-23",
        "nomor_tanda_daftar": "000054.01/DJAI.PSE/02/2021",
        "qr_code": "https://pse.kominfo.go.id/storage/images/qr_code/80e36e7f6c2ffc87aa01125e848738a8.png",
        "status_id": "TERDAFTAR",
        "sistem_elektronik_id": 2450
      }
    },
    {
      "type": "tdpseTerbit",
      "id": 61,
      "attributes": {
        "nomor_pb_umku": null,
        "nama": "KREDIT NOW",
        "website": "-",
        "sektor": "Sektor Keuangan",
        "nama_perusahaan": "SIMPAN PINJAM PERMATA INDAH BERSAMA",
        "tanggal_daftar": "2021-02-23",
        "nomor_tanda_daftar": "000053.01/DJAI.PSE/02/2021",
        "qr_code": "https://pse.kominfo.go.id/storage/images/qr_code/a0d20e362f523389cd24b5e14318c5a3.png",
        "status_id": "TERDAFTAR",
        "sistem_elektronik_id": 2485
      }
    },
    {
      "type": "tdpseTerbit",
      "id": 60,
      "attributes": {
        "nomor_pb_umku": null,
        "nama": "catchadeal.id",
        "website": "https://catchadeal.id",
        "sektor": "Sektor Teknologi Informasi dan Komunikasi",
        "nama_perusahaan": "CATCHA LINTAS MEDIA",
        "tanggal_daftar": "2021-02-23",
        "nomor_tanda_daftar": "000052.01/DJAI.PSE/02/2021",
        "qr_code": "https://pse.kominfo.go.id/storage/images/qr_code/7d74d05489528a5ae2870a83305f8cb7.png",
        "status_id": "TERDAFTAR",
        "sistem_elektronik_id": 2378
      }
    },
    {
      "type": "tdpseTerbit",
      "id": 59,
      "attributes": {
        "nomor_pb_umku": null,
        "nama": "Bekal Hidup",
        "website": "www.bekalhidup.com",
        "sektor": "Sektor Keuangan",
        "nama_perusahaan": "PANIN DAI-ICHI LIFE",
        "tanggal_daftar": "2021-02-23",
        "nomor_tanda_daftar": "000051.01/DJAI.PSE/02/2021",
        "qr_code": "https://pse.kominfo.go.id/storage/images/qr_code/a6410e52e4584865e838c657fad317e7.png",
        "status_id": "TERDAFTAR",
        "sistem_elektronik_id": 2477
      }
    },
    {
      "type": "tdpseTerbit",
      "id": 10349,
      "attributes": {
        "nomor_pb_umku": "912020177088600020005",
        "nama": "SOVERA",
        "website": "sovera.sequis.co.id",
        "sektor": "Sektor Keuangan",
        "nama_perusahaan": "ASURANSI JIWA SEQUIS LIFE",
        "tanggal_daftar": "2022-08-15",
        "nomor_tanda_daftar": "000050.10/DJAI.PSE/08/2022",
        "qr_code": "https://pse.kominfo.go.id/storage/images/qr_code/1a8341df771dfdd2b96d41428cdd0ad9.png",
        "status_id": "TERDAFTAR",
        "sistem_elektronik_id": 10197
      }
    },
    {
      "type": "tdpseTerbit",
      "id": 10347,
      "attributes": {
        "nomor_pb_umku": "912020177088600020004",
        "nama": "PORTAL MIKRO SEQUIS SEJAHTERA",
        "website": "mikrosejahtera.sequis.co.id",
        "sektor": "Sektor Keuangan",
        "nama_perusahaan": "ASURANSI JIWA SEQUIS LIFE",
        "tanggal_daftar": "2022-08-15",
        "nomor_tanda_daftar": "000050.09/DJAI.PSE/08/2022",
        "qr_code": "https://pse.kominfo.go.id/storage/images/qr_code/3a3680676915374349673a33f19f04ea.png",
        "status_id": "TERDAFTAR",
        "sistem_elektronik_id": 10195
      }
    }
  ]
}