{
  "meta": {
    "page": {
      "currentPage": 1015,
      "from": 10141,
      "lastPage": 1113,
      "perPage": 10,
      "to": 10150,
      "total": 11124
    }
  },
  "data": [
    {
      "type": "tdpseTerbit",
      "id": 648,
      "attributes": {
        "nomor_pb_umku": null,
        "nama": "www.jeunesseglobal.com",
        "website": "www.jeunesseglobal.com",
        "sektor": "Sektor Perdagangan",
        "nama_perusahaan": "JEUNESSE GLOBAL",
        "tanggal_daftar": "2021-04-26",
        "nomor_tanda_daftar": "000528.01/DJAI.PSE/04/2021",
        "qr_code": "https://pse.kominfo.go.id/storage/images/qr_code/a2c0fa234e1ca805ef5ad0059dcfd028.png",
        "status_id": "TERDAFTAR",
        "sistem_elektronik_id": 422
      }
    },
    {
      "type": "tdpseTerbit",
      "id": 645,
      "attributes": {
        "nomor_pb_umku": null,
        "nama": "VMEDIS",
        "website": "https://vmedis.com/",
        "sektor": "Sektor Perdagangan",
        "nama_perusahaan": "VIRTUAL MEDIS INTERNASIONAL",
        "tanggal_daftar": "2021-04-26",
        "nomor_tanda_daftar": "000527.01/DJAI.PSE/04/2021",
        "qr_code": "https://pse.kominfo.go.id/storage/images/qr_code/eeb52d116da8ef38f2449f0b72c85323.png",
        "status_id": "TERDAFTAR",
        "sistem_elektronik_id": 3272
      }
    },
    {
      "type": "tdpseTerbit",
      "id": 2002,
      "attributes": {
        "nomor_pb_umku": null,
        "nama": "AlteaCare",
        "website": "alteacare.id",
        "sektor": "Sektor Kesehatan",
        "nama_perusahaan": "SEHAT DIGITAL NUSANTARA",
        "tanggal_daftar": "2021-10-26",
        "nomor_tanda_daftar": "000526.02/DJAI.PSE/10/2021",
        "qr_code": "https://pse.kominfo.go.id/storage/images/qr_code/5dea06060c5aa38c7997c4e410288199.png",
        "status_id": "TERDAFTAR",
        "sistem_elektronik_id": 414
      }
    },
    {
      "type": "tdpseTerbit",
      "id": 643,
      "attributes": {
        "nomor_pb_umku": null,
        "nama": "AlteaCare",
        "website": "alteacare.id",
        "sektor": "Sektor Kesehatan",
        "nama_perusahaan": "SEHAT DIGITAL NUSANTARA",
        "tanggal_daftar": "2021-04-26",
        "nomor_tanda_daftar": "000526.01/DJAI.PSE/04/2021",
        "qr_code": "https://pse.kominfo.go.id/storage/images/qr_code/d7cad1785f38d57478167c190c94e5cb.png",
        "status_id": "TERDAFTAR",
        "sistem_elektronik_id": 413
      }
    },
    {
      "type": "tdpseTerbit",
      "id": 12480,
      "attributes": {
        "nomor_pb_umku": "812000583267300030005",
        "nama": "SHOPEE",
        "website": "shopee.co.id",
        "sektor": "Sektor Perdagangan",
        "nama_perusahaan": "SHOPEE INTERNATIONAL INDONESIA",
        "tanggal_daftar": "2022-11-23",
        "nomor_tanda_daftar": "000525.04/DJAI.PSE/11/2022",
        "qr_code": "https://pse.kominfo.go.id/storage/images/qr_code/8d06991a71c9c466ceb7a25370a96a88.png",
        "status_id": "TERDAFTAR",
        "sistem_elektronik_id": 12230
      }
    },
    {
      "type": "tdpseTerbit",
      "id": 5747,
      "attributes": {
        "nomor_pb_umku": "812000583267300020003",
        "nama": "WEBSITE DAN APLIKASI SHOPEEFOOD DRIVER",
        "website": "shopeefood.co.id",
        "sektor": "Sektor Keuangan",
        "nama_perusahaan": "SHOPEE INTERNATIONAL INDONESIA",
        "tanggal_daftar": "2022-07-15",
        "nomor_tanda_daftar": "000525.03/DJAI.PSE/07/2022",
        "qr_code": "https://pse.kominfo.go.id/storage/images/qr_code/7ec759b4d65969df7344d96ff1892e74.png",
        "status_id": "TERDAFTAR",
        "sistem_elektronik_id": 5612
      }
    },
    {
      "type": "tdpseTerbit",
      "id": 5741,
      "attributes": {
        "nomor_pb_umku": "812000583267300020002",
        "nama": "WEBSITE DAN APLIKASI MITRA SHOPEE",
        "website": "mitra.shopee.co.id",
        "sektor": "Sektor Keuangan",
        "nama_perusahaan": "SHOPEE INTERNATIONAL INDONESIA",
        "tanggal_daftar": "2022-07-15",
        "nomor_tanda_daftar": "000525.02/DJAI.PSE/07/2022",
        "qr_code": "https://pse.kominfo.go.id/storage/images/qr_code/910e32d281b5f4e586c4e1c0e7e6d418.png",
        "status_id": "TERDAFTAR",
        "sistem_elektronik_id": 5606
      }
    },
    {
      "type": "tdpseTerbit",
      "id": 642,
      "attributes": {
        "nomor_pb_umku": null,
        "nama": "Website dan Aplikasi",
        "website": "https://shopee.co.id/",
        "sektor": "Sektor Perdagangan",
        "nama_perusahaan": "SHOPEE INTERNATIONAL INDONESIA",
        "tanggal_daftar": "2021-04-26",
        "nomor_tanda_daftar": "000525.01/DJAI.PSE/04/2021",
        "qr_code": "https://pse.kominfo.go.id/storage/images/qr_code/8588c44e1b8b3fadcb8f3988efe3ec99.png",
        "status_id": "TERDAFTAR",
        "sistem_elektronik_id": 2364
      }
    },
    {
      "type": "tdpseTerbit",
      "id": 641,
      "attributes": {
        "nomor_pb_umku": null,
        "nama": "Minasa Social Banking",
        "website": "https://socialbanking.id",
        "sektor": "Sektor Teknologi Informasi dan Komunikasi",
        "nama_perusahaan": "MINASA FINTEKNOLOGI SYARIAH",
        "tanggal_daftar": "2021-04-26",
        "nomor_tanda_daftar": "000524.01/DJAI.PSE/04/2021",
        "qr_code": "https://pse.kominfo.go.id/storage/images/qr_code/242bf062b70e2bcb87349d8c9dbb04a6.png",
        "status_id": "TERDAFTAR",
        "sistem_elektronik_id": 3271
      }
    },
    {
      "type": "tdpseTerbit",
      "id": 10186,
      "attributes": {
        "nomor_pb_umku": "912050280164600000001",
        "nama": "MOLA RADIO",
        "website": "-",
        "sektor": "Sektor Teknologi Informasi dan Komunikasi",
        "nama_perusahaan": "GLOBAL MEDIA VISUAL",
        "tanggal_daftar": "2022-08-10",
        "nomor_tanda_daftar": "000523.02/DJAI.PSE/08/2022",
        "qr_code": "https://pse.kominfo.go.id/storage/images/qr_code/1a0ed1c75c992bc7bd2628c41334c6f2.png",
        "status_id": "TERDAFTAR",
        "sistem_elektronik_id": 9981
      }
    }
  ]
}