{
  "meta": {
    "page": {
      "currentPage": 1018,
      "from": 10171,
      "lastPage": 1074,
      "perPage": 10,
      "to": 10180,
      "total": 10738
    }
  },
  "data": [
    {
      "type": "tdpseTerbit",
      "id": 379,
      "attributes": {
        "nomor_pb_umku": null,
        "nama": "PT.Bursa Crypto indonesia ( Cryptoindex.id)",
        "website": "www.cryptoindex.id",
        "sektor": "Sektor Perdagangan",
        "nama_perusahaan": "BURSA CRYPTO INDONESIA",
        "tanggal_daftar": "2021-03-15",
        "nomor_tanda_daftar": "000310.01/DJAI.PSE/03/2021",
        "qr_code": "https://pse.kominfo.go.id/storage/images/qr_code/ba098bf066825248a16c62d7a514dcd5.png",
        "status_id": "TERDAFTAR",
        "sistem_elektronik_id": 154
      }
    },
    {
      "type": "tdpseTerbit",
      "id": 378,
      "attributes": {
        "nomor_pb_umku": null,
        "nama": "Konsultanku",
        "website": "https://www.konsultanku.co.id",
        "sektor": "Sektor Perdagangan",
        "nama_perusahaan": "KONSULTANKU NUSANTARA DIGITAL",
        "tanggal_daftar": "2021-03-15",
        "nomor_tanda_daftar": "000309.01/DJAI.PSE/03/2021",
        "qr_code": "https://pse.kominfo.go.id/storage/images/qr_code/6119223c5ff7c72951de02089694a21c.png",
        "status_id": "TERDAFTAR",
        "sistem_elektronik_id": 161
      }
    },
    {
      "type": "tdpseTerbit",
      "id": 377,
      "attributes": {
        "nomor_pb_umku": null,
        "nama": "DANA KU",
        "website": "Http://www.danaku.com",
        "sektor": "Sektor Teknologi Informasi dan Komunikasi",
        "nama_perusahaan": "SIMPAN PINJAM DANA PANDAWA LIMA",
        "tanggal_daftar": "2021-03-15",
        "nomor_tanda_daftar": "000308.01/DJAI.PSE/03/2021",
        "qr_code": "https://pse.kominfo.go.id/storage/images/qr_code/d55eed8e3f0d53a2ca07db3d6c59e273.png",
        "status_id": "TERDAFTAR",
        "sistem_elektronik_id": 143
      }
    },
    {
      "type": "tdpseTerbit",
      "id": 376,
      "attributes": {
        "nomor_pb_umku": null,
        "nama": "PINK MONEY",
        "website": "Http://www.pinkmoney.com",
        "sektor": "Sektor Teknologi Informasi dan Komunikasi",
        "nama_perusahaan": "SIMPAN PINJAM DANA LESTARI INDONESIA",
        "tanggal_daftar": "2021-03-15",
        "nomor_tanda_daftar": "000307.01/DJAI.PSE/03/2021",
        "qr_code": "https://pse.kominfo.go.id/storage/images/qr_code/1025b995595ea7814af45d9236bfee74.png",
        "status_id": "TERDAFTAR",
        "sistem_elektronik_id": 156
      }
    },
    {
      "type": "tdpseTerbit",
      "id": 375,
      "attributes": {
        "nomor_pb_umku": null,
        "nama": "DOMPET KITA",
        "website": "Http://www.dompetkita.com",
        "sektor": "Sektor Teknologi Informasi dan Komunikasi",
        "nama_perusahaan": "SIMPAN PINJAM RAYA PUTRA MANDIRI",
        "tanggal_daftar": "2021-03-15",
        "nomor_tanda_daftar": "000306.01/DJAI.PSE/03/2021",
        "qr_code": "https://pse.kominfo.go.id/storage/images/qr_code/5c59226a54d52a0d24d2d25594feab8c.png",
        "status_id": "TERDAFTAR",
        "sistem_elektronik_id": 145
      }
    },
    {
      "type": "tdpseTerbit",
      "id": 382,
      "attributes": {
        "nomor_pb_umku": null,
        "nama": "Website Sun Life Financial Indonesia",
        "website": "https://www.sunlife.co.id/",
        "sektor": "Sektor Keuangan",
        "nama_perusahaan": "SUN LIFE FINANCIAL INDONESIA",
        "tanggal_daftar": "2021-03-15",
        "nomor_tanda_daftar": "000305.04/DJAI.PSE/03/2021",
        "qr_code": "https://pse.kominfo.go.id/storage/images/qr_code/8bee8c3c1faf42521f0b13c61f68471c.png",
        "status_id": "TERDAFTAR",
        "sistem_elektronik_id": 2609
      }
    },
    {
      "type": "tdpseTerbit",
      "id": 381,
      "attributes": {
        "nomor_pb_umku": null,
        "nama": "My Sun Life",
        "website": "https://client.sunlife.co.id/",
        "sektor": "Sektor Keuangan",
        "nama_perusahaan": "SUN LIFE FINANCIAL INDONESIA",
        "tanggal_daftar": "2021-03-15",
        "nomor_tanda_daftar": "000305.03/DJAI.PSE/03/2021",
        "qr_code": "https://pse.kominfo.go.id/storage/images/qr_code/389847bbf2797a338097a179736bbc26.png",
        "status_id": "TERDAFTAR",
        "sistem_elektronik_id": 2608
      }
    },
    {
      "type": "tdpseTerbit",
      "id": 380,
      "attributes": {
        "nomor_pb_umku": null,
        "nama": "Sun Smart",
        "website": "-",
        "sektor": "Sektor Keuangan",
        "nama_perusahaan": "SUN LIFE FINANCIAL INDONESIA",
        "tanggal_daftar": "2021-03-15",
        "nomor_tanda_daftar": "000305.02/DJAI.PSE/03/2021",
        "qr_code": "https://pse.kominfo.go.id/storage/images/qr_code/e44884091d21ab76a47142ec488244b3.png",
        "status_id": "TERDAFTAR",
        "sistem_elektronik_id": 2607
      }
    },
    {
      "type": "tdpseTerbit",
      "id": 374,
      "attributes": {
        "nomor_pb_umku": null,
        "nama": "Sun Connect",
        "website": "https://b2b.sunlife.co.id/sun-connect-advisor/",
        "sektor": "Sektor Keuangan",
        "nama_perusahaan": "SUN LIFE FINANCIAL INDONESIA",
        "tanggal_daftar": "2021-03-15",
        "nomor_tanda_daftar": "000305.01/DJAI.PSE/03/2021",
        "qr_code": "https://pse.kominfo.go.id/storage/images/qr_code/b410141514493021bbe691ef7db8cf6c.png",
        "status_id": "TERDAFTAR",
        "sistem_elektronik_id": 2606
      }
    },
    {
      "type": "tdpseTerbit",
      "id": 373,
      "attributes": {
        "nomor_pb_umku": null,
        "nama": "TUNAI BOLD",
        "website": "Http://www.tunaibold.com",
        "sektor": "Sektor Teknologi Informasi dan Komunikasi",
        "nama_perusahaan": "SIMPAN PINJAM DANA BATAVIA JAYA",
        "tanggal_daftar": "2021-03-15",
        "nomor_tanda_daftar": "000304.01/DJAI.PSE/03/2021",
        "qr_code": "https://pse.kominfo.go.id/storage/images/qr_code/4c82f583f42cf84db36d755b686a07ef.png",
        "status_id": "TERDAFTAR",
        "sistem_elektronik_id": 159
      }
    }
  ]
}