{
  "meta": {
    "page": {
      "currentPage": 1021,
      "from": 10201,
      "lastPage": 1041,
      "perPage": 10,
      "to": 10210,
      "total": 10407
    }
  },
  "data": [
    {
      "type": "tdpseTerbit",
      "id": 133,
      "attributes": {
        "nomor_pb_umku": null,
        "nama": "Hiberlin.co.id",
        "website": "Hiberlin.co.id",
        "sektor": "Sektor Perdagangan",
        "nama_perusahaan": "JAYA BERDIKARI TEKNOLOGI INFORMATIKA",
        "tanggal_daftar": "2021-02-24",
        "nomor_tanda_daftar": "000120.01/DJAI.PSE/02/2021",
        "qr_code": "https://pse.kominfo.go.id/storage/images/qr_code/42b783f923ca3055c3dad1a1a0ba2e08.png",
        "status_id": "TERDAFTAR",
        "sistem_elektronik_id": 2435
      }
    },
    {
      "type": "tdpseTerbit",
      "id": 132,
      "attributes": {
        "nomor_pb_umku": null,
        "nama": "https://myrobin.id",
        "website": "https://myrobin.id",
        "sektor": "Sektor Teknologi Informasi dan Komunikasi",
        "nama_perusahaan": "MYROBIN INDONESIA TEKNOLOGI",
        "tanggal_daftar": "2021-02-24",
        "nomor_tanda_daftar": "000119.01/DJAI.PSE/02/2021",
        "qr_code": "https://pse.kominfo.go.id/storage/images/qr_code/b60614491010be73eb66ceb97cac43de.png",
        "status_id": "TERDAFTAR",
        "sistem_elektronik_id": 2416
      }
    },
    {
      "type": "tdpseTerbit",
      "id": 4785,
      "attributes": {
        "nomor_pb_umku": "126800011127600000001",
        "nama": "KISABUS",
        "website": "kisabus.com",
        "sektor": "Sektor Transportasi, Sektor Teknologi Informasi dan Komunikasi",
        "nama_perusahaan": "KISA TRAVELINDO PRISTAMA",
        "tanggal_daftar": "2022-06-27",
        "nomor_tanda_daftar": "000118.02/DJAI.PSE/06/2022",
        "qr_code": "https://pse.kominfo.go.id/storage/images/qr_code/642d01b3aa573563837ed857c496ebad.png",
        "status_id": "TERDAFTAR",
        "sistem_elektronik_id": 4728
      }
    },
    {
      "type": "tdpseTerbit",
      "id": 131,
      "attributes": {
        "nomor_pb_umku": null,
        "nama": "KISATOUR",
        "website": "www.kisatour.id",
        "sektor": "Sektor Keuangan, Sektor Perdagangan, Sektor Teknologi Informasi dan Komunikasi, Sektor Transportasi",
        "nama_perusahaan": "KISA TRAVELINDO PRISTAMA",
        "tanggal_daftar": "2021-02-24",
        "nomor_tanda_daftar": "000118.01/DJAI.PSE/02/2021",
        "qr_code": "https://pse.kominfo.go.id/storage/images/qr_code/60d65b5de5a154ec5e0626ee68b42a4d.png",
        "status_id": "TERDAFTAR",
        "sistem_elektronik_id": 2571
      }
    },
    {
      "type": "tdpseTerbit",
      "id": 130,
      "attributes": {
        "nomor_pb_umku": null,
        "nama": "YeahMeshi",
        "website": "www.yeahmeshi.com",
        "sektor": "Sektor Perdagangan",
        "nama_perusahaan": "SOLUSI MASAK INDONESIA",
        "tanggal_daftar": "2021-02-24",
        "nomor_tanda_daftar": "000117.01/DJAI.PSE/02/2021",
        "qr_code": "https://pse.kominfo.go.id/storage/images/qr_code/d2309bc9a9c51f751638d1e2ca0c29ba.png",
        "status_id": "TERDAFTAR",
        "sistem_elektronik_id": 2566
      }
    },
    {
      "type": "tdpseTerbit",
      "id": 11138,
      "attributes": {
        "nomor_pb_umku": "812000382174400030002",
        "nama": "KOLTITRACE SHOP",
        "website": "koltitraceshop.com",
        "sektor": "Sektor Perdagangan, Sektor Teknologi Informasi dan Komunikasi",
        "nama_perusahaan": "KOLTIVA",
        "tanggal_daftar": "2022-09-12",
        "nomor_tanda_daftar": "000116.07/DJAI.PSE/09/2022",
        "qr_code": "https://pse.kominfo.go.id/storage/images/qr_code/84befb7a6edebfc4857007a3456141f0.png",
        "status_id": "TERDAFTAR",
        "sistem_elektronik_id": 10945
      }
    },
    {
      "type": "tdpseTerbit",
      "id": 1645,
      "attributes": {
        "nomor_pb_umku": null,
        "nama": "SeaweedTrace",
        "website": "https://app.seaweedtrace.com/system/login/index/#",
        "sektor": "Sektor Perdagangan, Sektor Teknologi Informasi dan Komunikasi",
        "nama_perusahaan": "KOLTIVA",
        "tanggal_daftar": "2021-07-05",
        "nomor_tanda_daftar": "000116.06/DJAI.PSE/07/2021",
        "qr_code": "https://pse.kominfo.go.id/storage/images/qr_code/305b70fb820bf0f2e37e5f58de11c964.png",
        "status_id": "TERDAFTAR",
        "sistem_elektronik_id": 2335
      }
    },
    {
      "type": "tdpseTerbit",
      "id": 1365,
      "attributes": {
        "nomor_pb_umku": null,
        "nama": "CoffeeTrace",
        "website": "app.coffeetrace.com",
        "sektor": "Sektor Perdagangan, Sektor Teknologi Informasi dan Komunikasi",
        "nama_perusahaan": "KOLTIVA",
        "tanggal_daftar": "2021-06-02",
        "nomor_tanda_daftar": "000116.05/DJAI.PSE/06/2021",
        "qr_code": "https://pse.kominfo.go.id/storage/images/qr_code/e90fd05039157e1b21eabcb429d52375.png",
        "status_id": "TERDAFTAR",
        "sistem_elektronik_id": 2334
      }
    },
    {
      "type": "tdpseTerbit",
      "id": 1345,
      "attributes": {
        "nomor_pb_umku": null,
        "nama": "RubberTrace",
        "website": "-",
        "sektor": "Sektor Pangan, Sektor Perdagangan, Sektor Teknologi Informasi dan Komunikasi",
        "nama_perusahaan": "KOLTIVA",
        "tanggal_daftar": "2021-06-02",
        "nomor_tanda_daftar": "000116.04/DJAI.PSE/06/2021",
        "qr_code": "https://pse.kominfo.go.id/storage/images/qr_code/c94f9cf9e065c0dc0f011b798e1d9cc1.png",
        "status_id": "TERDAFTAR",
        "sistem_elektronik_id": 2333
      }
    },
    {
      "type": "tdpseTerbit",
      "id": 644,
      "attributes": {
        "nomor_pb_umku": null,
        "nama": "KOLTIMART",
        "website": "koltimart.com",
        "sektor": "Sektor Perdagangan, Sektor Teknologi Informasi dan Komunikasi",
        "nama_perusahaan": "KOLTIVA",
        "tanggal_daftar": "2021-04-26",
        "nomor_tanda_daftar": "000116.03/DJAI.PSE/04/2021",
        "qr_code": "https://pse.kominfo.go.id/storage/images/qr_code/34485c44caaf237c8aa281a5a93fe463.png",
        "status_id": "TERDAFTAR",
        "sistem_elektronik_id": 2332
      }
    }
  ]
}