{
  "meta": {
    "page": {
      "currentPage": 1024,
      "from": 10231,
      "lastPage": 1052,
      "perPage": 10,
      "to": 10240,
      "total": 10513
    }
  },
  "data": [
    {
      "type": "tdpseTerbit",
      "id": 178,
      "attributes": {
        "nomor_pb_umku": null,
        "nama": "BLUE E-MART",
        "website": "https://id.mart.blue/id",
        "sektor": "Sektor Perdagangan",
        "nama_perusahaan": "MOBIL BIRU INTERNASIONAL",
        "tanggal_daftar": "2021-02-25",
        "nomor_tanda_daftar": "000157.01/DJAI.PSE/02/2021",
        "qr_code": "https://pse.kominfo.go.id/storage/images/qr_code/dcdf9ef4992ff15b38d75f30193686a9.png",
        "status_id": "TERDAFTAR",
        "sistem_elektronik_id": 2652
      }
    },
    {
      "type": "tdpseTerbit",
      "id": 1666,
      "attributes": {
        "nomor_pb_umku": null,
        "nama": "All In One",
        "website": "www.syde.co",
        "sektor": "Sektor Teknologi Informasi dan Komunikasi",
        "nama_perusahaan": "SYDECO",
        "tanggal_daftar": "2021-07-08",
        "nomor_tanda_daftar": "000156.04/DJAI.PSE/07/2021",
        "qr_code": "https://pse.kominfo.go.id/storage/images/qr_code/fa06ccb16ccd60afcbd948315ec2c8d3.png",
        "status_id": "TERDAFTAR",
        "sistem_elektronik_id": 2660
      }
    },
    {
      "type": "tdpseTerbit",
      "id": 177,
      "attributes": {
        "nomor_pb_umku": null,
        "nama": "sydecloud",
        "website": "sydeloud.com",
        "sektor": "Sektor Teknologi Informasi dan Komunikasi",
        "nama_perusahaan": "SYDECO",
        "tanggal_daftar": "2021-02-25",
        "nomor_tanda_daftar": "000156.03/DJAI.PSE/02/2021",
        "qr_code": "https://pse.kominfo.go.id/storage/images/qr_code/1724c9abc8c25c7afacad8755e5f752e.png",
        "status_id": "TERDAFTAR",
        "sistem_elektronik_id": 2659
      }
    },
    {
      "type": "tdpseTerbit",
      "id": 176,
      "attributes": {
        "nomor_pb_umku": null,
        "nama": "SST (Secure Sistem of Transmition)",
        "website": "www.syde.co",
        "sektor": "Sektor Teknologi Informasi dan Komunikasi",
        "nama_perusahaan": "SYDECO",
        "tanggal_daftar": "2021-02-25",
        "nomor_tanda_daftar": "000156.02/DJAI.PSE/02/2021",
        "qr_code": "https://pse.kominfo.go.id/storage/images/qr_code/f4c374d5eafed33bb1474ea872daab4c.png",
        "status_id": "TERDAFTAR",
        "sistem_elektronik_id": 2658
      }
    },
    {
      "type": "tdpseTerbit",
      "id": 175,
      "attributes": {
        "nomor_pb_umku": null,
        "nama": "SP-ONE",
        "website": "www.syde.co",
        "sektor": "Sektor Teknologi Informasi dan Komunikasi",
        "nama_perusahaan": "SYDECO",
        "tanggal_daftar": "2021-02-25",
        "nomor_tanda_daftar": "000156.01/DJAI.PSE/02/2021",
        "qr_code": "https://pse.kominfo.go.id/storage/images/qr_code/de426ea429333cae1e60447e266538db.png",
        "status_id": "TERDAFTAR",
        "sistem_elektronik_id": 2657
      }
    },
    {
      "type": "tdpseTerbit",
      "id": 11404,
      "attributes": {
        "nomor_pb_umku": "912030111272600010010",
        "nama": "KINESIS MONETARY SYSTEM",
        "website": "kinesis.money",
        "sektor": "Sektor Perdagangan",
        "nama_perusahaan": "BULLION ECOSYSTEM INTERNATIONAL",
        "tanggal_daftar": "2022-09-28",
        "nomor_tanda_daftar": "000155.16/DJAI.PSE/09/2022",
        "qr_code": "https://pse.kominfo.go.id/storage/images/qr_code/2ff485238824433023d29ad67d7e9752.png",
        "status_id": "TERDAFTAR",
        "sistem_elektronik_id": 11218
      }
    },
    {
      "type": "tdpseTerbit",
      "id": 11399,
      "attributes": {
        "nomor_pb_umku": "912030111272600010009",
        "nama": "SISTEM LIKUIDITAS PERDAGANGAN FISIK EMAS DIGITAL DALAM BURSA",
        "website": "kinesis.money",
        "sektor": "Sektor Perdagangan",
        "nama_perusahaan": "BULLION ECOSYSTEM INTERNATIONAL",
        "tanggal_daftar": "2022-09-28",
        "nomor_tanda_daftar": "000155.15/DJAI.PSE/09/2022",
        "qr_code": "https://pse.kominfo.go.id/storage/images/qr_code/b6a9fedea4c0e87a07b3d946f94d6c94.png",
        "status_id": "TERDAFTAR",
        "sistem_elektronik_id": 11212
      }
    },
    {
      "type": "tdpseTerbit",
      "id": 11272,
      "attributes": {
        "nomor_pb_umku": "912030111272600010008",
        "nama": "HALAL BAZAAR",
        "website": "halalbazaar.bullionecosystem.com",
        "sektor": "Sektor Perdagangan",
        "nama_perusahaan": "BULLION ECOSYSTEM INTERNATIONAL",
        "tanggal_daftar": "2022-09-21",
        "nomor_tanda_daftar": "000155.14/DJAI.PSE/09/2022",
        "qr_code": "https://pse.kominfo.go.id/storage/images/qr_code/6fdb0d8a08f5e3a970c48fccd6888e56.png",
        "status_id": "TERDAFTAR",
        "sistem_elektronik_id": 11080
      }
    },
    {
      "type": "tdpseTerbit",
      "id": 11189,
      "attributes": {
        "nomor_pb_umku": "912030111272600010007",
        "nama": "GOLDTOMECCA",
        "website": "goldtomecca.com",
        "sektor": "Sektor Perdagangan",
        "nama_perusahaan": "BULLION ECOSYSTEM INTERNATIONAL",
        "tanggal_daftar": "2022-09-14",
        "nomor_tanda_daftar": "000155.13/DJAI.PSE/09/2022",
        "qr_code": "https://pse.kominfo.go.id/storage/images/qr_code/ce673fe73f88c05a35e2d513975b4aa0.png",
        "status_id": "TERDAFTAR",
        "sistem_elektronik_id": 10996
      }
    },
    {
      "type": "tdpseTerbit",
      "id": 7479,
      "attributes": {
        "nomor_pb_umku": "912030111272600010010",
        "nama": "JFXGRIT",
        "website": "jfxgrit-app.jfx.co.id",
        "sektor": "Sektor Perdagangan",
        "nama_perusahaan": "BULLION ECOSYSTEM INTERNATIONAL",
        "tanggal_daftar": "2022-07-20",
        "nomor_tanda_daftar": "000155.12/DJAI.PSE/07/2022",
        "qr_code": "https://pse.kominfo.go.id/storage/images/qr_code/1f239298aea28b47c2299071d59bbb17.png",
        "status_id": "TERDAFTAR",
        "sistem_elektronik_id": 7386
      }
    }
  ]
}