{
  "meta": {
    "page": {
      "currentPage": 1025,
      "from": 10241,
      "lastPage": 1111,
      "perPage": 10,
      "to": 10250,
      "total": 11105
    }
  },
  "data": [
    {
      "type": "tdpseTerbit",
      "id": 2828,
      "attributes": {
        "nomor_pb_umku": null,
        "nama": "Boost",
        "website": "myboost.co.id",
        "sektor": "Sektor Keuangan",
        "nama_perusahaan": "CREATIVE MOBILE ADVENTURE",
        "tanggal_daftar": "2021-12-21",
        "nomor_tanda_daftar": "000468.02/DJAI.PSE/12/2021",
        "qr_code": "https://pse.kominfo.go.id/storage/images/qr_code/c1f816369dd8500dd3a46efc76a5b488.png",
        "status_id": "TERDAFTAR",
        "sistem_elektronik_id": 2800
      }
    },
    {
      "type": "tdpseTerbit",
      "id": 574,
      "attributes": {
        "nomor_pb_umku": null,
        "nama": "Aspirasi",
        "website": "aspirasi.co.id",
        "sektor": "Sektor Keuangan",
        "nama_perusahaan": "CREATIVE MOBILE ADVENTURE",
        "tanggal_daftar": "2021-04-26",
        "nomor_tanda_daftar": "000468.01/DJAI.PSE/04/2021",
        "qr_code": "https://pse.kominfo.go.id/storage/images/qr_code/4bf8243acd6a5bd643da5a1db1180023.png",
        "status_id": "TERDAFTAR",
        "sistem_elektronik_id": 2799
      }
    },
    {
      "type": "tdpseTerbit",
      "id": 572,
      "attributes": {
        "nomor_pb_umku": null,
        "nama": "NEU",
        "website": "-",
        "sektor": "Sektor Perdagangan",
        "nama_perusahaan": "NEU INKLUSI KEUANGAN",
        "tanggal_daftar": "2021-04-26",
        "nomor_tanda_daftar": "000467.01/DJAI.PSE/04/2021",
        "qr_code": "https://pse.kominfo.go.id/storage/images/qr_code/27396d3c490307242ca7841d35f60a61.png",
        "status_id": "TERDAFTAR",
        "sistem_elektronik_id": 144
      }
    },
    {
      "type": "tdpseTerbit",
      "id": 573,
      "attributes": {
        "nomor_pb_umku": null,
        "nama": "FlashJob",
        "website": "flashjob.blue",
        "sektor": "Sektor Teknologi Informasi dan Komunikasi",
        "nama_perusahaan": "FORTUNA PLATINA INDONESIA",
        "tanggal_daftar": "2021-04-26",
        "nomor_tanda_daftar": "000466.02/DJAI.PSE/04/2021",
        "qr_code": "https://pse.kominfo.go.id/storage/images/qr_code/f840d8f7f134bf94b505020b0439fc82.png",
        "status_id": "TERDAFTAR",
        "sistem_elektronik_id": 2648
      }
    },
    {
      "type": "tdpseTerbit",
      "id": 571,
      "attributes": {
        "nomor_pb_umku": null,
        "nama": "Licorice Indonesia",
        "website": "licorice.pink/?locale=indo",
        "sektor": "Sektor Teknologi Informasi dan Komunikasi",
        "nama_perusahaan": "FORTUNA PLATINA INDONESIA",
        "tanggal_daftar": "2021-04-26",
        "nomor_tanda_daftar": "000466.01/DJAI.PSE/04/2021",
        "qr_code": "https://pse.kominfo.go.id/storage/images/qr_code/46d97b208b6e61f68ebd7122a743d968.png",
        "status_id": "TERDAFTAR",
        "sistem_elektronik_id": 2647
      }
    },
    {
      "type": "tdpseTerbit",
      "id": 570,
      "attributes": {
        "nomor_pb_umku": null,
        "nama": "Amazon Data Services Indonesia",
        "website": "https://aws.amazon.com/id/",
        "sektor": "Sektor Teknologi Informasi dan Komunikasi",
        "nama_perusahaan": "AMAZON DATA SERVICES INDONESIA",
        "tanggal_daftar": "2021-04-26",
        "nomor_tanda_daftar": "000465.01/DJAI.PSE/04/2021",
        "qr_code": "https://pse.kominfo.go.id/storage/images/qr_code/d9d496913d8ac7601a265e64ebcd1b5e.png",
        "status_id": "TERDAFTAR",
        "sistem_elektronik_id": 3252
      }
    },
    {
      "type": "tdpseTerbit",
      "id": 2490,
      "attributes": {
        "nomor_pb_umku": null,
        "nama": "Pesanantar",
        "website": "pesanantar.com",
        "sektor": "Sektor Perdagangan, Sektor Teknologi Informasi dan Komunikasi",
        "nama_perusahaan": "GEMANUSA SENTRA TEKNOLOGI",
        "tanggal_daftar": "2021-11-29",
        "nomor_tanda_daftar": "000464.03/DJAI.PSE/11/2021",
        "qr_code": "https://pse.kominfo.go.id/storage/images/qr_code/b6d22e53e0b769613999a2045dd497e5.png",
        "status_id": "TERDAFTAR",
        "sistem_elektronik_id": 3251
      }
    },
    {
      "type": "tdpseTerbit",
      "id": 2321,
      "attributes": {
        "nomor_pb_umku": null,
        "nama": "Wanipiro",
        "website": "wanipiro.com",
        "sektor": "Sektor Perdagangan, Sektor Teknologi Informasi dan Komunikasi",
        "nama_perusahaan": "GEMANUSA SENTRA TEKNOLOGI",
        "tanggal_daftar": "2021-11-08",
        "nomor_tanda_daftar": "000464.02/DJAI.PSE/11/2021",
        "qr_code": "https://pse.kominfo.go.id/storage/images/qr_code/7e9d463ea1482fd2111f81c696dc1eae.png",
        "status_id": "TERDAFTAR",
        "sistem_elektronik_id": 3250
      }
    },
    {
      "type": "tdpseTerbit",
      "id": 569,
      "attributes": {
        "nomor_pb_umku": null,
        "nama": "SixtydB",
        "website": "www.sixtydb.com",
        "sektor": "Sektor Perdagangan, Sektor Teknologi Informasi dan Komunikasi",
        "nama_perusahaan": "GEMANUSA SENTRA TEKNOLOGI",
        "tanggal_daftar": "2021-04-26",
        "nomor_tanda_daftar": "000464.01/DJAI.PSE/04/2021",
        "qr_code": "https://pse.kominfo.go.id/storage/images/qr_code/237daa9cdc5be1035f50722332d6613e.png",
        "status_id": "TERDAFTAR",
        "sistem_elektronik_id": 3249
      }
    },
    {
      "type": "tdpseTerbit",
      "id": 568,
      "attributes": {
        "nomor_pb_umku": null,
        "nama": "Yodu",
        "website": "www.yodu.id",
        "sektor": "Sektor Keuangan, Sektor Perdagangan",
        "nama_perusahaan": "AKASANET BUMI NUSANTARA",
        "tanggal_daftar": "2021-04-26",
        "nomor_tanda_daftar": "000463.01/DJAI.PSE/04/2021",
        "qr_code": "https://pse.kominfo.go.id/storage/images/qr_code/46ab6dbc86dfc725d5bf207474e547f7.png",
        "status_id": "TERDAFTAR",
        "sistem_elektronik_id": 213
      }
    }
  ]
}