{
  "meta": {
    "page": {
      "currentPage": 1026,
      "from": 10251,
      "lastPage": 1086,
      "perPage": 10,
      "to": 10260,
      "total": 10851
    }
  },
  "data": [
    {
      "type": "tdpseTerbit",
      "id": 404,
      "attributes": {
        "nomor_pb_umku": null,
        "nama": "Digidesa",
        "website": "https://digidesa.com",
        "sektor": "Sektor Teknologi Informasi dan Komunikasi",
        "nama_perusahaan": "SOLUSI DATA MADANI",
        "tanggal_daftar": "2021-03-16",
        "nomor_tanda_daftar": "000330.01/DJAI.PSE/03/2021",
        "qr_code": "https://pse.kominfo.go.id/storage/images/qr_code/03b9394c8a090a3d9cd376c57edeb5d0.png",
        "status_id": "TERDAFTAR",
        "sistem_elektronik_id": 206
      }
    },
    {
      "type": "tdpseTerbit",
      "id": 403,
      "attributes": {
        "nomor_pb_umku": null,
        "nama": "RaksaOnline",
        "website": "https://raksaonline.com/",
        "sektor": "Sektor Keuangan",
        "nama_perusahaan": "ASURANSI RAKSA PRATIKARA",
        "tanggal_daftar": "2021-03-16",
        "nomor_tanda_daftar": "000329.01/DJAI.PSE/03/2021",
        "qr_code": "https://pse.kominfo.go.id/storage/images/qr_code/a7ca862eb7f5fc265b9bbbe6552098dd.png",
        "status_id": "TERDAFTAR",
        "sistem_elektronik_id": 133
      }
    },
    {
      "type": "tdpseTerbit",
      "id": 402,
      "attributes": {
        "nomor_pb_umku": null,
        "nama": "VIPLUS",
        "website": "www.viplus.id",
        "sektor": "Sektor Teknologi Informasi dan Komunikasi",
        "nama_perusahaan": "KOMUNITAS CERDAS INDONESIA",
        "tanggal_daftar": "2021-03-16",
        "nomor_tanda_daftar": "000328.01/DJAI.PSE/03/2021",
        "qr_code": "https://pse.kominfo.go.id/storage/images/qr_code/dbf2fc9759494e1ebc68eeabf95d4672.png",
        "status_id": "TERDAFTAR",
        "sistem_elektronik_id": 196
      }
    },
    {
      "type": "tdpseTerbit",
      "id": 401,
      "attributes": {
        "nomor_pb_umku": null,
        "nama": "Hi-tech Smart Solution AI call-center",
        "website": "https://www.smartsolutions.sg",
        "sektor": "Sektor Teknologi Informasi dan Komunikasi",
        "nama_perusahaan": "HITECH SMART SOLUTION",
        "tanggal_daftar": "2021-03-16",
        "nomor_tanda_daftar": "000327.01/DJAI.PSE/03/2021",
        "qr_code": "https://pse.kominfo.go.id/storage/images/qr_code/646186b074c3cb75e1eb7e5b0bf32da1.png",
        "status_id": "TERDAFTAR",
        "sistem_elektronik_id": 151
      }
    },
    {
      "type": "tdpseTerbit",
      "id": 400,
      "attributes": {
        "nomor_pb_umku": null,
        "nama": "BITUBI",
        "website": "WWW.BITUBI.ID",
        "sektor": "Sektor Energi dan Sumber Daya Mineral, Sektor Perdagangan, Sektor Teknologi Informasi dan Komunikasi, Sektor Transportasi",
        "nama_perusahaan": "INFONESIA MEGA NUSANTARA",
        "tanggal_daftar": "2021-03-16",
        "nomor_tanda_daftar": "000326.01/DJAI.PSE/03/2021",
        "qr_code": "https://pse.kominfo.go.id/storage/images/qr_code/19781728e405bd744085934e4922846e.png",
        "status_id": "TERDAFTAR",
        "sistem_elektronik_id": 187
      }
    },
    {
      "type": "tdpseTerbit",
      "id": 399,
      "attributes": {
        "nomor_pb_umku": null,
        "nama": "mncvision",
        "website": "https://www.mncvision.id",
        "sektor": "Sektor Teknologi Informasi dan Komunikasi",
        "nama_perusahaan": "MNC SKY VISION",
        "tanggal_daftar": "2021-03-16",
        "nomor_tanda_daftar": "000325.01/DJAI.PSE/03/2021",
        "qr_code": "https://pse.kominfo.go.id/storage/images/qr_code/2a53d9b4c4c4b9c1fd20c9e9d90cac10.png",
        "status_id": "TERDAFTAR",
        "sistem_elektronik_id": 3927
      }
    },
    {
      "type": "tdpseTerbit",
      "id": 397,
      "attributes": {
        "nomor_pb_umku": null,
        "nama": "LAKULOKA",
        "website": "lakuloka.id",
        "sektor": "Sektor Keuangan, Sektor Perdagangan, Sektor Teknologi Informasi dan Komunikasi",
        "nama_perusahaan": "LAKULOKA DIGITAL INDONESIA",
        "tanggal_daftar": "2021-03-16",
        "nomor_tanda_daftar": "000324.01/DJAI.PSE/03/2021",
        "qr_code": "https://pse.kominfo.go.id/storage/images/qr_code/ae457685ef3b3dc55cacdec6d1529314.png",
        "status_id": "TERDAFTAR",
        "sistem_elektronik_id": 195
      }
    },
    {
      "type": "tdpseTerbit",
      "id": 2477,
      "attributes": {
        "nomor_pb_umku": null,
        "nama": "Intismac Intschool Academy System - IIAS",
        "website": "https://mobile.intismac.com",
        "sektor": "Sektor Teknologi Informasi dan Komunikasi",
        "nama_perusahaan": "TITO PRABOWO",
        "tanggal_daftar": "2021-11-29",
        "nomor_tanda_daftar": "000323.02/DJAI.PSE/11/2021",
        "qr_code": "https://pse.kominfo.go.id/storage/images/qr_code/46db558124696fc56256013743ca2984.png",
        "status_id": "TERDAFTAR",
        "sistem_elektronik_id": 193
      }
    },
    {
      "type": "tdpseTerbit",
      "id": 396,
      "attributes": {
        "nomor_pb_umku": null,
        "nama": "Intismac Intschool (IIAS 2.0)",
        "website": "https://mobile.intismac.com",
        "sektor": "Sektor Teknologi Informasi dan Komunikasi",
        "nama_perusahaan": "TITO PRABOWO",
        "tanggal_daftar": "2021-03-15",
        "nomor_tanda_daftar": "000323.01/DJAI.PSE/03/2021",
        "qr_code": "https://pse.kominfo.go.id/storage/images/qr_code/525a1e0c44b9d742010795beeeb2a8e5.png",
        "status_id": "TERDAFTAR",
        "sistem_elektronik_id": 192
      }
    },
    {
      "type": "tdpseTerbit",
      "id": 395,
      "attributes": {
        "nomor_pb_umku": null,
        "nama": "Vestora",
        "website": "https://vestora.id",
        "sektor": "Sektor Keuangan, Sektor Teknologi Informasi dan Komunikasi",
        "nama_perusahaan": "HALALVESTOR GLOBAL ASIA",
        "tanggal_daftar": "2021-03-15",
        "nomor_tanda_daftar": "000322.01/DJAI.PSE/03/2021",
        "qr_code": "https://pse.kominfo.go.id/storage/images/qr_code/a30fcc45e7fbb610e90c3e84f9b2851d.png",
        "status_id": "TERDAFTAR",
        "sistem_elektronik_id": 155
      }
    }
  ]
}