{
  "meta": {
    "page": {
      "currentPage": 1028,
      "from": 10271,
      "lastPage": 1085,
      "perPage": 10,
      "to": 10280,
      "total": 10842
    }
  },
  "data": [
    {
      "type": "tdpseTerbit",
      "id": 384,
      "attributes": {
        "nomor_pb_umku": null,
        "nama": "Gumugu",
        "website": "https://www.gumugu.com",
        "sektor": "Sektor Keuangan, Sektor Perdagangan, Sektor Teknologi Informasi dan Komunikasi",
        "nama_perusahaan": "GUMUGU TEKNOLOGI KREATIF",
        "tanggal_daftar": "2021-03-15",
        "nomor_tanda_daftar": "000312.01/DJAI.PSE/03/2021",
        "qr_code": "https://pse.kominfo.go.id/storage/images/qr_code/6d3b9f1aed566bed38a6437f35ac5f7f.png",
        "status_id": "TERDAFTAR",
        "sistem_elektronik_id": 148
      }
    },
    {
      "type": "tdpseTerbit",
      "id": 8068,
      "attributes": {
        "nomor_pb_umku": "912040589091900030012",
        "nama": "KENDIXPRESS",
        "website": "kendixpress.com",
        "sektor": "Sektor Perdagangan",
        "nama_perusahaan": "REDKENDI ANDALAN MITRA",
        "tanggal_daftar": "2022-07-20",
        "nomor_tanda_daftar": "000311.02/DJAI.PSE/07/2022",
        "qr_code": "https://pse.kominfo.go.id/storage/images/qr_code/22a811a8ab0df01ebe2f12a44ffd5096.png",
        "status_id": "TERDAFTAR",
        "sistem_elektronik_id": 7988
      }
    },
    {
      "type": "tdpseTerbit",
      "id": 383,
      "attributes": {
        "nomor_pb_umku": null,
        "nama": "REDKENDI",
        "website": "www.redkendi.com",
        "sektor": "Sektor Perdagangan",
        "nama_perusahaan": "REDKENDI ANDALAN MITRA",
        "tanggal_daftar": "2021-03-15",
        "nomor_tanda_daftar": "000311.01/DJAI.PSE/03/2021",
        "qr_code": "https://pse.kominfo.go.id/storage/images/qr_code/2cd8c9051618b8766e821386d8ecd3b3.png",
        "status_id": "TERDAFTAR",
        "sistem_elektronik_id": 140
      }
    },
    {
      "type": "tdpseTerbit",
      "id": 379,
      "attributes": {
        "nomor_pb_umku": null,
        "nama": "PT.Bursa Crypto indonesia ( Cryptoindex.id)",
        "website": "www.cryptoindex.id",
        "sektor": "Sektor Perdagangan",
        "nama_perusahaan": "BURSA CRYPTO INDONESIA",
        "tanggal_daftar": "2021-03-15",
        "nomor_tanda_daftar": "000310.01/DJAI.PSE/03/2021",
        "qr_code": "https://pse.kominfo.go.id/storage/images/qr_code/ba098bf066825248a16c62d7a514dcd5.png",
        "status_id": "TERDAFTAR",
        "sistem_elektronik_id": 154
      }
    },
    {
      "type": "tdpseTerbit",
      "id": 378,
      "attributes": {
        "nomor_pb_umku": null,
        "nama": "Konsultanku",
        "website": "https://www.konsultanku.co.id",
        "sektor": "Sektor Perdagangan",
        "nama_perusahaan": "KONSULTANKU NUSANTARA DIGITAL",
        "tanggal_daftar": "2021-03-15",
        "nomor_tanda_daftar": "000309.01/DJAI.PSE/03/2021",
        "qr_code": "https://pse.kominfo.go.id/storage/images/qr_code/6119223c5ff7c72951de02089694a21c.png",
        "status_id": "TERDAFTAR",
        "sistem_elektronik_id": 161
      }
    },
    {
      "type": "tdpseTerbit",
      "id": 377,
      "attributes": {
        "nomor_pb_umku": null,
        "nama": "DANA KU",
        "website": "Http://www.danaku.com",
        "sektor": "Sektor Teknologi Informasi dan Komunikasi",
        "nama_perusahaan": "SIMPAN PINJAM DANA PANDAWA LIMA",
        "tanggal_daftar": "2021-03-15",
        "nomor_tanda_daftar": "000308.01/DJAI.PSE/03/2021",
        "qr_code": "https://pse.kominfo.go.id/storage/images/qr_code/d55eed8e3f0d53a2ca07db3d6c59e273.png",
        "status_id": "TERDAFTAR",
        "sistem_elektronik_id": 143
      }
    },
    {
      "type": "tdpseTerbit",
      "id": 376,
      "attributes": {
        "nomor_pb_umku": null,
        "nama": "PINK MONEY",
        "website": "Http://www.pinkmoney.com",
        "sektor": "Sektor Teknologi Informasi dan Komunikasi",
        "nama_perusahaan": "SIMPAN PINJAM DANA LESTARI INDONESIA",
        "tanggal_daftar": "2021-03-15",
        "nomor_tanda_daftar": "000307.01/DJAI.PSE/03/2021",
        "qr_code": "https://pse.kominfo.go.id/storage/images/qr_code/1025b995595ea7814af45d9236bfee74.png",
        "status_id": "TERDAFTAR",
        "sistem_elektronik_id": 156
      }
    },
    {
      "type": "tdpseTerbit",
      "id": 375,
      "attributes": {
        "nomor_pb_umku": null,
        "nama": "DOMPET KITA",
        "website": "Http://www.dompetkita.com",
        "sektor": "Sektor Teknologi Informasi dan Komunikasi",
        "nama_perusahaan": "SIMPAN PINJAM RAYA PUTRA MANDIRI",
        "tanggal_daftar": "2021-03-15",
        "nomor_tanda_daftar": "000306.01/DJAI.PSE/03/2021",
        "qr_code": "https://pse.kominfo.go.id/storage/images/qr_code/5c59226a54d52a0d24d2d25594feab8c.png",
        "status_id": "TERDAFTAR",
        "sistem_elektronik_id": 145
      }
    },
    {
      "type": "tdpseTerbit",
      "id": 382,
      "attributes": {
        "nomor_pb_umku": null,
        "nama": "Website Sun Life Financial Indonesia",
        "website": "https://www.sunlife.co.id/",
        "sektor": "Sektor Keuangan",
        "nama_perusahaan": "SUN LIFE FINANCIAL INDONESIA",
        "tanggal_daftar": "2021-03-15",
        "nomor_tanda_daftar": "000305.04/DJAI.PSE/03/2021",
        "qr_code": "https://pse.kominfo.go.id/storage/images/qr_code/8bee8c3c1faf42521f0b13c61f68471c.png",
        "status_id": "TERDAFTAR",
        "sistem_elektronik_id": 2609
      }
    },
    {
      "type": "tdpseTerbit",
      "id": 381,
      "attributes": {
        "nomor_pb_umku": null,
        "nama": "My Sun Life",
        "website": "https://client.sunlife.co.id/",
        "sektor": "Sektor Keuangan",
        "nama_perusahaan": "SUN LIFE FINANCIAL INDONESIA",
        "tanggal_daftar": "2021-03-15",
        "nomor_tanda_daftar": "000305.03/DJAI.PSE/03/2021",
        "qr_code": "https://pse.kominfo.go.id/storage/images/qr_code/389847bbf2797a338097a179736bbc26.png",
        "status_id": "TERDAFTAR",
        "sistem_elektronik_id": 2608
      }
    }
  ]
}