{
  "meta": {
    "page": {
      "currentPage": 1030,
      "from": 10291,
      "lastPage": 1068,
      "perPage": 10,
      "to": 10300,
      "total": 10675
    }
  },
  "data": [
    {
      "type": "tdpseTerbit",
      "id": 4802,
      "attributes": {
        "nomor_pb_umku": "028600191047600350002",
        "nama": "LKP MASTER COURSE",
        "website": "mastercourse.ac.id",
        "sektor": "Sektor Perdagangan, Sektor Teknologi Informasi dan Komunikasi",
        "nama_perusahaan": "LKP MASTER COURSE",
        "tanggal_daftar": "2022-06-27",
        "nomor_tanda_daftar": "000214.03/DJAI.PSE/06/2022",
        "qr_code": "https://pse.kominfo.go.id/storage/images/qr_code/4a6462b5290de0854c583a7178ca65ec.png",
        "status_id": "TERDAFTAR",
        "sistem_elektronik_id": 4744
      }
    },
    {
      "type": "tdpseTerbit",
      "id": 2869,
      "attributes": {
        "nomor_pb_umku": null,
        "nama": "MASTER COURSE",
        "website": "www.mastercourse.ac.id",
        "sektor": "Sektor Perdagangan, Sektor Teknologi Informasi dan Komunikasi",
        "nama_perusahaan": "LKP MASTER COURSE",
        "tanggal_daftar": "2021-12-24",
        "nomor_tanda_daftar": "000214.02/DJAI.PSE/12/2021",
        "qr_code": "https://pse.kominfo.go.id/storage/images/qr_code/97efbf48ad3068551bcf584962bd39c6.png",
        "status_id": "TERDAFTAR",
        "sistem_elektronik_id": 2564
      }
    },
    {
      "type": "tdpseTerbit",
      "id": 252,
      "attributes": {
        "nomor_pb_umku": null,
        "nama": "bimbelmc",
        "website": "https://bimbelmc.com/",
        "sektor": "Sektor Perdagangan, Sektor Teknologi Informasi dan Komunikasi",
        "nama_perusahaan": "LKP MASTER COURSE",
        "tanggal_daftar": "2021-02-25",
        "nomor_tanda_daftar": "000214.01/DJAI.PSE/02/2021",
        "qr_code": "https://pse.kominfo.go.id/storage/images/qr_code/de7b87ec36bbfbb5d21aee47a4f59987.png",
        "status_id": "TERDAFTAR",
        "sistem_elektronik_id": 2563
      }
    },
    {
      "type": "tdpseTerbit",
      "id": 251,
      "attributes": {
        "nomor_pb_umku": null,
        "nama": "CONTACLESS MENU",
        "website": "https://aigens.com",
        "sektor": "Sektor Teknologi Informasi dan Komunikasi",
        "nama_perusahaan": "AIGENS TECHNOLOGY INDONESIA",
        "tanggal_daftar": "2021-02-25",
        "nomor_tanda_daftar": "000213.01/DJAI.PSE/02/2021",
        "qr_code": "https://pse.kominfo.go.id/storage/images/qr_code/56af6e3cdb98a4aaa69e80541514380a.png",
        "status_id": "TERDAFTAR",
        "sistem_elektronik_id": 2741
      }
    },
    {
      "type": "tdpseTerbit",
      "id": 250,
      "attributes": {
        "nomor_pb_umku": null,
        "nama": "Aktivaku",
        "website": "aktivaku.com, aktivaku.id",
        "sektor": "Sektor Keuangan",
        "nama_perusahaan": "AKTIVAKU INVESTAMA TEKNOLOGI",
        "tanggal_daftar": "2021-02-25",
        "nomor_tanda_daftar": "000212.01/DJAI.PSE/02/2021",
        "qr_code": "https://pse.kominfo.go.id/storage/images/qr_code/df22a5bd080c86d7788c3f70ee1704e6.png",
        "status_id": "TERDAFTAR",
        "sistem_elektronik_id": 2780
      }
    },
    {
      "type": "tdpseTerbit",
      "id": 415,
      "attributes": {
        "nomor_pb_umku": null,
        "nama": "visionplus.id",
        "website": "www.visionplus.id",
        "sektor": "Sektor Teknologi Informasi dan Komunikasi",
        "nama_perusahaan": "MNC OTT NETWORK",
        "tanggal_daftar": "2021-04-09",
        "nomor_tanda_daftar": "000211.02/DJAI.PSE/04/2021",
        "qr_code": "https://pse.kominfo.go.id/storage/images/qr_code/d9946baec900556474cde117e415a460.png",
        "status_id": "TERDAFTAR",
        "sistem_elektronik_id": 2457
      }
    },
    {
      "type": "tdpseTerbit",
      "id": 249,
      "attributes": {
        "nomor_pb_umku": null,
        "nama": "Vision+",
        "website": "www.visionplus.id",
        "sektor": "Sektor Teknologi Informasi dan Komunikasi",
        "nama_perusahaan": "MNC OTT NETWORK",
        "tanggal_daftar": "2021-02-25",
        "nomor_tanda_daftar": "000211.01/DJAI.PSE/02/2021",
        "qr_code": "https://pse.kominfo.go.id/storage/images/qr_code/d04e7e9ab5ff4390d1c193aadff6af39.png",
        "status_id": "TERDAFTAR",
        "sistem_elektronik_id": 2456
      }
    },
    {
      "type": "tdpseTerbit",
      "id": 248,
      "attributes": {
        "nomor_pb_umku": null,
        "nama": "paola.id",
        "website": "paola.id",
        "sektor": "Sektor Perdagangan",
        "nama_perusahaan": "PENTASADA ANDALAN KELOLA",
        "tanggal_daftar": "2021-02-25",
        "nomor_tanda_daftar": "000210.01/DJAI.PSE/02/2021",
        "qr_code": "https://pse.kominfo.go.id/storage/images/qr_code/df9f81556529fa67bd5419a451bc72ed.png",
        "status_id": "TERDAFTAR",
        "sistem_elektronik_id": 2779
      }
    },
    {
      "type": "tdpseTerbit",
      "id": 9744,
      "attributes": {
        "nomor_pb_umku": "022000938074300020005",
        "nama": "AFI PAY",
        "website": "pay.axa.co.id",
        "sektor": "Sektor Keuangan",
        "nama_perusahaan": "AXA FINANCIAL INDONESIA",
        "tanggal_daftar": "2022-08-03",
        "nomor_tanda_daftar": "000209.07/DJAI.PSE/08/2022",
        "qr_code": "https://pse.kominfo.go.id/storage/images/qr_code/5bc23227f4817b58928f3b35e40f7a2e.png",
        "status_id": "TERDAFTAR",
        "sistem_elektronik_id": 9622
      }
    },
    {
      "type": "tdpseTerbit",
      "id": 7847,
      "attributes": {
        "nomor_pb_umku": "022000938074300020004",
        "nama": "AFI ONE PORTAL (WEB BASED)",
        "website": "portal.axa.co.id",
        "sektor": "Sektor Keuangan",
        "nama_perusahaan": "AXA FINANCIAL INDONESIA",
        "tanggal_daftar": "2022-07-20",
        "nomor_tanda_daftar": "000209.06/DJAI.PSE/07/2022",
        "qr_code": "https://pse.kominfo.go.id/storage/images/qr_code/d7fa3b9e50e934fc3cfb650df9d3023a.png",
        "status_id": "TERDAFTAR",
        "sistem_elektronik_id": 7759
      }
    }
  ]
}