{
  "meta": {
    "page": {
      "currentPage": 103,
      "from": 1021,
      "lastPage": 816,
      "perPage": 10,
      "to": 1030,
      "total": 8153
    }
  },
  "jsonapi": {
    "version": "1.0"
  },
  "links": {
    "first": "http://pse.kominfo.go.id/api/v1/jsonapi/tdpse-terbit?page%5Blimit%5D=10&page%5Bpage%5D=1",
    "last": "http://pse.kominfo.go.id/api/v1/jsonapi/tdpse-terbit?page%5Blimit%5D=10&page%5Bpage%5D=816",
    "next": "http://pse.kominfo.go.id/api/v1/jsonapi/tdpse-terbit?page%5Blimit%5D=10&page%5Bpage%5D=104",
    "prev": "http://pse.kominfo.go.id/api/v1/jsonapi/tdpse-terbit?page%5Blimit%5D=10&page%5Bpage%5D=102"
  },
  "data": [
    {
      "type": "tdpseTerbit",
      "id": "7598",
      "attributes": {
        "nomor_pb_umku": "912020150003700010004",
        "nama": "BRAVO",
        "website": "bravo.generali.co.id",
        "sektor": "Sektor Keuangan",
        "nama_tampil_badan_hukum": "PT",
        "nama_perusahaan": "PT ASURANSI JIWA GENERALI INDONESIA",
        "tanggal_daftar": "2022-07-20",
        "tanggal_terbit": "2022-07-20",
        "nomor_tanda_daftar": "000217.13/DJAI.PSE/07/2022",
        "qr_code": "http://pse.kominfo.go.id/api/v1/jsonapi/tdpse-terbit/qr-code/7598",
        "status_id": "TERDAFTAR",
        "sistem_elektronik_id": "7485",
        "keterangan": "-",
        "lokalitas": "LOKAL"
      },
      "links": {
        "self": "http://pse.kominfo.go.id/api/v1/jsonapi/tdpse-terbit/7598"
      }
    },
    {
      "type": "tdpseTerbit",
      "id": "7597",
      "attributes": {
        "nomor_pb_umku": "231221001405500020002",
        "nama": "ADX ASIA THE STACKS",
        "website": "thestacks.io",
        "sektor": "Sektor Teknologi Informasi dan Komunikasi",
        "nama_tampil_badan_hukum": "PT",
        "nama_perusahaan": "PT NARADA SAHARA KENCANA",
        "tanggal_daftar": "2022-07-20",
        "tanggal_terbit": "2022-07-20",
        "nomor_tanda_daftar": "005404.02/DJAI.PSE/07/2022",
        "qr_code": "http://pse.kominfo.go.id/api/v1/jsonapi/tdpse-terbit/qr-code/7597",
        "status_id": "TERDAFTAR",
        "sistem_elektronik_id": "7464",
        "keterangan": "-",
        "lokalitas": "LOKAL"
      },
      "links": {
        "self": "http://pse.kominfo.go.id/api/v1/jsonapi/tdpse-terbit/7597"
      }
    },
    {
      "type": "tdpseTerbit",
      "id": "7596",
      "attributes": {
        "nomor_pb_umku": "912000922141800010001",
        "nama": "BPR KARTADHANI MULYA",
        "website": "-",
        "sektor": "Sektor Perdagangan",
        "nama_tampil_badan_hukum": "PT",
        "nama_perusahaan": "PT BANK PERKREDITAN RAKYAT KARTADHANI MULYA",
        "tanggal_daftar": "2022-07-20",
        "tanggal_terbit": "2022-07-20",
        "nomor_tanda_daftar": "005128.01/DJAI.PSE/07/2022",
        "qr_code": "http://pse.kominfo.go.id/api/v1/jsonapi/tdpse-terbit/qr-code/7596",
        "status_id": "TERDAFTAR",
        "sistem_elektronik_id": "7488",
        "keterangan": "-",
        "lokalitas": "LOKAL"
      },
      "links": {
        "self": "http://pse.kominfo.go.id/api/v1/jsonapi/tdpse-terbit/7596"
      }
    },
    {
      "type": "tdpseTerbit",
      "id": "7595",
      "attributes": {
        "nomor_pb_umku": "912000333196500020002",
        "nama": "NCSKURIR.COM",
        "website": "ncskurir.com",
        "sektor": "Sektor Teknologi Informasi dan Komunikasi",
        "nama_tampil_badan_hukum": "PT",
        "nama_perusahaan": "PT NUSANTARA CARD SEMESTA",
        "tanggal_daftar": "2022-07-20",
        "tanggal_terbit": "2022-07-20",
        "nomor_tanda_daftar": "002681.02/DJAI.PSE/07/2022",
        "qr_code": "http://pse.kominfo.go.id/api/v1/jsonapi/tdpse-terbit/qr-code/7595",
        "status_id": "TERDAFTAR",
        "sistem_elektronik_id": "7433",
        "keterangan": "-",
        "lokalitas": "LOKAL"
      },
      "links": {
        "self": "http://pse.kominfo.go.id/api/v1/jsonapi/tdpse-terbit/7595"
      }
    },
    {
      "type": "tdpseTerbit",
      "id": "7594",
      "attributes": {
        "nomor_pb_umku": "022020780046800000001",
        "nama": "WASSTWJAYA.COM",
        "website": "wasstwjaya.com",
        "sektor": "Sektor Perdagangan",
        "nama_tampil_badan_hukum": "",
        "nama_perusahaan": "GDE PUTU ADIBAYUSANTIKA",
        "tanggal_daftar": "2022-07-20",
        "tanggal_terbit": "2022-07-20",
        "nomor_tanda_daftar": "005469.01/DJAI.PSE/07/2022",
        "qr_code": "http://pse.kominfo.go.id/api/v1/jsonapi/tdpse-terbit/qr-code/7594",
        "status_id": "TERDAFTAR",
        "sistem_elektronik_id": "7489",
        "keterangan": "-",
        "lokalitas": "LOKAL"
      },
      "links": {
        "self": "http://pse.kominfo.go.id/api/v1/jsonapi/tdpse-terbit/7594"
      }
    },
    {
      "type": "tdpseTerbit",
      "id": "7593",
      "attributes": {
        "nomor_pb_umku": "220222000347800010001",
        "nama": "DEJAYO",
        "website": "-",
        "sektor": "Sektor Keuangan",
        "nama_tampil_badan_hukum": "PT",
        "nama_perusahaan": "PT BANK PERKREDITAN RAKYAT PAPUA MANDIRI MAKMUR",
        "tanggal_daftar": "2022-07-20",
        "tanggal_terbit": "2022-07-20",
        "nomor_tanda_daftar": "005517.01/DJAI.PSE/07/2022",
        "qr_code": "http://pse.kominfo.go.id/api/v1/jsonapi/tdpse-terbit/qr-code/7593",
        "status_id": "TERDAFTAR",
        "sistem_elektronik_id": "7486",
        "keterangan": "-",
        "lokalitas": "LOKAL"
      },
      "links": {
        "self": "http://pse.kominfo.go.id/api/v1/jsonapi/tdpse-terbit/7593"
      }
    },
    {
      "type": "tdpseTerbit",
      "id": "7592",
      "attributes": {
        "nomor_pb_umku": "912021628169800010001",
        "nama": "TRANSFREE",
        "website": "transfree.id",
        "sektor": "Sektor Teknologi Informasi dan Komunikasi",
        "nama_tampil_badan_hukum": "PT",
        "nama_perusahaan": "PT PELITA TRANSFER NUSANTARA",
        "tanggal_daftar": "2022-07-20",
        "tanggal_terbit": "2022-07-20",
        "nomor_tanda_daftar": "005179.01/DJAI.PSE/07/2022",
        "qr_code": "http://pse.kominfo.go.id/api/v1/jsonapi/tdpse-terbit/qr-code/7592",
        "status_id": "TERDAFTAR",
        "sistem_elektronik_id": "7487",
        "keterangan": "-",
        "lokalitas": "LOKAL"
      },
      "links": {
        "self": "http://pse.kominfo.go.id/api/v1/jsonapi/tdpse-terbit/7592"
      }
    },
    {
      "type": "tdpseTerbit",
      "id": "7591",
      "attributes": {
        "nomor_pb_umku": "022010340223300020001",
        "nama": "WEBSITE",
        "website": "bankwonosobo.co.id",
        "sektor": "Sektor Keuangan",
        "nama_tampil_badan_hukum": "",
        "nama_perusahaan": "PD BPR BANK WONOSOBO",
        "tanggal_daftar": "2022-07-20",
        "tanggal_terbit": "2022-07-20",
        "nomor_tanda_daftar": "005368.01/DJAI.PSE/07/2022",
        "qr_code": "http://pse.kominfo.go.id/api/v1/jsonapi/tdpse-terbit/qr-code/7591",
        "status_id": "TERDAFTAR",
        "sistem_elektronik_id": "7484",
        "keterangan": "-",
        "lokalitas": "LOKAL"
      },
      "links": {
        "self": "http://pse.kominfo.go.id/api/v1/jsonapi/tdpse-terbit/7591"
      }
    },
    {
      "type": "tdpseTerbit",
      "id": "7590",
      "attributes": {
        "nomor_pb_umku": "091121000087600060002",
        "nama": "WEBSITE JUAL BELI ASET ( JUALASETKU )",
        "website": "jualasetku.com",
        "sektor": "Sektor Teknologi Informasi dan Komunikasi",
        "nama_tampil_badan_hukum": "PT",
        "nama_perusahaan": "PT BINTANG TEKNOLOGI PRATAMA",
        "tanggal_daftar": "2022-07-20",
        "tanggal_terbit": "2022-07-20",
        "nomor_tanda_daftar": "005297.02/DJAI.PSE/07/2022",
        "qr_code": "http://pse.kominfo.go.id/api/v1/jsonapi/tdpse-terbit/qr-code/7590",
        "status_id": "TERDAFTAR",
        "sistem_elektronik_id": "7483",
        "keterangan": "-",
        "lokalitas": "LOKAL"
      },
      "links": {
        "self": "http://pse.kominfo.go.id/api/v1/jsonapi/tdpse-terbit/7590"
      }
    },
    {
      "type": "tdpseTerbit",
      "id": "7589",
      "attributes": {
        "nomor_pb_umku": "220322003781700020002",
        "nama": "CROWDS.ID",
        "website": "crowds.id",
        "sektor": "Sektor Teknologi Informasi dan Komunikasi",
        "nama_tampil_badan_hukum": "",
        "nama_perusahaan": "MERDEKA KREASI TEKNOLOGI INDONESIA",
        "tanggal_daftar": "2022-07-20",
        "tanggal_terbit": "2022-07-20",
        "nomor_tanda_daftar": "005166.02/DJAI.PSE/07/2022",
        "qr_code": "http://pse.kominfo.go.id/api/v1/jsonapi/tdpse-terbit/qr-code/7589",
        "status_id": "TERDAFTAR",
        "sistem_elektronik_id": "7482",
        "keterangan": "-",
        "lokalitas": "LOKAL"
      },
      "links": {
        "self": "http://pse.kominfo.go.id/api/v1/jsonapi/tdpse-terbit/7589"
      }
    }
  ]
}