{
  "meta": {
    "page": {
      "currentPage": 1031,
      "from": 10301,
      "lastPage": 1041,
      "perPage": 10,
      "to": 10310,
      "total": 10407
    }
  },
  "data": [
    {
      "type": "tdpseTerbit",
      "id": 10349,
      "attributes": {
        "nomor_pb_umku": "912020177088600020005",
        "nama": "SOVERA",
        "website": "sovera.sequis.co.id",
        "sektor": "Sektor Keuangan",
        "nama_perusahaan": "ASURANSI JIWA SEQUIS LIFE",
        "tanggal_daftar": "2022-08-15",
        "nomor_tanda_daftar": "000050.10/DJAI.PSE/08/2022",
        "qr_code": "https://pse.kominfo.go.id/storage/images/qr_code/1a8341df771dfdd2b96d41428cdd0ad9.png",
        "status_id": "TERDAFTAR",
        "sistem_elektronik_id": 10197
      }
    },
    {
      "type": "tdpseTerbit",
      "id": 10347,
      "attributes": {
        "nomor_pb_umku": "912020177088600020004",
        "nama": "PORTAL MIKRO SEQUIS SEJAHTERA",
        "website": "mikrosejahtera.sequis.co.id",
        "sektor": "Sektor Keuangan",
        "nama_perusahaan": "ASURANSI JIWA SEQUIS LIFE",
        "tanggal_daftar": "2022-08-15",
        "nomor_tanda_daftar": "000050.09/DJAI.PSE/08/2022",
        "qr_code": "https://pse.kominfo.go.id/storage/images/qr_code/3a3680676915374349673a33f19f04ea.png",
        "status_id": "TERDAFTAR",
        "sistem_elektronik_id": 10195
      }
    },
    {
      "type": "tdpseTerbit",
      "id": 5820,
      "attributes": {
        "nomor_pb_umku": "912020177088600020003",
        "nama": "EPOLICY SEQUIS",
        "website": "epolicy.sequis.co.id",
        "sektor": "Sektor Keuangan",
        "nama_perusahaan": "ASURANSI JIWA SEQUIS LIFE",
        "tanggal_daftar": "2022-07-15",
        "nomor_tanda_daftar": "000050.08/DJAI.PSE/07/2022",
        "qr_code": "https://pse.kominfo.go.id/storage/images/qr_code/c9b61a50289c5e6067f6341641bd01b2.png",
        "status_id": "TERDAFTAR",
        "sistem_elektronik_id": 5680
      }
    },
    {
      "type": "tdpseTerbit",
      "id": 5812,
      "attributes": {
        "nomor_pb_umku": "912020177088600020003",
        "nama": "TELEBUDDY",
        "website": "telebuddy.sequis.co.id",
        "sektor": "Sektor Keuangan",
        "nama_perusahaan": "ASURANSI JIWA SEQUIS LIFE",
        "tanggal_daftar": "2022-07-15",
        "nomor_tanda_daftar": "000050.07/DJAI.PSE/07/2022",
        "qr_code": "https://pse.kominfo.go.id/storage/images/qr_code/b9f58d225a7079af63d1cb7ea03a9efa.png",
        "status_id": "TERDAFTAR",
        "sistem_elektronik_id": 5673
      }
    },
    {
      "type": "tdpseTerbit",
      "id": 5804,
      "attributes": {
        "nomor_pb_umku": "912020177088600020002",
        "nama": "SEQUISFRIEND",
        "website": "sequisfriend.com",
        "sektor": "Sektor Keuangan",
        "nama_perusahaan": "ASURANSI JIWA SEQUIS LIFE",
        "tanggal_daftar": "2022-07-15",
        "nomor_tanda_daftar": "000050.06/DJAI.PSE/07/2022",
        "qr_code": "https://pse.kominfo.go.id/storage/images/qr_code/1cba4f33e4bd6f222a65f1e2d46519a0.png",
        "status_id": "TERDAFTAR",
        "sistem_elektronik_id": 5666
      }
    },
    {
      "type": "tdpseTerbit",
      "id": 5339,
      "attributes": {
        "nomor_pb_umku": "912020177088600020001",
        "nama": "WEBSITE SEQUIS",
        "website": "sequis.co.id",
        "sektor": "Sektor Keuangan",
        "nama_perusahaan": "ASURANSI JIWA SEQUIS LIFE",
        "tanggal_daftar": "2022-07-12",
        "nomor_tanda_daftar": "000050.05/DJAI.PSE/07/2022",
        "qr_code": "https://pse.kominfo.go.id/storage/images/qr_code/61311e23e69070527e31ff987a878e80.png",
        "status_id": "TERDAFTAR",
        "sistem_elektronik_id": 5212
      }
    },
    {
      "type": "tdpseTerbit",
      "id": 1641,
      "attributes": {
        "nomor_pb_umku": null,
        "nama": "Sequis Pro",
        "website": "-",
        "sektor": "Sektor Keuangan",
        "nama_perusahaan": "ASURANSI JIWA SEQUIS LIFE",
        "tanggal_daftar": "2021-07-05",
        "nomor_tanda_daftar": "000050.04/DJAI.PSE/07/2021",
        "qr_code": "https://pse.kominfo.go.id/storage/images/qr_code/718eba0ff2849a51e0835cd21a27f276.png",
        "status_id": "TERDAFTAR",
        "sistem_elektronik_id": 2474
      }
    },
    {
      "type": "tdpseTerbit",
      "id": 1640,
      "attributes": {
        "nomor_pb_umku": null,
        "nama": "Sequis App",
        "website": "https://polisku.sequis.co.id/",
        "sektor": "Sektor Keuangan",
        "nama_perusahaan": "ASURANSI JIWA SEQUIS LIFE",
        "tanggal_daftar": "2021-07-05",
        "nomor_tanda_daftar": "000050.03/DJAI.PSE/07/2021",
        "qr_code": "https://pse.kominfo.go.id/storage/images/qr_code/57c80668948f2fc3487fe1957eb692db.png",
        "status_id": "TERDAFTAR",
        "sistem_elektronik_id": 2473
      }
    },
    {
      "type": "tdpseTerbit",
      "id": 137,
      "attributes": {
        "nomor_pb_umku": null,
        "nama": "SUPERYOU",
        "website": "https://superyou.co.id",
        "sektor": "Sektor Keuangan",
        "nama_perusahaan": "ASURANSI JIWA SEQUIS LIFE",
        "tanggal_daftar": "2021-02-24",
        "nomor_tanda_daftar": "000050.02/DJAI.PSE/02/2021",
        "qr_code": "https://pse.kominfo.go.id/storage/images/qr_code/e884229d7dc7ca8aa20538d1d13bfaae.png",
        "status_id": "TERDAFTAR",
        "sistem_elektronik_id": 2472
      }
    },
    {
      "type": "tdpseTerbit",
      "id": 58,
      "attributes": {
        "nomor_pb_umku": null,
        "nama": "Sequis eZ",
        "website": "https://sequisez.sequis.co.id",
        "sektor": "Sektor Keuangan",
        "nama_perusahaan": "ASURANSI JIWA SEQUIS LIFE",
        "tanggal_daftar": "2021-02-23",
        "nomor_tanda_daftar": "000050.01/DJAI.PSE/02/2021",
        "qr_code": "https://pse.kominfo.go.id/storage/images/qr_code/3df43b8871e519aa4987037a07f9cf66.png",
        "status_id": "TERDAFTAR",
        "sistem_elektronik_id": 2471
      }
    }
  ]
}