{
  "meta": {
    "page": {
      "currentPage": 1032,
      "from": 10311,
      "lastPage": 1046,
      "perPage": 10,
      "to": 10320,
      "total": 10457
    }
  },
  "data": [
    {
      "type": "tdpseTerbit",
      "id": 95,
      "attributes": {
        "nomor_pb_umku": null,
        "nama": "Aplikasi KamiSatu",
        "website": "https://kamisatu.id/",
        "sektor": "Sektor Perdagangan, Sektor Teknologi Informasi dan Komunikasi, Sektor Transportasi",
        "nama_perusahaan": "KAMI SATU KARYA",
        "tanggal_daftar": "2021-02-23",
        "nomor_tanda_daftar": "000085.01/DJAI.PSE/02/2021",
        "qr_code": "https://pse.kominfo.go.id/storage/images/qr_code/2f47eafe8f9bd93363d0cbee891a9876.png",
        "status_id": "TERDAFTAR",
        "sistem_elektronik_id": 2526
      }
    },
    {
      "type": "tdpseTerbit",
      "id": 94,
      "attributes": {
        "nomor_pb_umku": null,
        "nama": "MONEY YOU",
        "website": "-",
        "sektor": "Sektor Keuangan",
        "nama_perusahaan": "SIMPAN PINJAM BUANA SATU TIGA",
        "tanggal_daftar": "2021-02-23",
        "nomor_tanda_daftar": "000084.01/DJAI.PSE/02/2021",
        "qr_code": "https://pse.kominfo.go.id/storage/images/qr_code/551d3b458e9e49efa907e2e7b2c3c261.png",
        "status_id": "TERDAFTAR",
        "sistem_elektronik_id": 2528
      }
    },
    {
      "type": "tdpseTerbit",
      "id": 93,
      "attributes": {
        "nomor_pb_umku": null,
        "nama": "GOOD DANA",
        "website": "-",
        "sektor": "Sektor Keuangan",
        "nama_perusahaan": "SIMPAN PINJAM BIMA EKA NUSA",
        "tanggal_daftar": "2021-02-23",
        "nomor_tanda_daftar": "000083.01/DJAI.PSE/02/2021",
        "qr_code": "https://pse.kominfo.go.id/storage/images/qr_code/03ff8f01203b0adf90ca30e76ee7dcd3.png",
        "status_id": "TERDAFTAR",
        "sistem_elektronik_id": 2527
      }
    },
    {
      "type": "tdpseTerbit",
      "id": 92,
      "attributes": {
        "nomor_pb_umku": null,
        "nama": "GudangAda Logistik",
        "website": "gudanglogistik.id",
        "sektor": "Sektor Transportasi",
        "nama_perusahaan": "GUDANG LOGISTIK GLOBALINDO",
        "tanggal_daftar": "2021-02-23",
        "nomor_tanda_daftar": "000082.01/DJAI.PSE/02/2021",
        "qr_code": "https://pse.kominfo.go.id/storage/images/qr_code/36c779cf42dd7c60ad2db8f3f216896b.png",
        "status_id": "TERDAFTAR",
        "sistem_elektronik_id": 2428
      }
    },
    {
      "type": "tdpseTerbit",
      "id": 670,
      "attributes": {
        "nomor_pb_umku": null,
        "nama": "Klikdokter",
        "website": "https://www.klikdokter.com",
        "sektor": "Sektor Kesehatan, Sektor Perdagangan, Sektor Teknologi Informasi dan Komunikasi",
        "nama_perusahaan": "MEDIKA KOMUNIKA TEKNOLOGI",
        "tanggal_daftar": "2021-04-26",
        "nomor_tanda_daftar": "000081.03/DJAI.PSE/04/2021",
        "qr_code": "https://pse.kominfo.go.id/storage/images/qr_code/c63df118022bda062cdb9854e06577e0.png",
        "status_id": "TERDAFTAR",
        "sistem_elektronik_id": 2427
      }
    },
    {
      "type": "tdpseTerbit",
      "id": 445,
      "attributes": {
        "nomor_pb_umku": null,
        "nama": "Hallobumil",
        "website": "www.hallobumil.id",
        "sektor": "Sektor Kesehatan, Sektor Teknologi Informasi dan Komunikasi",
        "nama_perusahaan": "MEDIKA KOMUNIKA TEKNOLOGI",
        "tanggal_daftar": "2021-04-14",
        "nomor_tanda_daftar": "000081.02/DJAI.PSE/04/2021",
        "qr_code": "https://pse.kominfo.go.id/storage/images/qr_code/5b3e1e3a2bf73c741186958a26f0c854.png",
        "status_id": "TERDAFTAR",
        "sistem_elektronik_id": 2426
      }
    },
    {
      "type": "tdpseTerbit",
      "id": 91,
      "attributes": {
        "nomor_pb_umku": null,
        "nama": "KlikDiabetes",
        "website": "www.klikdiabetes.com",
        "sektor": "Sektor Kesehatan, Sektor Perdagangan, Sektor Teknologi Informasi dan Komunikasi",
        "nama_perusahaan": "MEDIKA KOMUNIKA TEKNOLOGI",
        "tanggal_daftar": "2021-02-23",
        "nomor_tanda_daftar": "000081.01/DJAI.PSE/02/2021",
        "qr_code": "https://pse.kominfo.go.id/storage/images/qr_code/7131fa92aa7c04d856964d166d630ec8.png",
        "status_id": "TERDAFTAR",
        "sistem_elektronik_id": 2425
      }
    },
    {
      "type": "tdpseTerbit",
      "id": 90,
      "attributes": {
        "nomor_pb_umku": null,
        "nama": "moringaku",
        "website": "www.moringaku.com",
        "sektor": "Sektor Perdagangan",
        "nama_perusahaan": "MORINGA WAHACARANA PRIMA",
        "tanggal_daftar": "2021-02-23",
        "nomor_tanda_daftar": "000080.01/DJAI.PSE/02/2021",
        "qr_code": "https://pse.kominfo.go.id/storage/images/qr_code/460e17648856ed4518ee4af79f7dbdcc.png",
        "status_id": "TERDAFTAR",
        "sistem_elektronik_id": 2493
      }
    },
    {
      "type": "tdpseTerbit",
      "id": 87,
      "attributes": {
        "nomor_pb_umku": null,
        "nama": "MCI WORLD",
        "website": "https://www.mci-world.com/",
        "sektor": "Sektor Perdagangan",
        "nama_perusahaan": "MILLIONAIRE GROUP INDONESIA",
        "tanggal_daftar": "2021-02-23",
        "nomor_tanda_daftar": "000077.01/DJAI.PSE/02/2021",
        "qr_code": "https://pse.kominfo.go.id/storage/images/qr_code/05e941607eb66cce231fb80c65af3619.png",
        "status_id": "TERDAFTAR",
        "sistem_elektronik_id": 2377
      }
    },
    {
      "type": "tdpseTerbit",
      "id": 86,
      "attributes": {
        "nomor_pb_umku": null,
        "nama": "GShield Technology / Insurance Tile within the Grab App",
        "website": "https://insurance.grab-sure.com/pax/id#/",
        "sektor": "Sektor Perdagangan",
        "nama_perusahaan": "JASA TEKNOLOGI GSHIELD",
        "tanggal_daftar": "2021-02-23",
        "nomor_tanda_daftar": "000076.01/DJAI.PSE/02/2021",
        "qr_code": "https://pse.kominfo.go.id/storage/images/qr_code/977996b6487734ea5dee36decd9f0e39.png",
        "status_id": "TERDAFTAR",
        "sistem_elektronik_id": 2371
      }
    }
  ]
}