{
  "meta": {
    "page": {
      "currentPage": 1037,
      "from": 10361,
      "lastPage": 1089,
      "perPage": 10,
      "to": 10370,
      "total": 10885
    }
  },
  "data": [
    {
      "type": "tdpseTerbit",
      "id": 341,
      "attributes": {
        "nomor_pb_umku": null,
        "nama": "Relasi Bisnis Bersama",
        "website": "www.rbb-world.com",
        "sektor": "Sektor Teknologi Informasi dan Komunikasi",
        "nama_perusahaan": "MAHAKARYA CITRA INTERNASIONAL",
        "tanggal_daftar": "2021-03-09",
        "nomor_tanda_daftar": "000285.01/DJAI.PSE/03/2021",
        "qr_code": "https://pse.kominfo.go.id/storage/images/qr_code/85f25a0f8bf935eb3305ffe34dd813e8.png",
        "status_id": "TERDAFTAR",
        "sistem_elektronik_id": 2649
      }
    },
    {
      "type": "tdpseTerbit",
      "id": 340,
      "attributes": {
        "nomor_pb_umku": null,
        "nama": "ArtaKu",
        "website": "http://artaku.id/",
        "sektor": "Sektor Keuangan",
        "nama_perusahaan": "SARANA PASAR DIGITAL",
        "tanggal_daftar": "2021-03-08",
        "nomor_tanda_daftar": "000284.01/DJAI.PSE/03/2021",
        "qr_code": "https://pse.kominfo.go.id/storage/images/qr_code/0043e6b94db1b90760ecb1cf41c965ba.png",
        "status_id": "TERDAFTAR",
        "sistem_elektronik_id": 122
      }
    },
    {
      "type": "tdpseTerbit",
      "id": 339,
      "attributes": {
        "nomor_pb_umku": null,
        "nama": "PT. INSPIRE MULTI SOLUSINDO",
        "website": "www.inspiremultisolusindo.com",
        "sektor": "Sektor Perdagangan, Sektor Teknologi Informasi dan Komunikasi",
        "nama_perusahaan": "INSPIRE MULTI SOLUSINDO",
        "tanggal_daftar": "2021-03-08",
        "nomor_tanda_daftar": "000283.01/DJAI.PSE/03/2021",
        "qr_code": "https://pse.kominfo.go.id/storage/images/qr_code/1ffca97196fd67e9fae4ff515b2ffec4.png",
        "status_id": "TERDAFTAR",
        "sistem_elektronik_id": 2738
      }
    },
    {
      "type": "tdpseTerbit",
      "id": 470,
      "attributes": {
        "nomor_pb_umku": null,
        "nama": "eBuy",
        "website": "www.ebuy.com",
        "sektor": "Sektor Perdagangan, Sektor Teknologi Informasi dan Komunikasi",
        "nama_perusahaan": "ETOP GLOBAL TECHNOLOGY",
        "tanggal_daftar": "2021-04-19",
        "nomor_tanda_daftar": "000282.02/DJAI.PSE/04/2021",
        "qr_code": "https://pse.kominfo.go.id/storage/images/qr_code/4f8a9d3d946f5073786b46283b42217a.png",
        "status_id": "TERDAFTAR",
        "sistem_elektronik_id": 2793
      }
    },
    {
      "type": "tdpseTerbit",
      "id": 337,
      "attributes": {
        "nomor_pb_umku": null,
        "nama": "eBuy",
        "website": "www.ebuy.com",
        "sektor": "Sektor Perdagangan",
        "nama_perusahaan": "ETOP GLOBAL TECHNOLOGY",
        "tanggal_daftar": "2021-03-08",
        "nomor_tanda_daftar": "000282.01/DJAI.PSE/03/2021",
        "qr_code": "https://pse.kominfo.go.id/storage/images/qr_code/f230a5634a0503ed45f4e790bd2642fb.png",
        "status_id": "TERDAFTAR",
        "sistem_elektronik_id": 2792
      }
    },
    {
      "type": "tdpseTerbit",
      "id": 336,
      "attributes": {
        "nomor_pb_umku": null,
        "nama": "Popaket",
        "website": "https://www.popaket.com/",
        "sektor": "Sektor Perdagangan, Sektor Teknologi Informasi dan Komunikasi, Sektor Transportasi",
        "nama_perusahaan": "TRADARU DIGITAL NIAGA",
        "tanggal_daftar": "2021-03-05",
        "nomor_tanda_daftar": "000281.01/DJAI.PSE/03/2021",
        "qr_code": "https://pse.kominfo.go.id/storage/images/qr_code/d00924acf5a58560ed778f20ac0d24b6.png",
        "status_id": "TERDAFTAR",
        "sistem_elektronik_id": 115
      }
    },
    {
      "type": "tdpseTerbit",
      "id": 2158,
      "attributes": {
        "nomor_pb_umku": null,
        "nama": "SMARTX Expert Analyzer Software for Trading",
        "website": "ptsmi.id",
        "sektor": "Sektor Teknologi Informasi dan Komunikasi",
        "nama_perusahaan": "SIMBIOTIK MULTITALENTA INDONESIA",
        "tanggal_daftar": "2021-10-26",
        "nomor_tanda_daftar": "000280.03/DJAI.PSE/10/2021",
        "qr_code": "https://pse.kominfo.go.id/storage/images/qr_code/71822b9bd0dde7a11c4096aa663cbc38.png",
        "status_id": "TERDAFTAR",
        "sistem_elektronik_id": 109
      }
    },
    {
      "type": "tdpseTerbit",
      "id": 334,
      "attributes": {
        "nomor_pb_umku": null,
        "nama": "NET89 EA Creator",
        "website": "ptsmi.id",
        "sektor": "Sektor Perdagangan",
        "nama_perusahaan": "SIMBIOTIK MULTITALENTA INDONESIA",
        "tanggal_daftar": "2021-03-05",
        "nomor_tanda_daftar": "000280.02/DJAI.PSE/03/2021",
        "qr_code": "https://pse.kominfo.go.id/storage/images/qr_code/b190a5303cf8c09829bf5d0d691af68b.png",
        "status_id": "TERDAFTAR",
        "sistem_elektronik_id": 108
      }
    },
    {
      "type": "tdpseTerbit",
      "id": 332,
      "attributes": {
        "nomor_pb_umku": null,
        "nama": "EBook net89",
        "website": "https://net89.pro",
        "sektor": "Sektor Teknologi Informasi dan Komunikasi",
        "nama_perusahaan": "SIMBIOTIK MULTITALENTA INDONESIA",
        "tanggal_daftar": "2021-03-05",
        "nomor_tanda_daftar": "000280.01/DJAI.PSE/03/2021",
        "qr_code": "https://pse.kominfo.go.id/storage/images/qr_code/00952780d8cfee2e5fbf96e2288b8968.png",
        "status_id": "TERDAFTAR",
        "sistem_elektronik_id": 107
      }
    },
    {
      "type": "tdpseTerbit",
      "id": 5041,
      "attributes": {
        "nomor_pb_umku": "812021707320100000008",
        "nama": "DSDBOOK - ONLINE APPOINTMENT BOOKING",
        "website": "mercedes-benz.co.id",
        "sektor": "Sektor Perdagangan",
        "nama_perusahaan": "MERCEDES-BENZ DISTRIBUTION INDONESIA",
        "tanggal_daftar": "2022-07-04",
        "nomor_tanda_daftar": "000279.02/DJAI.PSE/07/2022",
        "qr_code": "https://pse.kominfo.go.id/storage/images/qr_code/12770aa95ebf73970bb024c1bd3cd43f.png",
        "status_id": "TERDAFTAR",
        "sistem_elektronik_id": 4897
      }
    }
  ]
}