{
  "meta": {
    "page": {
      "currentPage": 1039,
      "from": 10381,
      "lastPage": 1068,
      "perPage": 10,
      "to": 10390,
      "total": 10675
    }
  },
  "data": [
    {
      "type": "tdpseTerbit",
      "id": 184,
      "attributes": {
        "nomor_pb_umku": null,
        "nama": "Web Portal dan Aplikasi Digital",
        "website": "https://kitahemat.com",
        "sektor": "Sektor Keuangan, Sektor Perdagangan, Sektor Teknologi Informasi dan Komunikasi",
        "nama_perusahaan": "PANCA INDONESIA DIGITAL",
        "tanggal_daftar": "2021-02-25",
        "nomor_tanda_daftar": "000160.01/DJAI.PSE/02/2021",
        "qr_code": "https://pse.kominfo.go.id/storage/images/qr_code/29137d1b23d534c5441f7a163191f77c.png",
        "status_id": "TERDAFTAR",
        "sistem_elektronik_id": 2661
      }
    },
    {
      "type": "tdpseTerbit",
      "id": 183,
      "attributes": {
        "nomor_pb_umku": null,
        "nama": "Bhinneka.com",
        "website": "www.Bhinneka.com",
        "sektor": "Sektor Perdagangan",
        "nama_perusahaan": "BHINNEKA MENTARIDIMENSI",
        "tanggal_daftar": "2021-02-25",
        "nomor_tanda_daftar": "000159.02/DJAI.PSE/02/2021",
        "qr_code": "https://pse.kominfo.go.id/storage/images/qr_code/907a4a5ae46e9c20b2f8c26f5160ca61.png",
        "status_id": "TERDAFTAR",
        "sistem_elektronik_id": 2343
      }
    },
    {
      "type": "tdpseTerbit",
      "id": 182,
      "attributes": {
        "nomor_pb_umku": null,
        "nama": "BLUEWHALE",
        "website": "bluewhale.bhinneka.com",
        "sektor": "Sektor Teknologi Informasi dan Komunikasi",
        "nama_perusahaan": "BHINNEKA MENTARIDIMENSI",
        "tanggal_daftar": "2021-02-25",
        "nomor_tanda_daftar": "000159.01/DJAI.PSE/02/2021",
        "qr_code": "https://pse.kominfo.go.id/storage/images/qr_code/065968c4f7827076daa0c70f8b2c5471.png",
        "status_id": "TERDAFTAR",
        "sistem_elektronik_id": 2342
      }
    },
    {
      "type": "tdpseTerbit",
      "id": 6112,
      "attributes": {
        "nomor_pb_umku": "812021017278900030005",
        "nama": "MNCINSURANCE.COM",
        "website": "mnc-insurance.com",
        "sektor": "Sektor Keuangan",
        "nama_perusahaan": "MNC ASURANSI INDONESIA",
        "tanggal_daftar": "2022-07-18",
        "nomor_tanda_daftar": "000158.08/DJAI.PSE/07/2022",
        "qr_code": "https://pse.kominfo.go.id/storage/images/qr_code/e7a7163ac45996246dbac20e4b952304.png",
        "status_id": "TERDAFTAR",
        "sistem_elektronik_id": 5952
      }
    },
    {
      "type": "tdpseTerbit",
      "id": 5803,
      "attributes": {
        "nomor_pb_umku": "812021017278900030004",
        "nama": "SALVAGE AUCTION",
        "website": "mnc-insurance.com",
        "sektor": "Sektor Keuangan",
        "nama_perusahaan": "MNC ASURANSI INDONESIA",
        "tanggal_daftar": "2022-07-15",
        "nomor_tanda_daftar": "000158.07/DJAI.PSE/07/2022",
        "qr_code": "https://pse.kominfo.go.id/storage/images/qr_code/43cff62209c48e3b064809583f236bb6.png",
        "status_id": "TERDAFTAR",
        "sistem_elektronik_id": 5665
      }
    },
    {
      "type": "tdpseTerbit",
      "id": 5797,
      "attributes": {
        "nomor_pb_umku": "812021017278900030003",
        "nama": "MOTION SURE WEB APPLICATION",
        "website": "motion-sure.id",
        "sektor": "Sektor Keuangan",
        "nama_perusahaan": "MNC ASURANSI INDONESIA",
        "tanggal_daftar": "2022-07-15",
        "nomor_tanda_daftar": "000158.06/DJAI.PSE/07/2022",
        "qr_code": "https://pse.kominfo.go.id/storage/images/qr_code/70baf2b28d263379d28d82ca5ccfe8a3.png",
        "status_id": "TERDAFTAR",
        "sistem_elektronik_id": 5657
      }
    },
    {
      "type": "tdpseTerbit",
      "id": 5726,
      "attributes": {
        "nomor_pb_umku": "812021017278900030002",
        "nama": "PROTEKSI PINTAR (SI PINTAR)",
        "website": "mnc-insurance.com",
        "sektor": "Sektor Keuangan",
        "nama_perusahaan": "MNC ASURANSI INDONESIA",
        "tanggal_daftar": "2022-07-15",
        "nomor_tanda_daftar": "000158.05/DJAI.PSE/07/2022",
        "qr_code": "https://pse.kominfo.go.id/storage/images/qr_code/b34e2bf1457ed0a0e4a0c28f5dafd847.png",
        "status_id": "TERDAFTAR",
        "sistem_elektronik_id": 5590
      }
    },
    {
      "type": "tdpseTerbit",
      "id": 2991,
      "attributes": {
        "nomor_pb_umku": null,
        "nama": "Motion Sure",
        "website": "motion-sure.id",
        "sektor": "Sektor Keuangan",
        "nama_perusahaan": "MNC ASURANSI INDONESIA",
        "tanggal_daftar": "2022-01-07",
        "nomor_tanda_daftar": "000158.04/DJAI.PSE/01/2022",
        "qr_code": "https://pse.kominfo.go.id/storage/images/qr_code/33ca621a7e87157b50a4d34ecbc23329.png",
        "status_id": "TERDAFTAR",
        "sistem_elektronik_id": 2350
      }
    },
    {
      "type": "tdpseTerbit",
      "id": 371,
      "attributes": {
        "nomor_pb_umku": null,
        "nama": "MNCi Agent Mobile Application",
        "website": "-",
        "sektor": "Sektor Keuangan",
        "nama_perusahaan": "MNC ASURANSI INDONESIA",
        "tanggal_daftar": "2021-03-15",
        "nomor_tanda_daftar": "000158.03/DJAI.PSE/03/2021",
        "qr_code": "https://pse.kominfo.go.id/storage/images/qr_code/1856f96580385ef60947c4a29d6c6313.png",
        "status_id": "TERDAFTAR",
        "sistem_elektronik_id": 2349
      }
    },
    {
      "type": "tdpseTerbit",
      "id": 181,
      "attributes": {
        "nomor_pb_umku": null,
        "nama": "MNCi Mobile Application",
        "website": "-",
        "sektor": "Sektor Keuangan",
        "nama_perusahaan": "MNC ASURANSI INDONESIA",
        "tanggal_daftar": "2021-02-25",
        "nomor_tanda_daftar": "000158.02/DJAI.PSE/02/2021",
        "qr_code": "https://pse.kominfo.go.id/storage/images/qr_code/7d1c351f64eece9a4da15f2b50788277.png",
        "status_id": "TERDAFTAR",
        "sistem_elektronik_id": 2348
      }
    }
  ]
}