{
  "meta": {
    "page": {
      "currentPage": 1043,
      "from": 10421,
      "lastPage": 1111,
      "perPage": 10,
      "to": 10430,
      "total": 11105
    }
  },
  "data": [
    {
      "type": "tdpseTerbit",
      "id": 435,
      "attributes": {
        "nomor_pb_umku": null,
        "nama": "TOKOZOOM",
        "website": "www.tokozoom.com",
        "sektor": "Sektor Perdagangan",
        "nama_perusahaan": "ZOOM INFOTEK TELESINDO",
        "tanggal_daftar": "2021-04-14",
        "nomor_tanda_daftar": "000356.01/DJAI.PSE/04/2021",
        "qr_code": "https://pse.kominfo.go.id/storage/images/qr_code/8b8ad9009f28bb4ee25c9d59218710fd.png",
        "status_id": "TERDAFTAR",
        "sistem_elektronik_id": 2513
      }
    },
    {
      "type": "tdpseTerbit",
      "id": 10010,
      "attributes": {
        "nomor_pb_umku": "912000224055700040001",
        "nama": "SOMETHINC",
        "website": "somethinc.com",
        "sektor": "Sektor Perdagangan",
        "nama_perusahaan": "BEAUTE HAUL INDONESIA",
        "tanggal_daftar": "2022-08-08",
        "nomor_tanda_daftar": "000355.02/DJAI.PSE/08/2022",
        "qr_code": "https://pse.kominfo.go.id/storage/images/qr_code/8eb048e8006f170392437414273095f6.png",
        "status_id": "TERDAFTAR",
        "sistem_elektronik_id": 9714
      }
    },
    {
      "type": "tdpseTerbit",
      "id": 434,
      "attributes": {
        "nomor_pb_umku": null,
        "nama": "BeautyHaul",
        "website": "www.beautyhaul.com",
        "sektor": "Sektor Perdagangan",
        "nama_perusahaan": "BEAUTE HAUL INDONESIA",
        "tanggal_daftar": "2021-04-09",
        "nomor_tanda_daftar": "000355.01/DJAI.PSE/04/2021",
        "qr_code": "https://pse.kominfo.go.id/storage/images/qr_code/23eec80778e74ed9d414bf646b58c480.png",
        "status_id": "TERDAFTAR",
        "sistem_elektronik_id": 2782
      }
    },
    {
      "type": "tdpseTerbit",
      "id": 433,
      "attributes": {
        "nomor_pb_umku": null,
        "nama": "YOUNG LIVING",
        "website": "https://www.youngliving.com/id_ID",
        "sektor": "Sektor Perdagangan",
        "nama_perusahaan": "YOUNG LIVING INDONESIA",
        "tanggal_daftar": "2021-04-09",
        "nomor_tanda_daftar": "000354.01/DJAI.PSE/04/2021",
        "qr_code": "https://pse.kominfo.go.id/storage/images/qr_code/93048e83433ec0924f8c925be17abbc9.png",
        "status_id": "TERDAFTAR",
        "sistem_elektronik_id": 2732
      }
    },
    {
      "type": "tdpseTerbit",
      "id": 432,
      "attributes": {
        "nomor_pb_umku": null,
        "nama": "MotionFunds",
        "website": "https://www.motionfunds.id",
        "sektor": "Sektor Keuangan",
        "nama_perusahaan": "MNC ASSET MANAGEMENT",
        "tanggal_daftar": "2021-04-09",
        "nomor_tanda_daftar": "000353.01/DJAI.PSE/04/2021",
        "qr_code": "https://pse.kominfo.go.id/storage/images/qr_code/7e92de7e79edd717b78703999a997724.png",
        "status_id": "TERDAFTAR",
        "sistem_elektronik_id": 208
      }
    },
    {
      "type": "tdpseTerbit",
      "id": 431,
      "attributes": {
        "nomor_pb_umku": null,
        "nama": "KSP BERKAT MANDIRI BERSATU",
        "website": "https://kspbmb.com",
        "sektor": "Sektor Keuangan",
        "nama_perusahaan": "BERKAT MANDIRI BERSATU",
        "tanggal_daftar": "2021-04-09",
        "nomor_tanda_daftar": "000352.01/DJAI.PSE/04/2021",
        "qr_code": "https://pse.kominfo.go.id/storage/images/qr_code/511744131696e90a9b128b6d0369d25e.png",
        "status_id": "TERDAFTAR",
        "sistem_elektronik_id": 230
      }
    },
    {
      "type": "tdpseTerbit",
      "id": 430,
      "attributes": {
        "nomor_pb_umku": null,
        "nama": "PT. JALA LINTAS MEDIA",
        "website": "https://jlm.net.id/ ;; https://bnetfit.id/",
        "sektor": "Sektor Teknologi Informasi dan Komunikasi",
        "nama_perusahaan": "JALA LINTAS MEDIA",
        "tanggal_daftar": "2021-04-09",
        "nomor_tanda_daftar": "000351.01/DJAI.PSE/04/2021",
        "qr_code": "https://pse.kominfo.go.id/storage/images/qr_code/61a93514fdd958df79f5107ecdc40ac8.png",
        "status_id": "TERDAFTAR",
        "sistem_elektronik_id": 141
      }
    },
    {
      "type": "tdpseTerbit",
      "id": 429,
      "attributes": {
        "nomor_pb_umku": null,
        "nama": "com.angel.loan",
        "website": "http://www.kspsjg.com",
        "sektor": "Sektor Teknologi Informasi dan Komunikasi",
        "nama_perusahaan": "SEJAHTERA JAYA GEMILANG",
        "tanggal_daftar": "2021-04-09",
        "nomor_tanda_daftar": "000350.01/DJAI.PSE/04/2021",
        "qr_code": "https://pse.kominfo.go.id/storage/images/qr_code/951140078be21f49826abd8f438a3b53.png",
        "status_id": "TERDAFTAR",
        "sistem_elektronik_id": 4050
      }
    },
    {
      "type": "tdpseTerbit",
      "id": 428,
      "attributes": {
        "nomor_pb_umku": null,
        "nama": "MYINDOQURBAN",
        "website": "www.myindoqurban.com",
        "sektor": "Sektor Perdagangan, Sektor Teknologi Informasi dan Komunikasi, Sektor Transportasi",
        "nama_perusahaan": "SEPTO SUDIRO PERKASA",
        "tanggal_daftar": "2021-04-09",
        "nomor_tanda_daftar": "000349.01/DJAI.PSE/04/2021",
        "qr_code": "https://pse.kominfo.go.id/storage/images/qr_code/c915e4379b2e059f1caa8447c8df8891.png",
        "status_id": "TERDAFTAR",
        "sistem_elektronik_id": 210
      }
    },
    {
      "type": "tdpseTerbit",
      "id": 3891,
      "attributes": {
        "nomor_pb_umku": null,
        "nama": "pramdana.co.id",
        "website": "pramdana.co.id",
        "sektor": "Sektor Keuangan",
        "nama_perusahaan": "GRIYA DANAKU DIGITAL INVESTAMA",
        "tanggal_daftar": "2022-04-18",
        "nomor_tanda_daftar": "000348.02/DJAI.PSE/04/2022",
        "qr_code": "https://pse.kominfo.go.id/storage/images/qr_code/817c56838ab8f2c405df4d2621b955ed.png",
        "status_id": "TERDAFTAR",
        "sistem_elektronik_id": 3740
      }
    }
  ]
}