{
  "meta": {
    "page": {
      "currentPage": 1045,
      "from": 10441,
      "lastPage": 1072,
      "perPage": 10,
      "to": 10450,
      "total": 10718
    }
  },
  "data": [
    {
      "type": "tdpseTerbit",
      "id": 11399,
      "attributes": {
        "nomor_pb_umku": "912030111272600010009",
        "nama": "SISTEM LIKUIDITAS PERDAGANGAN FISIK EMAS DIGITAL DALAM BURSA",
        "website": "kinesis.money",
        "sektor": "Sektor Perdagangan",
        "nama_perusahaan": "BULLION ECOSYSTEM INTERNATIONAL",
        "tanggal_daftar": "2022-09-28",
        "nomor_tanda_daftar": "000155.15/DJAI.PSE/09/2022",
        "qr_code": "https://pse.kominfo.go.id/storage/images/qr_code/b6a9fedea4c0e87a07b3d946f94d6c94.png",
        "status_id": "TERDAFTAR",
        "sistem_elektronik_id": 11212
      }
    },
    {
      "type": "tdpseTerbit",
      "id": 11272,
      "attributes": {
        "nomor_pb_umku": "912030111272600010008",
        "nama": "HALAL BAZAAR",
        "website": "halalbazaar.bullionecosystem.com",
        "sektor": "Sektor Perdagangan",
        "nama_perusahaan": "BULLION ECOSYSTEM INTERNATIONAL",
        "tanggal_daftar": "2022-09-21",
        "nomor_tanda_daftar": "000155.14/DJAI.PSE/09/2022",
        "qr_code": "https://pse.kominfo.go.id/storage/images/qr_code/6fdb0d8a08f5e3a970c48fccd6888e56.png",
        "status_id": "TERDAFTAR",
        "sistem_elektronik_id": 11080
      }
    },
    {
      "type": "tdpseTerbit",
      "id": 11189,
      "attributes": {
        "nomor_pb_umku": "912030111272600010007",
        "nama": "GOLDTOMECCA",
        "website": "goldtomecca.com",
        "sektor": "Sektor Perdagangan",
        "nama_perusahaan": "BULLION ECOSYSTEM INTERNATIONAL",
        "tanggal_daftar": "2022-09-14",
        "nomor_tanda_daftar": "000155.13/DJAI.PSE/09/2022",
        "qr_code": "https://pse.kominfo.go.id/storage/images/qr_code/ce673fe73f88c05a35e2d513975b4aa0.png",
        "status_id": "TERDAFTAR",
        "sistem_elektronik_id": 10996
      }
    },
    {
      "type": "tdpseTerbit",
      "id": 7479,
      "attributes": {
        "nomor_pb_umku": "912030111272600010010",
        "nama": "JFXGRIT",
        "website": "jfxgrit-app.jfx.co.id",
        "sektor": "Sektor Perdagangan",
        "nama_perusahaan": "BULLION ECOSYSTEM INTERNATIONAL",
        "tanggal_daftar": "2022-07-20",
        "nomor_tanda_daftar": "000155.12/DJAI.PSE/07/2022",
        "qr_code": "https://pse.kominfo.go.id/storage/images/qr_code/1f239298aea28b47c2299071d59bbb17.png",
        "status_id": "TERDAFTAR",
        "sistem_elektronik_id": 7386
      }
    },
    {
      "type": "tdpseTerbit",
      "id": 5117,
      "attributes": {
        "nomor_pb_umku": "912030111272600010009",
        "nama": "GOLDEX",
        "website": "goldex.icdx.co.id",
        "sektor": "Sektor Perdagangan",
        "nama_perusahaan": "BULLION ECOSYSTEM INTERNATIONAL",
        "tanggal_daftar": "2022-07-06",
        "nomor_tanda_daftar": "000155.11/DJAI.PSE/07/2022",
        "qr_code": "https://pse.kominfo.go.id/storage/images/qr_code/9a919770c78c283bb7a59b7a904bd163.png",
        "status_id": "TERDAFTAR",
        "sistem_elektronik_id": 4979
      }
    },
    {
      "type": "tdpseTerbit",
      "id": 5009,
      "attributes": {
        "nomor_pb_umku": "912030111272600010008",
        "nama": "GOLDX",
        "website": "goldex.icdx.co.id",
        "sektor": "Sektor Perdagangan",
        "nama_perusahaan": "BULLION ECOSYSTEM INTERNATIONAL",
        "tanggal_daftar": "2022-07-01",
        "nomor_tanda_daftar": "000155.10/DJAI.PSE/07/2022",
        "qr_code": "https://pse.kominfo.go.id/storage/images/qr_code/65457e9b330276b4df46e94624f985f6.png",
        "status_id": "TERDAFTAR",
        "sistem_elektronik_id": 4879
      }
    },
    {
      "type": "tdpseTerbit",
      "id": 5008,
      "attributes": {
        "nomor_pb_umku": "912030111272600010007",
        "nama": "JFXGOLDX",
        "website": "jfxgoldx.jfx.co.id",
        "sektor": "Sektor Perdagangan",
        "nama_perusahaan": "BULLION ECOSYSTEM INTERNATIONAL",
        "tanggal_daftar": "2022-07-01",
        "nomor_tanda_daftar": "000155.09/DJAI.PSE/07/2022",
        "qr_code": "https://pse.kominfo.go.id/storage/images/qr_code/9cd67409d1a7648cbfb18013bf4da071.png",
        "status_id": "TERDAFTAR",
        "sistem_elektronik_id": 4878
      }
    },
    {
      "type": "tdpseTerbit",
      "id": 4972,
      "attributes": {
        "nomor_pb_umku": "912030111272600010006",
        "nama": "METALGO",
        "website": "metalgo.co",
        "sektor": "Sektor Perdagangan",
        "nama_perusahaan": "BULLION ECOSYSTEM INTERNATIONAL",
        "tanggal_daftar": "2022-06-30",
        "nomor_tanda_daftar": "000155.08/DJAI.PSE/06/2022",
        "qr_code": "https://pse.kominfo.go.id/storage/images/qr_code/07b0cd701fdc94eca47d85391a74d3c7.png",
        "status_id": "TERDAFTAR",
        "sistem_elektronik_id": 4840
      }
    },
    {
      "type": "tdpseTerbit",
      "id": 3689,
      "attributes": {
        "nomor_pb_umku": null,
        "nama": "Pospay Gold",
        "website": "https://posgo.id/",
        "sektor": "Sektor Perdagangan",
        "nama_perusahaan": "BULLION ECOSYSTEM INTERNATIONAL",
        "tanggal_daftar": "2022-03-29",
        "nomor_tanda_daftar": "000155.07/DJAI.PSE/03/2022",
        "qr_code": "https://pse.kominfo.go.id/storage/images/qr_code/53e6fe05cd195d606d8b98891459c70c.png",
        "status_id": "TERDAFTAR",
        "sistem_elektronik_id": 3507
      }
    },
    {
      "type": "tdpseTerbit",
      "id": 3488,
      "attributes": {
        "nomor_pb_umku": null,
        "nama": "TokoHub",
        "website": "https://tokohub.bullionecosystem.com/",
        "sektor": "Sektor Perdagangan, Sektor Teknologi Informasi dan Komunikasi",
        "nama_perusahaan": "BULLION ECOSYSTEM INTERNATIONAL",
        "tanggal_daftar": "2022-03-09",
        "nomor_tanda_daftar": "000155.06/DJAI.PSE/03/2022",
        "qr_code": "https://pse.kominfo.go.id/storage/images/qr_code/131a24e6ecc2cd1a93d20e641d57dfe6.png",
        "status_id": "TERDAFTAR",
        "sistem_elektronik_id": 3195
      }
    }
  ]
}