{
  "meta": {
    "page": {
      "currentPage": 1047,
      "from": 10461,
      "lastPage": 1055,
      "perPage": 10,
      "to": 10470,
      "total": 10545
    }
  },
  "data": [
    {
      "type": "tdpseTerbit",
      "id": 44,
      "attributes": {
        "nomor_pb_umku": null,
        "nama": "Corporate Website",
        "website": "www.bhinnekalife.com",
        "sektor": "Sektor Keuangan",
        "nama_perusahaan": "BHINNEKA LIFE INDONESIA",
        "tanggal_daftar": "2021-02-23",
        "nomor_tanda_daftar": "000040.01/DJAI.PSE/02/2021",
        "qr_code": "https://pse.kominfo.go.id/storage/images/qr_code/5ffee62c43067c142019002dda7c280e.png",
        "status_id": "TERDAFTAR",
        "sistem_elektronik_id": 2900
      }
    },
    {
      "type": "tdpseTerbit",
      "id": 43,
      "attributes": {
        "nomor_pb_umku": null,
        "nama": "Teken Aja!",
        "website": "www.djelas.id",
        "sektor": "Sektor Teknologi Informasi dan Komunikasi",
        "nama_perusahaan": "DJELAS TANDATANGAN BERSAMA",
        "tanggal_daftar": "2021-02-23",
        "nomor_tanda_daftar": "000039.01/DJAI.PSE/02/2021",
        "qr_code": "https://pse.kominfo.go.id/storage/images/qr_code/5e55f8dc6d8f168a2d41d9f3182508c2.png",
        "status_id": "TERDAFTAR",
        "sistem_elektronik_id": 2453
      }
    },
    {
      "type": "tdpseTerbit",
      "id": 83,
      "attributes": {
        "nomor_pb_umku": null,
        "nama": "Indepay",
        "website": "http://www.indepay.com/",
        "sektor": "Sektor Perdagangan",
        "nama_perusahaan": "INDEPAY NETWORKS INDONESIA",
        "tanggal_daftar": "2021-02-23",
        "nomor_tanda_daftar": "000038.02/DJAI.PSE/02/2021",
        "qr_code": "https://pse.kominfo.go.id/storage/images/qr_code/fbb40caa3fafa934d1619247b879c41e.png",
        "status_id": "TERDAFTAR",
        "sistem_elektronik_id": 2356
      }
    },
    {
      "type": "tdpseTerbit",
      "id": 42,
      "attributes": {
        "nomor_pb_umku": null,
        "nama": "Indepay",
        "website": "http://www.indepay.com/",
        "sektor": "Sektor Perdagangan",
        "nama_perusahaan": "INDEPAY NETWORKS INDONESIA",
        "tanggal_daftar": "2021-02-23",
        "nomor_tanda_daftar": "000038.01/DJAI.PSE/02/2021",
        "qr_code": "https://pse.kominfo.go.id/storage/images/qr_code/6ec639fd75089eeaabc5be56fc4768e8.png",
        "status_id": "TERDAFTAR",
        "sistem_elektronik_id": 2355
      }
    },
    {
      "type": "tdpseTerbit",
      "id": 7985,
      "attributes": {
        "nomor_pb_umku": "912040026017900010003",
        "nama": "FINA SHOWROOM",
        "website": "-",
        "sektor": "Sektor Keuangan",
        "nama_perusahaan": "BCA FINANCE",
        "tanggal_daftar": "2022-07-20",
        "nomor_tanda_daftar": "000037.05/DJAI.PSE/07/2022",
        "qr_code": "https://pse.kominfo.go.id/storage/images/qr_code/57e31a10bf72350fa3b841729f214228.png",
        "status_id": "TERDAFTAR",
        "sistem_elektronik_id": 7900
      }
    },
    {
      "type": "tdpseTerbit",
      "id": 7946,
      "attributes": {
        "nomor_pb_umku": "912040026017900010002",
        "nama": "CHATBOT ASTARI",
        "website": "zendesk.com",
        "sektor": "Sektor Keuangan",
        "nama_perusahaan": "BCA FINANCE",
        "tanggal_daftar": "2022-07-20",
        "nomor_tanda_daftar": "000037.04/DJAI.PSE/07/2022",
        "qr_code": "https://pse.kominfo.go.id/storage/images/qr_code/d1ffbda41bd9010fb7d5fea2c54be114.png",
        "status_id": "TERDAFTAR",
        "sistem_elektronik_id": 7860
      }
    },
    {
      "type": "tdpseTerbit",
      "id": 6053,
      "attributes": {
        "nomor_pb_umku": "912040026017900010001",
        "nama": "WEBSITE BCA FINANCE",
        "website": "bcafinance.co.id",
        "sektor": "Sektor Keuangan",
        "nama_perusahaan": "BCA FINANCE",
        "tanggal_daftar": "2022-07-18",
        "nomor_tanda_daftar": "000037.03/DJAI.PSE/07/2022",
        "qr_code": "https://pse.kominfo.go.id/storage/images/qr_code/349bb3b1eaf72f022f371a4dd4fd503b.png",
        "status_id": "TERDAFTAR",
        "sistem_elektronik_id": 5921
      }
    },
    {
      "type": "tdpseTerbit",
      "id": 406,
      "attributes": {
        "nomor_pb_umku": null,
        "nama": "KKB BCA Virtual Mall",
        "website": "Kreditkerenbanget.com",
        "sektor": "Sektor Perdagangan",
        "nama_perusahaan": "BCA FINANCE",
        "tanggal_daftar": "2021-03-16",
        "nomor_tanda_daftar": "000037.02/DJAI.PSE/03/2021",
        "qr_code": "https://pse.kominfo.go.id/storage/images/qr_code/5ef2bb7eaf65312f78621c2b0d44b69e.png",
        "status_id": "TERDAFTAR",
        "sistem_elektronik_id": 2313
      }
    },
    {
      "type": "tdpseTerbit",
      "id": 41,
      "attributes": {
        "nomor_pb_umku": null,
        "nama": "FINA",
        "website": "https://www.bcafinance.co.id/",
        "sektor": "Sektor Perdagangan",
        "nama_perusahaan": "BCA FINANCE",
        "tanggal_daftar": "2021-02-23",
        "nomor_tanda_daftar": "000037.01/DJAI.PSE/02/2021",
        "qr_code": "https://pse.kominfo.go.id/storage/images/qr_code/96dafcfd5e8cbe8030858d795304c545.png",
        "status_id": "TERDAFTAR",
        "sistem_elektronik_id": 2312
      }
    },
    {
      "type": "tdpseTerbit",
      "id": 398,
      "attributes": {
        "nomor_pb_umku": null,
        "nama": "Situs Perusahaan / Situs Web",
        "website": "https://www.cigna.co.id/",
        "sektor": "Sektor Keuangan",
        "nama_perusahaan": "ASURANSI CIGNA",
        "tanggal_daftar": "2021-03-16",
        "nomor_tanda_daftar": "000036.02/DJAI.PSE/03/2021",
        "qr_code": "https://pse.kominfo.go.id/storage/images/qr_code/c20b467e27e2a2a7b9cf89bdfecc8773.png",
        "status_id": "TERDAFTAR",
        "sistem_elektronik_id": 2420
      }
    }
  ]
}