{
  "meta": {
    "page": {
      "currentPage": 1049,
      "from": 10481,
      "lastPage": 1056,
      "perPage": 10,
      "to": 10490,
      "total": 10553
    }
  },
  "data": [
    {
      "type": "tdpseTerbit",
      "id": 5279,
      "attributes": {
        "nomor_pb_umku": "912041704100600200001",
        "nama": "ICBC PERSONAL INTERNET BANKING",
        "website": "i.icbc.co.id",
        "sektor": "Sektor Keuangan",
        "nama_perusahaan": "BANK ICBC INDONESIA",
        "tanggal_daftar": "2022-07-11",
        "nomor_tanda_daftar": "000035.03/DJAI.PSE/07/2022",
        "qr_code": "https://pse.kominfo.go.id/storage/images/qr_code/41cf9493257fb6b2da5e9cf9c0ff6b8d.png",
        "status_id": "TERDAFTAR",
        "sistem_elektronik_id": 5148
      }
    },
    {
      "type": "tdpseTerbit",
      "id": 1829,
      "attributes": {
        "nomor_pb_umku": null,
        "nama": "Website ICBC Indonesia",
        "website": "www.icbc.co.id",
        "sektor": "Sektor Keuangan",
        "nama_perusahaan": "BANK ICBC INDONESIA",
        "tanggal_daftar": "2021-08-03",
        "nomor_tanda_daftar": "000035.02/DJAI.PSE/08/2021",
        "qr_code": "https://pse.kominfo.go.id/storage/images/qr_code/73bfa9682ec88bbee5cbaac813383958.png",
        "status_id": "TERDAFTAR",
        "sistem_elektronik_id": 2362
      }
    },
    {
      "type": "tdpseTerbit",
      "id": 39,
      "attributes": {
        "nomor_pb_umku": null,
        "nama": "Corporate Internet Banking",
        "website": "https://cbank.icbc.co.id/",
        "sektor": "Sektor Keuangan",
        "nama_perusahaan": "BANK ICBC INDONESIA",
        "tanggal_daftar": "2021-02-23",
        "nomor_tanda_daftar": "000035.01/DJAI.PSE/02/2021",
        "qr_code": "https://pse.kominfo.go.id/storage/images/qr_code/5006d12dffcd15b0a1154732b7cf8a60.png",
        "status_id": "TERDAFTAR",
        "sistem_elektronik_id": 2361
      }
    },
    {
      "type": "tdpseTerbit",
      "id": 38,
      "attributes": {
        "nomor_pb_umku": null,
        "nama": "ESIGN",
        "website": "https://www.esign.id/",
        "sektor": "Sektor Teknologi Informasi dan Komunikasi",
        "nama_perusahaan": "JASUINDO TIGA PERKASA",
        "tanggal_daftar": "2021-02-23",
        "nomor_tanda_daftar": "000034.01/DJAI.PSE/02/2021",
        "qr_code": "https://pse.kominfo.go.id/storage/images/qr_code/e75bb174d792c1cadc22275ba8e5d1a1.png",
        "status_id": "TERDAFTAR",
        "sistem_elektronik_id": 2406
      }
    },
    {
      "type": "tdpseTerbit",
      "id": 37,
      "attributes": {
        "nomor_pb_umku": null,
        "nama": "starpoin",
        "website": "www.starpoin.id",
        "sektor": "Sektor Teknologi Informasi dan Komunikasi",
        "nama_perusahaan": "SIMAS POIN INDONESIA",
        "tanggal_daftar": "2021-02-23",
        "nomor_tanda_daftar": "000033.01/DJAI.PSE/02/2021",
        "qr_code": "https://pse.kominfo.go.id/storage/images/qr_code/bcfae5f4e225eb1398746f2918acd368.png",
        "status_id": "TERDAFTAR",
        "sistem_elektronik_id": 2424
      }
    },
    {
      "type": "tdpseTerbit",
      "id": 206,
      "attributes": {
        "nomor_pb_umku": null,
        "nama": "ERUPS",
        "website": "https://rups.bimaregistra.co.id",
        "sektor": "Sektor Keuangan",
        "nama_perusahaan": "BIMA REGISTRA",
        "tanggal_daftar": "2021-02-25",
        "nomor_tanda_daftar": "000032.02/DJAI.PSE/02/2021",
        "qr_code": "https://pse.kominfo.go.id/storage/images/qr_code/4dbbb77f97f67148fa49990125554a32.png",
        "status_id": "TERDAFTAR",
        "sistem_elektronik_id": 2431
      }
    },
    {
      "type": "tdpseTerbit",
      "id": 36,
      "attributes": {
        "nomor_pb_umku": null,
        "nama": "ERUPS",
        "website": "https://rups.bimaregistra.co.id",
        "sektor": "Sektor Keuangan",
        "nama_perusahaan": "BIMA REGISTRA",
        "tanggal_daftar": "2021-02-23",
        "nomor_tanda_daftar": "000032.01/DJAI.PSE/02/2021",
        "qr_code": "https://pse.kominfo.go.id/storage/images/qr_code/a4a400aa2ee5b098564ac6a69fd377d8.png",
        "status_id": "TERDAFTAR",
        "sistem_elektronik_id": 2430
      }
    },
    {
      "type": "tdpseTerbit",
      "id": 35,
      "attributes": {
        "nomor_pb_umku": null,
        "nama": "JelasPay",
        "website": "-",
        "sektor": "Sektor Teknologi Informasi dan Komunikasi",
        "nama_perusahaan": "JELAS PEMBAYARAN BIOMETRIK",
        "tanggal_daftar": "2021-02-23",
        "nomor_tanda_daftar": "000031.01/DJAI.PSE/02/2021",
        "qr_code": "https://pse.kominfo.go.id/storage/images/qr_code/4480c3691de412944af91816d02a422d.png",
        "status_id": "TERDAFTAR",
        "sistem_elektronik_id": 2321
      }
    },
    {
      "type": "tdpseTerbit",
      "id": 5774,
      "attributes": {
        "nomor_pb_umku": "020200097141300010004",
        "nama": "CLAIMS VENDOR ASSIGNMENT TOOL",
        "website": "vendorassignment.chubb.com",
        "sektor": "Sektor Keuangan",
        "nama_perusahaan": "CHUBB GENERAL INSURANCE INDONESIA",
        "tanggal_daftar": "2022-07-15",
        "nomor_tanda_daftar": "000030.06/DJAI.PSE/07/2022",
        "qr_code": "https://pse.kominfo.go.id/storage/images/qr_code/074bd65eb6305048adac5a40b6522f56.png",
        "status_id": "TERDAFTAR",
        "sistem_elektronik_id": 5636
      }
    },
    {
      "type": "tdpseTerbit",
      "id": 5582,
      "attributes": {
        "nomor_pb_umku": "020200097141300010003",
        "nama": "CHUBB TRAVEL B2B",
        "website": "travel.chubb",
        "sektor": "Sektor Keuangan",
        "nama_perusahaan": "CHUBB GENERAL INSURANCE INDONESIA",
        "tanggal_daftar": "2022-07-14",
        "nomor_tanda_daftar": "000030.05/DJAI.PSE/07/2022",
        "qr_code": "https://pse.kominfo.go.id/storage/images/qr_code/b20ee6161216042eafb8c241dc23ad43.png",
        "status_id": "TERDAFTAR",
        "sistem_elektronik_id": 5430
      }
    }
  ]
}