{
  "meta": {
    "page": {
      "currentPage": 1050,
      "from": 10491,
      "lastPage": 1085,
      "perPage": 10,
      "to": 10500,
      "total": 10842
    }
  },
  "data": [
    {
      "type": "tdpseTerbit",
      "id": 232,
      "attributes": {
        "nomor_pb_umku": null,
        "nama": "TUNAI SEJAHTERA",
        "website": "-",
        "sektor": "Sektor Keuangan",
        "nama_perusahaan": "SIMPAN PINJAM DANA EKA JAYA",
        "tanggal_daftar": "2021-02-25",
        "nomor_tanda_daftar": "000195.01/DJAI.PSE/02/2021",
        "qr_code": "https://pse.kominfo.go.id/storage/images/qr_code/02f1c113c2a36f0260d738c1ce75fb37.png",
        "status_id": "TERDAFTAR",
        "sistem_elektronik_id": 2683
      }
    },
    {
      "type": "tdpseTerbit",
      "id": 225,
      "attributes": {
        "nomor_pb_umku": null,
        "nama": "Nyaman",
        "website": "www.nyaman.online",
        "sektor": "Sektor Perdagangan, Sektor Teknologi Informasi dan Komunikasi",
        "nama_perusahaan": "BEBERES RUMAH SEJAHTERA",
        "tanggal_daftar": "2021-02-25",
        "nomor_tanda_daftar": "000194.01/DJAI.PSE/02/2021",
        "qr_code": "https://pse.kominfo.go.id/storage/images/qr_code/0cd618942c0fb1a3f06e38846e2fba14.png",
        "status_id": "TERDAFTAR",
        "sistem_elektronik_id": 2631
      }
    },
    {
      "type": "tdpseTerbit",
      "id": 224,
      "attributes": {
        "nomor_pb_umku": null,
        "nama": "CAIR CEPAT",
        "website": "www.ksptpi.com",
        "sektor": "Sektor Keuangan",
        "nama_perusahaan": "SIMPAN PINJAM TAMAN PUSAT INTEGRASI",
        "tanggal_daftar": "2021-02-25",
        "nomor_tanda_daftar": "000193.01/DJAI.PSE/02/2021",
        "qr_code": "https://pse.kominfo.go.id/storage/images/qr_code/995f69529c35ecf108bdb2dc16330784.png",
        "status_id": "TERDAFTAR",
        "sistem_elektronik_id": 2668
      }
    },
    {
      "type": "tdpseTerbit",
      "id": 1892,
      "attributes": {
        "nomor_pb_umku": null,
        "nama": "www.lineashoes.com",
        "website": "www.lineashoes.com",
        "sektor": "Sektor Perdagangan",
        "nama_perusahaan": "MAP AKTIF ADIPERKASA",
        "tanggal_daftar": "2021-09-28",
        "nomor_tanda_daftar": "000192.09/DJAI.PSE/09/2021",
        "qr_code": "https://pse.kominfo.go.id/storage/images/qr_code/af4a426252942506d14716f128155534.png",
        "status_id": "TERDAFTAR",
        "sistem_elektronik_id": 3677
      }
    },
    {
      "type": "tdpseTerbit",
      "id": 1891,
      "attributes": {
        "nomor_pb_umku": null,
        "nama": "www.converse.id",
        "website": "www.converse.id",
        "sektor": "Sektor Perdagangan",
        "nama_perusahaan": "MAP AKTIF ADIPERKASA",
        "tanggal_daftar": "2021-09-28",
        "nomor_tanda_daftar": "000192.08/DJAI.PSE/09/2021",
        "qr_code": "https://pse.kominfo.go.id/storage/images/qr_code/a619c8121f68036bd59de4d70e6b1ce4.png",
        "status_id": "TERDAFTAR",
        "sistem_elektronik_id": 3676
      }
    },
    {
      "type": "tdpseTerbit",
      "id": 231,
      "attributes": {
        "nomor_pb_umku": null,
        "nama": "newbalance.co.id",
        "website": "newbalance.co.id",
        "sektor": "Sektor Perdagangan",
        "nama_perusahaan": "MAP AKTIF ADIPERKASA",
        "tanggal_daftar": "2021-02-25",
        "nomor_tanda_daftar": "000192.07/DJAI.PSE/02/2021",
        "qr_code": "https://pse.kominfo.go.id/storage/images/qr_code/8455b9a37aed38c0d01de071d55d8569.png",
        "status_id": "TERDAFTAR",
        "sistem_elektronik_id": 3675
      }
    },
    {
      "type": "tdpseTerbit",
      "id": 230,
      "attributes": {
        "nomor_pb_umku": null,
        "nama": "reebok.id",
        "website": "reebok.id",
        "sektor": "Sektor Perdagangan",
        "nama_perusahaan": "MAP AKTIF ADIPERKASA",
        "tanggal_daftar": "2021-02-25",
        "nomor_tanda_daftar": "000192.06/DJAI.PSE/02/2021",
        "qr_code": "https://pse.kominfo.go.id/storage/images/qr_code/7fc0ac19f346151417ead3a0c56f0c05.png",
        "status_id": "TERDAFTAR",
        "sistem_elektronik_id": 3674
      }
    },
    {
      "type": "tdpseTerbit",
      "id": 229,
      "attributes": {
        "nomor_pb_umku": null,
        "nama": "crocs.co.id",
        "website": "crocs.co.id",
        "sektor": "Sektor Perdagangan",
        "nama_perusahaan": "MAP AKTIF ADIPERKASA",
        "tanggal_daftar": "2021-02-25",
        "nomor_tanda_daftar": "000192.05/DJAI.PSE/02/2021",
        "qr_code": "https://pse.kominfo.go.id/storage/images/qr_code/198a93e3fe7bcc8cf07ec676592f37a1.png",
        "status_id": "TERDAFTAR",
        "sistem_elektronik_id": 3673
      }
    },
    {
      "type": "tdpseTerbit",
      "id": 228,
      "attributes": {
        "nomor_pb_umku": null,
        "nama": "kidzstation.asia",
        "website": "kidzstation.asia",
        "sektor": "Sektor Perdagangan",
        "nama_perusahaan": "MAP AKTIF ADIPERKASA",
        "tanggal_daftar": "2021-02-25",
        "nomor_tanda_daftar": "000192.04/DJAI.PSE/02/2021",
        "qr_code": "https://pse.kominfo.go.id/storage/images/qr_code/31ea84982f2b9666bb233697499d2085.png",
        "status_id": "TERDAFTAR",
        "sistem_elektronik_id": 3672
      }
    },
    {
      "type": "tdpseTerbit",
      "id": 227,
      "attributes": {
        "nomor_pb_umku": null,
        "nama": "skechers.id",
        "website": "skechers.id",
        "sektor": "Sektor Perdagangan",
        "nama_perusahaan": "MAP AKTIF ADIPERKASA",
        "tanggal_daftar": "2021-02-25",
        "nomor_tanda_daftar": "000192.03/DJAI.PSE/02/2021",
        "qr_code": "https://pse.kominfo.go.id/storage/images/qr_code/fbd090939ab9e9c88eac952cec49514c.png",
        "status_id": "TERDAFTAR",
        "sistem_elektronik_id": 3671
      }
    }
  ]
}