{
  "meta": {
    "page": {
      "currentPage": 1054,
      "from": 10531,
      "lastPage": 1063,
      "perPage": 10,
      "to": 10540,
      "total": 10630
    }
  },
  "data": [
    {
      "type": "tdpseTerbit",
      "id": 1640,
      "attributes": {
        "nomor_pb_umku": null,
        "nama": "Sequis App",
        "website": "https://polisku.sequis.co.id/",
        "sektor": "Sektor Keuangan",
        "nama_perusahaan": "ASURANSI JIWA SEQUIS LIFE",
        "tanggal_daftar": "2021-07-05",
        "nomor_tanda_daftar": "000050.03/DJAI.PSE/07/2021",
        "qr_code": "https://pse.kominfo.go.id/storage/images/qr_code/57c80668948f2fc3487fe1957eb692db.png",
        "status_id": "TERDAFTAR",
        "sistem_elektronik_id": 2473
      }
    },
    {
      "type": "tdpseTerbit",
      "id": 137,
      "attributes": {
        "nomor_pb_umku": null,
        "nama": "SUPERYOU",
        "website": "https://superyou.co.id",
        "sektor": "Sektor Keuangan",
        "nama_perusahaan": "ASURANSI JIWA SEQUIS LIFE",
        "tanggal_daftar": "2021-02-24",
        "nomor_tanda_daftar": "000050.02/DJAI.PSE/02/2021",
        "qr_code": "https://pse.kominfo.go.id/storage/images/qr_code/e884229d7dc7ca8aa20538d1d13bfaae.png",
        "status_id": "TERDAFTAR",
        "sistem_elektronik_id": 2472
      }
    },
    {
      "type": "tdpseTerbit",
      "id": 58,
      "attributes": {
        "nomor_pb_umku": null,
        "nama": "Sequis eZ",
        "website": "https://sequisez.sequis.co.id",
        "sektor": "Sektor Keuangan",
        "nama_perusahaan": "ASURANSI JIWA SEQUIS LIFE",
        "tanggal_daftar": "2021-02-23",
        "nomor_tanda_daftar": "000050.01/DJAI.PSE/02/2021",
        "qr_code": "https://pse.kominfo.go.id/storage/images/qr_code/3df43b8871e519aa4987037a07f9cf66.png",
        "status_id": "TERDAFTAR",
        "sistem_elektronik_id": 2471
      }
    },
    {
      "type": "tdpseTerbit",
      "id": 57,
      "attributes": {
        "nomor_pb_umku": null,
        "nama": "Bospremi",
        "website": "www.bospremi.com",
        "sektor": "Sektor Teknologi Informasi dan Komunikasi",
        "nama_perusahaan": "SIGER SOLUSI TEKNOLOGI",
        "tanggal_daftar": "2021-02-23",
        "nomor_tanda_daftar": "000049.01/DJAI.PSE/02/2021",
        "qr_code": "https://pse.kominfo.go.id/storage/images/qr_code/94ef7addf7228fcf12b50f80ca3585a7.png",
        "status_id": "TERDAFTAR",
        "sistem_elektronik_id": 2478
      }
    },
    {
      "type": "tdpseTerbit",
      "id": 56,
      "attributes": {
        "nomor_pb_umku": null,
        "nama": "Okeklinik",
        "website": "okeklinik.com",
        "sektor": "Sektor Kesehatan",
        "nama_perusahaan": "TEKNOLOGI MEDIS KESEHATAN",
        "tanggal_daftar": "2021-02-23",
        "nomor_tanda_daftar": "000048.01/DJAI.PSE/02/2021",
        "qr_code": "https://pse.kominfo.go.id/storage/images/qr_code/202b82149776a10a191158ad5b2f3237.png",
        "status_id": "TERDAFTAR",
        "sistem_elektronik_id": 2357
      }
    },
    {
      "type": "tdpseTerbit",
      "id": 55,
      "attributes": {
        "nomor_pb_umku": null,
        "nama": "Website",
        "website": "htpps://geonet.me",
        "sektor": "Sektor Perdagangan",
        "nama_perusahaan": "AUSTINDO INFORMATIKA DEWATA",
        "tanggal_daftar": "2021-02-23",
        "nomor_tanda_daftar": "000047.01/DJAI.PSE/02/2021",
        "qr_code": "https://pse.kominfo.go.id/storage/images/qr_code/b3506885fdaf8720748208cc0f16d61e.png",
        "status_id": "TERDAFTAR",
        "sistem_elektronik_id": 3506
      }
    },
    {
      "type": "tdpseTerbit",
      "id": 54,
      "attributes": {
        "nomor_pb_umku": null,
        "nama": "TRUCKKING",
        "website": "https://www.truckking.id/",
        "sektor": "Sektor Transportasi",
        "nama_perusahaan": "TRUCKKING LINTAS SARANA",
        "tanggal_daftar": "2021-02-23",
        "nomor_tanda_daftar": "000046.01/DJAI.PSE/02/2021",
        "qr_code": "https://pse.kominfo.go.id/storage/images/qr_code/a9b219b2d7460f18c548531b00290900.png",
        "status_id": "TERDAFTAR",
        "sistem_elektronik_id": 2408
      }
    },
    {
      "type": "tdpseTerbit",
      "id": 53,
      "attributes": {
        "nomor_pb_umku": null,
        "nama": "Marketplace Hooura",
        "website": "https://hooura.com/",
        "sektor": "Sektor Perdagangan",
        "nama_perusahaan": "DIMENSI GENERASI TEKNOLOGI",
        "tanggal_daftar": "2021-02-23",
        "nomor_tanda_daftar": "000045.01/DJAI.PSE/02/2021",
        "qr_code": "https://pse.kominfo.go.id/storage/images/qr_code/ebbd1d411e428520f87e6f5b55afaa39.png",
        "status_id": "TERDAFTAR",
        "sistem_elektronik_id": 2468
      }
    },
    {
      "type": "tdpseTerbit",
      "id": 52,
      "attributes": {
        "nomor_pb_umku": null,
        "nama": "visiku.co.id",
        "website": "www.visiku.co.id",
        "sektor": "Sektor Keuangan, Sektor Teknologi Informasi dan Komunikasi",
        "nama_perusahaan": "AMANTRA INVESTAMA INDODANA",
        "tanggal_daftar": "2021-02-23",
        "nomor_tanda_daftar": "000044.01/DJAI.PSE/02/2021",
        "qr_code": "https://pse.kominfo.go.id/storage/images/qr_code/5268e7f7d7565015f613f518fda82d45.png",
        "status_id": "TERDAFTAR",
        "sistem_elektronik_id": 2469
      }
    },
    {
      "type": "tdpseTerbit",
      "id": 51,
      "attributes": {
        "nomor_pb_umku": null,
        "nama": "EDUON",
        "website": "www.eduon.id",
        "sektor": "Sektor Perdagangan, Sektor Teknologi Informasi dan Komunikasi",
        "nama_perusahaan": "KONTEN KARYA KREATIF",
        "tanggal_daftar": "2021-02-23",
        "nomor_tanda_daftar": "000043.01/DJAI.PSE/02/2021",
        "qr_code": "https://pse.kominfo.go.id/storage/images/qr_code/777e630b4bed805cb52b4c4faa2e94bb.png",
        "status_id": "TERDAFTAR",
        "sistem_elektronik_id": 2391
      }
    }
  ]
}