{
  "meta": {
    "page": {
      "currentPage": 1055,
      "from": 10541,
      "lastPage": 1089,
      "perPage": 10,
      "to": 10550,
      "total": 10885
    }
  },
  "data": [
    {
      "type": "tdpseTerbit",
      "id": 228,
      "attributes": {
        "nomor_pb_umku": null,
        "nama": "kidzstation.asia",
        "website": "kidzstation.asia",
        "sektor": "Sektor Perdagangan",
        "nama_perusahaan": "MAP AKTIF ADIPERKASA",
        "tanggal_daftar": "2021-02-25",
        "nomor_tanda_daftar": "000192.04/DJAI.PSE/02/2021",
        "qr_code": "https://pse.kominfo.go.id/storage/images/qr_code/31ea84982f2b9666bb233697499d2085.png",
        "status_id": "TERDAFTAR",
        "sistem_elektronik_id": 3672
      }
    },
    {
      "type": "tdpseTerbit",
      "id": 227,
      "attributes": {
        "nomor_pb_umku": null,
        "nama": "skechers.id",
        "website": "skechers.id",
        "sektor": "Sektor Perdagangan",
        "nama_perusahaan": "MAP AKTIF ADIPERKASA",
        "tanggal_daftar": "2021-02-25",
        "nomor_tanda_daftar": "000192.03/DJAI.PSE/02/2021",
        "qr_code": "https://pse.kominfo.go.id/storage/images/qr_code/fbd090939ab9e9c88eac952cec49514c.png",
        "status_id": "TERDAFTAR",
        "sistem_elektronik_id": 3671
      }
    },
    {
      "type": "tdpseTerbit",
      "id": 226,
      "attributes": {
        "nomor_pb_umku": null,
        "nama": "planetsports.asia",
        "website": "planetsports.asia",
        "sektor": "Sektor Perdagangan",
        "nama_perusahaan": "MAP AKTIF ADIPERKASA",
        "tanggal_daftar": "2021-02-25",
        "nomor_tanda_daftar": "000192.02/DJAI.PSE/02/2021",
        "qr_code": "https://pse.kominfo.go.id/storage/images/qr_code/77096bbe99c9a01803706379676486df.png",
        "status_id": "TERDAFTAR",
        "sistem_elektronik_id": 3670
      }
    },
    {
      "type": "tdpseTerbit",
      "id": 223,
      "attributes": {
        "nomor_pb_umku": null,
        "nama": "tshirt-gld.com",
        "website": "tshirt-gld.com",
        "sektor": "Sektor Perdagangan",
        "nama_perusahaan": "MAP AKTIF ADIPERKASA",
        "tanggal_daftar": "2021-02-25",
        "nomor_tanda_daftar": "000192.01/DJAI.PSE/02/2021",
        "qr_code": "https://pse.kominfo.go.id/storage/images/qr_code/1cd6b7db93bed8fd7f005f3b37c28dbe.png",
        "status_id": "TERDAFTAR",
        "sistem_elektronik_id": 3669
      }
    },
    {
      "type": "tdpseTerbit",
      "id": 222,
      "attributes": {
        "nomor_pb_umku": null,
        "nama": "Indonesea",
        "website": "www.indonesea.id",
        "sektor": "Sektor Perdagangan",
        "nama_perusahaan": "JELAJAH BAHARI INDONESIA",
        "tanggal_daftar": "2021-02-25",
        "nomor_tanda_daftar": "000191.01/DJAI.PSE/02/2021",
        "qr_code": "https://pse.kominfo.go.id/storage/images/qr_code/a8a22a4755aacba8e04475d0eeda9173.png",
        "status_id": "TERDAFTAR",
        "sistem_elektronik_id": 2639
      }
    },
    {
      "type": "tdpseTerbit",
      "id": 219,
      "attributes": {
        "nomor_pb_umku": null,
        "nama": "Kioshukum",
        "website": "kioshukum.id",
        "sektor": "Sektor Perdagangan, Sektor Teknologi Informasi dan Komunikasi",
        "nama_perusahaan": "LEGAL BERKAT DIGITALINDO",
        "tanggal_daftar": "2021-02-25",
        "nomor_tanda_daftar": "000190.01/DJAI.PSE/02/2021",
        "qr_code": "https://pse.kominfo.go.id/storage/images/qr_code/204687db0b18342ec35c9873db6900e6.png",
        "status_id": "TERDAFTAR",
        "sistem_elektronik_id": 2483
      }
    },
    {
      "type": "tdpseTerbit",
      "id": 216,
      "attributes": {
        "nomor_pb_umku": null,
        "nama": "Payment Gateway PVS",
        "website": "https://report.poshub.id/",
        "sektor": "Sektor Keuangan",
        "nama_perusahaan": "PRIMA VISTA SOLUSI",
        "tanggal_daftar": "2021-02-25",
        "nomor_tanda_daftar": "000189.01/DJAI.PSE/02/2021",
        "qr_code": "https://pse.kominfo.go.id/storage/images/qr_code/fdf80630833558fa55a692c733ca5c6c.png",
        "status_id": "TERDAFTAR",
        "sistem_elektronik_id": 2664
      }
    },
    {
      "type": "tdpseTerbit",
      "id": 214,
      "attributes": {
        "nomor_pb_umku": null,
        "nama": "PANDA PINJAMAN",
        "website": "-",
        "sektor": "Sektor Teknologi Informasi dan Komunikasi",
        "nama_perusahaan": "KOPERASI SIMPAN PINJAM LIMA AWAN UTAMA SEJAHTERA",
        "tanggal_daftar": "2021-02-25",
        "nomor_tanda_daftar": "000188.01/DJAI.PSE/02/2021",
        "qr_code": "https://pse.kominfo.go.id/storage/images/qr_code/c852b56750936e876f1c40ef10f2a203.png",
        "status_id": "TERDAFTAR",
        "sistem_elektronik_id": 2713
      }
    },
    {
      "type": "tdpseTerbit",
      "id": 213,
      "attributes": {
        "nomor_pb_umku": null,
        "nama": "Bindcover",
        "website": "www.bindcover.com",
        "sektor": "Sektor Teknologi Informasi dan Komunikasi",
        "nama_perusahaan": "BCI DIGITAL ASIA",
        "tanggal_daftar": "2021-02-25",
        "nomor_tanda_daftar": "000187.01/DJAI.PSE/02/2021",
        "qr_code": "https://pse.kominfo.go.id/storage/images/qr_code/fc068c953f765de255a7fefe99023616.png",
        "status_id": "TERDAFTAR",
        "sistem_elektronik_id": 2706
      }
    },
    {
      "type": "tdpseTerbit",
      "id": 212,
      "attributes": {
        "nomor_pb_umku": null,
        "nama": "Duha Syariah",
        "website": "https://duhasyariah.id/",
        "sektor": "Sektor Keuangan",
        "nama_perusahaan": "DUHA MADANI SYARIAH",
        "tanggal_daftar": "2021-02-25",
        "nomor_tanda_daftar": "000186.01/DJAI.PSE/02/2021",
        "qr_code": "https://pse.kominfo.go.id/storage/images/qr_code/a05d17551190ac8601b6a4d1e5eeb1df.png",
        "status_id": "TERDAFTAR",
        "sistem_elektronik_id": 2710
      }
    }
  ]
}