{
  "meta": {
    "page": {
      "currentPage": 1057,
      "from": 10561,
      "lastPage": 1070,
      "perPage": 10,
      "to": 10570,
      "total": 10698
    }
  },
  "data": [
    {
      "type": "tdpseTerbit",
      "id": 84,
      "attributes": {
        "nomor_pb_umku": null,
        "nama": "https://nuamooreaindonesia.com/",
        "website": "https://nuamooreaindonesia.com",
        "sektor": "Sektor Perdagangan",
        "nama_perusahaan": "DUTA ELOK PERSADA",
        "tanggal_daftar": "2021-02-23",
        "nomor_tanda_daftar": "000074.01/DJAI.PSE/02/2021",
        "qr_code": "https://pse.kominfo.go.id/storage/images/qr_code/2528c35516c92babb067ef4ec7cd711b.png",
        "status_id": "TERDAFTAR",
        "sistem_elektronik_id": 2407
      }
    },
    {
      "type": "tdpseTerbit",
      "id": 82,
      "attributes": {
        "nomor_pb_umku": null,
        "nama": "e-commerce",
        "website": "www.cakravala.com",
        "sektor": "Sektor Perdagangan",
        "nama_perusahaan": "ANADAV",
        "tanggal_daftar": "2021-02-23",
        "nomor_tanda_daftar": "000073.01/DJAI.PSE/02/2021",
        "qr_code": "https://pse.kominfo.go.id/storage/images/qr_code/a94e7bb544e6bc273f2228f995a11d44.png",
        "status_id": "TERDAFTAR",
        "sistem_elektronik_id": 2503
      }
    },
    {
      "type": "tdpseTerbit",
      "id": 81,
      "attributes": {
        "nomor_pb_umku": null,
        "nama": "VAVE Global",
        "website": "www.vave.co.id",
        "sektor": "Sektor Perdagangan",
        "nama_perusahaan": "VAVE GLOBAL MADANI",
        "tanggal_daftar": "2021-02-23",
        "nomor_tanda_daftar": "000072.01/DJAI.PSE/02/2021",
        "qr_code": "https://pse.kominfo.go.id/storage/images/qr_code/55a74581dddf1442b8662224dab7b21d.png",
        "status_id": "TERDAFTAR",
        "sistem_elektronik_id": 2496
      }
    },
    {
      "type": "tdpseTerbit",
      "id": 80,
      "attributes": {
        "nomor_pb_umku": null,
        "nama": "MONEY KAYA",
        "website": "-",
        "sektor": "Sektor Keuangan",
        "nama_perusahaan": "SIMPAN PINJAM DANA GUNUNG MULIA",
        "tanggal_daftar": "2021-02-23",
        "nomor_tanda_daftar": "000071.01/DJAI.PSE/02/2021",
        "qr_code": "https://pse.kominfo.go.id/storage/images/qr_code/3dba0fb163f41e0dbcd3d1aa5d838159.png",
        "status_id": "TERDAFTAR",
        "sistem_elektronik_id": 2502
      }
    },
    {
      "type": "tdpseTerbit",
      "id": 442,
      "attributes": {
        "nomor_pb_umku": null,
        "nama": "PASTI BANTU",
        "website": "-",
        "sektor": "Sektor Keuangan",
        "nama_perusahaan": "Simpan Pinjam Persik Kuning Indonesia",
        "tanggal_daftar": "2021-04-14",
        "nomor_tanda_daftar": "000070.02/DJAI.PSE/04/2021",
        "qr_code": "https://pse.kominfo.go.id/storage/images/qr_code/1f6130e8d4ad69ab76e0d0b5f5090f89.png",
        "status_id": "TERDAFTAR",
        "sistem_elektronik_id": 2383
      }
    },
    {
      "type": "tdpseTerbit",
      "id": 79,
      "attributes": {
        "nomor_pb_umku": null,
        "nama": "OPTIMA",
        "website": "-",
        "sektor": "Sektor Keuangan",
        "nama_perusahaan": "Simpan Pinjam Persik Kuning Indonesia",
        "tanggal_daftar": "2021-02-23",
        "nomor_tanda_daftar": "000070.01/DJAI.PSE/02/2021",
        "qr_code": "https://pse.kominfo.go.id/storage/images/qr_code/ede0119dece73fa43124b0260355dc27.png",
        "status_id": "TERDAFTAR",
        "sistem_elektronik_id": 2382
      }
    },
    {
      "type": "tdpseTerbit",
      "id": 78,
      "attributes": {
        "nomor_pb_umku": null,
        "nama": "UATAS",
        "website": "https://www.uatas.id",
        "sektor": "Sektor Keuangan",
        "nama_perusahaan": "PLUS ULTRA ABADI",
        "tanggal_daftar": "2021-02-23",
        "nomor_tanda_daftar": "000069.01/DJAI.PSE/02/2021",
        "qr_code": "https://pse.kominfo.go.id/storage/images/qr_code/93f95b53ad2c4f868a4940c25f05d1a9.png",
        "status_id": "TERDAFTAR",
        "sistem_elektronik_id": 2459
      }
    },
    {
      "type": "tdpseTerbit",
      "id": 77,
      "attributes": {
        "nomor_pb_umku": null,
        "nama": "ONECONNECT FINANCIAL TECHNOLOGY",
        "website": "oneconnectft.co.id",
        "sektor": "Sektor Keuangan, Sektor Teknologi Informasi dan Komunikasi",
        "nama_perusahaan": "ONECONNECT FINANCIAL TECHNOLOGY INDONESIA",
        "tanggal_daftar": "2021-02-23",
        "nomor_tanda_daftar": "000068.01/DJAI.PSE/02/2021",
        "qr_code": "https://pse.kominfo.go.id/storage/images/qr_code/7438243de3815291cedbc5b31eca6738.png",
        "status_id": "TERDAFTAR",
        "sistem_elektronik_id": 2839
      }
    },
    {
      "type": "tdpseTerbit",
      "id": 76,
      "attributes": {
        "nomor_pb_umku": null,
        "nama": "https://solusimerahputih.id",
        "website": "https://solusimerahputih.id",
        "sektor": "Sektor Keuangan, Sektor Teknologi Informasi dan Komunikasi",
        "nama_perusahaan": "SOLUSI KEUANGAN MERAH PUTIH",
        "tanggal_daftar": "2021-02-23",
        "nomor_tanda_daftar": "000067.01/DJAI.PSE/02/2021",
        "qr_code": "https://pse.kominfo.go.id/storage/images/qr_code/90b9bfb2cb9c231dc4ddb1c6d58d6057.png",
        "status_id": "TERDAFTAR",
        "sistem_elektronik_id": 2470
      }
    },
    {
      "type": "tdpseTerbit",
      "id": 75,
      "attributes": {
        "nomor_pb_umku": null,
        "nama": "TOKO UANG",
        "website": "-",
        "sektor": "Sektor Keuangan",
        "nama_perusahaan": "SIMPAN PINJAM BUMI PUTERA MANDIRI",
        "tanggal_daftar": "2021-02-23",
        "nomor_tanda_daftar": "000066.01/DJAI.PSE/02/2021",
        "qr_code": "https://pse.kominfo.go.id/storage/images/qr_code/20c8276503701472f4e5fd5c6a2ddfbc.png",
        "status_id": "TERDAFTAR",
        "sistem_elektronik_id": 2495
      }
    }
  ]
}