{
  "meta": {
    "page": {
      "currentPage": 1060,
      "from": 10591,
      "lastPage": 1063,
      "perPage": 10,
      "to": 10600,
      "total": 10630
    }
  },
  "data": [
    {
      "type": "tdpseTerbit",
      "id": 1997,
      "attributes": {
        "nomor_pb_umku": null,
        "nama": "ASAKITA",
        "website": "www.asakita.id",
        "sektor": "Sektor Keuangan",
        "nama_perusahaan": "DIGITRON SOLUSI INDONESIA",
        "tanggal_daftar": "2021-10-26",
        "nomor_tanda_daftar": "000015.02/DJAI.PSE/10/2021",
        "qr_code": "https://pse.kominfo.go.id/storage/images/qr_code/0740d655ab1e6203c27500e6dc2daa9f.png",
        "status_id": "TERDAFTAR",
        "sistem_elektronik_id": 2305
      }
    },
    {
      "type": "tdpseTerbit",
      "id": 16,
      "attributes": {
        "nomor_pb_umku": null,
        "nama": "ASAKITA",
        "website": "www.asakita.id",
        "sektor": "Sektor Keuangan",
        "nama_perusahaan": "DIGITRON SOLUSI INDONESIA",
        "tanggal_daftar": "2021-02-20",
        "nomor_tanda_daftar": "000015.01/DJAI.PSE/02/2021",
        "qr_code": "https://pse.kominfo.go.id/storage/images/qr_code/c9735cd9723843356217e35130b05b9e.png",
        "status_id": "TERDAFTAR",
        "sistem_elektronik_id": 2304
      }
    },
    {
      "type": "tdpseTerbit",
      "id": 6839,
      "attributes": {
        "nomor_pb_umku": "912020236081200000002",
        "nama": "EBPR-APPS.CO.ID",
        "website": "ebpr-apps.co.id",
        "sektor": "Sektor Keuangan, Sektor Teknologi Informasi dan Komunikasi",
        "nama_perusahaan": "USAHA KARYA BINA MANDIRI",
        "tanggal_daftar": "2022-07-19",
        "nomor_tanda_daftar": "000014.04/DJAI.PSE/07/2022",
        "qr_code": "https://pse.kominfo.go.id/storage/images/qr_code/bc9ef4ab9a279ed662987b3339cd862d.png",
        "status_id": "TERDAFTAR",
        "sistem_elektronik_id": 6689
      }
    },
    {
      "type": "tdpseTerbit",
      "id": 6495,
      "attributes": {
        "nomor_pb_umku": "912020236081200000001",
        "nama": "BPR APPS",
        "website": "ebpr.co.id",
        "sektor": "Sektor Keuangan",
        "nama_perusahaan": "USAHA KARYA BINA MANDIRI",
        "tanggal_daftar": "2022-07-18",
        "nomor_tanda_daftar": "000014.03/DJAI.PSE/07/2022",
        "qr_code": "https://pse.kominfo.go.id/storage/images/qr_code/64a6e69d42d81ce60e9f8621056c982d.png",
        "status_id": "TERDAFTAR",
        "sistem_elektronik_id": 6361
      }
    },
    {
      "type": "tdpseTerbit",
      "id": 480,
      "attributes": {
        "nomor_pb_umku": null,
        "nama": "eBPR",
        "website": "https://ebpr.co.id",
        "sektor": "Sektor Keuangan",
        "nama_perusahaan": "USAHA KARYA BINA MANDIRI",
        "tanggal_daftar": "2021-04-20",
        "nomor_tanda_daftar": "000014.02/DJAI.PSE/04/2021",
        "qr_code": "https://pse.kominfo.go.id/storage/images/qr_code/a916f5246310b596a361630f638fb5f1.png",
        "status_id": "TERDAFTAR",
        "sistem_elektronik_id": 2376
      }
    },
    {
      "type": "tdpseTerbit",
      "id": 15,
      "attributes": {
        "nomor_pb_umku": null,
        "nama": "Bima Apps",
        "website": "ukabima.id",
        "sektor": "Sektor Keuangan",
        "nama_perusahaan": "USAHA KARYA BINA MANDIRI",
        "tanggal_daftar": "2021-02-20",
        "nomor_tanda_daftar": "000014.01/DJAI.PSE/02/2021",
        "qr_code": "https://pse.kominfo.go.id/storage/images/qr_code/353edbf1ae74c20ae52126f9d35a2fb2.png",
        "status_id": "TERDAFTAR",
        "sistem_elektronik_id": 2375
      }
    },
    {
      "type": "tdpseTerbit",
      "id": 14,
      "attributes": {
        "nomor_pb_umku": null,
        "nama": "amalan.com",
        "website": "www.amalan.com/id",
        "sektor": "Sektor Keuangan",
        "nama_perusahaan": "AMALAN INTERNATIONAL INDONESIA",
        "tanggal_daftar": "2021-02-19",
        "nomor_tanda_daftar": "000013.01/DJAI.PSE/02/2021",
        "qr_code": "https://pse.kominfo.go.id/storage/images/qr_code/7e0d4218e3c2cb2229da222b71b2278d.png",
        "status_id": "TERDAFTAR",
        "sistem_elektronik_id": 2366
      }
    },
    {
      "type": "tdpseTerbit",
      "id": 10914,
      "attributes": {
        "nomor_pb_umku": "912000058164400110003",
        "nama": "ZENPRO",
        "website": "zenpro.id",
        "sektor": "Sektor Teknologi Informasi dan Komunikasi",
        "nama_perusahaan": "ZONA EDUKASI NUSANTARA",
        "tanggal_daftar": "2022-08-30",
        "nomor_tanda_daftar": "000012.04/DJAI.PSE/08/2022",
        "qr_code": "https://pse.kominfo.go.id/storage/images/qr_code/706da2664c1e61cb8e0b90c1f7bcf293.png",
        "status_id": "TERDAFTAR",
        "sistem_elektronik_id": 10726
      }
    },
    {
      "type": "tdpseTerbit",
      "id": 1671,
      "attributes": {
        "nomor_pb_umku": null,
        "nama": "Zenius untuk Guru (ZenRu)",
        "website": "https://www.guru.zenius.com atau https://www.guru.zenius.net",
        "sektor": "Sektor Perdagangan",
        "nama_perusahaan": "ZONA EDUKASI NUSANTARA",
        "tanggal_daftar": "2021-07-08",
        "nomor_tanda_daftar": "000012.03/DJAI.PSE/07/2021",
        "qr_code": "https://pse.kominfo.go.id/storage/images/qr_code/370d38842cd0d862f20047fee9f6cd0a.png",
        "status_id": "TERDAFTAR",
        "sistem_elektronik_id": 2341
      }
    },
    {
      "type": "tdpseTerbit",
      "id": 1532,
      "attributes": {
        "nomor_pb_umku": null,
        "nama": "ZeniusLand",
        "website": "-",
        "sektor": "Sektor Perdagangan",
        "nama_perusahaan": "ZONA EDUKASI NUSANTARA",
        "tanggal_daftar": "2021-06-24",
        "nomor_tanda_daftar": "000012.02/DJAI.PSE/06/2021",
        "qr_code": "https://pse.kominfo.go.id/storage/images/qr_code/f61770142632a2d12e35c966eb0ec277.png",
        "status_id": "TERDAFTAR",
        "sistem_elektronik_id": 2340
      }
    }
  ]
}