{
  "meta": {
    "page": {
      "currentPage": 1063,
      "from": 10621,
      "lastPage": 1063,
      "perPage": 10,
      "to": 10630,
      "total": 10630
    }
  },
  "data": [
    {
      "type": "tdpseTerbit",
      "id": 6,
      "attributes": {
        "nomor_pb_umku": null,
        "nama": "Zi.Care",
        "website": "zicare.id",
        "sektor": "Sektor Kesehatan, Sektor Teknologi Informasi dan Komunikasi",
        "nama_perusahaan": "JEJARING TIGA ARTHA",
        "tanggal_daftar": "2021-02-18",
        "nomor_tanda_daftar": "000005.01/DJAI.PSE/02/2021",
        "qr_code": "https://pse.kominfo.go.id/storage/images/qr_code/f16a1a5e0d3a0e901dfec8c1ffbf3c63.png",
        "status_id": "TERDAFTAR",
        "sistem_elektronik_id": 2311
      }
    },
    {
      "type": "tdpseTerbit",
      "id": 5,
      "attributes": {
        "nomor_pb_umku": null,
        "nama": "KKMI Mobile",
        "website": "https://koperasikencanamadani.co.id",
        "sektor": "Sektor Keuangan",
        "nama_perusahaan": "KENCANA MADANI INVESTAMA",
        "tanggal_daftar": "2021-02-17",
        "nomor_tanda_daftar": "000004.02/DJAI.PSE/02/2021",
        "qr_code": "https://pse.kominfo.go.id/storage/images/qr_code/8901969483657c069b98a49c9b3447df.png",
        "status_id": "TERDAFTAR",
        "sistem_elektronik_id": 2345
      }
    },
    {
      "type": "tdpseTerbit",
      "id": 4,
      "attributes": {
        "nomor_pb_umku": null,
        "nama": "KKMI Mobile",
        "website": "https://koperasikencanamadani.co.id",
        "sektor": "Sektor Keuangan, Sektor Teknologi Informasi dan Komunikasi",
        "nama_perusahaan": "KENCANA MADANI INVESTAMA",
        "tanggal_daftar": "2021-02-17",
        "nomor_tanda_daftar": "000004.01/DJAI.PSE/02/2021",
        "qr_code": "https://pse.kominfo.go.id/storage/images/qr_code/68581f1476c9c0f89de088aa95213de4.png",
        "status_id": "TERDAFTAR",
        "sistem_elektronik_id": 2344
      }
    },
    {
      "type": "tdpseTerbit",
      "id": 5056,
      "attributes": {
        "nomor_pb_umku": "027601012100400010001",
        "nama": "KREDINESIA - PINJAMAN ONLINE",
        "website": "kredinesia.id",
        "sektor": "Sektor Keuangan",
        "nama_perusahaan": "KREDITKU TEKNOLOGI INDONESIA",
        "tanggal_daftar": "2022-07-04",
        "nomor_tanda_daftar": "000003.04/DJAI.PSE/07/2022",
        "qr_code": "https://pse.kominfo.go.id/storage/images/qr_code/cb4e88c4de90d068e131689b48ebbac6.png",
        "status_id": "TERDAFTAR",
        "sistem_elektronik_id": 4923
      }
    },
    {
      "type": "tdpseTerbit",
      "id": 333,
      "attributes": {
        "nomor_pb_umku": null,
        "nama": "Kredinesia",
        "website": "www.kredinesia.id",
        "sektor": "Sektor Keuangan",
        "nama_perusahaan": "KREDITKU TEKNOLOGI INDONESIA",
        "tanggal_daftar": "2021-03-05",
        "nomor_tanda_daftar": "000003.03/DJAI.PSE/03/2021",
        "qr_code": "https://pse.kominfo.go.id/storage/images/qr_code/aef362bc5c47a45fafdeb321ef7f17e4.png",
        "status_id": "TERDAFTAR",
        "sistem_elektronik_id": 2310
      }
    },
    {
      "type": "tdpseTerbit",
      "id": 325,
      "attributes": {
        "nomor_pb_umku": null,
        "nama": "Kredinesia",
        "website": "www.kredinesia.id",
        "sektor": "Sektor Keuangan",
        "nama_perusahaan": "KREDITKU TEKNOLOGI INDONESIA",
        "tanggal_daftar": "2021-03-05",
        "nomor_tanda_daftar": "000003.02/DJAI.PSE/03/2021",
        "qr_code": "https://pse.kominfo.go.id/storage/images/qr_code/1644183b1c770091fd94d35f001fbdf3.png",
        "status_id": "TERDAFTAR",
        "sistem_elektronik_id": 2309
      }
    },
    {
      "type": "tdpseTerbit",
      "id": 3,
      "attributes": {
        "nomor_pb_umku": null,
        "nama": "Kredinesia",
        "website": "www.kredinesia.id",
        "sektor": "Sektor Keuangan",
        "nama_perusahaan": "KREDITKU TEKNOLOGI INDONESIA",
        "tanggal_daftar": "2021-02-17",
        "nomor_tanda_daftar": "000003.01/DJAI.PSE/02/2021",
        "qr_code": "https://pse.kominfo.go.id/storage/images/qr_code/16136294f57deb88f907f7de9a831c52.png",
        "status_id": "TERDAFTAR",
        "sistem_elektronik_id": 2308
      }
    },
    {
      "type": "tdpseTerbit",
      "id": 2962,
      "attributes": {
        "nomor_pb_umku": null,
        "nama": "Ciputra Entrepreneurs Club (Distribution Channel Portal)",
        "website": "www.ciputraeclub.co.id",
        "sektor": "Sektor Keuangan",
        "nama_perusahaan": "ASURANSI CIPUTRA INDONESIA",
        "tanggal_daftar": "2022-01-06",
        "nomor_tanda_daftar": "000002.02/DJAI.PSE/01/2022",
        "qr_code": "https://pse.kominfo.go.id/storage/images/qr_code/15176e526af9729c3f909a4d3e77304e.png",
        "status_id": "TERDAFTAR",
        "sistem_elektronik_id": 2838
      }
    },
    {
      "type": "tdpseTerbit",
      "id": 2,
      "attributes": {
        "nomor_pb_umku": null,
        "nama": "Ebuy (E-Commerce)",
        "website": "https://asuransireceh.co.id",
        "sektor": "Sektor Keuangan",
        "nama_perusahaan": "ASURANSI CIPUTRA INDONESIA",
        "tanggal_daftar": "2021-02-17",
        "nomor_tanda_daftar": "000002.01/DJAI.PSE/02/2021",
        "qr_code": "https://pse.kominfo.go.id/storage/images/qr_code/3309189a679672f4a79ed24f30ce9408.png",
        "status_id": "TERDAFTAR",
        "sistem_elektronik_id": 2837
      }
    },
    {
      "type": "tdpseTerbit",
      "id": 1,
      "attributes": {
        "nomor_pb_umku": null,
        "nama": "ADJEK",
        "website": "https://adjek.id",
        "sektor": "Sektor Perdagangan, Sektor Teknologi Informasi dan Komunikasi, Sektor Transportasi",
        "nama_perusahaan": "ADA AJA BUAT KAMU",
        "tanggal_daftar": "2021-02-17",
        "nomor_tanda_daftar": "000001.01/DJAI.PSE/02/2021",
        "qr_code": "https://pse.kominfo.go.id/storage/images/qr_code/97f0a63877a943cef4781c26cde01240.png",
        "status_id": "TERDAFTAR",
        "sistem_elektronik_id": 2307
      }
    }
  ]
}