{
  "meta": {
    "page": {
      "currentPage": 1068,
      "from": 10671,
      "lastPage": 1072,
      "perPage": 10,
      "to": 10680,
      "total": 10718
    }
  },
  "data": [
    {
      "type": "tdpseTerbit",
      "id": 22,
      "attributes": {
        "nomor_pb_umku": null,
        "nama": "Portal Berita Web",
        "website": "www.potretwarta.co.id",
        "sektor": "Sektor Perdagangan, Sektor Teknologi Informasi dan Komunikasi",
        "nama_perusahaan": "POTRET MEDIATAMA INDONESIA",
        "tanggal_daftar": "2021-02-21",
        "nomor_tanda_daftar": "000021.01/DJAI.PSE/02/2021",
        "qr_code": "https://pse.kominfo.go.id/storage/images/qr_code/8ba3703d66684ab0832b6dee71d164b8.png",
        "status_id": "TERDAFTAR",
        "sistem_elektronik_id": 2394
      }
    },
    {
      "type": "tdpseTerbit",
      "id": 21,
      "attributes": {
        "nomor_pb_umku": null,
        "nama": "EKSI",
        "website": "eksiku.com",
        "sektor": "Sektor Perdagangan, Sektor Teknologi Informasi dan Komunikasi",
        "nama_perusahaan": "ETHES KELUARGA SEJAHTERA INDONESIA",
        "tanggal_daftar": "2021-02-21",
        "nomor_tanda_daftar": "000020.01/DJAI.PSE/02/2021",
        "qr_code": "https://pse.kominfo.go.id/storage/images/qr_code/91a1388113cbf8fde596ec1474220c18.png",
        "status_id": "TERDAFTAR",
        "sistem_elektronik_id": 2390
      }
    },
    {
      "type": "tdpseTerbit",
      "id": 20,
      "attributes": {
        "nomor_pb_umku": null,
        "nama": "OY! Indonesia",
        "website": "https://oyindonesia.com/id/",
        "sektor": "Sektor Keuangan",
        "nama_perusahaan": "DOMPET HARAPAN BANGSA",
        "tanggal_daftar": "2021-02-21",
        "nomor_tanda_daftar": "000019.01/DJAI.PSE/02/2021",
        "qr_code": "https://pse.kominfo.go.id/storage/images/qr_code/aef10c3acd0d91135e2fa21b37a7e4c9.png",
        "status_id": "TERDAFTAR",
        "sistem_elektronik_id": 2326
      }
    },
    {
      "type": "tdpseTerbit",
      "id": 1490,
      "attributes": {
        "nomor_pb_umku": null,
        "nama": "Intrajasa Payment Gateway",
        "website": "https://intrapayment.com",
        "sektor": "Sektor Keuangan",
        "nama_perusahaan": "INTRAJASA TEKNOSOLUSI",
        "tanggal_daftar": "2021-06-14",
        "nomor_tanda_daftar": "000018.02/DJAI.PSE/06/2021",
        "qr_code": "https://pse.kominfo.go.id/storage/images/qr_code/454a82c0343ca0f4dcefb51265b50796.png",
        "status_id": "TERDAFTAR",
        "sistem_elektronik_id": 2328
      }
    },
    {
      "type": "tdpseTerbit",
      "id": 19,
      "attributes": {
        "nomor_pb_umku": null,
        "nama": "LAYANAN PENGIRIMAN UANG/TRANSFER DANA  DAN SISTEM  PEMBAYARAN YANG TERAUTOMASI",
        "website": "www.intrajasa.id",
        "sektor": "Sektor Keuangan",
        "nama_perusahaan": "INTRAJASA TEKNOSOLUSI",
        "tanggal_daftar": "2021-02-21",
        "nomor_tanda_daftar": "000018.01/DJAI.PSE/02/2021",
        "qr_code": "https://pse.kominfo.go.id/storage/images/qr_code/d5c43cab9adb3bb8c5424ae961f749df.png",
        "status_id": "TERDAFTAR",
        "sistem_elektronik_id": 2327
      }
    },
    {
      "type": "tdpseTerbit",
      "id": 18,
      "attributes": {
        "nomor_pb_umku": null,
        "nama": "LEMONILO",
        "website": "www.lemonilo.com",
        "sektor": "Sektor Perdagangan",
        "nama_perusahaan": "LEMONILO INDONESIA HEBAT",
        "tanggal_daftar": "2021-02-20",
        "nomor_tanda_daftar": "000017.01/DJAI.PSE/02/2021",
        "qr_code": "https://pse.kominfo.go.id/storage/images/qr_code/188f0c8f2f8a1c8c58eac6aeb984e71a.png",
        "status_id": "TERDAFTAR",
        "sistem_elektronik_id": 2367
      }
    },
    {
      "type": "tdpseTerbit",
      "id": 17,
      "attributes": {
        "nomor_pb_umku": null,
        "nama": "Pendaftaran Konsultan/Member dan Pemesanan & Pembelian Barang Online",
        "website": "https://www.jafra.co.id",
        "sektor": "Sektor Perdagangan",
        "nama_perusahaan": "JAFRA COSMETICS INDONESIA",
        "tanggal_daftar": "2021-02-20",
        "nomor_tanda_daftar": "000016.01/DJAI.PSE/02/2021",
        "qr_code": "https://pse.kominfo.go.id/storage/images/qr_code/1fede62fde5f23742043edb96dec2cbf.png",
        "status_id": "TERDAFTAR",
        "sistem_elektronik_id": 2365
      }
    },
    {
      "type": "tdpseTerbit",
      "id": 1997,
      "attributes": {
        "nomor_pb_umku": null,
        "nama": "ASAKITA",
        "website": "www.asakita.id",
        "sektor": "Sektor Keuangan",
        "nama_perusahaan": "DIGITRON SOLUSI INDONESIA",
        "tanggal_daftar": "2021-10-26",
        "nomor_tanda_daftar": "000015.02/DJAI.PSE/10/2021",
        "qr_code": "https://pse.kominfo.go.id/storage/images/qr_code/0740d655ab1e6203c27500e6dc2daa9f.png",
        "status_id": "TERDAFTAR",
        "sistem_elektronik_id": 2305
      }
    },
    {
      "type": "tdpseTerbit",
      "id": 16,
      "attributes": {
        "nomor_pb_umku": null,
        "nama": "ASAKITA",
        "website": "www.asakita.id",
        "sektor": "Sektor Keuangan",
        "nama_perusahaan": "DIGITRON SOLUSI INDONESIA",
        "tanggal_daftar": "2021-02-20",
        "nomor_tanda_daftar": "000015.01/DJAI.PSE/02/2021",
        "qr_code": "https://pse.kominfo.go.id/storage/images/qr_code/c9735cd9723843356217e35130b05b9e.png",
        "status_id": "TERDAFTAR",
        "sistem_elektronik_id": 2304
      }
    },
    {
      "type": "tdpseTerbit",
      "id": 6839,
      "attributes": {
        "nomor_pb_umku": "912020236081200000002",
        "nama": "EBPR-APPS.CO.ID",
        "website": "ebpr-apps.co.id",
        "sektor": "Sektor Keuangan, Sektor Teknologi Informasi dan Komunikasi",
        "nama_perusahaan": "USAHA KARYA BINA MANDIRI",
        "tanggal_daftar": "2022-07-19",
        "nomor_tanda_daftar": "000014.04/DJAI.PSE/07/2022",
        "qr_code": "https://pse.kominfo.go.id/storage/images/qr_code/bc9ef4ab9a279ed662987b3339cd862d.png",
        "status_id": "TERDAFTAR",
        "sistem_elektronik_id": 6689
      }
    }
  ]
}