{
  "meta": {
    "page": {
      "currentPage": 1069,
      "from": 10681,
      "lastPage": 1086,
      "perPage": 10,
      "to": 10690,
      "total": 10851
    }
  },
  "data": [
    {
      "type": "tdpseTerbit",
      "id": 109,
      "attributes": {
        "nomor_pb_umku": null,
        "nama": "Poco, powered by Xiaomi",
        "website": "Po.co.id",
        "sektor": "Sektor Perdagangan",
        "nama_perusahaan": "XIAOMI COMMUNICATIONS INDONESIA",
        "tanggal_daftar": "2021-02-23",
        "nomor_tanda_daftar": "000099.01/DJAI.PSE/02/2021",
        "qr_code": "https://pse.kominfo.go.id/storage/images/qr_code/afdf98b5c5b05e5c0c61196520159d65.png",
        "status_id": "TERDAFTAR",
        "sistem_elektronik_id": 2381
      }
    },
    {
      "type": "tdpseTerbit",
      "id": 9601,
      "attributes": {
        "nomor_pb_umku": "912011820226200000004",
        "nama": "RUN IPROBE",
        "website": "runiprobe.id",
        "sektor": "Sektor Teknologi Informasi dan Komunikasi",
        "nama_perusahaan": "GLOBAL SUKSES SOLUSI",
        "tanggal_daftar": "2022-08-02",
        "nomor_tanda_daftar": "000098.05/DJAI.PSE/08/2022",
        "qr_code": "https://pse.kominfo.go.id/storage/images/qr_code/523b711be50abbf2a59afa78f3453816.png",
        "status_id": "TERDAFTAR",
        "sistem_elektronik_id": 9493
      }
    },
    {
      "type": "tdpseTerbit",
      "id": 8655,
      "attributes": {
        "nomor_pb_umku": "",
        "nama": "RUN MARKET",
        "website": "runmarket.id",
        "sektor": "Sektor Perdagangan, Sektor Teknologi Informasi dan Komunikasi",
        "nama_perusahaan": "GLOBAL SUKSES SOLUSI",
        "tanggal_daftar": "2022-07-21",
        "nomor_tanda_daftar": "000098.04/DJAI.PSE/07/2022",
        "qr_code": "https://pse.kominfo.go.id/storage/images/qr_code/1ac076b7a92dc813ae742a122c154841.png",
        "status_id": "TERDAFTAR",
        "sistem_elektronik_id": 8571
      }
    },
    {
      "type": "tdpseTerbit",
      "id": 8637,
      "attributes": {
        "nomor_pb_umku": "912011820226200000001",
        "nama": "R1",
        "website": "one.runsystem.id",
        "sektor": "Sektor Teknologi Informasi dan Komunikasi",
        "nama_perusahaan": "GLOBAL SUKSES SOLUSI",
        "tanggal_daftar": "2022-07-21",
        "nomor_tanda_daftar": "000098.03/DJAI.PSE/07/2022",
        "qr_code": "https://pse.kominfo.go.id/storage/images/qr_code/e5c0f294ca7096fdb00d624404c7d804.png",
        "status_id": "TERDAFTAR",
        "sistem_elektronik_id": 8547
      }
    },
    {
      "type": "tdpseTerbit",
      "id": 8608,
      "attributes": {
        "nomor_pb_umku": "912011820226200000001",
        "nama": "IKAS",
        "website": "ikaspos.com",
        "sektor": "Sektor Teknologi Informasi dan Komunikasi",
        "nama_perusahaan": "GLOBAL SUKSES SOLUSI",
        "tanggal_daftar": "2022-07-21",
        "nomor_tanda_daftar": "000098.02/DJAI.PSE/07/2022",
        "qr_code": "https://pse.kominfo.go.id/storage/images/qr_code/5a0e5b66eedfd9c47446f0ca5070d787.png",
        "status_id": "TERDAFTAR",
        "sistem_elektronik_id": 8510
      }
    },
    {
      "type": "tdpseTerbit",
      "id": 108,
      "attributes": {
        "nomor_pb_umku": null,
        "nama": "RUN System",
        "website": "https://runsystem.id/",
        "sektor": "Sektor Perdagangan, Sektor Teknologi Informasi dan Komunikasi",
        "nama_perusahaan": "GLOBAL SUKSES SOLUSI",
        "tanggal_daftar": "2021-02-23",
        "nomor_tanda_daftar": "000098.01/DJAI.PSE/02/2021",
        "qr_code": "https://pse.kominfo.go.id/storage/images/qr_code/ecc69b1a80793be4223dc1c6696232f3.png",
        "status_id": "TERDAFTAR",
        "sistem_elektronik_id": 2534
      }
    },
    {
      "type": "tdpseTerbit",
      "id": 107,
      "attributes": {
        "nomor_pb_umku": null,
        "nama": "GOODEDU PLATFORM PEMBELAJARAN DARING SATU PINTU",
        "website": "https://goodedu.id/",
        "sektor": "Sektor Perdagangan, Sektor Teknologi Informasi dan Komunikasi",
        "nama_perusahaan": "KITA SUPER TIM",
        "tanggal_daftar": "2021-02-23",
        "nomor_tanda_daftar": "000097.01/DJAI.PSE/02/2021",
        "qr_code": "https://pse.kominfo.go.id/storage/images/qr_code/5af40e3a6e73d9d3b18ba57cf8723dc0.png",
        "status_id": "TERDAFTAR",
        "sistem_elektronik_id": 2486
      }
    },
    {
      "type": "tdpseTerbit",
      "id": 2314,
      "attributes": {
        "nomor_pb_umku": null,
        "nama": "BLoB",
        "website": "blob.id",
        "sektor": "Sektor Teknologi Informasi dan Komunikasi",
        "nama_perusahaan": "DUTA BLOK CHAININDO",
        "tanggal_daftar": "2021-11-08",
        "nomor_tanda_daftar": "000096.02/DJAI.PSE/11/2021",
        "qr_code": "https://pse.kominfo.go.id/storage/images/qr_code/7304c1026fb4aed34f1a4e79298024c5.png",
        "status_id": "TERDAFTAR",
        "sistem_elektronik_id": 2543
      }
    },
    {
      "type": "tdpseTerbit",
      "id": 106,
      "attributes": {
        "nomor_pb_umku": null,
        "nama": "BLoB",
        "website": "blob.id",
        "sektor": "Sektor Teknologi Informasi dan Komunikasi",
        "nama_perusahaan": "DUTA BLOK CHAININDO",
        "tanggal_daftar": "2021-02-23",
        "nomor_tanda_daftar": "000096.01/DJAI.PSE/02/2021",
        "qr_code": "https://pse.kominfo.go.id/storage/images/qr_code/9c5d9baae9597db1b3dd8af8839439aa.png",
        "status_id": "TERDAFTAR",
        "sistem_elektronik_id": 2542
      }
    },
    {
      "type": "tdpseTerbit",
      "id": 105,
      "attributes": {
        "nomor_pb_umku": null,
        "nama": "YOMARI INTERNATIONAL",
        "website": "www.yomariinternational.com",
        "sektor": "Sektor Perdagangan",
        "nama_perusahaan": "YOMARI EKSIS SERENTAK",
        "tanggal_daftar": "2021-02-23",
        "nomor_tanda_daftar": "000095.01/DJAI.PSE/02/2021",
        "qr_code": "https://pse.kominfo.go.id/storage/images/qr_code/5283ba74fba74e05bc8a3db045ee0049.png",
        "status_id": "TERDAFTAR",
        "sistem_elektronik_id": 2414
      }
    }
  ]
}