{
  "meta": {
    "page": {
      "currentPage": 1071,
      "from": 10701,
      "lastPage": 1072,
      "perPage": 10,
      "to": 10710,
      "total": 10718
    }
  },
  "data": [
    {
      "type": "tdpseTerbit",
      "id": 7826,
      "attributes": {
        "nomor_pb_umku": "022201110082300010007",
        "nama": "AIA INDONESIA MY AIA",
        "website": "aia-financial.co.id",
        "sektor": "Sektor Keuangan",
        "nama_perusahaan": "AIA FINANCIAL",
        "tanggal_daftar": "2022-07-20",
        "nomor_tanda_daftar": "000007.07/DJAI.PSE/07/2022",
        "qr_code": "https://pse.kominfo.go.id/storage/images/qr_code/4ce3add02d9ee0fa4c5ad93f52901fd1.png",
        "status_id": "TERDAFTAR",
        "sistem_elektronik_id": 7745
      }
    },
    {
      "type": "tdpseTerbit",
      "id": 7768,
      "attributes": {
        "nomor_pb_umku": "022201110082300010006",
        "nama": "AIA INDONESIA DISTRIBUTOR APP (ALIFE)",
        "website": "-",
        "sektor": "Sektor Keuangan",
        "nama_perusahaan": "AIA FINANCIAL",
        "tanggal_daftar": "2022-07-20",
        "nomor_tanda_daftar": "000007.06/DJAI.PSE/07/2022",
        "qr_code": "https://pse.kominfo.go.id/storage/images/qr_code/fbf20f6d47a91a7d474b1e143d8e2b46.png",
        "status_id": "TERDAFTAR",
        "sistem_elektronik_id": 7682
      }
    },
    {
      "type": "tdpseTerbit",
      "id": 7695,
      "attributes": {
        "nomor_pb_umku": "022201110082300010005",
        "nama": "AIA EMPLOYEE BENEFITS",
        "website": "employeebenefits.aia-financial.co.id",
        "sektor": "Sektor Keuangan",
        "nama_perusahaan": "AIA FINANCIAL",
        "tanggal_daftar": "2022-07-20",
        "nomor_tanda_daftar": "000007.05/DJAI.PSE/07/2022",
        "qr_code": "https://pse.kominfo.go.id/storage/images/qr_code/c6c7d4dc6b9ed41bf1acf777b4e359b1.png",
        "status_id": "TERDAFTAR",
        "sistem_elektronik_id": 7604
      }
    },
    {
      "type": "tdpseTerbit",
      "id": 7649,
      "attributes": {
        "nomor_pb_umku": "022201110082300010004",
        "nama": "AIA INDONESIA IPOS",
        "website": "dc2.aia-financial.co.id",
        "sektor": "Sektor Keuangan",
        "nama_perusahaan": "AIA FINANCIAL",
        "tanggal_daftar": "2022-07-20",
        "nomor_tanda_daftar": "000007.04/DJAI.PSE/07/2022",
        "qr_code": "https://pse.kominfo.go.id/storage/images/qr_code/e88ad6a59082791d9f6d27215b080954.png",
        "status_id": "TERDAFTAR",
        "sistem_elektronik_id": 7547
      }
    },
    {
      "type": "tdpseTerbit",
      "id": 7600,
      "attributes": {
        "nomor_pb_umku": "022201110082300010003",
        "nama": "AIA INDONESIA DPLK EACCESS",
        "website": "aia-financial.co.id",
        "sektor": "Sektor Keuangan",
        "nama_perusahaan": "AIA FINANCIAL",
        "tanggal_daftar": "2022-07-20",
        "nomor_tanda_daftar": "000007.03/DJAI.PSE/07/2022",
        "qr_code": "https://pse.kominfo.go.id/storage/images/qr_code/f3a026397bee96f8e4ebf7a09b538178.png",
        "status_id": "TERDAFTAR",
        "sistem_elektronik_id": 7490
      }
    },
    {
      "type": "tdpseTerbit",
      "id": 4374,
      "attributes": {
        "nomor_pb_umku": "022201110082300010002",
        "nama": "ALLISWELL.AIA.ID (AIA FINANCIAL DIGITAL MICROSITE)",
        "website": "alliswell.aia.id",
        "sektor": "Sektor Keuangan",
        "nama_perusahaan": "AIA FINANCIAL",
        "tanggal_daftar": "2022-06-14",
        "nomor_tanda_daftar": "000007.02/DJAI.PSE/06/2022",
        "qr_code": "https://pse.kominfo.go.id/storage/images/qr_code/f32414ff2a0f95d5033fac8bdf1855c9.png",
        "status_id": "TERDAFTAR",
        "sistem_elektronik_id": 4359
      }
    },
    {
      "type": "tdpseTerbit",
      "id": 8,
      "attributes": {
        "nomor_pb_umku": null,
        "nama": "AIA Vitality",
        "website": "Vitality.co.id",
        "sektor": "Sektor Keuangan",
        "nama_perusahaan": "AIA FINANCIAL",
        "tanggal_daftar": "2021-02-18",
        "nomor_tanda_daftar": "000007.01/DJAI.PSE/02/2021",
        "qr_code": "https://pse.kominfo.go.id/storage/images/qr_code/a1de1c558bdc9fd38b813c4052602bce.png",
        "status_id": "TERDAFTAR",
        "sistem_elektronik_id": 2354
      }
    },
    {
      "type": "tdpseTerbit",
      "id": 7,
      "attributes": {
        "nomor_pb_umku": null,
        "nama": "Kiocha",
        "website": "www.kiocha.com",
        "sektor": "Sektor Perdagangan",
        "nama_perusahaan": "KIOCHA MITRA ABADI",
        "tanggal_daftar": "2021-02-18",
        "nomor_tanda_daftar": "000006.01/DJAI.PSE/02/2021",
        "qr_code": "https://pse.kominfo.go.id/storage/images/qr_code/fa80e542bac73e92cd4b7f99e9b2b627.png",
        "status_id": "TERDAFTAR",
        "sistem_elektronik_id": 2346
      }
    },
    {
      "type": "tdpseTerbit",
      "id": 6,
      "attributes": {
        "nomor_pb_umku": null,
        "nama": "Zi.Care",
        "website": "zicare.id",
        "sektor": "Sektor Kesehatan, Sektor Teknologi Informasi dan Komunikasi",
        "nama_perusahaan": "JEJARING TIGA ARTHA",
        "tanggal_daftar": "2021-02-18",
        "nomor_tanda_daftar": "000005.01/DJAI.PSE/02/2021",
        "qr_code": "https://pse.kominfo.go.id/storage/images/qr_code/f16a1a5e0d3a0e901dfec8c1ffbf3c63.png",
        "status_id": "TERDAFTAR",
        "sistem_elektronik_id": 2311
      }
    },
    {
      "type": "tdpseTerbit",
      "id": 5,
      "attributes": {
        "nomor_pb_umku": null,
        "nama": "KKMI Mobile",
        "website": "https://koperasikencanamadani.co.id",
        "sektor": "Sektor Keuangan",
        "nama_perusahaan": "KENCANA MADANI INVESTAMA",
        "tanggal_daftar": "2021-02-17",
        "nomor_tanda_daftar": "000004.02/DJAI.PSE/02/2021",
        "qr_code": "https://pse.kominfo.go.id/storage/images/qr_code/8901969483657c069b98a49c9b3447df.png",
        "status_id": "TERDAFTAR",
        "sistem_elektronik_id": 2345
      }
    }
  ]
}