{
  "meta": {
    "page": {
      "currentPage": 1072,
      "from": 10711,
      "lastPage": 1097,
      "perPage": 10,
      "to": 10720,
      "total": 10962
    }
  },
  "data": [
    {
      "type": "tdpseTerbit",
      "id": 161,
      "attributes": {
        "nomor_pb_umku": null,
        "nama": "Moojol",
        "website": "www.moojol.com",
        "sektor": "Sektor Transportasi",
        "nama_perusahaan": "MOOJOL PATRIOT INDONESIA",
        "tanggal_daftar": "2021-02-24",
        "nomor_tanda_daftar": "000143.01/DJAI.PSE/02/2021",
        "qr_code": "https://pse.kominfo.go.id/storage/images/qr_code/8056bb437f0024bd5d3cccf4593c504b.png",
        "status_id": "TERDAFTAR",
        "sistem_elektronik_id": 2615
      }
    },
    {
      "type": "tdpseTerbit",
      "id": 4652,
      "attributes": {
        "nomor_pb_umku": "123200013086300000001",
        "nama": "RAJADINGIN",
        "website": "rajadingin.com",
        "sektor": "Sektor Perdagangan, Sektor Transportasi, Sektor Kesehatan",
        "nama_perusahaan": "SEMAR DIGITALISASI NEGERI",
        "tanggal_daftar": "2022-06-22",
        "nomor_tanda_daftar": "000142.02/DJAI.PSE/06/2022",
        "qr_code": "https://pse.kominfo.go.id/storage/images/qr_code/ebea28a45dd0e3b582ce4cf8a5dc3d16.png",
        "status_id": "TERDAFTAR",
        "sistem_elektronik_id": 4612
      }
    },
    {
      "type": "tdpseTerbit",
      "id": 160,
      "attributes": {
        "nomor_pb_umku": null,
        "nama": "SemarCold",
        "website": "https://semarcold.com",
        "sektor": "Sektor Kesehatan, Sektor Pangan, Sektor Perdagangan, Sektor Transportasi",
        "nama_perusahaan": "SEMAR DIGITALISASI NEGERI",
        "tanggal_daftar": "2021-02-24",
        "nomor_tanda_daftar": "000142.01/DJAI.PSE/02/2021",
        "qr_code": "https://pse.kominfo.go.id/storage/images/qr_code/99e95445f24d7664fd9709c57334fd9b.png",
        "status_id": "TERDAFTAR",
        "sistem_elektronik_id": 2621
      }
    },
    {
      "type": "tdpseTerbit",
      "id": 2424,
      "attributes": {
        "nomor_pb_umku": null,
        "nama": "DCI Indonesia Data Center",
        "website": "https://www.dci-indonesia.com/",
        "sektor": "Sektor Teknologi Informasi dan Komunikasi",
        "nama_perusahaan": "DCI INDONESIA",
        "tanggal_daftar": "2021-11-22",
        "nomor_tanda_daftar": "000141.02/DJAI.PSE/11/2021",
        "qr_code": "https://pse.kominfo.go.id/storage/images/qr_code/d48919acba43a01b4fe70e0c09073455.png",
        "status_id": "TERDAFTAR",
        "sistem_elektronik_id": 2634
      }
    },
    {
      "type": "tdpseTerbit",
      "id": 159,
      "attributes": {
        "nomor_pb_umku": null,
        "nama": "Pusat Data DCI Indonesia",
        "website": "www.dci-indonesia.com",
        "sektor": "Sektor Teknologi Informasi dan Komunikasi",
        "nama_perusahaan": "DCI INDONESIA",
        "tanggal_daftar": "2021-02-24",
        "nomor_tanda_daftar": "000141.01/DJAI.PSE/02/2021",
        "qr_code": "https://pse.kominfo.go.id/storage/images/qr_code/34a144c77e302e96252c90910fa554e3.png",
        "status_id": "TERDAFTAR",
        "sistem_elektronik_id": 2633
      }
    },
    {
      "type": "tdpseTerbit",
      "id": 6257,
      "attributes": {
        "nomor_pb_umku": "021901011125700000001",
        "nama": "KOPERASI KOLABORASI",
        "website": "koperasikolaborasi.id",
        "sektor": "Sektor Keuangan",
        "nama_perusahaan": "KONSUMEN KOLABORASI SEJAHTERA ABADI",
        "tanggal_daftar": "2022-07-18",
        "nomor_tanda_daftar": "000140.02/DJAI.PSE/07/2022",
        "qr_code": "https://pse.kominfo.go.id/storage/images/qr_code/c1253cca852fe4e8fdcc66b8762e7836.png",
        "status_id": "TERDAFTAR",
        "sistem_elektronik_id": 6121
      }
    },
    {
      "type": "tdpseTerbit",
      "id": 158,
      "attributes": {
        "nomor_pb_umku": null,
        "nama": "pinjemsaja",
        "website": "https://pinjemsaja.id/",
        "sektor": "Sektor Keuangan",
        "nama_perusahaan": "KONSUMEN KOLABORASI SEJAHTERA ABADI",
        "tanggal_daftar": "2021-02-24",
        "nomor_tanda_daftar": "000140.01/DJAI.PSE/02/2021",
        "qr_code": "https://pse.kominfo.go.id/storage/images/qr_code/a530df1973bfe6c9c84e652dc99d2055.png",
        "status_id": "TERDAFTAR",
        "sistem_elektronik_id": 2632
      }
    },
    {
      "type": "tdpseTerbit",
      "id": 157,
      "attributes": {
        "nomor_pb_umku": null,
        "nama": "Digiscore -E-KYC",
        "website": "www.digiscore.id/ekyc",
        "sektor": "Sektor Teknologi Informasi dan Komunikasi",
        "nama_perusahaan": "INKLUSI KEUANGAN DIGITAL",
        "tanggal_daftar": "2021-02-24",
        "nomor_tanda_daftar": "000139.01/DJAI.PSE/02/2021",
        "qr_code": "https://pse.kominfo.go.id/storage/images/qr_code/f386fdad3d438e6854b2a9026129e708.png",
        "status_id": "TERDAFTAR",
        "sistem_elektronik_id": 2629
      }
    },
    {
      "type": "tdpseTerbit",
      "id": 156,
      "attributes": {
        "nomor_pb_umku": null,
        "nama": "Digiscore Credit Scoring",
        "website": "www.digiscore.id/creditscoring",
        "sektor": "Sektor Teknologi Informasi dan Komunikasi",
        "nama_perusahaan": "SKORING KREDIT INKLUSIF",
        "tanggal_daftar": "2021-02-24",
        "nomor_tanda_daftar": "000138.01/DJAI.PSE/02/2021",
        "qr_code": "https://pse.kominfo.go.id/storage/images/qr_code/dfb8b0d3216e23ac7f4db3c98656fd42.png",
        "status_id": "TERDAFTAR",
        "sistem_elektronik_id": 2628
      }
    },
    {
      "type": "tdpseTerbit",
      "id": 155,
      "attributes": {
        "nomor_pb_umku": null,
        "nama": "BBXFintech.co.id",
        "website": "www.bbxfintech.co.id",
        "sektor": "Sektor Keuangan, Sektor Teknologi Informasi dan Komunikasi",
        "nama_perusahaan": "BBX DIGITAL TEKNOLOGI",
        "tanggal_daftar": "2021-02-24",
        "nomor_tanda_daftar": "000137.01/DJAI.PSE/02/2021",
        "qr_code": "https://pse.kominfo.go.id/storage/images/qr_code/3122786e65540bdd70f312533278222a.png",
        "status_id": "TERDAFTAR",
        "sistem_elektronik_id": 2573
      }
    }
  ]
}