{
  "meta": {
    "page": {
      "currentPage": 1086,
      "from": 10851,
      "lastPage": 1089,
      "perPage": 10,
      "to": 10860,
      "total": 10885
    }
  },
  "data": [
    {
      "type": "tdpseTerbit",
      "id": 14,
      "attributes": {
        "nomor_pb_umku": null,
        "nama": "amalan.com",
        "website": "www.amalan.com/id",
        "sektor": "Sektor Keuangan",
        "nama_perusahaan": "AMALAN INTERNATIONAL INDONESIA",
        "tanggal_daftar": "2021-02-19",
        "nomor_tanda_daftar": "000013.01/DJAI.PSE/02/2021",
        "qr_code": "https://pse.kominfo.go.id/storage/images/qr_code/7e0d4218e3c2cb2229da222b71b2278d.png",
        "status_id": "TERDAFTAR",
        "sistem_elektronik_id": 2366
      }
    },
    {
      "type": "tdpseTerbit",
      "id": 10914,
      "attributes": {
        "nomor_pb_umku": "912000058164400110003",
        "nama": "ZENPRO",
        "website": "zenpro.id",
        "sektor": "Sektor Teknologi Informasi dan Komunikasi",
        "nama_perusahaan": "ZONA EDUKASI NUSANTARA",
        "tanggal_daftar": "2022-08-30",
        "nomor_tanda_daftar": "000012.04/DJAI.PSE/08/2022",
        "qr_code": "https://pse.kominfo.go.id/storage/images/qr_code/706da2664c1e61cb8e0b90c1f7bcf293.png",
        "status_id": "TERDAFTAR",
        "sistem_elektronik_id": 10726
      }
    },
    {
      "type": "tdpseTerbit",
      "id": 1671,
      "attributes": {
        "nomor_pb_umku": null,
        "nama": "Zenius untuk Guru (ZenRu)",
        "website": "https://www.guru.zenius.com atau https://www.guru.zenius.net",
        "sektor": "Sektor Perdagangan",
        "nama_perusahaan": "ZONA EDUKASI NUSANTARA",
        "tanggal_daftar": "2021-07-08",
        "nomor_tanda_daftar": "000012.03/DJAI.PSE/07/2021",
        "qr_code": "https://pse.kominfo.go.id/storage/images/qr_code/370d38842cd0d862f20047fee9f6cd0a.png",
        "status_id": "TERDAFTAR",
        "sistem_elektronik_id": 2341
      }
    },
    {
      "type": "tdpseTerbit",
      "id": 1532,
      "attributes": {
        "nomor_pb_umku": null,
        "nama": "ZeniusLand",
        "website": "-",
        "sektor": "Sektor Perdagangan",
        "nama_perusahaan": "ZONA EDUKASI NUSANTARA",
        "tanggal_daftar": "2021-06-24",
        "nomor_tanda_daftar": "000012.02/DJAI.PSE/06/2021",
        "qr_code": "https://pse.kominfo.go.id/storage/images/qr_code/f61770142632a2d12e35c966eb0ec277.png",
        "status_id": "TERDAFTAR",
        "sistem_elektronik_id": 2340
      }
    },
    {
      "type": "tdpseTerbit",
      "id": 13,
      "attributes": {
        "nomor_pb_umku": null,
        "nama": "Zenius.net dan Aplikasi Mobile Zenius Belajar online",
        "website": "www.zenius.net",
        "sektor": "Sektor Perdagangan",
        "nama_perusahaan": "ZONA EDUKASI NUSANTARA",
        "tanggal_daftar": "2021-02-19",
        "nomor_tanda_daftar": "000012.01/DJAI.PSE/02/2021",
        "qr_code": "https://pse.kominfo.go.id/storage/images/qr_code/844f7f0a98e011ffc0afa8b90870bd25.png",
        "status_id": "TERDAFTAR",
        "sistem_elektronik_id": 2339
      }
    },
    {
      "type": "tdpseTerbit",
      "id": 12,
      "attributes": {
        "nomor_pb_umku": null,
        "nama": "ctrip360.com",
        "website": "www.ctrip360.com",
        "sektor": "Sektor Teknologi Informasi dan Komunikasi",
        "nama_perusahaan": "CTRIP TECHNOLOGY INDONESIA",
        "tanggal_daftar": "2021-02-18",
        "nomor_tanda_daftar": "000011.01/DJAI.PSE/02/2021",
        "qr_code": "https://pse.kominfo.go.id/storage/images/qr_code/d987de26c62ac6219157dee4ca0a69da.png",
        "status_id": "TERDAFTAR",
        "sistem_elektronik_id": 2368
      }
    },
    {
      "type": "tdpseTerbit",
      "id": 5188,
      "attributes": {
        "nomor_pb_umku": "812010484269600000003",
        "nama": "ELEVENIA MART (EMART)",
        "website": "-",
        "sektor": "Sektor Perdagangan",
        "nama_perusahaan": "XL PLANET",
        "tanggal_daftar": "2022-07-07",
        "nomor_tanda_daftar": "000010.04/DJAI.PSE/07/2022",
        "qr_code": "https://pse.kominfo.go.id/storage/images/qr_code/998814072dace5cddb582d0c3fcdeaf3.png",
        "status_id": "TERDAFTAR",
        "sistem_elektronik_id": 5057
      }
    },
    {
      "type": "tdpseTerbit",
      "id": 5186,
      "attributes": {
        "nomor_pb_umku": "812010484269600000002",
        "nama": "EPP.ELEVENIA.BIZ",
        "website": "elevenia.biz",
        "sektor": "Sektor Perdagangan",
        "nama_perusahaan": "XL PLANET",
        "tanggal_daftar": "2022-07-07",
        "nomor_tanda_daftar": "000010.03/DJAI.PSE/07/2022",
        "qr_code": "https://pse.kominfo.go.id/storage/images/qr_code/6fcd6d3f5a1c62808656424710217b60.png",
        "status_id": "TERDAFTAR",
        "sistem_elektronik_id": 5054
      }
    },
    {
      "type": "tdpseTerbit",
      "id": 5170,
      "attributes": {
        "nomor_pb_umku": "812010484269600000001",
        "nama": "OLEHOLEH.CO.ID",
        "website": "oleholeh.co.id",
        "sektor": "Sektor Perdagangan",
        "nama_perusahaan": "XL PLANET",
        "tanggal_daftar": "2022-07-07",
        "nomor_tanda_daftar": "000010.02/DJAI.PSE/07/2022",
        "qr_code": "https://pse.kominfo.go.id/storage/images/qr_code/987a46da86168d60a37937d1e837dea3.png",
        "status_id": "TERDAFTAR",
        "sistem_elektronik_id": 5036
      }
    },
    {
      "type": "tdpseTerbit",
      "id": 11,
      "attributes": {
        "nomor_pb_umku": null,
        "nama": "Elevenia",
        "website": "www.elevenia.co.id",
        "sektor": "Sektor Perdagangan",
        "nama_perusahaan": "XL PLANET",
        "tanggal_daftar": "2021-02-18",
        "nomor_tanda_daftar": "000010.01/DJAI.PSE/02/2021",
        "qr_code": "https://pse.kominfo.go.id/storage/images/qr_code/3882e60d94dff76d3842d2d07f4a1c7d.png",
        "status_id": "TERDAFTAR",
        "sistem_elektronik_id": 2336
      }
    }
  ]
}