{
  "meta": {
    "page": {
      "currentPage": 1090,
      "from": 10891,
      "lastPage": 1111,
      "perPage": 10,
      "to": 10900,
      "total": 11105
    }
  },
  "data": [
    {
      "type": "tdpseTerbit",
      "id": 294,
      "attributes": {
        "nomor_pb_umku": null,
        "nama": "Lababook",
        "website": "www.lababook.com",
        "sektor": "Sektor Keuangan, Sektor Teknologi Informasi dan Komunikasi",
        "nama_perusahaan": "LABA KISAH KARUNIA",
        "tanggal_daftar": "2021-03-04",
        "nomor_tanda_daftar": "000125.02/DJAI.PSE/03/2021",
        "qr_code": "https://pse.kominfo.go.id/storage/images/qr_code/3d780c2a0b358241b0e02561bffe2f36.png",
        "status_id": "TERDAFTAR",
        "sistem_elektronik_id": 2518
      }
    },
    {
      "type": "tdpseTerbit",
      "id": 139,
      "attributes": {
        "nomor_pb_umku": null,
        "nama": "Lababook",
        "website": "www.lababook.com",
        "sektor": "Sektor Keuangan, Sektor Teknologi Informasi dan Komunikasi",
        "nama_perusahaan": "LABA KISAH KARUNIA",
        "tanggal_daftar": "2021-02-24",
        "nomor_tanda_daftar": "000125.01/DJAI.PSE/02/2021",
        "qr_code": "https://pse.kominfo.go.id/storage/images/qr_code/ace05650fadc98161cee8abc98b2b078.png",
        "status_id": "TERDAFTAR",
        "sistem_elektronik_id": 2517
      }
    },
    {
      "type": "tdpseTerbit",
      "id": 136,
      "attributes": {
        "nomor_pb_umku": null,
        "nama": "GGPin",
        "website": "www.ggpin.id",
        "sektor": "Sektor Teknologi Informasi dan Komunikasi",
        "nama_perusahaan": "GGPIN INDONESIA MAKMUR",
        "tanggal_daftar": "2021-02-24",
        "nomor_tanda_daftar": "000123.01/DJAI.PSE/02/2021",
        "qr_code": "https://pse.kominfo.go.id/storage/images/qr_code/03ff6523aa3129a5899d56c7b1c7915b.png",
        "status_id": "TERDAFTAR",
        "sistem_elektronik_id": 2557
      }
    },
    {
      "type": "tdpseTerbit",
      "id": 135,
      "attributes": {
        "nomor_pb_umku": null,
        "nama": "BookingDokter",
        "website": "www.bookingdokter.com",
        "sektor": "Sektor Kesehatan",
        "nama_perusahaan": "SOLUSI RESERVASI SEHAT",
        "tanggal_daftar": "2021-02-24",
        "nomor_tanda_daftar": "000122.01/DJAI.PSE/02/2021",
        "qr_code": "https://pse.kominfo.go.id/storage/images/qr_code/ac5b8808e9e4d1e9537a6a981bc9ac6d.png",
        "status_id": "TERDAFTAR",
        "sistem_elektronik_id": 2480
      }
    },
    {
      "type": "tdpseTerbit",
      "id": 360,
      "attributes": {
        "nomor_pb_umku": null,
        "nama": "temprina.co.id",
        "website": "temprina.co.id",
        "sektor": "Sektor Perdagangan",
        "nama_perusahaan": "TEMPRINA MEDIA GRAFIKA",
        "tanggal_daftar": "2021-03-10",
        "nomor_tanda_daftar": "000121.02/DJAI.PSE/03/2021",
        "qr_code": "https://pse.kominfo.go.id/storage/images/qr_code/78e3c608c230d20a4f17696b502f09bb.png",
        "status_id": "TERDAFTAR",
        "sistem_elektronik_id": 2546
      }
    },
    {
      "type": "tdpseTerbit",
      "id": 134,
      "attributes": {
        "nomor_pb_umku": null,
        "nama": "jpstore.id",
        "website": "jpstore.id",
        "sektor": "Sektor Perdagangan",
        "nama_perusahaan": "TEMPRINA MEDIA GRAFIKA",
        "tanggal_daftar": "2021-02-24",
        "nomor_tanda_daftar": "000121.01/DJAI.PSE/02/2021",
        "qr_code": "https://pse.kominfo.go.id/storage/images/qr_code/6d494f32d2406ecce93aadd6f4c78c92.png",
        "status_id": "TERDAFTAR",
        "sistem_elektronik_id": 2545
      }
    },
    {
      "type": "tdpseTerbit",
      "id": 133,
      "attributes": {
        "nomor_pb_umku": null,
        "nama": "Hiberlin.co.id",
        "website": "Hiberlin.co.id",
        "sektor": "Sektor Perdagangan",
        "nama_perusahaan": "JAYA BERDIKARI TEKNOLOGI INFORMATIKA",
        "tanggal_daftar": "2021-02-24",
        "nomor_tanda_daftar": "000120.01/DJAI.PSE/02/2021",
        "qr_code": "https://pse.kominfo.go.id/storage/images/qr_code/42b783f923ca3055c3dad1a1a0ba2e08.png",
        "status_id": "TERDAFTAR",
        "sistem_elektronik_id": 2435
      }
    },
    {
      "type": "tdpseTerbit",
      "id": 132,
      "attributes": {
        "nomor_pb_umku": null,
        "nama": "https://myrobin.id",
        "website": "https://myrobin.id",
        "sektor": "Sektor Teknologi Informasi dan Komunikasi",
        "nama_perusahaan": "MYROBIN INDONESIA TEKNOLOGI",
        "tanggal_daftar": "2021-02-24",
        "nomor_tanda_daftar": "000119.01/DJAI.PSE/02/2021",
        "qr_code": "https://pse.kominfo.go.id/storage/images/qr_code/b60614491010be73eb66ceb97cac43de.png",
        "status_id": "TERDAFTAR",
        "sistem_elektronik_id": 2416
      }
    },
    {
      "type": "tdpseTerbit",
      "id": 4785,
      "attributes": {
        "nomor_pb_umku": "126800011127600000001",
        "nama": "KISABUS",
        "website": "kisabus.com",
        "sektor": "Sektor Transportasi, Sektor Teknologi Informasi dan Komunikasi",
        "nama_perusahaan": "KISA TRAVELINDO PRISTAMA",
        "tanggal_daftar": "2022-06-27",
        "nomor_tanda_daftar": "000118.02/DJAI.PSE/06/2022",
        "qr_code": "https://pse.kominfo.go.id/storage/images/qr_code/642d01b3aa573563837ed857c496ebad.png",
        "status_id": "TERDAFTAR",
        "sistem_elektronik_id": 4728
      }
    },
    {
      "type": "tdpseTerbit",
      "id": 131,
      "attributes": {
        "nomor_pb_umku": null,
        "nama": "KISATOUR",
        "website": "www.kisatour.id",
        "sektor": "Sektor Keuangan, Sektor Perdagangan, Sektor Teknologi Informasi dan Komunikasi, Sektor Transportasi",
        "nama_perusahaan": "KISA TRAVELINDO PRISTAMA",
        "tanggal_daftar": "2021-02-24",
        "nomor_tanda_daftar": "000118.01/DJAI.PSE/02/2021",
        "qr_code": "https://pse.kominfo.go.id/storage/images/qr_code/60d65b5de5a154ec5e0626ee68b42a4d.png",
        "status_id": "TERDAFTAR",
        "sistem_elektronik_id": 2571
      }
    }
  ]
}