{
  "meta": {
    "page": {
      "currentPage": 1092,
      "from": 10911,
      "lastPage": 1097,
      "perPage": 10,
      "to": 10920,
      "total": 10962
    }
  },
  "data": [
    {
      "type": "tdpseTerbit",
      "id": 24,
      "attributes": {
        "nomor_pb_umku": null,
        "nama": "RUPIAH TOKEN",
        "website": "https://rupiahtoken.com/",
        "sektor": "Sektor Teknologi Informasi dan Komunikasi",
        "nama_perusahaan": "RUPIAH TOKEN INDONESIA",
        "tanggal_daftar": "2021-02-22",
        "nomor_tanda_daftar": "000023.01/DJAI.PSE/02/2021",
        "qr_code": "https://pse.kominfo.go.id/storage/images/qr_code/e8be5349382fe5d334dc7722d098058a.png",
        "status_id": "TERDAFTAR",
        "sistem_elektronik_id": 2409
      }
    },
    {
      "type": "tdpseTerbit",
      "id": 9373,
      "attributes": {
        "nomor_pb_umku": "812000493004800020002",
        "nama": "FUSE",
        "website": "-",
        "sektor": "Sektor Teknologi Informasi dan Komunikasi",
        "nama_perusahaan": "FUSE TEKNOLOGI INDONESIA",
        "tanggal_daftar": "2022-07-29",
        "nomor_tanda_daftar": "000022.02/DJAI.PSE/07/2022",
        "qr_code": "https://pse.kominfo.go.id/storage/images/qr_code/16075db0671c7f4db5612399b7e7ae2c.png",
        "status_id": "TERDAFTAR",
        "sistem_elektronik_id": 9286
      }
    },
    {
      "type": "tdpseTerbit",
      "id": 23,
      "attributes": {
        "nomor_pb_umku": null,
        "nama": "FUSE PRO",
        "website": "https://fuse.co.id",
        "sektor": "Sektor Teknologi Informasi dan Komunikasi",
        "nama_perusahaan": "FUSE TEKNOLOGI INDONESIA",
        "tanggal_daftar": "2021-02-22",
        "nomor_tanda_daftar": "000022.01/DJAI.PSE/02/2021",
        "qr_code": "https://pse.kominfo.go.id/storage/images/qr_code/b1aef1a57c469f8c9be56a469e4b5cc5.png",
        "status_id": "TERDAFTAR",
        "sistem_elektronik_id": 2387
      }
    },
    {
      "type": "tdpseTerbit",
      "id": 1998,
      "attributes": {
        "nomor_pb_umku": null,
        "nama": "Portal berita web",
        "website": "www.potretwarta.co.id",
        "sektor": "Sektor Teknologi Informasi dan Komunikasi",
        "nama_perusahaan": "POTRET MEDIATAMA INDONESIA",
        "tanggal_daftar": "2021-10-26",
        "nomor_tanda_daftar": "000021.02/DJAI.PSE/10/2021",
        "qr_code": "https://pse.kominfo.go.id/storage/images/qr_code/16a6afa1b8779df250ad2ca52337e8af.png",
        "status_id": "TERDAFTAR",
        "sistem_elektronik_id": 2395
      }
    },
    {
      "type": "tdpseTerbit",
      "id": 22,
      "attributes": {
        "nomor_pb_umku": null,
        "nama": "Portal Berita Web",
        "website": "www.potretwarta.co.id",
        "sektor": "Sektor Perdagangan, Sektor Teknologi Informasi dan Komunikasi",
        "nama_perusahaan": "POTRET MEDIATAMA INDONESIA",
        "tanggal_daftar": "2021-02-21",
        "nomor_tanda_daftar": "000021.01/DJAI.PSE/02/2021",
        "qr_code": "https://pse.kominfo.go.id/storage/images/qr_code/8ba3703d66684ab0832b6dee71d164b8.png",
        "status_id": "TERDAFTAR",
        "sistem_elektronik_id": 2394
      }
    },
    {
      "type": "tdpseTerbit",
      "id": 21,
      "attributes": {
        "nomor_pb_umku": null,
        "nama": "EKSI",
        "website": "eksiku.com",
        "sektor": "Sektor Perdagangan, Sektor Teknologi Informasi dan Komunikasi",
        "nama_perusahaan": "ETHES KELUARGA SEJAHTERA INDONESIA",
        "tanggal_daftar": "2021-02-21",
        "nomor_tanda_daftar": "000020.01/DJAI.PSE/02/2021",
        "qr_code": "https://pse.kominfo.go.id/storage/images/qr_code/91a1388113cbf8fde596ec1474220c18.png",
        "status_id": "TERDAFTAR",
        "sistem_elektronik_id": 2390
      }
    },
    {
      "type": "tdpseTerbit",
      "id": 20,
      "attributes": {
        "nomor_pb_umku": null,
        "nama": "OY! Indonesia",
        "website": "https://oyindonesia.com/id/",
        "sektor": "Sektor Keuangan",
        "nama_perusahaan": "DOMPET HARAPAN BANGSA",
        "tanggal_daftar": "2021-02-21",
        "nomor_tanda_daftar": "000019.01/DJAI.PSE/02/2021",
        "qr_code": "https://pse.kominfo.go.id/storage/images/qr_code/aef10c3acd0d91135e2fa21b37a7e4c9.png",
        "status_id": "TERDAFTAR",
        "sistem_elektronik_id": 2326
      }
    },
    {
      "type": "tdpseTerbit",
      "id": 1490,
      "attributes": {
        "nomor_pb_umku": null,
        "nama": "Intrajasa Payment Gateway",
        "website": "https://intrapayment.com",
        "sektor": "Sektor Keuangan",
        "nama_perusahaan": "INTRAJASA TEKNOSOLUSI",
        "tanggal_daftar": "2021-06-14",
        "nomor_tanda_daftar": "000018.02/DJAI.PSE/06/2021",
        "qr_code": "https://pse.kominfo.go.id/storage/images/qr_code/454a82c0343ca0f4dcefb51265b50796.png",
        "status_id": "TERDAFTAR",
        "sistem_elektronik_id": 2328
      }
    },
    {
      "type": "tdpseTerbit",
      "id": 19,
      "attributes": {
        "nomor_pb_umku": null,
        "nama": "LAYANAN PENGIRIMAN UANG/TRANSFER DANA  DAN SISTEM  PEMBAYARAN YANG TERAUTOMASI",
        "website": "www.intrajasa.id",
        "sektor": "Sektor Keuangan",
        "nama_perusahaan": "INTRAJASA TEKNOSOLUSI",
        "tanggal_daftar": "2021-02-21",
        "nomor_tanda_daftar": "000018.01/DJAI.PSE/02/2021",
        "qr_code": "https://pse.kominfo.go.id/storage/images/qr_code/d5c43cab9adb3bb8c5424ae961f749df.png",
        "status_id": "TERDAFTAR",
        "sistem_elektronik_id": 2327
      }
    },
    {
      "type": "tdpseTerbit",
      "id": 18,
      "attributes": {
        "nomor_pb_umku": null,
        "nama": "LEMONILO",
        "website": "www.lemonilo.com",
        "sektor": "Sektor Perdagangan",
        "nama_perusahaan": "LEMONILO INDONESIA HEBAT",
        "tanggal_daftar": "2021-02-20",
        "nomor_tanda_daftar": "000017.01/DJAI.PSE/02/2021",
        "qr_code": "https://pse.kominfo.go.id/storage/images/qr_code/188f0c8f2f8a1c8c58eac6aeb984e71a.png",
        "status_id": "TERDAFTAR",
        "sistem_elektronik_id": 2367
      }
    }
  ]
}