{
  "meta": {
    "page": {
      "currentPage": 12,
      "from": 111,
      "lastPage": 1111,
      "perPage": 10,
      "to": 120,
      "total": 11105
    }
  },
  "data": [
    {
      "type": "tdpseTerbit",
      "id": 12419,
      "attributes": {
        "nomor_pb_umku": "812020393159400000004",
        "nama": "MI HAROGAMES",
        "website": "-",
        "sektor": "Sektor Perdagangan, Sektor Teknologi Informasi dan Komunikasi",
        "nama_perusahaan": "KIOS DIGITAL INDONESIA",
        "tanggal_daftar": "2022-11-21",
        "nomor_tanda_daftar": "008425.04/DJAI.PSE/11/2022",
        "qr_code": "https://pse.kominfo.go.id/storage/images/qr_code/a2bcb027c547447d31f1ab7f6fea5871.png",
        "status_id": "TERDAFTAR",
        "sistem_elektronik_id": 12213
      }
    },
    {
      "type": "tdpseTerbit",
      "id": 12418,
      "attributes": {
        "nomor_pb_umku": "812020393159400000003",
        "nama": "M IHAROGAMES",
        "website": "-",
        "sektor": "Sektor Perdagangan, Sektor Teknologi Informasi dan Komunikasi",
        "nama_perusahaan": "KIOS DIGITAL INDONESIA",
        "tanggal_daftar": "2022-11-21",
        "nomor_tanda_daftar": "008425.03/DJAI.PSE/11/2022",
        "qr_code": "https://pse.kominfo.go.id/storage/images/qr_code/6dae773b181e2bac7084c6ae99974f9c.png",
        "status_id": "TERDAFTAR",
        "sistem_elektronik_id": 12202
      }
    },
    {
      "type": "tdpseTerbit",
      "id": 12392,
      "attributes": {
        "nomor_pb_umku": "812020393159400000002",
        "nama": "MIHARO GAMES",
        "website": "miharogames.co.id",
        "sektor": "Sektor Perdagangan",
        "nama_perusahaan": "KIOS DIGITAL INDONESIA",
        "tanggal_daftar": "2022-11-18",
        "nomor_tanda_daftar": "008425.02/DJAI.PSE/11/2022",
        "qr_code": "https://pse.kominfo.go.id/storage/images/qr_code/cdb169c5383d72399762aadbb8d0728d.png",
        "status_id": "TERDAFTAR",
        "sistem_elektronik_id": 12185
      }
    },
    {
      "type": "tdpseTerbit",
      "id": 12384,
      "attributes": {
        "nomor_pb_umku": "812020393159400000001",
        "nama": "MIHAROGAMES",
        "website": "-",
        "sektor": "Sektor Perdagangan, Sektor Keuangan, Sektor Teknologi Informasi dan Komunikasi",
        "nama_perusahaan": "KIOS DIGITAL INDONESIA",
        "tanggal_daftar": "2022-11-18",
        "nomor_tanda_daftar": "008425.01/DJAI.PSE/11/2022",
        "qr_code": "https://pse.kominfo.go.id/storage/images/qr_code/cbee5d43f6966b06e9d5cd955f090cc8.png",
        "status_id": "TERDAFTAR",
        "sistem_elektronik_id": 12124
      }
    },
    {
      "type": "tdpseTerbit",
      "id": 12234,
      "attributes": {
        "nomor_pb_umku": "812031308125200010002",
        "nama": "RENTIQUE",
        "website": "rentiqueid.com",
        "sektor": "Sektor Perdagangan",
        "nama_perusahaan": "RENTIQUE TEKNOLOGI GLOBAL",
        "tanggal_daftar": "2022-11-11",
        "nomor_tanda_daftar": "008424.01/DJAI.PSE/11/2022",
        "qr_code": "https://pse.kominfo.go.id/storage/images/qr_code/c757a049a9629d4a665f562a9fe05436.png",
        "status_id": "TERDAFTAR",
        "sistem_elektronik_id": 12030
      }
    },
    {
      "type": "tdpseTerbit",
      "id": 12224,
      "attributes": {
        "nomor_pb_umku": "140422001437500010001",
        "nama": "ATIX",
        "website": "atix.id",
        "sektor": "Sektor Perdagangan",
        "nama_perusahaan": "AVATAR TIKET DIGITAL",
        "tanggal_daftar": "2022-11-11",
        "nomor_tanda_daftar": "008422.01/DJAI.PSE/11/2022",
        "qr_code": "https://pse.kominfo.go.id/storage/images/qr_code/3ce51f5461f6440e08cb977c3496193b.png",
        "status_id": "TERDAFTAR",
        "sistem_elektronik_id": 12021
      }
    },
    {
      "type": "tdpseTerbit",
      "id": 12223,
      "attributes": {
        "nomor_pb_umku": "091122036496400000001",
        "nama": "BION",
        "website": "-",
        "sektor": "Sektor Teknologi Informasi dan Komunikasi",
        "nama_perusahaan": "CHRISTIAN SANDI",
        "tanggal_daftar": "2022-11-10",
        "nomor_tanda_daftar": "008421.01/DJAI.PSE/11/2022",
        "qr_code": "https://pse.kominfo.go.id/storage/images/qr_code/fd990a6620cf8993a363953677f4700a.png",
        "status_id": "TERDAFTAR",
        "sistem_elektronik_id": 12020
      }
    },
    {
      "type": "tdpseTerbit",
      "id": 12222,
      "attributes": {
        "nomor_pb_umku": "101122040979400020001",
        "nama": "TEMPORARTUR",
        "website": "temporatur.com",
        "sektor": "Sektor Teknologi Informasi dan Komunikasi",
        "nama_perusahaan": "TEMPORATUR INTERNUSA MEDIA GROUP",
        "tanggal_daftar": "2022-11-10",
        "nomor_tanda_daftar": "008420.01/DJAI.PSE/11/2022",
        "qr_code": "https://pse.kominfo.go.id/storage/images/qr_code/d51e12dfa5d91eabdbcf2640470e33b0.png",
        "status_id": "TERDAFTAR",
        "sistem_elektronik_id": 12019
      }
    },
    {
      "type": "tdpseTerbit",
      "id": 12221,
      "attributes": {
        "nomor_pb_umku": "101122011423200020001",
        "nama": "BRAMASTA NEWS",
        "website": "bramastanews.com",
        "sektor": "Sektor Teknologi Informasi dan Komunikasi",
        "nama_perusahaan": "BRAMASTA INTERNUSA MEDIA GROUP",
        "tanggal_daftar": "2022-11-10",
        "nomor_tanda_daftar": "008419.01/DJAI.PSE/11/2022",
        "qr_code": "https://pse.kominfo.go.id/storage/images/qr_code/6591946e4151ffe6504993b6a9d5151a.png",
        "status_id": "TERDAFTAR",
        "sistem_elektronik_id": 12018
      }
    },
    {
      "type": "tdpseTerbit",
      "id": 12359,
      "attributes": {
        "nomor_pb_umku": "912040029034200010001",
        "nama": "PANDO",
        "website": "-",
        "sektor": "Sektor Teknologi Informasi dan Komunikasi",
        "nama_perusahaan": "PANDO AKAR TEKNOLOGI",
        "tanggal_daftar": "2022-11-17",
        "nomor_tanda_daftar": "008418.01/DJAI.PSE/11/2022",
        "qr_code": "https://pse.kominfo.go.id/storage/images/qr_code/dfd13ed33442e610b2bb8d43ad493b16.png",
        "status_id": "TERDAFTAR",
        "sistem_elektronik_id": 12153
      }
    }
  ]
}