{
  "meta": {
    "page": {
      "currentPage": 120,
      "from": 1191,
      "lastPage": 816,
      "perPage": 10,
      "to": 1200,
      "total": 8153
    }
  },
  "jsonapi": {
    "version": "1.0"
  },
  "links": {
    "first": "http://pse.kominfo.go.id/api/v1/jsonapi/tdpse-terbit?page%5Blimit%5D=10&page%5Bpage%5D=1",
    "last": "http://pse.kominfo.go.id/api/v1/jsonapi/tdpse-terbit?page%5Blimit%5D=10&page%5Bpage%5D=816",
    "next": "http://pse.kominfo.go.id/api/v1/jsonapi/tdpse-terbit?page%5Blimit%5D=10&page%5Bpage%5D=121",
    "prev": "http://pse.kominfo.go.id/api/v1/jsonapi/tdpse-terbit?page%5Blimit%5D=10&page%5Bpage%5D=119"
  },
  "data": [
    {
      "type": "tdpseTerbit",
      "id": "7427",
      "attributes": {
        "nomor_pb_umku": "912010062152600010001",
        "nama": "PT BPR ADJI CAKA",
        "website": "bank-adjicaka.co.id",
        "sektor": "Sektor Keuangan",
        "nama_tampil_badan_hukum": "PT",
        "nama_perusahaan": "PT BANK PERKREDITAN RAKYAT ADJI CAKA",
        "tanggal_daftar": "2022-07-20",
        "tanggal_terbit": "2022-07-20",
        "nomor_tanda_daftar": "005354.01/DJAI.PSE/07/2022",
        "qr_code": "http://pse.kominfo.go.id/api/v1/jsonapi/tdpse-terbit/qr-code/7427",
        "status_id": "TERDAFTAR",
        "sistem_elektronik_id": "7327",
        "keterangan": "-",
        "lokalitas": "LOKAL"
      },
      "links": {
        "self": "http://pse.kominfo.go.id/api/v1/jsonapi/tdpse-terbit/7427"
      }
    },
    {
      "type": "tdpseTerbit",
      "id": "7426",
      "attributes": {
        "nomor_pb_umku": "812011619289900510004",
        "nama": "WEBSITE SIMASSEHAT.COM",
        "website": "simassehat.com",
        "sektor": "Sektor Keuangan",
        "nama_tampil_badan_hukum": "PT",
        "nama_perusahaan": "PT ASURANSI SINAR MAS",
        "tanggal_daftar": "2022-07-20",
        "tanggal_terbit": "2022-07-20",
        "nomor_tanda_daftar": "000513.05/DJAI.PSE/07/2022",
        "qr_code": "http://pse.kominfo.go.id/api/v1/jsonapi/tdpse-terbit/qr-code/7426",
        "status_id": "TERDAFTAR",
        "sistem_elektronik_id": "7298",
        "keterangan": "-",
        "lokalitas": "LOKAL"
      },
      "links": {
        "self": "http://pse.kominfo.go.id/api/v1/jsonapi/tdpse-terbit/7426"
      }
    },
    {
      "type": "tdpseTerbit",
      "id": "7425",
      "attributes": {
        "nomor_pb_umku": "912030384051400010002",
        "nama": "WWW.BPRSADHUARTHA.COM",
        "website": "hostinger.com",
        "sektor": "Sektor Teknologi Informasi dan Komunikasi",
        "nama_tampil_badan_hukum": "PT",
        "nama_perusahaan": "PT BANK PERKREDITAN RAKYAT SADHU ARTHA",
        "tanggal_daftar": "2022-07-20",
        "tanggal_terbit": "2022-07-20",
        "nomor_tanda_daftar": "005015.02/DJAI.PSE/07/2022",
        "qr_code": "http://pse.kominfo.go.id/api/v1/jsonapi/tdpse-terbit/qr-code/7425",
        "status_id": "TERDAFTAR",
        "sistem_elektronik_id": "7326",
        "keterangan": "-",
        "lokalitas": "LOKAL"
      },
      "links": {
        "self": "http://pse.kominfo.go.id/api/v1/jsonapi/tdpse-terbit/7425"
      }
    },
    {
      "type": "tdpseTerbit",
      "id": "7424",
      "attributes": {
        "nomor_pb_umku": "190722007247200000001",
        "nama": "PULSA2M - PULSA ONLINE",
        "website": "pulsa2m.com",
        "sektor": "Sektor Teknologi Informasi dan Komunikasi",
        "nama_tampil_badan_hukum": "",
        "nama_perusahaan": "JUNI SUSWANTO",
        "tanggal_daftar": "2022-07-20",
        "tanggal_terbit": "2022-07-20",
        "nomor_tanda_daftar": "005338.01/DJAI.PSE/07/2022",
        "qr_code": "http://pse.kominfo.go.id/api/v1/jsonapi/tdpse-terbit/qr-code/7424",
        "status_id": "TERDAFTAR",
        "sistem_elektronik_id": "7320",
        "keterangan": "-",
        "lokalitas": "LOKAL"
      },
      "links": {
        "self": "http://pse.kominfo.go.id/api/v1/jsonapi/tdpse-terbit/7424"
      }
    },
    {
      "type": "tdpseTerbit",
      "id": "7423",
      "attributes": {
        "nomor_pb_umku": "912020896390100010001",
        "nama": "WEBSITE PT BPR BKK CILACAP (PERSERODA)",
        "website": "bprbkkcilacap.com",
        "sektor": "Sektor Keuangan",
        "nama_tampil_badan_hukum": "PT",
        "nama_perusahaan": "PT BANK PERKREDITAN RAKYAT BADAN KREDIT KECAMATAN CILACAP PERSERODA",
        "tanggal_daftar": "2022-07-20",
        "tanggal_terbit": "2022-07-20",
        "nomor_tanda_daftar": "005505.01/DJAI.PSE/07/2022",
        "qr_code": "http://pse.kominfo.go.id/api/v1/jsonapi/tdpse-terbit/qr-code/7423",
        "status_id": "TERDAFTAR",
        "sistem_elektronik_id": "7323",
        "keterangan": "-",
        "lokalitas": "LOKAL"
      },
      "links": {
        "self": "http://pse.kominfo.go.id/api/v1/jsonapi/tdpse-terbit/7423"
      }
    },
    {
      "type": "tdpseTerbit",
      "id": "7422",
      "attributes": {
        "nomor_pb_umku": "812001429187400010010",
        "nama": "INVESTOR DEVELOPMENT INFORMATION SYSTEM (IDIS)",
        "website": "idis.idx.co.id",
        "sektor": "Sektor Keuangan",
        "nama_tampil_badan_hukum": "PT",
        "nama_perusahaan": "PT BURSA EFEK INDONESIA",
        "tanggal_daftar": "2022-07-20",
        "tanggal_terbit": "2022-07-20",
        "nomor_tanda_daftar": "000832.21/DJAI.PSE/07/2022",
        "qr_code": "http://pse.kominfo.go.id/api/v1/jsonapi/tdpse-terbit/qr-code/7422",
        "status_id": "TERDAFTAR",
        "sistem_elektronik_id": "7324",
        "keterangan": "-",
        "lokalitas": "LOKAL"
      },
      "links": {
        "self": "http://pse.kominfo.go.id/api/v1/jsonapi/tdpse-terbit/7422"
      }
    },
    {
      "type": "tdpseTerbit",
      "id": "7421",
      "attributes": {
        "nomor_pb_umku": "812011811145100030001",
        "nama": "WEBSITE - WWW.BAITURRIDHA.COM",
        "website": "baiturridha.com",
        "sektor": "Sektor Kesehatan, Sektor Teknologi Informasi dan Komunikasi",
        "nama_tampil_badan_hukum": "PT",
        "nama_perusahaan": "PT BANK PEMBIAYAAN RAKYAT SYARIAH BAITURRIDHA PUSAKA",
        "tanggal_daftar": "2022-07-20",
        "tanggal_terbit": "2022-07-20",
        "nomor_tanda_daftar": "005460.01/DJAI.PSE/07/2022",
        "qr_code": "http://pse.kominfo.go.id/api/v1/jsonapi/tdpse-terbit/qr-code/7421",
        "status_id": "TERDAFTAR",
        "sistem_elektronik_id": "7322",
        "keterangan": "-",
        "lokalitas": "LOKAL"
      },
      "links": {
        "self": "http://pse.kominfo.go.id/api/v1/jsonapi/tdpse-terbit/7421"
      }
    },
    {
      "type": "tdpseTerbit",
      "id": "7420",
      "attributes": {
        "nomor_pb_umku": "090921003464600030001",
        "nama": "OFFICELY PLATFORM",
        "website": "app.officely.id",
        "sektor": "Sektor Teknologi Informasi dan Komunikasi",
        "nama_tampil_badan_hukum": "PT",
        "nama_perusahaan": "PT SOLUSI KERJA VIRTUAL",
        "tanggal_daftar": "2022-07-19",
        "tanggal_terbit": "2022-07-20",
        "nomor_tanda_daftar": "005117.01/DJAI.PSE/07/2022",
        "qr_code": "http://pse.kominfo.go.id/api/v1/jsonapi/tdpse-terbit/qr-code/7420",
        "status_id": "TERDAFTAR",
        "sistem_elektronik_id": "6922",
        "keterangan": "-",
        "lokalitas": "LOKAL"
      },
      "links": {
        "self": "http://pse.kominfo.go.id/api/v1/jsonapi/tdpse-terbit/7420"
      }
    },
    {
      "type": "tdpseTerbit",
      "id": "7419",
      "attributes": {
        "nomor_pb_umku": "912020153273300010001",
        "nama": "PT. BPR ARTHA MUKTI SANTOSA",
        "website": "bprams.com",
        "sektor": "Sektor Keuangan",
        "nama_tampil_badan_hukum": "PT",
        "nama_perusahaan": "PT BANK PERKREDITAN RAKYAT ARTHA MUKTI SANTOSA",
        "tanggal_daftar": "2022-07-20",
        "tanggal_terbit": "2022-07-20",
        "nomor_tanda_daftar": "005340.01/DJAI.PSE/07/2022",
        "qr_code": "http://pse.kominfo.go.id/api/v1/jsonapi/tdpse-terbit/qr-code/7419",
        "status_id": "TERDAFTAR",
        "sistem_elektronik_id": "7318",
        "keterangan": "-",
        "lokalitas": "LOKAL"
      },
      "links": {
        "self": "http://pse.kominfo.go.id/api/v1/jsonapi/tdpse-terbit/7419"
      }
    },
    {
      "type": "tdpseTerbit",
      "id": "7418",
      "attributes": {
        "nomor_pb_umku": "090422000888200020002",
        "nama": "WEBSITE",
        "website": "gaidobanksyariah.co.id",
        "sektor": "Sektor Keuangan",
        "nama_tampil_badan_hukum": "PT",
        "nama_perusahaan": "PT BANK PEMBIAYAAN RAKYAT SYARIAH GAIDO INDONESIA",
        "tanggal_daftar": "2022-07-20",
        "tanggal_terbit": "2022-07-20",
        "nomor_tanda_daftar": "004855.05/DJAI.PSE/07/2022",
        "qr_code": "http://pse.kominfo.go.id/api/v1/jsonapi/tdpse-terbit/qr-code/7418",
        "status_id": "TERDAFTAR",
        "sistem_elektronik_id": "7319",
        "keterangan": "-",
        "lokalitas": "LOKAL"
      },
      "links": {
        "self": "http://pse.kominfo.go.id/api/v1/jsonapi/tdpse-terbit/7418"
      }
    }
  ]
}