{
  "meta": {
    "page": {
      "currentPage": 14,
      "from": 131,
      "lastPage": 1111,
      "perPage": 10,
      "to": 140,
      "total": 11105
    }
  },
  "data": [
    {
      "type": "tdpseTerbit",
      "id": 12194,
      "attributes": {
        "nomor_pb_umku": "912031603241900000001",
        "nama": "THINKSOFT",
        "website": "THINKDEV.ID",
        "sektor": "Sektor Transportasi, Sektor Teknologi Informasi dan Komunikasi",
        "nama_perusahaan": "THINKDEV INDO MEKATRONIKA",
        "tanggal_daftar": "2022-11-09",
        "nomor_tanda_daftar": "008402.01/DJAI.PSE/11/2022",
        "qr_code": "https://pse.kominfo.go.id/storage/images/qr_code/3a8293d1226c8a36e3086a2d261e3c8f.png",
        "status_id": "TERDAFTAR",
        "sistem_elektronik_id": 11988
      }
    },
    {
      "type": "tdpseTerbit",
      "id": 12191,
      "attributes": {
        "nomor_pb_umku": "190422007194900010001",
        "nama": "BERBAGI NADA",
        "website": "berbaginada.com",
        "sektor": "Sektor Perdagangan",
        "nama_perusahaan": "NADA MAKMUR SEJAHTERA",
        "tanggal_daftar": "2022-11-09",
        "nomor_tanda_daftar": "008401.01/DJAI.PSE/11/2022",
        "qr_code": "https://pse.kominfo.go.id/storage/images/qr_code/c81722446186412a13062823cc5e0eba.png",
        "status_id": "TERDAFTAR",
        "sistem_elektronik_id": 11985
      }
    },
    {
      "type": "tdpseTerbit",
      "id": 12255,
      "attributes": {
        "nomor_pb_umku": "300322004940400030001",
        "nama": "MEDSENSE",
        "website": "medsense.id",
        "sektor": "Sektor Kesehatan",
        "nama_perusahaan": "MEDSENSE INDONESIA ABADI",
        "tanggal_daftar": "2022-11-12",
        "nomor_tanda_daftar": "008400.01/DJAI.PSE/11/2022",
        "qr_code": "https://pse.kominfo.go.id/storage/images/qr_code/4a3a772c8e642fd011fe0f9e240fa394.png",
        "status_id": "TERDAFTAR",
        "sistem_elektronik_id": 11987
      }
    },
    {
      "type": "tdpseTerbit",
      "id": 12190,
      "attributes": {
        "nomor_pb_umku": "025601010176600000001",
        "nama": "IBRA MEDIA",
        "website": "ibramedia.biz.id",
        "sektor": "Sektor Teknologi Informasi dan Komunikasi",
        "nama_perusahaan": "MUHAMMAD HAIBATI KUDRAH",
        "tanggal_daftar": "2022-11-09",
        "nomor_tanda_daftar": "008399.01/DJAI.PSE/11/2022",
        "qr_code": "https://pse.kominfo.go.id/storage/images/qr_code/f54d6b6d5601d638e44d7406707f5233.png",
        "status_id": "TERDAFTAR",
        "sistem_elektronik_id": 11983
      }
    },
    {
      "type": "tdpseTerbit",
      "id": 12187,
      "attributes": {
        "nomor_pb_umku": "061122000009500020001",
        "nama": "PASARDANA.ID",
        "website": "pasardana.id",
        "sektor": "Sektor Teknologi Informasi dan Komunikasi",
        "nama_perusahaan": "BINA INVESTAMA INFONET",
        "tanggal_daftar": "2022-11-09",
        "nomor_tanda_daftar": "008398.01/DJAI.PSE/11/2022",
        "qr_code": "https://pse.kominfo.go.id/storage/images/qr_code/a4b3a953fc5cf2d186afabcb267c0a19.png",
        "status_id": "TERDAFTAR",
        "sistem_elektronik_id": 11980
      }
    },
    {
      "type": "tdpseTerbit",
      "id": 12185,
      "attributes": {
        "nomor_pb_umku": "028000094283400060001",
        "nama": "DIGIDOC",
        "website": "digidoc.co.id",
        "sektor": "Sektor Kesehatan",
        "nama_perusahaan": "GUOBIN INTERNATIONAL INDONESIA",
        "tanggal_daftar": "2022-11-09",
        "nomor_tanda_daftar": "008397.01/DJAI.PSE/11/2022",
        "qr_code": "https://pse.kominfo.go.id/storage/images/qr_code/7bc4318aa37a8c6c19f607ff6e362dc9.png",
        "status_id": "TERDAFTAR",
        "sistem_elektronik_id": 11978
      }
    },
    {
      "type": "tdpseTerbit",
      "id": 12184,
      "attributes": {
        "nomor_pb_umku": "021801005006700020002",
        "nama": "SMS BULK REPORT",
        "website": "-",
        "sektor": "Sektor Teknologi Informasi dan Komunikasi",
        "nama_perusahaan": "DATASYSTEM KOMPUTINDO",
        "tanggal_daftar": "2022-11-09",
        "nomor_tanda_daftar": "008396.02/DJAI.PSE/11/2022",
        "qr_code": "https://pse.kominfo.go.id/storage/images/qr_code/a7b035a31d5bba3ebac4ce0b00f4aded.png",
        "status_id": "TERDAFTAR",
        "sistem_elektronik_id": 11977
      }
    },
    {
      "type": "tdpseTerbit",
      "id": 12183,
      "attributes": {
        "nomor_pb_umku": "021801005006700020001",
        "nama": "SMS BULK",
        "website": "-",
        "sektor": "Sektor Teknologi Informasi dan Komunikasi",
        "nama_perusahaan": "DATASYSTEM KOMPUTINDO",
        "tanggal_daftar": "2022-11-09",
        "nomor_tanda_daftar": "008396.01/DJAI.PSE/11/2022",
        "qr_code": "https://pse.kominfo.go.id/storage/images/qr_code/ebcc2b2c796bee77b7287c6adca2b596.png",
        "status_id": "TERDAFTAR",
        "sistem_elektronik_id": 11976
      }
    },
    {
      "type": "tdpseTerbit",
      "id": 12284,
      "attributes": {
        "nomor_pb_umku": "022030619273300020001",
        "nama": "SIKDA-OPTIMA",
        "website": "sikda-optima.com",
        "sektor": "Sektor Kesehatan",
        "nama_perusahaan": "VIA MEDIKA",
        "tanggal_daftar": "2022-11-14",
        "nomor_tanda_daftar": "008395.01/DJAI.PSE/11/2022",
        "qr_code": "https://pse.kominfo.go.id/storage/images/qr_code/1ee28fd6ed34f75cca58cf50dcf0352d.png",
        "status_id": "TERDAFTAR",
        "sistem_elektronik_id": 12084
      }
    },
    {
      "type": "tdpseTerbit",
      "id": 12180,
      "attributes": {
        "nomor_pb_umku": "250722003248300010001",
        "nama": "MINDO APLIKASI",
        "website": "-",
        "sektor": "Sektor Perdagangan",
        "nama_perusahaan": "NEO AMRONI",
        "tanggal_daftar": "2022-11-09",
        "nomor_tanda_daftar": "008394.01/DJAI.PSE/11/2022",
        "qr_code": "https://pse.kominfo.go.id/storage/images/qr_code/8e3e85a88518e10e239f8e1d79136797.png",
        "status_id": "TERDAFTAR",
        "sistem_elektronik_id": 11973
      }
    }
  ]
}