{
  "meta": {
    "page": {
      "currentPage": 14,
      "from": 131,
      "lastPage": 816,
      "perPage": 10,
      "to": 140,
      "total": 8153
    }
  },
  "jsonapi": {
    "version": "1.0"
  },
  "links": {
    "first": "http://pse.kominfo.go.id/api/v1/jsonapi/tdpse-terbit?page%5Blimit%5D=10&page%5Bpage%5D=1",
    "last": "http://pse.kominfo.go.id/api/v1/jsonapi/tdpse-terbit?page%5Blimit%5D=10&page%5Bpage%5D=816",
    "next": "http://pse.kominfo.go.id/api/v1/jsonapi/tdpse-terbit?page%5Blimit%5D=10&page%5Bpage%5D=15",
    "prev": "http://pse.kominfo.go.id/api/v1/jsonapi/tdpse-terbit?page%5Blimit%5D=10&page%5Bpage%5D=13"
  },
  "data": [
    {
      "type": "tdpseTerbit",
      "id": "8582",
      "attributes": {
        "nomor_pb_umku": "128700031165200000001",
        "nama": "PERIKSADULU",
        "website": "periksadulu.com",
        "sektor": "Sektor Kesehatan, Sektor Teknologi Informasi dan Komunikasi",
        "nama_tampil_badan_hukum": "",
        "nama_perusahaan": "TJAHAYA PURNAMA",
        "tanggal_daftar": "2022-07-21",
        "tanggal_terbit": "2022-07-21",
        "nomor_tanda_daftar": "005996.01/DJAI.PSE/07/2022",
        "qr_code": "http://pse.kominfo.go.id/api/v1/jsonapi/tdpse-terbit/qr-code/8582",
        "status_id": "TERDAFTAR",
        "sistem_elektronik_id": "8499",
        "keterangan": "-",
        "lokalitas": "LOKAL"
      },
      "links": {
        "self": "http://pse.kominfo.go.id/api/v1/jsonapi/tdpse-terbit/8582"
      }
    },
    {
      "type": "tdpseTerbit",
      "id": "8581",
      "attributes": {
        "nomor_pb_umku": "123700245186900000006",
        "nama": "SIMPELPAS",
        "website": "-",
        "sektor": "Sektor Perdagangan",
        "nama_tampil_badan_hukum": "PT",
        "nama_perusahaan": "PT TERA KREASI SEMESTA",
        "tanggal_daftar": "2022-07-21",
        "tanggal_terbit": "2022-07-21",
        "nomor_tanda_daftar": "004115.06/DJAI.PSE/07/2022",
        "qr_code": "http://pse.kominfo.go.id/api/v1/jsonapi/tdpse-terbit/qr-code/8581",
        "status_id": "TERDAFTAR",
        "sistem_elektronik_id": "8492",
        "keterangan": "-",
        "lokalitas": "LOKAL"
      },
      "links": {
        "self": "http://pse.kominfo.go.id/api/v1/jsonapi/tdpse-terbit/8581"
      }
    },
    {
      "type": "tdpseTerbit",
      "id": "8580",
      "attributes": {
        "nomor_pb_umku": "022000862005900000001",
        "nama": "KECIPIR",
        "website": "kecipir.com",
        "sektor": "Sektor Perdagangan, Sektor Pangan",
        "nama_tampil_badan_hukum": "PT",
        "nama_perusahaan": "PT JEJARING HIJAU INDONESIA",
        "tanggal_daftar": "2022-07-21",
        "tanggal_terbit": "2022-07-21",
        "nomor_tanda_daftar": "005994.01/DJAI.PSE/07/2022",
        "qr_code": "http://pse.kominfo.go.id/api/v1/jsonapi/tdpse-terbit/qr-code/8580",
        "status_id": "TERDAFTAR",
        "sistem_elektronik_id": "8498",
        "keterangan": "-",
        "lokalitas": "LOKAL"
      },
      "links": {
        "self": "http://pse.kominfo.go.id/api/v1/jsonapi/tdpse-terbit/8580"
      }
    },
    {
      "type": "tdpseTerbit",
      "id": "8579",
      "attributes": {
        "nomor_pb_umku": "912040777294600010001",
        "nama": "USSI CORE BANKING SYSTEM",
        "website": "argodana.com",
        "sektor": "Sektor Keuangan",
        "nama_tampil_badan_hukum": "PT",
        "nama_perusahaan": "PT BANK PERKREDITAN RAKYAT ARGO DANA UNGARAN",
        "tanggal_daftar": "2022-07-21",
        "tanggal_terbit": "2022-07-21",
        "nomor_tanda_daftar": "005993.01/DJAI.PSE/07/2022",
        "qr_code": "http://pse.kominfo.go.id/api/v1/jsonapi/tdpse-terbit/qr-code/8579",
        "status_id": "TERDAFTAR",
        "sistem_elektronik_id": "8497",
        "keterangan": "-",
        "lokalitas": "LOKAL"
      },
      "links": {
        "self": "http://pse.kominfo.go.id/api/v1/jsonapi/tdpse-terbit/8579"
      }
    },
    {
      "type": "tdpseTerbit",
      "id": "8578",
      "attributes": {
        "nomor_pb_umku": "210322006034700150001",
        "nama": "SMART TELEMETRY SYSTEM ( STESY )",
        "website": "monitoring4system.com",
        "sektor": "Sektor Teknologi Informasi dan Komunikasi",
        "nama_tampil_badan_hukum": "PT",
        "nama_perusahaan": "PT ARTA TEKNOLOGI COMUNINDO",
        "tanggal_daftar": "2022-07-21",
        "tanggal_terbit": "2022-07-21",
        "nomor_tanda_daftar": "005859.01/DJAI.PSE/07/2022",
        "qr_code": "http://pse.kominfo.go.id/api/v1/jsonapi/tdpse-terbit/qr-code/8578",
        "status_id": "TERDAFTAR",
        "sistem_elektronik_id": "8495",
        "keterangan": "-",
        "lokalitas": "LOKAL"
      },
      "links": {
        "self": "http://pse.kominfo.go.id/api/v1/jsonapi/tdpse-terbit/8578"
      }
    },
    {
      "type": "tdpseTerbit",
      "id": "8577",
      "attributes": {
        "nomor_pb_umku": "912010797084900010001",
        "nama": "WEBSITE BPR CEMERLANG KAPUAS MAKMUR",
        "website": "bprcemerlang.wordpress.com",
        "sektor": "Sektor Keuangan",
        "nama_tampil_badan_hukum": "PT",
        "nama_perusahaan": "PT BANK PERKREDITAN RAKYAT CEMERLANG KAPUAS MAKMUR",
        "tanggal_daftar": "2022-07-21",
        "tanggal_terbit": "2022-07-21",
        "nomor_tanda_daftar": "006000.01/DJAI.PSE/07/2022",
        "qr_code": "http://pse.kominfo.go.id/api/v1/jsonapi/tdpse-terbit/qr-code/8577",
        "status_id": "TERDAFTAR",
        "sistem_elektronik_id": "8496",
        "keterangan": "-",
        "lokalitas": "LOKAL"
      },
      "links": {
        "self": "http://pse.kominfo.go.id/api/v1/jsonapi/tdpse-terbit/8577"
      }
    },
    {
      "type": "tdpseTerbit",
      "id": "8576",
      "attributes": {
        "nomor_pb_umku": "912000969184100010002",
        "nama": "AFFINITY TECHNOLOGY PLATFORM (ATP)",
        "website": "-",
        "sektor": "Sektor Keuangan",
        "nama_tampil_badan_hukum": "PT",
        "nama_perusahaan": "PT WILLIS TOWERS WATSON INSURANCE BROKER INDONESIA",
        "tanggal_daftar": "2022-07-21",
        "tanggal_terbit": "2022-07-21",
        "nomor_tanda_daftar": "003127.01/DJAI.PSE/07/2022",
        "qr_code": "http://pse.kominfo.go.id/api/v1/jsonapi/tdpse-terbit/qr-code/8576",
        "status_id": "TERDAFTAR",
        "sistem_elektronik_id": "8488",
        "keterangan": "-",
        "lokalitas": "LOKAL"
      },
      "links": {
        "self": "http://pse.kominfo.go.id/api/v1/jsonapi/tdpse-terbit/8576"
      }
    },
    {
      "type": "tdpseTerbit",
      "id": "8575",
      "attributes": {
        "nomor_pb_umku": "912020673053600150002",
        "nama": "FDC DENTAL CLINIC",
        "website": "apps.fdcdentalclinic.co.id",
        "sektor": "Sektor Kesehatan",
        "nama_tampil_badan_hukum": "PT",
        "nama_perusahaan": "PT REJEKI BERKAH BERLIMPAH RUAH",
        "tanggal_daftar": "2022-07-21",
        "tanggal_terbit": "2022-07-21",
        "nomor_tanda_daftar": "005457.01/DJAI.PSE/07/2022",
        "qr_code": "http://pse.kominfo.go.id/api/v1/jsonapi/tdpse-terbit/qr-code/8575",
        "status_id": "TERDAFTAR",
        "sistem_elektronik_id": "8493",
        "keterangan": "-",
        "lokalitas": "LOKAL"
      },
      "links": {
        "self": "http://pse.kominfo.go.id/api/v1/jsonapi/tdpse-terbit/8575"
      }
    },
    {
      "type": "tdpseTerbit",
      "id": "8574",
      "attributes": {
        "nomor_pb_umku": "200722007816300000001",
        "nama": "SMART SALARY",
        "website": "Smartsalarypro.com",
        "sektor": "Sektor Teknologi Informasi dan Komunikasi",
        "nama_tampil_badan_hukum": "PT",
        "nama_perusahaan": "PT GAJI CERDAS INDONESIA",
        "tanggal_daftar": "2022-07-21",
        "tanggal_terbit": "2022-07-21",
        "nomor_tanda_daftar": "005991.01/DJAI.PSE/07/2022",
        "qr_code": "http://pse.kominfo.go.id/api/v1/jsonapi/tdpse-terbit/qr-code/8574",
        "status_id": "TERDAFTAR",
        "sistem_elektronik_id": "8491",
        "keterangan": "-",
        "lokalitas": "LOKAL"
      },
      "links": {
        "self": "http://pse.kominfo.go.id/api/v1/jsonapi/tdpse-terbit/8574"
      }
    },
    {
      "type": "tdpseTerbit",
      "id": "8573",
      "attributes": {
        "nomor_pb_umku": "912030685273700010001",
        "nama": "SIPT-BPR BUMI HAYU",
        "website": "-",
        "sektor": "Sektor Keuangan",
        "nama_tampil_badan_hukum": "PT",
        "nama_perusahaan": "PT BANK PERKREDITAN RAKYAT BUMI HAYU",
        "tanggal_daftar": "2022-07-21",
        "tanggal_terbit": "2022-07-21",
        "nomor_tanda_daftar": "005997.01/DJAI.PSE/07/2022",
        "qr_code": "http://pse.kominfo.go.id/api/v1/jsonapi/tdpse-terbit/qr-code/8573",
        "status_id": "TERDAFTAR",
        "sistem_elektronik_id": "8490",
        "keterangan": "-",
        "lokalitas": "LOKAL"
      },
      "links": {
        "self": "http://pse.kominfo.go.id/api/v1/jsonapi/tdpse-terbit/8573"
      }
    }
  ]
}