{
  "meta": {
    "page": {
      "currentPage": 16,
      "from": 151,
      "lastPage": 1111,
      "perPage": 10,
      "to": 160,
      "total": 11105
    }
  },
  "data": [
    {
      "type": "tdpseTerbit",
      "id": 12160,
      "attributes": {
        "nomor_pb_umku": "031122005684900000001",
        "nama": "NUTECH",
        "website": "nutechku.com",
        "sektor": "Sektor Keuangan, Sektor Teknologi Informasi dan Komunikasi",
        "nama_perusahaan": "ANUGRAH TEKNOLOGI DIGITAL",
        "tanggal_daftar": "2022-11-08",
        "nomor_tanda_daftar": "008381.01/DJAI.PSE/11/2022",
        "qr_code": "https://pse.kominfo.go.id/storage/images/qr_code/8c22e3cfc661a237fcbdfa78b80a51d3.png",
        "status_id": "TERDAFTAR",
        "sistem_elektronik_id": 11953
      }
    },
    {
      "type": "tdpseTerbit",
      "id": 12151,
      "attributes": {
        "nomor_pb_umku": "071122007745400000001",
        "nama": "KERENDANG",
        "website": "-",
        "sektor": "Sektor Perdagangan",
        "nama_perusahaan": "TJHIN KIT LIONG",
        "tanggal_daftar": "2022-11-07",
        "nomor_tanda_daftar": "008379.01/DJAI.PSE/11/2022",
        "qr_code": "https://pse.kominfo.go.id/storage/images/qr_code/39648f250b5362dd37563c6c82a10873.png",
        "status_id": "TERDAFTAR",
        "sistem_elektronik_id": 11946
      }
    },
    {
      "type": "tdpseTerbit",
      "id": 12149,
      "attributes": {
        "nomor_pb_umku": "071122005657400020001",
        "nama": "HR MANUFAKTUR",
        "website": "hrmanufaktur.com",
        "sektor": "Sektor Teknologi Informasi dan Komunikasi",
        "nama_perusahaan": "HUMAN RESOURCE MANUFAKTUR INDONESIA",
        "tanggal_daftar": "2022-11-07",
        "nomor_tanda_daftar": "008378.01/DJAI.PSE/11/2022",
        "qr_code": "https://pse.kominfo.go.id/storage/images/qr_code/2a3baec0e73c3ad446d4bb9bf7059f82.png",
        "status_id": "TERDAFTAR",
        "sistem_elektronik_id": 11944
      }
    },
    {
      "type": "tdpseTerbit",
      "id": 12148,
      "attributes": {
        "nomor_pb_umku": "071122004734800020001",
        "nama": "V PAY",
        "website": "fenomenabisnis.co.id",
        "sektor": "Sektor Teknologi Informasi dan Komunikasi",
        "nama_perusahaan": "FENOMENAL BISNIS INTERNASIONAL",
        "tanggal_daftar": "2022-11-07",
        "nomor_tanda_daftar": "008377.01/DJAI.PSE/11/2022",
        "qr_code": "https://pse.kominfo.go.id/storage/images/qr_code/7331ee64e580941d8cf0e44ecec71e54.png",
        "status_id": "TERDAFTAR",
        "sistem_elektronik_id": 11943
      }
    },
    {
      "type": "tdpseTerbit",
      "id": 12164,
      "attributes": {
        "nomor_pb_umku": "912010788006300010001",
        "nama": "SUPERMARKET REKSADANA",
        "website": "-",
        "sektor": "Sektor Keuangan",
        "nama_perusahaan": "SUPERMARKET REKSADANA INDONESIA",
        "tanggal_daftar": "2022-11-08",
        "nomor_tanda_daftar": "008376.01/DJAI.PSE/11/2022",
        "qr_code": "https://pse.kominfo.go.id/storage/images/qr_code/e7b76ec8ac758b473d21ce5d0e763ec1.png",
        "status_id": "TERDAFTAR",
        "sistem_elektronik_id": 11958
      }
    },
    {
      "type": "tdpseTerbit",
      "id": 12147,
      "attributes": {
        "nomor_pb_umku": "127400024019700030001",
        "nama": "TOP KARIR MULTINUSA",
        "website": "-",
        "sektor": "Sektor Teknologi Informasi dan Komunikasi",
        "nama_perusahaan": "TOP KARIR MULTINUSA",
        "tanggal_daftar": "2022-11-07",
        "nomor_tanda_daftar": "008375.01/DJAI.PSE/11/2022",
        "qr_code": "https://pse.kominfo.go.id/storage/images/qr_code/4b1097edafea9af39f457e2a73d8bd51.png",
        "status_id": "TERDAFTAR",
        "sistem_elektronik_id": 11942
      }
    },
    {
      "type": "tdpseTerbit",
      "id": 12280,
      "attributes": {
        "nomor_pb_umku": "812000692214300050001",
        "nama": "PT SUMBER WAHANA SEJAHTERA",
        "website": "alfatrex.id",
        "sektor": "Sektor Perdagangan",
        "nama_perusahaan": "SUMBER WAHANA SEJAHTERA",
        "tanggal_daftar": "2022-11-14",
        "nomor_tanda_daftar": "008373.01/DJAI.PSE/11/2022",
        "qr_code": "https://pse.kominfo.go.id/storage/images/qr_code/a2b5841fefc2733021c1e2f69609e70d.png",
        "status_id": "TERDAFTAR",
        "sistem_elektronik_id": 12075
      }
    },
    {
      "type": "tdpseTerbit",
      "id": 12145,
      "attributes": {
        "nomor_pb_umku": "161221000396800010001",
        "nama": "PT. CAHAYA SUKSES INSANI",
        "website": "Berkah150.com",
        "sektor": "Sektor Perdagangan, Sektor Keuangan, Sektor Teknologi Informasi dan Komunikasi",
        "nama_perusahaan": "CAHAYA SUKSES INSANI",
        "tanggal_daftar": "2022-11-07",
        "nomor_tanda_daftar": "008372.01/DJAI.PSE/11/2022",
        "qr_code": "https://pse.kominfo.go.id/storage/images/qr_code/0d22fe6e88156a02df72a9d1454b75c5.png",
        "status_id": "TERDAFTAR",
        "sistem_elektronik_id": 11940
      }
    },
    {
      "type": "tdpseTerbit",
      "id": 12154,
      "attributes": {
        "nomor_pb_umku": "171022008001600070001",
        "nama": "RODADJATI.COM",
        "website": "rodadjati.com",
        "sektor": "Sektor Transportasi",
        "nama_perusahaan": "RODA DJATI TRANS LOGISTIK",
        "tanggal_daftar": "2022-11-07",
        "nomor_tanda_daftar": "008371.01/DJAI.PSE/11/2022",
        "qr_code": "https://pse.kominfo.go.id/storage/images/qr_code/2a5515a3a649dd5c9c0daa0a88e6e46a.png",
        "status_id": "TERDAFTAR",
        "sistem_elektronik_id": 11949
      }
    },
    {
      "type": "tdpseTerbit",
      "id": 12138,
      "attributes": {
        "nomor_pb_umku": "031122008180300030001",
        "nama": "KABARNUSA24",
        "website": "-",
        "sektor": "Sektor Teknologi Informasi dan Komunikasi",
        "nama_perusahaan": "INTERNUSA MEDIA GROUP",
        "tanggal_daftar": "2022-11-06",
        "nomor_tanda_daftar": "008367.01/DJAI.PSE/11/2022",
        "qr_code": "https://pse.kominfo.go.id/storage/images/qr_code/61f44f99c0718ad0fe51dae9d2fd6dc6.png",
        "status_id": "TERDAFTAR",
        "sistem_elektronik_id": 11933
      }
    }
  ]
}