{
  "meta": {
    "page": {
      "currentPage": 152,
      "from": 1511,
      "lastPage": 1061,
      "perPage": 10,
      "to": 1520,
      "total": 10601
    }
  },
  "data": [
    {
      "type": "tdpseTerbit",
      "id": 9296,
      "attributes": {
        "nomor_pb_umku": "022030173251300000001",
        "nama": "DIGITAL ALUMNI & COMMUNITY BOOK   (DAC BOOK)",
        "website": "ilmci.com",
        "sektor": "Sektor Teknologi Informasi dan Komunikasi",
        "nama_perusahaan": "ILMCI INDONESIA INTERNASIONAL",
        "tanggal_daftar": "2022-07-28",
        "nomor_tanda_daftar": "006429.01/DJAI.PSE/07/2022",
        "qr_code": "https://pse.kominfo.go.id/storage/images/qr_code/533e14c14fb196242813922c7059f8a3.png",
        "status_id": "TERDAFTAR",
        "sistem_elektronik_id": 9209
      }
    },
    {
      "type": "tdpseTerbit",
      "id": 9142,
      "attributes": {
        "nomor_pb_umku": "022000941231800010001",
        "nama": "PT BPR BKK KOTA MAGELANG (PERSERODA)",
        "website": "-",
        "sektor": "Sektor Keuangan",
        "nama_perusahaan": "BANK PERKREDITAN RAKYAT BADAN KREDIT KECAMATAN KOTA MAGELANG",
        "tanggal_daftar": "2022-07-27",
        "nomor_tanda_daftar": "006425.01/DJAI.PSE/07/2022",
        "qr_code": "https://pse.kominfo.go.id/storage/images/qr_code/bd63031e42eb937b8befc7826d022dc0.png",
        "status_id": "TERDAFTAR",
        "sistem_elektronik_id": 9051
      }
    },
    {
      "type": "tdpseTerbit",
      "id": 9286,
      "attributes": {
        "nomor_pb_umku": "023501024092500010001",
        "nama": "HALOHUKUM.COM",
        "website": "halohukum.com",
        "sektor": "Sektor Teknologi Informasi dan Komunikasi",
        "nama_perusahaan": "HALOHUKUM SUKSES ABADI",
        "tanggal_daftar": "2022-07-28",
        "nomor_tanda_daftar": "006421.01/DJAI.PSE/07/2022",
        "qr_code": "https://pse.kominfo.go.id/storage/images/qr_code/4952dedf443a90248c6df49f95e51abe.png",
        "status_id": "TERDAFTAR",
        "sistem_elektronik_id": 9047
      }
    },
    {
      "type": "tdpseTerbit",
      "id": 9133,
      "attributes": {
        "nomor_pb_umku": "022020682171800000001",
        "nama": "HASAN DIGITAL",
        "website": "hasandigital.id",
        "sektor": "Sektor Teknologi Informasi dan Komunikasi",
        "nama_perusahaan": "DIGITAL HASANAH INDONESIA",
        "tanggal_daftar": "2022-07-27",
        "nomor_tanda_daftar": "006419.01/DJAI.PSE/07/2022",
        "qr_code": "https://pse.kominfo.go.id/storage/images/qr_code/75bf2d1efa6b33ad3af0b3dec34e56a6.png",
        "status_id": "TERDAFTAR",
        "sistem_elektronik_id": 9041
      }
    },
    {
      "type": "tdpseTerbit",
      "id": 9127,
      "attributes": {
        "nomor_pb_umku": "912000778136500010001",
        "nama": "WEBSITE",
        "website": "bprnusamba-ngunut.com",
        "sektor": "Sektor Keuangan",
        "nama_perusahaan": "BANK PERKREDITAN RAKYAT NUSAMBA NGUNUT",
        "tanggal_daftar": "2022-07-27",
        "nomor_tanda_daftar": "006418.01/DJAI.PSE/07/2022",
        "qr_code": "https://pse.kominfo.go.id/storage/images/qr_code/576c0372af3a77bfe553c519fbe31344.png",
        "status_id": "TERDAFTAR",
        "sistem_elektronik_id": 9035
      }
    },
    {
      "type": "tdpseTerbit",
      "id": 9185,
      "attributes": {
        "nomor_pb_umku": "912020285028900010001",
        "nama": "CLOUD.ATM28.NET",
        "website": "bprpuridana.co.id",
        "sektor": "Sektor Keuangan",
        "nama_perusahaan": "BANK PERKREDITAN RAKYAT PURIDANA ARTHAMAS",
        "tanggal_daftar": "2022-07-27",
        "nomor_tanda_daftar": "006417.02/DJAI.PSE/07/2022",
        "qr_code": "https://pse.kominfo.go.id/storage/images/qr_code/08bfff6e99aa70a6521c5fe6669c4772.png",
        "status_id": "TERDAFTAR",
        "sistem_elektronik_id": 9082
      }
    },
    {
      "type": "tdpseTerbit",
      "id": 9158,
      "attributes": {
        "nomor_pb_umku": "250722001995300000001",
        "nama": "WEBSITE BPR GUNUNG MAS",
        "website": "bprgunungmasklaten.com",
        "sektor": "Sektor Keuangan",
        "nama_perusahaan": "BANK PERKREDITAN RAKYAT GUNUNG MAS",
        "tanggal_daftar": "2022-07-27",
        "nomor_tanda_daftar": "006416.01/DJAI.PSE/07/2022",
        "qr_code": "https://pse.kominfo.go.id/storage/images/qr_code/dcc2bc3c1d68ecddce387ba05f833b23.png",
        "status_id": "TERDAFTAR",
        "sistem_elektronik_id": 9064
      }
    },
    {
      "type": "tdpseTerbit",
      "id": 9188,
      "attributes": {
        "nomor_pb_umku": "912041112096400020001",
        "nama": "PT INTERJASA KREASI BROKERINDO",
        "website": "interjasabroker.co.id",
        "sektor": "Sektor Keuangan",
        "nama_perusahaan": "INTERJASA KREASI BROKERINDO",
        "tanggal_daftar": "2022-07-27",
        "nomor_tanda_daftar": "006414.01/DJAI.PSE/07/2022",
        "qr_code": "https://pse.kominfo.go.id/storage/images/qr_code/24a27857397f601a619bce78ed1e729d.png",
        "status_id": "TERDAFTAR",
        "sistem_elektronik_id": 9095
      }
    },
    {
      "type": "tdpseTerbit",
      "id": 9111,
      "attributes": {
        "nomor_pb_umku": "121200033109600010001",
        "nama": "MEKA LAW FIRM",
        "website": "mekalawfirm.com",
        "sektor": "Sektor Perdagangan",
        "nama_perusahaan": "MEKA LAW OFFICE",
        "tanggal_daftar": "2022-07-27",
        "nomor_tanda_daftar": "006412.01/DJAI.PSE/07/2022",
        "qr_code": "https://pse.kominfo.go.id/storage/images/qr_code/38eaeab8384d4ee92234e7f50da26caf.png",
        "status_id": "TERDAFTAR",
        "sistem_elektronik_id": 9021
      }
    },
    {
      "type": "tdpseTerbit",
      "id": 9392,
      "attributes": {
        "nomor_pb_umku": "220722004540500000004",
        "nama": "BRATPACK.ID",
        "website": "bratpack.id",
        "sektor": "Sektor Perdagangan",
        "nama_perusahaan": "GRANDIA PRIMATAMA SENTOSA",
        "tanggal_daftar": "2022-07-29",
        "nomor_tanda_daftar": "006410.04/DJAI.PSE/07/2022",
        "qr_code": "https://pse.kominfo.go.id/storage/images/qr_code/5a7f98db698623c732a056d69da8ed71.png",
        "status_id": "TERDAFTAR",
        "sistem_elektronik_id": 9302
      }
    }
  ]
}