{
  "meta": {
    "page": {
      "currentPage": 153,
      "from": 1521,
      "lastPage": 1063,
      "perPage": 10,
      "to": 1530,
      "total": 10630
    }
  },
  "data": [
    {
      "type": "tdpseTerbit",
      "id": 9194,
      "attributes": {
        "nomor_pb_umku": "022000716126400020001",
        "nama": "PERUMDA BPR BANK JOGJA",
        "website": "bankjogja.com",
        "sektor": "Sektor Keuangan",
        "nama_perusahaan": "BPR BANK JOGJA KOTA YOGYAKARTA",
        "tanggal_daftar": "2022-07-27",
        "nomor_tanda_daftar": "006439.01/DJAI.PSE/07/2022",
        "qr_code": "https://pse.kominfo.go.id/storage/images/qr_code/fcc3d8448fabc9d08cef56bbc6f09500.png",
        "status_id": "TERDAFTAR",
        "sistem_elektronik_id": 9102
      }
    },
    {
      "type": "tdpseTerbit",
      "id": 9300,
      "attributes": {
        "nomor_pb_umku": "181221001182400030003",
        "nama": "SURFGOLD",
        "website": "surfgold.co.id",
        "sektor": "Sektor Teknologi Informasi dan Komunikasi",
        "nama_perusahaan": "SURFGOLD",
        "tanggal_daftar": "2022-07-28",
        "nomor_tanda_daftar": "006437.03/DJAI.PSE/07/2022",
        "qr_code": "https://pse.kominfo.go.id/storage/images/qr_code/f678e9efb1e108c572d3bec29f4d68f9.png",
        "status_id": "TERDAFTAR",
        "sistem_elektronik_id": 9213
      }
    },
    {
      "type": "tdpseTerbit",
      "id": 9298,
      "attributes": {
        "nomor_pb_umku": "181221001182400030002",
        "nama": "REDEEMCLUB",
        "website": "redeemclub.com",
        "sektor": "Sektor Perdagangan",
        "nama_perusahaan": "SURFGOLD",
        "tanggal_daftar": "2022-07-28",
        "nomor_tanda_daftar": "006437.02/DJAI.PSE/07/2022",
        "qr_code": "https://pse.kominfo.go.id/storage/images/qr_code/b755d164ce8d7601fca8940bff49ebdb.png",
        "status_id": "TERDAFTAR",
        "sistem_elektronik_id": 9210
      }
    },
    {
      "type": "tdpseTerbit",
      "id": 9171,
      "attributes": {
        "nomor_pb_umku": "181221001182400030001",
        "nama": "TEAMFORCE.ID",
        "website": "teamforce.id",
        "sektor": "Sektor Teknologi Informasi dan Komunikasi",
        "nama_perusahaan": "SURFGOLD",
        "tanggal_daftar": "2022-07-27",
        "nomor_tanda_daftar": "006437.01/DJAI.PSE/07/2022",
        "qr_code": "https://pse.kominfo.go.id/storage/images/qr_code/a5a556dd75a597358afda04242c81496.png",
        "status_id": "TERDAFTAR",
        "sistem_elektronik_id": 9078
      }
    },
    {
      "type": "tdpseTerbit",
      "id": 9301,
      "attributes": {
        "nomor_pb_umku": "022010280109900010001",
        "nama": "BPRSINDANGBINAHARTA.COM",
        "website": "bprsindangbinaharta.com",
        "sektor": "Sektor Keuangan",
        "nama_perusahaan": "BANK PERKREDITAN RAKYAT SINDANG BINAHARTA",
        "tanggal_daftar": "2022-07-28",
        "nomor_tanda_daftar": "006435.02/DJAI.PSE/07/2022",
        "qr_code": "https://pse.kominfo.go.id/storage/images/qr_code/e8b5b85b6991bdf1dacafdf4fcae1923.png",
        "status_id": "TERDAFTAR",
        "sistem_elektronik_id": 9214
      }
    },
    {
      "type": "tdpseTerbit",
      "id": 9172,
      "attributes": {
        "nomor_pb_umku": "022010280109900010001",
        "nama": "WWW.BPRSINDANGBINAHARTA.COM",
        "website": "NS1.NIAGAHOSTER.COM",
        "sektor": "Sektor Keuangan",
        "nama_perusahaan": "BANK PERKREDITAN RAKYAT SINDANG BINAHARTA",
        "tanggal_daftar": "2022-07-27",
        "nomor_tanda_daftar": "006435.01/DJAI.PSE/07/2022",
        "qr_code": "https://pse.kominfo.go.id/storage/images/qr_code/e32efe631d7b260ecca4602882124db5.png",
        "status_id": "TERDAFTAR",
        "sistem_elektronik_id": 9079
      }
    },
    {
      "type": "tdpseTerbit",
      "id": 9277,
      "attributes": {
        "nomor_pb_umku": "912010782032300010001",
        "nama": "SYSTEM ELEKTRONIK ONLINE",
        "website": "bpramin.com",
        "sektor": "Sektor Keuangan",
        "nama_perusahaan": "BANK PERKREDITAN RAKYAT ANGLOMAS INDAH",
        "tanggal_daftar": "2022-07-28",
        "nomor_tanda_daftar": "006434.01/DJAI.PSE/07/2022",
        "qr_code": "https://pse.kominfo.go.id/storage/images/qr_code/a2de32f50e5e4d09ca62740122155b92.png",
        "status_id": "TERDAFTAR",
        "sistem_elektronik_id": 9186
      }
    },
    {
      "type": "tdpseTerbit",
      "id": 9169,
      "attributes": {
        "nomor_pb_umku": "912030475266600010001",
        "nama": "BPRDMU",
        "website": "bprdmu.com",
        "sektor": "Sektor Keuangan",
        "nama_perusahaan": "BANK PERKREDITAN RAKYAT DANA MITRA UTAMA",
        "tanggal_daftar": "2022-07-27",
        "nomor_tanda_daftar": "006433.01/DJAI.PSE/07/2022",
        "qr_code": "https://pse.kominfo.go.id/storage/images/qr_code/1e5118c9c7f053488e698b81fc6ba3b4.png",
        "status_id": "TERDAFTAR",
        "sistem_elektronik_id": 9076
      }
    },
    {
      "type": "tdpseTerbit",
      "id": 9217,
      "attributes": {
        "nomor_pb_umku": "022030223015400000002",
        "nama": "TELPON",
        "website": "telpon.us",
        "sektor": "Sektor Teknologi Informasi dan Komunikasi",
        "nama_perusahaan": "RUANG HALAL INDONESIA",
        "tanggal_daftar": "2022-07-27",
        "nomor_tanda_daftar": "006432.03/DJAI.PSE/07/2022",
        "qr_code": "https://pse.kominfo.go.id/storage/images/qr_code/fc1a1a5bde814019f84f9da661790763.png",
        "status_id": "TERDAFTAR",
        "sistem_elektronik_id": 9125
      }
    },
    {
      "type": "tdpseTerbit",
      "id": 9216,
      "attributes": {
        "nomor_pb_umku": "022030223015400000002",
        "nama": "KUYTALK",
        "website": "-",
        "sektor": "Sektor Teknologi Informasi dan Komunikasi",
        "nama_perusahaan": "RUANG HALAL INDONESIA",
        "tanggal_daftar": "2022-07-27",
        "nomor_tanda_daftar": "006432.02/DJAI.PSE/07/2022",
        "qr_code": "https://pse.kominfo.go.id/storage/images/qr_code/90b1704b0421e2deb364b2c1af7e798c.png",
        "status_id": "TERDAFTAR",
        "sistem_elektronik_id": 9124
      }
    }
  ]
}