{
  "meta": {
    "page": {
      "currentPage": 154,
      "from": 1531,
      "lastPage": 816,
      "perPage": 10,
      "to": 1540,
      "total": 8153
    }
  },
  "jsonapi": {
    "version": "1.0"
  },
  "links": {
    "first": "http://pse.kominfo.go.id/api/v1/jsonapi/tdpse-terbit?page%5Blimit%5D=10&page%5Bpage%5D=1",
    "last": "http://pse.kominfo.go.id/api/v1/jsonapi/tdpse-terbit?page%5Blimit%5D=10&page%5Bpage%5D=816",
    "next": "http://pse.kominfo.go.id/api/v1/jsonapi/tdpse-terbit?page%5Blimit%5D=10&page%5Bpage%5D=155",
    "prev": "http://pse.kominfo.go.id/api/v1/jsonapi/tdpse-terbit?page%5Blimit%5D=10&page%5Bpage%5D=153"
  },
  "data": [
    {
      "type": "tdpseTerbit",
      "id": "7082",
      "attributes": {
        "nomor_pb_umku": "190722006608200000001",
        "nama": "ALDISHOOP",
        "website": "aldishoop.bukaolshop.site",
        "sektor": "Sektor Perdagangan, Sektor Teknologi Informasi dan Komunikasi",
        "nama_tampil_badan_hukum": "",
        "nama_perusahaan": "NUR ALFIN ALDI SAPUTRA",
        "tanggal_daftar": "2022-07-19",
        "tanggal_terbit": "2022-07-19",
        "nomor_tanda_daftar": "005157.01/DJAI.PSE/07/2022",
        "qr_code": "http://pse.kominfo.go.id/api/v1/jsonapi/tdpse-terbit/qr-code/7082",
        "status_id": "TERDAFTAR",
        "sistem_elektronik_id": "6932",
        "keterangan": "-",
        "lokalitas": "LOKAL"
      },
      "links": {
        "self": "http://pse.kominfo.go.id/api/v1/jsonapi/tdpse-terbit/7082"
      }
    },
    {
      "type": "tdpseTerbit",
      "id": "7081",
      "attributes": {
        "nomor_pb_umku": "812001429187400010003",
        "nama": "JAKARTA AUTOMATED TRADING SYSTEMS (JATS)",
        "website": "-",
        "sektor": "Sektor Keuangan",
        "nama_tampil_badan_hukum": "PT",
        "nama_perusahaan": "PT BURSA EFEK INDONESIA",
        "tanggal_daftar": "2022-07-19",
        "tanggal_terbit": "2022-07-19",
        "nomor_tanda_daftar": "000832.13/DJAI.PSE/07/2022",
        "qr_code": "http://pse.kominfo.go.id/api/v1/jsonapi/tdpse-terbit/qr-code/7081",
        "status_id": "TERDAFTAR",
        "sistem_elektronik_id": "6936",
        "keterangan": "-",
        "lokalitas": "LOKAL"
      },
      "links": {
        "self": "http://pse.kominfo.go.id/api/v1/jsonapi/tdpse-terbit/7081"
      }
    },
    {
      "type": "tdpseTerbit",
      "id": "7080",
      "attributes": {
        "nomor_pb_umku": "091221003349200090001",
        "nama": "GARUDAKU",
        "website": "garudaku.com",
        "sektor": "Sektor Teknologi Informasi dan Komunikasi",
        "nama_tampil_badan_hukum": "PT",
        "nama_perusahaan": "PT GARUDA DIGITAL KREATIF",
        "tanggal_daftar": "2022-07-19",
        "tanggal_terbit": "2022-07-19",
        "nomor_tanda_daftar": "005153.01/DJAI.PSE/07/2022",
        "qr_code": "http://pse.kominfo.go.id/api/v1/jsonapi/tdpse-terbit/qr-code/7080",
        "status_id": "TERDAFTAR",
        "sistem_elektronik_id": "6946",
        "keterangan": "-",
        "lokalitas": "LOKAL"
      },
      "links": {
        "self": "http://pse.kominfo.go.id/api/v1/jsonapi/tdpse-terbit/7080"
      }
    },
    {
      "type": "tdpseTerbit",
      "id": "7079",
      "attributes": {
        "nomor_pb_umku": "912010167151200010001",
        "nama": "DISNEY+ HOTSTAR",
        "website": "hotstar.com",
        "sektor": "Sektor Perdagangan, Sektor Teknologi Informasi dan Komunikasi",
        "nama_tampil_badan_hukum": "PT",
        "nama_perusahaan": "PT WALT DISNEY INDONESIA",
        "tanggal_daftar": "2022-07-19",
        "tanggal_terbit": "2022-07-19",
        "nomor_tanda_daftar": "005096.01/DJAI.PSE/07/2022",
        "qr_code": "http://pse.kominfo.go.id/api/v1/jsonapi/tdpse-terbit/qr-code/7079",
        "status_id": "TERDAFTAR",
        "sistem_elektronik_id": "6948",
        "keterangan": "-",
        "lokalitas": "LOKAL"
      },
      "links": {
        "self": "http://pse.kominfo.go.id/api/v1/jsonapi/tdpse-terbit/7079"
      }
    },
    {
      "type": "tdpseTerbit",
      "id": "7078",
      "attributes": {
        "nomor_pb_umku": "020801014192500000001",
        "nama": "SITUS WEB PERUSAHAAN",
        "website": "widyasecurity.com",
        "sektor": "Sektor Teknologi Informasi dan Komunikasi",
        "nama_tampil_badan_hukum": "PT",
        "nama_perusahaan": "PT WIDYA ADIJAYA NUSANTARA",
        "tanggal_daftar": "2022-07-19",
        "tanggal_terbit": "2022-07-19",
        "nomor_tanda_daftar": "005160.01/DJAI.PSE/07/2022",
        "qr_code": "http://pse.kominfo.go.id/api/v1/jsonapi/tdpse-terbit/qr-code/7078",
        "status_id": "TERDAFTAR",
        "sistem_elektronik_id": "6923",
        "keterangan": "-",
        "lokalitas": "LOKAL"
      },
      "links": {
        "self": "http://pse.kominfo.go.id/api/v1/jsonapi/tdpse-terbit/7078"
      }
    },
    {
      "type": "tdpseTerbit",
      "id": "7077",
      "attributes": {
        "nomor_pb_umku": "300921002426600070001",
        "nama": "KIDSQWEST",
        "website": "ns-1380.awsdns-44.org",
        "sektor": "Sektor Teknologi Informasi dan Komunikasi",
        "nama_tampil_badan_hukum": "PT",
        "nama_perusahaan": "PT ACKTEC PRASAMA INDONESIA",
        "tanggal_daftar": "2022-07-19",
        "tanggal_terbit": "2022-07-19",
        "nomor_tanda_daftar": "005097.01/DJAI.PSE/07/2022",
        "qr_code": "http://pse.kominfo.go.id/api/v1/jsonapi/tdpse-terbit/qr-code/7077",
        "status_id": "TERDAFTAR",
        "sistem_elektronik_id": "6927",
        "keterangan": "-",
        "lokalitas": "LOKAL"
      },
      "links": {
        "self": "http://pse.kominfo.go.id/api/v1/jsonapi/tdpse-terbit/7077"
      }
    },
    {
      "type": "tdpseTerbit",
      "id": "7076",
      "attributes": {
        "nomor_pb_umku": "912030499073800020006",
        "nama": "CAMPAIGN #FORCHANGE",
        "website": "campaign.com",
        "sektor": "Sektor Teknologi Informasi dan Komunikasi",
        "nama_tampil_badan_hukum": "PT",
        "nama_perusahaan": "PT UNI TOKOPO TEKNOLOGI",
        "tanggal_daftar": "2022-07-19",
        "tanggal_terbit": "2022-07-19",
        "nomor_tanda_daftar": "004777.01/DJAI.PSE/07/2022",
        "qr_code": "http://pse.kominfo.go.id/api/v1/jsonapi/tdpse-terbit/qr-code/7076",
        "status_id": "TERDAFTAR",
        "sistem_elektronik_id": "6949",
        "keterangan": "-",
        "lokalitas": "LOKAL"
      },
      "links": {
        "self": "http://pse.kominfo.go.id/api/v1/jsonapi/tdpse-terbit/7076"
      }
    },
    {
      "type": "tdpseTerbit",
      "id": "7075",
      "attributes": {
        "nomor_pb_umku": "022010876228600020001",
        "nama": "SMS BROADCAST PT TRI SAHRIDAYA TEKNOLOGI",
        "website": "sms.sahridaya.id",
        "sektor": "Sektor Teknologi Informasi dan Komunikasi",
        "nama_tampil_badan_hukum": "PT",
        "nama_perusahaan": "PT TRI SAHRIDAYA TEKNOLOGI",
        "tanggal_daftar": "2022-07-19",
        "tanggal_terbit": "2022-07-19",
        "nomor_tanda_daftar": "005168.01/DJAI.PSE/07/2022",
        "qr_code": "http://pse.kominfo.go.id/api/v1/jsonapi/tdpse-terbit/qr-code/7075",
        "status_id": "TERDAFTAR",
        "sistem_elektronik_id": "6947",
        "keterangan": "-",
        "lokalitas": "LOKAL"
      },
      "links": {
        "self": "http://pse.kominfo.go.id/api/v1/jsonapi/tdpse-terbit/7075"
      }
    },
    {
      "type": "tdpseTerbit",
      "id": "7074",
      "attributes": {
        "nomor_pb_umku": "027401003046400040001",
        "nama": "GEOKARTA",
        "website": "geokarta-ec.com",
        "sektor": "Sektor Teknologi Informasi dan Komunikasi",
        "nama_tampil_badan_hukum": "CV",
        "nama_perusahaan": "CV GEOKARTA ENGINEERING CONSULTANT",
        "tanggal_daftar": "2022-07-19",
        "tanggal_terbit": "2022-07-19",
        "nomor_tanda_daftar": "004017.01/DJAI.PSE/07/2022",
        "qr_code": "http://pse.kominfo.go.id/api/v1/jsonapi/tdpse-terbit/qr-code/7074",
        "status_id": "TERDAFTAR",
        "sistem_elektronik_id": "6945",
        "keterangan": "-",
        "lokalitas": "LOKAL"
      },
      "links": {
        "self": "http://pse.kominfo.go.id/api/v1/jsonapi/tdpse-terbit/7074"
      }
    },
    {
      "type": "tdpseTerbit",
      "id": "7073",
      "attributes": {
        "nomor_pb_umku": "912010059155600010001",
        "nama": "PT BPR DHANATANI CEPIRING",
        "website": "bprdhanatanicpg.com",
        "sektor": "Sektor Keuangan",
        "nama_tampil_badan_hukum": "",
        "nama_perusahaan": "PT. BPR DHANATANI CEPIRING",
        "tanggal_daftar": "2022-07-19",
        "tanggal_terbit": "2022-07-19",
        "nomor_tanda_daftar": "005171.01/DJAI.PSE/07/2022",
        "qr_code": "http://pse.kominfo.go.id/api/v1/jsonapi/tdpse-terbit/qr-code/7073",
        "status_id": "TERDAFTAR",
        "sistem_elektronik_id": "6941",
        "keterangan": "-",
        "lokalitas": "LOKAL"
      },
      "links": {
        "self": "http://pse.kominfo.go.id/api/v1/jsonapi/tdpse-terbit/7073"
      }
    }
  ]
}