{
  "meta": {
    "page": {
      "currentPage": 159,
      "from": 1581,
      "lastPage": 875,
      "perPage": 10,
      "to": 1590,
      "total": 8749
    }
  },
  "data": [
    {
      "type": "tdpseTerbit",
      "id": 7182,
      "attributes": {
        "nomor_pb_umku": "023901022141900010004",
        "nama": "BRK MOBILE",
        "website": "-",
        "sektor": "Sektor Keuangan",
        "nama_perusahaan": "BANK PEMBANGUNAN DAERAH RIAU KEPRI SYARIAH PERSERODA",
        "tanggal_daftar": "2022-07-19",
        "nomor_tanda_daftar": "005037.05/DJAI.PSE/07/2022",
        "qr_code": "https://pse.kominfo.go.id/storage/images/qr_code/3ef9f78ea9da84b3555341fee4a28dbc.png",
        "status_id": "TERDAFTAR",
        "sistem_elektronik_id": 7068
      }
    },
    {
      "type": "tdpseTerbit",
      "id": 7168,
      "attributes": {
        "nomor_pb_umku": "023901022141900010003",
        "nama": "CASH MANAGEMENT SYSTEM BANK RIAU KEPRI",
        "website": "cms.bankriaukepri.co.id",
        "sektor": "Sektor Keuangan",
        "nama_perusahaan": "BANK PEMBANGUNAN DAERAH RIAU KEPRI SYARIAH PERSERODA",
        "tanggal_daftar": "2022-07-19",
        "nomor_tanda_daftar": "005037.04/DJAI.PSE/07/2022",
        "qr_code": "https://pse.kominfo.go.id/storage/images/qr_code/7e8f209fd941cb1e12a428eb83529813.png",
        "status_id": "TERDAFTAR",
        "sistem_elektronik_id": 7048
      }
    },
    {
      "type": "tdpseTerbit",
      "id": 7083,
      "attributes": {
        "nomor_pb_umku": "023901022141900010002",
        "nama": "WEBSITE BANK RIAU KEPRI",
        "website": "bankriaukepri.co.id",
        "sektor": "Sektor Keuangan",
        "nama_perusahaan": "BANK PEMBANGUNAN DAERAH RIAU KEPRI SYARIAH PERSERODA",
        "tanggal_daftar": "2022-07-19",
        "nomor_tanda_daftar": "005037.03/DJAI.PSE/07/2022",
        "qr_code": "https://pse.kominfo.go.id/storage/images/qr_code/c90ca0939bf46e48dff583ea20c98448.png",
        "status_id": "TERDAFTAR",
        "sistem_elektronik_id": 6957
      }
    },
    {
      "type": "tdpseTerbit",
      "id": 6996,
      "attributes": {
        "nomor_pb_umku": "023901022141900010001",
        "nama": "EMAIL CORPORATE BANK RIAU KEPRI",
        "website": "mail.bankriaukepri.co.id",
        "sektor": "Sektor Keuangan",
        "nama_perusahaan": "BANK PEMBANGUNAN DAERAH RIAU KEPRI SYARIAH PERSERODA",
        "tanggal_daftar": "2022-07-19",
        "nomor_tanda_daftar": "005037.01/DJAI.PSE/07/2022",
        "qr_code": "https://pse.kominfo.go.id/storage/images/qr_code/2df6faa23d7e048bc33c633951944292.png",
        "status_id": "TERDAFTAR",
        "sistem_elektronik_id": 6844
      }
    },
    {
      "type": "tdpseTerbit",
      "id": 7265,
      "attributes": {
        "nomor_pb_umku": "121021001802200010002",
        "nama": "AYOMOBILE",
        "website": "ayomobile.com",
        "sektor": "Sektor Teknologi Informasi dan Komunikasi",
        "nama_perusahaan": "AYOMOBILE MEDIA INTERNATIONAL",
        "tanggal_daftar": "2022-07-19",
        "nomor_tanda_daftar": "005036.02/DJAI.PSE/07/2022",
        "qr_code": "https://pse.kominfo.go.id/storage/images/qr_code/e5c65c8709887e5861a8a22a0e473d39.png",
        "status_id": "TERDAFTAR",
        "sistem_elektronik_id": 7116
      }
    },
    {
      "type": "tdpseTerbit",
      "id": 6922,
      "attributes": {
        "nomor_pb_umku": "121021001802200010001",
        "nama": "AYOSMS",
        "website": "ayosms.com",
        "sektor": "Sektor Teknologi Informasi dan Komunikasi",
        "nama_perusahaan": "AYOMOBILE MEDIA INTERNATIONAL",
        "tanggal_daftar": "2022-07-19",
        "nomor_tanda_daftar": "005036.01/DJAI.PSE/07/2022",
        "qr_code": "https://pse.kominfo.go.id/storage/images/qr_code/4209b9872b92c805e06b76328bcd96e7.png",
        "status_id": "TERDAFTAR",
        "sistem_elektronik_id": 6771
      }
    },
    {
      "type": "tdpseTerbit",
      "id": 9395,
      "attributes": {
        "nomor_pb_umku": "912030015154800020006",
        "nama": "MARKETING INDAH YATAMA",
        "website": "marketingindahyatama.com",
        "sektor": "Sektor Teknologi Informasi dan Komunikasi",
        "nama_perusahaan": "INDAH YATAMA",
        "tanggal_daftar": "2022-07-29",
        "nomor_tanda_daftar": "005035.06/DJAI.PSE/07/2022",
        "qr_code": "https://pse.kominfo.go.id/storage/images/qr_code/8055fc98f228d06d4f7461480d74b53c.png",
        "status_id": "TERDAFTAR",
        "sistem_elektronik_id": 9304
      }
    },
    {
      "type": "tdpseTerbit",
      "id": 8858,
      "attributes": {
        "nomor_pb_umku": "912030015154800020005",
        "nama": "IYA165",
        "website": "iya165.com",
        "sektor": "Sektor Teknologi Informasi dan Komunikasi",
        "nama_perusahaan": "INDAH YATAMA",
        "tanggal_daftar": "2022-07-22",
        "nomor_tanda_daftar": "005035.05/DJAI.PSE/07/2022",
        "qr_code": "https://pse.kominfo.go.id/storage/images/qr_code/6b39d903f16f42798ac427c918ab76b8.png",
        "status_id": "TERDAFTAR",
        "sistem_elektronik_id": 8764
      }
    },
    {
      "type": "tdpseTerbit",
      "id": 8856,
      "attributes": {
        "nomor_pb_umku": "912030015154800020004",
        "nama": "MARKETINGINDAHYATAMA",
        "website": "marketingindahyatama.com",
        "sektor": "Sektor Teknologi Informasi dan Komunikasi",
        "nama_perusahaan": "INDAH YATAMA",
        "tanggal_daftar": "2022-07-22",
        "nomor_tanda_daftar": "005035.04/DJAI.PSE/07/2022",
        "qr_code": "https://pse.kominfo.go.id/storage/images/qr_code/9cb887fbd76cd5bafacf10aa1e7550ca.png",
        "status_id": "TERDAFTAR",
        "sistem_elektronik_id": 8763
      }
    },
    {
      "type": "tdpseTerbit",
      "id": 8852,
      "attributes": {
        "nomor_pb_umku": "912030015154800020003",
        "nama": "YATAMA165",
        "website": "yatama165.com",
        "sektor": "Sektor Teknologi Informasi dan Komunikasi",
        "nama_perusahaan": "INDAH YATAMA",
        "tanggal_daftar": "2022-07-22",
        "nomor_tanda_daftar": "005035.03/DJAI.PSE/07/2022",
        "qr_code": "https://pse.kominfo.go.id/storage/images/qr_code/561e80a4018c28bf7f21bf55a099e216.png",
        "status_id": "TERDAFTAR",
        "sistem_elektronik_id": 8759
      }
    }
  ]
}