{
  "meta": {
    "page": {
      "currentPage": 17,
      "from": 161,
      "lastPage": 1113,
      "perPage": 10,
      "to": 170,
      "total": 11124
    }
  },
  "data": [
    {
      "type": "tdpseTerbit",
      "id": 12173,
      "attributes": {
        "nomor_pb_umku": "022010862160500080003",
        "nama": "HIREDTODAY",
        "website": "hiredtoday.com",
        "sektor": "Sektor Teknologi Informasi dan Komunikasi",
        "nama_perusahaan": "INDO HR",
        "tanggal_daftar": "2022-11-08",
        "nomor_tanda_daftar": "008386.01/DJAI.PSE/11/2022",
        "qr_code": "https://pse.kominfo.go.id/storage/images/qr_code/e34aa49dbaa58a17106d79a1f4a3d7b1.png",
        "status_id": "TERDAFTAR",
        "sistem_elektronik_id": 11966
      }
    },
    {
      "type": "tdpseTerbit",
      "id": 12163,
      "attributes": {
        "nomor_pb_umku": "031122005161600000001",
        "nama": "DIGITECHNO",
        "website": "digitechno.co.id",
        "sektor": "Sektor Keuangan, Sektor Teknologi Informasi dan Komunikasi",
        "nama_perusahaan": "DIGITAL TEKNOLOGI MODERN",
        "tanggal_daftar": "2022-11-08",
        "nomor_tanda_daftar": "008385.01/DJAI.PSE/11/2022",
        "qr_code": "https://pse.kominfo.go.id/storage/images/qr_code/86d131a4c6c7f2bfd2787edcddabd297.png",
        "status_id": "TERDAFTAR",
        "sistem_elektronik_id": 11957
      }
    },
    {
      "type": "tdpseTerbit",
      "id": 12226,
      "attributes": {
        "nomor_pb_umku": "912000258087300050001",
        "nama": "GOLDEN RAMA WEBSITE & APPS",
        "website": "goldenrama.com",
        "sektor": "Sektor Perdagangan, Sektor Transportasi",
        "nama_perusahaan": "GOLDEN RAMA EXPRESS",
        "tanggal_daftar": "2022-11-11",
        "nomor_tanda_daftar": "008384.01/DJAI.PSE/11/2022",
        "qr_code": "https://pse.kominfo.go.id/storage/images/qr_code/718e6b2d4bd33f1b6884347330ec40e5.png",
        "status_id": "TERDAFTAR",
        "sistem_elektronik_id": 12016
      }
    },
    {
      "type": "tdpseTerbit",
      "id": 12162,
      "attributes": {
        "nomor_pb_umku": "812010493190600000001",
        "nama": "DWITOURS.COM",
        "website": "dayawisata.com",
        "sektor": "Sektor Perdagangan",
        "nama_perusahaan": "DAYAWISATA INTIINDAH",
        "tanggal_daftar": "2022-11-08",
        "nomor_tanda_daftar": "008383.01/DJAI.PSE/11/2022",
        "qr_code": "https://pse.kominfo.go.id/storage/images/qr_code/489f1a98284d1333a61af6e4fe9c093e.png",
        "status_id": "TERDAFTAR",
        "sistem_elektronik_id": 11955
      }
    },
    {
      "type": "tdpseTerbit",
      "id": 12188,
      "attributes": {
        "nomor_pb_umku": "912020771069500020002",
        "nama": "WEBSITE PERUSAHAAN INSIGHT",
        "website": "insights.id",
        "sektor": "Sektor Keuangan",
        "nama_perusahaan": "INSIGHT INVESTMENTS MANAGEMENT",
        "tanggal_daftar": "2022-11-09",
        "nomor_tanda_daftar": "008382.02/DJAI.PSE/11/2022",
        "qr_code": "https://pse.kominfo.go.id/storage/images/qr_code/e052e0653b1a6aa08f2cb68b6b0fc758.png",
        "status_id": "TERDAFTAR",
        "sistem_elektronik_id": 11981
      }
    },
    {
      "type": "tdpseTerbit",
      "id": 12169,
      "attributes": {
        "nomor_pb_umku": "912020771069500020001",
        "nama": "APLIKASI MOBILE INVESTASIIN",
        "website": "-",
        "sektor": "Sektor Keuangan",
        "nama_perusahaan": "INSIGHT INVESTMENTS MANAGEMENT",
        "tanggal_daftar": "2022-11-08",
        "nomor_tanda_daftar": "008382.01/DJAI.PSE/11/2022",
        "qr_code": "https://pse.kominfo.go.id/storage/images/qr_code/89d5ef80bbc107478fecb0b5e5f9b1da.png",
        "status_id": "TERDAFTAR",
        "sistem_elektronik_id": 11956
      }
    },
    {
      "type": "tdpseTerbit",
      "id": 12160,
      "attributes": {
        "nomor_pb_umku": "031122005684900000001",
        "nama": "NUTECH",
        "website": "nutechku.com",
        "sektor": "Sektor Keuangan, Sektor Teknologi Informasi dan Komunikasi",
        "nama_perusahaan": "ANUGRAH TEKNOLOGI DIGITAL",
        "tanggal_daftar": "2022-11-08",
        "nomor_tanda_daftar": "008381.01/DJAI.PSE/11/2022",
        "qr_code": "https://pse.kominfo.go.id/storage/images/qr_code/8c22e3cfc661a237fcbdfa78b80a51d3.png",
        "status_id": "TERDAFTAR",
        "sistem_elektronik_id": 11953
      }
    },
    {
      "type": "tdpseTerbit",
      "id": 12151,
      "attributes": {
        "nomor_pb_umku": "071122007745400000001",
        "nama": "KERENDANG",
        "website": "-",
        "sektor": "Sektor Perdagangan",
        "nama_perusahaan": "TJHIN KIT LIONG",
        "tanggal_daftar": "2022-11-07",
        "nomor_tanda_daftar": "008379.01/DJAI.PSE/11/2022",
        "qr_code": "https://pse.kominfo.go.id/storage/images/qr_code/39648f250b5362dd37563c6c82a10873.png",
        "status_id": "TERDAFTAR",
        "sistem_elektronik_id": 11946
      }
    },
    {
      "type": "tdpseTerbit",
      "id": 12149,
      "attributes": {
        "nomor_pb_umku": "071122005657400020001",
        "nama": "HR MANUFAKTUR",
        "website": "hrmanufaktur.com",
        "sektor": "Sektor Teknologi Informasi dan Komunikasi",
        "nama_perusahaan": "HUMAN RESOURCE MANUFAKTUR INDONESIA",
        "tanggal_daftar": "2022-11-07",
        "nomor_tanda_daftar": "008378.01/DJAI.PSE/11/2022",
        "qr_code": "https://pse.kominfo.go.id/storage/images/qr_code/2a3baec0e73c3ad446d4bb9bf7059f82.png",
        "status_id": "TERDAFTAR",
        "sistem_elektronik_id": 11944
      }
    },
    {
      "type": "tdpseTerbit",
      "id": 12148,
      "attributes": {
        "nomor_pb_umku": "071122004734800020001",
        "nama": "V PAY",
        "website": "fenomenabisnis.co.id",
        "sektor": "Sektor Teknologi Informasi dan Komunikasi",
        "nama_perusahaan": "FENOMENAL BISNIS INTERNASIONAL",
        "tanggal_daftar": "2022-11-07",
        "nomor_tanda_daftar": "008377.01/DJAI.PSE/11/2022",
        "qr_code": "https://pse.kominfo.go.id/storage/images/qr_code/7331ee64e580941d8cf0e44ecec71e54.png",
        "status_id": "TERDAFTAR",
        "sistem_elektronik_id": 11943
      }
    }
  ]
}