{
  "meta": {
    "page": {
      "currentPage": 161,
      "from": 1601,
      "lastPage": 945,
      "perPage": 10,
      "to": 1610,
      "total": 9449
    }
  },
  "data": [
    {
      "type": "tdpseTerbit",
      "id": 7772,
      "attributes": {
        "nomor_pb_umku": "912020187143600010003",
        "nama": "PANTURA APLIKASI",
        "website": "-",
        "sektor": "Sektor Teknologi Informasi dan Komunikasi",
        "nama_perusahaan": "INFINITY AIR MEDIA",
        "tanggal_daftar": "2022-07-20",
        "nomor_tanda_daftar": "005438.03/DJAI.PSE/07/2022",
        "qr_code": "https://pse.kominfo.go.id/storage/images/qr_code/32178329e39c8a642837ee0103b73472.png",
        "status_id": "TERDAFTAR",
        "sistem_elektronik_id": 7643
      }
    },
    {
      "type": "tdpseTerbit",
      "id": 7654,
      "attributes": {
        "nomor_pb_umku": "912020187143600010002",
        "nama": "PT. INFINITY AIR MEDIA COMPANY PROFILE",
        "website": "iamplanet.com",
        "sektor": "Sektor Teknologi Informasi dan Komunikasi",
        "nama_perusahaan": "INFINITY AIR MEDIA",
        "tanggal_daftar": "2022-07-20",
        "nomor_tanda_daftar": "005438.02/DJAI.PSE/07/2022",
        "qr_code": "https://pse.kominfo.go.id/storage/images/qr_code/a1649137e73fe85271df980472886359.png",
        "status_id": "TERDAFTAR",
        "sistem_elektronik_id": 7527
      }
    },
    {
      "type": "tdpseTerbit",
      "id": 7609,
      "attributes": {
        "nomor_pb_umku": "912020187143600010001",
        "nama": "PANTURA",
        "website": "pantura.biz.id",
        "sektor": "Sektor Teknologi Informasi dan Komunikasi",
        "nama_perusahaan": "INFINITY AIR MEDIA",
        "tanggal_daftar": "2022-07-20",
        "nomor_tanda_daftar": "005438.01/DJAI.PSE/07/2022",
        "qr_code": "https://pse.kominfo.go.id/storage/images/qr_code/9bca886b03b3d772cbea921ac9a46992.png",
        "status_id": "TERDAFTAR",
        "sistem_elektronik_id": 7502
      }
    },
    {
      "type": "tdpseTerbit",
      "id": 7575,
      "attributes": {
        "nomor_pb_umku": "912030455018600010001",
        "nama": "WEBSITE",
        "website": "bprjma.com",
        "sektor": "Sektor Keuangan",
        "nama_perusahaan": "BANK PERKREDITAN RAKYAT JADIMANUNGGAL ABADI",
        "tanggal_daftar": "2022-07-20",
        "nomor_tanda_daftar": "005437.01/DJAI.PSE/07/2022",
        "qr_code": "https://pse.kominfo.go.id/storage/images/qr_code/4f9a9e9a92830a793ea98d59773b979a.png",
        "status_id": "TERDAFTAR",
        "sistem_elektronik_id": 7471
      }
    },
    {
      "type": "tdpseTerbit",
      "id": 7347,
      "attributes": {
        "nomor_pb_umku": "022010213066700050001",
        "nama": "DIANTARA INTER MEDIA",
        "website": "diantara.co.id",
        "sektor": "Sektor Teknologi Informasi dan Komunikasi",
        "nama_perusahaan": "DIANTARA INTER MEDIA",
        "tanggal_daftar": "2022-07-20",
        "nomor_tanda_daftar": "005436.01/DJAI.PSE/07/2022",
        "qr_code": "https://pse.kominfo.go.id/storage/images/qr_code/9e41adf3781be8d8bd7bdd82c0b8dcbd.png",
        "status_id": "TERDAFTAR",
        "sistem_elektronik_id": 7245
      }
    },
    {
      "type": "tdpseTerbit",
      "id": 7377,
      "attributes": {
        "nomor_pb_umku": "120100069185100010001",
        "nama": "BPR NBP 29",
        "website": "bprnbp29.co.id",
        "sektor": "Sektor Keuangan",
        "nama_perusahaan": "BANK PERKREDITAN RAKYAT NUSANTARA BONA PASOGIT 29",
        "tanggal_daftar": "2022-07-20",
        "nomor_tanda_daftar": "005435.01/DJAI.PSE/07/2022",
        "qr_code": "https://pse.kominfo.go.id/storage/images/qr_code/4c750f7f07ba2ae8270d6d3bd7ee62d1.png",
        "status_id": "TERDAFTAR",
        "sistem_elektronik_id": 7279
      }
    },
    {
      "type": "tdpseTerbit",
      "id": 8393,
      "attributes": {
        "nomor_pb_umku": "912020284062400010001",
        "nama": "WEBSITE BPR GERBANG SERASAN",
        "website": "gerbangserasan.com",
        "sektor": "Sektor Keuangan",
        "nama_perusahaan": "BANK PERKREDITAN RAKYAT GERBANG SERASAN KABUPATEN MUARA ENIM",
        "tanggal_daftar": "2022-07-21",
        "nomor_tanda_daftar": "005434.01/DJAI.PSE/07/2022",
        "qr_code": "https://pse.kominfo.go.id/storage/images/qr_code/929728b6f6ebaf89b9b099fb6951fb0b.png",
        "status_id": "TERDAFTAR",
        "sistem_elektronik_id": 8310
      }
    },
    {
      "type": "tdpseTerbit",
      "id": 10184,
      "attributes": {
        "nomor_pb_umku": "812021325267900000009",
        "nama": "PORTAL HRSSO",
        "website": "portal-hrsso.infomedia.co.id",
        "sektor": "Sektor Teknologi Informasi dan Komunikasi",
        "nama_perusahaan": "INFOMEDIA NUSANTARA",
        "tanggal_daftar": "2022-08-10",
        "nomor_tanda_daftar": "005433.09/DJAI.PSE/08/2022",
        "qr_code": "https://pse.kominfo.go.id/storage/images/qr_code/2fa970a8223a217cce29147b13991810.png",
        "status_id": "TERDAFTAR",
        "sistem_elektronik_id": 10063
      }
    },
    {
      "type": "tdpseTerbit",
      "id": 10182,
      "attributes": {
        "nomor_pb_umku": "812021325267900000007",
        "nama": "PORTAL ISSC",
        "website": "issc.infomedia.co.id",
        "sektor": "Sektor Teknologi Informasi dan Komunikasi",
        "nama_perusahaan": "INFOMEDIA NUSANTARA",
        "tanggal_daftar": "2022-08-10",
        "nomor_tanda_daftar": "005433.08/DJAI.PSE/08/2022",
        "qr_code": "https://pse.kominfo.go.id/storage/images/qr_code/62dddae5b6077a725cd996c36978956f.png",
        "status_id": "TERDAFTAR",
        "sistem_elektronik_id": 10059
      }
    },
    {
      "type": "tdpseTerbit",
      "id": 10183,
      "attributes": {
        "nomor_pb_umku": "812021325267900000008",
        "nama": "PORTAL FHCI",
        "website": "portal-fhci.infomedia.co.id",
        "sektor": "Sektor Teknologi Informasi dan Komunikasi",
        "nama_perusahaan": "INFOMEDIA NUSANTARA",
        "tanggal_daftar": "2022-08-10",
        "nomor_tanda_daftar": "005433.07/DJAI.PSE/08/2022",
        "qr_code": "https://pse.kominfo.go.id/storage/images/qr_code/5a7e338afcaf11a2010f970c8055a5eb.png",
        "status_id": "TERDAFTAR",
        "sistem_elektronik_id": 10057
      }
    }
  ]
}