{
  "meta": {
    "page": {
      "currentPage": 176,
      "from": 1751,
      "lastPage": 816,
      "perPage": 10,
      "to": 1760,
      "total": 8153
    }
  },
  "jsonapi": {
    "version": "1.0"
  },
  "links": {
    "first": "http://pse.kominfo.go.id/api/v1/jsonapi/tdpse-terbit?page%5Blimit%5D=10&page%5Bpage%5D=1",
    "last": "http://pse.kominfo.go.id/api/v1/jsonapi/tdpse-terbit?page%5Blimit%5D=10&page%5Bpage%5D=816",
    "next": "http://pse.kominfo.go.id/api/v1/jsonapi/tdpse-terbit?page%5Blimit%5D=10&page%5Bpage%5D=177",
    "prev": "http://pse.kominfo.go.id/api/v1/jsonapi/tdpse-terbit?page%5Blimit%5D=10&page%5Bpage%5D=175"
  },
  "data": [
    {
      "type": "tdpseTerbit",
      "id": "6855",
      "attributes": {
        "nomor_pb_umku": "912050387154600010001",
        "nama": "SIMAS FUND",
        "website": "rol.sinarmas-am.co.id",
        "sektor": "Sektor Keuangan",
        "nama_tampil_badan_hukum": "PT",
        "nama_perusahaan": "PT SINARMAS ASSET MANAGEMENT",
        "tanggal_daftar": "2022-07-19",
        "tanggal_terbit": "2022-07-19",
        "nomor_tanda_daftar": "004944.01/DJAI.PSE/07/2022",
        "qr_code": "http://pse.kominfo.go.id/api/v1/jsonapi/tdpse-terbit/qr-code/6855",
        "status_id": "TERDAFTAR",
        "sistem_elektronik_id": "6703",
        "keterangan": "-",
        "lokalitas": "LOKAL"
      },
      "links": {
        "self": "http://pse.kominfo.go.id/api/v1/jsonapi/tdpse-terbit/6855"
      }
    },
    {
      "type": "tdpseTerbit",
      "id": "6854",
      "attributes": {
        "nomor_pb_umku": "812000289391400640043",
        "nama": "3DS CREDIT CARD-DR",
        "website": "-",
        "sektor": "Sektor Keuangan",
        "nama_tampil_badan_hukum": "PT",
        "nama_perusahaan": "PT BANK CENTRAL ASIA",
        "tanggal_daftar": "2022-07-19",
        "tanggal_terbit": "2022-07-19",
        "nomor_tanda_daftar": "001669.44/DJAI.PSE/07/2022",
        "qr_code": "http://pse.kominfo.go.id/api/v1/jsonapi/tdpse-terbit/qr-code/6854",
        "status_id": "TERDAFTAR",
        "sistem_elektronik_id": "6695",
        "keterangan": "-",
        "lokalitas": "LOKAL"
      },
      "links": {
        "self": "http://pse.kominfo.go.id/api/v1/jsonapi/tdpse-terbit/6854"
      }
    },
    {
      "type": "tdpseTerbit",
      "id": "6853",
      "attributes": {
        "nomor_pb_umku": "812000289391400640042",
        "nama": "3DS CREDIT CARD-DR SECONDARY",
        "website": "-",
        "sektor": "Sektor Keuangan",
        "nama_tampil_badan_hukum": "PT",
        "nama_perusahaan": "PT BANK CENTRAL ASIA",
        "tanggal_daftar": "2022-07-19",
        "tanggal_terbit": "2022-07-19",
        "nomor_tanda_daftar": "001669.45/DJAI.PSE/07/2022",
        "qr_code": "http://pse.kominfo.go.id/api/v1/jsonapi/tdpse-terbit/qr-code/6853",
        "status_id": "TERDAFTAR",
        "sistem_elektronik_id": "6699",
        "keterangan": "-",
        "lokalitas": "LOKAL"
      },
      "links": {
        "self": "http://pse.kominfo.go.id/api/v1/jsonapi/tdpse-terbit/6853"
      }
    },
    {
      "type": "tdpseTerbit",
      "id": "6852",
      "attributes": {
        "nomor_pb_umku": "912011001151600010001",
        "nama": "PT. USSI PINBUK PRIMA SOFTWARE",
        "website": "danakarya.com",
        "sektor": "Sektor Keuangan",
        "nama_tampil_badan_hukum": "PT",
        "nama_perusahaan": "PT BANK PERKREDITAN RAKYAT DANA KARYA NUSA",
        "tanggal_daftar": "2022-07-19",
        "tanggal_terbit": "2022-07-19",
        "nomor_tanda_daftar": "005011.01/DJAI.PSE/07/2022",
        "qr_code": "http://pse.kominfo.go.id/api/v1/jsonapi/tdpse-terbit/qr-code/6852",
        "status_id": "TERDAFTAR",
        "sistem_elektronik_id": "6701",
        "keterangan": "-",
        "lokalitas": "LOKAL"
      },
      "links": {
        "self": "http://pse.kominfo.go.id/api/v1/jsonapi/tdpse-terbit/6852"
      }
    },
    {
      "type": "tdpseTerbit",
      "id": "6851",
      "attributes": {
        "nomor_pb_umku": "912030676149900010001",
        "nama": "IBS ONLINE",
        "website": "-",
        "sektor": "Sektor Teknologi Informasi dan Komunikasi",
        "nama_tampil_badan_hukum": "PT",
        "nama_perusahaan": "PT BANK PERKREDITAN RAKYAT SURYAJAYA UBUD",
        "tanggal_daftar": "2022-07-19",
        "tanggal_terbit": "2022-07-19",
        "nomor_tanda_daftar": "004998.01/DJAI.PSE/07/2022",
        "qr_code": "http://pse.kominfo.go.id/api/v1/jsonapi/tdpse-terbit/qr-code/6851",
        "status_id": "TERDAFTAR",
        "sistem_elektronik_id": "6702",
        "keterangan": "-",
        "lokalitas": "LOKAL"
      },
      "links": {
        "self": "http://pse.kominfo.go.id/api/v1/jsonapi/tdpse-terbit/6851"
      }
    },
    {
      "type": "tdpseTerbit",
      "id": "6850",
      "attributes": {
        "nomor_pb_umku": "812000289391400640041",
        "nama": "3DS CREDIT CARD-SECONDARY",
        "website": "-",
        "sektor": "Sektor Keuangan",
        "nama_tampil_badan_hukum": "PT",
        "nama_perusahaan": "PT BANK CENTRAL ASIA",
        "tanggal_daftar": "2022-07-19",
        "tanggal_terbit": "2022-07-19",
        "nomor_tanda_daftar": "001669.43/DJAI.PSE/07/2022",
        "qr_code": "http://pse.kominfo.go.id/api/v1/jsonapi/tdpse-terbit/qr-code/6850",
        "status_id": "TERDAFTAR",
        "sistem_elektronik_id": "6686",
        "keterangan": "-",
        "lokalitas": "LOKAL"
      },
      "links": {
        "self": "http://pse.kominfo.go.id/api/v1/jsonapi/tdpse-terbit/6850"
      }
    },
    {
      "type": "tdpseTerbit",
      "id": "6849",
      "attributes": {
        "nomor_pb_umku": "022010724056600000001",
        "nama": "LANGITPAYMENT",
        "website": "LANGITPAYMENT.COM",
        "sektor": "Sektor Perdagangan",
        "nama_tampil_badan_hukum": "PT",
        "nama_perusahaan": "PT LANGITPAY DIGITAL INDONESIA",
        "tanggal_daftar": "2022-07-19",
        "tanggal_terbit": "2022-07-19",
        "nomor_tanda_daftar": "005017.02/DJAI.PSE/07/2022",
        "qr_code": "http://pse.kominfo.go.id/api/v1/jsonapi/tdpse-terbit/qr-code/6849",
        "status_id": "TERDAFTAR",
        "sistem_elektronik_id": "6700",
        "keterangan": "-",
        "lokalitas": "LOKAL"
      },
      "links": {
        "self": "http://pse.kominfo.go.id/api/v1/jsonapi/tdpse-terbit/6849"
      }
    },
    {
      "type": "tdpseTerbit",
      "id": "6848",
      "attributes": {
        "nomor_pb_umku": "812010998167600110004",
        "nama": "SUSUNGAMBAR",
        "website": "susungambar.com",
        "sektor": "Sektor Teknologi Informasi dan Komunikasi",
        "nama_tampil_badan_hukum": "PT",
        "nama_perusahaan": "PT TRIYAKOM",
        "tanggal_daftar": "2022-07-19",
        "tanggal_terbit": "2022-07-19",
        "nomor_tanda_daftar": "004113.04/DJAI.PSE/07/2022",
        "qr_code": "http://pse.kominfo.go.id/api/v1/jsonapi/tdpse-terbit/qr-code/6848",
        "status_id": "TERDAFTAR",
        "sistem_elektronik_id": "6698",
        "keterangan": "-",
        "lokalitas": "LOKAL"
      },
      "links": {
        "self": "http://pse.kominfo.go.id/api/v1/jsonapi/tdpse-terbit/6848"
      }
    },
    {
      "type": "tdpseTerbit",
      "id": "6847",
      "attributes": {
        "nomor_pb_umku": "022000232295400000012",
        "nama": "HADI FAJAR",
        "website": "hadifajar.membercard.id",
        "sektor": "Sektor Perdagangan",
        "nama_tampil_badan_hukum": "CV",
        "nama_perusahaan": "CV MEMBERI BERKAT INDONESIA",
        "tanggal_daftar": "2022-07-19",
        "tanggal_terbit": "2022-07-19",
        "nomor_tanda_daftar": "004979.12/DJAI.PSE/07/2022",
        "qr_code": "http://pse.kominfo.go.id/api/v1/jsonapi/tdpse-terbit/qr-code/6847",
        "status_id": "TERDAFTAR",
        "sistem_elektronik_id": "6697",
        "keterangan": "-",
        "lokalitas": "LOKAL"
      },
      "links": {
        "self": "http://pse.kominfo.go.id/api/v1/jsonapi/tdpse-terbit/6847"
      }
    },
    {
      "type": "tdpseTerbit",
      "id": "6846",
      "attributes": {
        "nomor_pb_umku": "128200060279500010001",
        "nama": "INSUREKA!",
        "website": "insureka.com",
        "sektor": "Sektor Keuangan",
        "nama_tampil_badan_hukum": "PT",
        "nama_perusahaan": "PT MOTION TECH INDONESIA",
        "tanggal_daftar": "2022-07-19",
        "tanggal_terbit": "2022-07-19",
        "nomor_tanda_daftar": "004971.01/DJAI.PSE/07/2022",
        "qr_code": "http://pse.kominfo.go.id/api/v1/jsonapi/tdpse-terbit/qr-code/6846",
        "status_id": "TERDAFTAR",
        "sistem_elektronik_id": "6680",
        "keterangan": "-",
        "lokalitas": "LOKAL"
      },
      "links": {
        "self": "http://pse.kominfo.go.id/api/v1/jsonapi/tdpse-terbit/6846"
      }
    }
  ]
}