{
  "meta": {
    "page": {
      "currentPage": 180,
      "from": 1791,
      "lastPage": 1059,
      "perPage": 10,
      "to": 1800,
      "total": 10586
    }
  },
  "data": [
    {
      "type": "tdpseTerbit",
      "id": 9882,
      "attributes": {
        "nomor_pb_umku": "812011729173300000001",
        "nama": "BOSNET PLATFORM",
        "website": "-",
        "sektor": "Sektor Perdagangan, Sektor Teknologi Informasi dan Komunikasi",
        "nama_perusahaan": "BOSNET DISTRIBUTION INDONESIA",
        "tanggal_daftar": "2022-08-04",
        "nomor_tanda_daftar": "006136.01/DJAI.PSE/08/2022",
        "qr_code": "https://pse.kominfo.go.id/storage/images/qr_code/138e01a60b7e497659d58d3d8e8b5c5f.png",
        "status_id": "TERDAFTAR",
        "sistem_elektronik_id": 9768
      }
    },
    {
      "type": "tdpseTerbit",
      "id": 8783,
      "attributes": {
        "nomor_pb_umku": "912030081350900010001",
        "nama": "PT. BPR LEXI PRATAMA MANDIRI",
        "website": "bprlpm.co.id",
        "sektor": "Sektor Keuangan",
        "nama_perusahaan": "BANK PERKREDITAN RAKYAT LEXI PRATAMA MANDIRI",
        "tanggal_daftar": "2022-07-22",
        "nomor_tanda_daftar": "006135.01/DJAI.PSE/07/2022",
        "qr_code": "https://pse.kominfo.go.id/storage/images/qr_code/5df0356ba57e38b35b53c736a83743de.png",
        "status_id": "TERDAFTAR",
        "sistem_elektronik_id": 8701
      }
    },
    {
      "type": "tdpseTerbit",
      "id": 8797,
      "attributes": {
        "nomor_pb_umku": "220722002502800000002",
        "nama": "MAXIM",
        "website": "-",
        "sektor": "Sektor Perdagangan, Sektor Teknologi Informasi dan Komunikasi",
        "nama_perusahaan": "SOLUSI PERDANA PENGANTARAN",
        "tanggal_daftar": "2022-07-22",
        "nomor_tanda_daftar": "006134.02/DJAI.PSE/07/2022",
        "qr_code": "https://pse.kominfo.go.id/storage/images/qr_code/51a849abf0a9ee2a5f6df0dae36740f4.png",
        "status_id": "TERDAFTAR",
        "sistem_elektronik_id": 8714
      }
    },
    {
      "type": "tdpseTerbit",
      "id": 8793,
      "attributes": {
        "nomor_pb_umku": "220722002502800000001",
        "nama": "MAXIM DELIVERY",
        "website": "taximaxim.com",
        "sektor": "Sektor Teknologi Informasi dan Komunikasi",
        "nama_perusahaan": "SOLUSI PERDANA PENGANTARAN",
        "tanggal_daftar": "2022-07-22",
        "nomor_tanda_daftar": "006134.01/DJAI.PSE/07/2022",
        "qr_code": "https://pse.kominfo.go.id/storage/images/qr_code/a403b64447368a4145e295c7adbc679c.png",
        "status_id": "TERDAFTAR",
        "sistem_elektronik_id": 8710
      }
    },
    {
      "type": "tdpseTerbit",
      "id": 8804,
      "attributes": {
        "nomor_pb_umku": "100522004659200020001",
        "nama": "BUKULAKU",
        "website": "bukulaku.id",
        "sektor": "Sektor Teknologi Informasi dan Komunikasi",
        "nama_perusahaan": "KMO INDONESIA",
        "tanggal_daftar": "2022-07-22",
        "nomor_tanda_daftar": "006133.01/DJAI.PSE/07/2022",
        "qr_code": "https://pse.kominfo.go.id/storage/images/qr_code/79cf3c2b99bcb19ebdbf054feb609dcf.png",
        "status_id": "TERDAFTAR",
        "sistem_elektronik_id": 8721
      }
    },
    {
      "type": "tdpseTerbit",
      "id": 8781,
      "attributes": {
        "nomor_pb_umku": "812030488051100040004",
        "nama": "TRADEPROFX",
        "website": "-",
        "sektor": "Sektor Perdagangan, Sektor Keuangan",
        "nama_perusahaan": "BESTPROFIT FUTURES",
        "tanggal_daftar": "2022-07-22",
        "nomor_tanda_daftar": "006132.04/DJAI.PSE/07/2022",
        "qr_code": "https://pse.kominfo.go.id/storage/images/qr_code/133564b58c9e0fe7c162bcef5ea7f4c5.png",
        "status_id": "TERDAFTAR",
        "sistem_elektronik_id": 8699
      }
    },
    {
      "type": "tdpseTerbit",
      "id": 8779,
      "attributes": {
        "nomor_pb_umku": "812030488051100040003",
        "nama": "PORTAL NEWS",
        "website": "bpfnews.com",
        "sektor": "Sektor Perdagangan, Sektor Keuangan",
        "nama_perusahaan": "BESTPROFIT FUTURES",
        "tanggal_daftar": "2022-07-22",
        "nomor_tanda_daftar": "006132.03/DJAI.PSE/07/2022",
        "qr_code": "https://pse.kominfo.go.id/storage/images/qr_code/e8d1a2a81d2ac78f8aaababbe263cbd4.png",
        "status_id": "TERDAFTAR",
        "sistem_elektronik_id": 8698
      }
    },
    {
      "type": "tdpseTerbit",
      "id": 8776,
      "attributes": {
        "nomor_pb_umku": "812030488051100040002",
        "nama": "OFFICIAL WEBSITE",
        "website": "bestprofit-futures.co.id",
        "sektor": "Sektor Perdagangan, Sektor Keuangan",
        "nama_perusahaan": "BESTPROFIT FUTURES",
        "tanggal_daftar": "2022-07-22",
        "nomor_tanda_daftar": "006132.02/DJAI.PSE/07/2022",
        "qr_code": "https://pse.kominfo.go.id/storage/images/qr_code/ce2e39a52528faee20ebb9ee4b53a43d.png",
        "status_id": "TERDAFTAR",
        "sistem_elektronik_id": 8693
      }
    },
    {
      "type": "tdpseTerbit",
      "id": 8766,
      "attributes": {
        "nomor_pb_umku": "812030488051100040001",
        "nama": "REGOLBPF",
        "website": "regol.bestprofit-futures.co.id",
        "sektor": "Sektor Perdagangan, Sektor Keuangan",
        "nama_perusahaan": "BESTPROFIT FUTURES",
        "tanggal_daftar": "2022-07-22",
        "nomor_tanda_daftar": "006132.01/DJAI.PSE/07/2022",
        "qr_code": "https://pse.kominfo.go.id/storage/images/qr_code/fd8eaf43a5b38dc27c85ca4155b8bdff.png",
        "status_id": "TERDAFTAR",
        "sistem_elektronik_id": 8683
      }
    },
    {
      "type": "tdpseTerbit",
      "id": 9130,
      "attributes": {
        "nomor_pb_umku": "022010659132800000002",
        "nama": "BIOSKOP ONLINE",
        "website": "bioskoponline.com",
        "sektor": "Sektor Teknologi Informasi dan Komunikasi",
        "nama_perusahaan": "BIOSKOP DIGITAL INDONESIA",
        "tanggal_daftar": "2022-07-27",
        "nomor_tanda_daftar": "006128.01/DJAI.PSE/07/2022",
        "qr_code": "https://pse.kominfo.go.id/storage/images/qr_code/cea8f13a936d4ab9473b7d64187de402.png",
        "status_id": "TERDAFTAR",
        "sistem_elektronik_id": 9038
      }
    }
  ]
}