{
  "meta": {
    "page": {
      "currentPage": 19,
      "from": 181,
      "lastPage": 1111,
      "perPage": 10,
      "to": 190,
      "total": 11105
    }
  },
  "data": [
    {
      "type": "tdpseTerbit",
      "id": 12410,
      "attributes": {
        "nomor_pb_umku": "912031221055800010003",
        "nama": "REDBOX DIGITAL HOSTING",
        "website": "redboxdigital.id",
        "sektor": "Sektor Teknologi Informasi dan Komunikasi",
        "nama_perusahaan": "MISSI IDEA SELARAS",
        "tanggal_daftar": "2022-11-21",
        "nomor_tanda_daftar": "008341.03/DJAI.PSE/11/2022",
        "qr_code": "https://pse.kominfo.go.id/storage/images/qr_code/73f12c074157933699e3c44688894dc2.png",
        "status_id": "TERDAFTAR",
        "sistem_elektronik_id": 12201
      }
    },
    {
      "type": "tdpseTerbit",
      "id": 12409,
      "attributes": {
        "nomor_pb_umku": "912031221055800010002",
        "nama": "REDBOX DIGITAL",
        "website": "redboxdigital.id",
        "sektor": "Sektor Teknologi Informasi dan Komunikasi",
        "nama_perusahaan": "MISSI IDEA SELARAS",
        "tanggal_daftar": "2022-11-21",
        "nomor_tanda_daftar": "008341.02/DJAI.PSE/11/2022",
        "qr_code": "https://pse.kominfo.go.id/storage/images/qr_code/a7817859d3a1692682fa04a1f452de2f.png",
        "status_id": "TERDAFTAR",
        "sistem_elektronik_id": 12200
      }
    },
    {
      "type": "tdpseTerbit",
      "id": 12405,
      "attributes": {
        "nomor_pb_umku": "912031221055800010001",
        "nama": "TEYAN",
        "website": "-",
        "sektor": "Sektor Teknologi Informasi dan Komunikasi",
        "nama_perusahaan": "MISSI IDEA SELARAS",
        "tanggal_daftar": "2022-11-21",
        "nomor_tanda_daftar": "008341.01/DJAI.PSE/11/2022",
        "qr_code": "https://pse.kominfo.go.id/storage/images/qr_code/3e453533f3a2e5c58995c5708efe1f77.png",
        "status_id": "TERDAFTAR",
        "sistem_elektronik_id": 12195
      }
    },
    {
      "type": "tdpseTerbit",
      "id": 12103,
      "attributes": {
        "nomor_pb_umku": "812001223226600740001",
        "nama": "KSPPS NUSA UMMAT SEJAHTERA",
        "website": "ksppsnus.com",
        "sektor": "Sektor Keuangan",
        "nama_perusahaan": "DAN PEMBIAYAAN SYARIAH NUSA UMMAT SEJAHTERA",
        "tanggal_daftar": "2022-11-03",
        "nomor_tanda_daftar": "008340.01/DJAI.PSE/11/2022",
        "qr_code": "https://pse.kominfo.go.id/storage/images/qr_code/b48507e2851fc6f642ab20c7b33fd313.png",
        "status_id": "TERDAFTAR",
        "sistem_elektronik_id": 11898
      }
    },
    {
      "type": "tdpseTerbit",
      "id": 12083,
      "attributes": {
        "nomor_pb_umku": "201022002194700030001",
        "nama": "EXPENSE MANAGEMENT SYSTEM (EMS)",
        "website": "-",
        "sektor": "Sektor Teknologi Informasi dan Komunikasi",
        "nama_perusahaan": "APLIKASI LINTAS BANGSA",
        "tanggal_daftar": "2022-11-02",
        "nomor_tanda_daftar": "008339.01/DJAI.PSE/11/2022",
        "qr_code": "https://pse.kominfo.go.id/storage/images/qr_code/d59ea102d02825a37bf62783dd601503.png",
        "status_id": "TERDAFTAR",
        "sistem_elektronik_id": 11888
      }
    },
    {
      "type": "tdpseTerbit",
      "id": 12082,
      "attributes": {
        "nomor_pb_umku": "261022009768400020001",
        "nama": "TERNAK UANG",
        "website": "ternakuang.id",
        "sektor": "Sektor Teknologi Informasi dan Komunikasi",
        "nama_perusahaan": "TERNAK UANG INDONESIA",
        "tanggal_daftar": "2022-11-02",
        "nomor_tanda_daftar": "008338.01/DJAI.PSE/11/2022",
        "qr_code": "https://pse.kominfo.go.id/storage/images/qr_code/4e00722898bf991dcd391987ff71c402.png",
        "status_id": "TERDAFTAR",
        "sistem_elektronik_id": 11886
      }
    },
    {
      "type": "tdpseTerbit",
      "id": 12430,
      "attributes": {
        "nomor_pb_umku": "812011916196600020001",
        "nama": "PROBAN MEMBER",
        "website": "-",
        "sektor": "Sektor Perdagangan",
        "nama_perusahaan": "PROBAN OSTBURG TRISAKTI",
        "tanggal_daftar": "2022-11-22",
        "nomor_tanda_daftar": "008337.01/DJAI.PSE/11/2022",
        "qr_code": "https://pse.kominfo.go.id/storage/images/qr_code/7eb3011066b31706ea3c8b36a47519ef.png",
        "status_id": "TERDAFTAR",
        "sistem_elektronik_id": 12224
      }
    },
    {
      "type": "tdpseTerbit",
      "id": 12106,
      "attributes": {
        "nomor_pb_umku": "812001424228200000001",
        "nama": "GIORDANO INDONESIA",
        "website": "giordano.com",
        "sektor": "Sektor Perdagangan",
        "nama_perusahaan": "GIORDANO INDONESIA",
        "tanggal_daftar": "2022-11-03",
        "nomor_tanda_daftar": "008336.01/DJAI.PSE/11/2022",
        "qr_code": "https://pse.kominfo.go.id/storage/images/qr_code/157caa9ce8db0fd702638e9af64bb33b.png",
        "status_id": "TERDAFTAR",
        "sistem_elektronik_id": 11901
      }
    },
    {
      "type": "tdpseTerbit",
      "id": 12100,
      "attributes": {
        "nomor_pb_umku": "300922000311500010001",
        "nama": "MTWO BY RIB SOFTWARE",
        "website": "rib-software.com",
        "sektor": "Sektor Teknologi Informasi dan Komunikasi",
        "nama_perusahaan": "RIB INDONESIA SOFTWARE",
        "tanggal_daftar": "2022-11-02",
        "nomor_tanda_daftar": "008335.01/DJAI.PSE/11/2022",
        "qr_code": "https://pse.kominfo.go.id/storage/images/qr_code/8a4570a6430d8e07651f3b5e09991421.png",
        "status_id": "TERDAFTAR",
        "sistem_elektronik_id": 11894
      }
    },
    {
      "type": "tdpseTerbit",
      "id": 12079,
      "attributes": {
        "nomor_pb_umku": "050922014992400000001",
        "nama": "ONEPULSA",
        "website": "onepulsa.com",
        "sektor": "Sektor Teknologi Informasi dan Komunikasi",
        "nama_perusahaan": "LINGGAU DIGITAL MARKET",
        "tanggal_daftar": "2022-11-01",
        "nomor_tanda_daftar": "008333.01/DJAI.PSE/11/2022",
        "qr_code": "https://pse.kominfo.go.id/storage/images/qr_code/8e783c5ef8a5fd09ae572881de780248.png",
        "status_id": "TERDAFTAR",
        "sistem_elektronik_id": 11883
      }
    }
  ]
}