{
  "meta": {
    "page": {
      "currentPage": 20,
      "from": 191,
      "lastPage": 1113,
      "perPage": 10,
      "to": 200,
      "total": 11124
    }
  },
  "data": [
    {
      "type": "tdpseTerbit",
      "id": 12107,
      "attributes": {
        "nomor_pb_umku": "220322005799200030001",
        "nama": "PLATFORM JASA PERMAINAN STRATEGI SEPAK BOLA",
        "website": "garudaeleven.com",
        "sektor": "Sektor Teknologi Informasi dan Komunikasi",
        "nama_perusahaan": "ROYAL GARUDA META SEMESTA",
        "tanggal_daftar": "2022-11-03",
        "nomor_tanda_daftar": "008347.01/DJAI.PSE/11/2022",
        "qr_code": "https://pse.kominfo.go.id/storage/images/qr_code/70cce05bb2d5e2152588d27886885749.png",
        "status_id": "TERDAFTAR",
        "sistem_elektronik_id": 11902
      }
    },
    {
      "type": "tdpseTerbit",
      "id": 12105,
      "attributes": {
        "nomor_pb_umku": "210422002589300030001",
        "nama": "1EXPORT",
        "website": "1export.com",
        "sektor": "Sektor Perdagangan",
        "nama_perusahaan": "SATU EKSPOR INDONESIA",
        "tanggal_daftar": "2022-11-03",
        "nomor_tanda_daftar": "008346.01/DJAI.PSE/11/2022",
        "qr_code": "https://pse.kominfo.go.id/storage/images/qr_code/c9f7daa77b0a9675069af92b9fc73085.png",
        "status_id": "TERDAFTAR",
        "sistem_elektronik_id": 11900
      }
    },
    {
      "type": "tdpseTerbit",
      "id": 12108,
      "attributes": {
        "nomor_pb_umku": "123900545242500010001",
        "nama": "MAKE WEB EASY",
        "website": "makewebeasy.com",
        "sektor": "Sektor Teknologi Informasi dan Komunikasi",
        "nama_perusahaan": "KLIK DIGITAL NUSANTARA",
        "tanggal_daftar": "2022-11-03",
        "nomor_tanda_daftar": "008345.01/DJAI.PSE/11/2022",
        "qr_code": "https://pse.kominfo.go.id/storage/images/qr_code/2d08eea3e6c1666674ab6692639ea5f5.png",
        "status_id": "TERDAFTAR",
        "sistem_elektronik_id": 11897
      }
    },
    {
      "type": "tdpseTerbit",
      "id": 12102,
      "attributes": {
        "nomor_pb_umku": "027401022117400090002",
        "nama": "PAMANDIRI APPS",
        "website": "apps.pamandiri.com",
        "sektor": "Sektor Perdagangan, Sektor Keuangan",
        "nama_perusahaan": "PAMANDIRI",
        "tanggal_daftar": "2022-11-03",
        "nomor_tanda_daftar": "008344.02/DJAI.PSE/11/2022",
        "qr_code": "https://pse.kominfo.go.id/storage/images/qr_code/31641ac614725094fa805ef3dbe10c26.png",
        "status_id": "TERDAFTAR",
        "sistem_elektronik_id": 11896
      }
    },
    {
      "type": "tdpseTerbit",
      "id": 12101,
      "attributes": {
        "nomor_pb_umku": "027401022117400090001",
        "nama": "PAMANDIRI MOBILE",
        "website": "pamandiri.com",
        "sektor": "Sektor Perdagangan, Sektor Keuangan",
        "nama_perusahaan": "PAMANDIRI",
        "tanggal_daftar": "2022-11-03",
        "nomor_tanda_daftar": "008344.01/DJAI.PSE/11/2022",
        "qr_code": "https://pse.kominfo.go.id/storage/images/qr_code/9d02b2bbdfd3fa0e7c4acbaa6434f829.png",
        "status_id": "TERDAFTAR",
        "sistem_elektronik_id": 11895
      }
    },
    {
      "type": "tdpseTerbit",
      "id": 12296,
      "attributes": {
        "nomor_pb_umku": "120400054110200020001",
        "nama": "IDEXPRESS LOGISTIK INDONESIA",
        "website": "idexpress.com",
        "sektor": "Sektor Perdagangan",
        "nama_perusahaan": "IDEXPRESS LOGISTIK INDONESIA",
        "tanggal_daftar": "2022-11-15",
        "nomor_tanda_daftar": "008342.02/DJAI.PSE/11/2022",
        "qr_code": "https://pse.kominfo.go.id/storage/images/qr_code/54dbd2bbb2e5e906ead927c8f882628c.png",
        "status_id": "TERDAFTAR",
        "sistem_elektronik_id": 12090
      }
    },
    {
      "type": "tdpseTerbit",
      "id": 12410,
      "attributes": {
        "nomor_pb_umku": "912031221055800010003",
        "nama": "REDBOX DIGITAL HOSTING",
        "website": "redboxdigital.id",
        "sektor": "Sektor Teknologi Informasi dan Komunikasi",
        "nama_perusahaan": "MISSI IDEA SELARAS",
        "tanggal_daftar": "2022-11-21",
        "nomor_tanda_daftar": "008341.03/DJAI.PSE/11/2022",
        "qr_code": "https://pse.kominfo.go.id/storage/images/qr_code/73f12c074157933699e3c44688894dc2.png",
        "status_id": "TERDAFTAR",
        "sistem_elektronik_id": 12201
      }
    },
    {
      "type": "tdpseTerbit",
      "id": 12409,
      "attributes": {
        "nomor_pb_umku": "912031221055800010002",
        "nama": "REDBOX DIGITAL",
        "website": "redboxdigital.id",
        "sektor": "Sektor Teknologi Informasi dan Komunikasi",
        "nama_perusahaan": "MISSI IDEA SELARAS",
        "tanggal_daftar": "2022-11-21",
        "nomor_tanda_daftar": "008341.02/DJAI.PSE/11/2022",
        "qr_code": "https://pse.kominfo.go.id/storage/images/qr_code/a7817859d3a1692682fa04a1f452de2f.png",
        "status_id": "TERDAFTAR",
        "sistem_elektronik_id": 12200
      }
    },
    {
      "type": "tdpseTerbit",
      "id": 12405,
      "attributes": {
        "nomor_pb_umku": "912031221055800010001",
        "nama": "TEYAN",
        "website": "-",
        "sektor": "Sektor Teknologi Informasi dan Komunikasi",
        "nama_perusahaan": "MISSI IDEA SELARAS",
        "tanggal_daftar": "2022-11-21",
        "nomor_tanda_daftar": "008341.01/DJAI.PSE/11/2022",
        "qr_code": "https://pse.kominfo.go.id/storage/images/qr_code/3e453533f3a2e5c58995c5708efe1f77.png",
        "status_id": "TERDAFTAR",
        "sistem_elektronik_id": 12195
      }
    },
    {
      "type": "tdpseTerbit",
      "id": 12103,
      "attributes": {
        "nomor_pb_umku": "812001223226600740001",
        "nama": "KSPPS NUSA UMMAT SEJAHTERA",
        "website": "ksppsnus.com",
        "sektor": "Sektor Keuangan",
        "nama_perusahaan": "DAN PEMBIAYAAN SYARIAH NUSA UMMAT SEJAHTERA",
        "tanggal_daftar": "2022-11-03",
        "nomor_tanda_daftar": "008340.01/DJAI.PSE/11/2022",
        "qr_code": "https://pse.kominfo.go.id/storage/images/qr_code/b48507e2851fc6f642ab20c7b33fd313.png",
        "status_id": "TERDAFTAR",
        "sistem_elektronik_id": 11898
      }
    }
  ]
}