{
  "meta": {
    "page": {
      "currentPage": 192,
      "from": 1911,
      "lastPage": 816,
      "perPage": 10,
      "to": 1920,
      "total": 8153
    }
  },
  "jsonapi": {
    "version": "1.0"
  },
  "links": {
    "first": "http://pse.kominfo.go.id/api/v1/jsonapi/tdpse-terbit?page%5Blimit%5D=10&page%5Bpage%5D=1",
    "last": "http://pse.kominfo.go.id/api/v1/jsonapi/tdpse-terbit?page%5Blimit%5D=10&page%5Bpage%5D=816",
    "next": "http://pse.kominfo.go.id/api/v1/jsonapi/tdpse-terbit?page%5Blimit%5D=10&page%5Bpage%5D=193",
    "prev": "http://pse.kominfo.go.id/api/v1/jsonapi/tdpse-terbit?page%5Blimit%5D=10&page%5Bpage%5D=191"
  },
  "data": [
    {
      "type": "tdpseTerbit",
      "id": "6689",
      "attributes": {
        "nomor_pb_umku": "812001816045400090003",
        "nama": "LESTARIMOBILE",
        "website": "-",
        "sektor": "Sektor Keuangan",
        "nama_tampil_badan_hukum": "PT",
        "nama_perusahaan": "PT BANK PERKREDITAN RAKYAT LESTARI BALI",
        "tanggal_daftar": "2022-07-19",
        "tanggal_terbit": "2022-07-19",
        "nomor_tanda_daftar": "004092.03/DJAI.PSE/07/2022",
        "qr_code": "http://pse.kominfo.go.id/api/v1/jsonapi/tdpse-terbit/qr-code/6689",
        "status_id": "TERDAFTAR",
        "sistem_elektronik_id": "6541",
        "keterangan": "-",
        "lokalitas": "LOKAL"
      },
      "links": {
        "self": "http://pse.kominfo.go.id/api/v1/jsonapi/tdpse-terbit/6689"
      }
    },
    {
      "type": "tdpseTerbit",
      "id": "6688",
      "attributes": {
        "nomor_pb_umku": "022020521178700000002",
        "nama": "I.SAKU",
        "website": "i-saku.com",
        "sektor": "Sektor Keuangan",
        "nama_tampil_badan_hukum": "PT",
        "nama_perusahaan": "PT INTI DUNIA SUKSES",
        "tanggal_daftar": "2022-07-19",
        "tanggal_terbit": "2022-07-19",
        "nomor_tanda_daftar": "004846.01/DJAI.PSE/07/2022",
        "qr_code": "http://pse.kominfo.go.id/api/v1/jsonapi/tdpse-terbit/qr-code/6688",
        "status_id": "TERDAFTAR",
        "sistem_elektronik_id": "6539",
        "keterangan": "-",
        "lokalitas": "LOKAL"
      },
      "links": {
        "self": "http://pse.kominfo.go.id/api/v1/jsonapi/tdpse-terbit/6688"
      }
    },
    {
      "type": "tdpseTerbit",
      "id": "6687",
      "attributes": {
        "nomor_pb_umku": "912020872264400010001",
        "nama": "PT BANK PERKREDITAN RAKYAT PAGARUYUNG",
        "website": "bprpagaruyung.com",
        "sektor": "Sektor Keuangan",
        "nama_tampil_badan_hukum": "PT",
        "nama_perusahaan": "PT BANK PERKREDITAN RAKYAT PAGARUYUNG",
        "tanggal_daftar": "2022-07-19",
        "tanggal_terbit": "2022-07-19",
        "nomor_tanda_daftar": "004906.01/DJAI.PSE/07/2022",
        "qr_code": "http://pse.kominfo.go.id/api/v1/jsonapi/tdpse-terbit/qr-code/6687",
        "status_id": "TERDAFTAR",
        "sistem_elektronik_id": "6533",
        "keterangan": "-",
        "lokalitas": "LOKAL"
      },
      "links": {
        "self": "http://pse.kominfo.go.id/api/v1/jsonapi/tdpse-terbit/6687"
      }
    },
    {
      "type": "tdpseTerbit",
      "id": "6686",
      "attributes": {
        "nomor_pb_umku": "023201020136400000001",
        "nama": "OMEGATAMA COMPUTER",
        "website": "omegatama.com",
        "sektor": "Sektor Perdagangan, Sektor Teknologi Informasi dan Komunikasi",
        "nama_tampil_badan_hukum": "CV",
        "nama_perusahaan": "CV ORBIT MEGAH PRATAMA",
        "tanggal_daftar": "2022-07-19",
        "tanggal_terbit": "2022-07-19",
        "nomor_tanda_daftar": "004848.01/DJAI.PSE/07/2022",
        "qr_code": "http://pse.kominfo.go.id/api/v1/jsonapi/tdpse-terbit/qr-code/6686",
        "status_id": "TERDAFTAR",
        "sistem_elektronik_id": "6538",
        "keterangan": "-",
        "lokalitas": "LOKAL"
      },
      "links": {
        "self": "http://pse.kominfo.go.id/api/v1/jsonapi/tdpse-terbit/6686"
      }
    },
    {
      "type": "tdpseTerbit",
      "id": "6685",
      "attributes": {
        "nomor_pb_umku": "912000977320100010001",
        "nama": "ISLAMIC BANKING APLICATION",
        "website": "bankmausyariah.co.id",
        "sektor": "Sektor Keuangan",
        "nama_tampil_badan_hukum": "PT",
        "nama_perusahaan": "PT BANK PEMBIAYAAN RAKYAT SYARIAH MITRA AGRO USAHA",
        "tanggal_daftar": "2022-07-19",
        "tanggal_terbit": "2022-07-19",
        "nomor_tanda_daftar": "004858.01/DJAI.PSE/07/2022",
        "qr_code": "http://pse.kominfo.go.id/api/v1/jsonapi/tdpse-terbit/qr-code/6685",
        "status_id": "TERDAFTAR",
        "sistem_elektronik_id": "6535",
        "keterangan": "-",
        "lokalitas": "LOKAL"
      },
      "links": {
        "self": "http://pse.kominfo.go.id/api/v1/jsonapi/tdpse-terbit/6685"
      }
    },
    {
      "type": "tdpseTerbit",
      "id": "6682",
      "attributes": {
        "nomor_pb_umku": "190722000633100000001",
        "nama": "CANDRA MEDIA  RELOAD",
        "website": "candramediareload.com",
        "sektor": "Sektor Perdagangan",
        "nama_tampil_badan_hukum": "",
        "nama_perusahaan": "I Wayan Candra Yasa",
        "tanggal_daftar": "2022-07-19",
        "tanggal_terbit": "2022-07-19",
        "nomor_tanda_daftar": "004875.01/DJAI.PSE/07/2022",
        "qr_code": "http://pse.kominfo.go.id/api/v1/jsonapi/tdpse-terbit/qr-code/6682",
        "status_id": "TERDAFTAR",
        "sistem_elektronik_id": "6534",
        "keterangan": "-",
        "lokalitas": "LOKAL"
      },
      "links": {
        "self": "http://pse.kominfo.go.id/api/v1/jsonapi/tdpse-terbit/6682"
      }
    },
    {
      "type": "tdpseTerbit",
      "id": "6680",
      "attributes": {
        "nomor_pb_umku": "912010214198600160002",
        "nama": "BANK SYARIAH INDONESIA THRU ACCOUNT (BSI THRU ACCOUNT)",
        "website": "vaportal.bankbsi.co.id",
        "sektor": "Sektor Keuangan",
        "nama_tampil_badan_hukum": "PT",
        "nama_perusahaan": "PT BANK SYARIAH INDONESIA",
        "tanggal_daftar": "2022-07-19",
        "tanggal_terbit": "2022-07-19",
        "nomor_tanda_daftar": "000863.09/DJAI.PSE/07/2022",
        "qr_code": "http://pse.kominfo.go.id/api/v1/jsonapi/tdpse-terbit/qr-code/6680",
        "status_id": "TERDAFTAR",
        "sistem_elektronik_id": "6531",
        "keterangan": "-",
        "lokalitas": "LOKAL"
      },
      "links": {
        "self": "http://pse.kominfo.go.id/api/v1/jsonapi/tdpse-terbit/6680"
      }
    },
    {
      "type": "tdpseTerbit",
      "id": "6679",
      "attributes": {
        "nomor_pb_umku": "090422000888200020001",
        "nama": "ISLAMIC BANKING APLICATION",
        "website": "-",
        "sektor": "Sektor Keuangan",
        "nama_tampil_badan_hukum": "PT",
        "nama_perusahaan": "PT BANK PEMBIAYAAN RAKYAT SYARIAH GAIDO INDONESIA",
        "tanggal_daftar": "2022-07-19",
        "tanggal_terbit": "2022-07-19",
        "nomor_tanda_daftar": "004855.03/DJAI.PSE/07/2022",
        "qr_code": "http://pse.kominfo.go.id/api/v1/jsonapi/tdpse-terbit/qr-code/6679",
        "status_id": "TERDAFTAR",
        "sistem_elektronik_id": "6530",
        "keterangan": "-",
        "lokalitas": "LOKAL"
      },
      "links": {
        "self": "http://pse.kominfo.go.id/api/v1/jsonapi/tdpse-terbit/6679"
      }
    },
    {
      "type": "tdpseTerbit",
      "id": "6678",
      "attributes": {
        "nomor_pb_umku": "220222005277800010001",
        "nama": "VPN TELKOMSEL",
        "website": "bprkintamaniperdana.com",
        "sektor": "Sektor Keuangan",
        "nama_tampil_badan_hukum": "PT",
        "nama_perusahaan": "PT BANK PERKREDITAN RAKYAT KINTAMANI PERDANA",
        "tanggal_daftar": "2022-07-19",
        "tanggal_terbit": "2022-07-19",
        "nomor_tanda_daftar": "004679.01/DJAI.PSE/07/2022",
        "qr_code": "http://pse.kominfo.go.id/api/v1/jsonapi/tdpse-terbit/qr-code/6678",
        "status_id": "TERDAFTAR",
        "sistem_elektronik_id": "6529",
        "keterangan": "-",
        "lokalitas": "LOKAL"
      },
      "links": {
        "self": "http://pse.kominfo.go.id/api/v1/jsonapi/tdpse-terbit/6678"
      }
    },
    {
      "type": "tdpseTerbit",
      "id": "6676",
      "attributes": {
        "nomor_pb_umku": "022010534137500000002",
        "nama": "DARMAWANGSA WEBSITE",
        "website": "ivaro.co.id",
        "sektor": "Sektor Perdagangan",
        "nama_tampil_badan_hukum": "PT",
        "nama_perusahaan": "PT DARMAWANGSA SURYA",
        "tanggal_daftar": "2022-07-19",
        "tanggal_terbit": "2022-07-19",
        "nomor_tanda_daftar": "004891.01/DJAI.PSE/07/2022",
        "qr_code": "http://pse.kominfo.go.id/api/v1/jsonapi/tdpse-terbit/qr-code/6676",
        "status_id": "TERDAFTAR",
        "sistem_elektronik_id": "6528",
        "keterangan": "-",
        "lokalitas": "LOKAL"
      },
      "links": {
        "self": "http://pse.kominfo.go.id/api/v1/jsonapi/tdpse-terbit/6676"
      }
    }
  ]
}