{
  "meta": {
    "page": {
      "currentPage": 199,
      "from": 1981,
      "lastPage": 816,
      "perPage": 10,
      "to": 1990,
      "total": 8153
    }
  },
  "jsonapi": {
    "version": "1.0"
  },
  "links": {
    "first": "http://pse.kominfo.go.id/api/v1/jsonapi/tdpse-terbit?page%5Blimit%5D=10&page%5Bpage%5D=1",
    "last": "http://pse.kominfo.go.id/api/v1/jsonapi/tdpse-terbit?page%5Blimit%5D=10&page%5Bpage%5D=816",
    "next": "http://pse.kominfo.go.id/api/v1/jsonapi/tdpse-terbit?page%5Blimit%5D=10&page%5Bpage%5D=200",
    "prev": "http://pse.kominfo.go.id/api/v1/jsonapi/tdpse-terbit?page%5Blimit%5D=10&page%5Bpage%5D=198"
  },
  "data": [
    {
      "type": "tdpseTerbit",
      "id": "6607",
      "attributes": {
        "nomor_pb_umku": "912010124008500000001",
        "nama": "PRESTISA E-COMMERCE",
        "website": "prestisa.com",
        "sektor": "Sektor Perdagangan",
        "nama_tampil_badan_hukum": "PT",
        "nama_perusahaan": "PT KAYA RAYA TURUN TEMURUN",
        "tanggal_daftar": "2022-07-19",
        "tanggal_terbit": "2022-07-19",
        "nomor_tanda_daftar": "004842.01/DJAI.PSE/07/2022",
        "qr_code": "http://pse.kominfo.go.id/api/v1/jsonapi/tdpse-terbit/qr-code/6607",
        "status_id": "TERDAFTAR",
        "sistem_elektronik_id": "6464",
        "keterangan": "-",
        "lokalitas": "LOKAL"
      },
      "links": {
        "self": "http://pse.kominfo.go.id/api/v1/jsonapi/tdpse-terbit/6607"
      }
    },
    {
      "type": "tdpseTerbit",
      "id": "6606",
      "attributes": {
        "nomor_pb_umku": "912031707092200010016",
        "nama": "API PARTNER BANK RAYA",
        "website": "api.bankraya.co.id",
        "sektor": "Sektor Keuangan",
        "nama_tampil_badan_hukum": "PT",
        "nama_perusahaan": "PT BANK RAYA INDONESIA",
        "tanggal_daftar": "2022-07-19",
        "tanggal_terbit": "2022-07-19",
        "nomor_tanda_daftar": "004288.16/DJAI.PSE/07/2022",
        "qr_code": "http://pse.kominfo.go.id/api/v1/jsonapi/tdpse-terbit/qr-code/6606",
        "status_id": "TERDAFTAR",
        "sistem_elektronik_id": "6463",
        "keterangan": "-",
        "lokalitas": "LOKAL"
      },
      "links": {
        "self": "http://pse.kominfo.go.id/api/v1/jsonapi/tdpse-terbit/6606"
      }
    },
    {
      "type": "tdpseTerbit",
      "id": "6605",
      "attributes": {
        "nomor_pb_umku": "180722006411900000001",
        "nama": "QUOTA MURMER",
        "website": "quotamurmer.com",
        "sektor": "Sektor Perdagangan",
        "nama_tampil_badan_hukum": "",
        "nama_perusahaan": "MOAMER KHADAFI",
        "tanggal_daftar": "2022-07-19",
        "tanggal_terbit": "2022-07-19",
        "nomor_tanda_daftar": "004741.01/DJAI.PSE/07/2022",
        "qr_code": "http://pse.kominfo.go.id/api/v1/jsonapi/tdpse-terbit/qr-code/6605",
        "status_id": "TERDAFTAR",
        "sistem_elektronik_id": "6462",
        "keterangan": "-",
        "lokalitas": "LOKAL"
      },
      "links": {
        "self": "http://pse.kominfo.go.id/api/v1/jsonapi/tdpse-terbit/6605"
      }
    },
    {
      "type": "tdpseTerbit",
      "id": "6604",
      "attributes": {
        "nomor_pb_umku": "020122000657900010001",
        "nama": "KEBIJAKAN.CO.ID",
        "website": "Kebijakan.co.id",
        "sektor": "Sektor Teknologi Informasi dan Komunikasi",
        "nama_tampil_badan_hukum": "",
        "nama_perusahaan": "KEBIJAKAN INDONESIA RAYA",
        "tanggal_daftar": "2022-07-19",
        "tanggal_terbit": "2022-07-19",
        "nomor_tanda_daftar": "004833.01/DJAI.PSE/07/2022",
        "qr_code": "http://pse.kominfo.go.id/api/v1/jsonapi/tdpse-terbit/qr-code/6604",
        "status_id": "TERDAFTAR",
        "sistem_elektronik_id": "6459",
        "keterangan": "-",
        "lokalitas": "LOKAL"
      },
      "links": {
        "self": "http://pse.kominfo.go.id/api/v1/jsonapi/tdpse-terbit/6604"
      }
    },
    {
      "type": "tdpseTerbit",
      "id": "6603",
      "attributes": {
        "nomor_pb_umku": "091121004191600000001",
        "nama": "BETTERCHOCOLATETHANNEVER",
        "website": "betterchocolatethannever.com",
        "sektor": "Sektor Perdagangan, Sektor Pangan",
        "nama_tampil_badan_hukum": "PT",
        "nama_perusahaan": "PT DELIMA SELARAS",
        "tanggal_daftar": "2022-07-19",
        "tanggal_terbit": "2022-07-19",
        "nomor_tanda_daftar": "004799.01/DJAI.PSE/07/2022",
        "qr_code": "http://pse.kominfo.go.id/api/v1/jsonapi/tdpse-terbit/qr-code/6603",
        "status_id": "TERDAFTAR",
        "sistem_elektronik_id": "6458",
        "keterangan": "-",
        "lokalitas": "LOKAL"
      },
      "links": {
        "self": "http://pse.kominfo.go.id/api/v1/jsonapi/tdpse-terbit/6603"
      }
    },
    {
      "type": "tdpseTerbit",
      "id": "6602",
      "attributes": {
        "nomor_pb_umku": "812000289391400640039",
        "nama": "WEBSITE REGISTRASI BYC",
        "website": "byc.bca.co.id",
        "sektor": "Sektor Keuangan",
        "nama_tampil_badan_hukum": "PT",
        "nama_perusahaan": "PT BANK CENTRAL ASIA",
        "tanggal_daftar": "2022-07-19",
        "tanggal_terbit": "2022-07-19",
        "nomor_tanda_daftar": "001669.41/DJAI.PSE/07/2022",
        "qr_code": "http://pse.kominfo.go.id/api/v1/jsonapi/tdpse-terbit/qr-code/6602",
        "status_id": "TERDAFTAR",
        "sistem_elektronik_id": "6455",
        "keterangan": "-",
        "lokalitas": "LOKAL"
      },
      "links": {
        "self": "http://pse.kominfo.go.id/api/v1/jsonapi/tdpse-terbit/6602"
      }
    },
    {
      "type": "tdpseTerbit",
      "id": "6601",
      "attributes": {
        "nomor_pb_umku": "190722000926600000001",
        "nama": "BAKHOEL ONLINE",
        "website": "-",
        "sektor": "Sektor Perdagangan",
        "nama_tampil_badan_hukum": "",
        "nama_perusahaan": "MUHAMMAD ISNAINI RACHMAN",
        "tanggal_daftar": "2022-07-19",
        "tanggal_terbit": "2022-07-19",
        "nomor_tanda_daftar": "004822.01/DJAI.PSE/07/2022",
        "qr_code": "http://pse.kominfo.go.id/api/v1/jsonapi/tdpse-terbit/qr-code/6601",
        "status_id": "TERDAFTAR",
        "sistem_elektronik_id": "6454",
        "keterangan": "-",
        "lokalitas": "LOKAL"
      },
      "links": {
        "self": "http://pse.kominfo.go.id/api/v1/jsonapi/tdpse-terbit/6601"
      }
    },
    {
      "type": "tdpseTerbit",
      "id": "6600",
      "attributes": {
        "nomor_pb_umku": "812021413136900060003",
        "nama": "ALTERNATE CBS",
        "website": "-",
        "sektor": "Sektor Teknologi Informasi dan Komunikasi",
        "nama_tampil_badan_hukum": "PT",
        "nama_perusahaan": "PT ANUGERAH LESTARI TEKNOKREASI",
        "tanggal_daftar": "2022-07-19",
        "tanggal_terbit": "2022-07-19",
        "nomor_tanda_daftar": "000679.03/DJAI.PSE/07/2022",
        "qr_code": "http://pse.kominfo.go.id/api/v1/jsonapi/tdpse-terbit/qr-code/6600",
        "status_id": "TERDAFTAR",
        "sistem_elektronik_id": "6457",
        "keterangan": "-",
        "lokalitas": "LOKAL"
      },
      "links": {
        "self": "http://pse.kominfo.go.id/api/v1/jsonapi/tdpse-terbit/6600"
      }
    },
    {
      "type": "tdpseTerbit",
      "id": "6599",
      "attributes": {
        "nomor_pb_umku": "026701002100300040002",
        "nama": "HUMAN CAPITAL SYSTEM (HCS)",
        "website": "-",
        "sektor": "Sektor Teknologi Informasi dan Komunikasi",
        "nama_tampil_badan_hukum": "PT",
        "nama_perusahaan": "PT STUDIO KAMI MANDIRI",
        "tanggal_daftar": "2022-07-19",
        "tanggal_terbit": "2022-07-19",
        "nomor_tanda_daftar": "004407.02/DJAI.PSE/07/2022",
        "qr_code": "http://pse.kominfo.go.id/api/v1/jsonapi/tdpse-terbit/qr-code/6599",
        "status_id": "TERDAFTAR",
        "sistem_elektronik_id": "6404",
        "keterangan": "-",
        "lokalitas": "LOKAL"
      },
      "links": {
        "self": "http://pse.kominfo.go.id/api/v1/jsonapi/tdpse-terbit/6599"
      }
    },
    {
      "type": "tdpseTerbit",
      "id": "6598",
      "attributes": {
        "nomor_pb_umku": "",
        "nama": "MARKETINGILIEXPRESS.COM",
        "website": "marketingiliexpress.com",
        "sektor": "Sektor Teknologi Informasi dan Komunikasi",
        "nama_tampil_badan_hukum": "PT",
        "nama_perusahaan": "PT INDAH LOGISTIK INTERNASIONAL",
        "tanggal_daftar": "2022-07-19",
        "tanggal_terbit": "2022-07-19",
        "nomor_tanda_daftar": "004823.02/DJAI.PSE/07/2022",
        "qr_code": "http://pse.kominfo.go.id/api/v1/jsonapi/tdpse-terbit/qr-code/6598",
        "status_id": "TERDAFTAR",
        "sistem_elektronik_id": "6453",
        "keterangan": "-",
        "lokalitas": "LOKAL"
      },
      "links": {
        "self": "http://pse.kominfo.go.id/api/v1/jsonapi/tdpse-terbit/6598"
      }
    }
  ]
}