{
  "meta": {
    "page": {
      "currentPage": 3,
      "from": 21,
      "lastPage": 1097,
      "perPage": 10,
      "to": 30,
      "total": 10962
    }
  },
  "data": [
    {
      "type": "tdpseTerbit",
      "id": 12213,
      "attributes": {
        "nomor_pb_umku": "271022001789900020001",
        "nama": "FREEBOX TEKNOLOGI INDONESIA",
        "website": "freeboxglobal.com",
        "sektor": "Sektor Perdagangan",
        "nama_perusahaan": "FREEBOX TEKNOLOGI INDONESIA",
        "tanggal_daftar": "2022-11-10",
        "nomor_tanda_daftar": "008417.01/DJAI.PSE/11/2022",
        "qr_code": "https://pse.kominfo.go.id/storage/images/qr_code/e14f8f643ec8659932eceb51d5ddcc19.png",
        "status_id": "TERDAFTAR",
        "sistem_elektronik_id": 12009
      }
    },
    {
      "type": "tdpseTerbit",
      "id": 12208,
      "attributes": {
        "nomor_pb_umku": "101122000249600000001",
        "nama": "DIGIFREN",
        "website": "digifren.tech",
        "sektor": "Sektor Perdagangan",
        "nama_perusahaan": "MANFAAT DIGITAL INDONESIA",
        "tanggal_daftar": "2022-11-10",
        "nomor_tanda_daftar": "008414.01/DJAI.PSE/11/2022",
        "qr_code": "https://pse.kominfo.go.id/storage/images/qr_code/99c0607013e21779e593dc8babc55e21.png",
        "status_id": "TERDAFTAR",
        "sistem_elektronik_id": 12003
      }
    },
    {
      "type": "tdpseTerbit",
      "id": 12207,
      "attributes": {
        "nomor_pb_umku": "091122035973300020001",
        "nama": "MARKA BERITA",
        "website": "-",
        "sektor": "Sektor Teknologi Informasi dan Komunikasi",
        "nama_perusahaan": "MARKA INTERNUSA MEDIA INDONESIA",
        "tanggal_daftar": "2022-11-10",
        "nomor_tanda_daftar": "008413.01/DJAI.PSE/11/2022",
        "qr_code": "https://pse.kominfo.go.id/storage/images/qr_code/7cfc4087f3dbbc8f789bbaac81081703.png",
        "status_id": "TERDAFTAR",
        "sistem_elektronik_id": 12002
      }
    },
    {
      "type": "tdpseTerbit",
      "id": 12228,
      "attributes": {
        "nomor_pb_umku": "022000092137300050001",
        "nama": "ENABLR LINK",
        "website": "enablr.id",
        "sektor": "Sektor Perdagangan",
        "nama_perusahaan": "SINERGI DIGITAL PUSAKA",
        "tanggal_daftar": "2022-11-11",
        "nomor_tanda_daftar": "008410.01/DJAI.PSE/11/2022",
        "qr_code": "https://pse.kominfo.go.id/storage/images/qr_code/dfeb0ec383bee20dd11c5b95d3952104.png",
        "status_id": "TERDAFTAR",
        "sistem_elektronik_id": 12023
      }
    },
    {
      "type": "tdpseTerbit",
      "id": 12201,
      "attributes": {
        "nomor_pb_umku": "025801005174100020001",
        "nama": "ASDA PARKING",
        "website": "asdaparking.com",
        "sektor": "Sektor Perdagangan, Sektor Transportasi, Sektor Teknologi Informasi dan Komunikasi",
        "nama_perusahaan": "ASDA UTAMA SARANA",
        "tanggal_daftar": "2022-11-09",
        "nomor_tanda_daftar": "008405.01/DJAI.PSE/11/2022",
        "qr_code": "https://pse.kominfo.go.id/storage/images/qr_code/4cb468b07543959f79258ad640be889d.png",
        "status_id": "TERDAFTAR",
        "sistem_elektronik_id": 11996
      }
    },
    {
      "type": "tdpseTerbit",
      "id": 12199,
      "attributes": {
        "nomor_pb_umku": "912040698172100000001",
        "nama": "FAIRBANC",
        "website": "fairbanc.app",
        "sektor": "Sektor Perdagangan",
        "nama_perusahaan": "FAIRBANC TECHNOLOGIES INDONESIA",
        "tanggal_daftar": "2022-11-09",
        "nomor_tanda_daftar": "008404.01/DJAI.PSE/11/2022",
        "qr_code": "https://pse.kominfo.go.id/storage/images/qr_code/c8056a74f80a22a714bda29dcb7176bd.png",
        "status_id": "TERDAFTAR",
        "sistem_elektronik_id": 11989
      }
    },
    {
      "type": "tdpseTerbit",
      "id": 12263,
      "attributes": {
        "nomor_pb_umku": "912030076273100010001",
        "nama": "SI OMSIL (SISTEM ONLINE MANAJEMEN SERTIFIKASI INSTALASI LISTRIK)",
        "website": "ppiln.id",
        "sektor": "Sektor Perdagangan, Sektor Energi dan Sumber Daya Mineral, Sektor Teknologi Informasi dan Komunikasi",
        "nama_perusahaan": "PERINTIS PERLINDUNGAN INSTALASI LISTRIK NASIONAL",
        "tanggal_daftar": "2022-11-14",
        "nomor_tanda_daftar": "008403.01/DJAI.PSE/11/2022",
        "qr_code": "https://pse.kominfo.go.id/storage/images/qr_code/f45d7b93944a2680c5436af9a901aeb5.png",
        "status_id": "TERDAFTAR",
        "sistem_elektronik_id": 11990
      }
    },
    {
      "type": "tdpseTerbit",
      "id": 12194,
      "attributes": {
        "nomor_pb_umku": "912031603241900000001",
        "nama": "THINKSOFT",
        "website": "THINKDEV.ID",
        "sektor": "Sektor Transportasi, Sektor Teknologi Informasi dan Komunikasi",
        "nama_perusahaan": "THINKDEV INDO MEKATRONIKA",
        "tanggal_daftar": "2022-11-09",
        "nomor_tanda_daftar": "008402.01/DJAI.PSE/11/2022",
        "qr_code": "https://pse.kominfo.go.id/storage/images/qr_code/3a8293d1226c8a36e3086a2d261e3c8f.png",
        "status_id": "TERDAFTAR",
        "sistem_elektronik_id": 11988
      }
    },
    {
      "type": "tdpseTerbit",
      "id": 12191,
      "attributes": {
        "nomor_pb_umku": "190422007194900010001",
        "nama": "BERBAGI NADA",
        "website": "berbaginada.com",
        "sektor": "Sektor Perdagangan",
        "nama_perusahaan": "NADA MAKMUR SEJAHTERA",
        "tanggal_daftar": "2022-11-09",
        "nomor_tanda_daftar": "008401.01/DJAI.PSE/11/2022",
        "qr_code": "https://pse.kominfo.go.id/storage/images/qr_code/c81722446186412a13062823cc5e0eba.png",
        "status_id": "TERDAFTAR",
        "sistem_elektronik_id": 11985
      }
    },
    {
      "type": "tdpseTerbit",
      "id": 12255,
      "attributes": {
        "nomor_pb_umku": "300322004940400030001",
        "nama": "MEDSENSE",
        "website": "medsense.id",
        "sektor": "Sektor Kesehatan",
        "nama_perusahaan": "MEDSENSE INDONESIA ABADI",
        "tanggal_daftar": "2022-11-12",
        "nomor_tanda_daftar": "008400.01/DJAI.PSE/11/2022",
        "qr_code": "https://pse.kominfo.go.id/storage/images/qr_code/4a3a772c8e642fd011fe0f9e240fa394.png",
        "status_id": "TERDAFTAR",
        "sistem_elektronik_id": 11987
      }
    }
  ]
}