{
  "meta": {
    "page": {
      "currentPage": 21,
      "from": 201,
      "lastPage": 1113,
      "perPage": 10,
      "to": 210,
      "total": 11124
    }
  },
  "data": [
    {
      "type": "tdpseTerbit",
      "id": 12083,
      "attributes": {
        "nomor_pb_umku": "201022002194700030001",
        "nama": "EXPENSE MANAGEMENT SYSTEM (EMS)",
        "website": "-",
        "sektor": "Sektor Teknologi Informasi dan Komunikasi",
        "nama_perusahaan": "APLIKASI LINTAS BANGSA",
        "tanggal_daftar": "2022-11-02",
        "nomor_tanda_daftar": "008339.01/DJAI.PSE/11/2022",
        "qr_code": "https://pse.kominfo.go.id/storage/images/qr_code/d59ea102d02825a37bf62783dd601503.png",
        "status_id": "TERDAFTAR",
        "sistem_elektronik_id": 11888
      }
    },
    {
      "type": "tdpseTerbit",
      "id": 12082,
      "attributes": {
        "nomor_pb_umku": "261022009768400020001",
        "nama": "TERNAK UANG",
        "website": "ternakuang.id",
        "sektor": "Sektor Teknologi Informasi dan Komunikasi",
        "nama_perusahaan": "TERNAK UANG INDONESIA",
        "tanggal_daftar": "2022-11-02",
        "nomor_tanda_daftar": "008338.01/DJAI.PSE/11/2022",
        "qr_code": "https://pse.kominfo.go.id/storage/images/qr_code/4e00722898bf991dcd391987ff71c402.png",
        "status_id": "TERDAFTAR",
        "sistem_elektronik_id": 11886
      }
    },
    {
      "type": "tdpseTerbit",
      "id": 12430,
      "attributes": {
        "nomor_pb_umku": "812011916196600020001",
        "nama": "PROBAN MEMBER",
        "website": "-",
        "sektor": "Sektor Perdagangan",
        "nama_perusahaan": "PROBAN OSTBURG TRISAKTI",
        "tanggal_daftar": "2022-11-22",
        "nomor_tanda_daftar": "008337.01/DJAI.PSE/11/2022",
        "qr_code": "https://pse.kominfo.go.id/storage/images/qr_code/7eb3011066b31706ea3c8b36a47519ef.png",
        "status_id": "TERDAFTAR",
        "sistem_elektronik_id": 12224
      }
    },
    {
      "type": "tdpseTerbit",
      "id": 12106,
      "attributes": {
        "nomor_pb_umku": "812001424228200000001",
        "nama": "GIORDANO INDONESIA",
        "website": "giordano.com",
        "sektor": "Sektor Perdagangan",
        "nama_perusahaan": "GIORDANO INDONESIA",
        "tanggal_daftar": "2022-11-03",
        "nomor_tanda_daftar": "008336.01/DJAI.PSE/11/2022",
        "qr_code": "https://pse.kominfo.go.id/storage/images/qr_code/157caa9ce8db0fd702638e9af64bb33b.png",
        "status_id": "TERDAFTAR",
        "sistem_elektronik_id": 11901
      }
    },
    {
      "type": "tdpseTerbit",
      "id": 12100,
      "attributes": {
        "nomor_pb_umku": "300922000311500010001",
        "nama": "MTWO BY RIB SOFTWARE",
        "website": "rib-software.com",
        "sektor": "Sektor Teknologi Informasi dan Komunikasi",
        "nama_perusahaan": "RIB INDONESIA SOFTWARE",
        "tanggal_daftar": "2022-11-02",
        "nomor_tanda_daftar": "008335.01/DJAI.PSE/11/2022",
        "qr_code": "https://pse.kominfo.go.id/storage/images/qr_code/8a4570a6430d8e07651f3b5e09991421.png",
        "status_id": "TERDAFTAR",
        "sistem_elektronik_id": 11894
      }
    },
    {
      "type": "tdpseTerbit",
      "id": 12079,
      "attributes": {
        "nomor_pb_umku": "050922014992400000001",
        "nama": "ONEPULSA",
        "website": "onepulsa.com",
        "sektor": "Sektor Teknologi Informasi dan Komunikasi",
        "nama_perusahaan": "LINGGAU DIGITAL MARKET",
        "tanggal_daftar": "2022-11-01",
        "nomor_tanda_daftar": "008333.01/DJAI.PSE/11/2022",
        "qr_code": "https://pse.kominfo.go.id/storage/images/qr_code/8e783c5ef8a5fd09ae572881de780248.png",
        "status_id": "TERDAFTAR",
        "sistem_elektronik_id": 11883
      }
    },
    {
      "type": "tdpseTerbit",
      "id": 12078,
      "attributes": {
        "nomor_pb_umku": "",
        "nama": "KAMUNINGPAY",
        "website": "kamuningpay.com",
        "sektor": "Sektor Perdagangan",
        "nama_perusahaan": "PAYDAY DIGITAL NUSANTARA",
        "tanggal_daftar": "2022-11-01",
        "nomor_tanda_daftar": "008332.01/DJAI.PSE/11/2022",
        "qr_code": "https://pse.kominfo.go.id/storage/images/qr_code/96984ea397df26a4810220837151f32a.png",
        "status_id": "TERDAFTAR",
        "sistem_elektronik_id": 11882
      }
    },
    {
      "type": "tdpseTerbit",
      "id": 12076,
      "attributes": {
        "nomor_pb_umku": "011122003555900000002",
        "nama": "NEWEST INDONESIA",
        "website": "newestindonesia.com",
        "sektor": "Sektor Teknologi Informasi dan Komunikasi",
        "nama_perusahaan": "DAEWIN NETWORKS INDONESIA",
        "tanggal_daftar": "2022-11-01",
        "nomor_tanda_daftar": "008331.02/DJAI.PSE/11/2022",
        "qr_code": "https://pse.kominfo.go.id/storage/images/qr_code/4b2d176cd2575f43191139d91fab7969.png",
        "status_id": "TERDAFTAR",
        "sistem_elektronik_id": 11879
      }
    },
    {
      "type": "tdpseTerbit",
      "id": 12075,
      "attributes": {
        "nomor_pb_umku": "011122003555900000001",
        "nama": "NEWEST JOB INDONESIA",
        "website": "Newestjob.id",
        "sektor": "Sektor Teknologi Informasi dan Komunikasi",
        "nama_perusahaan": "DAEWIN NETWORKS INDONESIA",
        "tanggal_daftar": "2022-11-01",
        "nomor_tanda_daftar": "008331.01/DJAI.PSE/11/2022",
        "qr_code": "https://pse.kominfo.go.id/storage/images/qr_code/fc9977292f2bd8220e6ccbca0fe66272.png",
        "status_id": "TERDAFTAR",
        "sistem_elektronik_id": 11878
      }
    },
    {
      "type": "tdpseTerbit",
      "id": 12071,
      "attributes": {
        "nomor_pb_umku": "141022004734500010001",
        "nama": "AYOLINX",
        "website": "ayolinx.id",
        "sektor": "Sektor Keuangan, Sektor Teknologi Informasi dan Komunikasi",
        "nama_perusahaan": "INOVASI PEMBAYARAN DIGITAL",
        "tanggal_daftar": "2022-11-01",
        "nomor_tanda_daftar": "008329.01/DJAI.PSE/11/2022",
        "qr_code": "https://pse.kominfo.go.id/storage/images/qr_code/17396b9c993ccb6d41200128d27ef3ef.png",
        "status_id": "TERDAFTAR",
        "sistem_elektronik_id": 11874
      }
    }
  ]
}