{
  "meta": {
    "page": {
      "currentPage": 200,
      "from": 1991,
      "lastPage": 816,
      "perPage": 10,
      "to": 2000,
      "total": 8153
    }
  },
  "jsonapi": {
    "version": "1.0"
  },
  "links": {
    "first": "http://pse.kominfo.go.id/api/v1/jsonapi/tdpse-terbit?page%5Blimit%5D=10&page%5Bpage%5D=1",
    "last": "http://pse.kominfo.go.id/api/v1/jsonapi/tdpse-terbit?page%5Blimit%5D=10&page%5Bpage%5D=816",
    "next": "http://pse.kominfo.go.id/api/v1/jsonapi/tdpse-terbit?page%5Blimit%5D=10&page%5Bpage%5D=201",
    "prev": "http://pse.kominfo.go.id/api/v1/jsonapi/tdpse-terbit?page%5Blimit%5D=10&page%5Bpage%5D=199"
  },
  "data": [
    {
      "type": "tdpseTerbit",
      "id": "6597",
      "attributes": {
        "nomor_pb_umku": "090222004738500010001",
        "nama": "WEBSITE BPR GUNUNG RIZKI",
        "website": "gunungrizki.com",
        "sektor": "Sektor Keuangan",
        "nama_tampil_badan_hukum": "PT",
        "nama_perusahaan": "PT BANK PERKREDITAN RAKYAT GUNUNG RIZKI PUSAKA UTAMA",
        "tanggal_daftar": "2022-07-19",
        "tanggal_terbit": "2022-07-19",
        "nomor_tanda_daftar": "004663.01/DJAI.PSE/07/2022",
        "qr_code": "http://pse.kominfo.go.id/api/v1/jsonapi/tdpse-terbit/qr-code/6597",
        "status_id": "TERDAFTAR",
        "sistem_elektronik_id": "6452",
        "keterangan": "-",
        "lokalitas": "LOKAL"
      },
      "links": {
        "self": "http://pse.kominfo.go.id/api/v1/jsonapi/tdpse-terbit/6597"
      }
    },
    {
      "type": "tdpseTerbit",
      "id": "6596",
      "attributes": {
        "nomor_pb_umku": "912020189256600010001",
        "nama": "PT BPR KERTHA WARGA",
        "website": "-",
        "sektor": "Sektor Keuangan",
        "nama_tampil_badan_hukum": "PT",
        "nama_perusahaan": "PT BANK PERKREDITAN RAKYAT KERTHA WARGA",
        "tanggal_daftar": "2022-07-19",
        "tanggal_terbit": "2022-07-19",
        "nomor_tanda_daftar": "004820.01/DJAI.PSE/07/2022",
        "qr_code": "http://pse.kominfo.go.id/api/v1/jsonapi/tdpse-terbit/qr-code/6596",
        "status_id": "TERDAFTAR",
        "sistem_elektronik_id": "6451",
        "keterangan": "-",
        "lokalitas": "LOKAL"
      },
      "links": {
        "self": "http://pse.kominfo.go.id/api/v1/jsonapi/tdpse-terbit/6596"
      }
    },
    {
      "type": "tdpseTerbit",
      "id": "6595",
      "attributes": {
        "nomor_pb_umku": "912010774107900010001",
        "nama": "CORE BANKING",
        "website": "-",
        "sektor": "Sektor Keuangan",
        "nama_tampil_badan_hukum": "PT",
        "nama_perusahaan": "PT BANK PERKREDITAN RAKYAT ABDI WARGA MULIA",
        "tanggal_daftar": "2022-07-19",
        "tanggal_terbit": "2022-07-19",
        "nomor_tanda_daftar": "004824.01/DJAI.PSE/07/2022",
        "qr_code": "http://pse.kominfo.go.id/api/v1/jsonapi/tdpse-terbit/qr-code/6595",
        "status_id": "TERDAFTAR",
        "sistem_elektronik_id": "6450",
        "keterangan": "-",
        "lokalitas": "LOKAL"
      },
      "links": {
        "self": "http://pse.kominfo.go.id/api/v1/jsonapi/tdpse-terbit/6595"
      }
    },
    {
      "type": "tdpseTerbit",
      "id": "6594",
      "attributes": {
        "nomor_pb_umku": "190722000341600000001",
        "nama": "KOCRID CELL",
        "website": "kocridcell.net",
        "sektor": "Sektor Perdagangan",
        "nama_tampil_badan_hukum": "",
        "nama_perusahaan": "FARID MUSTOFA",
        "tanggal_daftar": "2022-07-19",
        "tanggal_terbit": "2022-07-19",
        "nomor_tanda_daftar": "004818.01/DJAI.PSE/07/2022",
        "qr_code": "http://pse.kominfo.go.id/api/v1/jsonapi/tdpse-terbit/qr-code/6594",
        "status_id": "TERDAFTAR",
        "sistem_elektronik_id": "6449",
        "keterangan": "-",
        "lokalitas": "LOKAL"
      },
      "links": {
        "self": "http://pse.kominfo.go.id/api/v1/jsonapi/tdpse-terbit/6594"
      }
    },
    {
      "type": "tdpseTerbit",
      "id": "6593",
      "attributes": {
        "nomor_pb_umku": "022000258221800040019",
        "nama": "OPPO STORE",
        "website": "oppo.com",
        "sektor": "Sektor Perdagangan, Sektor Teknologi Informasi dan Komunikasi",
        "nama_tampil_badan_hukum": "PT",
        "nama_perusahaan": "PT GOOD MOBILE INDONESIA",
        "tanggal_daftar": "2022-07-18",
        "tanggal_terbit": "2022-07-19",
        "nomor_tanda_daftar": "003993.01/DJAI.PSE/07/2022",
        "qr_code": "http://pse.kominfo.go.id/api/v1/jsonapi/tdpse-terbit/qr-code/6593",
        "status_id": "TERDAFTAR",
        "sistem_elektronik_id": "6320",
        "keterangan": "-",
        "lokalitas": "LOKAL"
      },
      "links": {
        "self": "http://pse.kominfo.go.id/api/v1/jsonapi/tdpse-terbit/6593"
      }
    },
    {
      "type": "tdpseTerbit",
      "id": "6592",
      "attributes": {
        "nomor_pb_umku": "100622002238300010001",
        "nama": "TANAKU",
        "website": "tanaku.co",
        "sektor": "Sektor Perdagangan",
        "nama_tampil_badan_hukum": "PT",
        "nama_perusahaan": "PT TANAKU NUSANTARA INTERNASIONAL",
        "tanggal_daftar": "2022-07-18",
        "tanggal_terbit": "2022-07-19",
        "nomor_tanda_daftar": "004038.01/DJAI.PSE/07/2022",
        "qr_code": "http://pse.kominfo.go.id/api/v1/jsonapi/tdpse-terbit/qr-code/6592",
        "status_id": "TERDAFTAR",
        "sistem_elektronik_id": "6212",
        "keterangan": "-",
        "lokalitas": "LOKAL"
      },
      "links": {
        "self": "http://pse.kominfo.go.id/api/v1/jsonapi/tdpse-terbit/6592"
      }
    },
    {
      "type": "tdpseTerbit",
      "id": "6591",
      "attributes": {
        "nomor_pb_umku": "022030314115600010001",
        "nama": "BIGENMI",
        "website": "bigenmi.co.id",
        "sektor": "Sektor Perdagangan, Sektor Kesehatan",
        "nama_tampil_badan_hukum": "PT",
        "nama_perusahaan": "PT BIGENMI GEMILANG INDONESIA",
        "tanggal_daftar": "2022-07-14",
        "tanggal_terbit": "2022-07-19",
        "nomor_tanda_daftar": "003886.01/DJAI.PSE/07/2022",
        "qr_code": "http://pse.kominfo.go.id/api/v1/jsonapi/tdpse-terbit/qr-code/6591",
        "status_id": "TERDAFTAR",
        "sistem_elektronik_id": "5424",
        "keterangan": "-",
        "lokalitas": "LOKAL"
      },
      "links": {
        "self": "http://pse.kominfo.go.id/api/v1/jsonapi/tdpse-terbit/6591"
      }
    },
    {
      "type": "tdpseTerbit",
      "id": "6590",
      "attributes": {
        "nomor_pb_umku": "912030973155600010001",
        "nama": "INTAGRAM: BPRMITRADHANACESWARA",
        "website": "-",
        "sektor": "Sektor Keuangan",
        "nama_tampil_badan_hukum": "PT",
        "nama_perusahaan": "PT BANK PERKREDITAN RAKYAT MITRA DHANACESWARA",
        "tanggal_daftar": "2022-07-19",
        "tanggal_terbit": "2022-07-19",
        "nomor_tanda_daftar": "004551.01/DJAI.PSE/07/2022",
        "qr_code": "http://pse.kominfo.go.id/api/v1/jsonapi/tdpse-terbit/qr-code/6590",
        "status_id": "TERDAFTAR",
        "sistem_elektronik_id": "6443",
        "keterangan": "-",
        "lokalitas": "LOKAL"
      },
      "links": {
        "self": "http://pse.kominfo.go.id/api/v1/jsonapi/tdpse-terbit/6590"
      }
    },
    {
      "type": "tdpseTerbit",
      "id": "6589",
      "attributes": {
        "nomor_pb_umku": "912020187229400010001",
        "nama": "PT. BPR BUMI PRIMA DANA",
        "website": "bprbumiprima.com",
        "sektor": "Sektor Keuangan",
        "nama_tampil_badan_hukum": "PT",
        "nama_perusahaan": "PT BANK PERKREDITAN RAKYAT BUMI PRIMA DANA",
        "tanggal_daftar": "2022-07-19",
        "tanggal_terbit": "2022-07-19",
        "nomor_tanda_daftar": "004796.01/DJAI.PSE/07/2022",
        "qr_code": "http://pse.kominfo.go.id/api/v1/jsonapi/tdpse-terbit/qr-code/6589",
        "status_id": "TERDAFTAR",
        "sistem_elektronik_id": "6447",
        "keterangan": "-",
        "lokalitas": "LOKAL"
      },
      "links": {
        "self": "http://pse.kominfo.go.id/api/v1/jsonapi/tdpse-terbit/6589"
      }
    },
    {
      "type": "tdpseTerbit",
      "id": "6588",
      "attributes": {
        "nomor_pb_umku": "190722000292200000001",
        "nama": "KANTONGKUOTA",
        "website": "-",
        "sektor": "Sektor Perdagangan",
        "nama_tampil_badan_hukum": "",
        "nama_perusahaan": "Sumini",
        "tanggal_daftar": "2022-07-19",
        "tanggal_terbit": "2022-07-19",
        "nomor_tanda_daftar": "004791.01/DJAI.PSE/07/2022",
        "qr_code": "http://pse.kominfo.go.id/api/v1/jsonapi/tdpse-terbit/qr-code/6588",
        "status_id": "TERDAFTAR",
        "sistem_elektronik_id": "6448",
        "keterangan": "-",
        "lokalitas": "LOKAL"
      },
      "links": {
        "self": "http://pse.kominfo.go.id/api/v1/jsonapi/tdpse-terbit/6588"
      }
    }
  ]
}