{
  "meta": {
    "page": {
      "currentPage": 202,
      "from": 2011,
      "lastPage": 816,
      "perPage": 10,
      "to": 2020,
      "total": 8153
    }
  },
  "jsonapi": {
    "version": "1.0"
  },
  "links": {
    "first": "http://pse.kominfo.go.id/api/v1/jsonapi/tdpse-terbit?page%5Blimit%5D=10&page%5Bpage%5D=1",
    "last": "http://pse.kominfo.go.id/api/v1/jsonapi/tdpse-terbit?page%5Blimit%5D=10&page%5Bpage%5D=816",
    "next": "http://pse.kominfo.go.id/api/v1/jsonapi/tdpse-terbit?page%5Blimit%5D=10&page%5Bpage%5D=203",
    "prev": "http://pse.kominfo.go.id/api/v1/jsonapi/tdpse-terbit?page%5Blimit%5D=10&page%5Bpage%5D=201"
  },
  "data": [
    {
      "type": "tdpseTerbit",
      "id": "6577",
      "attributes": {
        "nomor_pb_umku": "028300092272300010001",
        "nama": "PT.BANK PERKREDITAN RAKYAT NUSANTARA BONA PASOGIT 7",
        "website": "-",
        "sektor": "Sektor Keuangan",
        "nama_tampil_badan_hukum": "PT",
        "nama_perusahaan": "PT BANK PERKREDITAN RAKYAT NUSANTARA BONA PASOGIT 7",
        "tanggal_daftar": "2022-07-19",
        "tanggal_terbit": "2022-07-19",
        "nomor_tanda_daftar": "004688.01/DJAI.PSE/07/2022",
        "qr_code": "http://pse.kominfo.go.id/api/v1/jsonapi/tdpse-terbit/qr-code/6577",
        "status_id": "TERDAFTAR",
        "sistem_elektronik_id": "6433",
        "keterangan": "-",
        "lokalitas": "LOKAL"
      },
      "links": {
        "self": "http://pse.kominfo.go.id/api/v1/jsonapi/tdpse-terbit/6577"
      }
    },
    {
      "type": "tdpseTerbit",
      "id": "6575",
      "attributes": {
        "nomor_pb_umku": "912020417284100040010",
        "nama": "KLIK INDOGROSIR",
        "website": "klikindogrosir.com",
        "sektor": "Sektor Perdagangan",
        "nama_tampil_badan_hukum": "PT",
        "nama_perusahaan": "PT INTI CAKRAWALA CITRA",
        "tanggal_daftar": "2022-07-19",
        "tanggal_terbit": "2022-07-19",
        "nomor_tanda_daftar": "004779.01/DJAI.PSE/07/2022",
        "qr_code": "http://pse.kominfo.go.id/api/v1/jsonapi/tdpse-terbit/qr-code/6575",
        "status_id": "TERDAFTAR",
        "sistem_elektronik_id": "6432",
        "keterangan": "-",
        "lokalitas": "LOKAL"
      },
      "links": {
        "self": "http://pse.kominfo.go.id/api/v1/jsonapi/tdpse-terbit/6575"
      }
    },
    {
      "type": "tdpseTerbit",
      "id": "6574",
      "attributes": {
        "nomor_pb_umku": "812011822238600020001",
        "nama": "YUANTA CONNECT",
        "website": "fstrade.yuantaconnect.co.id",
        "sektor": "Sektor Keuangan",
        "nama_tampil_badan_hukum": "PT",
        "nama_perusahaan": "PT YUANTA SEKURITAS INDONESIA",
        "tanggal_daftar": "2022-07-15",
        "tanggal_terbit": "2022-07-19",
        "nomor_tanda_daftar": "003851.01/DJAI.PSE/07/2022",
        "qr_code": "http://pse.kominfo.go.id/api/v1/jsonapi/tdpse-terbit/qr-code/6574",
        "status_id": "TERDAFTAR",
        "sistem_elektronik_id": "5599",
        "keterangan": "-",
        "lokalitas": "LOKAL"
      },
      "links": {
        "self": "http://pse.kominfo.go.id/api/v1/jsonapi/tdpse-terbit/6574"
      }
    },
    {
      "type": "tdpseTerbit",
      "id": "6573",
      "attributes": {
        "nomor_pb_umku": "250122005855300000001",
        "nama": "PULSA GADGET",
        "website": "-",
        "sektor": "Sektor Perdagangan, Sektor Teknologi Informasi dan Komunikasi",
        "nama_tampil_badan_hukum": "CV",
        "nama_perusahaan": "CV PULSA GADGET",
        "tanggal_daftar": "2022-07-19",
        "tanggal_terbit": "2022-07-19",
        "nomor_tanda_daftar": "004806.01/DJAI.PSE/07/2022",
        "qr_code": "http://pse.kominfo.go.id/api/v1/jsonapi/tdpse-terbit/qr-code/6573",
        "status_id": "TERDAFTAR",
        "sistem_elektronik_id": "6431",
        "keterangan": "-",
        "lokalitas": "LOKAL"
      },
      "links": {
        "self": "http://pse.kominfo.go.id/api/v1/jsonapi/tdpse-terbit/6573"
      }
    },
    {
      "type": "tdpseTerbit",
      "id": "6572",
      "attributes": {
        "nomor_pb_umku": "120200061203100010002",
        "nama": "E-SLIP BANK ARUNA",
        "website": "eslip.bankaruna.com",
        "sektor": "Sektor Teknologi Informasi dan Komunikasi",
        "nama_tampil_badan_hukum": "PT",
        "nama_perusahaan": "PT BANK PERKREDITAN RAKYAT ARUNA NIRMALADUTA",
        "tanggal_daftar": "2022-07-19",
        "tanggal_terbit": "2022-07-19",
        "nomor_tanda_daftar": "004608.02/DJAI.PSE/07/2022",
        "qr_code": "http://pse.kominfo.go.id/api/v1/jsonapi/tdpse-terbit/qr-code/6572",
        "status_id": "TERDAFTAR",
        "sistem_elektronik_id": "6430",
        "keterangan": "-",
        "lokalitas": "LOKAL"
      },
      "links": {
        "self": "http://pse.kominfo.go.id/api/v1/jsonapi/tdpse-terbit/6572"
      }
    },
    {
      "type": "tdpseTerbit",
      "id": "6571",
      "attributes": {
        "nomor_pb_umku": "024301022187700000001",
        "nama": "OURTOGA.COM",
        "website": "ourtoga.com",
        "sektor": "Sektor Teknologi Informasi dan Komunikasi",
        "nama_tampil_badan_hukum": "PT",
        "nama_perusahaan": "PT RAJAWALI TEKNOLOGI SOLUSINDO",
        "tanggal_daftar": "2022-07-19",
        "tanggal_terbit": "2022-07-19",
        "nomor_tanda_daftar": "004738.01/DJAI.PSE/07/2022",
        "qr_code": "http://pse.kominfo.go.id/api/v1/jsonapi/tdpse-terbit/qr-code/6571",
        "status_id": "TERDAFTAR",
        "sistem_elektronik_id": "6429",
        "keterangan": "-",
        "lokalitas": "LOKAL"
      },
      "links": {
        "self": "http://pse.kominfo.go.id/api/v1/jsonapi/tdpse-terbit/6571"
      }
    },
    {
      "type": "tdpseTerbit",
      "id": "6570",
      "attributes": {
        "nomor_pb_umku": "812011413226801190052",
        "nama": "WEBSITE INVESTOR RELATIONS",
        "website": "ir-bri.com",
        "sektor": "Sektor Keuangan, Sektor Teknologi Informasi dan Komunikasi",
        "nama_tampil_badan_hukum": "PT",
        "nama_perusahaan": "PT PERUSAHAAN PERSEROAN (PERSERO) PT. BANK RAKYAT INDONESIA",
        "tanggal_daftar": "2022-07-19",
        "tanggal_terbit": "2022-07-19",
        "nomor_tanda_daftar": "002468.48/DJAI.PSE/07/2022",
        "qr_code": "http://pse.kominfo.go.id/api/v1/jsonapi/tdpse-terbit/qr-code/6570",
        "status_id": "TERDAFTAR",
        "sistem_elektronik_id": "6428",
        "keterangan": "-",
        "lokalitas": "LOKAL"
      },
      "links": {
        "self": "http://pse.kominfo.go.id/api/v1/jsonapi/tdpse-terbit/6570"
      }
    },
    {
      "type": "tdpseTerbit",
      "id": "6569",
      "attributes": {
        "nomor_pb_umku": "812011603263100000003",
        "nama": "WAZAPBRO",
        "website": "wazapbro.com",
        "sektor": "Sektor Teknologi Informasi dan Komunikasi",
        "nama_tampil_badan_hukum": "PT",
        "nama_perusahaan": "PT DES TEKNOLOGI INFORMASI",
        "tanggal_daftar": "2022-07-19",
        "tanggal_terbit": "2022-07-19",
        "nomor_tanda_daftar": "004668.03/DJAI.PSE/07/2022",
        "qr_code": "http://pse.kominfo.go.id/api/v1/jsonapi/tdpse-terbit/qr-code/6569",
        "status_id": "TERDAFTAR",
        "sistem_elektronik_id": "6425",
        "keterangan": "-",
        "lokalitas": "LOKAL"
      },
      "links": {
        "self": "http://pse.kominfo.go.id/api/v1/jsonapi/tdpse-terbit/6569"
      }
    },
    {
      "type": "tdpseTerbit",
      "id": "6568",
      "attributes": {
        "nomor_pb_umku": "200622003569300030001",
        "nama": "WEBSITE PT PRIMALOGIC GLOBAL TEKNOLOGI",
        "website": "plitasoft.com",
        "sektor": "Sektor Teknologi Informasi dan Komunikasi",
        "nama_tampil_badan_hukum": "PT",
        "nama_perusahaan": "PT PRIMALOGIC GLOBAL TEKNOLOGI",
        "tanggal_daftar": "2022-07-19",
        "tanggal_terbit": "2022-07-19",
        "nomor_tanda_daftar": "004740.01/DJAI.PSE/07/2022",
        "qr_code": "http://pse.kominfo.go.id/api/v1/jsonapi/tdpse-terbit/qr-code/6568",
        "status_id": "TERDAFTAR",
        "sistem_elektronik_id": "6427",
        "keterangan": "-",
        "lokalitas": "LOKAL"
      },
      "links": {
        "self": "http://pse.kominfo.go.id/api/v1/jsonapi/tdpse-terbit/6568"
      }
    },
    {
      "type": "tdpseTerbit",
      "id": "6567",
      "attributes": {
        "nomor_pb_umku": "240322004965500060002",
        "nama": "CASH MANAGEMENT SISTEM (CMS)",
        "website": "ibc.bankaceh.co.id",
        "sektor": "Sektor Keuangan, Sektor Teknologi Informasi dan Komunikasi",
        "nama_tampil_badan_hukum": "PT",
        "nama_perusahaan": "PT BANK ACEH SYARIAH",
        "tanggal_daftar": "2022-07-19",
        "tanggal_terbit": "2022-07-19",
        "nomor_tanda_daftar": "004272.02/DJAI.PSE/07/2022",
        "qr_code": "http://pse.kominfo.go.id/api/v1/jsonapi/tdpse-terbit/qr-code/6567",
        "status_id": "TERDAFTAR",
        "sistem_elektronik_id": "6426",
        "keterangan": "-",
        "lokalitas": "LOKAL"
      },
      "links": {
        "self": "http://pse.kominfo.go.id/api/v1/jsonapi/tdpse-terbit/6567"
      }
    }
  ]
}