{
  "meta": {
    "page": {
      "currentPage": 205,
      "from": 2041,
      "lastPage": 816,
      "perPage": 10,
      "to": 2050,
      "total": 8153
    }
  },
  "jsonapi": {
    "version": "1.0"
  },
  "links": {
    "first": "http://pse.kominfo.go.id/api/v1/jsonapi/tdpse-terbit?page%5Blimit%5D=10&page%5Bpage%5D=1",
    "last": "http://pse.kominfo.go.id/api/v1/jsonapi/tdpse-terbit?page%5Blimit%5D=10&page%5Bpage%5D=816",
    "next": "http://pse.kominfo.go.id/api/v1/jsonapi/tdpse-terbit?page%5Blimit%5D=10&page%5Bpage%5D=206",
    "prev": "http://pse.kominfo.go.id/api/v1/jsonapi/tdpse-terbit?page%5Blimit%5D=10&page%5Bpage%5D=204"
  },
  "data": [
    {
      "type": "tdpseTerbit",
      "id": "6544",
      "attributes": {
        "nomor_pb_umku": "040422003543400020002",
        "nama": "MENYELAMI.CO",
        "website": "menyelami.co",
        "sektor": "Sektor Teknologi Informasi dan Komunikasi",
        "nama_tampil_badan_hukum": "PT",
        "nama_perusahaan": "PT IMPERIAL KARUNIA NUSANTARA",
        "tanggal_daftar": "2022-07-19",
        "tanggal_terbit": "2022-07-19",
        "nomor_tanda_daftar": "004787.02/DJAI.PSE/07/2022",
        "qr_code": "http://pse.kominfo.go.id/api/v1/jsonapi/tdpse-terbit/qr-code/6544",
        "status_id": "TERDAFTAR",
        "sistem_elektronik_id": "6408",
        "keterangan": "-",
        "lokalitas": "LOKAL"
      },
      "links": {
        "self": "http://pse.kominfo.go.id/api/v1/jsonapi/tdpse-terbit/6544"
      }
    },
    {
      "type": "tdpseTerbit",
      "id": "6543",
      "attributes": {
        "nomor_pb_umku": "812000289391400640036",
        "nama": "WEBSITE KARIR BCA",
        "website": "karir.bca.co.id",
        "sektor": "Sektor Keuangan",
        "nama_tampil_badan_hukum": "PT",
        "nama_perusahaan": "PT BANK CENTRAL ASIA",
        "tanggal_daftar": "2022-07-18",
        "tanggal_terbit": "2022-07-19",
        "nomor_tanda_daftar": "001669.39/DJAI.PSE/07/2022",
        "qr_code": "http://pse.kominfo.go.id/api/v1/jsonapi/tdpse-terbit/qr-code/6543",
        "status_id": "TERDAFTAR",
        "sistem_elektronik_id": "6277",
        "keterangan": "-",
        "lokalitas": "LOKAL"
      },
      "links": {
        "self": "http://pse.kominfo.go.id/api/v1/jsonapi/tdpse-terbit/6543"
      }
    },
    {
      "type": "tdpseTerbit",
      "id": "6542",
      "attributes": {
        "nomor_pb_umku": "261021000700300010002",
        "nama": "LANDING PAGE BPR WILIS",
        "website": "bprwilis.info",
        "sektor": "Sektor Keuangan",
        "nama_tampil_badan_hukum": "PT",
        "nama_perusahaan": "PT BANK PERKREDITAN RAKYAT CINDE WILIS",
        "tanggal_daftar": "2022-07-19",
        "tanggal_terbit": "2022-07-19",
        "nomor_tanda_daftar": "004490.02/DJAI.PSE/07/2022",
        "qr_code": "http://pse.kominfo.go.id/api/v1/jsonapi/tdpse-terbit/qr-code/6542",
        "status_id": "TERDAFTAR",
        "sistem_elektronik_id": "6407",
        "keterangan": "-",
        "lokalitas": "LOKAL"
      },
      "links": {
        "self": "http://pse.kominfo.go.id/api/v1/jsonapi/tdpse-terbit/6542"
      }
    },
    {
      "type": "tdpseTerbit",
      "id": "6541",
      "attributes": {
        "nomor_pb_umku": "912001617105100000004",
        "nama": "JOIN BPR",
        "website": "joinbpr.id",
        "sektor": "Sektor Teknologi Informasi dan Komunikasi",
        "nama_tampil_badan_hukum": "PT",
        "nama_perusahaan": "PT MITRANET SOFTWARE ONLINE",
        "tanggal_daftar": "2022-07-16",
        "tanggal_terbit": "2022-07-19",
        "nomor_tanda_daftar": "002883.04/DJAI.PSE/07/2022",
        "qr_code": "http://pse.kominfo.go.id/api/v1/jsonapi/tdpse-terbit/qr-code/6541",
        "status_id": "TERDAFTAR",
        "sistem_elektronik_id": "5794",
        "keterangan": "-",
        "lokalitas": "LOKAL"
      },
      "links": {
        "self": "http://pse.kominfo.go.id/api/v1/jsonapi/tdpse-terbit/6541"
      }
    },
    {
      "type": "tdpseTerbit",
      "id": "6540",
      "attributes": {
        "nomor_pb_umku": "040422003543400020001",
        "nama": "MINEQ.ID",
        "website": "mineq.id",
        "sektor": "Sektor Perdagangan",
        "nama_tampil_badan_hukum": "PT",
        "nama_perusahaan": "PT IMPERIAL KARUNIA NUSANTARA",
        "tanggal_daftar": "2022-07-19",
        "tanggal_terbit": "2022-07-19",
        "nomor_tanda_daftar": "004787.01/DJAI.PSE/07/2022",
        "qr_code": "http://pse.kominfo.go.id/api/v1/jsonapi/tdpse-terbit/qr-code/6540",
        "status_id": "TERDAFTAR",
        "sistem_elektronik_id": "6406",
        "keterangan": "-",
        "lokalitas": "LOKAL"
      },
      "links": {
        "self": "http://pse.kominfo.go.id/api/v1/jsonapi/tdpse-terbit/6540"
      }
    },
    {
      "type": "tdpseTerbit",
      "id": "6539",
      "attributes": {
        "nomor_pb_umku": "029101010017600030001",
        "nama": "WINNER PRESTASI",
        "website": "winnerprestasi.com",
        "sektor": "Sektor Perdagangan, Sektor Teknologi Informasi dan Komunikasi",
        "nama_tampil_badan_hukum": "PT",
        "nama_perusahaan": "PT SARANA CERDAS INDONESIA",
        "tanggal_daftar": "2022-07-19",
        "tanggal_terbit": "2022-07-19",
        "nomor_tanda_daftar": "004786.01/DJAI.PSE/07/2022",
        "qr_code": "http://pse.kominfo.go.id/api/v1/jsonapi/tdpse-terbit/qr-code/6539",
        "status_id": "TERDAFTAR",
        "sistem_elektronik_id": "6405",
        "keterangan": "-",
        "lokalitas": "LOKAL"
      },
      "links": {
        "self": "http://pse.kominfo.go.id/api/v1/jsonapi/tdpse-terbit/6539"
      }
    },
    {
      "type": "tdpseTerbit",
      "id": "6538",
      "attributes": {
        "nomor_pb_umku": "170722001105300000001",
        "nama": "BPRPURIARTHA",
        "website": "-",
        "sektor": "Sektor Keuangan",
        "nama_tampil_badan_hukum": "PT",
        "nama_perusahaan": "PT BANK PERKREDITAN RAKYAT PURI ARTHA PACITAN",
        "tanggal_daftar": "2022-07-19",
        "tanggal_terbit": "2022-07-19",
        "nomor_tanda_daftar": "004489.01/DJAI.PSE/07/2022",
        "qr_code": "http://pse.kominfo.go.id/api/v1/jsonapi/tdpse-terbit/qr-code/6538",
        "status_id": "TERDAFTAR",
        "sistem_elektronik_id": "6403",
        "keterangan": "-",
        "lokalitas": "LOKAL"
      },
      "links": {
        "self": "http://pse.kominfo.go.id/api/v1/jsonapi/tdpse-terbit/6538"
      }
    },
    {
      "type": "tdpseTerbit",
      "id": "6537",
      "attributes": {
        "nomor_pb_umku": "912000886154500010001",
        "nama": "BANKING.NET",
        "website": "-",
        "sektor": "Sektor Keuangan",
        "nama_tampil_badan_hukum": "PT",
        "nama_perusahaan": "PT BANK PERKREDITAN RAKYAT ARTHA NUGRAHA",
        "tanggal_daftar": "2022-07-19",
        "tanggal_terbit": "2022-07-19",
        "nomor_tanda_daftar": "004282.01/DJAI.PSE/07/2022",
        "qr_code": "http://pse.kominfo.go.id/api/v1/jsonapi/tdpse-terbit/qr-code/6537",
        "status_id": "TERDAFTAR",
        "sistem_elektronik_id": "6402",
        "keterangan": "-",
        "lokalitas": "LOKAL"
      },
      "links": {
        "self": "http://pse.kominfo.go.id/api/v1/jsonapi/tdpse-terbit/6537"
      }
    },
    {
      "type": "tdpseTerbit",
      "id": "6536",
      "attributes": {
        "nomor_pb_umku": "912020995206600010001",
        "nama": "NPB SYSTEM",
        "website": "-",
        "sektor": "Sektor Keuangan",
        "nama_tampil_badan_hukum": "PT",
        "nama_perusahaan": "PT BANK PERKREDITAN RAKYAT SOWAN UTAMA",
        "tanggal_daftar": "2022-07-19",
        "tanggal_terbit": "2022-07-19",
        "nomor_tanda_daftar": "004589.01/DJAI.PSE/07/2022",
        "qr_code": "http://pse.kominfo.go.id/api/v1/jsonapi/tdpse-terbit/qr-code/6536",
        "status_id": "TERDAFTAR",
        "sistem_elektronik_id": "6401",
        "keterangan": "-",
        "lokalitas": "LOKAL"
      },
      "links": {
        "self": "http://pse.kominfo.go.id/api/v1/jsonapi/tdpse-terbit/6536"
      }
    },
    {
      "type": "tdpseTerbit",
      "id": "6535",
      "attributes": {
        "nomor_pb_umku": "160122000472900000001",
        "nama": "PAYGUA",
        "website": "paygua.com",
        "sektor": "Sektor Perdagangan, Sektor Teknologi Informasi dan Komunikasi",
        "nama_tampil_badan_hukum": "PT",
        "nama_perusahaan": "PT GUA TEKNOLOGI INDONESIA",
        "tanggal_daftar": "2022-07-18",
        "tanggal_terbit": "2022-07-19",
        "nomor_tanda_daftar": "004763.01/DJAI.PSE/07/2022",
        "qr_code": "http://pse.kominfo.go.id/api/v1/jsonapi/tdpse-terbit/qr-code/6535",
        "status_id": "TERDAFTAR",
        "sistem_elektronik_id": "6365",
        "keterangan": "-",
        "lokalitas": "LOKAL"
      },
      "links": {
        "self": "http://pse.kominfo.go.id/api/v1/jsonapi/tdpse-terbit/6535"
      }
    }
  ]
}