{
  "meta": {
    "page": {
      "currentPage": 208,
      "from": 2071,
      "lastPage": 1005,
      "perPage": 10,
      "to": 2080,
      "total": 10048
    }
  },
  "data": [
    {
      "type": "tdpseTerbit",
      "id": 7620,
      "attributes": {
        "nomor_pb_umku": "912030076266300010002",
        "nama": "BPRAMIRA.COM",
        "website": "bpramira.com",
        "sektor": "Sektor Keuangan",
        "nama_perusahaan": "BANK PERKREDITAN RAKYAT ARTA MITRA RAKYAT",
        "tanggal_daftar": "2022-07-20",
        "nomor_tanda_daftar": "005451.02/DJAI.PSE/07/2022",
        "qr_code": "https://pse.kominfo.go.id/storage/images/qr_code/ec5145759d4a518b593f2069afe495ab.png",
        "status_id": "TERDAFTAR",
        "sistem_elektronik_id": 7514
      }
    },
    {
      "type": "tdpseTerbit",
      "id": 7474,
      "attributes": {
        "nomor_pb_umku": "912030076266300010001",
        "nama": "WWW.BPRAMIRA.COM",
        "website": "bpramira.com",
        "sektor": "Sektor Keuangan",
        "nama_perusahaan": "BANK PERKREDITAN RAKYAT ARTA MITRA RAKYAT",
        "tanggal_daftar": "2022-07-20",
        "nomor_tanda_daftar": "005451.01/DJAI.PSE/07/2022",
        "qr_code": "https://pse.kominfo.go.id/storage/images/qr_code/fe51e91289d32b82682ec2e793672326.png",
        "status_id": "TERDAFTAR",
        "sistem_elektronik_id": 7382
      }
    },
    {
      "type": "tdpseTerbit",
      "id": 8021,
      "attributes": {
        "nomor_pb_umku": "912020480116200010005",
        "nama": "COMPANY PROFILE PT. TIGA MACAN MULTIMEDIA",
        "website": "timobile.tech",
        "sektor": "Sektor Teknologi Informasi dan Komunikasi",
        "nama_perusahaan": "TIGA MACAN MULTIMEDIA",
        "tanggal_daftar": "2022-07-20",
        "nomor_tanda_daftar": "005449.05/DJAI.PSE/07/2022",
        "qr_code": "https://pse.kominfo.go.id/storage/images/qr_code/3351c557884e896a03c411037f14b0e8.png",
        "status_id": "TERDAFTAR",
        "sistem_elektronik_id": 7945
      }
    },
    {
      "type": "tdpseTerbit",
      "id": 8013,
      "attributes": {
        "nomor_pb_umku": "912020480116200010004",
        "nama": "BALAP HOKI PORTAL",
        "website": "balaphoki.timobile.tech",
        "sektor": "Sektor Teknologi Informasi dan Komunikasi",
        "nama_perusahaan": "TIGA MACAN MULTIMEDIA",
        "tanggal_daftar": "2022-07-20",
        "nomor_tanda_daftar": "005449.04/DJAI.PSE/07/2022",
        "qr_code": "https://pse.kominfo.go.id/storage/images/qr_code/4203b308bc0685537a9e8dbeafb5df80.png",
        "status_id": "TERDAFTAR",
        "sistem_elektronik_id": 7933
      }
    },
    {
      "type": "tdpseTerbit",
      "id": 8005,
      "attributes": {
        "nomor_pb_umku": "912020480116200010003",
        "nama": "BALAP HOKI APPLICATION",
        "website": "-",
        "sektor": "Sektor Teknologi Informasi dan Komunikasi",
        "nama_perusahaan": "TIGA MACAN MULTIMEDIA",
        "tanggal_daftar": "2022-07-20",
        "nomor_tanda_daftar": "005449.03/DJAI.PSE/07/2022",
        "qr_code": "https://pse.kominfo.go.id/storage/images/qr_code/661f71600384dcbebce764b60ee783a1.png",
        "status_id": "TERDAFTAR",
        "sistem_elektronik_id": 7913
      }
    },
    {
      "type": "tdpseTerbit",
      "id": 8003,
      "attributes": {
        "nomor_pb_umku": "912020480116200010002",
        "nama": "BALAP HOKI",
        "website": "-",
        "sektor": "Sektor Teknologi Informasi dan Komunikasi",
        "nama_perusahaan": "TIGA MACAN MULTIMEDIA",
        "tanggal_daftar": "2022-07-20",
        "nomor_tanda_daftar": "005449.02/DJAI.PSE/07/2022",
        "qr_code": "https://pse.kominfo.go.id/storage/images/qr_code/aeb349224fa91dd517cb47f3cf83a1db.png",
        "status_id": "TERDAFTAR",
        "sistem_elektronik_id": 7881
      }
    },
    {
      "type": "tdpseTerbit",
      "id": 8001,
      "attributes": {
        "nomor_pb_umku": "912020480116200010002",
        "nama": "JUDGME",
        "website": "-",
        "sektor": "Sektor Teknologi Informasi dan Komunikasi",
        "nama_perusahaan": "TIGA MACAN MULTIMEDIA",
        "tanggal_daftar": "2022-07-20",
        "nomor_tanda_daftar": "005449.01/DJAI.PSE/07/2022",
        "qr_code": "https://pse.kominfo.go.id/storage/images/qr_code/d4fd3a8ff99ea4a3fcf94eb1b673d2e3.png",
        "status_id": "TERDAFTAR",
        "sistem_elektronik_id": 7869
      }
    },
    {
      "type": "tdpseTerbit",
      "id": 8849,
      "attributes": {
        "nomor_pb_umku": "912000476064900020002",
        "nama": "EZYDEAL 7 BY DIGISAHAM",
        "website": "universalbroker.co.id",
        "sektor": "Sektor Perdagangan, Sektor Keuangan, Sektor Teknologi Informasi dan Komunikasi",
        "nama_perusahaan": "UNIVERSAL BROKER INDONESIA SEKURITAS",
        "tanggal_daftar": "2022-07-22",
        "nomor_tanda_daftar": "005448.02/DJAI.PSE/07/2022",
        "qr_code": "https://pse.kominfo.go.id/storage/images/qr_code/7e08b7e0102a262720e19f4b9c28c131.png",
        "status_id": "TERDAFTAR",
        "sistem_elektronik_id": 8755
      }
    },
    {
      "type": "tdpseTerbit",
      "id": 7908,
      "attributes": {
        "nomor_pb_umku": "912000476064900020001",
        "nama": "EZYDEAL 5",
        "website": "universalbroker.co.id",
        "sektor": "Sektor Perdagangan, Sektor Keuangan, Sektor Teknologi Informasi dan Komunikasi",
        "nama_perusahaan": "UNIVERSAL BROKER INDONESIA SEKURITAS",
        "tanggal_daftar": "2022-07-20",
        "nomor_tanda_daftar": "005448.01/DJAI.PSE/07/2022",
        "qr_code": "https://pse.kominfo.go.id/storage/images/qr_code/72b7825ffb4fe765be79ac82337e088e.png",
        "status_id": "TERDAFTAR",
        "sistem_elektronik_id": 7819
      }
    },
    {
      "type": "tdpseTerbit",
      "id": 7432,
      "attributes": {
        "nomor_pb_umku": "123400011055600010001",
        "nama": "NBP SYS, SMA, SISCHA, DOMPET NBP, BANTU JUAL, CAS",
        "website": "bprnbp19.co.id",
        "sektor": "Sektor Keuangan, Sektor Teknologi Informasi dan Komunikasi",
        "nama_perusahaan": "BANK PERKREDITAN RAKYAT NUSANTARA BONA PASOGIT 19",
        "tanggal_daftar": "2022-07-20",
        "nomor_tanda_daftar": "005448.01/DJAI.PSE/07/2022",
        "qr_code": "https://pse.kominfo.go.id/storage/images/qr_code/481b0cc66783b3c7d63300adc44bc4ce.png",
        "status_id": "TERDAFTAR",
        "sistem_elektronik_id": 7335
      }
    }
  ]
}