{
  "meta": {
    "page": {
      "currentPage": 217,
      "from": 2161,
      "lastPage": 816,
      "perPage": 10,
      "to": 2170,
      "total": 8153
    }
  },
  "jsonapi": {
    "version": "1.0"
  },
  "links": {
    "first": "http://pse.kominfo.go.id/api/v1/jsonapi/tdpse-terbit?page%5Blimit%5D=10&page%5Bpage%5D=1",
    "last": "http://pse.kominfo.go.id/api/v1/jsonapi/tdpse-terbit?page%5Blimit%5D=10&page%5Bpage%5D=816",
    "next": "http://pse.kominfo.go.id/api/v1/jsonapi/tdpse-terbit?page%5Blimit%5D=10&page%5Bpage%5D=218",
    "prev": "http://pse.kominfo.go.id/api/v1/jsonapi/tdpse-terbit?page%5Blimit%5D=10&page%5Bpage%5D=216"
  },
  "data": [
    {
      "type": "tdpseTerbit",
      "id": "6419",
      "attributes": {
        "nomor_pb_umku": "812021927148600010008",
        "nama": "SALLY",
        "website": "kreditplus.com",
        "sektor": "Sektor Keuangan, Sektor Teknologi Informasi dan Komunikasi",
        "nama_tampil_badan_hukum": "PT",
        "nama_perusahaan": "PT KB FINANSIA MULTI FINANCE",
        "tanggal_daftar": "2022-07-18",
        "tanggal_terbit": "2022-07-18",
        "nomor_tanda_daftar": "000132.11/DJAI.PSE/07/2022",
        "qr_code": "http://pse.kominfo.go.id/api/v1/jsonapi/tdpse-terbit/qr-code/6419",
        "status_id": "TERDAFTAR",
        "sistem_elektronik_id": "6289",
        "keterangan": "-",
        "lokalitas": "LOKAL"
      },
      "links": {
        "self": "http://pse.kominfo.go.id/api/v1/jsonapi/tdpse-terbit/6419"
      }
    },
    {
      "type": "tdpseTerbit",
      "id": "6418",
      "attributes": {
        "nomor_pb_umku": "912030772390400040001",
        "nama": "CNNINDONESIA.COM",
        "website": "cnnindonesia.com",
        "sektor": "Sektor Teknologi Informasi dan Komunikasi",
        "nama_tampil_badan_hukum": "PT",
        "nama_perusahaan": "PT TRANS NEWS CORPORA",
        "tanggal_daftar": "2022-07-18",
        "tanggal_terbit": "2022-07-18",
        "nomor_tanda_daftar": "004125.01/DJAI.PSE/07/2022",
        "qr_code": "http://pse.kominfo.go.id/api/v1/jsonapi/tdpse-terbit/qr-code/6418",
        "status_id": "TERDAFTAR",
        "sistem_elektronik_id": "6284",
        "keterangan": "-",
        "lokalitas": "LOKAL"
      },
      "links": {
        "self": "http://pse.kominfo.go.id/api/v1/jsonapi/tdpse-terbit/6418"
      }
    },
    {
      "type": "tdpseTerbit",
      "id": "6417",
      "attributes": {
        "nomor_pb_umku": "912020283091500010001",
        "nama": "IBS CORE BANKING USSI",
        "website": "bprprofidana.com",
        "sektor": "Sektor Keuangan",
        "nama_tampil_badan_hukum": "PT",
        "nama_perusahaan": "PT BANK PERKREDITAN RAKYAT PROFIDANA PARAMITRA",
        "tanggal_daftar": "2022-07-18",
        "tanggal_terbit": "2022-07-18",
        "nomor_tanda_daftar": "004641.01/DJAI.PSE/07/2022",
        "qr_code": "http://pse.kominfo.go.id/api/v1/jsonapi/tdpse-terbit/qr-code/6417",
        "status_id": "TERDAFTAR",
        "sistem_elektronik_id": "6283",
        "keterangan": "-",
        "lokalitas": "LOKAL"
      },
      "links": {
        "self": "http://pse.kominfo.go.id/api/v1/jsonapi/tdpse-terbit/6417"
      }
    },
    {
      "type": "tdpseTerbit",
      "id": "6416",
      "attributes": {
        "nomor_pb_umku": "912020259293500020004",
        "nama": "WEBSITE KANTORPENGACARA.CO",
        "website": "kantorpengacara.co",
        "sektor": "Sektor Perdagangan",
        "nama_tampil_badan_hukum": "PT",
        "nama_perusahaan": "PT PRO LEGAL INDONESIA",
        "tanggal_daftar": "2022-07-18",
        "tanggal_terbit": "2022-07-18",
        "nomor_tanda_daftar": "004079.04/DJAI.PSE/07/2022",
        "qr_code": "http://pse.kominfo.go.id/api/v1/jsonapi/tdpse-terbit/qr-code/6416",
        "status_id": "TERDAFTAR",
        "sistem_elektronik_id": "6282",
        "keterangan": "-",
        "lokalitas": "LOKAL"
      },
      "links": {
        "self": "http://pse.kominfo.go.id/api/v1/jsonapi/tdpse-terbit/6416"
      }
    },
    {
      "type": "tdpseTerbit",
      "id": "6415",
      "attributes": {
        "nomor_pb_umku": "027900092245100000002",
        "nama": "SEKOLAHMODERN",
        "website": "sekolahmodern.com",
        "sektor": "Sektor Teknologi Informasi dan Komunikasi",
        "nama_tampil_badan_hukum": "PT",
        "nama_perusahaan": "PT NEQODE RETHA INDONESIA",
        "tanggal_daftar": "2022-07-18",
        "tanggal_terbit": "2022-07-18",
        "nomor_tanda_daftar": "004703.03/DJAI.PSE/07/2022",
        "qr_code": "http://pse.kominfo.go.id/api/v1/jsonapi/tdpse-terbit/qr-code/6415",
        "status_id": "TERDAFTAR",
        "sistem_elektronik_id": "6279",
        "keterangan": "-",
        "lokalitas": "LOKAL"
      },
      "links": {
        "self": "http://pse.kominfo.go.id/api/v1/jsonapi/tdpse-terbit/6415"
      }
    },
    {
      "type": "tdpseTerbit",
      "id": "6414",
      "attributes": {
        "nomor_pb_umku": "812020789097700020003",
        "nama": "KLINIKPINTAR",
        "website": "klinikpintar.id",
        "sektor": "Sektor Kesehatan",
        "nama_tampil_badan_hukum": "PT",
        "nama_perusahaan": "PT MEDIGO TEKNOLOGI KESEHATAN",
        "tanggal_daftar": "2022-07-18",
        "tanggal_terbit": "2022-07-18",
        "nomor_tanda_daftar": "001216.02/DJAI.PSE/07/2022",
        "qr_code": "http://pse.kominfo.go.id/api/v1/jsonapi/tdpse-terbit/qr-code/6414",
        "status_id": "TERDAFTAR",
        "sistem_elektronik_id": "6280",
        "keterangan": "-",
        "lokalitas": "LOKAL"
      },
      "links": {
        "self": "http://pse.kominfo.go.id/api/v1/jsonapi/tdpse-terbit/6414"
      }
    },
    {
      "type": "tdpseTerbit",
      "id": "6413",
      "attributes": {
        "nomor_pb_umku": "912030077198800040005",
        "nama": "EMAIL PERUSAHAAN",
        "website": "suryayudha.id",
        "sektor": "Sektor Keuangan",
        "nama_tampil_badan_hukum": "PT",
        "nama_perusahaan": "PT BANK PERKREDITAN RAKYAT SURYA YUDHAKENCANA",
        "tanggal_daftar": "2022-07-18",
        "tanggal_terbit": "2022-07-18",
        "nomor_tanda_daftar": "001835.04/DJAI.PSE/07/2022",
        "qr_code": "http://pse.kominfo.go.id/api/v1/jsonapi/tdpse-terbit/qr-code/6413",
        "status_id": "TERDAFTAR",
        "sistem_elektronik_id": "6274",
        "keterangan": "-",
        "lokalitas": "LOKAL"
      },
      "links": {
        "self": "http://pse.kominfo.go.id/api/v1/jsonapi/tdpse-terbit/6413"
      }
    },
    {
      "type": "tdpseTerbit",
      "id": "6412",
      "attributes": {
        "nomor_pb_umku": "912031707092200010010",
        "nama": "CORPORATE MANAGEMENT SYSTEM",
        "website": "cms.bankraya.co.id",
        "sektor": "Sektor Keuangan",
        "nama_tampil_badan_hukum": "PT",
        "nama_perusahaan": "PT BANK RAYA INDONESIA",
        "tanggal_daftar": "2022-07-18",
        "tanggal_terbit": "2022-07-18",
        "nomor_tanda_daftar": "004288.10/DJAI.PSE/07/2022",
        "qr_code": "http://pse.kominfo.go.id/api/v1/jsonapi/tdpse-terbit/qr-code/6412",
        "status_id": "TERDAFTAR",
        "sistem_elektronik_id": "6276",
        "keterangan": "-",
        "lokalitas": "LOKAL"
      },
      "links": {
        "self": "http://pse.kominfo.go.id/api/v1/jsonapi/tdpse-terbit/6412"
      }
    },
    {
      "type": "tdpseTerbit",
      "id": "6411",
      "attributes": {
        "nomor_pb_umku": "260222000591600010001",
        "nama": "VOLTARA",
        "website": "voltara.id",
        "sektor": "Sektor Energi dan Sumber Daya Mineral",
        "nama_tampil_badan_hukum": "PT",
        "nama_perusahaan": "PT LAYANAN INTEGRASI TEKNOLOGI",
        "tanggal_daftar": "2022-07-18",
        "tanggal_terbit": "2022-07-18",
        "nomor_tanda_daftar": "004203.01/DJAI.PSE/07/2022",
        "qr_code": "http://pse.kominfo.go.id/api/v1/jsonapi/tdpse-terbit/qr-code/6411",
        "status_id": "TERDAFTAR",
        "sistem_elektronik_id": "6275",
        "keterangan": "-",
        "lokalitas": "LOKAL"
      },
      "links": {
        "self": "http://pse.kominfo.go.id/api/v1/jsonapi/tdpse-terbit/6411"
      }
    },
    {
      "type": "tdpseTerbit",
      "id": "6410",
      "attributes": {
        "nomor_pb_umku": "912000788203100010001",
        "nama": "BANK PERKREDITAN RAKYAT CITRA DANA MANDIRI",
        "website": "bankcitra.co.id",
        "sektor": "Sektor Keuangan",
        "nama_tampil_badan_hukum": "PT",
        "nama_perusahaan": "PT BANK PERKREDITAN RAKYAT CITRA DANA MANDIRI",
        "tanggal_daftar": "2022-07-18",
        "tanggal_terbit": "2022-07-18",
        "nomor_tanda_daftar": "004685.01/DJAI.PSE/07/2022",
        "qr_code": "http://pse.kominfo.go.id/api/v1/jsonapi/tdpse-terbit/qr-code/6410",
        "status_id": "TERDAFTAR",
        "sistem_elektronik_id": "6273",
        "keterangan": "-",
        "lokalitas": "LOKAL"
      },
      "links": {
        "self": "http://pse.kominfo.go.id/api/v1/jsonapi/tdpse-terbit/6410"
      }
    }
  ]
}