{
  "meta": {
    "page": {
      "currentPage": 23,
      "from": 221,
      "lastPage": 1113,
      "perPage": 10,
      "to": 230,
      "total": 11124
    }
  },
  "data": [
    {
      "type": "tdpseTerbit",
      "id": 12126,
      "attributes": {
        "nomor_pb_umku": "311022003779300000001",
        "nama": "HOREGO",
        "website": "HOREGO.ID",
        "sektor": "Sektor Perdagangan",
        "nama_perusahaan": "HOREGO BANGUN INDONESIA",
        "tanggal_daftar": "2022-11-04",
        "nomor_tanda_daftar": "008319.01/DJAI.PSE/11/2022",
        "qr_code": "https://pse.kominfo.go.id/storage/images/qr_code/c9ea03e3ed4fb2c1b8641749de111ece.png",
        "status_id": "TERDAFTAR",
        "sistem_elektronik_id": 11920
      }
    },
    {
      "type": "tdpseTerbit",
      "id": 12053,
      "attributes": {
        "nomor_pb_umku": "912031004108600050001",
        "nama": "STARTRACK",
        "website": "star-am.com",
        "sektor": "Sektor Keuangan",
        "nama_perusahaan": "SURYA TIMUR ALAM RAYA ASSET MANAGEMENT",
        "tanggal_daftar": "2022-10-31",
        "nomor_tanda_daftar": "008316.01/DJAI.PSE/10/2022",
        "qr_code": "https://pse.kominfo.go.id/storage/images/qr_code/b06721f8522c5fab0ee10c8a0d3760ed.png",
        "status_id": "TERDAFTAR",
        "sistem_elektronik_id": 11856
      }
    },
    {
      "type": "tdpseTerbit",
      "id": 12051,
      "attributes": {
        "nomor_pb_umku": "020401022166800000001",
        "nama": "MEDICO",
        "website": "medico.id",
        "sektor": "Sektor Perdagangan",
        "nama_perusahaan": "SILIKON DIGITAL INDONESIA",
        "tanggal_daftar": "2022-10-31",
        "nomor_tanda_daftar": "008315.01/DJAI.PSE/10/2022",
        "qr_code": "https://pse.kominfo.go.id/storage/images/qr_code/241e07acd8b18ae6d96c4d09935222a9.png",
        "status_id": "TERDAFTAR",
        "sistem_elektronik_id": 11854
      }
    },
    {
      "type": "tdpseTerbit",
      "id": 12049,
      "attributes": {
        "nomor_pb_umku": "311022004086400010001",
        "nama": "SAGARA MOBILE",
        "website": "-",
        "sektor": "Sektor Teknologi Informasi dan Komunikasi",
        "nama_perusahaan": "MUKHTAR HANIF MUHAMMAD",
        "tanggal_daftar": "2022-10-31",
        "nomor_tanda_daftar": "008313.01/DJAI.PSE/10/2022",
        "qr_code": "https://pse.kominfo.go.id/storage/images/qr_code/3f552f6ca4afbddca8d3b7df32387713.png",
        "status_id": "TERDAFTAR",
        "sistem_elektronik_id": 11852
      }
    },
    {
      "type": "tdpseTerbit",
      "id": 12047,
      "attributes": {
        "nomor_pb_umku": "912020556150400110001",
        "nama": "MEDICLOUD",
        "website": "medicloud.co.id",
        "sektor": "Sektor Kesehatan",
        "nama_perusahaan": "SUDAMI JAYA MEDIKA",
        "tanggal_daftar": "2022-10-31",
        "nomor_tanda_daftar": "008312.01/DJAI.PSE/10/2022",
        "qr_code": "https://pse.kominfo.go.id/storage/images/qr_code/8d6bd284250e725f89182ffb2d00cfbf.png",
        "status_id": "TERDAFTAR",
        "sistem_elektronik_id": 11850
      }
    },
    {
      "type": "tdpseTerbit",
      "id": 12046,
      "attributes": {
        "nomor_pb_umku": "912010019331700010001",
        "nama": "DJSA",
        "website": "-",
        "sektor": "Sektor Kesehatan",
        "nama_perusahaan": "DWIJAYA SENTOSA ABADI",
        "tanggal_daftar": "2022-10-31",
        "nomor_tanda_daftar": "008311.01/DJAI.PSE/10/2022",
        "qr_code": "https://pse.kominfo.go.id/storage/images/qr_code/6691008774740ef82bd3d475f946ca87.png",
        "status_id": "TERDAFTAR",
        "sistem_elektronik_id": 11849
      }
    },
    {
      "type": "tdpseTerbit",
      "id": 12057,
      "attributes": {
        "nomor_pb_umku": "070222003544600040001",
        "nama": "LEGALKITA",
        "website": "legalkita.id",
        "sektor": "Sektor Teknologi Informasi dan Komunikasi",
        "nama_perusahaan": "DIGITAL KITA INDONESIA",
        "tanggal_daftar": "2022-10-31",
        "nomor_tanda_daftar": "008310.01/DJAI.PSE/10/2022",
        "qr_code": "https://pse.kominfo.go.id/storage/images/qr_code/326e0f36abc1a3981bcd249290553bd2.png",
        "status_id": "TERDAFTAR",
        "sistem_elektronik_id": 11860
      }
    },
    {
      "type": "tdpseTerbit",
      "id": 12122,
      "attributes": {
        "nomor_pb_umku": "020622006292800060001",
        "nama": "NATURA HERBALIZE INDONESIA",
        "website": "naturaherbalize.com",
        "sektor": "Sektor Perdagangan",
        "nama_perusahaan": "NATURA HERBALIZE INDONESIA",
        "tanggal_daftar": "2022-11-03",
        "nomor_tanda_daftar": "008309.01/DJAI.PSE/11/2022",
        "qr_code": "https://pse.kominfo.go.id/storage/images/qr_code/866c94395873e716e9bc043b31636c43.png",
        "status_id": "TERDAFTAR",
        "sistem_elektronik_id": 11916
      }
    },
    {
      "type": "tdpseTerbit",
      "id": 12019,
      "attributes": {
        "nomor_pb_umku": "301022000399600000001",
        "nama": "APLIKASI SAMBAR",
        "website": "-",
        "sektor": "Sektor Transportasi",
        "nama_perusahaan": "NURSYAHIDAH",
        "tanggal_daftar": "2022-10-30",
        "nomor_tanda_daftar": "008308.01/DJAI.PSE/10/2022",
        "qr_code": "https://pse.kominfo.go.id/storage/images/qr_code/f3921c093c7f18d1bfd2d938f351bd2f.png",
        "status_id": "TERDAFTAR",
        "sistem_elektronik_id": 11823
      }
    },
    {
      "type": "tdpseTerbit",
      "id": 12018,
      "attributes": {
        "nomor_pb_umku": "280922003787900020001",
        "nama": "IDDIGITECH.ID",
        "website": "iddigitech.id",
        "sektor": "Sektor Teknologi Informasi dan Komunikasi",
        "nama_perusahaan": "DIGITECH SIBER WEB",
        "tanggal_daftar": "2022-10-30",
        "nomor_tanda_daftar": "008306.01/DJAI.PSE/10/2022",
        "qr_code": "https://pse.kominfo.go.id/storage/images/qr_code/7a25a17af9c4ef9f8917919a55d3512c.png",
        "status_id": "TERDAFTAR",
        "sistem_elektronik_id": 11822
      }
    }
  ]
}