{
  "meta": {
    "page": {
      "currentPage": 222,
      "from": 2211,
      "lastPage": 816,
      "perPage": 10,
      "to": 2220,
      "total": 8153
    }
  },
  "jsonapi": {
    "version": "1.0"
  },
  "links": {
    "first": "http://pse.kominfo.go.id/api/v1/jsonapi/tdpse-terbit?page%5Blimit%5D=10&page%5Bpage%5D=1",
    "last": "http://pse.kominfo.go.id/api/v1/jsonapi/tdpse-terbit?page%5Blimit%5D=10&page%5Bpage%5D=816",
    "next": "http://pse.kominfo.go.id/api/v1/jsonapi/tdpse-terbit?page%5Blimit%5D=10&page%5Bpage%5D=223",
    "prev": "http://pse.kominfo.go.id/api/v1/jsonapi/tdpse-terbit?page%5Blimit%5D=10&page%5Bpage%5D=221"
  },
  "data": [
    {
      "type": "tdpseTerbit",
      "id": "6344",
      "attributes": {
        "nomor_pb_umku": "812001816045400090002",
        "nama": "LESTARI DISKON",
        "website": "-",
        "sektor": "Sektor Keuangan",
        "nama_tampil_badan_hukum": "PT",
        "nama_perusahaan": "PT BANK PERKREDITAN RAKYAT LESTARI BALI",
        "tanggal_daftar": "2022-07-18",
        "tanggal_terbit": "2022-07-18",
        "nomor_tanda_daftar": "004092.02/DJAI.PSE/07/2022",
        "qr_code": "http://pse.kominfo.go.id/api/v1/jsonapi/tdpse-terbit/qr-code/6344",
        "status_id": "TERDAFTAR",
        "sistem_elektronik_id": "6206",
        "keterangan": "-",
        "lokalitas": "LOKAL"
      },
      "links": {
        "self": "http://pse.kominfo.go.id/api/v1/jsonapi/tdpse-terbit/6344"
      }
    },
    {
      "type": "tdpseTerbit",
      "id": "6342",
      "attributes": {
        "nomor_pb_umku": "090322005790500020001",
        "nama": "WIDYA INSTITUTE",
        "website": "widya.institute",
        "sektor": "Sektor Teknologi Informasi dan Komunikasi",
        "nama_tampil_badan_hukum": "PT",
        "nama_perusahaan": "PT WIDYA INSTITUSI TEKNOLOGI",
        "tanggal_daftar": "2022-07-18",
        "tanggal_terbit": "2022-07-18",
        "nomor_tanda_daftar": "004299.01/DJAI.PSE/07/2022",
        "qr_code": "http://pse.kominfo.go.id/api/v1/jsonapi/tdpse-terbit/qr-code/6342",
        "status_id": "TERDAFTAR",
        "sistem_elektronik_id": "5983",
        "keterangan": "-",
        "lokalitas": "LOKAL"
      },
      "links": {
        "self": "http://pse.kominfo.go.id/api/v1/jsonapi/tdpse-terbit/6342"
      }
    },
    {
      "type": "tdpseTerbit",
      "id": "6341",
      "attributes": {
        "nomor_pb_umku": "040222003084900010001",
        "nama": "PT. BPR PESONA LETRIS PRATAMA",
        "website": "bprpesonaletrispratama.co.id",
        "sektor": "Sektor Keuangan",
        "nama_tampil_badan_hukum": "PT",
        "nama_perusahaan": "PT BANK PERKREDITAN RAKYAT PESONA LETRIS PRATAMA",
        "tanggal_daftar": "2022-07-18",
        "tanggal_terbit": "2022-07-18",
        "nomor_tanda_daftar": "004664.01/DJAI.PSE/07/2022",
        "qr_code": "http://pse.kominfo.go.id/api/v1/jsonapi/tdpse-terbit/qr-code/6341",
        "status_id": "TERDAFTAR",
        "sistem_elektronik_id": "6204",
        "keterangan": "-",
        "lokalitas": "LOKAL"
      },
      "links": {
        "self": "http://pse.kominfo.go.id/api/v1/jsonapi/tdpse-terbit/6341"
      }
    },
    {
      "type": "tdpseTerbit",
      "id": "6340",
      "attributes": {
        "nomor_pb_umku": "912020553197500100005",
        "nama": "D-BILLINK",
        "website": "outsys.danamon.co.id",
        "sektor": "Sektor Keuangan",
        "nama_tampil_badan_hukum": "PT",
        "nama_perusahaan": "PT BANK DANAMON INDONESIA",
        "tanggal_daftar": "2022-07-18",
        "tanggal_terbit": "2022-07-18",
        "nomor_tanda_daftar": "000861.12/DJAI.PSE/07/2022",
        "qr_code": "http://pse.kominfo.go.id/api/v1/jsonapi/tdpse-terbit/qr-code/6340",
        "status_id": "TERDAFTAR",
        "sistem_elektronik_id": "6149",
        "keterangan": "-",
        "lokalitas": "LOKAL"
      },
      "links": {
        "self": "http://pse.kominfo.go.id/api/v1/jsonapi/tdpse-terbit/6340"
      }
    },
    {
      "type": "tdpseTerbit",
      "id": "6339",
      "attributes": {
        "nomor_pb_umku": "912020553197500100004",
        "nama": "DANAMON CASH CONNECT MOBILE APPLICATION",
        "website": "cashconnect.danamon.co.id",
        "sektor": "Sektor Keuangan",
        "nama_tampil_badan_hukum": "PT",
        "nama_perusahaan": "PT BANK DANAMON INDONESIA",
        "tanggal_daftar": "2022-07-18",
        "tanggal_terbit": "2022-07-18",
        "nomor_tanda_daftar": "000861.13/DJAI.PSE/07/2022",
        "qr_code": "http://pse.kominfo.go.id/api/v1/jsonapi/tdpse-terbit/qr-code/6339",
        "status_id": "TERDAFTAR",
        "sistem_elektronik_id": "6157",
        "keterangan": "-",
        "lokalitas": "LOKAL"
      },
      "links": {
        "self": "http://pse.kominfo.go.id/api/v1/jsonapi/tdpse-terbit/6339"
      }
    },
    {
      "type": "tdpseTerbit",
      "id": "6338",
      "attributes": {
        "nomor_pb_umku": "912010217115700010005",
        "nama": "WEBSITE PT DANA KINI INDONESIA",
        "website": "danakini.co.id",
        "sektor": "Sektor Keuangan",
        "nama_tampil_badan_hukum": "PT",
        "nama_perusahaan": "PT DANA KINI INDONESIA",
        "tanggal_daftar": "2022-07-18",
        "tanggal_terbit": "2022-07-18",
        "nomor_tanda_daftar": "001681.05/DJAI.PSE/07/2022",
        "qr_code": "http://pse.kominfo.go.id/api/v1/jsonapi/tdpse-terbit/qr-code/6338",
        "status_id": "TERDAFTAR",
        "sistem_elektronik_id": "6196",
        "keterangan": "-",
        "lokalitas": "LOKAL"
      },
      "links": {
        "self": "http://pse.kominfo.go.id/api/v1/jsonapi/tdpse-terbit/6338"
      }
    },
    {
      "type": "tdpseTerbit",
      "id": "6337",
      "attributes": {
        "nomor_pb_umku": "912010952194400010001",
        "nama": "WWW.BPRBEKONANG.COM",
        "website": "bprbekonang.com",
        "sektor": "Sektor Keuangan",
        "nama_tampil_badan_hukum": "PT",
        "nama_perusahaan": "PT BANK PERKREDITAN RAKYAT BEKONANG SUKOHARJO",
        "tanggal_daftar": "2022-07-18",
        "tanggal_terbit": "2022-07-18",
        "nomor_tanda_daftar": "004686.01/DJAI.PSE/07/2022",
        "qr_code": "http://pse.kominfo.go.id/api/v1/jsonapi/tdpse-terbit/qr-code/6337",
        "status_id": "TERDAFTAR",
        "sistem_elektronik_id": "6203",
        "keterangan": "-",
        "lokalitas": "LOKAL"
      },
      "links": {
        "self": "http://pse.kominfo.go.id/api/v1/jsonapi/tdpse-terbit/6337"
      }
    },
    {
      "type": "tdpseTerbit",
      "id": "6336",
      "attributes": {
        "nomor_pb_umku": "022010361157500010012",
        "nama": "MOBILE AUDIT BANK JATIM",
        "website": "mekka.bankjatim.co.id",
        "sektor": "Sektor Keuangan, Sektor Teknologi Informasi dan Komunikasi",
        "nama_tampil_badan_hukum": "PT",
        "nama_perusahaan": "PT BANK PEMBANGUNAN DAERAH JAWA TIMUR",
        "tanggal_daftar": "2022-07-18",
        "tanggal_terbit": "2022-07-18",
        "nomor_tanda_daftar": "004213.12/DJAI.PSE/07/2022",
        "qr_code": "http://pse.kominfo.go.id/api/v1/jsonapi/tdpse-terbit/qr-code/6336",
        "status_id": "TERDAFTAR",
        "sistem_elektronik_id": "6202",
        "keterangan": "-",
        "lokalitas": "LOKAL"
      },
      "links": {
        "self": "http://pse.kominfo.go.id/api/v1/jsonapi/tdpse-terbit/6336"
      }
    },
    {
      "type": "tdpseTerbit",
      "id": "6334",
      "attributes": {
        "nomor_pb_umku": "912040432189400560049",
        "nama": "APLIKASI ALFAGIFT",
        "website": "ALFAGIFT.ID",
        "sektor": "Sektor Perdagangan",
        "nama_tampil_badan_hukum": "PT",
        "nama_perusahaan": "PT SUMBER ALFARIA TRIJAYA",
        "tanggal_daftar": "2022-07-18",
        "tanggal_terbit": "2022-07-18",
        "nomor_tanda_daftar": "004614.02/DJAI.PSE/07/2022",
        "qr_code": "http://pse.kominfo.go.id/api/v1/jsonapi/tdpse-terbit/qr-code/6334",
        "status_id": "TERDAFTAR",
        "sistem_elektronik_id": "6198",
        "keterangan": "-",
        "lokalitas": "LOKAL"
      },
      "links": {
        "self": "http://pse.kominfo.go.id/api/v1/jsonapi/tdpse-terbit/6334"
      }
    },
    {
      "type": "tdpseTerbit",
      "id": "6333",
      "attributes": {
        "nomor_pb_umku": "180722004565100000001",
        "nama": "PT. BANK PERKREDITAN RAKYAT PRIMA MULIA ANUGRAH",
        "website": "bprpma.com",
        "sektor": "Sektor Keuangan",
        "nama_tampil_badan_hukum": "PT",
        "nama_perusahaan": "PT BANK PERKREDITAN RAKYAT PRIMA MULIA ANUGRAH",
        "tanggal_daftar": "2022-07-18",
        "tanggal_terbit": "2022-07-18",
        "nomor_tanda_daftar": "004634.01/DJAI.PSE/07/2022",
        "qr_code": "http://pse.kominfo.go.id/api/v1/jsonapi/tdpse-terbit/qr-code/6333",
        "status_id": "TERDAFTAR",
        "sistem_elektronik_id": "6200",
        "keterangan": "-",
        "lokalitas": "LOKAL"
      },
      "links": {
        "self": "http://pse.kominfo.go.id/api/v1/jsonapi/tdpse-terbit/6333"
      }
    }
  ]
}