{
  "meta": {
    "page": {
      "currentPage": 224,
      "from": 2231,
      "lastPage": 890,
      "perPage": 10,
      "to": 2240,
      "total": 8897
    }
  },
  "data": [
    {
      "type": "tdpseTerbit",
      "id": 6998,
      "attributes": {
        "nomor_pb_umku": "022010140033900010002",
        "nama": "WWW.BPRPANDE.COM",
        "website": "bprpande.com",
        "sektor": "Sektor Keuangan",
        "nama_perusahaan": "BANK PERKREDITAN RAKYAT PANDE ARTHA DEWATA",
        "tanggal_daftar": "2022-07-19",
        "nomor_tanda_daftar": "004605.02/DJAI.PSE/07/2022",
        "qr_code": "https://pse.kominfo.go.id/storage/images/qr_code/a9f4fe87d2a1e22fd45656b1896389ab.png",
        "status_id": "TERDAFTAR",
        "sistem_elektronik_id": 6855
      }
    },
    {
      "type": "tdpseTerbit",
      "id": 6275,
      "attributes": {
        "nomor_pb_umku": "",
        "nama": "DEJAYO",
        "website": "-",
        "sektor": "Sektor Keuangan",
        "nama_perusahaan": "BANK PERKREDITAN RAKYAT PANDE ARTHA DEWATA",
        "tanggal_daftar": "2022-07-18",
        "nomor_tanda_daftar": "004605.01/DJAI.PSE/07/2022",
        "qr_code": "https://pse.kominfo.go.id/storage/images/qr_code/0cf7a25859ae951acdf42eab239b9598.png",
        "status_id": "TERDAFTAR",
        "sistem_elektronik_id": 6135
      }
    },
    {
      "type": "tdpseTerbit",
      "id": 6195,
      "attributes": {
        "nomor_pb_umku": "026700090107900000001",
        "nama": "SEKOLAH STARTUP",
        "website": "sekolahstartup.com",
        "sektor": "Sektor Teknologi Informasi dan Komunikasi",
        "nama_perusahaan": "SOLUSI STARTUP INDONESIA",
        "tanggal_daftar": "2022-07-18",
        "nomor_tanda_daftar": "004603.01/DJAI.PSE/07/2022",
        "qr_code": "https://pse.kominfo.go.id/storage/images/qr_code/5351b1e6fc38910c06fdb7b18a3175ff.png",
        "status_id": "TERDAFTAR",
        "sistem_elektronik_id": 6061
      }
    },
    {
      "type": "tdpseTerbit",
      "id": 6320,
      "attributes": {
        "nomor_pb_umku": "022010675208100000001",
        "nama": "WEBSITE NIGHTSPADE MULTI KREASI",
        "website": "nightspade.com",
        "sektor": "Sektor Teknologi Informasi dan Komunikasi",
        "nama_perusahaan": "NIGHTSPADE MULTI KREASI",
        "tanggal_daftar": "2022-07-18",
        "nomor_tanda_daftar": "004602.01/DJAI.PSE/07/2022",
        "qr_code": "https://pse.kominfo.go.id/storage/images/qr_code/07eabf5699e48f8b786c4c36af0ff15d.png",
        "status_id": "TERDAFTAR",
        "sistem_elektronik_id": 6187
      }
    },
    {
      "type": "tdpseTerbit",
      "id": 6322,
      "attributes": {
        "nomor_pb_umku": "912010050143300010001",
        "nama": "INTEGRATED MICROBANKING SYSTEM",
        "website": "-",
        "sektor": "Sektor Keuangan",
        "nama_perusahaan": "BANK PERKREDITAN RAKYAT LAWU ARTHA",
        "tanggal_daftar": "2022-07-18",
        "nomor_tanda_daftar": "004601.01/DJAI.PSE/07/2022",
        "qr_code": "https://pse.kominfo.go.id/storage/images/qr_code/e990388fd84201c98249307c3bab345a.png",
        "status_id": "TERDAFTAR",
        "sistem_elektronik_id": 6189
      }
    },
    {
      "type": "tdpseTerbit",
      "id": 6276,
      "attributes": {
        "nomor_pb_umku": "180722002101800000001",
        "nama": "PT BPR LA MANGAU SEJAHTERA",
        "website": "ptbprlamangausejahtera.page.tl",
        "sektor": "Sektor Keuangan",
        "nama_perusahaan": "BANK PERKREDITAN RAKYAT LA MANGAU SEJAHTERA",
        "tanggal_daftar": "2022-07-18",
        "nomor_tanda_daftar": "004600.01/DJAI.PSE/07/2022",
        "qr_code": "https://pse.kominfo.go.id/storage/images/qr_code/553908826712fc932c842a0d5c3dc5da.png",
        "status_id": "TERDAFTAR",
        "sistem_elektronik_id": 6136
      }
    },
    {
      "type": "tdpseTerbit",
      "id": 6235,
      "attributes": {
        "nomor_pb_umku": "912030672158500010001",
        "nama": "PT. BPR ABRIN CENTRA ARTHA",
        "website": "bprabrincentraartha.com",
        "sektor": "Sektor Keuangan",
        "nama_perusahaan": "BANK PERKREDITAN RAKYAT ABRIN CENTRA ARTHA",
        "tanggal_daftar": "2022-07-18",
        "nomor_tanda_daftar": "004599.01/DJAI.PSE/07/2022",
        "qr_code": "https://pse.kominfo.go.id/storage/images/qr_code/f6ad22f58c5d25dbe38a7cee1d3d3a18.png",
        "status_id": "TERDAFTAR",
        "sistem_elektronik_id": 6089
      }
    },
    {
      "type": "tdpseTerbit",
      "id": 8428,
      "attributes": {
        "nomor_pb_umku": "180722001223500000001",
        "nama": "IBS COREBANKING",
        "website": "-",
        "sektor": "Sektor Keuangan",
        "nama_perusahaan": "BANK PERKREDITAN RAKYAT RAKYAT MANDIRI",
        "tanggal_daftar": "2022-07-21",
        "nomor_tanda_daftar": "004596.01/DJAI.PSE/07/2022",
        "qr_code": "https://pse.kominfo.go.id/storage/images/qr_code/ed5b84767aea343e8621765b1f26c3fa.png",
        "status_id": "TERDAFTAR",
        "sistem_elektronik_id": 8346
      }
    },
    {
      "type": "tdpseTerbit",
      "id": 8671,
      "attributes": {
        "nomor_pb_umku": "129600013269900160002",
        "nama": "MEDIKLIK",
        "website": "mediklik.co.id",
        "sektor": "Sektor Kesehatan, Sektor Teknologi Informasi dan Komunikasi",
        "nama_perusahaan": "SYNAPSA MEDIKATAMA INDONESIA",
        "tanggal_daftar": "2022-07-21",
        "nomor_tanda_daftar": "004595.01/DJAI.PSE/07/2022",
        "qr_code": "https://pse.kominfo.go.id/storage/images/qr_code/f2ff11c09a606be9b9ee2307f5b70cca.png",
        "status_id": "TERDAFTAR",
        "sistem_elektronik_id": 8588
      }
    },
    {
      "type": "tdpseTerbit",
      "id": 7778,
      "attributes": {
        "nomor_pb_umku": "812001706126200030001",
        "nama": "WEBSITE ORANGE DENTAL",
        "website": "orangedentalhouse.com",
        "sektor": "Sektor Kesehatan",
        "nama_perusahaan": "RADHINTA SENTOSA ABADI",
        "tanggal_daftar": "2022-07-20",
        "nomor_tanda_daftar": "004593.01/DJAI.PSE/07/2022",
        "qr_code": "https://pse.kominfo.go.id/storage/images/qr_code/3bc4b7613793b96896087a1dbddcca3c.png",
        "status_id": "TERDAFTAR",
        "sistem_elektronik_id": 7695
      }
    }
  ]
}