{
  "meta": {
    "page": {
      "currentPage": 232,
      "from": 2311,
      "lastPage": 816,
      "perPage": 10,
      "to": 2320,
      "total": 8153
    }
  },
  "jsonapi": {
    "version": "1.0"
  },
  "links": {
    "first": "http://pse.kominfo.go.id/api/v1/jsonapi/tdpse-terbit?page%5Blimit%5D=10&page%5Bpage%5D=1",
    "last": "http://pse.kominfo.go.id/api/v1/jsonapi/tdpse-terbit?page%5Blimit%5D=10&page%5Bpage%5D=816",
    "next": "http://pse.kominfo.go.id/api/v1/jsonapi/tdpse-terbit?page%5Blimit%5D=10&page%5Bpage%5D=233",
    "prev": "http://pse.kominfo.go.id/api/v1/jsonapi/tdpse-terbit?page%5Blimit%5D=10&page%5Bpage%5D=231"
  },
  "data": [
    {
      "type": "tdpseTerbit",
      "id": "6239",
      "attributes": {
        "nomor_pb_umku": "912020874381600010001",
        "nama": "AIDO HEALTH",
        "website": "Aido.id",
        "sektor": "Sektor Kesehatan, Sektor Teknologi Informasi dan Komunikasi",
        "nama_tampil_badan_hukum": "PT",
        "nama_perusahaan": "PT ABADI SELARAS CENDERAWASIH",
        "tanggal_daftar": "2022-07-18",
        "tanggal_terbit": "2022-07-18",
        "nomor_tanda_daftar": "004545.01/DJAI.PSE/07/2022",
        "qr_code": "http://pse.kominfo.go.id/api/v1/jsonapi/tdpse-terbit/qr-code/6239",
        "status_id": "TERDAFTAR",
        "sistem_elektronik_id": "5999",
        "keterangan": "-",
        "lokalitas": "LOKAL"
      },
      "links": {
        "self": "http://pse.kominfo.go.id/api/v1/jsonapi/tdpse-terbit/6239"
      }
    },
    {
      "type": "tdpseTerbit",
      "id": "6238",
      "attributes": {
        "nomor_pb_umku": "812000289391400640032",
        "nama": "WEBFORM BANK GARANSI",
        "website": "webform.bca.co.id",
        "sektor": "Sektor Keuangan",
        "nama_tampil_badan_hukum": "PT",
        "nama_perusahaan": "PT BANK CENTRAL ASIA",
        "tanggal_daftar": "2022-07-18",
        "tanggal_terbit": "2022-07-18",
        "nomor_tanda_daftar": "001669.34/DJAI.PSE/07/2022",
        "qr_code": "http://pse.kominfo.go.id/api/v1/jsonapi/tdpse-terbit/qr-code/6238",
        "status_id": "TERDAFTAR",
        "sistem_elektronik_id": "6102",
        "keterangan": "-",
        "lokalitas": "LOKAL"
      },
      "links": {
        "self": "http://pse.kominfo.go.id/api/v1/jsonapi/tdpse-terbit/6238"
      }
    },
    {
      "type": "tdpseTerbit",
      "id": "6237",
      "attributes": {
        "nomor_pb_umku": "023301001274700020011",
        "nama": "IFG PAY",
        "website": "pay.life.id",
        "sektor": "Sektor Keuangan",
        "nama_tampil_badan_hukum": "PT",
        "nama_perusahaan": "PT ASURANSI JIWA IFG",
        "tanggal_daftar": "2022-07-18",
        "tanggal_terbit": "2022-07-18",
        "nomor_tanda_daftar": "001739.12/DJAI.PSE/07/2022",
        "qr_code": "http://pse.kominfo.go.id/api/v1/jsonapi/tdpse-terbit/qr-code/6237",
        "status_id": "TERDAFTAR",
        "sistem_elektronik_id": "6098",
        "keterangan": "-",
        "lokalitas": "LOKAL"
      },
      "links": {
        "self": "http://pse.kominfo.go.id/api/v1/jsonapi/tdpse-terbit/6237"
      }
    },
    {
      "type": "tdpseTerbit",
      "id": "6236",
      "attributes": {
        "nomor_pb_umku": "812011705094600040026",
        "nama": "ECOLLECTION UMKM",
        "website": "-",
        "sektor": "Sektor Keuangan",
        "nama_tampil_badan_hukum": "",
        "nama_perusahaan": "BANK PEMBANGUNAN DAERAH JAWA BARAT DAN BANTEN TBK (BANK BJB)",
        "tanggal_daftar": "2022-07-18",
        "tanggal_terbit": "2022-07-18",
        "nomor_tanda_daftar": "003382.28/DJAI.PSE/07/2022",
        "qr_code": "http://pse.kominfo.go.id/api/v1/jsonapi/tdpse-terbit/qr-code/6236",
        "status_id": "TERDAFTAR",
        "sistem_elektronik_id": "6100",
        "keterangan": "-",
        "lokalitas": "LOKAL"
      },
      "links": {
        "self": "http://pse.kominfo.go.id/api/v1/jsonapi/tdpse-terbit/6236"
      }
    },
    {
      "type": "tdpseTerbit",
      "id": "6235",
      "attributes": {
        "nomor_pb_umku": "912030672158500010001",
        "nama": "PT. BPR ABRIN CENTRA ARTHA",
        "website": "bprabrincentraartha.com",
        "sektor": "Sektor Keuangan",
        "nama_tampil_badan_hukum": "PT",
        "nama_perusahaan": "PT BANK PERKREDITAN RAKYAT ABRIN CENTRA ARTHA",
        "tanggal_daftar": "2022-07-18",
        "tanggal_terbit": "2022-07-18",
        "nomor_tanda_daftar": "004599.01/DJAI.PSE/07/2022",
        "qr_code": "http://pse.kominfo.go.id/api/v1/jsonapi/tdpse-terbit/qr-code/6235",
        "status_id": "TERDAFTAR",
        "sistem_elektronik_id": "6089",
        "keterangan": "-",
        "lokalitas": "LOKAL"
      },
      "links": {
        "self": "http://pse.kominfo.go.id/api/v1/jsonapi/tdpse-terbit/6235"
      }
    },
    {
      "type": "tdpseTerbit",
      "id": "6234",
      "attributes": {
        "nomor_pb_umku": "129000023094700010002",
        "nama": "VIRALMU",
        "website": "viralmu.id",
        "sektor": "Sektor Perdagangan, Sektor Teknologi Informasi dan Komunikasi",
        "nama_tampil_badan_hukum": "PT",
        "nama_perusahaan": "PT SABUK DIGITAL NUSANTARA",
        "tanggal_daftar": "2022-07-18",
        "tanggal_terbit": "2022-07-18",
        "nomor_tanda_daftar": "002294.02/DJAI.PSE/07/2022",
        "qr_code": "http://pse.kominfo.go.id/api/v1/jsonapi/tdpse-terbit/qr-code/6234",
        "status_id": "TERDAFTAR",
        "sistem_elektronik_id": "6097",
        "keterangan": "-",
        "lokalitas": "LOKAL"
      },
      "links": {
        "self": "http://pse.kominfo.go.id/api/v1/jsonapi/tdpse-terbit/6234"
      }
    },
    {
      "type": "tdpseTerbit",
      "id": "6233",
      "attributes": {
        "nomor_pb_umku": "812001612095300020002",
        "nama": "VIRTUAL ACCOUNT PAYMENT GATEWAY (VAPG)",
        "website": "-",
        "sektor": "Sektor Keuangan",
        "nama_tampil_badan_hukum": "PT",
        "nama_perusahaan": "PT BANK MAYBANK INDONESIA",
        "tanggal_daftar": "2022-07-18",
        "tanggal_terbit": "2022-07-18",
        "nomor_tanda_daftar": "001617.06/DJAI.PSE/07/2022",
        "qr_code": "http://pse.kominfo.go.id/api/v1/jsonapi/tdpse-terbit/qr-code/6233",
        "status_id": "TERDAFTAR",
        "sistem_elektronik_id": "6099",
        "keterangan": "-",
        "lokalitas": "LOKAL"
      },
      "links": {
        "self": "http://pse.kominfo.go.id/api/v1/jsonapi/tdpse-terbit/6233"
      }
    },
    {
      "type": "tdpseTerbit",
      "id": "6232",
      "attributes": {
        "nomor_pb_umku": "912031707092200010002",
        "nama": "BUKA REKENING DIGITAL BANK RAYA",
        "website": "bukatabungan.bankraya.co.id",
        "sektor": "Sektor Keuangan",
        "nama_tampil_badan_hukum": "PT",
        "nama_perusahaan": "PT BANK RAYA INDONESIA",
        "tanggal_daftar": "2022-07-18",
        "tanggal_terbit": "2022-07-18",
        "nomor_tanda_daftar": "004288.02/DJAI.PSE/07/2022",
        "qr_code": "http://pse.kominfo.go.id/api/v1/jsonapi/tdpse-terbit/qr-code/6232",
        "status_id": "TERDAFTAR",
        "sistem_elektronik_id": "6096",
        "keterangan": "-",
        "lokalitas": "LOKAL"
      },
      "links": {
        "self": "http://pse.kominfo.go.id/api/v1/jsonapi/tdpse-terbit/6232"
      }
    },
    {
      "type": "tdpseTerbit",
      "id": "6231",
      "attributes": {
        "nomor_pb_umku": "912000368287700010001",
        "nama": "BPR PALU ANUGERAH",
        "website": "-",
        "sektor": "Sektor Keuangan",
        "nama_tampil_badan_hukum": "PT",
        "nama_perusahaan": "PT BANK PERKREDITAN RAKYAT PALU ANUGERAH",
        "tanggal_daftar": "2022-07-18",
        "tanggal_terbit": "2022-07-18",
        "nomor_tanda_daftar": "004357.01/DJAI.PSE/07/2022",
        "qr_code": "http://pse.kominfo.go.id/api/v1/jsonapi/tdpse-terbit/qr-code/6231",
        "status_id": "TERDAFTAR",
        "sistem_elektronik_id": "6093",
        "keterangan": "-",
        "lokalitas": "LOKAL"
      },
      "links": {
        "self": "http://pse.kominfo.go.id/api/v1/jsonapi/tdpse-terbit/6231"
      }
    },
    {
      "type": "tdpseTerbit",
      "id": "6230",
      "attributes": {
        "nomor_pb_umku": "022010158115300020002",
        "nama": "CORPORATE WEBSITE",
        "website": "allianz.co.id",
        "sektor": "Sektor Keuangan",
        "nama_tampil_badan_hukum": "PT",
        "nama_perusahaan": "PT ASURANSI ALLIANZ LIFE INDONESIA",
        "tanggal_daftar": "2022-07-18",
        "tanggal_terbit": "2022-07-18",
        "nomor_tanda_daftar": "000950.04/DJAI.PSE/07/2022",
        "qr_code": "http://pse.kominfo.go.id/api/v1/jsonapi/tdpse-terbit/qr-code/6230",
        "status_id": "TERDAFTAR",
        "sistem_elektronik_id": "6080",
        "keterangan": "-",
        "lokalitas": "LOKAL"
      },
      "links": {
        "self": "http://pse.kominfo.go.id/api/v1/jsonapi/tdpse-terbit/6230"
      }
    }
  ]
}