{
  "meta": {
    "page": {
      "currentPage": 234,
      "from": 2331,
      "lastPage": 908,
      "perPage": 10,
      "to": 2340,
      "total": 9074
    }
  },
  "data": [
    {
      "type": "tdpseTerbit",
      "id": 7123,
      "attributes": {
        "nomor_pb_umku": "812000382013500760002",
        "nama": "WWW.PLN.CO.ID",
        "website": "pln.co.id",
        "sektor": "Sektor Energi dan Sumber Daya Mineral",
        "nama_perusahaan": "PERUSAHAAN LISTRIK NEGARA (PERSERO)",
        "tanggal_daftar": "2022-07-19",
        "nomor_tanda_daftar": "004620.02/DJAI.PSE/07/2022",
        "qr_code": "https://pse.kominfo.go.id/storage/images/qr_code/e4b644e39f60b2145810e7fa569cb44e.png",
        "status_id": "TERDAFTAR",
        "sistem_elektronik_id": 6912
      }
    },
    {
      "type": "tdpseTerbit",
      "id": 6915,
      "attributes": {
        "nomor_pb_umku": "812000382013500760001",
        "nama": "PLN MOBILE",
        "website": "-",
        "sektor": "Sektor Energi dan Sumber Daya Mineral",
        "nama_perusahaan": "PERUSAHAAN LISTRIK NEGARA (PERSERO)",
        "tanggal_daftar": "2022-07-19",
        "nomor_tanda_daftar": "004620.01/DJAI.PSE/07/2022",
        "qr_code": "https://pse.kominfo.go.id/storage/images/qr_code/1b132954e5b167a3b80379a34acd6dfd.png",
        "status_id": "TERDAFTAR",
        "sistem_elektronik_id": 6763
      }
    },
    {
      "type": "tdpseTerbit",
      "id": 6306,
      "attributes": {
        "nomor_pb_umku": "124700024235700000003",
        "nama": "SOFTWARE INVENTORY SISTRACK",
        "website": "inventory.biz.id",
        "sektor": "Sektor Teknologi Informasi dan Komunikasi",
        "nama_perusahaan": "SISTRACK SOLUSINDO",
        "tanggal_daftar": "2022-07-18",
        "nomor_tanda_daftar": "004618.03/DJAI.PSE/07/2022",
        "qr_code": "https://pse.kominfo.go.id/storage/images/qr_code/61a84296e39ef64fae409417b5e571c3.png",
        "status_id": "TERDAFTAR",
        "sistem_elektronik_id": 6172
      }
    },
    {
      "type": "tdpseTerbit",
      "id": 6295,
      "attributes": {
        "nomor_pb_umku": "124700024235700000002",
        "nama": "SISTEM INFORMASI KLINIK SISTRACK",
        "website": "sisklinik.com",
        "sektor": "Sektor Teknologi Informasi dan Komunikasi",
        "nama_perusahaan": "SISTRACK SOLUSINDO",
        "tanggal_daftar": "2022-07-18",
        "nomor_tanda_daftar": "004618.02/DJAI.PSE/07/2022",
        "qr_code": "https://pse.kominfo.go.id/storage/images/qr_code/dd7b1d2df8e1e7d9729364328ddedfd2.png",
        "status_id": "TERDAFTAR",
        "sistem_elektronik_id": 6152
      }
    },
    {
      "type": "tdpseTerbit",
      "id": 6241,
      "attributes": {
        "nomor_pb_umku": "124700024235700000001",
        "nama": "LACAKGPSTRACKERKU",
        "website": "gpstrackerku.com",
        "sektor": "Sektor Teknologi Informasi dan Komunikasi",
        "nama_perusahaan": "SISTRACK SOLUSINDO",
        "tanggal_daftar": "2022-07-18",
        "nomor_tanda_daftar": "004618.01/DJAI.PSE/07/2022",
        "qr_code": "https://pse.kominfo.go.id/storage/images/qr_code/d50c0cd96fca8be5268ccce805beab55.png",
        "status_id": "TERDAFTAR",
        "sistem_elektronik_id": 6104
      }
    },
    {
      "type": "tdpseTerbit",
      "id": 6944,
      "attributes": {
        "nomor_pb_umku": "",
        "nama": "KREDITEK",
        "website": "-",
        "sektor": "Sektor Keuangan",
        "nama_perusahaan": "BANK PERKREDITAN RAKYAT HOKI",
        "tanggal_daftar": "2022-07-19",
        "nomor_tanda_daftar": "004617.06/DJAI.PSE/07/2022",
        "qr_code": "https://pse.kominfo.go.id/storage/images/qr_code/57e1ff0104e6ea442eb68babc76eae90.png",
        "status_id": "TERDAFTAR",
        "sistem_elektronik_id": 6800
      }
    },
    {
      "type": "tdpseTerbit",
      "id": 6860,
      "attributes": {
        "nomor_pb_umku": "125500030142700000005",
        "nama": "IBS DASHBOARD",
        "website": "bprhoki.com",
        "sektor": "Sektor Keuangan",
        "nama_perusahaan": "BANK PERKREDITAN RAKYAT HOKI",
        "tanggal_daftar": "2022-07-19",
        "nomor_tanda_daftar": "004617.05/DJAI.PSE/07/2022",
        "qr_code": "https://pse.kominfo.go.id/storage/images/qr_code/1192decbfdf9bf10d8190c300748168d.png",
        "status_id": "TERDAFTAR",
        "sistem_elektronik_id": 6708
      }
    },
    {
      "type": "tdpseTerbit",
      "id": 6792,
      "attributes": {
        "nomor_pb_umku": "125500030142700000004",
        "nama": "WEBSITE HOKIBANK",
        "website": "hokibank.co.id",
        "sektor": "Sektor Keuangan",
        "nama_perusahaan": "BANK PERKREDITAN RAKYAT HOKI",
        "tanggal_daftar": "2022-07-19",
        "nomor_tanda_daftar": "004617.04/DJAI.PSE/07/2022",
        "qr_code": "https://pse.kominfo.go.id/storage/images/qr_code/6eaab8e03107eb4ad66bae121ac361b5.png",
        "status_id": "TERDAFTAR",
        "sistem_elektronik_id": 6640
      }
    },
    {
      "type": "tdpseTerbit",
      "id": 6651,
      "attributes": {
        "nomor_pb_umku": "125500030142700000003",
        "nama": "IBS BRANCHLESS",
        "website": "hokibank.co.id",
        "sektor": "Sektor Keuangan",
        "nama_perusahaan": "BANK PERKREDITAN RAKYAT HOKI",
        "tanggal_daftar": "2022-07-19",
        "nomor_tanda_daftar": "004617.03/DJAI.PSE/07/2022",
        "qr_code": "https://pse.kominfo.go.id/storage/images/qr_code/8a0b15374063fac3201be0bf489dd136.png",
        "status_id": "TERDAFTAR",
        "sistem_elektronik_id": 6506
      }
    },
    {
      "type": "tdpseTerbit",
      "id": 6618,
      "attributes": {
        "nomor_pb_umku": "125500030142700000002",
        "nama": "IBS VIRTUAL ACCOUNT",
        "website": "hokibank.co.id",
        "sektor": "Sektor Keuangan",
        "nama_perusahaan": "BANK PERKREDITAN RAKYAT HOKI",
        "tanggal_daftar": "2022-07-19",
        "nomor_tanda_daftar": "004617.02/DJAI.PSE/07/2022",
        "qr_code": "https://pse.kominfo.go.id/storage/images/qr_code/fcbdee194f469e5c59a732717089b5f1.png",
        "status_id": "TERDAFTAR",
        "sistem_elektronik_id": 6475
      }
    }
  ]
}