{
  "meta": {
    "page": {
      "currentPage": 236,
      "from": 2351,
      "lastPage": 816,
      "perPage": 10,
      "to": 2360,
      "total": 8153
    }
  },
  "jsonapi": {
    "version": "1.0"
  },
  "links": {
    "first": "http://pse.kominfo.go.id/api/v1/jsonapi/tdpse-terbit?page%5Blimit%5D=10&page%5Bpage%5D=1",
    "last": "http://pse.kominfo.go.id/api/v1/jsonapi/tdpse-terbit?page%5Blimit%5D=10&page%5Bpage%5D=816",
    "next": "http://pse.kominfo.go.id/api/v1/jsonapi/tdpse-terbit?page%5Blimit%5D=10&page%5Bpage%5D=237",
    "prev": "http://pse.kominfo.go.id/api/v1/jsonapi/tdpse-terbit?page%5Blimit%5D=10&page%5Bpage%5D=235"
  },
  "data": [
    {
      "type": "tdpseTerbit",
      "id": "6195",
      "attributes": {
        "nomor_pb_umku": "026700090107900000001",
        "nama": "SEKOLAH STARTUP",
        "website": "sekolahstartup.com",
        "sektor": "Sektor Teknologi Informasi dan Komunikasi",
        "nama_tampil_badan_hukum": "PT",
        "nama_perusahaan": "PT SOLUSI STARTUP INDONESIA",
        "tanggal_daftar": "2022-07-18",
        "tanggal_terbit": "2022-07-18",
        "nomor_tanda_daftar": "004603.01/DJAI.PSE/07/2022",
        "qr_code": "http://pse.kominfo.go.id/api/v1/jsonapi/tdpse-terbit/qr-code/6195",
        "status_id": "TERDAFTAR",
        "sistem_elektronik_id": "6061",
        "keterangan": "-",
        "lokalitas": "LOKAL"
      },
      "links": {
        "self": "http://pse.kominfo.go.id/api/v1/jsonapi/tdpse-terbit/6195"
      }
    },
    {
      "type": "tdpseTerbit",
      "id": "6194",
      "attributes": {
        "nomor_pb_umku": "912020190055200010002",
        "nama": "ADITAMA MOBILE",
        "website": "-",
        "sektor": "Sektor Keuangan",
        "nama_tampil_badan_hukum": "PT",
        "nama_perusahaan": "PT ADITAMA FINANCE",
        "tanggal_daftar": "2022-07-18",
        "tanggal_terbit": "2022-07-18",
        "nomor_tanda_daftar": "004170.02/DJAI.PSE/07/2022",
        "qr_code": "http://pse.kominfo.go.id/api/v1/jsonapi/tdpse-terbit/qr-code/6194",
        "status_id": "TERDAFTAR",
        "sistem_elektronik_id": "6060",
        "keterangan": "-",
        "lokalitas": "LOKAL"
      },
      "links": {
        "self": "http://pse.kominfo.go.id/api/v1/jsonapi/tdpse-terbit/6194"
      }
    },
    {
      "type": "tdpseTerbit",
      "id": "6193",
      "attributes": {
        "nomor_pb_umku": "080422004216600010001",
        "nama": "MODUIT",
        "website": "moduit.id",
        "sektor": "Sektor Keuangan",
        "nama_tampil_badan_hukum": "PT",
        "nama_perusahaan": "PT MODUIT DIGITAL INDONESIA",
        "tanggal_daftar": "2022-07-18",
        "tanggal_terbit": "2022-07-18",
        "nomor_tanda_daftar": "004111.01/DJAI.PSE/07/2022",
        "qr_code": "http://pse.kominfo.go.id/api/v1/jsonapi/tdpse-terbit/qr-code/6193",
        "status_id": "TERDAFTAR",
        "sistem_elektronik_id": "6058",
        "keterangan": "-",
        "lokalitas": "LOKAL"
      },
      "links": {
        "self": "http://pse.kominfo.go.id/api/v1/jsonapi/tdpse-terbit/6193"
      }
    },
    {
      "type": "tdpseTerbit",
      "id": "6192",
      "attributes": {
        "nomor_pb_umku": "912031510108800000001",
        "nama": "PASTI: PCR, ANTIGEN, SEROLOGY, TESTING INTEGRITY",
        "website": "bumame.cloud.co.id",
        "sektor": "Sektor Kesehatan",
        "nama_tampil_badan_hukum": "PT",
        "nama_perusahaan": "PT REALTA CHAKRADARMA",
        "tanggal_daftar": "2022-07-18",
        "tanggal_terbit": "2022-07-18",
        "nomor_tanda_daftar": "004583.01/DJAI.PSE/07/2022",
        "qr_code": "http://pse.kominfo.go.id/api/v1/jsonapi/tdpse-terbit/qr-code/6192",
        "status_id": "TERDAFTAR",
        "sistem_elektronik_id": "6059",
        "keterangan": "-",
        "lokalitas": "LOKAL"
      },
      "links": {
        "self": "http://pse.kominfo.go.id/api/v1/jsonapi/tdpse-terbit/6192"
      }
    },
    {
      "type": "tdpseTerbit",
      "id": "6191",
      "attributes": {
        "nomor_pb_umku": "122500444292300020003",
        "nama": "INTERNET BANKING KORPORASI BPD BALI",
        "website": "ibank.bpdbali.id",
        "sektor": "Sektor Keuangan",
        "nama_tampil_badan_hukum": "PT",
        "nama_perusahaan": "PT BANK PEMBANGUNAN DAERAH BALI",
        "tanggal_daftar": "2022-07-18",
        "tanggal_terbit": "2022-07-18",
        "nomor_tanda_daftar": "004518.03/DJAI.PSE/07/2022",
        "qr_code": "http://pse.kominfo.go.id/api/v1/jsonapi/tdpse-terbit/qr-code/6191",
        "status_id": "TERDAFTAR",
        "sistem_elektronik_id": "6057",
        "keterangan": "-",
        "lokalitas": "LOKAL"
      },
      "links": {
        "self": "http://pse.kominfo.go.id/api/v1/jsonapi/tdpse-terbit/6191"
      }
    },
    {
      "type": "tdpseTerbit",
      "id": "6190",
      "attributes": {
        "nomor_pb_umku": "912020279118300010001",
        "nama": "WEBSITE PERUSAHAAN BPR MODERN EXPRESS SULAWESI SELATAN",
        "website": "bprmodex-sulsel.com",
        "sektor": "Sektor Keuangan",
        "nama_tampil_badan_hukum": "PT",
        "nama_perusahaan": "PT BANK PERKREDITAN RAKYAT MODERN EXPRESS SULAWESI SELATAN",
        "tanggal_daftar": "2022-07-18",
        "tanggal_terbit": "2022-07-18",
        "nomor_tanda_daftar": "004591.01/DJAI.PSE/07/2022",
        "qr_code": "http://pse.kominfo.go.id/api/v1/jsonapi/tdpse-terbit/qr-code/6190",
        "status_id": "TERDAFTAR",
        "sistem_elektronik_id": "6056",
        "keterangan": "-",
        "lokalitas": "LOKAL"
      },
      "links": {
        "self": "http://pse.kominfo.go.id/api/v1/jsonapi/tdpse-terbit/6190"
      }
    },
    {
      "type": "tdpseTerbit",
      "id": "6189",
      "attributes": {
        "nomor_pb_umku": "180722003815500000001",
        "nama": "CHECKPOINT",
        "website": "aroundus.my.id",
        "sektor": "Sektor Perdagangan",
        "nama_tampil_badan_hukum": "",
        "nama_perusahaan": "AGUNG DIAN SAPUTRA",
        "tanggal_daftar": "2022-07-18",
        "tanggal_terbit": "2022-07-18",
        "nomor_tanda_daftar": "004590.01/DJAI.PSE/07/2022",
        "qr_code": "http://pse.kominfo.go.id/api/v1/jsonapi/tdpse-terbit/qr-code/6189",
        "status_id": "TERDAFTAR",
        "sistem_elektronik_id": "6055",
        "keterangan": "-",
        "lokalitas": "LOKAL"
      },
      "links": {
        "self": "http://pse.kominfo.go.id/api/v1/jsonapi/tdpse-terbit/6189"
      }
    },
    {
      "type": "tdpseTerbit",
      "id": "6188",
      "attributes": {
        "nomor_pb_umku": "912020355282900010001",
        "nama": "PT BPR DANA PUTRA",
        "website": "bprdanaputra.com",
        "sektor": "Sektor Keuangan",
        "nama_tampil_badan_hukum": "PT",
        "nama_perusahaan": "PT BANK PERKREDITAN RAKYAT DANA PUTRA",
        "tanggal_daftar": "2022-07-18",
        "tanggal_terbit": "2022-07-18",
        "nomor_tanda_daftar": "004567.01/DJAI.PSE/07/2022",
        "qr_code": "http://pse.kominfo.go.id/api/v1/jsonapi/tdpse-terbit/qr-code/6188",
        "status_id": "TERDAFTAR",
        "sistem_elektronik_id": "6054",
        "keterangan": "-",
        "lokalitas": "LOKAL"
      },
      "links": {
        "self": "http://pse.kominfo.go.id/api/v1/jsonapi/tdpse-terbit/6188"
      }
    },
    {
      "type": "tdpseTerbit",
      "id": "6187",
      "attributes": {
        "nomor_pb_umku": "122500444292300020002",
        "nama": "INTERNET BANKING BPD BALI",
        "website": "ibank.bpdbali.id",
        "sektor": "Sektor Keuangan",
        "nama_tampil_badan_hukum": "PT",
        "nama_perusahaan": "PT BANK PEMBANGUNAN DAERAH BALI",
        "tanggal_daftar": "2022-07-18",
        "tanggal_terbit": "2022-07-18",
        "nomor_tanda_daftar": "004518.02/DJAI.PSE/07/2022",
        "qr_code": "http://pse.kominfo.go.id/api/v1/jsonapi/tdpse-terbit/qr-code/6187",
        "status_id": "TERDAFTAR",
        "sistem_elektronik_id": "6053",
        "keterangan": "-",
        "lokalitas": "LOKAL"
      },
      "links": {
        "self": "http://pse.kominfo.go.id/api/v1/jsonapi/tdpse-terbit/6187"
      }
    },
    {
      "type": "tdpseTerbit",
      "id": "6186",
      "attributes": {
        "nomor_pb_umku": "150322001713900010001",
        "nama": "PT BANK PERKREDITAN RAKYAT PASARRAYA KUTA",
        "website": "WWW.BANKRAYAKUTA.CO.ID",
        "sektor": "Sektor Keuangan",
        "nama_tampil_badan_hukum": "PT",
        "nama_perusahaan": "PT BANK PERKREDITAN RAKYAT PASARRAYA KUTA",
        "tanggal_daftar": "2022-07-18",
        "tanggal_terbit": "2022-07-18",
        "nomor_tanda_daftar": "004587.01/DJAI.PSE/07/2022",
        "qr_code": "http://pse.kominfo.go.id/api/v1/jsonapi/tdpse-terbit/qr-code/6186",
        "status_id": "TERDAFTAR",
        "sistem_elektronik_id": "6052",
        "keterangan": "-",
        "lokalitas": "LOKAL"
      },
      "links": {
        "self": "http://pse.kominfo.go.id/api/v1/jsonapi/tdpse-terbit/6186"
      }
    }
  ]
}