{
  "meta": {
    "page": {
      "currentPage": 239,
      "from": 2381,
      "lastPage": 816,
      "perPage": 10,
      "to": 2390,
      "total": 8153
    }
  },
  "jsonapi": {
    "version": "1.0"
  },
  "links": {
    "first": "http://pse.kominfo.go.id/api/v1/jsonapi/tdpse-terbit?page%5Blimit%5D=10&page%5Bpage%5D=1",
    "last": "http://pse.kominfo.go.id/api/v1/jsonapi/tdpse-terbit?page%5Blimit%5D=10&page%5Bpage%5D=816",
    "next": "http://pse.kominfo.go.id/api/v1/jsonapi/tdpse-terbit?page%5Blimit%5D=10&page%5Bpage%5D=240",
    "prev": "http://pse.kominfo.go.id/api/v1/jsonapi/tdpse-terbit?page%5Blimit%5D=10&page%5Bpage%5D=238"
  },
  "data": [
    {
      "type": "tdpseTerbit",
      "id": "6163",
      "attributes": {
        "nomor_pb_umku": "260422004343700010006",
        "nama": "EDC BPR SUPRA",
        "website": "-",
        "sektor": "Sektor Keuangan",
        "nama_tampil_badan_hukum": "PT",
        "nama_perusahaan": "PT BANK PERKREDITAN RAKYAT SUPRA ARTAPERSADA",
        "tanggal_daftar": "2022-07-18",
        "tanggal_terbit": "2022-07-18",
        "nomor_tanda_daftar": "004223.06/DJAI.PSE/07/2022",
        "qr_code": "http://pse.kominfo.go.id/api/v1/jsonapi/tdpse-terbit/qr-code/6163",
        "status_id": "TERDAFTAR",
        "sistem_elektronik_id": "6034",
        "keterangan": "-",
        "lokalitas": "LOKAL"
      },
      "links": {
        "self": "http://pse.kominfo.go.id/api/v1/jsonapi/tdpse-terbit/6163"
      }
    },
    {
      "type": "tdpseTerbit",
      "id": "6162",
      "attributes": {
        "nomor_pb_umku": "022000478018900010001",
        "nama": "WEBSITE BANK TRITUNGGAL",
        "website": "bprtritunggal.co.id",
        "sektor": "Sektor Keuangan",
        "nama_tampil_badan_hukum": "PT",
        "nama_perusahaan": "PT BANK PERKREDITAN RAKYAT TRITUNGGAL",
        "tanggal_daftar": "2022-07-18",
        "tanggal_terbit": "2022-07-18",
        "nomor_tanda_daftar": "004571.01/DJAI.PSE/07/2022",
        "qr_code": "http://pse.kominfo.go.id/api/v1/jsonapi/tdpse-terbit/qr-code/6162",
        "status_id": "TERDAFTAR",
        "sistem_elektronik_id": "6033",
        "keterangan": "-",
        "lokalitas": "LOKAL"
      },
      "links": {
        "self": "http://pse.kominfo.go.id/api/v1/jsonapi/tdpse-terbit/6162"
      }
    },
    {
      "type": "tdpseTerbit",
      "id": "6161",
      "attributes": {
        "nomor_pb_umku": "200422004042400000001",
        "nama": "PORTAL KENDALI ARTHA",
        "website": "kendaliartha.co.id",
        "sektor": "Sektor Keuangan",
        "nama_tampil_badan_hukum": "PT",
        "nama_perusahaan": "PT BANK PERKREDITAN RAKYAT KENDALI ARTHA PERSERODA",
        "tanggal_daftar": "2022-07-18",
        "tanggal_terbit": "2022-07-18",
        "nomor_tanda_daftar": "004556.01/DJAI.PSE/07/2022",
        "qr_code": "http://pse.kominfo.go.id/api/v1/jsonapi/tdpse-terbit/qr-code/6161",
        "status_id": "TERDAFTAR",
        "sistem_elektronik_id": "6030",
        "keterangan": "-",
        "lokalitas": "LOKAL"
      },
      "links": {
        "self": "http://pse.kominfo.go.id/api/v1/jsonapi/tdpse-terbit/6161"
      }
    },
    {
      "type": "tdpseTerbit",
      "id": "6160",
      "attributes": {
        "nomor_pb_umku": "912060381299200050012",
        "nama": "EMAIL BANK BPD DIY",
        "website": "mail.bpddiy.co.id",
        "sektor": "Sektor Keuangan",
        "nama_tampil_badan_hukum": "PT",
        "nama_perusahaan": "PT BANK PEMBANGUNAN DAERAH DAERAH ISTIMEWA YOGYAKARTA",
        "tanggal_daftar": "2022-07-18",
        "tanggal_terbit": "2022-07-18",
        "nomor_tanda_daftar": "004410.12/DJAI.PSE/07/2022",
        "qr_code": "http://pse.kominfo.go.id/api/v1/jsonapi/tdpse-terbit/qr-code/6160",
        "status_id": "TERDAFTAR",
        "sistem_elektronik_id": "6029",
        "keterangan": "-",
        "lokalitas": "LOKAL"
      },
      "links": {
        "self": "http://pse.kominfo.go.id/api/v1/jsonapi/tdpse-terbit/6160"
      }
    },
    {
      "type": "tdpseTerbit",
      "id": "6159",
      "attributes": {
        "nomor_pb_umku": "028801011132400010001",
        "nama": "BPR ANUGERAH HARTA KALIWUNGU",
        "website": "bprahk.com",
        "sektor": "Sektor Teknologi Informasi dan Komunikasi",
        "nama_tampil_badan_hukum": "PT",
        "nama_perusahaan": "PT BANK PERKREDITAN RAKYAT ANUGERAH HARTA KALIWUNGU",
        "tanggal_daftar": "2022-07-18",
        "tanggal_terbit": "2022-07-18",
        "nomor_tanda_daftar": "004566.01/DJAI.PSE/07/2022",
        "qr_code": "http://pse.kominfo.go.id/api/v1/jsonapi/tdpse-terbit/qr-code/6159",
        "status_id": "TERDAFTAR",
        "sistem_elektronik_id": "6027",
        "keterangan": "-",
        "lokalitas": "LOKAL"
      },
      "links": {
        "self": "http://pse.kominfo.go.id/api/v1/jsonapi/tdpse-terbit/6159"
      }
    },
    {
      "type": "tdpseTerbit",
      "id": "6158",
      "attributes": {
        "nomor_pb_umku": "912030010258800010001",
        "nama": "WEB BANK NAGARI",
        "website": "-",
        "sektor": "Sektor Keuangan",
        "nama_tampil_badan_hukum": "PT",
        "nama_perusahaan": "PT BANK NAGARI",
        "tanggal_daftar": "2022-07-18",
        "tanggal_terbit": "2022-07-18",
        "nomor_tanda_daftar": "004529.01/DJAI.PSE/07/2022",
        "qr_code": "http://pse.kominfo.go.id/api/v1/jsonapi/tdpse-terbit/qr-code/6158",
        "status_id": "TERDAFTAR",
        "sistem_elektronik_id": "6024",
        "keterangan": "-",
        "lokalitas": "LOKAL"
      },
      "links": {
        "self": "http://pse.kominfo.go.id/api/v1/jsonapi/tdpse-terbit/6158"
      }
    },
    {
      "type": "tdpseTerbit",
      "id": "6157",
      "attributes": {
        "nomor_pb_umku": "912060381299200050011",
        "nama": "DASHBOARD KINERJA KEUANGAN BPD DIY",
        "website": "dkk.bpddiy.co.id",
        "sektor": "Sektor Keuangan",
        "nama_tampil_badan_hukum": "PT",
        "nama_perusahaan": "PT BANK PEMBANGUNAN DAERAH DAERAH ISTIMEWA YOGYAKARTA",
        "tanggal_daftar": "2022-07-18",
        "tanggal_terbit": "2022-07-18",
        "nomor_tanda_daftar": "004410.11/DJAI.PSE/07/2022",
        "qr_code": "http://pse.kominfo.go.id/api/v1/jsonapi/tdpse-terbit/qr-code/6157",
        "status_id": "TERDAFTAR",
        "sistem_elektronik_id": "6026",
        "keterangan": "-",
        "lokalitas": "LOKAL"
      },
      "links": {
        "self": "http://pse.kominfo.go.id/api/v1/jsonapi/tdpse-terbit/6157"
      }
    },
    {
      "type": "tdpseTerbit",
      "id": "6156",
      "attributes": {
        "nomor_pb_umku": "912000952259500000004",
        "nama": "ADAMLABS.ID",
        "website": "adamlabs.id",
        "sektor": "Sektor Kesehatan",
        "nama_tampil_badan_hukum": "PT",
        "nama_perusahaan": "PT WAHANA MEDITEK INDONESIA",
        "tanggal_daftar": "2022-07-18",
        "tanggal_terbit": "2022-07-18",
        "nomor_tanda_daftar": "004561.01/DJAI.PSE/07/2022",
        "qr_code": "http://pse.kominfo.go.id/api/v1/jsonapi/tdpse-terbit/qr-code/6156",
        "status_id": "TERDAFTAR",
        "sistem_elektronik_id": "6021",
        "keterangan": "-",
        "lokalitas": "LOKAL"
      },
      "links": {
        "self": "http://pse.kominfo.go.id/api/v1/jsonapi/tdpse-terbit/6156"
      }
    },
    {
      "type": "tdpseTerbit",
      "id": "6155",
      "attributes": {
        "nomor_pb_umku": "912060381299200050010",
        "nama": "QRIS MERCHANT BPD DIY",
        "website": "-",
        "sektor": "Sektor Keuangan",
        "nama_tampil_badan_hukum": "PT",
        "nama_perusahaan": "PT BANK PEMBANGUNAN DAERAH DAERAH ISTIMEWA YOGYAKARTA",
        "tanggal_daftar": "2022-07-18",
        "tanggal_terbit": "2022-07-18",
        "nomor_tanda_daftar": "004410.10/DJAI.PSE/07/2022",
        "qr_code": "http://pse.kominfo.go.id/api/v1/jsonapi/tdpse-terbit/qr-code/6155",
        "status_id": "TERDAFTAR",
        "sistem_elektronik_id": "6023",
        "keterangan": "-",
        "lokalitas": "LOKAL"
      },
      "links": {
        "self": "http://pse.kominfo.go.id/api/v1/jsonapi/tdpse-terbit/6155"
      }
    },
    {
      "type": "tdpseTerbit",
      "id": "6154",
      "attributes": {
        "nomor_pb_umku": "180722002437400000001",
        "nama": "BPR NBP 31",
        "website": "bprnbp31.com",
        "sektor": "Sektor Keuangan",
        "nama_tampil_badan_hukum": "PT",
        "nama_perusahaan": "PT BANK PERKREDITAN RAKYAT NUSANTARA BONA PASOGIT 31",
        "tanggal_daftar": "2022-07-18",
        "tanggal_terbit": "2022-07-18",
        "nomor_tanda_daftar": "004564.01/DJAI.PSE/07/2022",
        "qr_code": "http://pse.kominfo.go.id/api/v1/jsonapi/tdpse-terbit/qr-code/6154",
        "status_id": "TERDAFTAR",
        "sistem_elektronik_id": "6020",
        "keterangan": "-",
        "lokalitas": "LOKAL"
      },
      "links": {
        "self": "http://pse.kominfo.go.id/api/v1/jsonapi/tdpse-terbit/6154"
      }
    }
  ]
}