{
  "meta": {
    "page": {
      "currentPage": 244,
      "from": 2431,
      "lastPage": 926,
      "perPage": 10,
      "to": 2440,
      "total": 9252
    }
  },
  "data": [
    {
      "type": "tdpseTerbit",
      "id": 7350,
      "attributes": {
        "nomor_pb_umku": "912030485098100010001",
        "nama": "WEBSITE  BPR DUTA ADIARTA",
        "website": "bprdutaadiarta.co.id",
        "sektor": "Sektor Teknologi Informasi dan Komunikasi",
        "nama_perusahaan": "BANK PERKREDITAN RAKYAT DUTA ADIARTA",
        "tanggal_daftar": "2022-07-20",
        "nomor_tanda_daftar": "004633.01/DJAI.PSE/07/2022",
        "qr_code": "https://pse.kominfo.go.id/storage/images/qr_code/408a07dc85d31b849731b358f8215cdd.png",
        "status_id": "TERDAFTAR",
        "sistem_elektronik_id": 7249
      }
    },
    {
      "type": "tdpseTerbit",
      "id": 8528,
      "attributes": {
        "nomor_pb_umku": "912030688146900000007",
        "nama": "MVICALL WEBSITE",
        "website": "Mvicall.com",
        "sektor": "Sektor Teknologi Informasi dan Komunikasi",
        "nama_perusahaan": "SINERGI BESTAMA INDONESIA",
        "tanggal_daftar": "2022-07-21",
        "nomor_tanda_daftar": "004632.08/DJAI.PSE/07/2022",
        "qr_code": "https://pse.kominfo.go.id/storage/images/qr_code/fe49b0748d14ada632e9bf045fa60094.png",
        "status_id": "TERDAFTAR",
        "sistem_elektronik_id": 8444
      }
    },
    {
      "type": "tdpseTerbit",
      "id": 7982,
      "attributes": {
        "nomor_pb_umku": "912030688146900000006",
        "nama": "MVICALL APPS",
        "website": "-",
        "sektor": "Sektor Teknologi Informasi dan Komunikasi",
        "nama_perusahaan": "SINERGI BESTAMA INDONESIA",
        "tanggal_daftar": "2022-07-20",
        "nomor_tanda_daftar": "004632.07/DJAI.PSE/07/2022",
        "qr_code": "https://pse.kominfo.go.id/storage/images/qr_code/a1194d8a4bcec1134c2d5b3afd3d5ac5.png",
        "status_id": "TERDAFTAR",
        "sistem_elektronik_id": 7896
      }
    },
    {
      "type": "tdpseTerbit",
      "id": 7261,
      "attributes": {
        "nomor_pb_umku": "912030688146900000005",
        "nama": "WEBSITE PT.SINERGI BESTAMA INDONESIA",
        "website": "sinergibest.com",
        "sektor": "Sektor Teknologi Informasi dan Komunikasi",
        "nama_perusahaan": "SINERGI BESTAMA INDONESIA",
        "tanggal_daftar": "2022-07-19",
        "nomor_tanda_daftar": "004632.06/DJAI.PSE/07/2022",
        "qr_code": "https://pse.kominfo.go.id/storage/images/qr_code/d9b40122cf6399cd581abc84524c425d.png",
        "status_id": "TERDAFTAR",
        "sistem_elektronik_id": 7157
      }
    },
    {
      "type": "tdpseTerbit",
      "id": 7260,
      "attributes": {
        "nomor_pb_umku": "912030688146900000004",
        "nama": "CUANTASTIC",
        "website": "cuantastic.id",
        "sektor": "Sektor Teknologi Informasi dan Komunikasi",
        "nama_perusahaan": "SINERGI BESTAMA INDONESIA",
        "tanggal_daftar": "2022-07-19",
        "nomor_tanda_daftar": "004632.05/DJAI.PSE/07/2022",
        "qr_code": "https://pse.kominfo.go.id/storage/images/qr_code/723e299c4e77aba52562650a5c0e223f.png",
        "status_id": "TERDAFTAR",
        "sistem_elektronik_id": 7156
      }
    },
    {
      "type": "tdpseTerbit",
      "id": 7258,
      "attributes": {
        "nomor_pb_umku": "912030688146900000003",
        "nama": "FUN QUIZ",
        "website": "funquiz.apaajadeh.com",
        "sektor": "Sektor Teknologi Informasi dan Komunikasi",
        "nama_perusahaan": "SINERGI BESTAMA INDONESIA",
        "tanggal_daftar": "2022-07-19",
        "nomor_tanda_daftar": "004632.04/DJAI.PSE/07/2022",
        "qr_code": "https://pse.kominfo.go.id/storage/images/qr_code/f4afa76d62f1c0f0e7fe366fda8ffe6c.png",
        "status_id": "TERDAFTAR",
        "sistem_elektronik_id": 7154
      }
    },
    {
      "type": "tdpseTerbit",
      "id": 7257,
      "attributes": {
        "nomor_pb_umku": "912030688146900000002",
        "nama": "APLIKASI MVICALL",
        "website": "-",
        "sektor": "Sektor Teknologi Informasi dan Komunikasi",
        "nama_perusahaan": "SINERGI BESTAMA INDONESIA",
        "tanggal_daftar": "2022-07-19",
        "nomor_tanda_daftar": "004632.03/DJAI.PSE/07/2022",
        "qr_code": "https://pse.kominfo.go.id/storage/images/qr_code/5b4e778151d9ec6225ec2465150a5213.png",
        "status_id": "TERDAFTAR",
        "sistem_elektronik_id": 7150
      }
    },
    {
      "type": "tdpseTerbit",
      "id": 7259,
      "attributes": {
        "nomor_pb_umku": "912030688146900000002",
        "nama": "APLIKASI ULAR TENGGO",
        "website": "-",
        "sektor": "Sektor Teknologi Informasi dan Komunikasi",
        "nama_perusahaan": "SINERGI BESTAMA INDONESIA",
        "tanggal_daftar": "2022-07-19",
        "nomor_tanda_daftar": "004632.02/DJAI.PSE/07/2022",
        "qr_code": "https://pse.kominfo.go.id/storage/images/qr_code/723645cf9f07f02d5e4a43cedd6685dc.png",
        "status_id": "TERDAFTAR",
        "sistem_elektronik_id": 7147
      }
    },
    {
      "type": "tdpseTerbit",
      "id": 7188,
      "attributes": {
        "nomor_pb_umku": "912030688146900000001",
        "nama": "MVICALL",
        "website": "mvicall.com",
        "sektor": "Sektor Teknologi Informasi dan Komunikasi",
        "nama_perusahaan": "SINERGI BESTAMA INDONESIA",
        "tanggal_daftar": "2022-07-19",
        "nomor_tanda_daftar": "004632.01/DJAI.PSE/07/2022",
        "qr_code": "https://pse.kominfo.go.id/storage/images/qr_code/7e0e83d05b795936c874fbb4a39535f9.png",
        "status_id": "TERDAFTAR",
        "sistem_elektronik_id": 7074
      }
    },
    {
      "type": "tdpseTerbit",
      "id": 7606,
      "attributes": {
        "nomor_pb_umku": "812010988213400000001",
        "nama": "HELLO BABY PROGRAM INDONESIA",
        "website": "mitla.co.id",
        "sektor": "Sektor Kesehatan",
        "nama_perusahaan": "MITLA ITLABORATORY INDONESIA",
        "tanggal_daftar": "2022-07-20",
        "nomor_tanda_daftar": "004631.01/DJAI.PSE/07/2022",
        "qr_code": "https://pse.kominfo.go.id/storage/images/qr_code/ff41c84b33a281407db0c490c90a250c.png",
        "status_id": "TERDAFTAR",
        "sistem_elektronik_id": 7498
      }
    }
  ]
}