{
  "meta": {
    "page": {
      "currentPage": 244,
      "from": 2431,
      "lastPage": 816,
      "perPage": 10,
      "to": 2440,
      "total": 8153
    }
  },
  "jsonapi": {
    "version": "1.0"
  },
  "links": {
    "first": "http://pse.kominfo.go.id/api/v1/jsonapi/tdpse-terbit?page%5Blimit%5D=10&page%5Bpage%5D=1",
    "last": "http://pse.kominfo.go.id/api/v1/jsonapi/tdpse-terbit?page%5Blimit%5D=10&page%5Bpage%5D=816",
    "next": "http://pse.kominfo.go.id/api/v1/jsonapi/tdpse-terbit?page%5Blimit%5D=10&page%5Bpage%5D=245",
    "prev": "http://pse.kominfo.go.id/api/v1/jsonapi/tdpse-terbit?page%5Blimit%5D=10&page%5Bpage%5D=243"
  },
  "data": [
    {
      "type": "tdpseTerbit",
      "id": "6109",
      "attributes": {
        "nomor_pb_umku": "912020259293500020001",
        "nama": "WEBSITE PROLEGAL INDONESIA",
        "website": "prolegal.id",
        "sektor": "Sektor Perdagangan",
        "nama_tampil_badan_hukum": "PT",
        "nama_perusahaan": "PT PRO LEGAL INDONESIA",
        "tanggal_daftar": "2022-07-18",
        "tanggal_terbit": "2022-07-18",
        "nomor_tanda_daftar": "004079.01/DJAI.PSE/07/2022",
        "qr_code": "http://pse.kominfo.go.id/api/v1/jsonapi/tdpse-terbit/qr-code/6109",
        "status_id": "TERDAFTAR",
        "sistem_elektronik_id": "5979",
        "keterangan": "-",
        "lokalitas": "LOKAL"
      },
      "links": {
        "self": "http://pse.kominfo.go.id/api/v1/jsonapi/tdpse-terbit/6109"
      }
    },
    {
      "type": "tdpseTerbit",
      "id": "6107",
      "attributes": {
        "nomor_pb_umku": "022000483122800010001",
        "nama": "WEBSITE BPR ARTHA SARI SENTOSA",
        "website": "arthasarisentosa.co.id",
        "sektor": "Sektor Keuangan",
        "nama_tampil_badan_hukum": "PT",
        "nama_perusahaan": "PT BANK PERKREDITAN RAKYAT ARTHA SARI SENTOSA",
        "tanggal_daftar": "2022-07-18",
        "tanggal_terbit": "2022-07-18",
        "nomor_tanda_daftar": "004510.01/DJAI.PSE/07/2022",
        "qr_code": "http://pse.kominfo.go.id/api/v1/jsonapi/tdpse-terbit/qr-code/6107",
        "status_id": "TERDAFTAR",
        "sistem_elektronik_id": "5977",
        "keterangan": "-",
        "lokalitas": "LOKAL"
      },
      "links": {
        "self": "http://pse.kominfo.go.id/api/v1/jsonapi/tdpse-terbit/6107"
      }
    },
    {
      "type": "tdpseTerbit",
      "id": "6106",
      "attributes": {
        "nomor_pb_umku": "912030881096800030001",
        "nama": "SAMUEL TRADING ACTIVE REALTIME",
        "website": "samuel.co.id",
        "sektor": "Sektor Keuangan",
        "nama_tampil_badan_hukum": "PT",
        "nama_perusahaan": "PT SAMUEL SEKURITAS INDONESIA",
        "tanggal_daftar": "2022-07-18",
        "tanggal_terbit": "2022-07-18",
        "nomor_tanda_daftar": "000501.02/DJAI.PSE/07/2022",
        "qr_code": "http://pse.kominfo.go.id/api/v1/jsonapi/tdpse-terbit/qr-code/6106",
        "status_id": "TERDAFTAR",
        "sistem_elektronik_id": "5978",
        "keterangan": "-",
        "lokalitas": "LOKAL"
      },
      "links": {
        "self": "http://pse.kominfo.go.id/api/v1/jsonapi/tdpse-terbit/6106"
      }
    },
    {
      "type": "tdpseTerbit",
      "id": "6105",
      "attributes": {
        "nomor_pb_umku": "180722001432700000001",
        "nama": "BUANA SYIAR SYIAR.ID",
        "website": "syiar.id",
        "sektor": "Sektor Teknologi Informasi dan Komunikasi",
        "nama_tampil_badan_hukum": "Yayasan",
        "nama_perusahaan": "Yayasan BUANA SYIAR INDONESIA",
        "tanggal_daftar": "2022-07-18",
        "tanggal_terbit": "2022-07-18",
        "nomor_tanda_daftar": "004525.01/DJAI.PSE/07/2022",
        "qr_code": "http://pse.kominfo.go.id/api/v1/jsonapi/tdpse-terbit/qr-code/6105",
        "status_id": "TERDAFTAR",
        "sistem_elektronik_id": "5972",
        "keterangan": "-",
        "lokalitas": "LOKAL"
      },
      "links": {
        "self": "http://pse.kominfo.go.id/api/v1/jsonapi/tdpse-terbit/6105"
      }
    },
    {
      "type": "tdpseTerbit",
      "id": "6104",
      "attributes": {
        "nomor_pb_umku": "912000456125300130003",
        "nama": "POSAJA! AGEN",
        "website": "posfin.id",
        "sektor": "Sektor Perdagangan, Sektor Teknologi Informasi dan Komunikasi",
        "nama_tampil_badan_hukum": "PT",
        "nama_perusahaan": "PT POS FINANSIAL INDONESIA",
        "tanggal_daftar": "2022-07-18",
        "tanggal_terbit": "2022-07-18",
        "nomor_tanda_daftar": "004166.03/DJAI.PSE/07/2022",
        "qr_code": "http://pse.kominfo.go.id/api/v1/jsonapi/tdpse-terbit/qr-code/6104",
        "status_id": "TERDAFTAR",
        "sistem_elektronik_id": "5976",
        "keterangan": "-",
        "lokalitas": "LOKAL"
      },
      "links": {
        "self": "http://pse.kominfo.go.id/api/v1/jsonapi/tdpse-terbit/6104"
      }
    },
    {
      "type": "tdpseTerbit",
      "id": "6103",
      "attributes": {
        "nomor_pb_umku": "240122007610900010001",
        "nama": "SIAKAD.NET",
        "website": "siakad.net",
        "sektor": "Sektor Teknologi Informasi dan Komunikasi",
        "nama_tampil_badan_hukum": "",
        "nama_perusahaan": "PRISMA CIPTA TEKNOLOGI",
        "tanggal_daftar": "2022-07-18",
        "tanggal_terbit": "2022-07-18",
        "nomor_tanda_daftar": "004497.01/DJAI.PSE/07/2022",
        "qr_code": "http://pse.kominfo.go.id/api/v1/jsonapi/tdpse-terbit/qr-code/6103",
        "status_id": "TERDAFTAR",
        "sistem_elektronik_id": "5928",
        "keterangan": "-",
        "lokalitas": "LOKAL"
      },
      "links": {
        "self": "http://pse.kominfo.go.id/api/v1/jsonapi/tdpse-terbit/6103"
      }
    },
    {
      "type": "tdpseTerbit",
      "id": "6102",
      "attributes": {
        "nomor_pb_umku": "912021407275100000001",
        "nama": "SITUS PERUSAHAAN WWW.THEEQUITYONE.COM",
        "website": "theequityone.com",
        "sektor": "Sektor Keuangan",
        "nama_tampil_badan_hukum": "PT",
        "nama_perusahaan": "PT EQUITY DEVELOPMENT INVESTMENT",
        "tanggal_daftar": "2022-07-18",
        "tanggal_terbit": "2022-07-18",
        "nomor_tanda_daftar": "004526.01/DJAI.PSE/07/2022",
        "qr_code": "http://pse.kominfo.go.id/api/v1/jsonapi/tdpse-terbit/qr-code/6102",
        "status_id": "TERDAFTAR",
        "sistem_elektronik_id": "5974",
        "keterangan": "-",
        "lokalitas": "LOKAL"
      },
      "links": {
        "self": "http://pse.kominfo.go.id/api/v1/jsonapi/tdpse-terbit/6102"
      }
    },
    {
      "type": "tdpseTerbit",
      "id": "6101",
      "attributes": {
        "nomor_pb_umku": "129700043174600010001",
        "nama": "RBS",
        "website": "-",
        "sektor": "Sektor Keuangan",
        "nama_tampil_badan_hukum": "PT",
        "nama_perusahaan": "PT BANK PERKREDITAN RAKYAT BARINGIN PADANG PANJANG SAKATO",
        "tanggal_daftar": "2022-07-18",
        "tanggal_terbit": "2022-07-18",
        "nomor_tanda_daftar": "004527.01/DJAI.PSE/07/2022",
        "qr_code": "http://pse.kominfo.go.id/api/v1/jsonapi/tdpse-terbit/qr-code/6101",
        "status_id": "TERDAFTAR",
        "sistem_elektronik_id": "5973",
        "keterangan": "-",
        "lokalitas": "LOKAL"
      },
      "links": {
        "self": "http://pse.kominfo.go.id/api/v1/jsonapi/tdpse-terbit/6101"
      }
    },
    {
      "type": "tdpseTerbit",
      "id": "6100",
      "attributes": {
        "nomor_pb_umku": "912060381299200050002",
        "nama": "MOBILE BANKING BANK BPD DIY",
        "website": "-",
        "sektor": "Sektor Keuangan",
        "nama_tampil_badan_hukum": "PT",
        "nama_perusahaan": "PT BANK PEMBANGUNAN DAERAH DAERAH ISTIMEWA YOGYAKARTA",
        "tanggal_daftar": "2022-07-18",
        "tanggal_terbit": "2022-07-18",
        "nomor_tanda_daftar": "004410.02/DJAI.PSE/07/2022",
        "qr_code": "http://pse.kominfo.go.id/api/v1/jsonapi/tdpse-terbit/qr-code/6100",
        "status_id": "TERDAFTAR",
        "sistem_elektronik_id": "5975",
        "keterangan": "-",
        "lokalitas": "LOKAL"
      },
      "links": {
        "self": "http://pse.kominfo.go.id/api/v1/jsonapi/tdpse-terbit/6100"
      }
    },
    {
      "type": "tdpseTerbit",
      "id": "6099",
      "attributes": {
        "nomor_pb_umku": "912031209082500010001",
        "nama": "PINJAMYUK",
        "website": "pinjamyuk.co.id",
        "sektor": "Sektor Keuangan, Sektor Teknologi Informasi dan Komunikasi",
        "nama_tampil_badan_hukum": "PT",
        "nama_perusahaan": "PT KUAIKUAI TECH INDONESIA",
        "tanggal_daftar": "2022-07-12",
        "tanggal_terbit": "2022-07-18",
        "nomor_tanda_daftar": "000565.02/DJAI.PSE/07/2022",
        "qr_code": "http://pse.kominfo.go.id/api/v1/jsonapi/tdpse-terbit/qr-code/6099",
        "status_id": "TERDAFTAR",
        "sistem_elektronik_id": "5210",
        "keterangan": "-",
        "lokalitas": "LOKAL"
      },
      "links": {
        "self": "http://pse.kominfo.go.id/api/v1/jsonapi/tdpse-terbit/6099"
      }
    }
  ]
}