{
  "meta": {
    "page": {
      "currentPage": 26,
      "from": 251,
      "lastPage": 1111,
      "perPage": 10,
      "to": 260,
      "total": 11105
    }
  },
  "data": [
    {
      "type": "tdpseTerbit",
      "id": 11952,
      "attributes": {
        "nomor_pb_umku": "028001013157500020001",
        "nama": "TOPUR MARKETPLACE",
        "website": "topur.id",
        "sektor": "Sektor Perdagangan",
        "nama_perusahaan": "NUPARIS",
        "tanggal_daftar": "2022-10-25",
        "nomor_tanda_daftar": "008249.01/DJAI.PSE/10/2022",
        "qr_code": "https://pse.kominfo.go.id/storage/images/qr_code/2fde840f6eed3073c160857ab9addde6.png",
        "status_id": "TERDAFTAR",
        "sistem_elektronik_id": 11755
      }
    },
    {
      "type": "tdpseTerbit",
      "id": 12288,
      "attributes": {
        "nomor_pb_umku": "150822007302700010001",
        "nama": "FITAJA!",
        "website": "fitaja.id",
        "sektor": "Sektor Perdagangan, Sektor Kesehatan",
        "nama_perusahaan": "FITAJA DIGITAL NUSANTARA",
        "tanggal_daftar": "2022-11-15",
        "nomor_tanda_daftar": "008248.01/DJAI.PSE/11/2022",
        "qr_code": "https://pse.kominfo.go.id/storage/images/qr_code/fedf1d7fad98a2702458fb8faa835926.png",
        "status_id": "TERDAFTAR",
        "sistem_elektronik_id": 12077
      }
    },
    {
      "type": "tdpseTerbit",
      "id": 11962,
      "attributes": {
        "nomor_pb_umku": "912041302009800020001",
        "nama": "NÜPAY",
        "website": "dspratama.co.id",
        "sektor": "Sektor Perdagangan, Sektor Keuangan",
        "nama_perusahaan": "DIGITAL SOLUSI PRATAMA",
        "tanggal_daftar": "2022-10-25",
        "nomor_tanda_daftar": "008247.01/DJAI.PSE/10/2022",
        "qr_code": "https://pse.kominfo.go.id/storage/images/qr_code/a031aaeebe3ad3229be4d021adb42b46.png",
        "status_id": "TERDAFTAR",
        "sistem_elektronik_id": 11767
      }
    },
    {
      "type": "tdpseTerbit",
      "id": 11998,
      "attributes": {
        "nomor_pb_umku": "027100091178400170002",
        "nama": "PENJUALAN ONLINE KATALOG",
        "website": "-",
        "sektor": "Sektor Perdagangan",
        "nama_perusahaan": "PEGASUS",
        "tanggal_daftar": "2022-10-27",
        "nomor_tanda_daftar": "008246.03/DJAI.PSE/10/2022",
        "qr_code": "https://pse.kominfo.go.id/storage/images/qr_code/885244d2a1ae396cfda084938a2c824b.png",
        "status_id": "TERDAFTAR",
        "sistem_elektronik_id": 11802
      }
    },
    {
      "type": "tdpseTerbit",
      "id": 11972,
      "attributes": {
        "nomor_pb_umku": "027100091178400170001",
        "nama": "PERDAGANGAN KOMPUTER DAN PERLENGKAPAN KOMPUTER",
        "website": "-",
        "sektor": "Sektor Perdagangan",
        "nama_perusahaan": "PEGASUS",
        "tanggal_daftar": "2022-10-26",
        "nomor_tanda_daftar": "008246.02/DJAI.PSE/10/2022",
        "qr_code": "https://pse.kominfo.go.id/storage/images/qr_code/f0e4b02c18e70b9cff16ef7428afe629.png",
        "status_id": "TERDAFTAR",
        "sistem_elektronik_id": 11780
      }
    },
    {
      "type": "tdpseTerbit",
      "id": 11975,
      "attributes": {
        "nomor_pb_umku": "060822001933200000001",
        "nama": "INAGAME",
        "website": "inagame.id",
        "sektor": "Sektor Teknologi Informasi dan Komunikasi",
        "nama_perusahaan": "INOVASI GAME SELARAS",
        "tanggal_daftar": "2022-10-26",
        "nomor_tanda_daftar": "008245.01/DJAI.PSE/10/2022",
        "qr_code": "https://pse.kominfo.go.id/storage/images/qr_code/ad6f6a07d675ea1868ff77ced99678e0.png",
        "status_id": "TERDAFTAR",
        "sistem_elektronik_id": 11778
      }
    },
    {
      "type": "tdpseTerbit",
      "id": 11944,
      "attributes": {
        "nomor_pb_umku": "241022005093500020001",
        "nama": "BANK PERKREDITAN RAKYAT SAGO LUHAK LIMAPULUH",
        "website": "-",
        "sektor": "Sektor Keuangan",
        "nama_perusahaan": "BANK PERKREDITAN RAKYAT SAGO LUHAK LIMAPULUH",
        "tanggal_daftar": "2022-10-25",
        "nomor_tanda_daftar": "008244.01/DJAI.PSE/10/2022",
        "qr_code": "https://pse.kominfo.go.id/storage/images/qr_code/90c56fc9ec1892963a5a86beab5a4752.png",
        "status_id": "TERDAFTAR",
        "sistem_elektronik_id": 11746
      }
    },
    {
      "type": "tdpseTerbit",
      "id": 11943,
      "attributes": {
        "nomor_pb_umku": "123600031182400010001",
        "nama": "APAMFIN",
        "website": "apamfin.com",
        "sektor": "Sektor Keuangan",
        "nama_perusahaan": "ANUGRAH PEMBIAYAAN DIGITAL",
        "tanggal_daftar": "2022-10-24",
        "nomor_tanda_daftar": "008241.01/DJAI.PSE/10/2022",
        "qr_code": "https://pse.kominfo.go.id/storage/images/qr_code/544f4806b2a801983578d00afda708ce.png",
        "status_id": "TERDAFTAR",
        "sistem_elektronik_id": 11744
      }
    },
    {
      "type": "tdpseTerbit",
      "id": 12433,
      "attributes": {
        "nomor_pb_umku": "020400091320500090005",
        "nama": "MULTI MEDIKA INTERNASIONAL",
        "website": "multimed.co.id",
        "sektor": "Sektor Perdagangan, Sektor Kesehatan",
        "nama_perusahaan": "MULTI MEDIKA INTERNASIONAL",
        "tanggal_daftar": "2022-11-22",
        "nomor_tanda_daftar": "008240.01/DJAI.PSE/10/2022",
        "qr_code": "https://pse.kominfo.go.id/storage/images/qr_code/ca8099f90c4b133c643b2fbad92a95b0.png",
        "status_id": "TERDAFTAR",
        "sistem_elektronik_id": 11763
      }
    },
    {
      "type": "tdpseTerbit",
      "id": 12479,
      "attributes": {
        "nomor_pb_umku": "027601120195200040047",
        "nama": "MOBILE ORDER SYSTEM (MOS)",
        "website": "-",
        "sektor": "Sektor Perdagangan",
        "nama_perusahaan": "LUCKY MOM INDONESIA",
        "tanggal_daftar": "2022-11-23",
        "nomor_tanda_daftar": "008239.02/DJAI.PSE/11/2022",
        "qr_code": "https://pse.kominfo.go.id/storage/images/qr_code/375783078584d96ecf3dc01a82f1d80d.png",
        "status_id": "TERDAFTAR",
        "sistem_elektronik_id": 12235
      }
    }
  ]
}