{
  "meta": {
    "page": {
      "currentPage": 252,
      "from": 2511,
      "lastPage": 896,
      "perPage": 10,
      "to": 2520,
      "total": 8957
    }
  },
  "data": [
    {
      "type": "tdpseTerbit",
      "id": 6475,
      "attributes": {
        "nomor_pb_umku": "812011908120100000002",
        "nama": "NAGA CYBERSECURITY",
        "website": "nagacybersecurity.com",
        "sektor": "Sektor Teknologi Informasi dan Komunikasi",
        "nama_perusahaan": "DIAS NAGA ALPHA",
        "tanggal_daftar": "2022-07-18",
        "nomor_tanda_daftar": "004424.02/DJAI.PSE/07/2022",
        "qr_code": "https://pse.kominfo.go.id/storage/images/qr_code/0e32fc1778fd08cf4c4e51183b2d257b.png",
        "status_id": "TERDAFTAR",
        "sistem_elektronik_id": 6338
      }
    },
    {
      "type": "tdpseTerbit",
      "id": 6472,
      "attributes": {
        "nomor_pb_umku": "812011908120100000001",
        "nama": "NAGA CYBER DEFENSE",
        "website": "-",
        "sektor": "Sektor Teknologi Informasi dan Komunikasi",
        "nama_perusahaan": "DIAS NAGA ALPHA",
        "tanggal_daftar": "2022-07-18",
        "nomor_tanda_daftar": "004424.01/DJAI.PSE/07/2022",
        "qr_code": "https://pse.kominfo.go.id/storage/images/qr_code/33c798ccbbe973d1c05aa579521beb4a.png",
        "status_id": "TERDAFTAR",
        "sistem_elektronik_id": 6335
      }
    },
    {
      "type": "tdpseTerbit",
      "id": 5964,
      "attributes": {
        "nomor_pb_umku": "190921000152700000002",
        "nama": "DIGITAL INVITATIONS INDONESIA",
        "website": "digitalinvitations.id",
        "sektor": "Sektor Teknologi Informasi dan Komunikasi",
        "nama_perusahaan": "RAHMAT RAMADHAN PUTRA",
        "tanggal_daftar": "2022-07-16",
        "nomor_tanda_daftar": "004423.02/DJAI.PSE/07/2022",
        "qr_code": "https://pse.kominfo.go.id/storage/images/qr_code/df0e58cf3ddb5232d636161a95dbe44c.png",
        "status_id": "TERDAFTAR",
        "sistem_elektronik_id": 5824
      }
    },
    {
      "type": "tdpseTerbit",
      "id": 5963,
      "attributes": {
        "nomor_pb_umku": "190921000152700000001",
        "nama": "SISDA.ID",
        "website": "sisda.id",
        "sektor": "Sektor Teknologi Informasi dan Komunikasi",
        "nama_perusahaan": "RAHMAT RAMADHAN PUTRA",
        "tanggal_daftar": "2022-07-16",
        "nomor_tanda_daftar": "004423.01/DJAI.PSE/07/2022",
        "qr_code": "https://pse.kominfo.go.id/storage/images/qr_code/763f0c591ca42f8c1108bf0c72f1b2fd.png",
        "status_id": "TERDAFTAR",
        "sistem_elektronik_id": 5823
      }
    },
    {
      "type": "tdpseTerbit",
      "id": 6480,
      "attributes": {
        "nomor_pb_umku": "022000117173800010001",
        "nama": "PROFESI.COM",
        "website": "Profesi.com",
        "sektor": "Sektor Perdagangan",
        "nama_perusahaan": "BUDI UTOMO INDUSTRI",
        "tanggal_daftar": "2022-07-18",
        "nomor_tanda_daftar": "004422.01/DJAI.PSE/07/2022",
        "qr_code": "https://pse.kominfo.go.id/storage/images/qr_code/7cb0a844cfc4c44a80b6a4674b21c653.png",
        "status_id": "TERDAFTAR",
        "sistem_elektronik_id": 6345
      }
    },
    {
      "type": "tdpseTerbit",
      "id": 6619,
      "attributes": {
        "nomor_pb_umku": "160722001692400000001",
        "nama": "KIOSPAY TEKNOLOGI INDONESIA",
        "website": "kiospay.id",
        "sektor": "Sektor Perdagangan, Sektor Teknologi Informasi dan Komunikasi",
        "nama_perusahaan": "PRASETYA HERU TAMA",
        "tanggal_daftar": "2022-07-19",
        "nomor_tanda_daftar": "004421.01/DJAI.PSE/07/2022",
        "qr_code": "https://pse.kominfo.go.id/storage/images/qr_code/e834d413cad4254b5f748609863fec33.png",
        "status_id": "TERDAFTAR",
        "sistem_elektronik_id": 5820
      }
    },
    {
      "type": "tdpseTerbit",
      "id": 5956,
      "attributes": {
        "nomor_pb_umku": "200422004258600020001",
        "nama": "SAI COWORK",
        "website": "-",
        "sektor": "Sektor Teknologi Informasi dan Komunikasi",
        "nama_perusahaan": "SAI INSPIRASI KOLABORASI",
        "tanggal_daftar": "2022-07-16",
        "nomor_tanda_daftar": "004420.01/DJAI.PSE/07/2022",
        "qr_code": "https://pse.kominfo.go.id/storage/images/qr_code/1cae52963f7399d52a1f4f283c683eb1.png",
        "status_id": "TERDAFTAR",
        "sistem_elektronik_id": 5818
      }
    },
    {
      "type": "tdpseTerbit",
      "id": 8979,
      "attributes": {
        "nomor_pb_umku": "912030931061300960006",
        "nama": "INFORMS",
        "website": "-",
        "sektor": "Sektor Teknologi Informasi dan Komunikasi",
        "nama_perusahaan": "PERTAMINA PATRA NIAGA",
        "tanggal_daftar": "2022-07-25",
        "nomor_tanda_daftar": "004419.05/DJAI.PSE/07/2022",
        "qr_code": "https://pse.kominfo.go.id/storage/images/qr_code/8d53e4891bfded62eb5d63304caddaf6.png",
        "status_id": "TERDAFTAR",
        "sistem_elektronik_id": 8890
      }
    },
    {
      "type": "tdpseTerbit",
      "id": 8976,
      "attributes": {
        "nomor_pb_umku": "912030931061300960005",
        "nama": "DASHBOARD DIGITALISASI SPBU",
        "website": "dashboard.spbu.id",
        "sektor": "Sektor Teknologi Informasi dan Komunikasi",
        "nama_perusahaan": "PERTAMINA PATRA NIAGA",
        "tanggal_daftar": "2022-07-25",
        "nomor_tanda_daftar": "004419.04/DJAI.PSE/07/2022",
        "qr_code": "https://pse.kominfo.go.id/storage/images/qr_code/7eb4e798013e9cbfe826d0e1e7a7cd09.png",
        "status_id": "TERDAFTAR",
        "sistem_elektronik_id": 8887
      }
    },
    {
      "type": "tdpseTerbit",
      "id": 7054,
      "attributes": {
        "nomor_pb_umku": "912030931061300950004",
        "nama": "WEBSITE MYPERTAMINA",
        "website": "mypertamina.id",
        "sektor": "Sektor Teknologi Informasi dan Komunikasi",
        "nama_perusahaan": "PERTAMINA PATRA NIAGA",
        "tanggal_daftar": "2022-07-19",
        "nomor_tanda_daftar": "004419.03/DJAI.PSE/07/2022",
        "qr_code": "https://pse.kominfo.go.id/storage/images/qr_code/61e0e085d523c6b7c5435ed8cd7c5ad0.png",
        "status_id": "TERDAFTAR",
        "sistem_elektronik_id": 6917
      }
    }
  ]
}