{
  "meta": {
    "page": {
      "currentPage": 254,
      "from": 2531,
      "lastPage": 816,
      "perPage": 10,
      "to": 2540,
      "total": 8153
    }
  },
  "jsonapi": {
    "version": "1.0"
  },
  "links": {
    "first": "http://pse.kominfo.go.id/api/v1/jsonapi/tdpse-terbit?page%5Blimit%5D=10&page%5Bpage%5D=1",
    "last": "http://pse.kominfo.go.id/api/v1/jsonapi/tdpse-terbit?page%5Blimit%5D=10&page%5Bpage%5D=816",
    "next": "http://pse.kominfo.go.id/api/v1/jsonapi/tdpse-terbit?page%5Blimit%5D=10&page%5Bpage%5D=255",
    "prev": "http://pse.kominfo.go.id/api/v1/jsonapi/tdpse-terbit?page%5Blimit%5D=10&page%5Bpage%5D=253"
  },
  "data": [
    {
      "type": "tdpseTerbit",
      "id": "6006",
      "attributes": {
        "nomor_pb_umku": "270422004726400000001",
        "nama": "NURULPAY",
        "website": "nurulpay.com",
        "sektor": "Sektor Teknologi Informasi dan Komunikasi",
        "nama_tampil_badan_hukum": "",
        "nama_perusahaan": "FARID ARIS P",
        "tanggal_daftar": "2022-07-17",
        "tanggal_terbit": "2022-07-17",
        "nomor_tanda_daftar": "004463.01/DJAI.PSE/07/2022",
        "qr_code": "http://pse.kominfo.go.id/api/v1/jsonapi/tdpse-terbit/qr-code/6006",
        "status_id": "TERDAFTAR",
        "sistem_elektronik_id": "5870",
        "keterangan": "-",
        "lokalitas": "LOKAL"
      },
      "links": {
        "self": "http://pse.kominfo.go.id/api/v1/jsonapi/tdpse-terbit/6006"
      }
    },
    {
      "type": "tdpseTerbit",
      "id": "6005",
      "attributes": {
        "nomor_pb_umku": "812000791118600010003",
        "nama": "SISTEM INFORMASI DESA",
        "website": "banjarnegara-desa.id",
        "sektor": "Sektor Teknologi Informasi dan Komunikasi",
        "nama_tampil_badan_hukum": "CV",
        "nama_perusahaan": "CV CLASNET",
        "tanggal_daftar": "2022-07-17",
        "tanggal_terbit": "2022-07-17",
        "nomor_tanda_daftar": "004455.01/DJAI.PSE/07/2022",
        "qr_code": "http://pse.kominfo.go.id/api/v1/jsonapi/tdpse-terbit/qr-code/6005",
        "status_id": "TERDAFTAR",
        "sistem_elektronik_id": "5869",
        "keterangan": "-",
        "lokalitas": "LOKAL"
      },
      "links": {
        "self": "http://pse.kominfo.go.id/api/v1/jsonapi/tdpse-terbit/6005"
      }
    },
    {
      "type": "tdpseTerbit",
      "id": "6004",
      "attributes": {
        "nomor_pb_umku": "128100012149600000003",
        "nama": "JELITA RELOAD",
        "website": "jelitareload.id",
        "sektor": "Sektor Perdagangan",
        "nama_tampil_badan_hukum": "CV",
        "nama_perusahaan": "CV CAHAYA MULTI SOLUTION",
        "tanggal_daftar": "2022-07-17",
        "tanggal_terbit": "2022-07-17",
        "nomor_tanda_daftar": "004453.02/DJAI.PSE/07/2022",
        "qr_code": "http://pse.kominfo.go.id/api/v1/jsonapi/tdpse-terbit/qr-code/6004",
        "status_id": "TERDAFTAR",
        "sistem_elektronik_id": "5868",
        "keterangan": "-",
        "lokalitas": "LOKAL"
      },
      "links": {
        "self": "http://pse.kominfo.go.id/api/v1/jsonapi/tdpse-terbit/6004"
      }
    },
    {
      "type": "tdpseTerbit",
      "id": "6003",
      "attributes": {
        "nomor_pb_umku": "270622001320900000001",
        "nama": "TOPUP STORE",
        "website": "-",
        "sektor": "Sektor Teknologi Informasi dan Komunikasi",
        "nama_tampil_badan_hukum": "",
        "nama_perusahaan": "MUHAMMAD YUSUF RIFALDI",
        "tanggal_daftar": "2022-07-17",
        "tanggal_terbit": "2022-07-17",
        "nomor_tanda_daftar": "004459.01/DJAI.PSE/07/2022",
        "qr_code": "http://pse.kominfo.go.id/api/v1/jsonapi/tdpse-terbit/qr-code/6003",
        "status_id": "TERDAFTAR",
        "sistem_elektronik_id": "5867",
        "keterangan": "-",
        "lokalitas": "LOKAL"
      },
      "links": {
        "self": "http://pse.kominfo.go.id/api/v1/jsonapi/tdpse-terbit/6003"
      }
    },
    {
      "type": "tdpseTerbit",
      "id": "6002",
      "attributes": {
        "nomor_pb_umku": "128100012149600000002",
        "nama": "ISTANA RELOAD",
        "website": "istanareload.id",
        "sektor": "Sektor Perdagangan",
        "nama_tampil_badan_hukum": "CV",
        "nama_perusahaan": "CV CAHAYA MULTI SOLUTION",
        "tanggal_daftar": "2022-07-17",
        "tanggal_terbit": "2022-07-17",
        "nomor_tanda_daftar": "004453.01/DJAI.PSE/07/2022",
        "qr_code": "http://pse.kominfo.go.id/api/v1/jsonapi/tdpse-terbit/qr-code/6002",
        "status_id": "TERDAFTAR",
        "sistem_elektronik_id": "5866",
        "keterangan": "-",
        "lokalitas": "LOKAL"
      },
      "links": {
        "self": "http://pse.kominfo.go.id/api/v1/jsonapi/tdpse-terbit/6002"
      }
    },
    {
      "type": "tdpseTerbit",
      "id": "6001",
      "attributes": {
        "nomor_pb_umku": "170722001678200000001",
        "nama": "ASTOREPAY",
        "website": "astoree.my.id",
        "sektor": "Sektor Perdagangan",
        "nama_tampil_badan_hukum": "",
        "nama_perusahaan": "MUHAMMAD IRSYAD AZHAR",
        "tanggal_daftar": "2022-07-17",
        "tanggal_terbit": "2022-07-17",
        "nomor_tanda_daftar": "004457.01/DJAI.PSE/07/2022",
        "qr_code": "http://pse.kominfo.go.id/api/v1/jsonapi/tdpse-terbit/qr-code/6001",
        "status_id": "TERDAFTAR",
        "sistem_elektronik_id": "5865",
        "keterangan": "-",
        "lokalitas": "LOKAL"
      },
      "links": {
        "self": "http://pse.kominfo.go.id/api/v1/jsonapi/tdpse-terbit/6001"
      }
    },
    {
      "type": "tdpseTerbit",
      "id": "6000",
      "attributes": {
        "nomor_pb_umku": "070722007813500010003",
        "nama": "MULTI KIRANA ABADI",
        "website": "-",
        "sektor": "Sektor Perdagangan",
        "nama_tampil_badan_hukum": "",
        "nama_perusahaan": "MULTI KIRANA ABADI",
        "tanggal_daftar": "2022-07-17",
        "tanggal_terbit": "2022-07-17",
        "nomor_tanda_daftar": "004451.03/DJAI.PSE/07/2022",
        "qr_code": "http://pse.kominfo.go.id/api/v1/jsonapi/tdpse-terbit/qr-code/6000",
        "status_id": "TERDAFTAR",
        "sistem_elektronik_id": "5864",
        "keterangan": "-",
        "lokalitas": "LOKAL"
      },
      "links": {
        "self": "http://pse.kominfo.go.id/api/v1/jsonapi/tdpse-terbit/6000"
      }
    },
    {
      "type": "tdpseTerbit",
      "id": "5999",
      "attributes": {
        "nomor_pb_umku": "110722005768900000001",
        "nama": "ACEH MULTI PAYMENT",
        "website": "ahafidstore.jualan.me",
        "sektor": "Sektor Perdagangan, Sektor Keuangan, Sektor Teknologi Informasi dan Komunikasi",
        "nama_tampil_badan_hukum": "",
        "nama_perusahaan": "ACEH MULTI PAYMENT",
        "tanggal_daftar": "2022-07-17",
        "tanggal_terbit": "2022-07-17",
        "nomor_tanda_daftar": "003990.01/DJAI.PSE/07/2022",
        "qr_code": "http://pse.kominfo.go.id/api/v1/jsonapi/tdpse-terbit/qr-code/5999",
        "status_id": "TERDAFTAR",
        "sistem_elektronik_id": "5863",
        "keterangan": "-",
        "lokalitas": "LOKAL"
      },
      "links": {
        "self": "http://pse.kominfo.go.id/api/v1/jsonapi/tdpse-terbit/5999"
      }
    },
    {
      "type": "tdpseTerbit",
      "id": "5998",
      "attributes": {
        "nomor_pb_umku": "070722007813500010002",
        "nama": "PT. MULTI KIRANA ABADI",
        "website": "-",
        "sektor": "Sektor Perdagangan",
        "nama_tampil_badan_hukum": "",
        "nama_perusahaan": "MULTI KIRANA ABADI",
        "tanggal_daftar": "2022-07-17",
        "tanggal_terbit": "2022-07-17",
        "nomor_tanda_daftar": "004451.02/DJAI.PSE/07/2022",
        "qr_code": "http://pse.kominfo.go.id/api/v1/jsonapi/tdpse-terbit/qr-code/5998",
        "status_id": "TERDAFTAR",
        "sistem_elektronik_id": "5862",
        "keterangan": "-",
        "lokalitas": "LOKAL"
      },
      "links": {
        "self": "http://pse.kominfo.go.id/api/v1/jsonapi/tdpse-terbit/5998"
      }
    },
    {
      "type": "tdpseTerbit",
      "id": "5997",
      "attributes": {
        "nomor_pb_umku": "070722007813500010001",
        "nama": "OKA SYAHPUTRA",
        "website": "-",
        "sektor": "Sektor Perdagangan",
        "nama_tampil_badan_hukum": "",
        "nama_perusahaan": "MULTI KIRANA ABADI",
        "tanggal_daftar": "2022-07-17",
        "tanggal_terbit": "2022-07-17",
        "nomor_tanda_daftar": "004451.01/DJAI.PSE/07/2022",
        "qr_code": "http://pse.kominfo.go.id/api/v1/jsonapi/tdpse-terbit/qr-code/5997",
        "status_id": "TERDAFTAR",
        "sistem_elektronik_id": "5861",
        "keterangan": "-",
        "lokalitas": "LOKAL"
      },
      "links": {
        "self": "http://pse.kominfo.go.id/api/v1/jsonapi/tdpse-terbit/5997"
      }
    }
  ]
}