{
  "meta": {
    "page": {
      "currentPage": 256,
      "from": 2551,
      "lastPage": 816,
      "perPage": 10,
      "to": 2560,
      "total": 8153
    }
  },
  "jsonapi": {
    "version": "1.0"
  },
  "links": {
    "first": "http://pse.kominfo.go.id/api/v1/jsonapi/tdpse-terbit?page%5Blimit%5D=10&page%5Bpage%5D=1",
    "last": "http://pse.kominfo.go.id/api/v1/jsonapi/tdpse-terbit?page%5Blimit%5D=10&page%5Bpage%5D=816",
    "next": "http://pse.kominfo.go.id/api/v1/jsonapi/tdpse-terbit?page%5Blimit%5D=10&page%5Bpage%5D=257",
    "prev": "http://pse.kominfo.go.id/api/v1/jsonapi/tdpse-terbit?page%5Blimit%5D=10&page%5Bpage%5D=255"
  },
  "data": [
    {
      "type": "tdpseTerbit",
      "id": "5981",
      "attributes": {
        "nomor_pb_umku": "912030757104900000001",
        "nama": "MOOTA",
        "website": "moota.co",
        "sektor": "Sektor Teknologi Informasi dan Komunikasi",
        "nama_tampil_badan_hukum": "PT",
        "nama_perusahaan": "PT FATTAH TEKNO DIGITAL",
        "tanggal_daftar": "2022-07-17",
        "tanggal_terbit": "2022-07-17",
        "nomor_tanda_daftar": "004436.01/DJAI.PSE/07/2022",
        "qr_code": "http://pse.kominfo.go.id/api/v1/jsonapi/tdpse-terbit/qr-code/5981",
        "status_id": "TERDAFTAR",
        "sistem_elektronik_id": "5844",
        "keterangan": "-",
        "lokalitas": "LOKAL"
      },
      "links": {
        "self": "http://pse.kominfo.go.id/api/v1/jsonapi/tdpse-terbit/5981"
      }
    },
    {
      "type": "tdpseTerbit",
      "id": "5980",
      "attributes": {
        "nomor_pb_umku": "124500012239600040004",
        "nama": "MCOKE.CO.ID",
        "website": "mcoke.co.id",
        "sektor": "Sektor Perdagangan",
        "nama_tampil_badan_hukum": "CV",
        "nama_perusahaan": "CV PUTRA INTI CEMERLANG",
        "tanggal_daftar": "2022-07-17",
        "tanggal_terbit": "2022-07-17",
        "nomor_tanda_daftar": "004195.03/DJAI.PSE/07/2022",
        "qr_code": "http://pse.kominfo.go.id/api/v1/jsonapi/tdpse-terbit/qr-code/5980",
        "status_id": "TERDAFTAR",
        "sistem_elektronik_id": "5842",
        "keterangan": "-",
        "lokalitas": "LOKAL"
      },
      "links": {
        "self": "http://pse.kominfo.go.id/api/v1/jsonapi/tdpse-terbit/5980"
      }
    },
    {
      "type": "tdpseTerbit",
      "id": "5979",
      "attributes": {
        "nomor_pb_umku": "124500012239600040003",
        "nama": "MEMBER.MCOKE.CO.ID",
        "website": "member.mcoke.co.id",
        "sektor": "Sektor Perdagangan",
        "nama_tampil_badan_hukum": "CV",
        "nama_perusahaan": "CV PUTRA INTI CEMERLANG",
        "tanggal_daftar": "2022-07-17",
        "tanggal_terbit": "2022-07-17",
        "nomor_tanda_daftar": "004195.02/DJAI.PSE/07/2022",
        "qr_code": "http://pse.kominfo.go.id/api/v1/jsonapi/tdpse-terbit/qr-code/5979",
        "status_id": "TERDAFTAR",
        "sistem_elektronik_id": "5840",
        "keterangan": "-",
        "lokalitas": "LOKAL"
      },
      "links": {
        "self": "http://pse.kominfo.go.id/api/v1/jsonapi/tdpse-terbit/5979"
      }
    },
    {
      "type": "tdpseTerbit",
      "id": "5978",
      "attributes": {
        "nomor_pb_umku": "022020063190900040004",
        "nama": "BINA PAYMENT",
        "website": "binapayment.com",
        "sektor": "Sektor Perdagangan, Sektor Keuangan",
        "nama_tampil_badan_hukum": "PT",
        "nama_perusahaan": "PT BIMASAKTI MULTI SINERGI",
        "tanggal_daftar": "2022-07-17",
        "tanggal_terbit": "2022-07-17",
        "nomor_tanda_daftar": "002933.05/DJAI.PSE/07/2022",
        "qr_code": "http://pse.kominfo.go.id/api/v1/jsonapi/tdpse-terbit/qr-code/5978",
        "status_id": "TERDAFTAR",
        "sistem_elektronik_id": "5839",
        "keterangan": "-",
        "lokalitas": "LOKAL"
      },
      "links": {
        "self": "http://pse.kominfo.go.id/api/v1/jsonapi/tdpse-terbit/5978"
      }
    },
    {
      "type": "tdpseTerbit",
      "id": "5977",
      "attributes": {
        "nomor_pb_umku": "070622001546100010001",
        "nama": "PEAR LIVE",
        "website": "hellocherry.com",
        "sektor": "Sektor Teknologi Informasi dan Komunikasi",
        "nama_tampil_badan_hukum": "PT",
        "nama_perusahaan": "PT TIANGE TEKNOLOGI INDONESIA",
        "tanggal_daftar": "2022-07-16",
        "tanggal_terbit": "2022-07-16",
        "nomor_tanda_daftar": "004428.01/DJAI.PSE/07/2022",
        "qr_code": "http://pse.kominfo.go.id/api/v1/jsonapi/tdpse-terbit/qr-code/5977",
        "status_id": "TERDAFTAR",
        "sistem_elektronik_id": "5837",
        "keterangan": "-",
        "lokalitas": "LOKAL"
      },
      "links": {
        "self": "http://pse.kominfo.go.id/api/v1/jsonapi/tdpse-terbit/5977"
      }
    },
    {
      "type": "tdpseTerbit",
      "id": "5976",
      "attributes": {
        "nomor_pb_umku": "140722007694300010001",
        "nama": "PENAMPUNGAN, PENJERNIHAN DAN PENYALURAN AIR MINUM",
        "website": "-",
        "sektor": "Sektor Energi dan Sumber Daya Mineral, Sektor Pangan",
        "nama_tampil_badan_hukum": "",
        "nama_perusahaan": "BEKTI DWI HARTANTI",
        "tanggal_daftar": "2022-07-16",
        "tanggal_terbit": "2022-07-16",
        "nomor_tanda_daftar": "004432.01/DJAI.PSE/07/2022",
        "qr_code": "http://pse.kominfo.go.id/api/v1/jsonapi/tdpse-terbit/qr-code/5976",
        "status_id": "TERDAFTAR",
        "sistem_elektronik_id": "5838",
        "keterangan": "-",
        "lokalitas": "LOKAL"
      },
      "links": {
        "self": "http://pse.kominfo.go.id/api/v1/jsonapi/tdpse-terbit/5976"
      }
    },
    {
      "type": "tdpseTerbit",
      "id": "5975",
      "attributes": {
        "nomor_pb_umku": "280322004245900030004",
        "nama": "C-GUARDS",
        "website": "cguards.idclear.co.id",
        "sektor": "Sektor Keuangan",
        "nama_tampil_badan_hukum": "PT",
        "nama_perusahaan": "PT KLIRING PENJAMINAN EFEK INDONESIA",
        "tanggal_daftar": "2022-07-16",
        "tanggal_terbit": "2022-07-16",
        "nomor_tanda_daftar": "003819.04/DJAI.PSE/07/2022",
        "qr_code": "http://pse.kominfo.go.id/api/v1/jsonapi/tdpse-terbit/qr-code/5975",
        "status_id": "TERDAFTAR",
        "sistem_elektronik_id": "5836",
        "keterangan": "-",
        "lokalitas": "LOKAL"
      },
      "links": {
        "self": "http://pse.kominfo.go.id/api/v1/jsonapi/tdpse-terbit/5975"
      }
    },
    {
      "type": "tdpseTerbit",
      "id": "5974",
      "attributes": {
        "nomor_pb_umku": "280322004245900030003",
        "nama": "E-CLEARS",
        "website": "-",
        "sektor": "Sektor Keuangan",
        "nama_tampil_badan_hukum": "PT",
        "nama_perusahaan": "PT KLIRING PENJAMINAN EFEK INDONESIA",
        "tanggal_daftar": "2022-07-16",
        "tanggal_terbit": "2022-07-16",
        "nomor_tanda_daftar": "003819.03/DJAI.PSE/07/2022",
        "qr_code": "http://pse.kominfo.go.id/api/v1/jsonapi/tdpse-terbit/qr-code/5974",
        "status_id": "TERDAFTAR",
        "sistem_elektronik_id": "5835",
        "keterangan": "-",
        "lokalitas": "LOKAL"
      },
      "links": {
        "self": "http://pse.kominfo.go.id/api/v1/jsonapi/tdpse-terbit/5974"
      }
    },
    {
      "type": "tdpseTerbit",
      "id": "5973",
      "attributes": {
        "nomor_pb_umku": "280322004245900030002",
        "nama": "M-CLEARS",
        "website": "cmsmclears.idclear.co.id",
        "sektor": "Sektor Keuangan",
        "nama_tampil_badan_hukum": "PT",
        "nama_perusahaan": "PT KLIRING PENJAMINAN EFEK INDONESIA",
        "tanggal_daftar": "2022-07-16",
        "tanggal_terbit": "2022-07-16",
        "nomor_tanda_daftar": "003819.02/DJAI.PSE/07/2022",
        "qr_code": "http://pse.kominfo.go.id/api/v1/jsonapi/tdpse-terbit/qr-code/5973",
        "status_id": "TERDAFTAR",
        "sistem_elektronik_id": "5834",
        "keterangan": "-",
        "lokalitas": "LOKAL"
      },
      "links": {
        "self": "http://pse.kominfo.go.id/api/v1/jsonapi/tdpse-terbit/5973"
      }
    },
    {
      "type": "tdpseTerbit",
      "id": "5972",
      "attributes": {
        "nomor_pb_umku": "280322004245900030001",
        "nama": "PORTAL AK DAN PARTISIPAN",
        "website": "membership.kpei.co.id",
        "sektor": "Sektor Keuangan",
        "nama_tampil_badan_hukum": "PT",
        "nama_perusahaan": "PT KLIRING PENJAMINAN EFEK INDONESIA",
        "tanggal_daftar": "2022-07-16",
        "tanggal_terbit": "2022-07-16",
        "nomor_tanda_daftar": "003819.01/DJAI.PSE/07/2022",
        "qr_code": "http://pse.kominfo.go.id/api/v1/jsonapi/tdpse-terbit/qr-code/5972",
        "status_id": "TERDAFTAR",
        "sistem_elektronik_id": "5833",
        "keterangan": "-",
        "lokalitas": "LOKAL"
      },
      "links": {
        "self": "http://pse.kominfo.go.id/api/v1/jsonapi/tdpse-terbit/5972"
      }
    }
  ]
}