{
  "meta": {
    "page": {
      "currentPage": 260,
      "from": 2591,
      "lastPage": 1085,
      "perPage": 10,
      "to": 2600,
      "total": 10842
    }
  },
  "data": [
    {
      "type": "tdpseTerbit",
      "id": 8286,
      "attributes": {
        "nomor_pb_umku": "912020626142300000001",
        "nama": "URBANE ROOM",
        "website": "urbaneroom.com",
        "sektor": "Sektor Teknologi Informasi dan Komunikasi",
        "nama_perusahaan": "URBANE DIGITAL INDONESIA",
        "tanggal_daftar": "2022-07-20",
        "nomor_tanda_daftar": "005569.01/DJAI.PSE/07/2022",
        "qr_code": "https://pse.kominfo.go.id/storage/images/qr_code/5218b7af86701fa930da519343bf2c6c.png",
        "status_id": "TERDAFTAR",
        "sistem_elektronik_id": 8204
      }
    },
    {
      "type": "tdpseTerbit",
      "id": 7821,
      "attributes": {
        "nomor_pb_umku": "912000376167300010001",
        "nama": "WEBSITE PT BPR HARTASARANA",
        "website": "hartasarana.com",
        "sektor": "Sektor Keuangan",
        "nama_perusahaan": "BANK PERKREDITAN RAKYAT HARTASARANA",
        "tanggal_daftar": "2022-07-20",
        "nomor_tanda_daftar": "005568.01/DJAI.PSE/07/2022",
        "qr_code": "https://pse.kominfo.go.id/storage/images/qr_code/f788d0b43205e2679b50b43acdc80add.png",
        "status_id": "TERDAFTAR",
        "sistem_elektronik_id": 7739
      }
    },
    {
      "type": "tdpseTerbit",
      "id": 8586,
      "attributes": {
        "nomor_pb_umku": "912030776149100010001",
        "nama": "PT BPR WIROSARI IJO",
        "website": "bprijo.com",
        "sektor": "Sektor Keuangan",
        "nama_perusahaan": "BANK PERKREDITAN RAKYAT WIROSARI IJO",
        "tanggal_daftar": "2022-07-21",
        "nomor_tanda_daftar": "005567.01/DJAI.PSE/07/2022",
        "qr_code": "https://pse.kominfo.go.id/storage/images/qr_code/77f540c595c5ffa988f8c862e5196f6e.png",
        "status_id": "TERDAFTAR",
        "sistem_elektronik_id": 8502
      }
    },
    {
      "type": "tdpseTerbit",
      "id": 7765,
      "attributes": {
        "nomor_pb_umku": "912020884259200010001",
        "nama": "BPR DANA MANDIRI",
        "website": "BPRDANAMANDIRI.COM",
        "sektor": "Sektor Keuangan",
        "nama_perusahaan": "BANK PERKREDITAN RAKYAT DANA MANDIRI",
        "tanggal_daftar": "2022-07-20",
        "nomor_tanda_daftar": "005566.01/DJAI.PSE/07/2022",
        "qr_code": "https://pse.kominfo.go.id/storage/images/qr_code/c4e79e457684c2c4a876037a6fda8d05.png",
        "status_id": "TERDAFTAR",
        "sistem_elektronik_id": 7676
      }
    },
    {
      "type": "tdpseTerbit",
      "id": 7859,
      "attributes": {
        "nomor_pb_umku": "912030084112800010003",
        "nama": "WEBSITE PT BPR KHRISNA DARMA ADIPALA",
        "website": "bprkhrisna.com",
        "sektor": "Sektor Keuangan",
        "nama_perusahaan": "BANK PERKREDITAN RAKYAT KHRISNA DARMA ADIPALA",
        "tanggal_daftar": "2022-07-20",
        "nomor_tanda_daftar": "005565.02/DJAI.PSE/07/2022",
        "qr_code": "https://pse.kominfo.go.id/storage/images/qr_code/7686edc09fe22052674c3d7246bbae08.png",
        "status_id": "TERDAFTAR",
        "sistem_elektronik_id": 7780
      }
    },
    {
      "type": "tdpseTerbit",
      "id": 7727,
      "attributes": {
        "nomor_pb_umku": "912030084112800010002",
        "nama": "GO-BANKING",
        "website": "bprkhrisna.com",
        "sektor": "Sektor Keuangan",
        "nama_perusahaan": "BANK PERKREDITAN RAKYAT KHRISNA DARMA ADIPALA",
        "tanggal_daftar": "2022-07-20",
        "nomor_tanda_daftar": "005565.01/DJAI.PSE/07/2022",
        "qr_code": "https://pse.kominfo.go.id/storage/images/qr_code/68122cc0e2a92971ce964aec3f826e8a.png",
        "status_id": "TERDAFTAR",
        "sistem_elektronik_id": 7613
      }
    },
    {
      "type": "tdpseTerbit",
      "id": 7836,
      "attributes": {
        "nomor_pb_umku": "031121003552700010001",
        "nama": "TELKOMSIGMA SATU SARAN TRANSAKSI KEUANGAN",
        "website": "-",
        "sektor": "Sektor Keuangan",
        "nama_perusahaan": "PD BANK PERKREDITAN RAKYAT BAHTERAMAS",
        "tanggal_daftar": "2022-07-20",
        "nomor_tanda_daftar": "005564.01/DJAI.PSE/07/2022",
        "qr_code": "https://pse.kominfo.go.id/storage/images/qr_code/9402e472b64ecc0de665af659c443208.png",
        "status_id": "TERDAFTAR",
        "sistem_elektronik_id": 7761
      }
    },
    {
      "type": "tdpseTerbit",
      "id": 7949,
      "attributes": {
        "nomor_pb_umku": "150122000131900020001",
        "nama": "MISS MASS LOGISTIC",
        "website": "mismasslogistic.com",
        "sektor": "Sektor Perdagangan, Sektor Transportasi",
        "nama_perusahaan": "ARTJAVA PUTRA PRIMA",
        "tanggal_daftar": "2022-07-20",
        "nomor_tanda_daftar": "005563.02/DJAI.PSE/07/2022",
        "qr_code": "https://pse.kominfo.go.id/storage/images/qr_code/bb2e612243bb6db0898a8b9622f11b59.png",
        "status_id": "TERDAFTAR",
        "sistem_elektronik_id": 7808
      }
    },
    {
      "type": "tdpseTerbit",
      "id": 7648,
      "attributes": {
        "nomor_pb_umku": "022000127267600000001",
        "nama": "FOOD TRAVEL GALLERY (LANCAR SUKSES LANGGENG)",
        "website": "lawrentechnologyindonesia.com",
        "sektor": "Sektor Teknologi Informasi dan Komunikasi",
        "nama_perusahaan": "LANCAR SUKSES LANGGENG",
        "tanggal_daftar": "2022-07-20",
        "nomor_tanda_daftar": "005562.01/DJAI.PSE/07/2022",
        "qr_code": "https://pse.kominfo.go.id/storage/images/qr_code/0c31218d07fbde36fa5ff5d3744f06fc.png",
        "status_id": "TERDAFTAR",
        "sistem_elektronik_id": 7548
      }
    },
    {
      "type": "tdpseTerbit",
      "id": 7637,
      "attributes": {
        "nomor_pb_umku": "123700069063500010003",
        "nama": "APLIKASI MOBILE CICIL CICILAN KHUSUS MAHASISWA",
        "website": "cicil.co.id",
        "sektor": "Sektor Keuangan",
        "nama_perusahaan": "CICIL SOLUSI MITRA TEKNOLOGI",
        "tanggal_daftar": "2022-07-20",
        "nomor_tanda_daftar": "005560.02/DJAI.PSE/07/2022",
        "qr_code": "https://pse.kominfo.go.id/storage/images/qr_code/f1ff369ddc2795fe2164b388ab029641.png",
        "status_id": "TERDAFTAR",
        "sistem_elektronik_id": 7535
      }
    }
  ]
}