{
  "meta": {
    "page": {
      "currentPage": 27,
      "from": 261,
      "lastPage": 1113,
      "perPage": 10,
      "to": 270,
      "total": 11124
    }
  },
  "data": [
    {
      "type": "tdpseTerbit",
      "id": 11958,
      "attributes": {
        "nomor_pb_umku": "027800094229400000001",
        "nama": "VOGAME",
        "website": "vogame.id",
        "sektor": "Sektor Perdagangan",
        "nama_perusahaan": "MAJU SELARAS KOMPUTER",
        "tanggal_daftar": "2022-10-25",
        "nomor_tanda_daftar": "008259.01/DJAI.PSE/10/2022",
        "qr_code": "https://pse.kominfo.go.id/storage/images/qr_code/fe6dedb45055bef39ed36305085ff3df.png",
        "status_id": "TERDAFTAR",
        "sistem_elektronik_id": 11762
      }
    },
    {
      "type": "tdpseTerbit",
      "id": 11969,
      "attributes": {
        "nomor_pb_umku": "912050882031900010002",
        "nama": "OLOMED",
        "website": "olomed.net",
        "sektor": "Sektor Kesehatan",
        "nama_perusahaan": "SATUNOL MIKRO SISTEM",
        "tanggal_daftar": "2022-10-26",
        "nomor_tanda_daftar": "008257.01/DJAI.PSE/10/2022",
        "qr_code": "https://pse.kominfo.go.id/storage/images/qr_code/b0e791d03db180aa599143753443ae46.png",
        "status_id": "TERDAFTAR",
        "sistem_elektronik_id": 11777
      }
    },
    {
      "type": "tdpseTerbit",
      "id": 11955,
      "attributes": {
        "nomor_pb_umku": "101221004071300010001",
        "nama": "BUKAKIOS TEKNOLOGI INDONESIA",
        "website": "-",
        "sektor": "Sektor Teknologi Informasi dan Komunikasi",
        "nama_perusahaan": "BUKAKIOS TEKNOLOGI INDONESIA",
        "tanggal_daftar": "2022-10-25",
        "nomor_tanda_daftar": "008256.01/DJAI.PSE/10/2022",
        "qr_code": "https://pse.kominfo.go.id/storage/images/qr_code/e43e41379dbb13e8d4816ba6ebcbbc7b.png",
        "status_id": "TERDAFTAR",
        "sistem_elektronik_id": 11759
      }
    },
    {
      "type": "tdpseTerbit",
      "id": 11954,
      "attributes": {
        "nomor_pb_umku": "101221003944400010001",
        "nama": "TOKO VOUCHER INDONESIA",
        "website": "member.tokovoucher.id",
        "sektor": "Sektor Teknologi Informasi dan Komunikasi",
        "nama_perusahaan": "TOKO VOUCHER INDONESIA",
        "tanggal_daftar": "2022-10-25",
        "nomor_tanda_daftar": "008254.01/DJAI.PSE/10/2022",
        "qr_code": "https://pse.kominfo.go.id/storage/images/qr_code/01e80f427ed65964b9d86503ee561345.png",
        "status_id": "TERDAFTAR",
        "sistem_elektronik_id": 11758
      }
    },
    {
      "type": "tdpseTerbit",
      "id": 12158,
      "attributes": {
        "nomor_pb_umku": "022801019192300050001",
        "nama": "IOCBC TRADE MOBILE",
        "website": "ocbcsekuritas.com",
        "sektor": "Sektor Keuangan",
        "nama_perusahaan": "OCBC SEKURITAS INDONESIA",
        "tanggal_daftar": "2022-11-08",
        "nomor_tanda_daftar": "008253.01/DJAI.PSE/10/2022",
        "qr_code": "https://pse.kominfo.go.id/storage/images/qr_code/c4520ffb4c0f054d76eaafd628a44669.png",
        "status_id": "TERDAFTAR",
        "sistem_elektronik_id": 11756
      }
    },
    {
      "type": "tdpseTerbit",
      "id": 11951,
      "attributes": {
        "nomor_pb_umku": "912000137014500140001",
        "nama": "UGM-MALL.COM",
        "website": "ugm-mall.com",
        "sektor": "Sektor Perdagangan",
        "nama_perusahaan": "GAMA MULTI USAHA MANDIRI",
        "tanggal_daftar": "2022-10-25",
        "nomor_tanda_daftar": "008251.01/DJAI.PSE/10/2022",
        "qr_code": "https://pse.kominfo.go.id/storage/images/qr_code/38e7941408e662bd38bb97028541acbb.png",
        "status_id": "TERDAFTAR",
        "sistem_elektronik_id": 11754
      }
    },
    {
      "type": "tdpseTerbit",
      "id": 11952,
      "attributes": {
        "nomor_pb_umku": "028001013157500020001",
        "nama": "TOPUR MARKETPLACE",
        "website": "topur.id",
        "sektor": "Sektor Perdagangan",
        "nama_perusahaan": "NUPARIS",
        "tanggal_daftar": "2022-10-25",
        "nomor_tanda_daftar": "008249.01/DJAI.PSE/10/2022",
        "qr_code": "https://pse.kominfo.go.id/storage/images/qr_code/2fde840f6eed3073c160857ab9addde6.png",
        "status_id": "TERDAFTAR",
        "sistem_elektronik_id": 11755
      }
    },
    {
      "type": "tdpseTerbit",
      "id": 12288,
      "attributes": {
        "nomor_pb_umku": "150822007302700010001",
        "nama": "FITAJA!",
        "website": "fitaja.id",
        "sektor": "Sektor Perdagangan, Sektor Kesehatan",
        "nama_perusahaan": "FITAJA DIGITAL NUSANTARA",
        "tanggal_daftar": "2022-11-15",
        "nomor_tanda_daftar": "008248.01/DJAI.PSE/11/2022",
        "qr_code": "https://pse.kominfo.go.id/storage/images/qr_code/fedf1d7fad98a2702458fb8faa835926.png",
        "status_id": "TERDAFTAR",
        "sistem_elektronik_id": 12077
      }
    },
    {
      "type": "tdpseTerbit",
      "id": 11962,
      "attributes": {
        "nomor_pb_umku": "912041302009800020001",
        "nama": "NÜPAY",
        "website": "dspratama.co.id",
        "sektor": "Sektor Perdagangan, Sektor Keuangan",
        "nama_perusahaan": "DIGITAL SOLUSI PRATAMA",
        "tanggal_daftar": "2022-10-25",
        "nomor_tanda_daftar": "008247.01/DJAI.PSE/10/2022",
        "qr_code": "https://pse.kominfo.go.id/storage/images/qr_code/a031aaeebe3ad3229be4d021adb42b46.png",
        "status_id": "TERDAFTAR",
        "sistem_elektronik_id": 11767
      }
    },
    {
      "type": "tdpseTerbit",
      "id": 11998,
      "attributes": {
        "nomor_pb_umku": "027100091178400170002",
        "nama": "PENJUALAN ONLINE KATALOG",
        "website": "-",
        "sektor": "Sektor Perdagangan",
        "nama_perusahaan": "PEGASUS",
        "tanggal_daftar": "2022-10-27",
        "nomor_tanda_daftar": "008246.03/DJAI.PSE/10/2022",
        "qr_code": "https://pse.kominfo.go.id/storage/images/qr_code/885244d2a1ae396cfda084938a2c824b.png",
        "status_id": "TERDAFTAR",
        "sistem_elektronik_id": 11802
      }
    }
  ]
}