{
  "meta": {
    "page": {
      "currentPage": 28,
      "from": 271,
      "lastPage": 1113,
      "perPage": 10,
      "to": 280,
      "total": 11124
    }
  },
  "data": [
    {
      "type": "tdpseTerbit",
      "id": 11972,
      "attributes": {
        "nomor_pb_umku": "027100091178400170001",
        "nama": "PERDAGANGAN KOMPUTER DAN PERLENGKAPAN KOMPUTER",
        "website": "-",
        "sektor": "Sektor Perdagangan",
        "nama_perusahaan": "PEGASUS",
        "tanggal_daftar": "2022-10-26",
        "nomor_tanda_daftar": "008246.02/DJAI.PSE/10/2022",
        "qr_code": "https://pse.kominfo.go.id/storage/images/qr_code/f0e4b02c18e70b9cff16ef7428afe629.png",
        "status_id": "TERDAFTAR",
        "sistem_elektronik_id": 11780
      }
    },
    {
      "type": "tdpseTerbit",
      "id": 11975,
      "attributes": {
        "nomor_pb_umku": "060822001933200000001",
        "nama": "INAGAME",
        "website": "inagame.id",
        "sektor": "Sektor Teknologi Informasi dan Komunikasi",
        "nama_perusahaan": "INOVASI GAME SELARAS",
        "tanggal_daftar": "2022-10-26",
        "nomor_tanda_daftar": "008245.01/DJAI.PSE/10/2022",
        "qr_code": "https://pse.kominfo.go.id/storage/images/qr_code/ad6f6a07d675ea1868ff77ced99678e0.png",
        "status_id": "TERDAFTAR",
        "sistem_elektronik_id": 11778
      }
    },
    {
      "type": "tdpseTerbit",
      "id": 11944,
      "attributes": {
        "nomor_pb_umku": "241022005093500020001",
        "nama": "BANK PERKREDITAN RAKYAT SAGO LUHAK LIMAPULUH",
        "website": "-",
        "sektor": "Sektor Keuangan",
        "nama_perusahaan": "BANK PERKREDITAN RAKYAT SAGO LUHAK LIMAPULUH",
        "tanggal_daftar": "2022-10-25",
        "nomor_tanda_daftar": "008244.01/DJAI.PSE/10/2022",
        "qr_code": "https://pse.kominfo.go.id/storage/images/qr_code/90c56fc9ec1892963a5a86beab5a4752.png",
        "status_id": "TERDAFTAR",
        "sistem_elektronik_id": 11746
      }
    },
    {
      "type": "tdpseTerbit",
      "id": 11943,
      "attributes": {
        "nomor_pb_umku": "123600031182400010001",
        "nama": "APAMFIN",
        "website": "apamfin.com",
        "sektor": "Sektor Keuangan",
        "nama_perusahaan": "ANUGRAH PEMBIAYAAN DIGITAL",
        "tanggal_daftar": "2022-10-24",
        "nomor_tanda_daftar": "008241.01/DJAI.PSE/10/2022",
        "qr_code": "https://pse.kominfo.go.id/storage/images/qr_code/544f4806b2a801983578d00afda708ce.png",
        "status_id": "TERDAFTAR",
        "sistem_elektronik_id": 11744
      }
    },
    {
      "type": "tdpseTerbit",
      "id": 12433,
      "attributes": {
        "nomor_pb_umku": "020400091320500090005",
        "nama": "MULTI MEDIKA INTERNASIONAL",
        "website": "multimed.co.id",
        "sektor": "Sektor Perdagangan, Sektor Kesehatan",
        "nama_perusahaan": "MULTI MEDIKA INTERNASIONAL",
        "tanggal_daftar": "2022-11-22",
        "nomor_tanda_daftar": "008240.01/DJAI.PSE/10/2022",
        "qr_code": "https://pse.kominfo.go.id/storage/images/qr_code/ca8099f90c4b133c643b2fbad92a95b0.png",
        "status_id": "TERDAFTAR",
        "sistem_elektronik_id": 11763
      }
    },
    {
      "type": "tdpseTerbit",
      "id": 12479,
      "attributes": {
        "nomor_pb_umku": "027601120195200040047",
        "nama": "MOBILE ORDER SYSTEM (MOS)",
        "website": "-",
        "sektor": "Sektor Perdagangan",
        "nama_perusahaan": "LUCKY MOM INDONESIA",
        "tanggal_daftar": "2022-11-23",
        "nomor_tanda_daftar": "008239.02/DJAI.PSE/11/2022",
        "qr_code": "https://pse.kominfo.go.id/storage/images/qr_code/375783078584d96ecf3dc01a82f1d80d.png",
        "status_id": "TERDAFTAR",
        "sistem_elektronik_id": 12235
      }
    },
    {
      "type": "tdpseTerbit",
      "id": 11942,
      "attributes": {
        "nomor_pb_umku": "912020249214400020001",
        "nama": "TRIDI",
        "website": "trukes.id",
        "sektor": "Sektor Transportasi, Sektor Teknologi Informasi dan Komunikasi",
        "nama_perusahaan": "ANEKA KULINER RAYA",
        "tanggal_daftar": "2022-10-24",
        "nomor_tanda_daftar": "008238.01/DJAI.PSE/10/2022",
        "qr_code": "https://pse.kominfo.go.id/storage/images/qr_code/c7a4cda67ecda0ccf927feef821cfb23.png",
        "status_id": "TERDAFTAR",
        "sistem_elektronik_id": 11743
      }
    },
    {
      "type": "tdpseTerbit",
      "id": 11939,
      "attributes": {
        "nomor_pb_umku": "912020821086900000001",
        "nama": "NAS COMMERCE",
        "website": "nasonline.id",
        "sektor": "Sektor Perdagangan, Sektor Teknologi Informasi dan Komunikasi",
        "nama_perusahaan": "NUSANTARA APLIKASI SERTIMEDIA",
        "tanggal_daftar": "2022-10-24",
        "nomor_tanda_daftar": "008237.01/DJAI.PSE/10/2022",
        "qr_code": "https://pse.kominfo.go.id/storage/images/qr_code/12c7ac4fc547a6f75c8403e063d5100b.png",
        "status_id": "TERDAFTAR",
        "sistem_elektronik_id": 11740
      }
    },
    {
      "type": "tdpseTerbit",
      "id": 11938,
      "attributes": {
        "nomor_pb_umku": "150921004944900060001",
        "nama": "PASSPOD.COM",
        "website": "passpod.com",
        "sektor": "Sektor Perdagangan",
        "nama_perusahaan": "YELOOO INTEGRA DATANET",
        "tanggal_daftar": "2022-10-24",
        "nomor_tanda_daftar": "008236.01/DJAI.PSE/10/2022",
        "qr_code": "https://pse.kominfo.go.id/storage/images/qr_code/995e0907453053fb9d2fe9080f19abd3.png",
        "status_id": "TERDAFTAR",
        "sistem_elektronik_id": 11739
      }
    },
    {
      "type": "tdpseTerbit",
      "id": 11947,
      "attributes": {
        "nomor_pb_umku": "220322006488500040001",
        "nama": "WAGON ID",
        "website": "wagon.id",
        "sektor": "Sektor Perdagangan",
        "nama_perusahaan": "WAGON DAGANG INDONESIA",
        "tanggal_daftar": "2022-10-25",
        "nomor_tanda_daftar": "008235.01/DJAI.PSE/10/2022",
        "qr_code": "https://pse.kominfo.go.id/storage/images/qr_code/8456dea4ba5c7fac2378a8dc7f3a23ba.png",
        "status_id": "TERDAFTAR",
        "sistem_elektronik_id": 11749
      }
    }
  ]
}