{
  "meta": {
    "page": {
      "currentPage": 279,
      "from": 2781,
      "lastPage": 816,
      "perPage": 10,
      "to": 2790,
      "total": 8153
    }
  },
  "jsonapi": {
    "version": "1.0"
  },
  "links": {
    "first": "http://pse.kominfo.go.id/api/v1/jsonapi/tdpse-terbit?page%5Blimit%5D=10&page%5Bpage%5D=1",
    "last": "http://pse.kominfo.go.id/api/v1/jsonapi/tdpse-terbit?page%5Blimit%5D=10&page%5Bpage%5D=816",
    "next": "http://pse.kominfo.go.id/api/v1/jsonapi/tdpse-terbit?page%5Blimit%5D=10&page%5Bpage%5D=280",
    "prev": "http://pse.kominfo.go.id/api/v1/jsonapi/tdpse-terbit?page%5Blimit%5D=10&page%5Bpage%5D=278"
  },
  "data": [
    {
      "type": "tdpseTerbit",
      "id": "5737",
      "attributes": {
        "nomor_pb_umku": "230921004809600010001",
        "nama": "HDONETWORKCONSULTANT",
        "website": "hdonetworkconsultant.web.id",
        "sektor": "Sektor Perdagangan, Sektor Teknologi Informasi dan Komunikasi",
        "nama_tampil_badan_hukum": "",
        "nama_perusahaan": "ENGGAR PRASETYAWAN",
        "tanggal_daftar": "2022-07-15",
        "tanggal_terbit": "2022-07-15",
        "nomor_tanda_daftar": "003442.02/DJAI.PSE/07/2022",
        "qr_code": "http://pse.kominfo.go.id/api/v1/jsonapi/tdpse-terbit/qr-code/5737",
        "status_id": "TERDAFTAR",
        "sistem_elektronik_id": "5601",
        "keterangan": "-",
        "lokalitas": "LOKAL"
      },
      "links": {
        "self": "http://pse.kominfo.go.id/api/v1/jsonapi/tdpse-terbit/5737"
      }
    },
    {
      "type": "tdpseTerbit",
      "id": "5736",
      "attributes": {
        "nomor_pb_umku": "123600055235900010001",
        "nama": "BIKIN ORANG SUKSES",
        "website": "bosindonesia.id",
        "sektor": "Sektor Perdagangan",
        "nama_tampil_badan_hukum": "PT",
        "nama_perusahaan": "PT BIKIN ORANG SUKSES",
        "tanggal_daftar": "2022-07-15",
        "tanggal_terbit": "2022-07-15",
        "nomor_tanda_daftar": "004064.01/DJAI.PSE/07/2022",
        "qr_code": "http://pse.kominfo.go.id/api/v1/jsonapi/tdpse-terbit/qr-code/5736",
        "status_id": "TERDAFTAR",
        "sistem_elektronik_id": "5600",
        "keterangan": "-",
        "lokalitas": "LOKAL"
      },
      "links": {
        "self": "http://pse.kominfo.go.id/api/v1/jsonapi/tdpse-terbit/5736"
      }
    },
    {
      "type": "tdpseTerbit",
      "id": "5735",
      "attributes": {
        "nomor_pb_umku": "022020838111500020001",
        "nama": "MEDIA SOSIAL",
        "website": "-",
        "sektor": "Sektor Keuangan",
        "nama_tampil_badan_hukum": "PT",
        "nama_perusahaan": "PT BANK PERKREDITAN RAKYAT GEMA AMPEKKOTO SEJAHTERA",
        "tanggal_daftar": "2022-07-15",
        "tanggal_terbit": "2022-07-15",
        "nomor_tanda_daftar": "004220.01/DJAI.PSE/07/2022",
        "qr_code": "http://pse.kominfo.go.id/api/v1/jsonapi/tdpse-terbit/qr-code/5735",
        "status_id": "TERDAFTAR",
        "sistem_elektronik_id": "5598",
        "keterangan": "-",
        "lokalitas": "LOKAL"
      },
      "links": {
        "self": "http://pse.kominfo.go.id/api/v1/jsonapi/tdpse-terbit/5735"
      }
    },
    {
      "type": "tdpseTerbit",
      "id": "5734",
      "attributes": {
        "nomor_pb_umku": "912020955103500010001",
        "nama": "WEBSITE PERUSAHAAN",
        "website": "mitsuilease.co.id",
        "sektor": "Sektor Keuangan",
        "nama_tampil_badan_hukum": "PT",
        "nama_perusahaan": "PT MITSUI LEASING CAPITAL INDONESIA",
        "tanggal_daftar": "2022-07-15",
        "tanggal_terbit": "2022-07-15",
        "nomor_tanda_daftar": "004269.01/DJAI.PSE/07/2022",
        "qr_code": "http://pse.kominfo.go.id/api/v1/jsonapi/tdpse-terbit/qr-code/5734",
        "status_id": "TERDAFTAR",
        "sistem_elektronik_id": "5597",
        "keterangan": "-",
        "lokalitas": "LOKAL"
      },
      "links": {
        "self": "http://pse.kominfo.go.id/api/v1/jsonapi/tdpse-terbit/5734"
      }
    },
    {
      "type": "tdpseTerbit",
      "id": "5733",
      "attributes": {
        "nomor_pb_umku": "912000951092600010003",
        "nama": "NEOPAY",
        "website": "nobuepay.nobubank.com",
        "sektor": "Sektor Keuangan",
        "nama_tampil_badan_hukum": "PT",
        "nama_perusahaan": "PT BANK NATIONALNOBU",
        "tanggal_daftar": "2022-07-15",
        "tanggal_terbit": "2022-07-15",
        "nomor_tanda_daftar": "004124.03/DJAI.PSE/07/2022",
        "qr_code": "http://pse.kominfo.go.id/api/v1/jsonapi/tdpse-terbit/qr-code/5733",
        "status_id": "TERDAFTAR",
        "sistem_elektronik_id": "5596",
        "keterangan": "-",
        "lokalitas": "LOKAL"
      },
      "links": {
        "self": "http://pse.kominfo.go.id/api/v1/jsonapi/tdpse-terbit/5733"
      }
    },
    {
      "type": "tdpseTerbit",
      "id": "5732",
      "attributes": {
        "nomor_pb_umku": "912020150003700010002",
        "nama": "AKUBERBAGI.COM",
        "website": "akuberbagi.com",
        "sektor": "Sektor Keuangan",
        "nama_tampil_badan_hukum": "PT",
        "nama_perusahaan": "PT ASURANSI JIWA GENERALI INDONESIA",
        "tanggal_daftar": "2022-07-15",
        "tanggal_terbit": "2022-07-15",
        "nomor_tanda_daftar": "000217.11/DJAI.PSE/07/2022",
        "qr_code": "http://pse.kominfo.go.id/api/v1/jsonapi/tdpse-terbit/qr-code/5732",
        "status_id": "TERDAFTAR",
        "sistem_elektronik_id": "5595",
        "keterangan": "-",
        "lokalitas": "LOKAL"
      },
      "links": {
        "self": "http://pse.kominfo.go.id/api/v1/jsonapi/tdpse-terbit/5732"
      }
    },
    {
      "type": "tdpseTerbit",
      "id": "5731",
      "attributes": {
        "nomor_pb_umku": "150722002169300000001",
        "nama": "TOPUPYUK",
        "website": "topupyuk.com",
        "sektor": "Sektor Perdagangan",
        "nama_tampil_badan_hukum": "",
        "nama_perusahaan": "DAMARI",
        "tanggal_daftar": "2022-07-15",
        "tanggal_terbit": "2022-07-15",
        "nomor_tanda_daftar": "004289.01/DJAI.PSE/07/2022",
        "qr_code": "http://pse.kominfo.go.id/api/v1/jsonapi/tdpse-terbit/qr-code/5731",
        "status_id": "TERDAFTAR",
        "sistem_elektronik_id": "5592",
        "keterangan": "-",
        "lokalitas": "LOKAL"
      },
      "links": {
        "self": "http://pse.kominfo.go.id/api/v1/jsonapi/tdpse-terbit/5731"
      }
    },
    {
      "type": "tdpseTerbit",
      "id": "5730",
      "attributes": {
        "nomor_pb_umku": "812001723173300010002",
        "nama": "APLIKASI DAYIN MOBILE",
        "website": "-",
        "sektor": "Sektor Keuangan",
        "nama_tampil_badan_hukum": "PT",
        "nama_perusahaan": "PT ASURANSI DAYIN MITRA",
        "tanggal_daftar": "2022-07-15",
        "tanggal_terbit": "2022-07-15",
        "nomor_tanda_daftar": "003801.02/DJAI.PSE/07/2022",
        "qr_code": "http://pse.kominfo.go.id/api/v1/jsonapi/tdpse-terbit/qr-code/5730",
        "status_id": "TERDAFTAR",
        "sistem_elektronik_id": "5591",
        "keterangan": "-",
        "lokalitas": "LOKAL"
      },
      "links": {
        "self": "http://pse.kominfo.go.id/api/v1/jsonapi/tdpse-terbit/5730"
      }
    },
    {
      "type": "tdpseTerbit",
      "id": "5729",
      "attributes": {
        "nomor_pb_umku": "024101015273300010002",
        "nama": "WEBSITE BANK JAMBI",
        "website": "bankjambi.co.id",
        "sektor": "Sektor Keuangan",
        "nama_tampil_badan_hukum": "PT",
        "nama_perusahaan": "PT BANK PEMBANGUNAN DAERAH JAMBI DISEBUT BANK JAMBI",
        "tanggal_daftar": "2022-07-15",
        "tanggal_terbit": "2022-07-15",
        "nomor_tanda_daftar": "004292.01/DJAI.PSE/07/2022",
        "qr_code": "http://pse.kominfo.go.id/api/v1/jsonapi/tdpse-terbit/qr-code/5729",
        "status_id": "TERDAFTAR",
        "sistem_elektronik_id": "5594",
        "keterangan": "-",
        "lokalitas": "LOKAL"
      },
      "links": {
        "self": "http://pse.kominfo.go.id/api/v1/jsonapi/tdpse-terbit/5729"
      }
    },
    {
      "type": "tdpseTerbit",
      "id": "5728",
      "attributes": {
        "nomor_pb_umku": "",
        "nama": "IDMARCO.COM",
        "website": "idmarco.com",
        "sektor": "Sektor Perdagangan",
        "nama_tampil_badan_hukum": "PT",
        "nama_perusahaan": "PT IDMARCO PERKASA INDONESIA",
        "tanggal_daftar": "2022-07-15",
        "tanggal_terbit": "2022-07-15",
        "nomor_tanda_daftar": "003364.01/DJAI.PSE/07/2022",
        "qr_code": "http://pse.kominfo.go.id/api/v1/jsonapi/tdpse-terbit/qr-code/5728",
        "status_id": "TERDAFTAR",
        "sistem_elektronik_id": "5593",
        "keterangan": "-",
        "lokalitas": "LOKAL"
      },
      "links": {
        "self": "http://pse.kominfo.go.id/api/v1/jsonapi/tdpse-terbit/5728"
      }
    }
  ]
}