{
  "meta": {
    "page": {
      "currentPage": 287,
      "from": 2861,
      "lastPage": 816,
      "perPage": 10,
      "to": 2870,
      "total": 8153
    }
  },
  "jsonapi": {
    "version": "1.0"
  },
  "links": {
    "first": "http://pse.kominfo.go.id/api/v1/jsonapi/tdpse-terbit?page%5Blimit%5D=10&page%5Bpage%5D=1",
    "last": "http://pse.kominfo.go.id/api/v1/jsonapi/tdpse-terbit?page%5Blimit%5D=10&page%5Bpage%5D=816",
    "next": "http://pse.kominfo.go.id/api/v1/jsonapi/tdpse-terbit?page%5Blimit%5D=10&page%5Bpage%5D=288",
    "prev": "http://pse.kominfo.go.id/api/v1/jsonapi/tdpse-terbit?page%5Blimit%5D=10&page%5Bpage%5D=286"
  },
  "data": [
    {
      "type": "tdpseTerbit",
      "id": "5657",
      "attributes": {
        "nomor_pb_umku": "912060174117900020001",
        "nama": "WEBSITE PORTAL MEGA CENTRAL FINANCE",
        "website": "mcf.co.id",
        "sektor": "Sektor Keuangan",
        "nama_tampil_badan_hukum": "PT",
        "nama_perusahaan": "PT MEGA CENTRAL FINANCE",
        "tanggal_daftar": "2022-07-14",
        "tanggal_terbit": "2022-07-14",
        "nomor_tanda_daftar": "004187.02/DJAI.PSE/07/2022",
        "qr_code": "http://pse.kominfo.go.id/api/v1/jsonapi/tdpse-terbit/qr-code/5657",
        "status_id": "TERDAFTAR",
        "sistem_elektronik_id": "5511",
        "keterangan": "-",
        "lokalitas": "LOKAL"
      },
      "links": {
        "self": "http://pse.kominfo.go.id/api/v1/jsonapi/tdpse-terbit/5657"
      }
    },
    {
      "type": "tdpseTerbit",
      "id": "5656",
      "attributes": {
        "nomor_pb_umku": "022010361157500010006",
        "nama": "JCONNECT SIPANDAI",
        "website": "-",
        "sektor": "Sektor Keuangan",
        "nama_tampil_badan_hukum": "PT",
        "nama_perusahaan": "PT BANK PEMBANGUNAN DAERAH JAWA TIMUR",
        "tanggal_daftar": "2022-07-14",
        "tanggal_terbit": "2022-07-14",
        "nomor_tanda_daftar": "004213.06/DJAI.PSE/07/2022",
        "qr_code": "http://pse.kominfo.go.id/api/v1/jsonapi/tdpse-terbit/qr-code/5656",
        "status_id": "TERDAFTAR",
        "sistem_elektronik_id": "5517",
        "keterangan": "-",
        "lokalitas": "LOKAL"
      },
      "links": {
        "self": "http://pse.kominfo.go.id/api/v1/jsonapi/tdpse-terbit/5656"
      }
    },
    {
      "type": "tdpseTerbit",
      "id": "5655",
      "attributes": {
        "nomor_pb_umku": "022010361157500010005",
        "nama": "JCONNECT E-KMG",
        "website": "-",
        "sektor": "Sektor Keuangan",
        "nama_tampil_badan_hukum": "PT",
        "nama_perusahaan": "PT BANK PEMBANGUNAN DAERAH JAWA TIMUR",
        "tanggal_daftar": "2022-07-14",
        "tanggal_terbit": "2022-07-14",
        "nomor_tanda_daftar": "004213.05/DJAI.PSE/07/2022",
        "qr_code": "http://pse.kominfo.go.id/api/v1/jsonapi/tdpse-terbit/qr-code/5655",
        "status_id": "TERDAFTAR",
        "sistem_elektronik_id": "5516",
        "keterangan": "-",
        "lokalitas": "LOKAL"
      },
      "links": {
        "self": "http://pse.kominfo.go.id/api/v1/jsonapi/tdpse-terbit/5655"
      }
    },
    {
      "type": "tdpseTerbit",
      "id": "5654",
      "attributes": {
        "nomor_pb_umku": "912011013207400010002",
        "nama": "ESPAY WALLET",
        "website": "espay.id",
        "sektor": "Sektor Keuangan, Sektor Teknologi Informasi dan Komunikasi",
        "nama_tampil_badan_hukum": "PT",
        "nama_perusahaan": "PT PEMBAYARAN LINTAS USAHA SUKSES",
        "tanggal_daftar": "2022-07-14",
        "tanggal_terbit": "2022-07-14",
        "nomor_tanda_daftar": "004049.02/DJAI.PSE/07/2022",
        "qr_code": "http://pse.kominfo.go.id/api/v1/jsonapi/tdpse-terbit/qr-code/5654",
        "status_id": "TERDAFTAR",
        "sistem_elektronik_id": "5514",
        "keterangan": "-",
        "lokalitas": "LOKAL"
      },
      "links": {
        "self": "http://pse.kominfo.go.id/api/v1/jsonapi/tdpse-terbit/5654"
      }
    },
    {
      "type": "tdpseTerbit",
      "id": "5653",
      "attributes": {
        "nomor_pb_umku": "100222006709600000002",
        "nama": "PT SMP PAYMENT DIGITAL EVOLUSI",
        "website": "solusimediapulsa.com",
        "sektor": "Sektor Perdagangan",
        "nama_tampil_badan_hukum": "",
        "nama_perusahaan": "SMP PAYMENT DIGITAL EVOLUSI",
        "tanggal_daftar": "2022-07-14",
        "tanggal_terbit": "2022-07-14",
        "nomor_tanda_daftar": "002505.02/DJAI.PSE/07/2022",
        "qr_code": "http://pse.kominfo.go.id/api/v1/jsonapi/tdpse-terbit/qr-code/5653",
        "status_id": "TERDAFTAR",
        "sistem_elektronik_id": "5515",
        "keterangan": "-",
        "lokalitas": "LOKAL"
      },
      "links": {
        "self": "http://pse.kominfo.go.id/api/v1/jsonapi/tdpse-terbit/5653"
      }
    },
    {
      "type": "tdpseTerbit",
      "id": "5652",
      "attributes": {
        "nomor_pb_umku": "022010361157500010004",
        "nama": "JCONNECT INTERNET BANKING CORPORATE",
        "website": "corp.bankjatim.co.id",
        "sektor": "Sektor Keuangan",
        "nama_tampil_badan_hukum": "PT",
        "nama_perusahaan": "PT BANK PEMBANGUNAN DAERAH JAWA TIMUR",
        "tanggal_daftar": "2022-07-14",
        "tanggal_terbit": "2022-07-14",
        "nomor_tanda_daftar": "004213.04/DJAI.PSE/07/2022",
        "qr_code": "http://pse.kominfo.go.id/api/v1/jsonapi/tdpse-terbit/qr-code/5652",
        "status_id": "TERDAFTAR",
        "sistem_elektronik_id": "5513",
        "keterangan": "-",
        "lokalitas": "LOKAL"
      },
      "links": {
        "self": "http://pse.kominfo.go.id/api/v1/jsonapi/tdpse-terbit/5652"
      }
    },
    {
      "type": "tdpseTerbit",
      "id": "5651",
      "attributes": {
        "nomor_pb_umku": "022010361157500010003",
        "nama": "JCONNECT INTERNET BANKING INDIVIDU",
        "website": "iperson.bankjatim.co.id",
        "sektor": "Sektor Keuangan",
        "nama_tampil_badan_hukum": "PT",
        "nama_perusahaan": "PT BANK PEMBANGUNAN DAERAH JAWA TIMUR",
        "tanggal_daftar": "2022-07-14",
        "tanggal_terbit": "2022-07-14",
        "nomor_tanda_daftar": "004213.03/DJAI.PSE/07/2022",
        "qr_code": "http://pse.kominfo.go.id/api/v1/jsonapi/tdpse-terbit/qr-code/5651",
        "status_id": "TERDAFTAR",
        "sistem_elektronik_id": "5512",
        "keterangan": "-",
        "lokalitas": "LOKAL"
      },
      "links": {
        "self": "http://pse.kominfo.go.id/api/v1/jsonapi/tdpse-terbit/5651"
      }
    },
    {
      "type": "tdpseTerbit",
      "id": "5650",
      "attributes": {
        "nomor_pb_umku": "912000456125300130001",
        "nama": "POSPAY AGEN",
        "website": "agen.posfin.id",
        "sektor": "Sektor Keuangan",
        "nama_tampil_badan_hukum": "PT",
        "nama_perusahaan": "PT POS FINANSIAL INDONESIA",
        "tanggal_daftar": "2022-07-14",
        "tanggal_terbit": "2022-07-14",
        "nomor_tanda_daftar": "004166.01/DJAI.PSE/07/2022",
        "qr_code": "http://pse.kominfo.go.id/api/v1/jsonapi/tdpse-terbit/qr-code/5650",
        "status_id": "TERDAFTAR",
        "sistem_elektronik_id": "5510",
        "keterangan": "-",
        "lokalitas": "LOKAL"
      },
      "links": {
        "self": "http://pse.kominfo.go.id/api/v1/jsonapi/tdpse-terbit/5650"
      }
    },
    {
      "type": "tdpseTerbit",
      "id": "5649",
      "attributes": {
        "nomor_pb_umku": "812021927148600010001",
        "nama": "KREDITPLUS.COM",
        "website": "kreditplus.com",
        "sektor": "Sektor Keuangan, Sektor Teknologi Informasi dan Komunikasi",
        "nama_tampil_badan_hukum": "PT",
        "nama_perusahaan": "PT KB FINANSIA MULTI FINANCE",
        "tanggal_daftar": "2022-07-14",
        "tanggal_terbit": "2022-07-14",
        "nomor_tanda_daftar": "000132.04/DJAI.PSE/07/2022",
        "qr_code": "http://pse.kominfo.go.id/api/v1/jsonapi/tdpse-terbit/qr-code/5649",
        "status_id": "TERDAFTAR",
        "sistem_elektronik_id": "5508",
        "keterangan": "-",
        "lokalitas": "LOKAL"
      },
      "links": {
        "self": "http://pse.kominfo.go.id/api/v1/jsonapi/tdpse-terbit/5649"
      }
    },
    {
      "type": "tdpseTerbit",
      "id": "5648",
      "attributes": {
        "nomor_pb_umku": "912030383082900040003",
        "nama": "SIJI ACCESS",
        "website": "sijiaccess.simasjiwa.co.id",
        "sektor": "Sektor Keuangan",
        "nama_tampil_badan_hukum": "PT",
        "nama_perusahaan": "PT ASURANSI SIMAS JIWA",
        "tanggal_daftar": "2022-07-14",
        "tanggal_terbit": "2022-07-14",
        "nomor_tanda_daftar": "000344.02/DJAI.PSE/07/2022",
        "qr_code": "http://pse.kominfo.go.id/api/v1/jsonapi/tdpse-terbit/qr-code/5648",
        "status_id": "TERDAFTAR",
        "sistem_elektronik_id": "5509",
        "keterangan": "-",
        "lokalitas": "LOKAL"
      },
      "links": {
        "self": "http://pse.kominfo.go.id/api/v1/jsonapi/tdpse-terbit/5648"
      }
    }
  ]
}