{
  "meta": {
    "page": {
      "currentPage": 290,
      "from": 2891,
      "lastPage": 896,
      "perPage": 10,
      "to": 2900,
      "total": 8957
    }
  },
  "data": [
    {
      "type": "tdpseTerbit",
      "id": 5597,
      "attributes": {
        "nomor_pb_umku": "140722004875100000001",
        "nama": "PULSA HOKI",
        "website": "pulsahoki.com",
        "sektor": "Sektor Perdagangan",
        "nama_perusahaan": "WILDAN FATUROHMAN",
        "tanggal_daftar": "2022-07-14",
        "nomor_tanda_daftar": "004193.01/DJAI.PSE/07/2022",
        "qr_code": "https://pse.kominfo.go.id/storage/images/qr_code/3fbb00d7a9f524ff7dd0f7061cf34d23.png",
        "status_id": "TERDAFTAR",
        "sistem_elektronik_id": 5464
      }
    },
    {
      "type": "tdpseTerbit",
      "id": 5635,
      "attributes": {
        "nomor_pb_umku": "912050085267600010001",
        "nama": "WEBSITE PORTAL MEGA AUTO FINANCE",
        "website": "maf.co.id",
        "sektor": "Sektor Keuangan",
        "nama_perusahaan": "MEGA AUTO FINANCE",
        "tanggal_daftar": "2022-07-14",
        "nomor_tanda_daftar": "004192.02/DJAI.PSE/07/2022",
        "qr_code": "https://pse.kominfo.go.id/storage/images/qr_code/1189d26e92d24b379f27fd4ce86e1d4c.png",
        "status_id": "TERDAFTAR",
        "sistem_elektronik_id": 5497
      }
    },
    {
      "type": "tdpseTerbit",
      "id": 5596,
      "attributes": {
        "nomor_pb_umku": "140422001374500010002",
        "nama": "APLIKASI SAKAGO",
        "website": "app.sakago.id",
        "sektor": "Sektor Transportasi, Sektor Teknologi Informasi dan Komunikasi",
        "nama_perusahaan": "SAKA GLOBAL PERKASA",
        "tanggal_daftar": "2022-07-14",
        "nomor_tanda_daftar": "004190.02/DJAI.PSE/07/2022",
        "qr_code": "https://pse.kominfo.go.id/storage/images/qr_code/8f0ceadc7e4a025934f0caa78bc5a4eb.png",
        "status_id": "TERDAFTAR",
        "sistem_elektronik_id": 5466
      }
    },
    {
      "type": "tdpseTerbit",
      "id": 5592,
      "attributes": {
        "nomor_pb_umku": "140422001374500010001",
        "nama": "SAKAGO",
        "website": "sakago.id",
        "sektor": "Sektor Transportasi",
        "nama_perusahaan": "SAKA GLOBAL PERKASA",
        "tanggal_daftar": "2022-07-14",
        "nomor_tanda_daftar": "004190.01/DJAI.PSE/07/2022",
        "qr_code": "https://pse.kominfo.go.id/storage/images/qr_code/2540523be83d635dd2293c3557791e57.png",
        "status_id": "TERDAFTAR",
        "sistem_elektronik_id": 5460
      }
    },
    {
      "type": "tdpseTerbit",
      "id": 6293,
      "attributes": {
        "nomor_pb_umku": "912040030025300000001",
        "nama": "WAGGON GAMES",
        "website": "-",
        "sektor": "Sektor Teknologi Informasi dan Komunikasi",
        "nama_perusahaan": "INDOMOBI KREASI UTAMA",
        "tanggal_daftar": "2022-07-18",
        "nomor_tanda_daftar": "004189.02/DJAI.PSE/07/2022",
        "qr_code": "https://pse.kominfo.go.id/storage/images/qr_code/ca2fbae6f41a54dba6f16882260ac3a6.png",
        "status_id": "TERDAFTAR",
        "sistem_elektronik_id": 6155
      }
    },
    {
      "type": "tdpseTerbit",
      "id": 6271,
      "attributes": {
        "nomor_pb_umku": "912040030025300000001",
        "nama": "I-FUN GAMES",
        "website": "-",
        "sektor": "Sektor Teknologi Informasi dan Komunikasi",
        "nama_perusahaan": "INDOMOBI KREASI UTAMA",
        "tanggal_daftar": "2022-07-18",
        "nomor_tanda_daftar": "004189.01/DJAI.PSE/07/2022",
        "qr_code": "https://pse.kominfo.go.id/storage/images/qr_code/52950aa0f727196339e0ee78d30b9d27.png",
        "status_id": "TERDAFTAR",
        "sistem_elektronik_id": 6132
      }
    },
    {
      "type": "tdpseTerbit",
      "id": 6047,
      "attributes": {
        "nomor_pb_umku": "912000657195600010002",
        "nama": "WISTLE BLOWING SYSTEM (WBS)",
        "website": "wbs.smf-indonesia.co.id",
        "sektor": "Sektor Keuangan",
        "nama_perusahaan": "PERUSAHAAN PERSEROAN (PERSERO) PT. SARANA MULTIGRIYA FINANSIAL",
        "tanggal_daftar": "2022-07-18",
        "nomor_tanda_daftar": "004188.05/DJAI.PSE/07/2022",
        "qr_code": "https://pse.kominfo.go.id/storage/images/qr_code/6c21165a0f4b6bc731a1bfd1bd2a37c2.png",
        "status_id": "TERDAFTAR",
        "sistem_elektronik_id": 5916
      }
    },
    {
      "type": "tdpseTerbit",
      "id": 6046,
      "attributes": {
        "nomor_pb_umku": "912000657195600010002",
        "nama": "VENDOR MANAGEMENT SISTEM",
        "website": "vendor.smf-indonesia.co.id",
        "sektor": "Sektor Keuangan",
        "nama_perusahaan": "PERUSAHAAN PERSEROAN (PERSERO) PT. SARANA MULTIGRIYA FINANSIAL",
        "tanggal_daftar": "2022-07-18",
        "nomor_tanda_daftar": "004188.04/DJAI.PSE/07/2022",
        "qr_code": "https://pse.kominfo.go.id/storage/images/qr_code/f727d07bc867c86127458c3205cb3e7d.png",
        "status_id": "TERDAFTAR",
        "sistem_elektronik_id": 5914
      }
    },
    {
      "type": "tdpseTerbit",
      "id": 6045,
      "attributes": {
        "nomor_pb_umku": "912000657195600010002",
        "nama": "EPROCUREMENT",
        "website": "eproc.smf-indonesia.co.id",
        "sektor": "Sektor Keuangan",
        "nama_perusahaan": "PERUSAHAAN PERSEROAN (PERSERO) PT. SARANA MULTIGRIYA FINANSIAL",
        "tanggal_daftar": "2022-07-18",
        "nomor_tanda_daftar": "004188.03/DJAI.PSE/07/2022",
        "qr_code": "https://pse.kominfo.go.id/storage/images/qr_code/08dc83963e734f1e70747b07c0ace8d2.png",
        "status_id": "TERDAFTAR",
        "sistem_elektronik_id": 5913
      }
    },
    {
      "type": "tdpseTerbit",
      "id": 6044,
      "attributes": {
        "nomor_pb_umku": "912000657195600010002",
        "nama": "ELEARNING",
        "website": "elearning.smf-indonesia.co.id",
        "sektor": "Sektor Keuangan",
        "nama_perusahaan": "PERUSAHAAN PERSEROAN (PERSERO) PT. SARANA MULTIGRIYA FINANSIAL",
        "tanggal_daftar": "2022-07-18",
        "nomor_tanda_daftar": "004188.02/DJAI.PSE/07/2022",
        "qr_code": "https://pse.kominfo.go.id/storage/images/qr_code/4646e38b5579f55f5eb986c7dbb8b09f.png",
        "status_id": "TERDAFTAR",
        "sistem_elektronik_id": 5912
      }
    }
  ]
}