{
  "meta": {
    "page": {
      "currentPage": 30,
      "from": 291,
      "lastPage": 1085,
      "perPage": 10,
      "to": 300,
      "total": 10842
    }
  },
  "data": [
    {
      "type": "tdpseTerbit",
      "id": 11383,
      "attributes": {
        "nomor_pb_umku": "270922007811900000001",
        "nama": "NUFAT.ID",
        "website": "nufat.id",
        "sektor": "Sektor Teknologi Informasi dan Komunikasi",
        "nama_perusahaan": "NUNU FATULAH",
        "tanggal_daftar": "2022-09-27",
        "nomor_tanda_daftar": "007911.01/DJAI.PSE/09/2022",
        "qr_code": "https://pse.kominfo.go.id/storage/images/qr_code/ae6b49ffc75d9115044714e512bebfe8.png",
        "status_id": "TERDAFTAR",
        "sistem_elektronik_id": 11199
      }
    },
    {
      "type": "tdpseTerbit",
      "id": 11736,
      "attributes": {
        "nomor_pb_umku": "912011502181800000001",
        "nama": "BHOBU RELOAD",
        "website": "bhobureload.com",
        "sektor": "Sektor Perdagangan, Sektor Teknologi Informasi dan Komunikasi",
        "nama_perusahaan": "BHOBU RELOAD",
        "tanggal_daftar": "2022-10-10",
        "nomor_tanda_daftar": "007910.01/DJAI.PSE/10/2022",
        "qr_code": "https://pse.kominfo.go.id/storage/images/qr_code/64027a8abad54178f5a46ffb21c99017.png",
        "status_id": "TERDAFTAR",
        "sistem_elektronik_id": 11536
      }
    },
    {
      "type": "tdpseTerbit",
      "id": 11397,
      "attributes": {
        "nomor_pb_umku": "020322003305400010002",
        "nama": "ANSIM HOSPITAL SYSTEM",
        "website": "simrs.kr",
        "sektor": "Sektor Kesehatan",
        "nama_perusahaan": "ANNYEONG SOFTWARE INTERNATIONAL",
        "tanggal_daftar": "2022-09-28",
        "nomor_tanda_daftar": "007907.02/DJAI.PSE/09/2022",
        "qr_code": "https://pse.kominfo.go.id/storage/images/qr_code/caf680dae2e973db85107a6dbd2c8140.png",
        "status_id": "TERDAFTAR",
        "sistem_elektronik_id": 11210
      }
    },
    {
      "type": "tdpseTerbit",
      "id": 11382,
      "attributes": {
        "nomor_pb_umku": "020322003305400010001",
        "nama": "KLINIKSOFT",
        "website": "kliniksoft.co.id",
        "sektor": "Sektor Kesehatan",
        "nama_perusahaan": "ANNYEONG SOFTWARE INTERNATIONAL",
        "tanggal_daftar": "2022-09-27",
        "nomor_tanda_daftar": "007907.01/DJAI.PSE/09/2022",
        "qr_code": "https://pse.kominfo.go.id/storage/images/qr_code/301afe4cabf7c6c12273c42e42a9caaa.png",
        "status_id": "TERDAFTAR",
        "sistem_elektronik_id": 11198
      }
    },
    {
      "type": "tdpseTerbit",
      "id": 11381,
      "attributes": {
        "nomor_pb_umku": "310522003661600020001",
        "nama": "TRIBUNFLORES.COM",
        "website": "tribunflores.com",
        "sektor": "Sektor Teknologi Informasi dan Komunikasi",
        "nama_perusahaan": "TRIBUN DIGITAL FLORES",
        "tanggal_daftar": "2022-09-27",
        "nomor_tanda_daftar": "007905.01/DJAI.PSE/09/2022",
        "qr_code": "https://pse.kominfo.go.id/storage/images/qr_code/cd4ca2c8d4516a974c806189ed439751.png",
        "status_id": "TERDAFTAR",
        "sistem_elektronik_id": 11196
      }
    },
    {
      "type": "tdpseTerbit",
      "id": 11495,
      "attributes": {
        "nomor_pb_umku": "220622001221400000001",
        "nama": "SUKSESKU.COM",
        "website": "suksesku.com",
        "sektor": "Sektor Perdagangan, Sektor Kesehatan, Sektor Teknologi Informasi dan Komunikasi",
        "nama_perusahaan": "MUSTIKA SHAFWAH SUKSES",
        "tanggal_daftar": "2022-10-04",
        "nomor_tanda_daftar": "007904.01/DJAI.PSE/10/2022",
        "qr_code": "https://pse.kominfo.go.id/storage/images/qr_code/44c0ffc96fdaa4407b5d1faac852c696.png",
        "status_id": "TERDAFTAR",
        "sistem_elektronik_id": 11309
      }
    },
    {
      "type": "tdpseTerbit",
      "id": 12098,
      "attributes": {
        "nomor_pb_umku": "022010622108800070003",
        "nama": "COINJOSS",
        "website": "coinjoss.com",
        "sektor": "Sektor Perdagangan, Sektor Keuangan, Sektor Teknologi Informasi dan Komunikasi",
        "nama_perusahaan": "COINJOSS DATA UTAMA",
        "tanggal_daftar": "2022-11-02",
        "nomor_tanda_daftar": "007903.03/DJAI.PSE/11/2022",
        "qr_code": "https://pse.kominfo.go.id/storage/images/qr_code/fe768cf40197eb3dbe17b1d4541697b6.png",
        "status_id": "TERDAFTAR",
        "sistem_elektronik_id": 11892
      }
    },
    {
      "type": "tdpseTerbit",
      "id": 11496,
      "attributes": {
        "nomor_pb_umku": "022010622108800070002",
        "nama": "COINJOSS.COM",
        "website": "coinjoss.com",
        "sektor": "Sektor Perdagangan, Sektor Keuangan, Sektor Teknologi Informasi dan Komunikasi",
        "nama_perusahaan": "COINJOSS DATA UTAMA",
        "tanggal_daftar": "2022-10-04",
        "nomor_tanda_daftar": "007903.02/DJAI.PSE/10/2022",
        "qr_code": "https://pse.kominfo.go.id/storage/images/qr_code/a5e69aa63fbabbc1bcaf2c54def507d6.png",
        "status_id": "TERDAFTAR",
        "sistem_elektronik_id": 11311
      }
    },
    {
      "type": "tdpseTerbit",
      "id": 11494,
      "attributes": {
        "nomor_pb_umku": "022010622108800070001",
        "nama": "HTTPS://COINJOSS.COM/",
        "website": "coinjoss.com",
        "sektor": "Sektor Perdagangan, Sektor Keuangan, Sektor Teknologi Informasi dan Komunikasi",
        "nama_perusahaan": "COINJOSS DATA UTAMA",
        "tanggal_daftar": "2022-10-04",
        "nomor_tanda_daftar": "007903.01/DJAI.PSE/09/2022",
        "qr_code": "https://pse.kominfo.go.id/storage/images/qr_code/05219fa9db0fbf8f25266801f6996a8a.png",
        "status_id": "TERDAFTAR",
        "sistem_elektronik_id": 11264
      }
    },
    {
      "type": "tdpseTerbit",
      "id": 11376,
      "attributes": {
        "nomor_pb_umku": "150222008519300010002",
        "nama": "SHOPEE, TOKOPEDIA, INSTAGRAM, BUKALAPAK, TIKTOK",
        "website": "-",
        "sektor": "Sektor Perdagangan",
        "nama_perusahaan": "VIUNIC BEAUTY STORE",
        "tanggal_daftar": "2022-09-27",
        "nomor_tanda_daftar": "007900.02/DJAI.PSE/09/2022",
        "qr_code": "https://pse.kominfo.go.id/storage/images/qr_code/8f71496c1c60682ac25341d43a97b0ee.png",
        "status_id": "TERDAFTAR",
        "sistem_elektronik_id": 11190
      }
    }
  ]
}