{
  "meta": {
    "page": {
      "currentPage": 297,
      "from": 2961,
      "lastPage": 1028,
      "perPage": 10,
      "to": 2970,
      "total": 10273
    }
  },
  "data": [
    {
      "type": "tdpseTerbit",
      "id": 8902,
      "attributes": {
        "nomor_pb_umku": "912030028115900040011",
        "nama": "MARKETINGINDAHTRUCKING",
        "website": "marketingindahtrucking.com",
        "sektor": "Sektor Teknologi Informasi dan Komunikasi",
        "nama_perusahaan": "INDAH KARGO MANDIRI",
        "tanggal_daftar": "2022-07-23",
        "nomor_tanda_daftar": "004919.12/DJAI.PSE/07/2022",
        "qr_code": "https://pse.kominfo.go.id/storage/images/qr_code/66b7aa1c65b05e67ac84dfcf1b331bd5.png",
        "status_id": "TERDAFTAR",
        "sistem_elektronik_id": 8807
      }
    },
    {
      "type": "tdpseTerbit",
      "id": 8900,
      "attributes": {
        "nomor_pb_umku": "912030028115900040010",
        "nama": "INDAHTRUCKING",
        "website": "indahtrucking.co.id",
        "sektor": "Sektor Teknologi Informasi dan Komunikasi",
        "nama_perusahaan": "INDAH KARGO MANDIRI",
        "tanggal_daftar": "2022-07-23",
        "nomor_tanda_daftar": "004919.11/DJAI.PSE/07/2022",
        "qr_code": "https://pse.kominfo.go.id/storage/images/qr_code/da3417c32f45ea11b22bed60e0c5a24f.png",
        "status_id": "TERDAFTAR",
        "sistem_elektronik_id": 8804
      }
    },
    {
      "type": "tdpseTerbit",
      "id": 8887,
      "attributes": {
        "nomor_pb_umku": "912030028115900040009",
        "nama": "MARKETINGINDAHEXPRES",
        "website": "marketingindahexpres.com",
        "sektor": "Sektor Teknologi Informasi dan Komunikasi",
        "nama_perusahaan": "INDAH KARGO MANDIRI",
        "tanggal_daftar": "2022-07-22",
        "nomor_tanda_daftar": "004919.10/DJAI.PSE/07/2022",
        "qr_code": "https://pse.kominfo.go.id/storage/images/qr_code/e0062530600080907377203e3299e12b.png",
        "status_id": "TERDAFTAR",
        "sistem_elektronik_id": 8793
      }
    },
    {
      "type": "tdpseTerbit",
      "id": 8884,
      "attributes": {
        "nomor_pb_umku": "912030028115900040008",
        "nama": "PADATI165",
        "website": "padati165.com",
        "sektor": "Sektor Teknologi Informasi dan Komunikasi",
        "nama_perusahaan": "INDAH KARGO MANDIRI",
        "tanggal_daftar": "2022-07-22",
        "nomor_tanda_daftar": "004919.09/DJAI.PSE/07/2022",
        "qr_code": "https://pse.kominfo.go.id/storage/images/qr_code/4f6fcff732456141c84bcdfe163d0ba7.png",
        "status_id": "TERDAFTAR",
        "sistem_elektronik_id": 8791
      }
    },
    {
      "type": "tdpseTerbit",
      "id": 8873,
      "attributes": {
        "nomor_pb_umku": "912030028115900040007",
        "nama": "PADATIONLINE",
        "website": "padationline.com",
        "sektor": "Sektor Teknologi Informasi dan Komunikasi",
        "nama_perusahaan": "INDAH KARGO MANDIRI",
        "tanggal_daftar": "2022-07-22",
        "nomor_tanda_daftar": "004919.08/DJAI.PSE/07/2022",
        "qr_code": "https://pse.kominfo.go.id/storage/images/qr_code/789934fff6e46d29110ceefebd2abfdb.png",
        "status_id": "TERDAFTAR",
        "sistem_elektronik_id": 8777
      }
    },
    {
      "type": "tdpseTerbit",
      "id": 8872,
      "attributes": {
        "nomor_pb_umku": "912030028115900040006",
        "nama": "INDEXS",
        "website": "indexs.co.id",
        "sektor": "Sektor Teknologi Informasi dan Komunikasi",
        "nama_perusahaan": "INDAH KARGO MANDIRI",
        "tanggal_daftar": "2022-07-22",
        "nomor_tanda_daftar": "004919.07/DJAI.PSE/07/2022",
        "qr_code": "https://pse.kominfo.go.id/storage/images/qr_code/b2b461e686e2867ee5b724a6ba6511a0.png",
        "status_id": "TERDAFTAR",
        "sistem_elektronik_id": 8776
      }
    },
    {
      "type": "tdpseTerbit",
      "id": 8869,
      "attributes": {
        "nomor_pb_umku": "912030028115900040005",
        "nama": "INDAHTRUCKINGONLINE",
        "website": "indahtruckingonline.com",
        "sektor": "Sektor Teknologi Informasi dan Komunikasi",
        "nama_perusahaan": "INDAH KARGO MANDIRI",
        "tanggal_daftar": "2022-07-22",
        "nomor_tanda_daftar": "004919.06/DJAI.PSE/07/2022",
        "qr_code": "https://pse.kominfo.go.id/storage/images/qr_code/903821b17982ebcc907b7a128a50b085.png",
        "status_id": "TERDAFTAR",
        "sistem_elektronik_id": 8775
      }
    },
    {
      "type": "tdpseTerbit",
      "id": 8866,
      "attributes": {
        "nomor_pb_umku": "912030028115900040004",
        "nama": "IBUK",
        "website": "ibuk.co.id",
        "sektor": "Sektor Teknologi Informasi dan Komunikasi",
        "nama_perusahaan": "INDAH KARGO MANDIRI",
        "tanggal_daftar": "2022-07-22",
        "nomor_tanda_daftar": "004919.05/DJAI.PSE/07/2022",
        "qr_code": "https://pse.kominfo.go.id/storage/images/qr_code/44ca610f7860c38e37831075bb2e0efb.png",
        "status_id": "TERDAFTAR",
        "sistem_elektronik_id": 8772
      }
    },
    {
      "type": "tdpseTerbit",
      "id": 8863,
      "attributes": {
        "nomor_pb_umku": "912030028115900040003",
        "nama": "INDAHEXPRES",
        "website": "indahexpres.com",
        "sektor": "Sektor Teknologi Informasi dan Komunikasi",
        "nama_perusahaan": "INDAH KARGO MANDIRI",
        "tanggal_daftar": "2022-07-22",
        "nomor_tanda_daftar": "004919.04/DJAI.PSE/07/2022",
        "qr_code": "https://pse.kominfo.go.id/storage/images/qr_code/ac0ed369e43eef3fbf3a9efca258e3b2.png",
        "status_id": "TERDAFTAR",
        "sistem_elektronik_id": 8769
      }
    },
    {
      "type": "tdpseTerbit",
      "id": 8796,
      "attributes": {
        "nomor_pb_umku": "912030028115900040002",
        "nama": "ABUYA.CO.ID",
        "website": "abuya.co.id",
        "sektor": "Sektor Teknologi Informasi dan Komunikasi",
        "nama_perusahaan": "INDAH KARGO MANDIRI",
        "tanggal_daftar": "2022-07-22",
        "nomor_tanda_daftar": "004919.03/DJAI.PSE/07/2022",
        "qr_code": "https://pse.kominfo.go.id/storage/images/qr_code/43cb6b616ab6f6043810833408933149.png",
        "status_id": "TERDAFTAR",
        "sistem_elektronik_id": 8713
      }
    }
  ]
}