{
  "meta": {
    "page": {
      "currentPage": 299,
      "from": 2981,
      "lastPage": 896,
      "perPage": 10,
      "to": 2990,
      "total": 8957
    }
  },
  "data": [
    {
      "type": "tdpseTerbit",
      "id": 6040,
      "attributes": {
        "nomor_pb_umku": "191121003265800010002",
        "nama": "PT. BANK PERKREDITAN RAKYAT MUKOMUKO MAKMUR",
        "website": "bprmukomukomakmurgmail.wordpress.com",
        "sektor": "Sektor Keuangan",
        "nama_perusahaan": "BANK PERKREDITAN RAKYAT MUKOMUKO MAKMUR",
        "tanggal_daftar": "2022-07-18",
        "nomor_tanda_daftar": "004144.02/DJAI.PSE/07/2022",
        "qr_code": "https://pse.kominfo.go.id/storage/images/qr_code/1caf491cad134d2580026836dee640fb.png",
        "status_id": "TERDAFTAR",
        "sistem_elektronik_id": 5909
      }
    },
    {
      "type": "tdpseTerbit",
      "id": 5554,
      "attributes": {
        "nomor_pb_umku": "191121003265800010001",
        "nama": "PT BPR MUKOMUKO MAKMUR",
        "website": "-",
        "sektor": "Sektor Keuangan",
        "nama_perusahaan": "BANK PERKREDITAN RAKYAT MUKOMUKO MAKMUR",
        "tanggal_daftar": "2022-07-14",
        "nomor_tanda_daftar": "004144.01/DJAI.PSE/07/2022",
        "qr_code": "https://pse.kominfo.go.id/storage/images/qr_code/922fdbd953ebc28bc9887000e047a658.png",
        "status_id": "TERDAFTAR",
        "sistem_elektronik_id": 5420
      }
    },
    {
      "type": "tdpseTerbit",
      "id": 9537,
      "attributes": {
        "nomor_pb_umku": "912001108163900010006",
        "nama": "ROUGHNECK 1991",
        "website": "roughneck1991.co.id",
        "sektor": "Sektor Perdagangan",
        "nama_perusahaan": "HYPEFAST KARYA NUSANTARA",
        "tanggal_daftar": "2022-08-01",
        "nomor_tanda_daftar": "004142.05/DJAI.PSE/08/2022",
        "qr_code": "https://pse.kominfo.go.id/storage/images/qr_code/fce1a962261fd5a0a7d5868e4ec274ba.png",
        "status_id": "TERDAFTAR",
        "sistem_elektronik_id": 9446
      }
    },
    {
      "type": "tdpseTerbit",
      "id": 9527,
      "attributes": {
        "nomor_pb_umku": "912001108163900010006",
        "nama": "RIUGHNECK 1991",
        "website": "roughneck1991.co.id",
        "sektor": "Sektor Perdagangan",
        "nama_perusahaan": "HYPEFAST KARYA NUSANTARA",
        "tanggal_daftar": "2022-08-01",
        "nomor_tanda_daftar": "004142.04/DJAI.PSE/08/2022",
        "qr_code": "https://pse.kominfo.go.id/storage/images/qr_code/9416d8252d22b812e459a1139854fda6.png",
        "status_id": "TERDAFTAR",
        "sistem_elektronik_id": 9433
      }
    },
    {
      "type": "tdpseTerbit",
      "id": 9509,
      "attributes": {
        "nomor_pb_umku": "912001108163900010005",
        "nama": "CALLA THE LABEL",
        "website": "callathelabel.com",
        "sektor": "Sektor Perdagangan",
        "nama_perusahaan": "HYPEFAST KARYA NUSANTARA",
        "tanggal_daftar": "2022-08-01",
        "nomor_tanda_daftar": "004142.03/DJAI.PSE/08/2022",
        "qr_code": "https://pse.kominfo.go.id/storage/images/qr_code/66b53951c642aa943fa6d7aeb7a9687f.png",
        "status_id": "TERDAFTAR",
        "sistem_elektronik_id": 9417
      }
    },
    {
      "type": "tdpseTerbit",
      "id": 9485,
      "attributes": {
        "nomor_pb_umku": "912001108163900010004",
        "nama": "HYPEFAST.ID",
        "website": "hypefast.id",
        "sektor": "Sektor Perdagangan",
        "nama_perusahaan": "HYPEFAST KARYA NUSANTARA",
        "tanggal_daftar": "2022-08-01",
        "nomor_tanda_daftar": "004142.02/DJAI.PSE/08/2022",
        "qr_code": "https://pse.kominfo.go.id/storage/images/qr_code/75385fbf341988df5fa684e32297f3b0.png",
        "status_id": "TERDAFTAR",
        "sistem_elektronik_id": 9392
      }
    },
    {
      "type": "tdpseTerbit",
      "id": 6633,
      "attributes": {
        "nomor_pb_umku": "912001108163900010003",
        "nama": "NONA",
        "website": "nona.id",
        "sektor": "Sektor Perdagangan",
        "nama_perusahaan": "HYPEFAST KARYA NUSANTARA",
        "tanggal_daftar": "2022-07-19",
        "nomor_tanda_daftar": "004142.01/DJAI.PSE/07/2022",
        "qr_code": "https://pse.kominfo.go.id/storage/images/qr_code/b3c480d6da43cdacfed34bc3de88e87b.png",
        "status_id": "TERDAFTAR",
        "sistem_elektronik_id": 6492
      }
    },
    {
      "type": "tdpseTerbit",
      "id": 5571,
      "attributes": {
        "nomor_pb_umku": "281221000781900050002",
        "nama": "METASIGN SOFTWARE",
        "website": "signalpremium.co",
        "sektor": "Sektor Perdagangan",
        "nama_perusahaan": "AKADEMI META INTERNASIONAL",
        "tanggal_daftar": "2022-07-14",
        "nomor_tanda_daftar": "004141.02/DJAI.PSE/07/2022",
        "qr_code": "https://pse.kominfo.go.id/storage/images/qr_code/4d37bed94657be955df581f3022a14f2.png",
        "status_id": "TERDAFTAR",
        "sistem_elektronik_id": 5443
      }
    },
    {
      "type": "tdpseTerbit",
      "id": 5538,
      "attributes": {
        "nomor_pb_umku": "281221000781900050001",
        "nama": "META SOFTWARE",
        "website": "signalpremium.com",
        "sektor": "Sektor Perdagangan",
        "nama_perusahaan": "AKADEMI META INTERNASIONAL",
        "tanggal_daftar": "2022-07-14",
        "nomor_tanda_daftar": "004141.01/DJAI.PSE/07/2022",
        "qr_code": "https://pse.kominfo.go.id/storage/images/qr_code/a1046c69b0aabfab6905d19ffe0e90b5.png",
        "status_id": "TERDAFTAR",
        "sistem_elektronik_id": 5403
      }
    },
    {
      "type": "tdpseTerbit",
      "id": 5527,
      "attributes": {
        "nomor_pb_umku": "140722000194700000001",
        "nama": "MITRA SERVER TRANSAKSI",
        "website": "Pulsaku.info",
        "sektor": "Sektor Perdagangan",
        "nama_perusahaan": "HENDRA",
        "tanggal_daftar": "2022-07-13",
        "nomor_tanda_daftar": "004139.01/DJAI.PSE/07/2022",
        "qr_code": "https://pse.kominfo.go.id/storage/images/qr_code/39156dfd5169d9deaff4301b24074e22.png",
        "status_id": "TERDAFTAR",
        "sistem_elektronik_id": 5392
      }
    }
  ]
}