{
  "meta": {
    "page": {
      "currentPage": 304,
      "from": 3031,
      "lastPage": 890,
      "perPage": 10,
      "to": 3040,
      "total": 8897
    }
  },
  "data": [
    {
      "type": "tdpseTerbit",
      "id": 6416,
      "attributes": {
        "nomor_pb_umku": "912020259293500020004",
        "nama": "WEBSITE KANTORPENGACARA.CO",
        "website": "kantorpengacara.co",
        "sektor": "Sektor Perdagangan",
        "nama_perusahaan": "PRO LEGAL INDONESIA",
        "tanggal_daftar": "2022-07-18",
        "nomor_tanda_daftar": "004079.04/DJAI.PSE/07/2022",
        "qr_code": "https://pse.kominfo.go.id/storage/images/qr_code/2672b02b38fef19451d76696c17f13f1.png",
        "status_id": "TERDAFTAR",
        "sistem_elektronik_id": 6282
      }
    },
    {
      "type": "tdpseTerbit",
      "id": 6240,
      "attributes": {
        "nomor_pb_umku": "912020259293500020003",
        "nama": "WEBSITE INFOLEGALITAS",
        "website": "infolegalitas.id",
        "sektor": "Sektor Perdagangan",
        "nama_perusahaan": "PRO LEGAL INDONESIA",
        "tanggal_daftar": "2022-07-18",
        "nomor_tanda_daftar": "004079.03/DJAI.PSE/07/2022",
        "qr_code": "https://pse.kominfo.go.id/storage/images/qr_code/4937cc7a028fac7efaa637628156df77.png",
        "status_id": "TERDAFTAR",
        "sistem_elektronik_id": 6103
      }
    },
    {
      "type": "tdpseTerbit",
      "id": 6226,
      "attributes": {
        "nomor_pb_umku": "912020259293500020002",
        "nama": "WEBSITE KLIK LEGAL",
        "website": "kliklegal.com",
        "sektor": "Sektor Teknologi Informasi dan Komunikasi",
        "nama_perusahaan": "PRO LEGAL INDONESIA",
        "tanggal_daftar": "2022-07-18",
        "nomor_tanda_daftar": "004079.02/DJAI.PSE/07/2022",
        "qr_code": "https://pse.kominfo.go.id/storage/images/qr_code/dd0ac4cef09181f66c9a1e015395d058.png",
        "status_id": "TERDAFTAR",
        "sistem_elektronik_id": 6090
      }
    },
    {
      "type": "tdpseTerbit",
      "id": 6109,
      "attributes": {
        "nomor_pb_umku": "912020259293500020001",
        "nama": "WEBSITE PROLEGAL INDONESIA",
        "website": "prolegal.id",
        "sektor": "Sektor Perdagangan",
        "nama_perusahaan": "PRO LEGAL INDONESIA",
        "tanggal_daftar": "2022-07-18",
        "nomor_tanda_daftar": "004079.01/DJAI.PSE/07/2022",
        "qr_code": "https://pse.kominfo.go.id/storage/images/qr_code/73aa236ff618dfd7fb9fce4e4131fc94.png",
        "status_id": "TERDAFTAR",
        "sistem_elektronik_id": 5979
      }
    },
    {
      "type": "tdpseTerbit",
      "id": 5447,
      "attributes": {
        "nomor_pb_umku": "912000110165300020001",
        "nama": "OFFICIAL WEBSITE",
        "website": "lolcventura.co.id",
        "sektor": "Sektor Keuangan",
        "nama_perusahaan": "LOLC VENTURA INDONESIA",
        "tanggal_daftar": "2022-07-13",
        "nomor_tanda_daftar": "004078.01/DJAI.PSE/07/2022",
        "qr_code": "https://pse.kominfo.go.id/storage/images/qr_code/ffaebdb48c3fe33df993bf862ecda85a.png",
        "status_id": "TERDAFTAR",
        "sistem_elektronik_id": 5319
      }
    },
    {
      "type": "tdpseTerbit",
      "id": 5451,
      "attributes": {
        "nomor_pb_umku": "812010383238900000002",
        "nama": "FINGERSPOT.COM",
        "website": "fingerspot.com",
        "sektor": "Sektor Teknologi Informasi dan Komunikasi",
        "nama_perusahaan": "BIOMETRIK CITRA SOLUSI",
        "tanggal_daftar": "2022-07-13",
        "nomor_tanda_daftar": "004076.01/DJAI.PSE/07/2022",
        "qr_code": "https://pse.kominfo.go.id/storage/images/qr_code/9aaa1fa82ec9ef923fab7c02a7c32c7f.png",
        "status_id": "TERDAFTAR",
        "sistem_elektronik_id": 5323
      }
    },
    {
      "type": "tdpseTerbit",
      "id": 5434,
      "attributes": {
        "nomor_pb_umku": "129100070099600010001",
        "nama": "PULSABAYAR",
        "website": "pulsabayar.com",
        "sektor": "Sektor Perdagangan, Sektor Teknologi Informasi dan Komunikasi",
        "nama_perusahaan": "PULSABAYAR SINAR PANBERSI",
        "tanggal_daftar": "2022-07-13",
        "nomor_tanda_daftar": "004074.01/DJAI.PSE/07/2022",
        "qr_code": "https://pse.kominfo.go.id/storage/images/qr_code/9b086ac39855f0dc181e6f459e3fd81a.png",
        "status_id": "TERDAFTAR",
        "sistem_elektronik_id": 5306
      }
    },
    {
      "type": "tdpseTerbit",
      "id": 5567,
      "attributes": {
        "nomor_pb_umku": "122600031051500000001",
        "nama": "GADAI MAS",
        "website": "gadaimas.com",
        "sektor": "Sektor Perdagangan",
        "nama_perusahaan": "MAJU AMAN SEJAHTERA",
        "tanggal_daftar": "2022-07-14",
        "nomor_tanda_daftar": "004073.01/DJAI.PSE/07/2022",
        "qr_code": "https://pse.kominfo.go.id/storage/images/qr_code/2ffc8100e0d2a1b787dc2640cd380c22.png",
        "status_id": "TERDAFTAR",
        "sistem_elektronik_id": 5433
      }
    },
    {
      "type": "tdpseTerbit",
      "id": 6199,
      "attributes": {
        "nomor_pb_umku": "022010672052400010001",
        "nama": "WEBSITE BDS",
        "website": "bdspt.com",
        "sektor": "Sektor Keuangan",
        "nama_perusahaan": "BINA DANA SEJAHTERA",
        "tanggal_daftar": "2022-07-18",
        "nomor_tanda_daftar": "004072.01/DJAI.PSE/07/2022",
        "qr_code": "https://pse.kominfo.go.id/storage/images/qr_code/b713406ca84faae46abc4b3b1fe5b013.png",
        "status_id": "TERDAFTAR",
        "sistem_elektronik_id": 6065
      }
    },
    {
      "type": "tdpseTerbit",
      "id": 9065,
      "attributes": {
        "nomor_pb_umku": "060422003340800160005",
        "nama": "SUBARJA HOST",
        "website": "-",
        "sektor": "Sektor Teknologi Informasi dan Komunikasi",
        "nama_perusahaan": "SUBARJA SOLUSI PERKASA",
        "tanggal_daftar": "2022-07-26",
        "nomor_tanda_daftar": "004071.04/DJAI.PSE/07/2022",
        "qr_code": "https://pse.kominfo.go.id/storage/images/qr_code/2c0fb885682a5d59134b7c863b69333f.png",
        "status_id": "TERDAFTAR",
        "sistem_elektronik_id": 8974
      }
    }
  ]
}