{
  "meta": {
    "page": {
      "currentPage": 304,
      "from": 3031,
      "lastPage": 816,
      "perPage": 10,
      "to": 3040,
      "total": 8153
    }
  },
  "jsonapi": {
    "version": "1.0"
  },
  "links": {
    "first": "http://pse.kominfo.go.id/api/v1/jsonapi/tdpse-terbit?page%5Blimit%5D=10&page%5Bpage%5D=1",
    "last": "http://pse.kominfo.go.id/api/v1/jsonapi/tdpse-terbit?page%5Blimit%5D=10&page%5Bpage%5D=816",
    "next": "http://pse.kominfo.go.id/api/v1/jsonapi/tdpse-terbit?page%5Blimit%5D=10&page%5Bpage%5D=305",
    "prev": "http://pse.kominfo.go.id/api/v1/jsonapi/tdpse-terbit?page%5Blimit%5D=10&page%5Bpage%5D=303"
  },
  "data": [
    {
      "type": "tdpseTerbit",
      "id": "5466",
      "attributes": {
        "nomor_pb_umku": "912030986115600010001",
        "nama": "TRAVEL INSURANCE",
        "website": "apps.bcainsurance.co.id",
        "sektor": "Sektor Keuangan",
        "nama_tampil_badan_hukum": "PT",
        "nama_perusahaan": "PT ASURANSI UMUM BCA",
        "tanggal_daftar": "2022-07-13",
        "tanggal_terbit": "2022-07-13",
        "nomor_tanda_daftar": "003517.01/DJAI.PSE/07/2022",
        "qr_code": "http://pse.kominfo.go.id/api/v1/jsonapi/tdpse-terbit/qr-code/5466",
        "status_id": "TERDAFTAR",
        "sistem_elektronik_id": "5338",
        "keterangan": "-",
        "lokalitas": "LOKAL"
      },
      "links": {
        "self": "http://pse.kominfo.go.id/api/v1/jsonapi/tdpse-terbit/5466"
      }
    },
    {
      "type": "tdpseTerbit",
      "id": "5465",
      "attributes": {
        "nomor_pb_umku": "812010974276800010002",
        "nama": "OURCITRUS TODAY & FUTURE",
        "website": "ourcitrus.com",
        "sektor": "Sektor Perdagangan",
        "nama_tampil_badan_hukum": "PT",
        "nama_perusahaan": "PT GEMILANG CITRUS BERJAYA",
        "tanggal_daftar": "2022-07-13",
        "tanggal_terbit": "2022-07-13",
        "nomor_tanda_daftar": "004029.02/DJAI.PSE/07/2022",
        "qr_code": "http://pse.kominfo.go.id/api/v1/jsonapi/tdpse-terbit/qr-code/5465",
        "status_id": "TERDAFTAR",
        "sistem_elektronik_id": "5337",
        "keterangan": "-",
        "lokalitas": "LOKAL"
      },
      "links": {
        "self": "http://pse.kominfo.go.id/api/v1/jsonapi/tdpse-terbit/5465"
      }
    },
    {
      "type": "tdpseTerbit",
      "id": "5464",
      "attributes": {
        "nomor_pb_umku": "912050087051600010001",
        "nama": "WEBSITE",
        "website": "WWW.CLIPAN.CO.ID",
        "sektor": "Sektor Keuangan",
        "nama_tampil_badan_hukum": "PT",
        "nama_perusahaan": "PT CLIPAN FINANCE INDONESIA",
        "tanggal_daftar": "2022-07-13",
        "tanggal_terbit": "2022-07-13",
        "nomor_tanda_daftar": "004082.01/DJAI.PSE/07/2022",
        "qr_code": "http://pse.kominfo.go.id/api/v1/jsonapi/tdpse-terbit/qr-code/5464",
        "status_id": "TERDAFTAR",
        "sistem_elektronik_id": "5327",
        "keterangan": "-",
        "lokalitas": "LOKAL"
      },
      "links": {
        "self": "http://pse.kominfo.go.id/api/v1/jsonapi/tdpse-terbit/5464"
      }
    },
    {
      "type": "tdpseTerbit",
      "id": "5463",
      "attributes": {
        "nomor_pb_umku": "912021504047300020001",
        "nama": "TIX ID",
        "website": "tix.id",
        "sektor": "Sektor Perdagangan",
        "nama_tampil_badan_hukum": "PT",
        "nama_perusahaan": "PT NUSANTARA ELANG SEJAHTERA",
        "tanggal_daftar": "2022-07-13",
        "tanggal_terbit": "2022-07-13",
        "nomor_tanda_daftar": "003899.01/DJAI.PSE/07/2022",
        "qr_code": "http://pse.kominfo.go.id/api/v1/jsonapi/tdpse-terbit/qr-code/5463",
        "status_id": "TERDAFTAR",
        "sistem_elektronik_id": "5336",
        "keterangan": "-",
        "lokalitas": "LOKAL"
      },
      "links": {
        "self": "http://pse.kominfo.go.id/api/v1/jsonapi/tdpse-terbit/5463"
      }
    },
    {
      "type": "tdpseTerbit",
      "id": "5462",
      "attributes": {
        "nomor_pb_umku": "210322004872800020001",
        "nama": "KABARTASELA.COM",
        "website": "kabartasela.com",
        "sektor": "Sektor Teknologi Informasi dan Komunikasi",
        "nama_tampil_badan_hukum": "",
        "nama_perusahaan": "TASELA MEDIA PRATAMA",
        "tanggal_daftar": "2022-07-13",
        "tanggal_terbit": "2022-07-13",
        "nomor_tanda_daftar": "004090.01/DJAI.PSE/07/2022",
        "qr_code": "http://pse.kominfo.go.id/api/v1/jsonapi/tdpse-terbit/qr-code/5462",
        "status_id": "TERDAFTAR",
        "sistem_elektronik_id": "5335",
        "keterangan": "-",
        "lokalitas": "LOKAL"
      },
      "links": {
        "self": "http://pse.kominfo.go.id/api/v1/jsonapi/tdpse-terbit/5462"
      }
    },
    {
      "type": "tdpseTerbit",
      "id": "5461",
      "attributes": {
        "nomor_pb_umku": "2608210046921164360001",
        "nama": "OPINIA",
        "website": "opinia.id",
        "sektor": "Sektor Perdagangan, Sektor Teknologi Informasi dan Komunikasi",
        "nama_tampil_badan_hukum": "PT",
        "nama_perusahaan": "PT OPINIA MEDIA TEKNOLOGI",
        "tanggal_daftar": "2022-07-13",
        "tanggal_terbit": "2022-07-13",
        "nomor_tanda_daftar": "003834.01/DJAI.PSE/07/2022",
        "qr_code": "http://pse.kominfo.go.id/api/v1/jsonapi/tdpse-terbit/qr-code/5461",
        "status_id": "TERDAFTAR",
        "sistem_elektronik_id": "5334",
        "keterangan": "-",
        "lokalitas": "LOKAL"
      },
      "links": {
        "self": "http://pse.kominfo.go.id/api/v1/jsonapi/tdpse-terbit/5461"
      }
    },
    {
      "type": "tdpseTerbit",
      "id": "5460",
      "attributes": {
        "nomor_pb_umku": "121300010106800010002",
        "nama": "QUANTUS TELEMATIKA IND",
        "website": "qti.co.id",
        "sektor": "Sektor Teknologi Informasi dan Komunikasi",
        "nama_tampil_badan_hukum": "PT",
        "nama_perusahaan": "PT QUANTUS TELEMATIKA INDONESIA",
        "tanggal_daftar": "2022-07-13",
        "tanggal_terbit": "2022-07-13",
        "nomor_tanda_daftar": "003463.02/DJAI.PSE/07/2022",
        "qr_code": "http://pse.kominfo.go.id/api/v1/jsonapi/tdpse-terbit/qr-code/5460",
        "status_id": "TERDAFTAR",
        "sistem_elektronik_id": "5333",
        "keterangan": "-",
        "lokalitas": "LOKAL"
      },
      "links": {
        "self": "http://pse.kominfo.go.id/api/v1/jsonapi/tdpse-terbit/5460"
      }
    },
    {
      "type": "tdpseTerbit",
      "id": "5459",
      "attributes": {
        "nomor_pb_umku": "912010025149200010001",
        "nama": "ARTOTEL GROUP",
        "website": "artotelgroup.com",
        "sektor": "Sektor Teknologi Informasi dan Komunikasi",
        "nama_tampil_badan_hukum": "PT",
        "nama_perusahaan": "PT ARTOTEL INDONESIA",
        "tanggal_daftar": "2022-07-13",
        "tanggal_terbit": "2022-07-13",
        "nomor_tanda_daftar": "004088.01/DJAI.PSE/07/2022",
        "qr_code": "http://pse.kominfo.go.id/api/v1/jsonapi/tdpse-terbit/qr-code/5459",
        "status_id": "TERDAFTAR",
        "sistem_elektronik_id": "5331",
        "keterangan": "-",
        "lokalitas": "LOKAL"
      },
      "links": {
        "self": "http://pse.kominfo.go.id/api/v1/jsonapi/tdpse-terbit/5459"
      }
    },
    {
      "type": "tdpseTerbit",
      "id": "5458",
      "attributes": {
        "nomor_pb_umku": "026500093234200000006",
        "nama": "ASIA BAUT",
        "website": "asiabaut.com",
        "sektor": "Sektor Perdagangan",
        "nama_tampil_badan_hukum": "CV",
        "nama_perusahaan": "CV ASIA BAUT",
        "tanggal_daftar": "2022-07-13",
        "tanggal_terbit": "2022-07-13",
        "nomor_tanda_daftar": "004007.01/DJAI.PSE/07/2022",
        "qr_code": "http://pse.kominfo.go.id/api/v1/jsonapi/tdpse-terbit/qr-code/5458",
        "status_id": "TERDAFTAR",
        "sistem_elektronik_id": "5330",
        "keterangan": "-",
        "lokalitas": "LOKAL"
      },
      "links": {
        "self": "http://pse.kominfo.go.id/api/v1/jsonapi/tdpse-terbit/5458"
      }
    },
    {
      "type": "tdpseTerbit",
      "id": "5457",
      "attributes": {
        "nomor_pb_umku": "121300010106800010001",
        "nama": "QUANTUS TELEMATIKA INDONESIA",
        "website": "qti.co.id",
        "sektor": "Sektor Teknologi Informasi dan Komunikasi",
        "nama_tampil_badan_hukum": "PT",
        "nama_perusahaan": "PT QUANTUS TELEMATIKA INDONESIA",
        "tanggal_daftar": "2022-07-13",
        "tanggal_terbit": "2022-07-13",
        "nomor_tanda_daftar": "003463.01/DJAI.PSE/07/2022",
        "qr_code": "http://pse.kominfo.go.id/api/v1/jsonapi/tdpse-terbit/qr-code/5457",
        "status_id": "TERDAFTAR",
        "sistem_elektronik_id": "5329",
        "keterangan": "-",
        "lokalitas": "LOKAL"
      },
      "links": {
        "self": "http://pse.kominfo.go.id/api/v1/jsonapi/tdpse-terbit/5457"
      }
    }
  ]
}