{
  "meta": {
    "page": {
      "currentPage": 31,
      "from": 301,
      "lastPage": 816,
      "perPage": 10,
      "to": 310,
      "total": 8153
    }
  },
  "jsonapi": {
    "version": "1.0"
  },
  "links": {
    "first": "http://pse.kominfo.go.id/api/v1/jsonapi/tdpse-terbit?page%5Blimit%5D=10&page%5Bpage%5D=1",
    "last": "http://pse.kominfo.go.id/api/v1/jsonapi/tdpse-terbit?page%5Blimit%5D=10&page%5Bpage%5D=816",
    "next": "http://pse.kominfo.go.id/api/v1/jsonapi/tdpse-terbit?page%5Blimit%5D=10&page%5Bpage%5D=32",
    "prev": "http://pse.kominfo.go.id/api/v1/jsonapi/tdpse-terbit?page%5Blimit%5D=10&page%5Bpage%5D=30"
  },
  "data": [
    {
      "type": "tdpseTerbit",
      "id": "8386",
      "attributes": {
        "nomor_pb_umku": "912021828192600000003",
        "nama": "VIRTUAL ACCOUNT",
        "website": "ussi.co.id",
        "sektor": "Sektor Teknologi Informasi dan Komunikasi",
        "nama_tampil_badan_hukum": "PT",
        "nama_perusahaan": "PT USSI",
        "tanggal_daftar": "2022-07-21",
        "tanggal_terbit": "2022-07-21",
        "nomor_tanda_daftar": "001020.03/DJAI.PSE/07/2022",
        "qr_code": "http://pse.kominfo.go.id/api/v1/jsonapi/tdpse-terbit/qr-code/8386",
        "status_id": "TERDAFTAR",
        "sistem_elektronik_id": "8302",
        "keterangan": "-",
        "lokalitas": "LOKAL"
      },
      "links": {
        "self": "http://pse.kominfo.go.id/api/v1/jsonapi/tdpse-terbit/8386"
      }
    },
    {
      "type": "tdpseTerbit",
      "id": "8385",
      "attributes": {
        "nomor_pb_umku": "120300031136400000001",
        "nama": "DIGILAW; FRESHLAW ; PITILAW ;",
        "website": "digilaw.id",
        "sektor": "Sektor Perdagangan",
        "nama_tampil_badan_hukum": "PT",
        "nama_perusahaan": "PT LUSDA SUNARTY DIGITAL",
        "tanggal_daftar": "2022-07-21",
        "tanggal_terbit": "2022-07-21",
        "nomor_tanda_daftar": "005649.01/DJAI.PSE/07/2022",
        "qr_code": "http://pse.kominfo.go.id/api/v1/jsonapi/tdpse-terbit/qr-code/8385",
        "status_id": "TERDAFTAR",
        "sistem_elektronik_id": "8301",
        "keterangan": "-",
        "lokalitas": "LOKAL"
      },
      "links": {
        "self": "http://pse.kominfo.go.id/api/v1/jsonapi/tdpse-terbit/8385"
      }
    },
    {
      "type": "tdpseTerbit",
      "id": "8384",
      "attributes": {
        "nomor_pb_umku": "022000351025400000002",
        "nama": "WEBSITE DENPASAR AGUNG INDAH MOTOR",
        "website": "hondadenpasaragung.co.id",
        "sektor": "Sektor Perdagangan",
        "nama_tampil_badan_hukum": "PT",
        "nama_perusahaan": "PT DENPASARAGUNG INDAHMOTOR",
        "tanggal_daftar": "2022-07-21",
        "tanggal_terbit": "2022-07-21",
        "nomor_tanda_daftar": "005879.02/DJAI.PSE/07/2022",
        "qr_code": "http://pse.kominfo.go.id/api/v1/jsonapi/tdpse-terbit/qr-code/8384",
        "status_id": "TERDAFTAR",
        "sistem_elektronik_id": "8300",
        "keterangan": "-",
        "lokalitas": "LOKAL"
      },
      "links": {
        "self": "http://pse.kominfo.go.id/api/v1/jsonapi/tdpse-terbit/8384"
      }
    },
    {
      "type": "tdpseTerbit",
      "id": "8383",
      "attributes": {
        "nomor_pb_umku": "022010061265900000007",
        "nama": "MONITORWA.COM",
        "website": "monitorwa.com",
        "sektor": "Sektor Teknologi Informasi dan Komunikasi",
        "nama_tampil_badan_hukum": "PT",
        "nama_perusahaan": "PT PRIMA SYIRKAH INTERNATIONAL",
        "tanggal_daftar": "2022-07-20",
        "tanggal_terbit": "2022-07-21",
        "nomor_tanda_daftar": "002941.07/DJAI.PSE/07/2022",
        "qr_code": "http://pse.kominfo.go.id/api/v1/jsonapi/tdpse-terbit/qr-code/8383",
        "status_id": "TERDAFTAR",
        "sistem_elektronik_id": "7793",
        "keterangan": "-",
        "lokalitas": "LOKAL"
      },
      "links": {
        "self": "http://pse.kominfo.go.id/api/v1/jsonapi/tdpse-terbit/8383"
      }
    },
    {
      "type": "tdpseTerbit",
      "id": "8382",
      "attributes": {
        "nomor_pb_umku": "126800058267600010001",
        "nama": "LOKAL FINANSIAL",
        "website": "lokalfinansial.id",
        "sektor": "Sektor Teknologi Informasi dan Komunikasi",
        "nama_tampil_badan_hukum": "PT",
        "nama_perusahaan": "PT LOKAL FINANSIAL INDONESIA",
        "tanggal_daftar": "2022-07-20",
        "tanggal_terbit": "2022-07-21",
        "nomor_tanda_daftar": "005796.01/DJAI.PSE/07/2022",
        "qr_code": "http://pse.kominfo.go.id/api/v1/jsonapi/tdpse-terbit/qr-code/8382",
        "status_id": "TERDAFTAR",
        "sistem_elektronik_id": "8202",
        "keterangan": "-",
        "lokalitas": "LOKAL"
      },
      "links": {
        "self": "http://pse.kominfo.go.id/api/v1/jsonapi/tdpse-terbit/8382"
      }
    },
    {
      "type": "tdpseTerbit",
      "id": "8381",
      "attributes": {
        "nomor_pb_umku": "022000351025400000001",
        "nama": "WEBSITE DEALER DENPASAR AGUNG INDAH MOTOR",
        "website": "hondadenpasaragung.co.id",
        "sektor": "Sektor Perdagangan",
        "nama_tampil_badan_hukum": "PT",
        "nama_perusahaan": "PT DENPASARAGUNG INDAHMOTOR",
        "tanggal_daftar": "2022-07-21",
        "tanggal_terbit": "2022-07-21",
        "nomor_tanda_daftar": "005879.01/DJAI.PSE/07/2022",
        "qr_code": "http://pse.kominfo.go.id/api/v1/jsonapi/tdpse-terbit/qr-code/8381",
        "status_id": "TERDAFTAR",
        "sistem_elektronik_id": "8299",
        "keterangan": "-",
        "lokalitas": "LOKAL"
      },
      "links": {
        "self": "http://pse.kominfo.go.id/api/v1/jsonapi/tdpse-terbit/8381"
      }
    },
    {
      "type": "tdpseTerbit",
      "id": "8380",
      "attributes": {
        "nomor_pb_umku": "912010384048100030001",
        "nama": "BANKING SMART SYSTEM",
        "website": "bprparasari.co.id",
        "sektor": "Sektor Keuangan",
        "nama_tampil_badan_hukum": "PT",
        "nama_perusahaan": "PT BANK PERKREDITAN RAKYAT PARASARI",
        "tanggal_daftar": "2022-07-21",
        "tanggal_terbit": "2022-07-21",
        "nomor_tanda_daftar": "005878.01/DJAI.PSE/07/2022",
        "qr_code": "http://pse.kominfo.go.id/api/v1/jsonapi/tdpse-terbit/qr-code/8380",
        "status_id": "TERDAFTAR",
        "sistem_elektronik_id": "8298",
        "keterangan": "-",
        "lokalitas": "LOKAL"
      },
      "links": {
        "self": "http://pse.kominfo.go.id/api/v1/jsonapi/tdpse-terbit/8380"
      }
    },
    {
      "type": "tdpseTerbit",
      "id": "8379",
      "attributes": {
        "nomor_pb_umku": "912030357038200000001",
        "nama": "WEBSITE",
        "website": "hondacibubur.com",
        "sektor": "Sektor Perdagangan",
        "nama_tampil_badan_hukum": "PT",
        "nama_perusahaan": "PT CIBUBUR INDAH MOTOR",
        "tanggal_daftar": "2022-07-20",
        "tanggal_terbit": "2022-07-21",
        "nomor_tanda_daftar": "005111.01/DJAI.PSE/07/2022",
        "qr_code": "http://pse.kominfo.go.id/api/v1/jsonapi/tdpse-terbit/qr-code/8379",
        "status_id": "TERDAFTAR",
        "sistem_elektronik_id": "7795",
        "keterangan": "-",
        "lokalitas": "LOKAL"
      },
      "links": {
        "self": "http://pse.kominfo.go.id/api/v1/jsonapi/tdpse-terbit/8379"
      }
    },
    {
      "type": "tdpseTerbit",
      "id": "8378",
      "attributes": {
        "nomor_pb_umku": "912020192064400000001",
        "nama": "SUPERSEWA",
        "website": "supersewa.com",
        "sektor": "Sektor Perdagangan, Sektor Teknologi Informasi dan Komunikasi",
        "nama_tampil_badan_hukum": "PT",
        "nama_perusahaan": "PT MEROKET BERSAMA SUPERSEWA",
        "tanggal_daftar": "2022-07-20",
        "tanggal_terbit": "2022-07-21",
        "nomor_tanda_daftar": "005735.01/DJAI.PSE/07/2022",
        "qr_code": "http://pse.kominfo.go.id/api/v1/jsonapi/tdpse-terbit/qr-code/8378",
        "status_id": "TERDAFTAR",
        "sistem_elektronik_id": "8296",
        "keterangan": "-",
        "lokalitas": "LOKAL"
      },
      "links": {
        "self": "http://pse.kominfo.go.id/api/v1/jsonapi/tdpse-terbit/8378"
      }
    },
    {
      "type": "tdpseTerbit",
      "id": "8377",
      "attributes": {
        "nomor_pb_umku": "120600023203300000001",
        "nama": "WEBSITE - BANK ARFINDO",
        "website": "bankarfindo.co.id",
        "sektor": "Sektor Teknologi Informasi dan Komunikasi",
        "nama_tampil_badan_hukum": "PT",
        "nama_perusahaan": "PT BANK PERKREDITAN RAKYAT ARFAK INDONESIA",
        "tanggal_daftar": "2022-07-21",
        "tanggal_terbit": "2022-07-21",
        "nomor_tanda_daftar": "005875.01/DJAI.PSE/07/2022",
        "qr_code": "http://pse.kominfo.go.id/api/v1/jsonapi/tdpse-terbit/qr-code/8377",
        "status_id": "TERDAFTAR",
        "sistem_elektronik_id": "8297",
        "keterangan": "-",
        "lokalitas": "LOKAL"
      },
      "links": {
        "self": "http://pse.kominfo.go.id/api/v1/jsonapi/tdpse-terbit/8377"
      }
    }
  ]
}