{
  "meta": {
    "page": {
      "currentPage": 319,
      "from": 3181,
      "lastPage": 816,
      "perPage": 10,
      "to": 3190,
      "total": 8153
    }
  },
  "jsonapi": {
    "version": "1.0"
  },
  "links": {
    "first": "http://pse.kominfo.go.id/api/v1/jsonapi/tdpse-terbit?page%5Blimit%5D=10&page%5Bpage%5D=1",
    "last": "http://pse.kominfo.go.id/api/v1/jsonapi/tdpse-terbit?page%5Blimit%5D=10&page%5Bpage%5D=816",
    "next": "http://pse.kominfo.go.id/api/v1/jsonapi/tdpse-terbit?page%5Blimit%5D=10&page%5Bpage%5D=320",
    "prev": "http://pse.kominfo.go.id/api/v1/jsonapi/tdpse-terbit?page%5Blimit%5D=10&page%5Bpage%5D=318"
  },
  "data": [
    {
      "type": "tdpseTerbit",
      "id": "5304",
      "attributes": {
        "nomor_pb_umku": "029301023016400000002",
        "nama": "VIONE",
        "website": "onvi.co.id",
        "sektor": "Sektor Teknologi Informasi dan Komunikasi",
        "nama_tampil_badan_hukum": "PT",
        "nama_perusahaan": "PT ONVI SISTEM INDONESIA",
        "tanggal_daftar": "2022-07-11",
        "tanggal_terbit": "2022-07-11",
        "nomor_tanda_daftar": "003955.02/DJAI.PSE/07/2022",
        "qr_code": "http://pse.kominfo.go.id/api/v1/jsonapi/tdpse-terbit/qr-code/5304",
        "status_id": "TERDAFTAR",
        "sistem_elektronik_id": "5175",
        "keterangan": "-",
        "lokalitas": "LOKAL"
      },
      "links": {
        "self": "http://pse.kominfo.go.id/api/v1/jsonapi/tdpse-terbit/5304"
      }
    },
    {
      "type": "tdpseTerbit",
      "id": "5303",
      "attributes": {
        "nomor_pb_umku": "912000415033500010001",
        "nama": "THE TRAVELLIST",
        "website": "-",
        "sektor": "Sektor Teknologi Informasi dan Komunikasi",
        "nama_tampil_badan_hukum": "PT",
        "nama_perusahaan": "PT MOLLY ELVIS ZOEY",
        "tanggal_daftar": "2022-07-11",
        "tanggal_terbit": "2022-07-11",
        "nomor_tanda_daftar": "003825.01/DJAI.PSE/07/2022",
        "qr_code": "http://pse.kominfo.go.id/api/v1/jsonapi/tdpse-terbit/qr-code/5303",
        "status_id": "TERDAFTAR",
        "sistem_elektronik_id": "5174",
        "keterangan": "-",
        "lokalitas": "LOKAL"
      },
      "links": {
        "self": "http://pse.kominfo.go.id/api/v1/jsonapi/tdpse-terbit/5303"
      }
    },
    {
      "type": "tdpseTerbit",
      "id": "5302",
      "attributes": {
        "nomor_pb_umku": "812010389160901490192",
        "nama": "APLRETURN",
        "website": "aplreturn.approval-portal.id",
        "sektor": "Sektor Perdagangan",
        "nama_tampil_badan_hukum": "PT",
        "nama_perusahaan": "PT ANUGERAH PHARMINDO LESTARI",
        "tanggal_daftar": "2022-07-11",
        "tanggal_terbit": "2022-07-11",
        "nomor_tanda_daftar": "003973.04/DJAI.PSE/07/2022",
        "qr_code": "http://pse.kominfo.go.id/api/v1/jsonapi/tdpse-terbit/qr-code/5302",
        "status_id": "TERDAFTAR",
        "sistem_elektronik_id": "5172",
        "keterangan": "-",
        "lokalitas": "LOKAL"
      },
      "links": {
        "self": "http://pse.kominfo.go.id/api/v1/jsonapi/tdpse-terbit/5302"
      }
    },
    {
      "type": "tdpseTerbit",
      "id": "5301",
      "attributes": {
        "nomor_pb_umku": "812010389160901490191",
        "nama": "NOMOR IZIN EDAR WEBSITE",
        "website": "app.aplcare.com",
        "sektor": "Sektor Kesehatan",
        "nama_tampil_badan_hukum": "PT",
        "nama_perusahaan": "PT ANUGERAH PHARMINDO LESTARI",
        "tanggal_daftar": "2022-07-11",
        "tanggal_terbit": "2022-07-11",
        "nomor_tanda_daftar": "003973.03/DJAI.PSE/07/2022",
        "qr_code": "http://pse.kominfo.go.id/api/v1/jsonapi/tdpse-terbit/qr-code/5301",
        "status_id": "TERDAFTAR",
        "sistem_elektronik_id": "5170",
        "keterangan": "-",
        "lokalitas": "LOKAL"
      },
      "links": {
        "self": "http://pse.kominfo.go.id/api/v1/jsonapi/tdpse-terbit/5301"
      }
    },
    {
      "type": "tdpseTerbit",
      "id": "5300",
      "attributes": {
        "nomor_pb_umku": "912000218009900010002",
        "nama": "WEBSITE SEABANK",
        "website": "seabank.co.id",
        "sektor": "Sektor Keuangan",
        "nama_tampil_badan_hukum": "PT",
        "nama_perusahaan": "PT BANK SEABANK INDONESIA",
        "tanggal_daftar": "2022-07-11",
        "tanggal_terbit": "2022-07-11",
        "nomor_tanda_daftar": "001052.02/DJAI.PSE/07/2022",
        "qr_code": "http://pse.kominfo.go.id/api/v1/jsonapi/tdpse-terbit/qr-code/5300",
        "status_id": "TERDAFTAR",
        "sistem_elektronik_id": "5173",
        "keterangan": "-",
        "lokalitas": "LOKAL"
      },
      "links": {
        "self": "http://pse.kominfo.go.id/api/v1/jsonapi/tdpse-terbit/5300"
      }
    },
    {
      "type": "tdpseTerbit",
      "id": "5299",
      "attributes": {
        "nomor_pb_umku": "124700022061900020006",
        "nama": "BUKOPINET",
        "website": "bayar.paymentpoint.bukopin.co.id",
        "sektor": "Sektor Keuangan",
        "nama_tampil_badan_hukum": "PT",
        "nama_perusahaan": "PT BANK KB BUKOPIN",
        "tanggal_daftar": "2022-07-11",
        "tanggal_terbit": "2022-07-11",
        "nomor_tanda_daftar": "003560.06/DJAI.PSE/07/2022",
        "qr_code": "http://pse.kominfo.go.id/api/v1/jsonapi/tdpse-terbit/qr-code/5299",
        "status_id": "TERDAFTAR",
        "sistem_elektronik_id": "5171",
        "keterangan": "-",
        "lokalitas": "LOKAL"
      },
      "links": {
        "self": "http://pse.kominfo.go.id/api/v1/jsonapi/tdpse-terbit/5299"
      }
    },
    {
      "type": "tdpseTerbit",
      "id": "5298",
      "attributes": {
        "nomor_pb_umku": "110722001858300000001",
        "nama": "DUNIA KEJU",
        "website": "-",
        "sektor": "Sektor Perdagangan",
        "nama_tampil_badan_hukum": "",
        "nama_perusahaan": "CAHYONO PRAWIRO",
        "tanggal_daftar": "2022-07-11",
        "tanggal_terbit": "2022-07-11",
        "nomor_tanda_daftar": "003974.01/DJAI.PSE/07/2022",
        "qr_code": "http://pse.kominfo.go.id/api/v1/jsonapi/tdpse-terbit/qr-code/5298",
        "status_id": "TERDAFTAR",
        "sistem_elektronik_id": "5169",
        "keterangan": "-",
        "lokalitas": "LOKAL"
      },
      "links": {
        "self": "http://pse.kominfo.go.id/api/v1/jsonapi/tdpse-terbit/5298"
      }
    },
    {
      "type": "tdpseTerbit",
      "id": "5297",
      "attributes": {
        "nomor_pb_umku": "211021004228700010001",
        "nama": "PANENSAHAM SEKURITAS INDONESIA WEBSITE",
        "website": "panensaham.com",
        "sektor": "Sektor Keuangan",
        "nama_tampil_badan_hukum": "PT",
        "nama_perusahaan": "PT PANENSAHAM SEKURITAS INDONESIA",
        "tanggal_daftar": "2022-07-11",
        "tanggal_terbit": "2022-07-11",
        "nomor_tanda_daftar": "003969.01/DJAI.PSE/07/2022",
        "qr_code": "http://pse.kominfo.go.id/api/v1/jsonapi/tdpse-terbit/qr-code/5297",
        "status_id": "TERDAFTAR",
        "sistem_elektronik_id": "5167",
        "keterangan": "-",
        "lokalitas": "LOKAL"
      },
      "links": {
        "self": "http://pse.kominfo.go.id/api/v1/jsonapi/tdpse-terbit/5297"
      }
    },
    {
      "type": "tdpseTerbit",
      "id": "5296",
      "attributes": {
        "nomor_pb_umku": "812011705094600040010",
        "nama": "VIRTUAL OFFICES",
        "website": "virtualoffice.bankbjb.co.id",
        "sektor": "Sektor Keuangan",
        "nama_tampil_badan_hukum": "",
        "nama_perusahaan": "BANK PEMBANGUNAN DAERAH JAWA BARAT DAN BANTEN TBK (BANK BJB)",
        "tanggal_daftar": "2022-07-11",
        "tanggal_terbit": "2022-07-11",
        "nomor_tanda_daftar": "003382.07/DJAI.PSE/07/2022",
        "qr_code": "http://pse.kominfo.go.id/api/v1/jsonapi/tdpse-terbit/qr-code/5296",
        "status_id": "TERDAFTAR",
        "sistem_elektronik_id": "5163",
        "keterangan": "-",
        "lokalitas": "LOKAL"
      },
      "links": {
        "self": "http://pse.kominfo.go.id/api/v1/jsonapi/tdpse-terbit/5296"
      }
    },
    {
      "type": "tdpseTerbit",
      "id": "5295",
      "attributes": {
        "nomor_pb_umku": "812011705094600040009",
        "nama": "BJB BISA",
        "website": "-",
        "sektor": "Sektor Keuangan",
        "nama_tampil_badan_hukum": "",
        "nama_perusahaan": "BANK PEMBANGUNAN DAERAH JAWA BARAT DAN BANTEN TBK (BANK BJB)",
        "tanggal_daftar": "2022-07-11",
        "tanggal_terbit": "2022-07-11",
        "nomor_tanda_daftar": "003382.08/DJAI.PSE/07/2022",
        "qr_code": "http://pse.kominfo.go.id/api/v1/jsonapi/tdpse-terbit/qr-code/5295",
        "status_id": "TERDAFTAR",
        "sistem_elektronik_id": "5164",
        "keterangan": "-",
        "lokalitas": "LOKAL"
      },
      "links": {
        "self": "http://pse.kominfo.go.id/api/v1/jsonapi/tdpse-terbit/5295"
      }
    }
  ]
}