{
  "meta": {
    "page": {
      "currentPage": 34,
      "from": 331,
      "lastPage": 1113,
      "perPage": 10,
      "to": 340,
      "total": 11124
    }
  },
  "data": [
    {
      "type": "tdpseTerbit",
      "id": 11878,
      "attributes": {
        "nomor_pb_umku": "022050181216500010001",
        "nama": "KONSULTANSI DOKTER ONLINE (KADO PASIEN)",
        "website": "kadomedical.com",
        "sektor": "Sektor Kesehatan",
        "nama_perusahaan": "KLINIK DOKTER AYOMAN KELUARGA",
        "tanggal_daftar": "2022-10-19",
        "nomor_tanda_daftar": "008172.01/DJAI.PSE/10/2022",
        "qr_code": "https://pse.kominfo.go.id/storage/images/qr_code/5bab5313bab0274c1f9746df6b755c96.png",
        "status_id": "TERDAFTAR",
        "sistem_elektronik_id": 11680
      }
    },
    {
      "type": "tdpseTerbit",
      "id": 11870,
      "attributes": {
        "nomor_pb_umku": "181022024945600010001",
        "nama": "PRIANGAN HOSTING",
        "website": "prianganhosting.com",
        "sektor": "Sektor Teknologi Informasi dan Komunikasi",
        "nama_perusahaan": "ANTARIKSA NETWORK MEDIA DIGITAL",
        "tanggal_daftar": "2022-10-18",
        "nomor_tanda_daftar": "008168.01/DJAI.PSE/10/2022",
        "qr_code": "https://pse.kominfo.go.id/storage/images/qr_code/565cb6ad14287412861aa2c5e1fdf4f1.png",
        "status_id": "TERDAFTAR",
        "sistem_elektronik_id": 11672
      }
    },
    {
      "type": "tdpseTerbit",
      "id": 11867,
      "attributes": {
        "nomor_pb_umku": "812010490100300010001",
        "nama": "NUSANTARATOUR.CO.ID",
        "website": "nusantaratour.co.id",
        "sektor": "Sektor Perdagangan",
        "nama_perusahaan": "BIRO PERJALANAN UMUM NUSATOVEL",
        "tanggal_daftar": "2022-10-18",
        "nomor_tanda_daftar": "008167.01/DJAI.PSE/10/2022",
        "qr_code": "https://pse.kominfo.go.id/storage/images/qr_code/fe5ec167c9b6707cf38279a4ca08aae9.png",
        "status_id": "TERDAFTAR",
        "sistem_elektronik_id": 11670
      }
    },
    {
      "type": "tdpseTerbit",
      "id": 11876,
      "attributes": {
        "nomor_pb_umku": "912021303275300020001",
        "nama": "BPR SYARIAH ARTHA AMANAH UMMAT",
        "website": "bprsaau.com",
        "sektor": "Sektor Teknologi Informasi dan Komunikasi",
        "nama_perusahaan": "BANK PEMBIAYAAN RAKYAT SYARIAH ARTHA AMANAH UMMAT",
        "tanggal_daftar": "2022-10-19",
        "nomor_tanda_daftar": "008166.01/DJAI.PSE/10/2022",
        "qr_code": "https://pse.kominfo.go.id/storage/images/qr_code/02e7bbdb861ffd3df2c57ffc0cf2bba9.png",
        "status_id": "TERDAFTAR",
        "sistem_elektronik_id": 11679
      }
    },
    {
      "type": "tdpseTerbit",
      "id": 12189,
      "attributes": {
        "nomor_pb_umku": "181022022886100000001",
        "nama": "BELIIN",
        "website": "beliin.site",
        "sektor": "Sektor Teknologi Informasi dan Komunikasi",
        "nama_perusahaan": "DIGITAL ANIMHA TRIKARYA INDONESIA",
        "tanggal_daftar": "2022-11-09",
        "nomor_tanda_daftar": "008165.01/DJAI.PSE/11/2022",
        "qr_code": "https://pse.kominfo.go.id/storage/images/qr_code/4e17c34f1b67974eb5a228e460782a10.png",
        "status_id": "TERDAFTAR",
        "sistem_elektronik_id": 11982
      }
    },
    {
      "type": "tdpseTerbit",
      "id": 11864,
      "attributes": {
        "nomor_pb_umku": "021201023014900000001",
        "nama": "GOLEKTRUK",
        "website": "golektruk.com",
        "sektor": "Sektor Teknologi Informasi dan Komunikasi",
        "nama_perusahaan": "GOLEKTRUK DOT COM",
        "tanggal_daftar": "2022-10-18",
        "nomor_tanda_daftar": "008164.01/DJAI.PSE/10/2022",
        "qr_code": "https://pse.kominfo.go.id/storage/images/qr_code/eb6b13a6a2b3b032454d6766ddf14fd2.png",
        "status_id": "TERDAFTAR",
        "sistem_elektronik_id": 11666
      }
    },
    {
      "type": "tdpseTerbit",
      "id": 11868,
      "attributes": {
        "nomor_pb_umku": "180122004630400000001",
        "nama": "LIVEHAF.COM",
        "website": "-",
        "sektor": "Sektor Perdagangan",
        "nama_perusahaan": "LIVECOM DIGITAL INDONESIA",
        "tanggal_daftar": "2022-10-18",
        "nomor_tanda_daftar": "008163.02/DJAI.PSE/10/2022",
        "qr_code": "https://pse.kominfo.go.id/storage/images/qr_code/7e5049b95556ff9fde61873cd2c53b80.png",
        "status_id": "TERDAFTAR",
        "sistem_elektronik_id": 11671
      }
    },
    {
      "type": "tdpseTerbit",
      "id": 12132,
      "attributes": {
        "nomor_pb_umku": "070622004656600000001",
        "nama": "HITPAY",
        "website": "hitpayapp.com",
        "sektor": "Sektor Keuangan",
        "nama_perusahaan": "SOLUSI DOMPET INDONESIA",
        "tanggal_daftar": "2022-11-04",
        "nomor_tanda_daftar": "008162.01/DJAI.PSE/11/2022",
        "qr_code": "https://pse.kominfo.go.id/storage/images/qr_code/52b82f5f1de4940469d1f22dbdac0d00.png",
        "status_id": "TERDAFTAR",
        "sistem_elektronik_id": 11927
      }
    },
    {
      "type": "tdpseTerbit",
      "id": 11862,
      "attributes": {
        "nomor_pb_umku": "171022005919500000001",
        "nama": "INTI POS",
        "website": "intipos.aplikasiwebsite.com",
        "sektor": "Sektor Teknologi Informasi dan Komunikasi",
        "nama_perusahaan": "Ibnu Hazim",
        "tanggal_daftar": "2022-10-18",
        "nomor_tanda_daftar": "008161.01/DJAI.PSE/10/2022",
        "qr_code": "https://pse.kominfo.go.id/storage/images/qr_code/b9e56597d073c637a85070cd11859034.png",
        "status_id": "TERDAFTAR",
        "sistem_elektronik_id": 11664
      }
    },
    {
      "type": "tdpseTerbit",
      "id": 11847,
      "attributes": {
        "nomor_pb_umku": "101022006212100010001",
        "nama": "POLLEN",
        "website": "pollen.tech",
        "sektor": "Sektor Perdagangan, Sektor Teknologi Informasi dan Komunikasi",
        "nama_perusahaan": "POLLEN TECH INDONESIA",
        "tanggal_daftar": "2022-10-18",
        "nomor_tanda_daftar": "008158.01/DJAI.PSE/10/2022",
        "qr_code": "https://pse.kominfo.go.id/storage/images/qr_code/e712c5b798827ce47fdd89a395dcef13.png",
        "status_id": "TERDAFTAR",
        "sistem_elektronik_id": 11649
      }
    }
  ]
}