{
  "meta": {
    "page": {
      "currentPage": 333,
      "from": 3321,
      "lastPage": 816,
      "perPage": 10,
      "to": 3330,
      "total": 8153
    }
  },
  "jsonapi": {
    "version": "1.0"
  },
  "links": {
    "first": "http://pse.kominfo.go.id/api/v1/jsonapi/tdpse-terbit?page%5Blimit%5D=10&page%5Bpage%5D=1",
    "last": "http://pse.kominfo.go.id/api/v1/jsonapi/tdpse-terbit?page%5Blimit%5D=10&page%5Bpage%5D=816",
    "next": "http://pse.kominfo.go.id/api/v1/jsonapi/tdpse-terbit?page%5Blimit%5D=10&page%5Bpage%5D=334",
    "prev": "http://pse.kominfo.go.id/api/v1/jsonapi/tdpse-terbit?page%5Blimit%5D=10&page%5Bpage%5D=332"
  },
  "data": [
    {
      "type": "tdpseTerbit",
      "id": "5159",
      "attributes": {
        "nomor_pb_umku": "022000213259300020001",
        "nama": "E-FORM PT INVESTINDO NUSANTARA SEKURITAS",
        "website": "eform.investindosekuritas.co.id",
        "sektor": "Sektor Keuangan",
        "nama_tampil_badan_hukum": "PT",
        "nama_perusahaan": "PT INVESTINDO NUSANTARA SEKURITAS",
        "tanggal_daftar": "2022-07-07",
        "tanggal_terbit": "2022-07-07",
        "nomor_tanda_daftar": "003813.02/DJAI.PSE/07/2022",
        "qr_code": "http://pse.kominfo.go.id/api/v1/jsonapi/tdpse-terbit/qr-code/5159",
        "status_id": "TERDAFTAR",
        "sistem_elektronik_id": "5023",
        "keterangan": "-",
        "lokalitas": "LOKAL"
      },
      "links": {
        "self": "http://pse.kominfo.go.id/api/v1/jsonapi/tdpse-terbit/5159"
      }
    },
    {
      "type": "tdpseTerbit",
      "id": "5158",
      "attributes": {
        "nomor_pb_umku": "120500071257700000001",
        "nama": "MOCAAS",
        "website": "mocaas.tv",
        "sektor": "Sektor Teknologi Informasi dan Komunikasi",
        "nama_tampil_badan_hukum": "PT",
        "nama_perusahaan": "PT MOCAAS PAKAR TEKNOLOGI",
        "tanggal_daftar": "2022-07-07",
        "tanggal_terbit": "2022-07-07",
        "nomor_tanda_daftar": "003711.01/DJAI.PSE/07/2022",
        "qr_code": "http://pse.kominfo.go.id/api/v1/jsonapi/tdpse-terbit/qr-code/5158",
        "status_id": "TERDAFTAR",
        "sistem_elektronik_id": "5022",
        "keterangan": "-",
        "lokalitas": "LOKAL"
      },
      "links": {
        "self": "http://pse.kominfo.go.id/api/v1/jsonapi/tdpse-terbit/5158"
      }
    },
    {
      "type": "tdpseTerbit",
      "id": "5157",
      "attributes": {
        "nomor_pb_umku": "022000213259300020001",
        "nama": "WEBSITE PT INVESTINDO NUSANTARA SEKURITAS",
        "website": "investindosekuritas.co.id",
        "sektor": "Sektor Keuangan",
        "nama_tampil_badan_hukum": "PT",
        "nama_perusahaan": "PT INVESTINDO NUSANTARA SEKURITAS",
        "tanggal_daftar": "2022-07-07",
        "tanggal_terbit": "2022-07-07",
        "nomor_tanda_daftar": "003813.01/DJAI.PSE/07/2022",
        "qr_code": "http://pse.kominfo.go.id/api/v1/jsonapi/tdpse-terbit/qr-code/5157",
        "status_id": "TERDAFTAR",
        "sistem_elektronik_id": "5021",
        "keterangan": "-",
        "lokalitas": "LOKAL"
      },
      "links": {
        "self": "http://pse.kominfo.go.id/api/v1/jsonapi/tdpse-terbit/5157"
      }
    },
    {
      "type": "tdpseTerbit",
      "id": "5156",
      "attributes": {
        "nomor_pb_umku": "812001029058400050002",
        "nama": "NALLASTORE",
        "website": "nallastore.co.id",
        "sektor": "Sektor Perdagangan",
        "nama_tampil_badan_hukum": "PT",
        "nama_perusahaan": "PT NALLA REKAYASA TEKNOLOGI",
        "tanggal_daftar": "2022-07-07",
        "tanggal_terbit": "2022-07-07",
        "nomor_tanda_daftar": "003099.01/DJAI.PSE/07/2022",
        "qr_code": "http://pse.kominfo.go.id/api/v1/jsonapi/tdpse-terbit/qr-code/5156",
        "status_id": "TERDAFTAR",
        "sistem_elektronik_id": "5020",
        "keterangan": "-",
        "lokalitas": "LOKAL"
      },
      "links": {
        "self": "http://pse.kominfo.go.id/api/v1/jsonapi/tdpse-terbit/5156"
      }
    },
    {
      "type": "tdpseTerbit",
      "id": "5155",
      "attributes": {
        "nomor_pb_umku": "022060087248900000003",
        "nama": "MANPRO PROGRAMMER SOFTWARE",
        "website": "manpro.id",
        "sektor": "Sektor Teknologi Informasi dan Komunikasi",
        "nama_tampil_badan_hukum": "PT",
        "nama_perusahaan": "PT MANPRO TEKNOLOGI INDONESIA",
        "tanggal_daftar": "2022-07-06",
        "tanggal_terbit": "2022-07-06",
        "nomor_tanda_daftar": "000839.03/DJAI.PSE/07/2022",
        "qr_code": "http://pse.kominfo.go.id/api/v1/jsonapi/tdpse-terbit/qr-code/5155",
        "status_id": "TERDAFTAR",
        "sistem_elektronik_id": "5019",
        "keterangan": "-",
        "lokalitas": "LOKAL"
      },
      "links": {
        "self": "http://pse.kominfo.go.id/api/v1/jsonapi/tdpse-terbit/5155"
      }
    },
    {
      "type": "tdpseTerbit",
      "id": "5154",
      "attributes": {
        "nomor_pb_umku": "080622002914200000001",
        "nama": "TELEPANDU",
        "website": "-",
        "sektor": "Sektor Kesehatan",
        "nama_tampil_badan_hukum": "CV",
        "nama_perusahaan": "CV TELEMEDISIN PADJADJARAN TERPANDU",
        "tanggal_daftar": "2022-07-06",
        "tanggal_terbit": "2022-07-06",
        "nomor_tanda_daftar": "003076.01/DJAI.PSE/07/2022",
        "qr_code": "http://pse.kominfo.go.id/api/v1/jsonapi/tdpse-terbit/qr-code/5154",
        "status_id": "TERDAFTAR",
        "sistem_elektronik_id": "5017",
        "keterangan": "-",
        "lokalitas": "LOKAL"
      },
      "links": {
        "self": "http://pse.kominfo.go.id/api/v1/jsonapi/tdpse-terbit/5154"
      }
    },
    {
      "type": "tdpseTerbit",
      "id": "5153",
      "attributes": {
        "nomor_pb_umku": "021700094320500000001",
        "nama": "FAMMI",
        "website": "fammi.ly",
        "sektor": "Sektor Teknologi Informasi dan Komunikasi",
        "nama_tampil_badan_hukum": "PT",
        "nama_perusahaan": "PT FAMMI INDONESIA EDUTECH",
        "tanggal_daftar": "2022-07-06",
        "tanggal_terbit": "2022-07-06",
        "nomor_tanda_daftar": "003716.01/DJAI.PSE/07/2022",
        "qr_code": "http://pse.kominfo.go.id/api/v1/jsonapi/tdpse-terbit/qr-code/5153",
        "status_id": "TERDAFTAR",
        "sistem_elektronik_id": "5016",
        "keterangan": "-",
        "lokalitas": "LOKAL"
      },
      "links": {
        "self": "http://pse.kominfo.go.id/api/v1/jsonapi/tdpse-terbit/5153"
      }
    },
    {
      "type": "tdpseTerbit",
      "id": "5152",
      "attributes": {
        "nomor_pb_umku": "260821005057400010001",
        "nama": "M-OJEK",
        "website": "M-OJEK.COM",
        "sektor": "Sektor Transportasi",
        "nama_tampil_badan_hukum": "CV",
        "nama_perusahaan": "CV MEDAN OJEK INDONESIA",
        "tanggal_daftar": "2022-07-06",
        "tanggal_terbit": "2022-07-06",
        "nomor_tanda_daftar": "003815.01/DJAI.PSE/07/2022",
        "qr_code": "http://pse.kominfo.go.id/api/v1/jsonapi/tdpse-terbit/qr-code/5152",
        "status_id": "TERDAFTAR",
        "sistem_elektronik_id": "5015",
        "keterangan": "-",
        "lokalitas": "LOKAL"
      },
      "links": {
        "self": "http://pse.kominfo.go.id/api/v1/jsonapi/tdpse-terbit/5152"
      }
    },
    {
      "type": "tdpseTerbit",
      "id": "5151",
      "attributes": {
        "nomor_pb_umku": "060722003008500010001",
        "nama": "GHIBRANTRAVEL",
        "website": "ghibrantravel.com",
        "sektor": "Sektor Transportasi",
        "nama_tampil_badan_hukum": "",
        "nama_perusahaan": "YOEL ANDREAS MANOPPO",
        "tanggal_daftar": "2022-07-06",
        "tanggal_terbit": "2022-07-06",
        "nomor_tanda_daftar": "003817.01/DJAI.PSE/07/2022",
        "qr_code": "http://pse.kominfo.go.id/api/v1/jsonapi/tdpse-terbit/qr-code/5151",
        "status_id": "TERDAFTAR",
        "sistem_elektronik_id": "5014",
        "keterangan": "-",
        "lokalitas": "LOKAL"
      },
      "links": {
        "self": "http://pse.kominfo.go.id/api/v1/jsonapi/tdpse-terbit/5151"
      }
    },
    {
      "type": "tdpseTerbit",
      "id": "5150",
      "attributes": {
        "nomor_pb_umku": "124100022011700000001",
        "nama": "MEDIPLUS",
        "website": "mediplusindonesia.co.id",
        "sektor": "Sektor Kesehatan, Sektor Teknologi Informasi dan Komunikasi",
        "nama_tampil_badan_hukum": "PT",
        "nama_perusahaan": "PT MEDIPLUS KARYA INDONESIA",
        "tanggal_daftar": "2022-07-06",
        "tanggal_terbit": "2022-07-06",
        "nomor_tanda_daftar": "003793.01/DJAI.PSE/07/2022",
        "qr_code": "http://pse.kominfo.go.id/api/v1/jsonapi/tdpse-terbit/qr-code/5150",
        "status_id": "TERDAFTAR",
        "sistem_elektronik_id": "5013",
        "keterangan": "-",
        "lokalitas": "LOKAL"
      },
      "links": {
        "self": "http://pse.kominfo.go.id/api/v1/jsonapi/tdpse-terbit/5150"
      }
    }
  ]
}