{
  "meta": {
    "page": {
      "currentPage": 338,
      "from": 3371,
      "lastPage": 908,
      "perPage": 10,
      "to": 3380,
      "total": 9074
    }
  },
  "data": [
    {
      "type": "tdpseTerbit",
      "id": 5612,
      "attributes": {
        "nomor_pb_umku": "210921000070600000001",
        "nama": "ASSIST.ID",
        "website": "essensial.assist.id",
        "sektor": "Sektor Kesehatan, Sektor Teknologi Informasi dan Komunikasi",
        "nama_perusahaan": "TEKNOLOGI MEDIA MEDIKA",
        "tanggal_daftar": "2022-07-14",
        "nomor_tanda_daftar": "003877.01/DJAI.PSE/07/2022",
        "qr_code": "https://pse.kominfo.go.id/storage/images/qr_code/ec2222aeec454c9c1a50bf2522c0a1ce.png",
        "status_id": "TERDAFTAR",
        "sistem_elektronik_id": 5480
      }
    },
    {
      "type": "tdpseTerbit",
      "id": 5214,
      "attributes": {
        "nomor_pb_umku": "080722000906200000002",
        "nama": "STARINDO SANTOSO (TOKOPEDIA)",
        "website": "-",
        "sektor": "Sektor Perdagangan",
        "nama_perusahaan": "RATNAWATI",
        "tanggal_daftar": "2022-07-08",
        "nomor_tanda_daftar": "003876.03/DJAI.PSE/07/2022",
        "qr_code": "https://pse.kominfo.go.id/storage/images/qr_code/b96f11a8216617cf4207bc6404a406ba.png",
        "status_id": "TERDAFTAR",
        "sistem_elektronik_id": 5085
      }
    },
    {
      "type": "tdpseTerbit",
      "id": 5221,
      "attributes": {
        "nomor_pb_umku": "912030970011100040004",
        "nama": "MEGAXUS PAYMENT",
        "website": "Bill.megaxus.co.id",
        "sektor": "Sektor Teknologi Informasi dan Komunikasi",
        "nama_perusahaan": "MEGAXUS INFOTECH",
        "tanggal_daftar": "2022-07-08",
        "nomor_tanda_daftar": "003875.04/DJAI.PSE/07/2022",
        "qr_code": "https://pse.kominfo.go.id/storage/images/qr_code/03c66c3125080cd676fea98548d49b41.png",
        "status_id": "TERDAFTAR",
        "sistem_elektronik_id": 5091
      }
    },
    {
      "type": "tdpseTerbit",
      "id": 5219,
      "attributes": {
        "nomor_pb_umku": "912030970011100040002",
        "nama": "MEGAXUS INFOTECH",
        "website": "megaxus.com",
        "sektor": "Sektor Teknologi Informasi dan Komunikasi",
        "nama_perusahaan": "MEGAXUS INFOTECH",
        "tanggal_daftar": "2022-07-08",
        "nomor_tanda_daftar": "003875.03/DJAI.PSE/07/2022",
        "qr_code": "https://pse.kominfo.go.id/storage/images/qr_code/e5a07818ff0b28c1164da674ed842fb0.png",
        "status_id": "TERDAFTAR",
        "sistem_elektronik_id": 5090
      }
    },
    {
      "type": "tdpseTerbit",
      "id": 5220,
      "attributes": {
        "nomor_pb_umku": "912030970011100040003",
        "nama": "MEGAXUS.COM",
        "website": "megaxus.com",
        "sektor": "Sektor Teknologi Informasi dan Komunikasi",
        "nama_perusahaan": "MEGAXUS INFOTECH",
        "tanggal_daftar": "2022-07-08",
        "nomor_tanda_daftar": "003875.02/DJAI.PSE/07/2022",
        "qr_code": "https://pse.kominfo.go.id/storage/images/qr_code/ff29e371975a770302738c436bfcd586.png",
        "status_id": "TERDAFTAR",
        "sistem_elektronik_id": 5089
      }
    },
    {
      "type": "tdpseTerbit",
      "id": 5217,
      "attributes": {
        "nomor_pb_umku": "912030970011100040001",
        "nama": "DUNIAPP.COM (WEBSITE/PLATFORM UNTUK KONTEN DIGITAL, APLIKASI MOBILE GAME)",
        "website": "duniapp.com",
        "sektor": "Sektor Teknologi Informasi dan Komunikasi",
        "nama_perusahaan": "MEGAXUS INFOTECH",
        "tanggal_daftar": "2022-07-08",
        "nomor_tanda_daftar": "003875.01/DJAI.PSE/07/2022",
        "qr_code": "https://pse.kominfo.go.id/storage/images/qr_code/a02b7bebb3528563a2f0b681f40e54a3.png",
        "status_id": "TERDAFTAR",
        "sistem_elektronik_id": 5087
      }
    },
    {
      "type": "tdpseTerbit",
      "id": 9660,
      "attributes": {
        "nomor_pb_umku": "250122004708800010001",
        "nama": "WWW.SURYASOFT.COM",
        "website": "suryasoft.com",
        "sektor": "Sektor Teknologi Informasi dan Komunikasi",
        "nama_perusahaan": "SURYASOFT KONSULTAMA",
        "tanggal_daftar": "2022-08-02",
        "nomor_tanda_daftar": "003872.01/DJAI.PSE/08/2022",
        "qr_code": "https://pse.kominfo.go.id/storage/images/qr_code/9fbe2020b3a07644112c44ba09956e57.png",
        "status_id": "TERDAFTAR",
        "sistem_elektronik_id": 9540
      }
    },
    {
      "type": "tdpseTerbit",
      "id": 5200,
      "attributes": {
        "nomor_pb_umku": "070722007832600000004",
        "nama": "PORTAL.KRIST.ID",
        "website": "krist.id",
        "sektor": "Sektor Teknologi Informasi dan Komunikasi",
        "nama_perusahaan": "CHRIST BOLUNG NGANTUNG",
        "tanggal_daftar": "2022-07-07",
        "nomor_tanda_daftar": "003870.04/DJAI.PSE/07/2022",
        "qr_code": "https://pse.kominfo.go.id/storage/images/qr_code/fa595e7756d84331e5edd2f960236564.png",
        "status_id": "TERDAFTAR",
        "sistem_elektronik_id": 5072
      }
    },
    {
      "type": "tdpseTerbit",
      "id": 5199,
      "attributes": {
        "nomor_pb_umku": "070722007832600000003",
        "nama": "SHOP.KRIST.ID",
        "website": "krist.id",
        "sektor": "Sektor Teknologi Informasi dan Komunikasi",
        "nama_perusahaan": "CHRIST BOLUNG NGANTUNG",
        "tanggal_daftar": "2022-07-07",
        "nomor_tanda_daftar": "003870.03/DJAI.PSE/07/2022",
        "qr_code": "https://pse.kominfo.go.id/storage/images/qr_code/d0fca41d235846cb655a273cfc2a3ecc.png",
        "status_id": "TERDAFTAR",
        "sistem_elektronik_id": 5071
      }
    },
    {
      "type": "tdpseTerbit",
      "id": 5198,
      "attributes": {
        "nomor_pb_umku": "070722007832600000002",
        "nama": "SOFTWARE.KRIST.ID",
        "website": "krist.id",
        "sektor": "Sektor Teknologi Informasi dan Komunikasi",
        "nama_perusahaan": "CHRIST BOLUNG NGANTUNG",
        "tanggal_daftar": "2022-07-07",
        "nomor_tanda_daftar": "003870.02/DJAI.PSE/07/2022",
        "qr_code": "https://pse.kominfo.go.id/storage/images/qr_code/70f51d6701cc42b4357cd7cafd97c2db.png",
        "status_id": "TERDAFTAR",
        "sistem_elektronik_id": 5070
      }
    }
  ]
}