{
  "meta": {
    "page": {
      "currentPage": 35,
      "from": 341,
      "lastPage": 1113,
      "perPage": 10,
      "to": 350,
      "total": 11124
    }
  },
  "data": [
    {
      "type": "tdpseTerbit",
      "id": 11855,
      "attributes": {
        "nomor_pb_umku": "021901016263800010001",
        "nama": "TERAMEDICS – HOSPITAL INFORMATION SYSTEM",
        "website": "-",
        "sektor": "Sektor Kesehatan, Sektor Teknologi Informasi dan Komunikasi",
        "nama_perusahaan": "TERA SOLUSI",
        "tanggal_daftar": "2022-10-18",
        "nomor_tanda_daftar": "008157.01/DJAI.PSE/10/2022",
        "qr_code": "https://pse.kominfo.go.id/storage/images/qr_code/29578018f1e7f1b931fe82880e6ae2d8.png",
        "status_id": "TERDAFTAR",
        "sistem_elektronik_id": 11658
      }
    },
    {
      "type": "tdpseTerbit",
      "id": 11858,
      "attributes": {
        "nomor_pb_umku": "022010432240400020001",
        "nama": "CAPIO TEKNOLOGI",
        "website": "capioteknologi.co.id",
        "sektor": "Sektor Perdagangan",
        "nama_perusahaan": "CAPIO TEKNOLOGI INDONESIA",
        "tanggal_daftar": "2022-10-18",
        "nomor_tanda_daftar": "008156.01/DJAI.PSE/10/2022",
        "qr_code": "https://pse.kominfo.go.id/storage/images/qr_code/51d662a6d2a1e14a0caa4ec6e6f6457f.png",
        "status_id": "TERDAFTAR",
        "sistem_elektronik_id": 11656
      }
    },
    {
      "type": "tdpseTerbit",
      "id": 11844,
      "attributes": {
        "nomor_pb_umku": "912010687088200010001",
        "nama": "KOPERASI MAJU",
        "website": "koperasimaju.com",
        "sektor": "Sektor Keuangan",
        "nama_perusahaan": "KOPERASI SIMPAN PINJAM MAJU WIJAYA",
        "tanggal_daftar": "2022-10-18",
        "nomor_tanda_daftar": "008155.01/DJAI.PSE/10/2022",
        "qr_code": "https://pse.kominfo.go.id/storage/images/qr_code/7dc2695f9d856cbf022e91b0e5bf743b.png",
        "status_id": "TERDAFTAR",
        "sistem_elektronik_id": 11647
      }
    },
    {
      "type": "tdpseTerbit",
      "id": 11879,
      "attributes": {
        "nomor_pb_umku": "050922006236300000001",
        "nama": "CATAPA",
        "website": "catapa.com",
        "sektor": "Sektor Teknologi Informasi dan Komunikasi",
        "nama_perusahaan": "CITRA TEKNOLOGI PINTAR",
        "tanggal_daftar": "2022-10-19",
        "nomor_tanda_daftar": "008154.01/DJAI.PSE/10/2022",
        "qr_code": "https://pse.kominfo.go.id/storage/images/qr_code/bcf743e2d479823308d0b3ba60f70155.png",
        "status_id": "TERDAFTAR",
        "sistem_elektronik_id": 11681
      }
    },
    {
      "type": "tdpseTerbit",
      "id": 11859,
      "attributes": {
        "nomor_pb_umku": "141022006989300030001",
        "nama": "DECA",
        "website": "deca.co.id",
        "sektor": "Sektor Teknologi Informasi dan Komunikasi",
        "nama_perusahaan": "DELTA OMEGA BETA",
        "tanggal_daftar": "2022-10-18",
        "nomor_tanda_daftar": "008153.01/DJAI.PSE/10/2022",
        "qr_code": "https://pse.kominfo.go.id/storage/images/qr_code/3697a682f5a1f7f9cadbf71018ed9535.png",
        "status_id": "TERDAFTAR",
        "sistem_elektronik_id": 11661
      }
    },
    {
      "type": "tdpseTerbit",
      "id": 11863,
      "attributes": {
        "nomor_pb_umku": "912010151007400030006",
        "nama": "AGRATEK",
        "website": "agratek.id",
        "sektor": "Sektor Perdagangan",
        "nama_perusahaan": "AGRA TEKNOLOGI SELARAS",
        "tanggal_daftar": "2022-10-18",
        "nomor_tanda_daftar": "008151.05/DJAI.PSE/10/2022",
        "qr_code": "https://pse.kominfo.go.id/storage/images/qr_code/4fc4d6b99bf2114e2f837c7fa88ea825.png",
        "status_id": "TERDAFTAR",
        "sistem_elektronik_id": 11665
      }
    },
    {
      "type": "tdpseTerbit",
      "id": 11857,
      "attributes": {
        "nomor_pb_umku": "912010151007400030005",
        "nama": "PT AGRATEK",
        "website": "agratek.id",
        "sektor": "Sektor Perdagangan",
        "nama_perusahaan": "AGRA TEKNOLOGI SELARAS",
        "tanggal_daftar": "2022-10-18",
        "nomor_tanda_daftar": "008151.04/DJAI.PSE/10/2022",
        "qr_code": "https://pse.kominfo.go.id/storage/images/qr_code/b2086d3971539018c451d2e5aa815b44.png",
        "status_id": "TERDAFTAR",
        "sistem_elektronik_id": 11660
      }
    },
    {
      "type": "tdpseTerbit",
      "id": 11856,
      "attributes": {
        "nomor_pb_umku": "912010151007400030004",
        "nama": "AGRA TEKNOLOGI SELARAS PT",
        "website": "agratek.id",
        "sektor": "Sektor Perdagangan",
        "nama_perusahaan": "AGRA TEKNOLOGI SELARAS",
        "tanggal_daftar": "2022-10-18",
        "nomor_tanda_daftar": "008151.03/DJAI.PSE/10/2022",
        "qr_code": "https://pse.kominfo.go.id/storage/images/qr_code/e7590aa01900514de1adb46e240737e6.png",
        "status_id": "TERDAFTAR",
        "sistem_elektronik_id": 11659
      }
    },
    {
      "type": "tdpseTerbit",
      "id": 11854,
      "attributes": {
        "nomor_pb_umku": "912010151007400030003",
        "nama": "AGRA TEKNOLOGI SELARAS",
        "website": "agratek.id",
        "sektor": "Sektor Perdagangan",
        "nama_perusahaan": "AGRA TEKNOLOGI SELARAS",
        "tanggal_daftar": "2022-10-18",
        "nomor_tanda_daftar": "008151.02/DJAI.PSE/10/2022",
        "qr_code": "https://pse.kominfo.go.id/storage/images/qr_code/bfd4b556d11ca5386e28e5c3a5c6bcb2.png",
        "status_id": "TERDAFTAR",
        "sistem_elektronik_id": 11657
      }
    },
    {
      "type": "tdpseTerbit",
      "id": 11843,
      "attributes": {
        "nomor_pb_umku": "912010151007400030002",
        "nama": "PT AGRA TEKNOLOGI SELARAS",
        "website": "agratek.id",
        "sektor": "Sektor Perdagangan",
        "nama_perusahaan": "AGRA TEKNOLOGI SELARAS",
        "tanggal_daftar": "2022-10-18",
        "nomor_tanda_daftar": "008151.01/DJAI.PSE/10/2022",
        "qr_code": "https://pse.kominfo.go.id/storage/images/qr_code/8a429f9a8fd71b816ce69f28c4c3e2fa.png",
        "status_id": "TERDAFTAR",
        "sistem_elektronik_id": 11646
      }
    }
  ]
}