{
  "meta": {
    "page": {
      "currentPage": 340,
      "from": 3391,
      "lastPage": 816,
      "perPage": 10,
      "to": 3400,
      "total": 8153
    }
  },
  "jsonapi": {
    "version": "1.0"
  },
  "links": {
    "first": "http://pse.kominfo.go.id/api/v1/jsonapi/tdpse-terbit?page%5Blimit%5D=10&page%5Bpage%5D=1",
    "last": "http://pse.kominfo.go.id/api/v1/jsonapi/tdpse-terbit?page%5Blimit%5D=10&page%5Bpage%5D=816",
    "next": "http://pse.kominfo.go.id/api/v1/jsonapi/tdpse-terbit?page%5Blimit%5D=10&page%5Bpage%5D=341",
    "prev": "http://pse.kominfo.go.id/api/v1/jsonapi/tdpse-terbit?page%5Blimit%5D=10&page%5Bpage%5D=339"
  },
  "data": [
    {
      "type": "tdpseTerbit",
      "id": "5082",
      "attributes": {
        "nomor_pb_umku": "250122006011400000001",
        "nama": "DOCUM4NT",
        "website": "-",
        "sektor": "Sektor Teknologi Informasi dan Komunikasi",
        "nama_tampil_badan_hukum": "PT",
        "nama_perusahaan": "PT INDONESIA TANGGUH TUMBUH SELALU",
        "tanggal_daftar": "2022-07-05",
        "tanggal_terbit": "2022-07-05",
        "nomor_tanda_daftar": "003307.01/DJAI.PSE/07/2022",
        "qr_code": "http://pse.kominfo.go.id/api/v1/jsonapi/tdpse-terbit/qr-code/5082",
        "status_id": "TERDAFTAR",
        "sistem_elektronik_id": "4948",
        "keterangan": "-",
        "lokalitas": "LOKAL"
      },
      "links": {
        "self": "http://pse.kominfo.go.id/api/v1/jsonapi/tdpse-terbit/5082"
      }
    },
    {
      "type": "tdpseTerbit",
      "id": "5081",
      "attributes": {
        "nomor_pb_umku": "310821001526600010001",
        "nama": "CYANSYS",
        "website": "-",
        "sektor": "Sektor Perdagangan, Sektor Keuangan",
        "nama_tampil_badan_hukum": "PT",
        "nama_perusahaan": "PT CYANSYS",
        "tanggal_daftar": "2022-07-05",
        "tanggal_terbit": "2022-07-05",
        "nomor_tanda_daftar": "003753.01/DJAI.PSE/07/2022",
        "qr_code": "http://pse.kominfo.go.id/api/v1/jsonapi/tdpse-terbit/qr-code/5081",
        "status_id": "TERDAFTAR",
        "sistem_elektronik_id": "4947",
        "keterangan": "-",
        "lokalitas": "LOKAL"
      },
      "links": {
        "self": "http://pse.kominfo.go.id/api/v1/jsonapi/tdpse-terbit/5081"
      }
    },
    {
      "type": "tdpseTerbit",
      "id": "5080",
      "attributes": {
        "nomor_pb_umku": "912040782239800030001",
        "nama": "ESI-ON",
        "website": "esi-on.com",
        "sektor": "Sektor Keuangan",
        "nama_tampil_badan_hukum": "PT",
        "nama_perusahaan": "PT EQUITY SEKURITAS INDONESIA",
        "tanggal_daftar": "2022-07-05",
        "tanggal_terbit": "2022-07-05",
        "nomor_tanda_daftar": "003746.01/DJAI.PSE/07/2022",
        "qr_code": "http://pse.kominfo.go.id/api/v1/jsonapi/tdpse-terbit/qr-code/5080",
        "status_id": "TERDAFTAR",
        "sistem_elektronik_id": "4945",
        "keterangan": "-",
        "lokalitas": "LOKAL"
      },
      "links": {
        "self": "http://pse.kominfo.go.id/api/v1/jsonapi/tdpse-terbit/5080"
      }
    },
    {
      "type": "tdpseTerbit",
      "id": "5079",
      "attributes": {
        "nomor_pb_umku": "128100244139300060002",
        "nama": "AWS INDONESIA",
        "website": "blitznet.co.id",
        "sektor": "Sektor Perdagangan, Sektor Teknologi Informasi dan Komunikasi",
        "nama_tampil_badan_hukum": "PT",
        "nama_perusahaan": "PT BLITZNET UPAYA INDONESIA",
        "tanggal_daftar": "2022-07-05",
        "tanggal_terbit": "2022-07-05",
        "nomor_tanda_daftar": "003518.01/DJAI.PSE/07/2022",
        "qr_code": "http://pse.kominfo.go.id/api/v1/jsonapi/tdpse-terbit/qr-code/5079",
        "status_id": "TERDAFTAR",
        "sistem_elektronik_id": "4944",
        "keterangan": "-",
        "lokalitas": "LOKAL"
      },
      "links": {
        "self": "http://pse.kominfo.go.id/api/v1/jsonapi/tdpse-terbit/5079"
      }
    },
    {
      "type": "tdpseTerbit",
      "id": "5078",
      "attributes": {
        "nomor_pb_umku": "912020954230500010001",
        "nama": "WEBSITE MAYBANK FINANCE",
        "website": "maybankfinance.co.id",
        "sektor": "Sektor Perdagangan",
        "nama_tampil_badan_hukum": "PT",
        "nama_perusahaan": "PT MAYBANK INDONESIA FINANCE",
        "tanggal_daftar": "2022-07-05",
        "tanggal_terbit": "2022-07-05",
        "nomor_tanda_daftar": "003479.01/DJAI.PSE/07/2022",
        "qr_code": "http://pse.kominfo.go.id/api/v1/jsonapi/tdpse-terbit/qr-code/5078",
        "status_id": "TERDAFTAR",
        "sistem_elektronik_id": "4943",
        "keterangan": "-",
        "lokalitas": "LOKAL"
      },
      "links": {
        "self": "http://pse.kominfo.go.id/api/v1/jsonapi/tdpse-terbit/5078"
      }
    },
    {
      "type": "tdpseTerbit",
      "id": "5077",
      "attributes": {
        "nomor_pb_umku": "180322003869300010003",
        "nama": "FAST MOBILE",
        "website": "facsekuritas.co.id",
        "sektor": "Sektor Keuangan",
        "nama_tampil_badan_hukum": "PT",
        "nama_perusahaan": "PT FAC SEKURITAS INDONESIA",
        "tanggal_daftar": "2022-07-05",
        "tanggal_terbit": "2022-07-05",
        "nomor_tanda_daftar": "003552.03/DJAI.PSE/07/2022",
        "qr_code": "http://pse.kominfo.go.id/api/v1/jsonapi/tdpse-terbit/qr-code/5077",
        "status_id": "TERDAFTAR",
        "sistem_elektronik_id": "4942",
        "keterangan": "-",
        "lokalitas": "LOKAL"
      },
      "links": {
        "self": "http://pse.kominfo.go.id/api/v1/jsonapi/tdpse-terbit/5077"
      }
    },
    {
      "type": "tdpseTerbit",
      "id": "5076",
      "attributes": {
        "nomor_pb_umku": "180322003869300010002",
        "nama": "FAST WEB",
        "website": "web.facsekuritas.co.id",
        "sektor": "Sektor Keuangan",
        "nama_tampil_badan_hukum": "PT",
        "nama_perusahaan": "PT FAC SEKURITAS INDONESIA",
        "tanggal_daftar": "2022-07-05",
        "tanggal_terbit": "2022-07-05",
        "nomor_tanda_daftar": "003552.02/DJAI.PSE/07/2022",
        "qr_code": "http://pse.kominfo.go.id/api/v1/jsonapi/tdpse-terbit/qr-code/5076",
        "status_id": "TERDAFTAR",
        "sistem_elektronik_id": "4941",
        "keterangan": "-",
        "lokalitas": "LOKAL"
      },
      "links": {
        "self": "http://pse.kominfo.go.id/api/v1/jsonapi/tdpse-terbit/5076"
      }
    },
    {
      "type": "tdpseTerbit",
      "id": "5075",
      "attributes": {
        "nomor_pb_umku": "121100061233400010001",
        "nama": "CV MINIMALIS MULTI SOLUSI",
        "website": "mbizmarket.co.id",
        "sektor": "Sektor Perdagangan",
        "nama_tampil_badan_hukum": "CV",
        "nama_perusahaan": "CV MINIMALIS MULTI SOLUSI",
        "tanggal_daftar": "2022-07-05",
        "tanggal_terbit": "2022-07-05",
        "nomor_tanda_daftar": "003742.01/DJAI.PSE/07/2022",
        "qr_code": "http://pse.kominfo.go.id/api/v1/jsonapi/tdpse-terbit/qr-code/5075",
        "status_id": "TERDAFTAR",
        "sistem_elektronik_id": "4940",
        "keterangan": "-",
        "lokalitas": "LOKAL"
      },
      "links": {
        "self": "http://pse.kominfo.go.id/api/v1/jsonapi/tdpse-terbit/5075"
      }
    },
    {
      "type": "tdpseTerbit",
      "id": "5074",
      "attributes": {
        "nomor_pb_umku": "180322003869300010001",
        "nama": "FAST DESKTOP",
        "website": "facsekuritas.co.id",
        "sektor": "Sektor Keuangan",
        "nama_tampil_badan_hukum": "PT",
        "nama_perusahaan": "PT FAC SEKURITAS INDONESIA",
        "tanggal_daftar": "2022-07-05",
        "tanggal_terbit": "2022-07-05",
        "nomor_tanda_daftar": "003552.01/DJAI.PSE/07/2022",
        "qr_code": "http://pse.kominfo.go.id/api/v1/jsonapi/tdpse-terbit/qr-code/5074",
        "status_id": "TERDAFTAR",
        "sistem_elektronik_id": "4939",
        "keterangan": "-",
        "lokalitas": "LOKAL"
      },
      "links": {
        "self": "http://pse.kominfo.go.id/api/v1/jsonapi/tdpse-terbit/5074"
      }
    },
    {
      "type": "tdpseTerbit",
      "id": "5072",
      "attributes": {
        "nomor_pb_umku": "",
        "nama": "WEBSITE ELIT SUKSES SEKURITAS",
        "website": "elitsuksessekuritas.com",
        "sektor": "Sektor Keuangan",
        "nama_tampil_badan_hukum": "PT",
        "nama_perusahaan": "PT ELIT SUKSES SEKURITAS",
        "tanggal_daftar": "2022-07-05",
        "tanggal_terbit": "2022-07-05",
        "nomor_tanda_daftar": "003389.01/DJAI.PSE/07/2022",
        "qr_code": "http://pse.kominfo.go.id/api/v1/jsonapi/tdpse-terbit/qr-code/5072",
        "status_id": "TERDAFTAR",
        "sistem_elektronik_id": "4938",
        "keterangan": "-",
        "lokalitas": "LOKAL"
      },
      "links": {
        "self": "http://pse.kominfo.go.id/api/v1/jsonapi/tdpse-terbit/5072"
      }
    }
  ]
}