{
  "meta": {
    "page": {
      "currentPage": 351,
      "from": 3501,
      "lastPage": 912,
      "perPage": 10,
      "to": 3510,
      "total": 9118
    }
  },
  "data": [
    {
      "type": "tdpseTerbit",
      "id": 5923,
      "attributes": {
        "nomor_pb_umku": "912020572150200030002",
        "nama": "EDUCOURSE.ID",
        "website": "educourse.id",
        "sektor": "Sektor Teknologi Informasi dan Komunikasi",
        "nama_perusahaan": "MALEO EDUKASI TEKNOLOGI",
        "tanggal_daftar": "2022-07-16",
        "nomor_tanda_daftar": "003805.02/DJAI.PSE/07/2022",
        "qr_code": "https://pse.kominfo.go.id/storage/images/qr_code/da819b076dc7ed9b6596c5ae7e2ea7cc.png",
        "status_id": "TERDAFTAR",
        "sistem_elektronik_id": 5784
      }
    },
    {
      "type": "tdpseTerbit",
      "id": 5139,
      "attributes": {
        "nomor_pb_umku": "912020572150200020001",
        "nama": "EDUCOURSE FOR SCHOOL",
        "website": "school.educourse.id",
        "sektor": "Sektor Teknologi Informasi dan Komunikasi",
        "nama_perusahaan": "MALEO EDUKASI TEKNOLOGI",
        "tanggal_daftar": "2022-07-06",
        "nomor_tanda_daftar": "003805.01/DJAI.PSE/07/2022",
        "qr_code": "https://pse.kominfo.go.id/storage/images/qr_code/1b2c2e03f8bdbed6c9fb1f8f9fcb292a.png",
        "status_id": "TERDAFTAR",
        "sistem_elektronik_id": 5002
      }
    },
    {
      "type": "tdpseTerbit",
      "id": 5136,
      "attributes": {
        "nomor_pb_umku": "027800099141200080001",
        "nama": "SISTEM INFORMASI PENGADAAN DI SEKOLAH",
        "website": "siplah.kemdikbud.go.id",
        "sektor": "Sektor Perdagangan, Sektor Teknologi Informasi dan Komunikasi",
        "nama_perusahaan": "TANAH AIR TEKNOLOGI",
        "tanggal_daftar": "2022-07-06",
        "nomor_tanda_daftar": "003804.01/DJAI.PSE/07/2022",
        "qr_code": "https://pse.kominfo.go.id/storage/images/qr_code/ddd04b5b6aa465c376f44c7b952b553f.png",
        "status_id": "TERDAFTAR",
        "sistem_elektronik_id": 4999
      }
    },
    {
      "type": "tdpseTerbit",
      "id": 5644,
      "attributes": {
        "nomor_pb_umku": "912040796192200010001",
        "nama": "ETAB TECHNOLOGIES",
        "website": "etabtech.com",
        "sektor": "Sektor Teknologi Informasi dan Komunikasi",
        "nama_perusahaan": "PRIMA DIGITAMA MEDIA",
        "tanggal_daftar": "2022-07-14",
        "nomor_tanda_daftar": "003802.01/DJAI.PSE/07/2022",
        "qr_code": "https://pse.kominfo.go.id/storage/images/qr_code/acc8200000977de50e97ebd9a0e084bd.png",
        "status_id": "TERDAFTAR",
        "sistem_elektronik_id": 5453
      }
    },
    {
      "type": "tdpseTerbit",
      "id": 5742,
      "attributes": {
        "nomor_pb_umku": "812001723173300010003",
        "nama": "DAYIN CARE",
        "website": "-",
        "sektor": "Sektor Keuangan",
        "nama_perusahaan": "ASURANSI DAYIN MITRA",
        "tanggal_daftar": "2022-07-15",
        "nomor_tanda_daftar": "003801.03/DJAI.PSE/07/2022",
        "qr_code": "https://pse.kominfo.go.id/storage/images/qr_code/e7f4bbece20f575be71d79de3ac85d34.png",
        "status_id": "TERDAFTAR",
        "sistem_elektronik_id": 5607
      }
    },
    {
      "type": "tdpseTerbit",
      "id": 5730,
      "attributes": {
        "nomor_pb_umku": "812001723173300010002",
        "nama": "APLIKASI DAYIN MOBILE",
        "website": "-",
        "sektor": "Sektor Keuangan",
        "nama_perusahaan": "ASURANSI DAYIN MITRA",
        "tanggal_daftar": "2022-07-15",
        "nomor_tanda_daftar": "003801.02/DJAI.PSE/07/2022",
        "qr_code": "https://pse.kominfo.go.id/storage/images/qr_code/dc606cc641b5c27a934a0d80b1169324.png",
        "status_id": "TERDAFTAR",
        "sistem_elektronik_id": 5591
      }
    },
    {
      "type": "tdpseTerbit",
      "id": 5718,
      "attributes": {
        "nomor_pb_umku": "812001723173300010001",
        "nama": "WEB PORTAL WWW.ASURANSIDAYINMITRA.COM",
        "website": "asuransidayinmitra.com",
        "sektor": "Sektor Keuangan",
        "nama_perusahaan": "ASURANSI DAYIN MITRA",
        "tanggal_daftar": "2022-07-15",
        "nomor_tanda_daftar": "003801.01/DJAI.PSE/07/2022",
        "qr_code": "https://pse.kominfo.go.id/storage/images/qr_code/b089e79ab938575437bc9d1cf937aa15.png",
        "status_id": "TERDAFTAR",
        "sistem_elektronik_id": 5584
      }
    },
    {
      "type": "tdpseTerbit",
      "id": 5133,
      "attributes": {
        "nomor_pb_umku": "060722005591500000001",
        "nama": "PT. TIM LEGAL CORP",
        "website": "jasakulegalitas.com",
        "sektor": "Sektor Perdagangan",
        "nama_perusahaan": "TIM LEGAL CORP",
        "tanggal_daftar": "2022-07-06",
        "nomor_tanda_daftar": "003800.01/DJAI.PSE/07/2022",
        "qr_code": "https://pse.kominfo.go.id/storage/images/qr_code/8db197edad3bfe339464b4deea423848.png",
        "status_id": "TERDAFTAR",
        "sistem_elektronik_id": 4996
      }
    },
    {
      "type": "tdpseTerbit",
      "id": 5218,
      "attributes": {
        "nomor_pb_umku": "211221001451400010001",
        "nama": "PT MAXS DIGITAL TEKNOLOGI",
        "website": "maxspos.com",
        "sektor": "Sektor Teknologi Informasi dan Komunikasi",
        "nama_perusahaan": "MAXS DIGITAL TEKNOLOGI",
        "tanggal_daftar": "2022-07-08",
        "nomor_tanda_daftar": "003799.01/DJAI.PSE/07/2022",
        "qr_code": "https://pse.kominfo.go.id/storage/images/qr_code/b7b6c8c25c9d8b5eb2917a9dcaa11d2d.png",
        "status_id": "TERDAFTAR",
        "sistem_elektronik_id": 5088
      }
    },
    {
      "type": "tdpseTerbit",
      "id": 5131,
      "attributes": {
        "nomor_pb_umku": "812010379286800000002",
        "nama": "MINISO APPLICATION",
        "website": "miniso.co.id",
        "sektor": "Sektor Perdagangan",
        "nama_perusahaan": "Miniso Internasional Compani",
        "tanggal_daftar": "2022-07-06",
        "nomor_tanda_daftar": "003798.02/DJAI.PSE/07/2022",
        "qr_code": "https://pse.kominfo.go.id/storage/images/qr_code/419f08ff9e57b2ca5258c10302e9eb7d.png",
        "status_id": "TERDAFTAR",
        "sistem_elektronik_id": 4995
      }
    }
  ]
}