{
  "meta": {
    "page": {
      "currentPage": 358,
      "from": 3571,
      "lastPage": 1047,
      "perPage": 10,
      "to": 3580,
      "total": 10470
    }
  },
  "data": [
    {
      "type": "tdpseTerbit",
      "id": 6835,
      "attributes": {
        "nomor_pb_umku": "912030593192500010003",
        "nama": "WEBSITE BPR INDRA",
        "website": "bprindra.com",
        "sektor": "Sektor Keuangan",
        "nama_perusahaan": "BANK PERKREDITAN RAKYAT INDRA CANDRA",
        "tanggal_daftar": "2022-07-19",
        "nomor_tanda_daftar": "004579.03/DJAI.PSE/07/2022",
        "qr_code": "https://pse.kominfo.go.id/storage/images/qr_code/0697a0bfa18aabedf6cf98cae9bc3739.png",
        "status_id": "TERDAFTAR",
        "sistem_elektronik_id": 6665
      }
    },
    {
      "type": "tdpseTerbit",
      "id": 6283,
      "attributes": {
        "nomor_pb_umku": "",
        "nama": "EDC",
        "website": "BPRINDRA.COM",
        "sektor": "Sektor Keuangan",
        "nama_perusahaan": "BANK PERKREDITAN RAKYAT INDRA CANDRA",
        "tanggal_daftar": "2022-07-18",
        "nomor_tanda_daftar": "004579.02/DJAI.PSE/07/2022",
        "qr_code": "https://pse.kominfo.go.id/storage/images/qr_code/d6ed573f64b778d91d768343ffe4b8ee.png",
        "status_id": "TERDAFTAR",
        "sistem_elektronik_id": 6143
      }
    },
    {
      "type": "tdpseTerbit",
      "id": 6249,
      "attributes": {
        "nomor_pb_umku": "912030593192500010001",
        "nama": "INDRA MOBILE",
        "website": "bprindra.com",
        "sektor": "Sektor Keuangan",
        "nama_perusahaan": "BANK PERKREDITAN RAKYAT INDRA CANDRA",
        "tanggal_daftar": "2022-07-18",
        "nomor_tanda_daftar": "004579.01/DJAI.PSE/07/2022",
        "qr_code": "https://pse.kominfo.go.id/storage/images/qr_code/42f6382ec1c72eb94bd7f0b6a38db187.png",
        "status_id": "TERDAFTAR",
        "sistem_elektronik_id": 6110
      }
    },
    {
      "type": "tdpseTerbit",
      "id": 7770,
      "attributes": {
        "nomor_pb_umku": "912000571215100010001",
        "nama": "BPR KMK",
        "website": "bprkmk.com",
        "sektor": "Sektor Keuangan",
        "nama_perusahaan": "BANK PERKREDITAN RAKYAT KLEPU MITRA KENCANA",
        "tanggal_daftar": "2022-07-20",
        "nomor_tanda_daftar": "004578.03/DJAI.PSE/07/2022",
        "qr_code": "https://pse.kominfo.go.id/storage/images/qr_code/864f7dba9422d713a89b585014915ec3.png",
        "status_id": "TERDAFTAR",
        "sistem_elektronik_id": 7681
      }
    },
    {
      "type": "tdpseTerbit",
      "id": 6215,
      "attributes": {
        "nomor_pb_umku": "",
        "nama": "IBS USSI",
        "website": "-",
        "sektor": "Sektor Keuangan",
        "nama_perusahaan": "BANK PERKREDITAN RAKYAT SARI WERDHI SEDANA",
        "tanggal_daftar": "2022-07-18",
        "nomor_tanda_daftar": "004577.01/DJAI.PSE/07/2022",
        "qr_code": "https://pse.kominfo.go.id/storage/images/qr_code/1941ff1670e87b6b95b8dd9ea4e16c9b.png",
        "status_id": "TERDAFTAR",
        "sistem_elektronik_id": 6078
      }
    },
    {
      "type": "tdpseTerbit",
      "id": 11352,
      "attributes": {
        "nomor_pb_umku": "022010510277400010007",
        "nama": "AMMANA LENDER",
        "website": "-",
        "sektor": "Sektor Keuangan, Sektor Teknologi Informasi dan Komunikasi",
        "nama_perusahaan": "AMMANA FINTEK SYARIAH",
        "tanggal_daftar": "2022-09-26",
        "nomor_tanda_daftar": "004576.04/DJAI.PSE/09/2022",
        "qr_code": "https://pse.kominfo.go.id/storage/images/qr_code/4af2288a4a56b4fa5891614e03ddf5fd.png",
        "status_id": "TERDAFTAR",
        "sistem_elektronik_id": 11167
      }
    },
    {
      "type": "tdpseTerbit",
      "id": 11351,
      "attributes": {
        "nomor_pb_umku": "022010510277400010006",
        "nama": "AMMANA MOBILE IOS APPLICATION",
        "website": "-",
        "sektor": "Sektor Keuangan, Sektor Teknologi Informasi dan Komunikasi",
        "nama_perusahaan": "AMMANA FINTEK SYARIAH",
        "tanggal_daftar": "2022-09-26",
        "nomor_tanda_daftar": "004576.03/DJAI.PSE/09/2022",
        "qr_code": "https://pse.kominfo.go.id/storage/images/qr_code/405790e947c9b78f5e9d405ec1a44fcb.png",
        "status_id": "TERDAFTAR",
        "sistem_elektronik_id": 11166
      }
    },
    {
      "type": "tdpseTerbit",
      "id": 11350,
      "attributes": {
        "nomor_pb_umku": "022010510277400010005",
        "nama": "AMMANA MOBILE ANDROID APPLICATION",
        "website": "-",
        "sektor": "Sektor Keuangan, Sektor Teknologi Informasi dan Komunikasi",
        "nama_perusahaan": "AMMANA FINTEK SYARIAH",
        "tanggal_daftar": "2022-09-26",
        "nomor_tanda_daftar": "004576.02/DJAI.PSE/09/2022",
        "qr_code": "https://pse.kominfo.go.id/storage/images/qr_code/7d5f84974770656f2f615c08d8d1615c.png",
        "status_id": "TERDAFTAR",
        "sistem_elektronik_id": 11164
      }
    },
    {
      "type": "tdpseTerbit",
      "id": 6622,
      "attributes": {
        "nomor_pb_umku": "022010510277400010001",
        "nama": "AMMANA",
        "website": "ammana.id",
        "sektor": "Sektor Keuangan, Sektor Teknologi Informasi dan Komunikasi",
        "nama_perusahaan": "AMMANA FINTEK SYARIAH",
        "tanggal_daftar": "2022-07-19",
        "nomor_tanda_daftar": "004576.01/DJAI.PSE/07/2022",
        "qr_code": "https://pse.kominfo.go.id/storage/images/qr_code/3a888c03b5929030715038228557e2d9.png",
        "status_id": "TERDAFTAR",
        "sistem_elektronik_id": 6461
      }
    },
    {
      "type": "tdpseTerbit",
      "id": 6307,
      "attributes": {
        "nomor_pb_umku": "912031305241800010001",
        "nama": "PT BPR NUSANTARA BONA PASOGIT 34",
        "website": "bprnbp34.com",
        "sektor": "Sektor Keuangan",
        "nama_perusahaan": "BANK PERKREDITAN RAKYAT NUSANTARA BONA PASOGIT 34",
        "tanggal_daftar": "2022-07-18",
        "nomor_tanda_daftar": "004575.01/DJAI.PSE/07/2022",
        "qr_code": "https://pse.kominfo.go.id/storage/images/qr_code/ebf9ef400b0d07895b145eaea7927284.png",
        "status_id": "TERDAFTAR",
        "sistem_elektronik_id": 6173
      }
    }
  ]
}