{
  "meta": {
    "page": {
      "currentPage": 360,
      "from": 3591,
      "lastPage": 816,
      "perPage": 10,
      "to": 3600,
      "total": 8153
    }
  },
  "jsonapi": {
    "version": "1.0"
  },
  "links": {
    "first": "http://pse.kominfo.go.id/api/v1/jsonapi/tdpse-terbit?page%5Blimit%5D=10&page%5Bpage%5D=1",
    "last": "http://pse.kominfo.go.id/api/v1/jsonapi/tdpse-terbit?page%5Blimit%5D=10&page%5Bpage%5D=816",
    "next": "http://pse.kominfo.go.id/api/v1/jsonapi/tdpse-terbit?page%5Blimit%5D=10&page%5Bpage%5D=361",
    "prev": "http://pse.kominfo.go.id/api/v1/jsonapi/tdpse-terbit?page%5Blimit%5D=10&page%5Bpage%5D=359"
  },
  "data": [
    {
      "type": "tdpseTerbit",
      "id": "4791",
      "attributes": {
        "nomor_pb_umku": "812011611286500030002",
        "nama": "SOLUSINDO BINTANG PRATAMA",
        "website": "sbp.net.id",
        "sektor": "Sektor Teknologi Informasi dan Komunikasi",
        "nama_tampil_badan_hukum": "PT",
        "nama_perusahaan": "PT SOLUSINDO BINTANG PRATAMA",
        "tanggal_daftar": "2022-06-27",
        "tanggal_terbit": "2022-06-27",
        "nomor_tanda_daftar": "003486.01/DJAI.PSE/06/2022",
        "qr_code": "http://pse.kominfo.go.id/api/v1/jsonapi/tdpse-terbit/qr-code/4791",
        "status_id": "TERDAFTAR",
        "sistem_elektronik_id": "4732",
        "keterangan": "-",
        "lokalitas": "LOKAL"
      },
      "links": {
        "self": "http://pse.kominfo.go.id/api/v1/jsonapi/tdpse-terbit/4791"
      }
    },
    {
      "type": "tdpseTerbit",
      "id": "4789",
      "attributes": {
        "nomor_pb_umku": "180222002122600010001",
        "nama": "ATMA",
        "website": "atma.co.id",
        "sektor": "Sektor Perdagangan, Sektor Teknologi Informasi dan Komunikasi",
        "nama_tampil_badan_hukum": "PT",
        "nama_perusahaan": "PT ATMA MERAKI NUSANTARA",
        "tanggal_daftar": "2022-06-27",
        "tanggal_terbit": "2022-06-27",
        "nomor_tanda_daftar": "003340.01/DJAI.PSE/06/2022",
        "qr_code": "http://pse.kominfo.go.id/api/v1/jsonapi/tdpse-terbit/qr-code/4789",
        "status_id": "TERDAFTAR",
        "sistem_elektronik_id": "4733",
        "keterangan": "-",
        "lokalitas": "LOKAL"
      },
      "links": {
        "self": "http://pse.kominfo.go.id/api/v1/jsonapi/tdpse-terbit/4789"
      }
    },
    {
      "type": "tdpseTerbit",
      "id": "4788",
      "attributes": {
        "nomor_pb_umku": "023200094098500010001",
        "nama": "TELSTRA CONNECT",
        "website": "connectapp.telstra.com",
        "sektor": "Sektor Teknologi Informasi dan Komunikasi",
        "nama_tampil_badan_hukum": "PT",
        "nama_perusahaan": "PT REACH NETWORK SERVICES INDONESIA",
        "tanggal_daftar": "2022-06-27",
        "tanggal_terbit": "2022-06-27",
        "nomor_tanda_daftar": "003483.01/DJAI.PSE/06/2022",
        "qr_code": "http://pse.kominfo.go.id/api/v1/jsonapi/tdpse-terbit/qr-code/4788",
        "status_id": "TERDAFTAR",
        "sistem_elektronik_id": "4730",
        "keterangan": "-",
        "lokalitas": "LOKAL"
      },
      "links": {
        "self": "http://pse.kominfo.go.id/api/v1/jsonapi/tdpse-terbit/4788"
      }
    },
    {
      "type": "tdpseTerbit",
      "id": "4787",
      "attributes": {
        "nomor_pb_umku": "912030053213600000001",
        "nama": "GRIYA BAYAR",
        "website": "GRIYABAYAR.COM",
        "sektor": "Sektor Perdagangan",
        "nama_tampil_badan_hukum": "PT",
        "nama_perusahaan": "PT MAGNA KARSA MULYA",
        "tanggal_daftar": "2022-06-27",
        "tanggal_terbit": "2022-06-27",
        "nomor_tanda_daftar": "003472.01/DJAI.PSE/06/2022",
        "qr_code": "http://pse.kominfo.go.id/api/v1/jsonapi/tdpse-terbit/qr-code/4787",
        "status_id": "TERDAFTAR",
        "sistem_elektronik_id": "4731",
        "keterangan": "-",
        "lokalitas": "LOKAL"
      },
      "links": {
        "self": "http://pse.kominfo.go.id/api/v1/jsonapi/tdpse-terbit/4787"
      }
    },
    {
      "type": "tdpseTerbit",
      "id": "4786",
      "attributes": {
        "nomor_pb_umku": "912020714208400000002",
        "nama": "E2PAY GLOBAL UTAMA",
        "website": "e2pay.co.id",
        "sektor": "Sektor Keuangan, Sektor Teknologi Informasi dan Komunikasi",
        "nama_tampil_badan_hukum": "PT",
        "nama_perusahaan": "PT E2PAY GLOBAL UTAMA",
        "tanggal_daftar": "2022-06-27",
        "tanggal_terbit": "2022-06-27",
        "nomor_tanda_daftar": "002665.02/DJAI.PSE/06/2022",
        "qr_code": "http://pse.kominfo.go.id/api/v1/jsonapi/tdpse-terbit/qr-code/4786",
        "status_id": "TERDAFTAR",
        "sistem_elektronik_id": "4729",
        "keterangan": "-",
        "lokalitas": "LOKAL"
      },
      "links": {
        "self": "http://pse.kominfo.go.id/api/v1/jsonapi/tdpse-terbit/4786"
      }
    },
    {
      "type": "tdpseTerbit",
      "id": "4785",
      "attributes": {
        "nomor_pb_umku": "126800011127600000001",
        "nama": "KISABUS",
        "website": "kisabus.com",
        "sektor": "Sektor Transportasi, Sektor Teknologi Informasi dan Komunikasi",
        "nama_tampil_badan_hukum": "PT",
        "nama_perusahaan": "PT KISA TRAVELINDO PRISTAMA",
        "tanggal_daftar": "2022-06-27",
        "tanggal_terbit": "2022-06-27",
        "nomor_tanda_daftar": "000118.02/DJAI.PSE/06/2022",
        "qr_code": "http://pse.kominfo.go.id/api/v1/jsonapi/tdpse-terbit/qr-code/4785",
        "status_id": "TERDAFTAR",
        "sistem_elektronik_id": "4728",
        "keterangan": "-",
        "lokalitas": "LOKAL"
      },
      "links": {
        "self": "http://pse.kominfo.go.id/api/v1/jsonapi/tdpse-terbit/4785"
      }
    },
    {
      "type": "tdpseTerbit",
      "id": "4779",
      "attributes": {
        "nomor_pb_umku": "230622002895900000001",
        "nama": "SIMFONI – SISTEM INFORMASI AKUNTANSI UNTUK PERBANKAN MIKRO, LKM DAN UMKM",
        "website": "multipilarbalantika.co.id",
        "sektor": "Sektor Teknologi Informasi dan Komunikasi",
        "nama_tampil_badan_hukum": "PT",
        "nama_perusahaan": "PT MULTIPILAR BALANTIKA",
        "tanggal_daftar": "2022-06-27",
        "tanggal_terbit": "2022-06-27",
        "nomor_tanda_daftar": "003373.01/DJAI.PSE/06/2022",
        "qr_code": "http://pse.kominfo.go.id/api/v1/jsonapi/tdpse-terbit/qr-code/4779",
        "status_id": "TERDAFTAR",
        "sistem_elektronik_id": "4724",
        "keterangan": "-",
        "lokalitas": "LOKAL"
      },
      "links": {
        "self": "http://pse.kominfo.go.id/api/v1/jsonapi/tdpse-terbit/4779"
      }
    },
    {
      "type": "tdpseTerbit",
      "id": "4778",
      "attributes": {
        "nomor_pb_umku": "180622002411400030001",
        "nama": "AMGA",
        "website": "amga.co.id",
        "sektor": "Sektor Perdagangan, Sektor Teknologi Informasi dan Komunikasi",
        "nama_tampil_badan_hukum": "",
        "nama_perusahaan": "ALPHA MAHAJAYA GEMILANG ABADI",
        "tanggal_daftar": "2022-06-26",
        "tanggal_terbit": "2022-06-26",
        "nomor_tanda_daftar": "003468.01/DJAI.PSE/06/2022",
        "qr_code": "http://pse.kominfo.go.id/api/v1/jsonapi/tdpse-terbit/qr-code/4778",
        "status_id": "TERDAFTAR",
        "sistem_elektronik_id": "4723",
        "keterangan": "-",
        "lokalitas": "LOKAL"
      },
      "links": {
        "self": "http://pse.kominfo.go.id/api/v1/jsonapi/tdpse-terbit/4778"
      }
    },
    {
      "type": "tdpseTerbit",
      "id": "4777",
      "attributes": {
        "nomor_pb_umku": "128600014006500000002",
        "nama": "ASRONET",
        "website": "asro.net",
        "sektor": "Sektor Perdagangan, Sektor Teknologi Informasi dan Komunikasi",
        "nama_tampil_badan_hukum": "",
        "nama_perusahaan": "ASEP ROHIMAT",
        "tanggal_daftar": "2022-06-26",
        "tanggal_terbit": "2022-06-26",
        "nomor_tanda_daftar": "003462.02/DJAI.PSE/06/2022",
        "qr_code": "http://pse.kominfo.go.id/api/v1/jsonapi/tdpse-terbit/qr-code/4777",
        "status_id": "TERDAFTAR",
        "sistem_elektronik_id": "4722",
        "keterangan": "-",
        "lokalitas": "LOKAL"
      },
      "links": {
        "self": "http://pse.kominfo.go.id/api/v1/jsonapi/tdpse-terbit/4777"
      }
    },
    {
      "type": "tdpseTerbit",
      "id": "4776",
      "attributes": {
        "nomor_pb_umku": "128600014006500000001",
        "nama": "YOI",
        "website": "asro.net",
        "sektor": "Sektor Perdagangan",
        "nama_tampil_badan_hukum": "",
        "nama_perusahaan": "ASEP ROHIMAT",
        "tanggal_daftar": "2022-06-26",
        "tanggal_terbit": "2022-06-26",
        "nomor_tanda_daftar": "003462.01/DJAI.PSE/06/2022",
        "qr_code": "http://pse.kominfo.go.id/api/v1/jsonapi/tdpse-terbit/qr-code/4776",
        "status_id": "TERDAFTAR",
        "sistem_elektronik_id": "4721",
        "keterangan": "-",
        "lokalitas": "LOKAL"
      },
      "links": {
        "self": "http://pse.kominfo.go.id/api/v1/jsonapi/tdpse-terbit/4776"
      }
    }
  ]
}