{
  "meta": {
    "page": {
      "currentPage": 365,
      "from": 3641,
      "lastPage": 816,
      "perPage": 10,
      "to": 3650,
      "total": 8153
    }
  },
  "jsonapi": {
    "version": "1.0"
  },
  "links": {
    "first": "http://pse.kominfo.go.id/api/v1/jsonapi/tdpse-terbit?page%5Blimit%5D=10&page%5Bpage%5D=1",
    "last": "http://pse.kominfo.go.id/api/v1/jsonapi/tdpse-terbit?page%5Blimit%5D=10&page%5Bpage%5D=816",
    "next": "http://pse.kominfo.go.id/api/v1/jsonapi/tdpse-terbit?page%5Blimit%5D=10&page%5Bpage%5D=366",
    "prev": "http://pse.kominfo.go.id/api/v1/jsonapi/tdpse-terbit?page%5Blimit%5D=10&page%5Bpage%5D=364"
  },
  "data": [
    {
      "type": "tdpseTerbit",
      "id": "4728",
      "attributes": {
        "nomor_pb_umku": "240622002259200020001",
        "nama": "PUSBIMTEKPALIRA.COM",
        "website": "pusbimtekpalira.com",
        "sektor": "Sektor Teknologi Informasi dan Komunikasi",
        "nama_tampil_badan_hukum": "",
        "nama_perusahaan": "PADEPOKAN LITERASI NUSANTARA",
        "tanggal_daftar": "2022-06-24",
        "tanggal_terbit": "2022-06-24",
        "nomor_tanda_daftar": "003416.01/DJAI.PSE/06/2022",
        "qr_code": "http://pse.kominfo.go.id/api/v1/jsonapi/tdpse-terbit/qr-code/4728",
        "status_id": "TERDAFTAR",
        "sistem_elektronik_id": "4680",
        "keterangan": "-",
        "lokalitas": "LOKAL"
      },
      "links": {
        "self": "http://pse.kominfo.go.id/api/v1/jsonapi/tdpse-terbit/4728"
      }
    },
    {
      "type": "tdpseTerbit",
      "id": "4727",
      "attributes": {
        "nomor_pb_umku": "812021521153800010004",
        "nama": "TISI",
        "website": "tisi.id",
        "sektor": "Sektor Teknologi Informasi dan Komunikasi",
        "nama_tampil_badan_hukum": "PT",
        "nama_perusahaan": "PT DIKA & KATON",
        "tanggal_daftar": "2022-06-24",
        "tanggal_terbit": "2022-06-24",
        "nomor_tanda_daftar": "003277.01/DJAI.PSE/06/2022",
        "qr_code": "http://pse.kominfo.go.id/api/v1/jsonapi/tdpse-terbit/qr-code/4727",
        "status_id": "TERDAFTAR",
        "sistem_elektronik_id": "4679",
        "keterangan": "-",
        "lokalitas": "LOKAL"
      },
      "links": {
        "self": "http://pse.kominfo.go.id/api/v1/jsonapi/tdpse-terbit/4727"
      }
    },
    {
      "type": "tdpseTerbit",
      "id": "4725",
      "attributes": {
        "nomor_pb_umku": "912020193193100020002",
        "nama": "BLICICIL",
        "website": "megafinance.co.id",
        "sektor": "Sektor Keuangan",
        "nama_tampil_badan_hukum": "PT",
        "nama_perusahaan": "PT MEGA FINANCE",
        "tanggal_daftar": "2022-06-24",
        "tanggal_terbit": "2022-06-24",
        "nomor_tanda_daftar": "003406.02/DJAI.PSE/06/2022",
        "qr_code": "http://pse.kominfo.go.id/api/v1/jsonapi/tdpse-terbit/qr-code/4725",
        "status_id": "TERDAFTAR",
        "sistem_elektronik_id": "4678",
        "keterangan": "-",
        "lokalitas": "LOKAL"
      },
      "links": {
        "self": "http://pse.kominfo.go.id/api/v1/jsonapi/tdpse-terbit/4725"
      }
    },
    {
      "type": "tdpseTerbit",
      "id": "4724",
      "attributes": {
        "nomor_pb_umku": "025800093185200000001",
        "nama": "E-UJIAN.COM",
        "website": "e-ujian.com",
        "sektor": "Sektor Teknologi Informasi dan Komunikasi",
        "nama_tampil_badan_hukum": "",
        "nama_perusahaan": "ANGGYI TRISNAWAN PUTRA",
        "tanggal_daftar": "2022-06-24",
        "tanggal_terbit": "2022-06-24",
        "nomor_tanda_daftar": "003412.01/DJAI.PSE/06/2022",
        "qr_code": "http://pse.kominfo.go.id/api/v1/jsonapi/tdpse-terbit/qr-code/4724",
        "status_id": "TERDAFTAR",
        "sistem_elektronik_id": "4677",
        "keterangan": "-",
        "lokalitas": "LOKAL"
      },
      "links": {
        "self": "http://pse.kominfo.go.id/api/v1/jsonapi/tdpse-terbit/4724"
      }
    },
    {
      "type": "tdpseTerbit",
      "id": "4723",
      "attributes": {
        "nomor_pb_umku": "912020193193100020001",
        "nama": "PT MEGA FINANCE",
        "website": "megafinance.co.id",
        "sektor": "Sektor Keuangan",
        "nama_tampil_badan_hukum": "PT",
        "nama_perusahaan": "PT MEGA FINANCE",
        "tanggal_daftar": "2022-06-24",
        "tanggal_terbit": "2022-06-24",
        "nomor_tanda_daftar": "003406.01/DJAI.PSE/06/2022",
        "qr_code": "http://pse.kominfo.go.id/api/v1/jsonapi/tdpse-terbit/qr-code/4723",
        "status_id": "TERDAFTAR",
        "sistem_elektronik_id": "4676",
        "keterangan": "-",
        "lokalitas": "LOKAL"
      },
      "links": {
        "self": "http://pse.kominfo.go.id/api/v1/jsonapi/tdpse-terbit/4723"
      }
    },
    {
      "type": "tdpseTerbit",
      "id": "4722",
      "attributes": {
        "nomor_pb_umku": "912020655100800010001",
        "nama": "KTA KILAT",
        "website": "pendanaan.com",
        "sektor": "Sektor Keuangan, Sektor Teknologi Informasi dan Komunikasi",
        "nama_tampil_badan_hukum": "PT",
        "nama_perusahaan": "PT PENDANAAN TEKNOLOGI NUSA",
        "tanggal_daftar": "2022-05-25",
        "tanggal_terbit": "2022-06-24",
        "nomor_tanda_daftar": "00228.01/DJAI.PSE/05/2022",
        "qr_code": "http://pse.kominfo.go.id/api/v1/jsonapi/tdpse-terbit/qr-code/4722",
        "status_id": "TERDAFTAR",
        "sistem_elektronik_id": "4147",
        "keterangan": "-",
        "lokalitas": "LOKAL"
      },
      "links": {
        "self": "http://pse.kominfo.go.id/api/v1/jsonapi/tdpse-terbit/4722"
      }
    },
    {
      "type": "tdpseTerbit",
      "id": "4721",
      "attributes": {
        "nomor_pb_umku": "230622007135800000001",
        "nama": "AKUNTANSIKU",
        "website": "akuntansiku.co.id",
        "sektor": "Sektor Teknologi Informasi dan Komunikasi",
        "nama_tampil_badan_hukum": "PT",
        "nama_perusahaan": "PT OWLINE TEKNOLOGI NUSANTARA",
        "tanggal_daftar": "2022-06-24",
        "tanggal_terbit": "2022-06-24",
        "nomor_tanda_daftar": "003408.01/DJAI.PSE/06/2022",
        "qr_code": "http://pse.kominfo.go.id/api/v1/jsonapi/tdpse-terbit/qr-code/4721",
        "status_id": "TERDAFTAR",
        "sistem_elektronik_id": "4675",
        "keterangan": "-",
        "lokalitas": "LOKAL"
      },
      "links": {
        "self": "http://pse.kominfo.go.id/api/v1/jsonapi/tdpse-terbit/4721"
      }
    },
    {
      "type": "tdpseTerbit",
      "id": "4719",
      "attributes": {
        "nomor_pb_umku": "060422000067400000001",
        "nama": "GARENG TOPUP",
        "website": "garengtopup.com",
        "sektor": "Sektor Perdagangan",
        "nama_tampil_badan_hukum": "",
        "nama_perusahaan": "DIGITAL ONLINE TERUS",
        "tanggal_daftar": "2022-06-23",
        "tanggal_terbit": "2022-06-23",
        "nomor_tanda_daftar": "003402.01/DJAI.PSE/06/2022",
        "qr_code": "http://pse.kominfo.go.id/api/v1/jsonapi/tdpse-terbit/qr-code/4719",
        "status_id": "TERDAFTAR",
        "sistem_elektronik_id": "4673",
        "keterangan": "-",
        "lokalitas": "LOKAL"
      },
      "links": {
        "self": "http://pse.kominfo.go.id/api/v1/jsonapi/tdpse-terbit/4719"
      }
    },
    {
      "type": "tdpseTerbit",
      "id": "4718",
      "attributes": {
        "nomor_pb_umku": "210821000704900040003",
        "nama": "WARTADUTA",
        "website": "wartaduta.com",
        "sektor": "Sektor Teknologi Informasi dan Komunikasi",
        "nama_tampil_badan_hukum": "PT",
        "nama_perusahaan": "PT DUA CERITA INDOMEDIA",
        "tanggal_daftar": "2022-06-23",
        "tanggal_terbit": "2022-06-23",
        "nomor_tanda_daftar": "003401.03/DJAI.PSE/06/2022",
        "qr_code": "http://pse.kominfo.go.id/api/v1/jsonapi/tdpse-terbit/qr-code/4718",
        "status_id": "TERDAFTAR",
        "sistem_elektronik_id": "4672",
        "keterangan": "-",
        "lokalitas": "LOKAL"
      },
      "links": {
        "self": "http://pse.kominfo.go.id/api/v1/jsonapi/tdpse-terbit/4718"
      }
    },
    {
      "type": "tdpseTerbit",
      "id": "4717",
      "attributes": {
        "nomor_pb_umku": "210821000704900040002",
        "nama": "DUA CERITA INDOMEDIA",
        "website": "wartaduta.com",
        "sektor": "Sektor Teknologi Informasi dan Komunikasi",
        "nama_tampil_badan_hukum": "PT",
        "nama_perusahaan": "PT DUA CERITA INDOMEDIA",
        "tanggal_daftar": "2022-06-23",
        "tanggal_terbit": "2022-06-23",
        "nomor_tanda_daftar": "003401.02/DJAI.PSE/06/2022",
        "qr_code": "http://pse.kominfo.go.id/api/v1/jsonapi/tdpse-terbit/qr-code/4717",
        "status_id": "TERDAFTAR",
        "sistem_elektronik_id": "4671",
        "keterangan": "-",
        "lokalitas": "LOKAL"
      },
      "links": {
        "self": "http://pse.kominfo.go.id/api/v1/jsonapi/tdpse-terbit/4717"
      }
    }
  ]
}