{
  "meta": {
    "page": {
      "currentPage": 369,
      "from": 3681,
      "lastPage": 816,
      "perPage": 10,
      "to": 3690,
      "total": 8153
    }
  },
  "jsonapi": {
    "version": "1.0"
  },
  "links": {
    "first": "http://pse.kominfo.go.id/api/v1/jsonapi/tdpse-terbit?page%5Blimit%5D=10&page%5Bpage%5D=1",
    "last": "http://pse.kominfo.go.id/api/v1/jsonapi/tdpse-terbit?page%5Blimit%5D=10&page%5Bpage%5D=816",
    "next": "http://pse.kominfo.go.id/api/v1/jsonapi/tdpse-terbit?page%5Blimit%5D=10&page%5Bpage%5D=370",
    "prev": "http://pse.kominfo.go.id/api/v1/jsonapi/tdpse-terbit?page%5Blimit%5D=10&page%5Bpage%5D=368"
  },
  "data": [
    {
      "type": "tdpseTerbit",
      "id": "4673",
      "attributes": {
        "nomor_pb_umku": "912050372245100000001",
        "nama": "AIYO",
        "website": "aiyo.id",
        "sektor": "Sektor Teknologi Informasi dan Komunikasi",
        "nama_tampil_badan_hukum": "PT",
        "nama_perusahaan": "PT DUNIA BAYAR INDONESIA",
        "tanggal_daftar": "2022-06-23",
        "tanggal_terbit": "2022-06-23",
        "nomor_tanda_daftar": "002796.02/DJAI.PSE/06/2022",
        "qr_code": "http://pse.kominfo.go.id/api/v1/jsonapi/tdpse-terbit/qr-code/4673",
        "status_id": "TERDAFTAR",
        "sistem_elektronik_id": "4632",
        "keterangan": "-",
        "lokalitas": "LOKAL"
      },
      "links": {
        "self": "http://pse.kominfo.go.id/api/v1/jsonapi/tdpse-terbit/4673"
      }
    },
    {
      "type": "tdpseTerbit",
      "id": "4672",
      "attributes": {
        "nomor_pb_umku": "912001402260400030001",
        "nama": "SIMPELDESA",
        "website": "simpeldesa.com",
        "sektor": "Sektor Teknologi Informasi dan Komunikasi",
        "nama_tampil_badan_hukum": "PT",
        "nama_perusahaan": "PT HANNAN IDEA INDONESIA",
        "tanggal_daftar": "2022-06-22",
        "tanggal_terbit": "2022-06-22",
        "nomor_tanda_daftar": "003357.01/DJAI.PSE/06/2022",
        "qr_code": "http://pse.kominfo.go.id/api/v1/jsonapi/tdpse-terbit/qr-code/4672",
        "status_id": "TERDAFTAR",
        "sistem_elektronik_id": "4631",
        "keterangan": "-",
        "lokalitas": "LOKAL"
      },
      "links": {
        "self": "http://pse.kominfo.go.id/api/v1/jsonapi/tdpse-terbit/4672"
      }
    },
    {
      "type": "tdpseTerbit",
      "id": "4671",
      "attributes": {
        "nomor_pb_umku": "180622001279600000001",
        "nama": "EKASAHA.COM",
        "website": "ekasaha.com",
        "sektor": "Sektor Perdagangan, Sektor Teknologi Informasi dan Komunikasi",
        "nama_tampil_badan_hukum": "",
        "nama_perusahaan": "KARYA SAKA SHAQIQAN",
        "tanggal_daftar": "2022-06-22",
        "tanggal_terbit": "2022-06-22",
        "nomor_tanda_daftar": "003352.01/DJAI.PSE/06/2022",
        "qr_code": "http://pse.kominfo.go.id/api/v1/jsonapi/tdpse-terbit/qr-code/4671",
        "status_id": "TERDAFTAR",
        "sistem_elektronik_id": "4629",
        "keterangan": "-",
        "lokalitas": "LOKAL"
      },
      "links": {
        "self": "http://pse.kominfo.go.id/api/v1/jsonapi/tdpse-terbit/4671"
      }
    },
    {
      "type": "tdpseTerbit",
      "id": "4669",
      "attributes": {
        "nomor_pb_umku": "171221002216900010001",
        "nama": "PROSES.CO.ID",
        "website": "proses.co.id",
        "sektor": "Sektor Perdagangan",
        "nama_tampil_badan_hukum": "PT",
        "nama_perusahaan": "PT DARMA SAKTI ADISAPUTRA",
        "tanggal_daftar": "2022-06-22",
        "tanggal_terbit": "2022-06-22",
        "nomor_tanda_daftar": "003323.02/DJAI.PSE/06/2022",
        "qr_code": "http://pse.kominfo.go.id/api/v1/jsonapi/tdpse-terbit/qr-code/4669",
        "status_id": "TERDAFTAR",
        "sistem_elektronik_id": "4630",
        "keterangan": "-",
        "lokalitas": "LOKAL"
      },
      "links": {
        "self": "http://pse.kominfo.go.id/api/v1/jsonapi/tdpse-terbit/4669"
      }
    },
    {
      "type": "tdpseTerbit",
      "id": "4668",
      "attributes": {
        "nomor_pb_umku": "110522004993400020001",
        "nama": "ANTERIN",
        "website": "anterin.id",
        "sektor": "Sektor Transportasi",
        "nama_tampil_badan_hukum": "PT",
        "nama_perusahaan": "PT ANTERIN DIGITAL NUSANTARA",
        "tanggal_daftar": "2022-06-22",
        "tanggal_terbit": "2022-06-22",
        "nomor_tanda_daftar": "003350.01/DJAI.PSE/06/2022",
        "qr_code": "http://pse.kominfo.go.id/api/v1/jsonapi/tdpse-terbit/qr-code/4668",
        "status_id": "TERDAFTAR",
        "sistem_elektronik_id": "4628",
        "keterangan": "-",
        "lokalitas": "LOKAL"
      },
      "links": {
        "self": "http://pse.kominfo.go.id/api/v1/jsonapi/tdpse-terbit/4668"
      }
    },
    {
      "type": "tdpseTerbit",
      "id": "4667",
      "attributes": {
        "nomor_pb_umku": "812001109121300020001",
        "nama": "ORDERKILAT",
        "website": "orderkilat.co.id",
        "sektor": "Sektor Perdagangan",
        "nama_tampil_badan_hukum": "PT",
        "nama_perusahaan": "PT HAIGA CITRA DIGITAL",
        "tanggal_daftar": "2022-06-22",
        "tanggal_terbit": "2022-06-22",
        "nomor_tanda_daftar": "003349.01/DJAI.PSE/06/2022",
        "qr_code": "http://pse.kominfo.go.id/api/v1/jsonapi/tdpse-terbit/qr-code/4667",
        "status_id": "TERDAFTAR",
        "sistem_elektronik_id": "4627",
        "keterangan": "-",
        "lokalitas": "LOKAL"
      },
      "links": {
        "self": "http://pse.kominfo.go.id/api/v1/jsonapi/tdpse-terbit/4667"
      }
    },
    {
      "type": "tdpseTerbit",
      "id": "4666",
      "attributes": {
        "nomor_pb_umku": "090622001638500000001",
        "nama": "TEDUH",
        "website": "teduh.io",
        "sektor": "Sektor Teknologi Informasi dan Komunikasi",
        "nama_tampil_badan_hukum": "PT",
        "nama_perusahaan": "PT TEDUH KARYA ASIA",
        "tanggal_daftar": "2022-06-22",
        "tanggal_terbit": "2022-06-22",
        "nomor_tanda_daftar": "003348.01/DJAI.PSE/06/2022",
        "qr_code": "http://pse.kominfo.go.id/api/v1/jsonapi/tdpse-terbit/qr-code/4666",
        "status_id": "TERDAFTAR",
        "sistem_elektronik_id": "4625",
        "keterangan": "-",
        "lokalitas": "LOKAL"
      },
      "links": {
        "self": "http://pse.kominfo.go.id/api/v1/jsonapi/tdpse-terbit/4666"
      }
    },
    {
      "type": "tdpseTerbit",
      "id": "4665",
      "attributes": {
        "nomor_pb_umku": "230222001262600030001",
        "nama": "APLIKASI MEDIK",
        "website": "prisei.com",
        "sektor": "Sektor Kesehatan",
        "nama_tampil_badan_hukum": "PT",
        "nama_perusahaan": "PT PRISEI MEDIK INDONESIA",
        "tanggal_daftar": "2022-06-22",
        "tanggal_terbit": "2022-06-22",
        "nomor_tanda_daftar": "003347.01/DJAI.PSE/06/2022",
        "qr_code": "http://pse.kominfo.go.id/api/v1/jsonapi/tdpse-terbit/qr-code/4665",
        "status_id": "TERDAFTAR",
        "sistem_elektronik_id": "4624",
        "keterangan": "-",
        "lokalitas": "LOKAL"
      },
      "links": {
        "self": "http://pse.kominfo.go.id/api/v1/jsonapi/tdpse-terbit/4665"
      }
    },
    {
      "type": "tdpseTerbit",
      "id": "4664",
      "attributes": {
        "nomor_pb_umku": "912030024153700000001",
        "nama": "SIANTANO FURNITURE",
        "website": "-",
        "sektor": "Sektor Perdagangan",
        "nama_tampil_badan_hukum": "PT",
        "nama_perusahaan": "PT NATHANIA FURNITURE",
        "tanggal_daftar": "2022-06-22",
        "tanggal_terbit": "2022-06-22",
        "nomor_tanda_daftar": "003341.01/DJAI.PSE/06/2022",
        "qr_code": "http://pse.kominfo.go.id/api/v1/jsonapi/tdpse-terbit/qr-code/4664",
        "status_id": "TERDAFTAR",
        "sistem_elektronik_id": "4623",
        "keterangan": "-",
        "lokalitas": "LOKAL"
      },
      "links": {
        "self": "http://pse.kominfo.go.id/api/v1/jsonapi/tdpse-terbit/4664"
      }
    },
    {
      "type": "tdpseTerbit",
      "id": "4662",
      "attributes": {
        "nomor_pb_umku": "912021915158500010001",
        "nama": "IMMIGRATION CONTROL SYSTEM",
        "website": "-",
        "sektor": "Sektor Teknologi Informasi dan Komunikasi, Sektor Pertahanan dan Keamanan",
        "nama_tampil_badan_hukum": "PT",
        "nama_perusahaan": "PT SECURIPORT INTERNATIONAL INDONESIA",
        "tanggal_daftar": "2022-06-22",
        "tanggal_terbit": "2022-06-22",
        "nomor_tanda_daftar": "002970.01/DJAI.PSE/06/2022",
        "qr_code": "http://pse.kominfo.go.id/api/v1/jsonapi/tdpse-terbit/qr-code/4662",
        "status_id": "TERDAFTAR",
        "sistem_elektronik_id": "4622",
        "keterangan": "-",
        "lokalitas": "LOKAL"
      },
      "links": {
        "self": "http://pse.kominfo.go.id/api/v1/jsonapi/tdpse-terbit/4662"
      }
    }
  ]
}