{
  "meta": {
    "page": {
      "currentPage": 375,
      "from": 3741,
      "lastPage": 816,
      "perPage": 10,
      "to": 3750,
      "total": 8153
    }
  },
  "jsonapi": {
    "version": "1.0"
  },
  "links": {
    "first": "http://pse.kominfo.go.id/api/v1/jsonapi/tdpse-terbit?page%5Blimit%5D=10&page%5Bpage%5D=1",
    "last": "http://pse.kominfo.go.id/api/v1/jsonapi/tdpse-terbit?page%5Blimit%5D=10&page%5Bpage%5D=816",
    "next": "http://pse.kominfo.go.id/api/v1/jsonapi/tdpse-terbit?page%5Blimit%5D=10&page%5Bpage%5D=376",
    "prev": "http://pse.kominfo.go.id/api/v1/jsonapi/tdpse-terbit?page%5Blimit%5D=10&page%5Bpage%5D=374"
  },
  "data": [
    {
      "type": "tdpseTerbit",
      "id": "4607",
      "attributes": {
        "nomor_pb_umku": "070622000179200000001",
        "nama": "APLIKASI",
        "website": "-",
        "sektor": "Sektor Transportasi",
        "nama_tampil_badan_hukum": "",
        "nama_perusahaan": "ENDY FRANDO SIMBOLON",
        "tanggal_daftar": "2022-06-19",
        "tanggal_terbit": "2022-06-19",
        "nomor_tanda_daftar": "003040.01/DJAI.PSE/06/2022",
        "qr_code": "http://pse.kominfo.go.id/api/v1/jsonapi/tdpse-terbit/qr-code/4607",
        "status_id": "TERDAFTAR",
        "sistem_elektronik_id": "4570",
        "keterangan": "-",
        "lokalitas": "LOKAL"
      },
      "links": {
        "self": "http://pse.kominfo.go.id/api/v1/jsonapi/tdpse-terbit/4607"
      }
    },
    {
      "type": "tdpseTerbit",
      "id": "4606",
      "attributes": {
        "nomor_pb_umku": "020801024350900040001",
        "nama": "PT ARTHA KENCANA TRANS",
        "website": "arthakencanatrans.co.id",
        "sektor": "Sektor Transportasi",
        "nama_tampil_badan_hukum": "PT",
        "nama_perusahaan": "PT ARTHA KENCANA TRANS",
        "tanggal_daftar": "2022-06-19",
        "tanggal_terbit": "2022-06-19",
        "nomor_tanda_daftar": "003255.01/DJAI.PSE/06/2022",
        "qr_code": "http://pse.kominfo.go.id/api/v1/jsonapi/tdpse-terbit/qr-code/4606",
        "status_id": "TERDAFTAR",
        "sistem_elektronik_id": "4569",
        "keterangan": "-",
        "lokalitas": "LOKAL"
      },
      "links": {
        "self": "http://pse.kominfo.go.id/api/v1/jsonapi/tdpse-terbit/4606"
      }
    },
    {
      "type": "tdpseTerbit",
      "id": "4605",
      "attributes": {
        "nomor_pb_umku": "150622000220400020001",
        "nama": "PT.PUTRA MARITIM BERKAH",
        "website": "-",
        "sektor": "Sektor Perdagangan, Sektor Energi dan Sumber Daya Mineral, Sektor Transportasi, Sektor Teknologi Informasi dan Komunikasi",
        "nama_tampil_badan_hukum": "PT",
        "nama_perusahaan": "PT PUTRA MARITIM BERKAH",
        "tanggal_daftar": "2022-06-18",
        "tanggal_terbit": "2022-06-18",
        "nomor_tanda_daftar": "003254.01/DJAI.PSE/06/2022",
        "qr_code": "http://pse.kominfo.go.id/api/v1/jsonapi/tdpse-terbit/qr-code/4605",
        "status_id": "TERDAFTAR",
        "sistem_elektronik_id": "4568",
        "keterangan": "-",
        "lokalitas": "LOKAL"
      },
      "links": {
        "self": "http://pse.kominfo.go.id/api/v1/jsonapi/tdpse-terbit/4605"
      }
    },
    {
      "type": "tdpseTerbit",
      "id": "4604",
      "attributes": {
        "nomor_pb_umku": "191121002531300020003",
        "nama": "ORDERPLIZZ",
        "website": "orderplizz.com",
        "sektor": "Sektor Pangan",
        "nama_tampil_badan_hukum": "PT",
        "nama_perusahaan": "PT ORDERPLIZZ INDONESIA MAJU",
        "tanggal_daftar": "2022-06-18",
        "tanggal_terbit": "2022-06-18",
        "nomor_tanda_daftar": "003249.01/DJAI.PSE/06/2022",
        "qr_code": "http://pse.kominfo.go.id/api/v1/jsonapi/tdpse-terbit/qr-code/4604",
        "status_id": "TERDAFTAR",
        "sistem_elektronik_id": "4567",
        "keterangan": "-",
        "lokalitas": "LOKAL"
      },
      "links": {
        "self": "http://pse.kominfo.go.id/api/v1/jsonapi/tdpse-terbit/4604"
      }
    },
    {
      "type": "tdpseTerbit",
      "id": "4603",
      "attributes": {
        "nomor_pb_umku": "022020176193100010001",
        "nama": "SF INDONESIA",
        "website": "sf-international.id",
        "sektor": "Sektor Perdagangan, Sektor Transportasi",
        "nama_tampil_badan_hukum": "PT",
        "nama_perusahaan": "PT SURYA FAJAR INDONESIA",
        "tanggal_daftar": "2022-06-18",
        "tanggal_terbit": "2022-06-18",
        "nomor_tanda_daftar": "003121.01/DJAI.PSE/06/2022",
        "qr_code": "http://pse.kominfo.go.id/api/v1/jsonapi/tdpse-terbit/qr-code/4603",
        "status_id": "TERDAFTAR",
        "sistem_elektronik_id": "4566",
        "keterangan": "-",
        "lokalitas": "LOKAL"
      },
      "links": {
        "self": "http://pse.kominfo.go.id/api/v1/jsonapi/tdpse-terbit/4603"
      }
    },
    {
      "type": "tdpseTerbit",
      "id": "4581",
      "attributes": {
        "nomor_pb_umku": "912000981078600010001",
        "nama": "PURWANTOAM",
        "website": "WWW.PURWANTO.CO.ID",
        "sektor": "Sektor Keuangan",
        "nama_tampil_badan_hukum": "PT",
        "nama_perusahaan": "PT PURWANTO ASSET MANAGEMENT",
        "tanggal_daftar": "2022-06-17",
        "tanggal_terbit": "2022-06-17",
        "nomor_tanda_daftar": "003065.01/DJAI.PSE/06/2022",
        "qr_code": "http://pse.kominfo.go.id/api/v1/jsonapi/tdpse-terbit/qr-code/4581",
        "status_id": "TERDAFTAR",
        "sistem_elektronik_id": "4544",
        "keterangan": "-",
        "lokalitas": "LOKAL"
      },
      "links": {
        "self": "http://pse.kominfo.go.id/api/v1/jsonapi/tdpse-terbit/4581"
      }
    },
    {
      "type": "tdpseTerbit",
      "id": "4580",
      "attributes": {
        "nomor_pb_umku": "310522005608900000001",
        "nama": "BANG JAMIN",
        "website": "-",
        "sektor": "Sektor Perdagangan",
        "nama_tampil_badan_hukum": "PT",
        "nama_perusahaan": "PT ARKANA ADVANCE TECHNOLOGY",
        "tanggal_daftar": "2022-06-17",
        "tanggal_terbit": "2022-06-17",
        "nomor_tanda_daftar": "000282.01/DJAI.PSE/06/2022",
        "qr_code": "http://pse.kominfo.go.id/api/v1/jsonapi/tdpse-terbit/qr-code/4580",
        "status_id": "TERDAFTAR",
        "sistem_elektronik_id": "4543",
        "keterangan": "-",
        "lokalitas": "LOKAL"
      },
      "links": {
        "self": "http://pse.kominfo.go.id/api/v1/jsonapi/tdpse-terbit/4580"
      }
    },
    {
      "type": "tdpseTerbit",
      "id": "4579",
      "attributes": {
        "nomor_pb_umku": "912030519120100010001",
        "nama": "TRIBUN DIGITAL ONLINE",
        "website": "Tribunnews.com",
        "sektor": "Sektor Perdagangan, Sektor Teknologi Informasi dan Komunikasi",
        "nama_tampil_badan_hukum": "PT",
        "nama_perusahaan": "PT TRIBUN BERITA ONLINE",
        "tanggal_daftar": "2022-06-17",
        "tanggal_terbit": "2022-06-17",
        "nomor_tanda_daftar": "002867.02/DJAI.PSE/06/2022",
        "qr_code": "http://pse.kominfo.go.id/api/v1/jsonapi/tdpse-terbit/qr-code/4579",
        "status_id": "TERDAFTAR",
        "sistem_elektronik_id": "4541",
        "keterangan": "-",
        "lokalitas": "LOKAL"
      },
      "links": {
        "self": "http://pse.kominfo.go.id/api/v1/jsonapi/tdpse-terbit/4579"
      }
    },
    {
      "type": "tdpseTerbit",
      "id": "4578",
      "attributes": {
        "nomor_pb_umku": "070422005931100100002",
        "nama": "UMKM LOMPAT KELAS ( E-UMKM.MY.ID )",
        "website": "e-umkm.my.id",
        "sektor": "Sektor Perdagangan, Sektor Energi dan Sumber Daya Mineral, Sektor Transportasi, Sektor Keuangan, Sektor Kesehatan, Sektor Teknologi Informasi dan Komunikasi, Sektor Pangan, Sektor Pertahanan dan Keamanan",
        "nama_tampil_badan_hukum": "Yayasan",
        "nama_perusahaan": "Yayasan PUSAT STRATEGI DAN AKSELERASI PEMBANGUNAN INDONESIA MAJU",
        "tanggal_daftar": "2022-06-17",
        "tanggal_terbit": "2022-06-17",
        "nomor_tanda_daftar": "002952.02/DJAI.PSE/06/2022",
        "qr_code": "http://pse.kominfo.go.id/api/v1/jsonapi/tdpse-terbit/qr-code/4578",
        "status_id": "TERDAFTAR",
        "sistem_elektronik_id": "4542",
        "keterangan": "-",
        "lokalitas": "LOKAL"
      },
      "links": {
        "self": "http://pse.kominfo.go.id/api/v1/jsonapi/tdpse-terbit/4578"
      }
    },
    {
      "type": "tdpseTerbit",
      "id": "4577",
      "attributes": {
        "nomor_pb_umku": "912040980232100000001",
        "nama": "WILKASTORE.CO.ID",
        "website": "wilkapower.com",
        "sektor": "Sektor Perdagangan, Sektor Energi dan Sumber Daya Mineral",
        "nama_tampil_badan_hukum": "PT",
        "nama_perusahaan": "PT WILKA ENERGI SOLUSI",
        "tanggal_daftar": "2022-06-16",
        "tanggal_terbit": "2022-06-17",
        "nomor_tanda_daftar": "000310.01/DJAI.PSE/06/2022",
        "qr_code": "http://pse.kominfo.go.id/api/v1/jsonapi/tdpse-terbit/qr-code/4577",
        "status_id": "TERDAFTAR",
        "sistem_elektronik_id": "4534",
        "keterangan": "-",
        "lokalitas": "LOKAL"
      },
      "links": {
        "self": "http://pse.kominfo.go.id/api/v1/jsonapi/tdpse-terbit/4577"
      }
    }
  ]
}