{
  "meta": {
    "page": {
      "currentPage": 379,
      "from": 3781,
      "lastPage": 1055,
      "perPage": 10,
      "to": 3790,
      "total": 10545
    }
  },
  "data": [
    {
      "type": "tdpseTerbit",
      "id": 7549,
      "attributes": {
        "nomor_pb_umku": "912020187146200010003",
        "nama": "KASDA ONLINE",
        "website": "banksulutgo.co.id",
        "sektor": "Sektor Teknologi Informasi dan Komunikasi",
        "nama_perusahaan": "BANK PEMBANGUNAN DAERAH SULAWESI UTARA GORONTALO",
        "tanggal_daftar": "2022-07-20",
        "nomor_tanda_daftar": "004481.03/DJAI.PSE/07/2022",
        "qr_code": "https://pse.kominfo.go.id/storage/images/qr_code/b6b45a56cf8611158cf5ce7fc71fd80e.png",
        "status_id": "TERDAFTAR",
        "sistem_elektronik_id": 5890
      }
    },
    {
      "type": "tdpseTerbit",
      "id": 7552,
      "attributes": {
        "nomor_pb_umku": "912020187146200010004",
        "nama": "INTERNET BANKING NON PERORANGAN (BSGDIRECT)",
        "website": "-",
        "sektor": "Sektor Keuangan",
        "nama_perusahaan": "BANK PEMBANGUNAN DAERAH SULAWESI UTARA GORONTALO",
        "tanggal_daftar": "2022-07-20",
        "nomor_tanda_daftar": "004481.02/DJAI.PSE/07/2022",
        "qr_code": "https://pse.kominfo.go.id/storage/images/qr_code/a5e089e329e6c7dca78e4313878764bb.png",
        "status_id": "TERDAFTAR",
        "sistem_elektronik_id": 5889
      }
    },
    {
      "type": "tdpseTerbit",
      "id": 7553,
      "attributes": {
        "nomor_pb_umku": "912020187146200010005",
        "nama": "MOBILE BANKING (BSGTOUCH)",
        "website": "-",
        "sektor": "Sektor Keuangan",
        "nama_perusahaan": "BANK PEMBANGUNAN DAERAH SULAWESI UTARA GORONTALO",
        "tanggal_daftar": "2022-07-20",
        "nomor_tanda_daftar": "004481.01/DJAI.PSE/07/2022",
        "qr_code": "https://pse.kominfo.go.id/storage/images/qr_code/6be6d0b70624439170847adff6da335d.png",
        "status_id": "TERDAFTAR",
        "sistem_elektronik_id": 5888
      }
    },
    {
      "type": "tdpseTerbit",
      "id": 6023,
      "attributes": {
        "nomor_pb_umku": "180722000057900000001",
        "nama": "SELNOVIKTECH.COM",
        "website": "SelnovikTech.com",
        "sektor": "Sektor Teknologi Informasi dan Komunikasi",
        "nama_perusahaan": "M BERLIAN SELNOVIK ",
        "tanggal_daftar": "2022-07-17",
        "nomor_tanda_daftar": "004480.01/DJAI.PSE/07/2022",
        "qr_code": "https://pse.kominfo.go.id/storage/images/qr_code/0b7107c6a242c8ce5f903625f7c73133.png",
        "status_id": "TERDAFTAR",
        "sistem_elektronik_id": 5886
      }
    },
    {
      "type": "tdpseTerbit",
      "id": 6247,
      "attributes": {
        "nomor_pb_umku": "180722000027600000001",
        "nama": "KATAKI SHOP",
        "website": "-",
        "sektor": "Sektor Perdagangan",
        "nama_perusahaan": "ALI RAJA",
        "tanggal_daftar": "2022-07-18",
        "nomor_tanda_daftar": "004477.01/DJAI.PSE/07/2022",
        "qr_code": "https://pse.kominfo.go.id/storage/images/qr_code/567ff33a46f49029ae697cfddc073dab.png",
        "status_id": "TERDAFTAR",
        "sistem_elektronik_id": 6111
      }
    },
    {
      "type": "tdpseTerbit",
      "id": 6024,
      "attributes": {
        "nomor_pb_umku": "121021004703500030001",
        "nama": "PULSAKU.ID - TRANSKSI & PEMBAYARAN DIGITAL",
        "website": "pulsaku.id",
        "sektor": "Sektor Perdagangan, Sektor Teknologi Informasi dan Komunikasi",
        "nama_perusahaan": "PORTAL INDUSTRI DIGITAL",
        "tanggal_daftar": "2022-07-17",
        "nomor_tanda_daftar": "004476.01/DJAI.PSE/07/2022",
        "qr_code": "https://pse.kominfo.go.id/storage/images/qr_code/5aabfffcdba6f23427054f3fdab0e7b9.png",
        "status_id": "TERDAFTAR",
        "sistem_elektronik_id": 5887
      }
    },
    {
      "type": "tdpseTerbit",
      "id": 6471,
      "attributes": {
        "nomor_pb_umku": "100921006747500010001",
        "nama": "SISTEM INFORMASI AKADEMIK STAI ALKARIMIYAH",
        "website": "siak.stai.alkarimiyah.ac.id",
        "sektor": "Sektor Teknologi Informasi dan Komunikasi",
        "nama_perusahaan": "BUYAS MEDIA TEKNOLOGI NUSANTARA",
        "tanggal_daftar": "2022-07-18",
        "nomor_tanda_daftar": "004475.01/DJAI.PSE/07/2022",
        "qr_code": "https://pse.kominfo.go.id/storage/images/qr_code/0426ed8b53aeea259e1844014429d910.png",
        "status_id": "TERDAFTAR",
        "sistem_elektronik_id": 6334
      }
    },
    {
      "type": "tdpseTerbit",
      "id": 6018,
      "attributes": {
        "nomor_pb_umku": "170722001904100000001",
        "nama": "ANEKAFX",
        "website": "anekafx.com",
        "sektor": "Sektor Keuangan, Sektor Teknologi Informasi dan Komunikasi",
        "nama_perusahaan": "ABDULLAH ZUHRI",
        "tanggal_daftar": "2022-07-17",
        "nomor_tanda_daftar": "004469.01/DJAI.PSE/07/2022",
        "qr_code": "https://pse.kominfo.go.id/storage/images/qr_code/417a6c6bd18859e2a3cf562626a8f51b.png",
        "status_id": "TERDAFTAR",
        "sistem_elektronik_id": 5878
      }
    },
    {
      "type": "tdpseTerbit",
      "id": 6015,
      "attributes": {
        "nomor_pb_umku": "170722001857100000001",
        "nama": "TUPAPUA",
        "website": "-",
        "sektor": "Sektor Teknologi Informasi dan Komunikasi",
        "nama_perusahaan": "ARHAN NUDDIN",
        "tanggal_daftar": "2022-07-17",
        "nomor_tanda_daftar": "004468.01/DJAI.PSE/07/2022",
        "qr_code": "https://pse.kominfo.go.id/storage/images/qr_code/3ad273c69eb9bee3e9fa37b59c18f11d.png",
        "status_id": "TERDAFTAR",
        "sistem_elektronik_id": 5879
      }
    },
    {
      "type": "tdpseTerbit",
      "id": 6120,
      "attributes": {
        "nomor_pb_umku": "081021004570500000002",
        "nama": "LEGASUSSTORE",
        "website": "legasusstore.tokowebku.com",
        "sektor": "Sektor Perdagangan, Sektor Teknologi Informasi dan Komunikasi",
        "nama_perusahaan": "RIYADH MUHAMMAD AL WARID",
        "tanggal_daftar": "2022-07-18",
        "nomor_tanda_daftar": "004467.02/DJAI.PSE/07/2022",
        "qr_code": "https://pse.kominfo.go.id/storage/images/qr_code/11b8f7423e06c27741591e52b146ba43.png",
        "status_id": "TERDAFTAR",
        "sistem_elektronik_id": 5990
      }
    }
  ]
}