{
  "meta": {
    "page": {
      "currentPage": 381,
      "from": 3801,
      "lastPage": 890,
      "perPage": 10,
      "to": 3810,
      "total": 8897
    }
  },
  "data": [
    {
      "type": "tdpseTerbit",
      "id": 7057,
      "attributes": {
        "nomor_pb_umku": "150622001846300010001",
        "nama": "TYXMA",
        "website": "tyxma.co.id",
        "sektor": "Sektor Perdagangan",
        "nama_perusahaan": "KALIMASADA SAKTI TEKNOLOGI",
        "tanggal_daftar": "2022-07-19",
        "nomor_tanda_daftar": "003253.01/DJAI.PSE/07/2022",
        "qr_code": "https://pse.kominfo.go.id/storage/images/qr_code/d3dd1a37d85bebf0c699ab6b11350051.png",
        "status_id": "TERDAFTAR",
        "sistem_elektronik_id": 6919
      }
    },
    {
      "type": "tdpseTerbit",
      "id": 4604,
      "attributes": {
        "nomor_pb_umku": "191121002531300020003",
        "nama": "ORDERPLIZZ",
        "website": "orderplizz.com",
        "sektor": "Sektor Pangan",
        "nama_perusahaan": "ORDERPLIZZ INDONESIA MAJU",
        "tanggal_daftar": "2022-06-18",
        "nomor_tanda_daftar": "003249.01/DJAI.PSE/06/2022",
        "qr_code": "https://pse.kominfo.go.id/storage/images/qr_code/22f479acbcdff4e157b26388d230975a.png",
        "status_id": "TERDAFTAR",
        "sistem_elektronik_id": 4567
      }
    },
    {
      "type": "tdpseTerbit",
      "id": 4651,
      "attributes": {
        "nomor_pb_umku": "250322004689200000001",
        "nama": "FINCA",
        "website": "finca.id",
        "sektor": "Sektor Keuangan",
        "nama_perusahaan": "FINCA TEKNOLOGI INDONESIA",
        "tanggal_daftar": "2022-06-21",
        "nomor_tanda_daftar": "003248.01/DJAI.PSE/06/2022",
        "qr_code": "https://pse.kominfo.go.id/storage/images/qr_code/4102686ca4209a0185c2a752d867f0f5.png",
        "status_id": "TERDAFTAR",
        "sistem_elektronik_id": 4611
      }
    },
    {
      "type": "tdpseTerbit",
      "id": 4760,
      "attributes": {
        "nomor_pb_umku": "812001227093300010001",
        "nama": "TANTOLINK",
        "website": "tantonet.com",
        "sektor": "Sektor Transportasi",
        "nama_perusahaan": "TANTO INTIM LINE",
        "tanggal_daftar": "2022-06-25",
        "nomor_tanda_daftar": "003246.01/DJAI.PSE/06/2022",
        "qr_code": "https://pse.kominfo.go.id/storage/images/qr_code/8df04473c98eb96c516128738cd04ca4.png",
        "status_id": "TERDAFTAR",
        "sistem_elektronik_id": 4706
      }
    },
    {
      "type": "tdpseTerbit",
      "id": 9429,
      "attributes": {
        "nomor_pb_umku": "812001623058400270008",
        "nama": "LINTASARTA CLOUDEKA",
        "website": "cloudeka.id",
        "sektor": "Sektor Teknologi Informasi dan Komunikasi",
        "nama_perusahaan": "APLIKANUSA LINTASARTA",
        "tanggal_daftar": "2022-07-30",
        "nomor_tanda_daftar": "003235.04/DJAI.PSE/07/2022",
        "qr_code": "https://pse.kominfo.go.id/storage/images/qr_code/1b61d89e3eeec7315668ea4e64c756f5.png",
        "status_id": "TERDAFTAR",
        "sistem_elektronik_id": 9341
      }
    },
    {
      "type": "tdpseTerbit",
      "id": 9348,
      "attributes": {
        "nomor_pb_umku": "812001623058400270007",
        "nama": "LINTASARTA E-COMMERCE",
        "website": "lintasarta.net",
        "sektor": "Sektor Perdagangan",
        "nama_perusahaan": "APLIKANUSA LINTASARTA",
        "tanggal_daftar": "2022-07-29",
        "nomor_tanda_daftar": "003235.03/DJAI.PSE/07/2022",
        "qr_code": "https://pse.kominfo.go.id/storage/images/qr_code/2173f1189fac78d9e18f02663a6f0f67.png",
        "status_id": "TERDAFTAR",
        "sistem_elektronik_id": 9260
      }
    },
    {
      "type": "tdpseTerbit",
      "id": 8912,
      "attributes": {
        "nomor_pb_umku": "812001623058400270006",
        "nama": "IPROCURA",
        "website": "eproc.lintasarta.net",
        "sektor": "Sektor Perdagangan",
        "nama_perusahaan": "APLIKANUSA LINTASARTA",
        "tanggal_daftar": "2022-07-23",
        "nomor_tanda_daftar": "003235.02/DJAI.PSE/07/2022",
        "qr_code": "https://pse.kominfo.go.id/storage/images/qr_code/505dd4255eb79bc286fd967fe41b1d29.png",
        "status_id": "TERDAFTAR",
        "sistem_elektronik_id": 8816
      }
    },
    {
      "type": "tdpseTerbit",
      "id": 4635,
      "attributes": {
        "nomor_pb_umku": "812001623058400250005",
        "nama": "LINTASARTA E-KYC",
        "website": "-",
        "sektor": "Sektor Teknologi Informasi dan Komunikasi",
        "nama_perusahaan": "APLIKANUSA LINTASARTA",
        "tanggal_daftar": "2022-06-21",
        "nomor_tanda_daftar": "003235.01/DJAI.PSE/06/2022",
        "qr_code": "https://pse.kominfo.go.id/storage/images/qr_code/454f79b8f662c414077f36657ab76311.png",
        "status_id": "TERDAFTAR",
        "sistem_elektronik_id": 4596
      }
    },
    {
      "type": "tdpseTerbit",
      "id": 4973,
      "attributes": {
        "nomor_pb_umku": "210322006176700010001",
        "nama": "TTCHAT",
        "website": "ttchat.com",
        "sektor": "Sektor Teknologi Informasi dan Komunikasi",
        "nama_perusahaan": "QUYAN TECHNOLOGY INDONESIA",
        "tanggal_daftar": "2022-06-30",
        "nomor_tanda_daftar": "003232.01/DJAI.PSE/06/2022",
        "qr_code": "https://pse.kominfo.go.id/storage/images/qr_code/6a2593e2990020ef536d5070db4e42c7.png",
        "status_id": "TERDAFTAR",
        "sistem_elektronik_id": 4830
      }
    },
    {
      "type": "tdpseTerbit",
      "id": 4648,
      "attributes": {
        "nomor_pb_umku": "912021909039600040001",
        "nama": "PASSIO ECO",
        "website": "passio.eco",
        "sektor": "Sektor Perdagangan",
        "nama_perusahaan": "ECOMOBI DIGITAL INDONESIA",
        "tanggal_daftar": "2022-06-21",
        "nomor_tanda_daftar": "003231.02/DJAI.PSE/06/2022",
        "qr_code": "https://pse.kominfo.go.id/storage/images/qr_code/cd7eaf5a248bd9dc432af68338eed486.png",
        "status_id": "TERDAFTAR",
        "sistem_elektronik_id": 4608
      }
    }
  ]
}