{
  "meta": {
    "page": {
      "currentPage": 383,
      "from": 3821,
      "lastPage": 875,
      "perPage": 10,
      "to": 3830,
      "total": 8749
    }
  },
  "data": [
    {
      "type": "tdpseTerbit",
      "id": 4368,
      "attributes": {
        "nomor_pb_umku": "812000176280300000001",
        "nama": "HELO-BABE",
        "website": "babe.co.id",
        "sektor": "Sektor Teknologi Informasi dan Komunikasi",
        "nama_perusahaan": "MP GAMES",
        "tanggal_daftar": "2022-06-14",
        "nomor_tanda_daftar": "002831.01/DJAI.PSE/06/2022",
        "qr_code": "https://pse.kominfo.go.id/storage/images/qr_code/b97a812185de42ab3d91b6d2cd6b56e3.png",
        "status_id": "TERDAFTAR",
        "sistem_elektronik_id": 4354
      }
    },
    {
      "type": "tdpseTerbit",
      "id": 8945,
      "attributes": {
        "nomor_pb_umku": "251021001164700130005",
        "nama": "ALAMBAMAKMUR.COM",
        "website": "alambamakmur.com",
        "sektor": "Sektor Perdagangan",
        "nama_perusahaan": "ALAMBA MAKMUR BERSAMA",
        "tanggal_daftar": "2022-07-25",
        "nomor_tanda_daftar": "002824.01/DJAI.PSE/07/2022",
        "qr_code": "https://pse.kominfo.go.id/storage/images/qr_code/b9f2816e8f69e7b4f9c989cc12c742e3.png",
        "status_id": "TERDAFTAR",
        "sistem_elektronik_id": 8854
      }
    },
    {
      "type": "tdpseTerbit",
      "id": 5439,
      "attributes": {
        "nomor_pb_umku": "812011403137800010002",
        "nama": "WAHYOO",
        "website": "-",
        "sektor": "Sektor Perdagangan",
        "nama_perusahaan": "ALIRAN SUMBER BERKAT",
        "tanggal_daftar": "2022-07-13",
        "nomor_tanda_daftar": "002823.02/DJAI.PSE/07/2022",
        "qr_code": "https://pse.kominfo.go.id/storage/images/qr_code/b7f253c776395669555089113f9a912a.png",
        "status_id": "TERDAFTAR",
        "sistem_elektronik_id": 5309
      }
    },
    {
      "type": "tdpseTerbit",
      "id": 4257,
      "attributes": {
        "nomor_pb_umku": "120522003981100000001",
        "nama": "BMONEY APPLICATION & WM BACK OFFICE SYSTEM",
        "website": "bmoney.id",
        "sektor": "Sektor Teknologi Informasi dan Komunikasi",
        "nama_perusahaan": "BUKA INVESTASI DIGITAL",
        "tanggal_daftar": "2022-06-07",
        "nomor_tanda_daftar": "002813.01/DJAI.PSE/06/2022",
        "qr_code": "https://pse.kominfo.go.id/storage/images/qr_code/2ed2895730be13695d5160e1e75befc4.png",
        "status_id": "TERDAFTAR",
        "sistem_elektronik_id": 4252
      }
    },
    {
      "type": "tdpseTerbit",
      "id": 4637,
      "attributes": {
        "nomor_pb_umku": "912030838199700010001",
        "nama": "MEMBER.ID",
        "website": "member.id",
        "sektor": "Sektor Perdagangan",
        "nama_perusahaan": "GLOBAL LOYAL SEJAHTERA",
        "tanggal_daftar": "2022-06-21",
        "nomor_tanda_daftar": "002813.01/DJAI.PSE/06/2022",
        "qr_code": "https://pse.kominfo.go.id/storage/images/qr_code/f2c8e264e7ea742b246c7150ef0b9e6b.png",
        "status_id": "TERDAFTAR",
        "sistem_elektronik_id": 4591
      }
    },
    {
      "type": "tdpseTerbit",
      "id": 4294,
      "attributes": {
        "nomor_pb_umku": "190522006674300000002",
        "nama": "UI CONNECT ILUNI UI",
        "website": "-",
        "sektor": "Sektor Teknologi Informasi dan Komunikasi",
        "nama_perusahaan": "IKATAN ALUMNI UNIVERSITAS INDONESIA (ILUNI UI)",
        "tanggal_daftar": "2022-06-08",
        "nomor_tanda_daftar": "002812.02/DJAI.PSE/06/2022",
        "qr_code": "https://pse.kominfo.go.id/storage/images/qr_code/f2c1fffd2a80e71871cda721be37a4b2.png",
        "status_id": "TERDAFTAR",
        "sistem_elektronik_id": 4288
      }
    },
    {
      "type": "tdpseTerbit",
      "id": 4293,
      "attributes": {
        "nomor_pb_umku": "190522006674300000001",
        "nama": "UI CONNECT",
        "website": "-",
        "sektor": "Sektor Teknologi Informasi dan Komunikasi",
        "nama_perusahaan": "IKATAN ALUMNI UNIVERSITAS INDONESIA (ILUNI UI)",
        "tanggal_daftar": "2022-06-08",
        "nomor_tanda_daftar": "002812.01/DJAI.PSE/06/2022",
        "qr_code": "https://pse.kominfo.go.id/storage/images/qr_code/fa81c3b355576c6a1dbebbcea277cb72.png",
        "status_id": "TERDAFTAR",
        "sistem_elektronik_id": 4287
      }
    },
    {
      "type": "tdpseTerbit",
      "id": 4385,
      "attributes": {
        "nomor_pb_umku": "110122003815800000001",
        "nama": "CARIBARANG.ID",
        "website": "caribarang.id",
        "sektor": "Sektor Perdagangan, Sektor Transportasi",
        "nama_perusahaan": "DIGITAL TRADING SOLUSINDO",
        "tanggal_daftar": "2022-06-14",
        "nomor_tanda_daftar": "002809.01/DJAI.PSE/06/2022",
        "qr_code": "https://pse.kominfo.go.id/storage/images/qr_code/597fd420649e5c3c0b1d02071a4bc7f3.png",
        "status_id": "TERDAFTAR",
        "sistem_elektronik_id": 4369
      }
    },
    {
      "type": "tdpseTerbit",
      "id": 6493,
      "attributes": {
        "nomor_pb_umku": "9120100870365000000003",
        "nama": "INSPIRASIBIZ",
        "website": "inspirasi.biz",
        "sektor": "Sektor Perdagangan, Sektor Teknologi Informasi dan Komunikasi",
        "nama_perusahaan": "INSPIRASI MEDIA KREATIF",
        "tanggal_daftar": "2022-07-18",
        "nomor_tanda_daftar": "002807.03/DJAI.PSE/07/2022",
        "qr_code": "https://pse.kominfo.go.id/storage/images/qr_code/0e14432360608408318aa27d6c756c63.png",
        "status_id": "TERDAFTAR",
        "sistem_elektronik_id": 6359
      }
    },
    {
      "type": "tdpseTerbit",
      "id": 4264,
      "attributes": {
        "nomor_pb_umku": "250522005371900000001",
        "nama": "PT APLIKASI PINTAR SEJAHTERA (APS)",
        "website": "Pintarplus.com",
        "sektor": "Sektor Keuangan",
        "nama_perusahaan": "APLIKASI PINTAR SEJAHTERA",
        "tanggal_daftar": "2022-06-07",
        "nomor_tanda_daftar": "002797.01/DJAI.PSE/06/2022",
        "qr_code": "https://pse.kominfo.go.id/storage/images/qr_code/1d408a8fd6cf11866abc85aa23982caa.png",
        "status_id": "TERDAFTAR",
        "sistem_elektronik_id": 4264
      }
    }
  ]
}