{
  "meta": {
    "page": {
      "currentPage": 385,
      "from": 3841,
      "lastPage": 875,
      "perPage": 10,
      "to": 3850,
      "total": 8749
    }
  },
  "data": [
    {
      "type": "tdpseTerbit",
      "id": 8962,
      "attributes": {
        "nomor_pb_umku": "125500069073600050004",
        "nama": "SISTEM GANTI BATERAI",
        "website": "voltaindonesia.com",
        "sektor": "Sektor Transportasi, Sektor Teknologi Informasi dan Komunikasi",
        "nama_perusahaan": "ENERGI SELALU BARU",
        "tanggal_daftar": "2022-07-25",
        "nomor_tanda_daftar": "002740.01/DJAI.PSE/07/2022",
        "qr_code": "https://pse.kominfo.go.id/storage/images/qr_code/c24a82e038bc29c8ddefeaf744a9e713.png",
        "status_id": "TERDAFTAR",
        "sistem_elektronik_id": 8869
      }
    },
    {
      "type": "tdpseTerbit",
      "id": 4742,
      "attributes": {
        "nomor_pb_umku": "022020560262400000001",
        "nama": "TUJJU MANAGEMENT SYSTEM (TMS)",
        "website": "tujjumedia.com",
        "sektor": "Sektor Teknologi Informasi dan Komunikasi",
        "nama_perusahaan": "TUJJU BIO INDONESIA",
        "tanggal_daftar": "2022-06-24",
        "nomor_tanda_daftar": "002733.01/DJAI.PSE/06/2022",
        "qr_code": "https://pse.kominfo.go.id/storage/images/qr_code/306058c38317d26ff9b05d0b8f747492.png",
        "status_id": "TERDAFTAR",
        "sistem_elektronik_id": 4692
      }
    },
    {
      "type": "tdpseTerbit",
      "id": 4512,
      "attributes": {
        "nomor_pb_umku": null,
        "nama": "MORE FURNITURE",
        "website": "morefurniture.id",
        "sektor": "Sektor Perdagangan",
        "nama_perusahaan": "EFORIA FURNITUR INDONESIA",
        "tanggal_daftar": "2022-05-20",
        "nomor_tanda_daftar": "002731.01/DJAI.PSE/05/2022",
        "qr_code": "https://pse.kominfo.go.id/storage/images/qr_code/acac707a706a5e8fd3c79e93c10c1fd4.png",
        "status_id": "TERDAFTAR",
        "sistem_elektronik_id": 4496
      }
    },
    {
      "type": "tdpseTerbit",
      "id": 4511,
      "attributes": {
        "nomor_pb_umku": null,
        "nama": "tiadadua composite",
        "website": "tiadadua.com",
        "sektor": "Sektor Perdagangan, Sektor Teknologi Informasi dan Komunikasi",
        "nama_perusahaan": "DEDY MARYADI",
        "tanggal_daftar": "2022-05-20",
        "nomor_tanda_daftar": "002730.01/DJAI.PSE/05/2022",
        "qr_code": "https://pse.kominfo.go.id/storage/images/qr_code/ee93317965b540eea933810b306be60f.png",
        "status_id": "TERDAFTAR",
        "sistem_elektronik_id": 4495
      }
    },
    {
      "type": "tdpseTerbit",
      "id": 4585,
      "attributes": {
        "nomor_pb_umku": null,
        "nama": "AIM BERSAMA COMP",
        "website": "-",
        "sektor": "Sektor Perdagangan, Sektor Pertahanan dan Keamanan",
        "nama_perusahaan": "AIM BERSAMA",
        "tanggal_daftar": "2022-05-20",
        "nomor_tanda_daftar": "002729.04/DJAI.PSE/05/2022",
        "qr_code": "https://pse.kominfo.go.id/storage/images/qr_code/abc7eaaf91a7deb8ca17654058a56905.png",
        "status_id": "TERDAFTAR",
        "sistem_elektronik_id": 4548
      }
    },
    {
      "type": "tdpseTerbit",
      "id": 4235,
      "attributes": {
        "nomor_pb_umku": "912000633132700000003",
        "nama": "SIPLAH BLIBLI CV. MEDIATEK INTERNUSA",
        "website": "-",
        "sektor": "Sektor Perdagangan",
        "nama_perusahaan": "MEDIATEK INTERNUSA",
        "tanggal_daftar": "2022-06-06",
        "nomor_tanda_daftar": "002729.03/DJAI.PSE/06/2022",
        "qr_code": "https://pse.kominfo.go.id/storage/images/qr_code/acde2c31aba25f4278cdc11c557bd543.png",
        "status_id": "TERDAFTAR",
        "sistem_elektronik_id": 4231
      }
    },
    {
      "type": "tdpseTerbit",
      "id": 4584,
      "attributes": {
        "nomor_pb_umku": null,
        "nama": "AIM BERSAMA ATK",
        "website": "-",
        "sektor": "Sektor Pangan, Sektor Perdagangan, Sektor Pertahanan dan Keamanan",
        "nama_perusahaan": "AIM BERSAMA",
        "tanggal_daftar": "2022-05-20",
        "nomor_tanda_daftar": "002729.03/DJAI.PSE/05/2022",
        "qr_code": "https://pse.kominfo.go.id/storage/images/qr_code/46c31ff6f2db302158a55098f06816ec.png",
        "status_id": "TERDAFTAR",
        "sistem_elektronik_id": 4547
      }
    },
    {
      "type": "tdpseTerbit",
      "id": 4583,
      "attributes": {
        "nomor_pb_umku": null,
        "nama": "AIM COMPUTER",
        "website": "-",
        "sektor": "Sektor Perdagangan, Sektor Pertahanan dan Keamanan",
        "nama_perusahaan": "AIM BERSAMA",
        "tanggal_daftar": "2022-05-20",
        "nomor_tanda_daftar": "002729.02/DJAI.PSE/05/2022",
        "qr_code": "https://pse.kominfo.go.id/storage/images/qr_code/19a31d587bcebb42995543e007d7e9ec.png",
        "status_id": "TERDAFTAR",
        "sistem_elektronik_id": 4546
      }
    },
    {
      "type": "tdpseTerbit",
      "id": 4582,
      "attributes": {
        "nomor_pb_umku": null,
        "nama": "AIM KOMPUTER",
        "website": "-",
        "sektor": "Sektor Perdagangan, Sektor Pertahanan dan Keamanan",
        "nama_perusahaan": "AIM BERSAMA",
        "tanggal_daftar": "2022-05-20",
        "nomor_tanda_daftar": "002729.01/DJAI.PSE/05/2022",
        "qr_code": "https://pse.kominfo.go.id/storage/images/qr_code/c1c07e033660f708ae597c180b87d274.png",
        "status_id": "TERDAFTAR",
        "sistem_elektronik_id": 4545
      }
    },
    {
      "type": "tdpseTerbit",
      "id": 4510,
      "attributes": {
        "nomor_pb_umku": null,
        "nama": "Triplyfe",
        "website": "triplyfe.id",
        "sektor": "Sektor Teknologi Informasi dan Komunikasi",
        "nama_perusahaan": "TELUSUR WISATA NUSANTARA",
        "tanggal_daftar": "2022-05-20",
        "nomor_tanda_daftar": "002728.01/DJAI.PSE/05/2022",
        "qr_code": "https://pse.kominfo.go.id/storage/images/qr_code/c303f4500864c882ac4ed6324edf7bd3.png",
        "status_id": "TERDAFTAR",
        "sistem_elektronik_id": 4494
      }
    }
  ]
}