{
  "meta": {
    "page": {
      "currentPage": 40,
      "from": 391,
      "lastPage": 1113,
      "perPage": 10,
      "to": 400,
      "total": 11124
    }
  },
  "data": [
    {
      "type": "tdpseTerbit",
      "id": 11846,
      "attributes": {
        "nomor_pb_umku": "100522003376600000001",
        "nama": "REFELINK.COM",
        "website": "refelink.com",
        "sektor": "Sektor Perdagangan, Sektor Teknologi Informasi dan Komunikasi",
        "nama_perusahaan": "PIXTO DIGITAL FUTURES",
        "tanggal_daftar": "2022-10-18",
        "nomor_tanda_daftar": "008101.01/DJAI.PSE/10/2022",
        "qr_code": "https://pse.kominfo.go.id/storage/images/qr_code/b7b49be783413f8346086445d256e6bd.png",
        "status_id": "TERDAFTAR",
        "sistem_elektronik_id": 11633
      }
    },
    {
      "type": "tdpseTerbit",
      "id": 11804,
      "attributes": {
        "nomor_pb_umku": "812031614252300000002",
        "nama": "PT LEICA GEOSYSTEMS",
        "website": "HEXAGON.COM",
        "sektor": "Sektor Teknologi Informasi dan Komunikasi",
        "nama_perusahaan": "LEICA GEOSYSTEMS",
        "tanggal_daftar": "2022-10-14",
        "nomor_tanda_daftar": "008100.01/DJAI.PSE/10/2022",
        "qr_code": "https://pse.kominfo.go.id/storage/images/qr_code/fefa2668dafb439d8c45184fe5d686ba.png",
        "status_id": "TERDAFTAR",
        "sistem_elektronik_id": 11604
      }
    },
    {
      "type": "tdpseTerbit",
      "id": 11852,
      "attributes": {
        "nomor_pb_umku": "230822007761600010001",
        "nama": "BANK MADINA SYARIAH",
        "website": "bankmadinasyariah.com",
        "sektor": "Sektor Keuangan",
        "nama_perusahaan": "BANK PEMBIAYAAN RAKYAT SYARIAH MADINA MANDIRI SEJAHTERA",
        "tanggal_daftar": "2022-10-18",
        "nomor_tanda_daftar": "008099.01/DJAI.PSE/10/2022",
        "qr_code": "https://pse.kominfo.go.id/storage/images/qr_code/67d8e25e2eac6fed7cb59912543351dc.png",
        "status_id": "TERDAFTAR",
        "sistem_elektronik_id": 11655
      }
    },
    {
      "type": "tdpseTerbit",
      "id": 11789,
      "attributes": {
        "nomor_pb_umku": "912010184212800020002",
        "nama": "MIR BPM",
        "website": "mirbpmprod.mir.co.id",
        "sektor": "Sektor Keuangan",
        "nama_perusahaan": "MITRA ISWARA & RORIMPANDEY",
        "tanggal_daftar": "2022-10-13",
        "nomor_tanda_daftar": "008098.02/DJAI.PSE/10/2022",
        "qr_code": "https://pse.kominfo.go.id/storage/images/qr_code/da294e0ebc5a8f986422e110e76e594c.png",
        "status_id": "TERDAFTAR",
        "sistem_elektronik_id": 11590
      }
    },
    {
      "type": "tdpseTerbit",
      "id": 11788,
      "attributes": {
        "nomor_pb_umku": "912010184212800020001",
        "nama": "MIR WEBSITE",
        "website": "mirbrokers.com",
        "sektor": "Sektor Keuangan",
        "nama_perusahaan": "MITRA ISWARA & RORIMPANDEY",
        "tanggal_daftar": "2022-10-13",
        "nomor_tanda_daftar": "008098.01/DJAI.PSE/10/2022",
        "qr_code": "https://pse.kominfo.go.id/storage/images/qr_code/1535c537628dd234ef4c27906ae6c080.png",
        "status_id": "TERDAFTAR",
        "sistem_elektronik_id": 11589
      }
    },
    {
      "type": "tdpseTerbit",
      "id": 12297,
      "attributes": {
        "nomor_pb_umku": "080922012168900000003",
        "nama": "RSSWEB.ID",
        "website": "rssweb.id",
        "sektor": "Sektor Teknologi Informasi dan Komunikasi",
        "nama_perusahaan": "MULAI WEB INDONESIA",
        "tanggal_daftar": "2022-11-15",
        "nomor_tanda_daftar": "008097.03/DJAI.PSE/11/2022",
        "qr_code": "https://pse.kominfo.go.id/storage/images/qr_code/1c37f15d1ed9d910affdb25e122dbe00.png",
        "status_id": "TERDAFTAR",
        "sistem_elektronik_id": 12091
      }
    },
    {
      "type": "tdpseTerbit",
      "id": 11892,
      "attributes": {
        "nomor_pb_umku": "080922012168900000002",
        "nama": "DONASIIN.COM",
        "website": "donasiin.com",
        "sektor": "Sektor Teknologi Informasi dan Komunikasi",
        "nama_perusahaan": "MULAI WEB INDONESIA",
        "tanggal_daftar": "2022-10-20",
        "nomor_tanda_daftar": "008097.02/DJAI.PSE/10/2022",
        "qr_code": "https://pse.kominfo.go.id/storage/images/qr_code/6f927326e861312560982f35fdaa7e5b.png",
        "status_id": "TERDAFTAR",
        "sistem_elektronik_id": 11696
      }
    },
    {
      "type": "tdpseTerbit",
      "id": 11787,
      "attributes": {
        "nomor_pb_umku": "080922012168900000001",
        "nama": "MULAI WEB INDONESIA",
        "website": "mulaiweb.com",
        "sektor": "Sektor Teknologi Informasi dan Komunikasi",
        "nama_perusahaan": "MULAI WEB INDONESIA",
        "tanggal_daftar": "2022-10-13",
        "nomor_tanda_daftar": "008097.01/DJAI.PSE/10/2022",
        "qr_code": "https://pse.kominfo.go.id/storage/images/qr_code/df69deca1cf24c061977757daffff047.png",
        "status_id": "TERDAFTAR",
        "sistem_elektronik_id": 11588
      }
    },
    {
      "type": "tdpseTerbit",
      "id": 11784,
      "attributes": {
        "nomor_pb_umku": "080722004633300010001",
        "nama": "ADOP ONLINE",
        "website": "-",
        "sektor": "Sektor Perdagangan",
        "nama_perusahaan": "TANRAZ STRATEGI UTAMA",
        "tanggal_daftar": "2022-10-13",
        "nomor_tanda_daftar": "008096.01/DJAI.PSE/10/2022",
        "qr_code": "https://pse.kominfo.go.id/storage/images/qr_code/8bbb49ff8ca31d76542a9aea207b7a77.png",
        "status_id": "TERDAFTAR",
        "sistem_elektronik_id": 11585
      }
    },
    {
      "type": "tdpseTerbit",
      "id": 11783,
      "attributes": {
        "nomor_pb_umku": "210922008560300000001",
        "nama": "MITRA DESA DIGITAL",
        "website": "mitradesadigital.id",
        "sektor": "Sektor Teknologi Informasi dan Komunikasi",
        "nama_perusahaan": "MITRA DESA DIGITAL",
        "tanggal_daftar": "2022-10-12",
        "nomor_tanda_daftar": "008093.01/DJAI.PSE/10/2022",
        "qr_code": "https://pse.kominfo.go.id/storage/images/qr_code/5e7bae86d4f53901001b3be84b3feb5a.png",
        "status_id": "TERDAFTAR",
        "sistem_elektronik_id": 11583
      }
    }
  ]
}