{
  "meta": {
    "page": {
      "currentPage": 397,
      "from": 3961,
      "lastPage": 952,
      "perPage": 10,
      "to": 3970,
      "total": 9517
    }
  },
  "data": [
    {
      "type": "tdpseTerbit",
      "id": 5358,
      "attributes": {
        "nomor_pb_umku": "812000390167501850003",
        "nama": "IMFI EZ FOR YOU",
        "website": "-",
        "sektor": "Sektor Keuangan",
        "nama_perusahaan": "INDOMOBIL FINANCE INDONESIA",
        "tanggal_daftar": "2022-07-12",
        "nomor_tanda_daftar": "003628.03/DJAI.PSE/07/2022",
        "qr_code": "https://pse.kominfo.go.id/storage/images/qr_code/9da1bb7321495218a364b383dc9a3140.png",
        "status_id": "TERDAFTAR",
        "sistem_elektronik_id": 5231
      }
    },
    {
      "type": "tdpseTerbit",
      "id": 5355,
      "attributes": {
        "nomor_pb_umku": "812000390167501850002",
        "nama": "INDOMOBIL FINANCE INDONESIA (IMFI) PRODUCT WEBSITE",
        "website": "imfi.co.id",
        "sektor": "Sektor Keuangan",
        "nama_perusahaan": "INDOMOBIL FINANCE INDONESIA",
        "tanggal_daftar": "2022-07-12",
        "nomor_tanda_daftar": "003628.02/DJAI.PSE/07/2022",
        "qr_code": "https://pse.kominfo.go.id/storage/images/qr_code/e2103ffdf19ee0f890e1381474429375.png",
        "status_id": "TERDAFTAR",
        "sistem_elektronik_id": 5228
      }
    },
    {
      "type": "tdpseTerbit",
      "id": 5171,
      "attributes": {
        "nomor_pb_umku": "812000390167501850001",
        "nama": "INDOMOBIL FINANCE INDONESIA (IMFI) WEBSITE",
        "website": "indomobilfinance.com",
        "sektor": "Sektor Keuangan",
        "nama_perusahaan": "INDOMOBIL FINANCE INDONESIA",
        "tanggal_daftar": "2022-07-07",
        "nomor_tanda_daftar": "003628.01/DJAI.PSE/07/2022",
        "qr_code": "https://pse.kominfo.go.id/storage/images/qr_code/44d8428393f8c95737ff63abac57cb1d.png",
        "status_id": "TERDAFTAR",
        "sistem_elektronik_id": 5037
      }
    },
    {
      "type": "tdpseTerbit",
      "id": 5001,
      "attributes": {
        "nomor_pb_umku": "180622000116400020001",
        "nama": "FIXPULSA",
        "website": "fixpulsa.top",
        "sektor": "Sektor Perdagangan",
        "nama_perusahaan": "SURYA SENTOSA SELALU",
        "tanggal_daftar": "2022-07-01",
        "nomor_tanda_daftar": "003627.01/DJAI.PSE/07/2022",
        "qr_code": "https://pse.kominfo.go.id/storage/images/qr_code/9f31c80b3c7d23e15737c2fb07bf9d6d.png",
        "status_id": "TERDAFTAR",
        "sistem_elektronik_id": 4870
      }
    },
    {
      "type": "tdpseTerbit",
      "id": 4999,
      "attributes": {
        "nomor_pb_umku": "231121000471600050003",
        "nama": "JASAKULEGALITAS.COM",
        "website": "jasakulegalitas.com",
        "sektor": "Sektor Perdagangan",
        "nama_perusahaan": "JASAKU CONSULTANT CORP",
        "tanggal_daftar": "2022-07-01",
        "nomor_tanda_daftar": "003626.03/DJAI.PSE/07/2022",
        "qr_code": "https://pse.kominfo.go.id/storage/images/qr_code/548ed858d15cd91e4df97d259f03d4d0.png",
        "status_id": "TERDAFTAR",
        "sistem_elektronik_id": 4868
      }
    },
    {
      "type": "tdpseTerbit",
      "id": 4998,
      "attributes": {
        "nomor_pb_umku": "231121000471600050003",
        "nama": "JASAKU CONSULTANT CORP",
        "website": "jasakulegalitas.com",
        "sektor": "Sektor Perdagangan",
        "nama_perusahaan": "JASAKU CONSULTANT CORP",
        "tanggal_daftar": "2022-07-01",
        "nomor_tanda_daftar": "003626.02/DJAI.PSE/07/2022",
        "qr_code": "https://pse.kominfo.go.id/storage/images/qr_code/b7c1940d67881b2d3e578abb972039c5.png",
        "status_id": "TERDAFTAR",
        "sistem_elektronik_id": 4867
      }
    },
    {
      "type": "tdpseTerbit",
      "id": 4996,
      "attributes": {
        "nomor_pb_umku": "231121000471600050002",
        "nama": "PT. JASAKU CONSULTANT CORP",
        "website": "jasakulegalitas.com",
        "sektor": "Sektor Keuangan",
        "nama_perusahaan": "JASAKU CONSULTANT CORP",
        "tanggal_daftar": "2022-07-01",
        "nomor_tanda_daftar": "003626.01/DJAI.PSE/07/2022",
        "qr_code": "https://pse.kominfo.go.id/storage/images/qr_code/87c169aef448151beeaef3d957d98ac9.png",
        "status_id": "TERDAFTAR",
        "sistem_elektronik_id": 4865
      }
    },
    {
      "type": "tdpseTerbit",
      "id": 4995,
      "attributes": {
        "nomor_pb_umku": "912011629266600010001",
        "nama": "GPOS LITE",
        "website": "-",
        "sektor": "Sektor Perdagangan, Sektor Kesehatan",
        "nama_perusahaan": "MEDELA POTENTIA",
        "tanggal_daftar": "2022-07-01",
        "nomor_tanda_daftar": "003625.01/DJAI.PSE/07/2022",
        "qr_code": "https://pse.kominfo.go.id/storage/images/qr_code/c39b29c36d084c20ad22ecb90c2628d3.png",
        "status_id": "TERDAFTAR",
        "sistem_elektronik_id": 4864
      }
    },
    {
      "type": "tdpseTerbit",
      "id": 4993,
      "attributes": {
        "nomor_pb_umku": "190122001735800000002",
        "nama": "PT JAGOAN LEGAL CORP",
        "website": "jagoanlegalitas.com",
        "sektor": "Sektor Perdagangan",
        "nama_perusahaan": "JAGOAN LEGAL CORP",
        "tanggal_daftar": "2022-07-01",
        "nomor_tanda_daftar": "003621.02/DJAI.PSE/07/2022",
        "qr_code": "https://pse.kominfo.go.id/storage/images/qr_code/540dc0fbc1a53dd82edfe588416b0bcf.png",
        "status_id": "TERDAFTAR",
        "sistem_elektronik_id": 4862
      }
    },
    {
      "type": "tdpseTerbit",
      "id": 4992,
      "attributes": {
        "nomor_pb_umku": "190122001735800000001",
        "nama": "PT. JAGOAN LEGAL CORP",
        "website": "jagoanlegalitas.com",
        "sektor": "Sektor Perdagangan",
        "nama_perusahaan": "JAGOAN LEGAL CORP",
        "tanggal_daftar": "2022-07-01",
        "nomor_tanda_daftar": "003621.01/DJAI.PSE/07/2022",
        "qr_code": "https://pse.kominfo.go.id/storage/images/qr_code/1d9aad158e067f02c53f6c8da66f3d5b.png",
        "status_id": "TERDAFTAR",
        "sistem_elektronik_id": 4861
      }
    }
  ]
}