{
  "meta": {
    "page": {
      "currentPage": 5,
      "from": 41,
      "lastPage": 912,
      "perPage": 10,
      "to": 50,
      "total": 9118
    }
  },
  "data": [
    {
      "type": "tdpseTerbit",
      "id": 9795,
      "attributes": {
        "nomor_pb_umku": "912010750167900000001",
        "nama": "VISA TOUR ONLINE",
        "website": "-",
        "sektor": "Sektor Transportasi, Sektor Teknologi Informasi dan Komunikasi",
        "nama_perusahaan": "OREN DIGITAL SOLUSI",
        "tanggal_daftar": "2022-08-03",
        "nomor_tanda_daftar": "006867.01/DJAI.PSE/08/2022",
        "qr_code": "https://pse.kominfo.go.id/storage/images/qr_code/ea764b03a429b91c7cded4c2506400fb.png",
        "status_id": "TERDAFTAR",
        "sistem_elektronik_id": 9670
      }
    },
    {
      "type": "tdpseTerbit",
      "id": 9784,
      "attributes": {
        "nomor_pb_umku": "912030283350400070002",
        "nama": "PT PRASETIA DWIDHARMA",
        "website": "prasetia.co.id",
        "sektor": "Sektor Perdagangan",
        "nama_perusahaan": "PRASETIA DWIDHARMA",
        "tanggal_daftar": "2022-08-03",
        "nomor_tanda_daftar": "006864.01/DJAI.PSE/08/2022",
        "qr_code": "https://pse.kominfo.go.id/storage/images/qr_code/bd11f5c8a0da2a52e04e98b05959d1f6.png",
        "status_id": "TERDAFTAR",
        "sistem_elektronik_id": 9658
      }
    },
    {
      "type": "tdpseTerbit",
      "id": 9801,
      "attributes": {
        "nomor_pb_umku": "190522005925100010001",
        "nama": "DIGIMALL INDONESIA",
        "website": "digimall.id",
        "sektor": "Sektor Perdagangan, Sektor Teknologi Informasi dan Komunikasi",
        "nama_perusahaan": "GUNSAS DIGIMALL INDONESIA",
        "tanggal_daftar": "2022-08-03",
        "nomor_tanda_daftar": "006857.01/DJAI.PSE/08/2022",
        "qr_code": "https://pse.kominfo.go.id/storage/images/qr_code/8d34eb15570750317de3685634a4f364.png",
        "status_id": "TERDAFTAR",
        "sistem_elektronik_id": 9677
      }
    },
    {
      "type": "tdpseTerbit",
      "id": 9815,
      "attributes": {
        "nomor_pb_umku": "171121003499600030001",
        "nama": "DIJASA",
        "website": "-",
        "sektor": "Sektor Transportasi, Sektor Teknologi Informasi dan Komunikasi",
        "nama_perusahaan": "DIJASA BISA SEMUA",
        "tanggal_daftar": "2022-08-03",
        "nomor_tanda_daftar": "006853.01/DJAI.PSE/08/2022",
        "qr_code": "https://pse.kominfo.go.id/storage/images/qr_code/049f66ededb4ef5ee14aea1894987fae.png",
        "status_id": "TERDAFTAR",
        "sistem_elektronik_id": 9689
      }
    },
    {
      "type": "tdpseTerbit",
      "id": 9793,
      "attributes": {
        "nomor_pb_umku": "127800021235800010001",
        "nama": "NAVEES GOLD",
        "website": "naveesgold.id",
        "sektor": "Sektor Perdagangan",
        "nama_perusahaan": "NAVEES PRATAMA MULIA",
        "tanggal_daftar": "2022-08-03",
        "nomor_tanda_daftar": "006851.01/DJAI.PSE/08/2022",
        "qr_code": "https://pse.kominfo.go.id/storage/images/qr_code/eb83c85810e6111c32f2ae957a8c0bde.png",
        "status_id": "TERDAFTAR",
        "sistem_elektronik_id": 9667
      }
    },
    {
      "type": "tdpseTerbit",
      "id": 9768,
      "attributes": {
        "nomor_pb_umku": "030822002242900000001",
        "nama": "OUR WEDDING LINK",
        "website": "our-wedding.link",
        "sektor": "Sektor Teknologi Informasi dan Komunikasi",
        "nama_perusahaan": "MEDIANTO JAELANI",
        "tanggal_daftar": "2022-08-03",
        "nomor_tanda_daftar": "006850.01/DJAI.PSE/08/2022",
        "qr_code": "https://pse.kominfo.go.id/storage/images/qr_code/9cdfe0b6b1f43c17a1863332a83b2a46.png",
        "status_id": "TERDAFTAR",
        "sistem_elektronik_id": 9643
      }
    },
    {
      "type": "tdpseTerbit",
      "id": 9769,
      "attributes": {
        "nomor_pb_umku": "030822002210400000001",
        "nama": "PT. BPR DANA TIRTARAYA",
        "website": "bprdanatirtaraya.cn",
        "sektor": "Sektor Keuangan",
        "nama_perusahaan": "BANK PERKREDITAN RAKYAT DANA TIRTARAYA",
        "tanggal_daftar": "2022-08-03",
        "nomor_tanda_daftar": "006849.01/DJAI.PSE/08/2022",
        "qr_code": "https://pse.kominfo.go.id/storage/images/qr_code/e165db081ba3918a92f43eac25579096.png",
        "status_id": "TERDAFTAR",
        "sistem_elektronik_id": 9644
      }
    },
    {
      "type": "tdpseTerbit",
      "id": 9772,
      "attributes": {
        "nomor_pb_umku": "912000917170500020002",
        "nama": "REGISTRASI ELEKTRONIK ONLINE",
        "website": "member.midtou.com",
        "sektor": "Sektor Perdagangan",
        "nama_perusahaan": "MIDTOU ARYACOM FUTURES",
        "tanggal_daftar": "2022-08-03",
        "nomor_tanda_daftar": "006848.01/DJAI.PSE/08/2022",
        "qr_code": "https://pse.kominfo.go.id/storage/images/qr_code/8a7ecf19b61da71ccb9a98c11032bdb9.png",
        "status_id": "TERDAFTAR",
        "sistem_elektronik_id": 9646
      }
    },
    {
      "type": "tdpseTerbit",
      "id": 9807,
      "attributes": {
        "nomor_pb_umku": "912021717078600010001",
        "nama": "PROLOV",
        "website": "prolov.co.id",
        "sektor": "Sektor Perdagangan, Sektor Teknologi Informasi dan Komunikasi",
        "nama_perusahaan": "PROLOV JUARA PROPERTI",
        "tanggal_daftar": "2022-08-03",
        "nomor_tanda_daftar": "006846.01/DJAI.PSE/08/2022",
        "qr_code": "https://pse.kominfo.go.id/storage/images/qr_code/9276a45c020e686a6c589ac3c08f0618.png",
        "status_id": "TERDAFTAR",
        "sistem_elektronik_id": 9641
      }
    },
    {
      "type": "tdpseTerbit",
      "id": 9753,
      "attributes": {
        "nomor_pb_umku": "030822001698900000001",
        "nama": "MAJUSHOP",
        "website": "majushop.com",
        "sektor": "Sektor Perdagangan",
        "nama_perusahaan": "KARTONO IRWAN",
        "tanggal_daftar": "2022-08-03",
        "nomor_tanda_daftar": "006841.01/DJAI.PSE/08/2022",
        "qr_code": "https://pse.kominfo.go.id/storage/images/qr_code/847a4348a2d3c9264da6cc8eb1b2fa9a.png",
        "status_id": "TERDAFTAR",
        "sistem_elektronik_id": 9630
      }
    }
  ]
}