{
  "meta": {
    "page": {
      "currentPage": 408,
      "from": 4071,
      "lastPage": 1055,
      "perPage": 10,
      "to": 4080,
      "total": 10545
    }
  },
  "data": [
    {
      "type": "tdpseTerbit",
      "id": 5752,
      "attributes": {
        "nomor_pb_umku": "912031707092200010001",
        "nama": "BANKRAYA.CO.ID",
        "website": "bankraya.co.id",
        "sektor": "Sektor Keuangan",
        "nama_perusahaan": "BANK RAYA INDONESIA",
        "tanggal_daftar": "2022-07-15",
        "nomor_tanda_daftar": "004288.01/DJAI.PSE/07/2022",
        "qr_code": "https://pse.kominfo.go.id/storage/images/qr_code/fae3ec9d71275773604d908c96eb7e34.png",
        "status_id": "TERDAFTAR",
        "sistem_elektronik_id": 5619
      }
    },
    {
      "type": "tdpseTerbit",
      "id": 6652,
      "attributes": {
        "nomor_pb_umku": "",
        "nama": "PYXIS",
        "website": "pyxis.world",
        "sektor": "Sektor Keuangan",
        "nama_perusahaan": "DIGITAL SYNERGY TECHNOLOGY",
        "tanggal_daftar": "2022-07-19",
        "nomor_tanda_daftar": "004287.01/DJAI.PSE/07/2022",
        "qr_code": "https://pse.kominfo.go.id/storage/images/qr_code/6223eab80a5254673e38c98618be5ee5.png",
        "status_id": "TERDAFTAR",
        "sistem_elektronik_id": 6147
      }
    },
    {
      "type": "tdpseTerbit",
      "id": 5725,
      "attributes": {
        "nomor_pb_umku": "912030587109600000001",
        "nama": "ITS PAYMENT",
        "website": "its-pulsa.com",
        "sektor": "Sektor Perdagangan",
        "nama_perusahaan": "INDO TERA SOLUSINDO",
        "tanggal_daftar": "2022-07-15",
        "nomor_tanda_daftar": "004286.01/DJAI.PSE/07/2022",
        "qr_code": "https://pse.kominfo.go.id/storage/images/qr_code/54d5774f436de6a8740f80cd19ae2254.png",
        "status_id": "TERDAFTAR",
        "sistem_elektronik_id": 5589
      }
    },
    {
      "type": "tdpseTerbit",
      "id": 5738,
      "attributes": {
        "nomor_pb_umku": "090622002786300010001",
        "nama": "BSI NETWORK",
        "website": "bsisukses.com",
        "sektor": "Sektor Perdagangan",
        "nama_perusahaan": "BERLIAN SEJATI INDONESIA",
        "tanggal_daftar": "2022-07-15",
        "nomor_tanda_daftar": "004285.01/DJAI.PSE/07/2022",
        "qr_code": "https://pse.kominfo.go.id/storage/images/qr_code/991e0891bf1b5c143ccf99dfe7eb3f15.png",
        "status_id": "TERDAFTAR",
        "sistem_elektronik_id": 5603
      }
    },
    {
      "type": "tdpseTerbit",
      "id": 6148,
      "attributes": {
        "nomor_pb_umku": "912040576351400010001",
        "nama": "BPRNUSAMBA-BANGUNTAPAN",
        "website": "bprnusamba-banguntapan.com",
        "sektor": "Sektor Keuangan",
        "nama_perusahaan": "BANK PERKREDITAN RAKYAT NUSAMBA BANGUNTAPAN",
        "tanggal_daftar": "2022-07-18",
        "nomor_tanda_daftar": "004283.01/DJAI.PSE/07/2022",
        "qr_code": "https://pse.kominfo.go.id/storage/images/qr_code/e88235379b795296470bbddae9854ce0.png",
        "status_id": "TERDAFTAR",
        "sistem_elektronik_id": 6016
      }
    },
    {
      "type": "tdpseTerbit",
      "id": 6537,
      "attributes": {
        "nomor_pb_umku": "912000886154500010001",
        "nama": "BANKING.NET",
        "website": "-",
        "sektor": "Sektor Keuangan",
        "nama_perusahaan": "BANK PERKREDITAN RAKYAT ARTHA NUGRAHA",
        "tanggal_daftar": "2022-07-19",
        "nomor_tanda_daftar": "004282.01/DJAI.PSE/07/2022",
        "qr_code": "https://pse.kominfo.go.id/storage/images/qr_code/7c919fa01359cafddfaa4b77e75fb5a1.png",
        "status_id": "TERDAFTAR",
        "sistem_elektronik_id": 6402
      }
    },
    {
      "type": "tdpseTerbit",
      "id": 5818,
      "attributes": {
        "nomor_pb_umku": "150722000480600000001",
        "nama": "AVANTEE",
        "website": "avantee.co.id",
        "sektor": "Sektor Keuangan",
        "nama_perusahaan": "GRHA DANA BERSAMA",
        "tanggal_daftar": "2022-07-15",
        "nomor_tanda_daftar": "004281.01/DJAI.PSE/07/2022",
        "qr_code": "https://pse.kominfo.go.id/storage/images/qr_code/b866be67bf35a5dfe945097305d4daa2.png",
        "status_id": "TERDAFTAR",
        "sistem_elektronik_id": 5677
      }
    },
    {
      "type": "tdpseTerbit",
      "id": 9056,
      "attributes": {
        "nomor_pb_umku": "812000172108700070040",
        "nama": "SAMSUNG MEMBERS",
        "website": "-",
        "sektor": "Sektor Teknologi Informasi dan Komunikasi",
        "nama_perusahaan": "SAMSUNG ELECTRONICS INDONESIA",
        "tanggal_daftar": "2022-07-26",
        "nomor_tanda_daftar": "004280.07/DJAI.PSE/07/2022",
        "qr_code": "https://pse.kominfo.go.id/storage/images/qr_code/18286becbb09867a78b2cb26e689e4ce.png",
        "status_id": "TERDAFTAR",
        "sistem_elektronik_id": 8966
      }
    },
    {
      "type": "tdpseTerbit",
      "id": 8956,
      "attributes": {
        "nomor_pb_umku": "812000172108700070039",
        "nama": "KNOX GUARD",
        "website": "samsungknox.com",
        "sektor": "Sektor Teknologi Informasi dan Komunikasi",
        "nama_perusahaan": "SAMSUNG ELECTRONICS INDONESIA",
        "tanggal_daftar": "2022-07-25",
        "nomor_tanda_daftar": "004280.06/DJAI.PSE/07/2022",
        "qr_code": "https://pse.kominfo.go.id/storage/images/qr_code/443c3361974f42280b6711b931a9755d.png",
        "status_id": "TERDAFTAR",
        "sistem_elektronik_id": 8867
      }
    },
    {
      "type": "tdpseTerbit",
      "id": 8531,
      "attributes": {
        "nomor_pb_umku": "812000172108700070037",
        "nama": "SAMSUNG PAY",
        "website": "-",
        "sektor": "Sektor Teknologi Informasi dan Komunikasi",
        "nama_perusahaan": "SAMSUNG ELECTRONICS INDONESIA",
        "tanggal_daftar": "2022-07-21",
        "nomor_tanda_daftar": "004280.05/DJAI.PSE/07/2022",
        "qr_code": "https://pse.kominfo.go.id/storage/images/qr_code/396bc74d1015f6c9076e7cd39bf8a4c6.png",
        "status_id": "TERDAFTAR",
        "sistem_elektronik_id": 8445
      }
    }
  ]
}