{
  "meta": {
    "page": {
      "currentPage": 409,
      "from": 4081,
      "lastPage": 1113,
      "perPage": 10,
      "to": 4090,
      "total": 11124
    }
  },
  "data": [
    {
      "type": "tdpseTerbit",
      "id": 6235,
      "attributes": {
        "nomor_pb_umku": "912030672158500010001",
        "nama": "PT. BPR ABRIN CENTRA ARTHA",
        "website": "bprabrincentraartha.com",
        "sektor": "Sektor Keuangan",
        "nama_perusahaan": "BANK PERKREDITAN RAKYAT ABRIN CENTRA ARTHA",
        "tanggal_daftar": "2022-07-18",
        "nomor_tanda_daftar": "004599.01/DJAI.PSE/07/2022",
        "qr_code": "https://pse.kominfo.go.id/storage/images/qr_code/f6ad22f58c5d25dbe38a7cee1d3d3a18.png",
        "status_id": "TERDAFTAR",
        "sistem_elektronik_id": 6089
      }
    },
    {
      "type": "tdpseTerbit",
      "id": 9809,
      "attributes": {
        "nomor_pb_umku": "060921001187300000001",
        "nama": "YUKSHOPPING",
        "website": "yukshopping.com",
        "sektor": "Sektor Perdagangan",
        "nama_perusahaan": "TRICOM MITRA MANDIRI",
        "tanggal_daftar": "2022-08-10",
        "nomor_tanda_daftar": "004598.01/DJAI.PSE/08/2022",
        "qr_code": "https://pse.kominfo.go.id/storage/images/qr_code/19c5e319800ca0a50ea702c532cd314d.png",
        "status_id": "TERDAFTAR",
        "sistem_elektronik_id": 9683
      }
    },
    {
      "type": "tdpseTerbit",
      "id": 8428,
      "attributes": {
        "nomor_pb_umku": "180722001223500000001",
        "nama": "IBS COREBANKING",
        "website": "-",
        "sektor": "Sektor Keuangan",
        "nama_perusahaan": "BANK PERKREDITAN RAKYAT RAKYAT MANDIRI",
        "tanggal_daftar": "2022-07-21",
        "nomor_tanda_daftar": "004596.01/DJAI.PSE/07/2022",
        "qr_code": "https://pse.kominfo.go.id/storage/images/qr_code/ed5b84767aea343e8621765b1f26c3fa.png",
        "status_id": "TERDAFTAR",
        "sistem_elektronik_id": 8346
      }
    },
    {
      "type": "tdpseTerbit",
      "id": 8671,
      "attributes": {
        "nomor_pb_umku": "129600013269900160002",
        "nama": "MEDIKLIK",
        "website": "mediklik.co.id",
        "sektor": "Sektor Kesehatan, Sektor Teknologi Informasi dan Komunikasi",
        "nama_perusahaan": "SYNAPSA MEDIKATAMA INDONESIA",
        "tanggal_daftar": "2022-07-21",
        "nomor_tanda_daftar": "004595.01/DJAI.PSE/07/2022",
        "qr_code": "https://pse.kominfo.go.id/storage/images/qr_code/f2ff11c09a606be9b9ee2307f5b70cca.png",
        "status_id": "TERDAFTAR",
        "sistem_elektronik_id": 8588
      }
    },
    {
      "type": "tdpseTerbit",
      "id": 10910,
      "attributes": {
        "nomor_pb_umku": "123300051160600000002",
        "nama": "KJDAN.COM",
        "website": "-",
        "sektor": "Sektor Perdagangan",
        "nama_perusahaan": "KJDAN DESIGN STUDIO",
        "tanggal_daftar": "2022-08-30",
        "nomor_tanda_daftar": "004594.02/DJAI.PSE/08/2022",
        "qr_code": "https://pse.kominfo.go.id/storage/images/qr_code/512abb7e52a7838ec2eca0edd646db32.png",
        "status_id": "TERDAFTAR",
        "sistem_elektronik_id": 10723
      }
    },
    {
      "type": "tdpseTerbit",
      "id": 10909,
      "attributes": {
        "nomor_pb_umku": "123300051160600000001",
        "nama": "KJDAN.SHOP",
        "website": "kjdan.shop",
        "sektor": "Sektor Perdagangan",
        "nama_perusahaan": "KJDAN DESIGN STUDIO",
        "tanggal_daftar": "2022-08-30",
        "nomor_tanda_daftar": "004594.01/DJAI.PSE/08/2022",
        "qr_code": "https://pse.kominfo.go.id/storage/images/qr_code/cdf840057e98970b08216cd275bb7113.png",
        "status_id": "TERDAFTAR",
        "sistem_elektronik_id": 10672
      }
    },
    {
      "type": "tdpseTerbit",
      "id": 7778,
      "attributes": {
        "nomor_pb_umku": "812001706126200030001",
        "nama": "WEBSITE ORANGE DENTAL",
        "website": "orangedentalhouse.com",
        "sektor": "Sektor Kesehatan",
        "nama_perusahaan": "RADHINTA SENTOSA ABADI",
        "tanggal_daftar": "2022-07-20",
        "nomor_tanda_daftar": "004593.01/DJAI.PSE/07/2022",
        "qr_code": "https://pse.kominfo.go.id/storage/images/qr_code/3bc4b7613793b96896087a1dbddcca3c.png",
        "status_id": "TERDAFTAR",
        "sistem_elektronik_id": 7695
      }
    },
    {
      "type": "tdpseTerbit",
      "id": 8198,
      "attributes": {
        "nomor_pb_umku": "022010040127300040002",
        "nama": "WEBSITE BANK SULTRA",
        "website": "banksultra.co.id",
        "sektor": "Sektor Keuangan",
        "nama_perusahaan": "BANK PEMBANGUNAN DAERAH SULAWESI TENGGARA",
        "tanggal_daftar": "2022-07-20",
        "nomor_tanda_daftar": "004592.02/DJAI.PSE/07/2022",
        "qr_code": "https://pse.kominfo.go.id/storage/images/qr_code/e54d9ac4b2e357cfbfd8e3976beab3fe.png",
        "status_id": "TERDAFTAR",
        "sistem_elektronik_id": 8118
      }
    },
    {
      "type": "tdpseTerbit",
      "id": 6258,
      "attributes": {
        "nomor_pb_umku": "022010040127300040001",
        "nama": "SULTRA MOBILE",
        "website": "-",
        "sektor": "Sektor Keuangan, Sektor Teknologi Informasi dan Komunikasi",
        "nama_perusahaan": "BANK PEMBANGUNAN DAERAH SULAWESI TENGGARA",
        "tanggal_daftar": "2022-07-18",
        "nomor_tanda_daftar": "004592.01/DJAI.PSE/07/2022",
        "qr_code": "https://pse.kominfo.go.id/storage/images/qr_code/cc7c9aa3e7987a5740985cfcd8bb57d9.png",
        "status_id": "TERDAFTAR",
        "sistem_elektronik_id": 6120
      }
    },
    {
      "type": "tdpseTerbit",
      "id": 6229,
      "attributes": {
        "nomor_pb_umku": "912020279118300010005",
        "nama": "SMS MACROKIOSK (OTP) - BPR MODERN EXPRESS SULAWESI SELATAN",
        "website": "boldpass.com",
        "sektor": "Sektor Keuangan",
        "nama_perusahaan": "BANK PERKREDITAN RAKYAT MODERN EXPRESS SULAWESI SELATAN",
        "tanggal_daftar": "2022-07-18",
        "nomor_tanda_daftar": "004591.05/DJAI.PSE/07/2022",
        "qr_code": "https://pse.kominfo.go.id/storage/images/qr_code/a555c8c5cec59e43233f159ff24a0e27.png",
        "status_id": "TERDAFTAR",
        "sistem_elektronik_id": 6095
      }
    }
  ]
}