{
  "meta": {
    "page": {
      "currentPage": 42,
      "from": 411,
      "lastPage": 985,
      "perPage": 10,
      "to": 420,
      "total": 9842
    }
  },
  "data": [
    {
      "type": "tdpseTerbit",
      "id": 10233,
      "attributes": {
        "nomor_pb_umku": "912030988008900010001",
        "nama": "WEBSITE PT IMG SEKURITAS",
        "website": "imgsekuritas.com",
        "sektor": "Sektor Keuangan",
        "nama_perusahaan": "INDONESIA MAKMUR GROUP SEKURITAS",
        "tanggal_daftar": "2022-08-11",
        "nomor_tanda_daftar": "007000.01/DJAI.PSE/08/2022",
        "qr_code": "https://pse.kominfo.go.id/storage/images/qr_code/724d751890d5465eea9b46218a987498.png",
        "status_id": "TERDAFTAR",
        "sistem_elektronik_id": 10113
      }
    },
    {
      "type": "tdpseTerbit",
      "id": 9966,
      "attributes": {
        "nomor_pb_umku": "022010564159300010001",
        "nama": "WWW.ASTRIDO-FINANCE.CO.ID",
        "website": "astrido-finance.co.id",
        "sektor": "Sektor Keuangan",
        "nama_perusahaan": "ASTRIDO PACIFIC FINANCE",
        "tanggal_daftar": "2022-08-05",
        "nomor_tanda_daftar": "006999.01/DJAI.PSE/08/2022",
        "qr_code": "https://pse.kominfo.go.id/storage/images/qr_code/a03c053d5526815a956f1edc07e181bb.png",
        "status_id": "TERDAFTAR",
        "sistem_elektronik_id": 9854
      }
    },
    {
      "type": "tdpseTerbit",
      "id": 9949,
      "attributes": {
        "nomor_pb_umku": "022020864128300000001",
        "nama": "TITANS TECH WEB AR",
        "website": "titans.id",
        "sektor": "Sektor Teknologi Informasi dan Komunikasi",
        "nama_perusahaan": "MITRA RAVINDRA INTERNASIONAL",
        "tanggal_daftar": "2022-08-05",
        "nomor_tanda_daftar": "006998.01/DJAI.PSE/08/2022",
        "qr_code": "https://pse.kominfo.go.id/storage/images/qr_code/fdd0a6cf7304aa26677d8794d1f64daa.png",
        "status_id": "TERDAFTAR",
        "sistem_elektronik_id": 9839
      }
    },
    {
      "type": "tdpseTerbit",
      "id": 9953,
      "attributes": {
        "nomor_pb_umku": "812000681391900020062",
        "nama": "WEBSITE PT KAWAN LAMA INOVASI (WWW.KAWANLAMAINOVASI.COM)",
        "website": "kawanlamainovasi.com",
        "sektor": "Sektor Perdagangan, Sektor Teknologi Informasi dan Komunikasi",
        "nama_perusahaan": "KAWAN LAMA INOVASI",
        "tanggal_daftar": "2022-08-05",
        "nomor_tanda_daftar": "006997.01/DJAI.PSE/08/2022",
        "qr_code": "https://pse.kominfo.go.id/storage/images/qr_code/7c1acdb97c7f9e515f9420e436b9c9e2.png",
        "status_id": "TERDAFTAR",
        "sistem_elektronik_id": 9842
      }
    },
    {
      "type": "tdpseTerbit",
      "id": 9952,
      "attributes": {
        "nomor_pb_umku": "912020611351800010001",
        "nama": "WEBSITE PT DEPOTEKNIK DUTA PERKAKAS (WWW.DEPOTEKNIK.COM)",
        "website": "depoteknik.com",
        "sektor": "Sektor Perdagangan, Sektor Teknologi Informasi dan Komunikasi",
        "nama_perusahaan": "DEPOTEKNIK DUTA PERKAKAS",
        "tanggal_daftar": "2022-08-05",
        "nomor_tanda_daftar": "006996.01/DJAI.PSE/08/2022",
        "qr_code": "https://pse.kominfo.go.id/storage/images/qr_code/353daac71579f9e8e9c1aaf4c70d5a75.png",
        "status_id": "TERDAFTAR",
        "sistem_elektronik_id": 9837
      }
    },
    {
      "type": "tdpseTerbit",
      "id": 10234,
      "attributes": {
        "nomor_pb_umku": "122500010238800020001",
        "nama": "NASARI DIGITAL ( NADI)",
        "website": "-",
        "sektor": "Sektor Perdagangan, Sektor Keuangan",
        "nama_perusahaan": "JASA NASARI SENTRA USAHA MIKRO KECIL MENENGAH",
        "tanggal_daftar": "2022-08-11",
        "nomor_tanda_daftar": "006995.01/DJAI.PSE/08/2022",
        "qr_code": "https://pse.kominfo.go.id/storage/images/qr_code/23be6ea7d63f8e285196ad57d315a441.png",
        "status_id": "TERDAFTAR",
        "sistem_elektronik_id": 10111
      }
    },
    {
      "type": "tdpseTerbit",
      "id": 9940,
      "attributes": {
        "nomor_pb_umku": "050822003644200000001",
        "nama": "PENTA COREBANKING SYSTEM",
        "website": "-",
        "sektor": "Sektor Keuangan",
        "nama_perusahaan": "BANK PERKREDITAN RAKYAT JAYA KERTI",
        "tanggal_daftar": "2022-08-05",
        "nomor_tanda_daftar": "006994.01/DJAI.PSE/08/2022",
        "qr_code": "https://pse.kominfo.go.id/storage/images/qr_code/570e1324179e57c0c8b61d1a959c6dba.png",
        "status_id": "TERDAFTAR",
        "sistem_elektronik_id": 9829
      }
    },
    {
      "type": "tdpseTerbit",
      "id": 10056,
      "attributes": {
        "nomor_pb_umku": "120722001360800010001",
        "nama": "MO88I",
        "website": "mo88i.com",
        "sektor": "Sektor Perdagangan",
        "nama_perusahaan": "ASTRA DIGITAL MOBIL",
        "tanggal_daftar": "2022-08-08",
        "nomor_tanda_daftar": "006993.01/DJAI.PSE/08/2022",
        "qr_code": "https://pse.kominfo.go.id/storage/images/qr_code/526104f63fe43d1196ee01d6c638c2c1.png",
        "status_id": "TERDAFTAR",
        "sistem_elektronik_id": 9943
      }
    },
    {
      "type": "tdpseTerbit",
      "id": 10188,
      "attributes": {
        "nomor_pb_umku": "071221004972300000001",
        "nama": "FOODS.ID",
        "website": "foods.id",
        "sektor": "Sektor Teknologi Informasi dan Komunikasi",
        "nama_perusahaan": "FOODSID MEDIA INTEGRA",
        "tanggal_daftar": "2022-08-10",
        "nomor_tanda_daftar": "006992.01/DJAI.PSE/08/2022",
        "qr_code": "https://pse.kominfo.go.id/storage/images/qr_code/1859bcb402eda449f9238d1805295896.png",
        "status_id": "TERDAFTAR",
        "sistem_elektronik_id": 10067
      }
    },
    {
      "type": "tdpseTerbit",
      "id": 10416,
      "attributes": {
        "nomor_pb_umku": "812001125203900030001",
        "nama": "ABI E-PORTAL",
        "website": "abhitech.co.id",
        "sektor": "Sektor Perdagangan, Sektor Transportasi, Sektor Teknologi Informasi dan Komunikasi",
        "nama_perusahaan": "ABHITECH MATRA INDAH",
        "tanggal_daftar": "2022-08-16",
        "nomor_tanda_daftar": "006989.01/DJAI.PSE/08/2022",
        "qr_code": "https://pse.kominfo.go.id/storage/images/qr_code/1f801374ec6e2567e7830e4cd096ab7d.png",
        "status_id": "TERDAFTAR",
        "sistem_elektronik_id": 10274
      }
    }
  ]
}