{
  "meta": {
    "page": {
      "currentPage": 416,
      "from": 4151,
      "lastPage": 1089,
      "perPage": 10,
      "to": 4160,
      "total": 10885
    }
  },
  "data": [
    {
      "type": "tdpseTerbit",
      "id": 6138,
      "attributes": {
        "nomor_pb_umku": "912060381299200050006",
        "nama": "APLIKASI E-WARONG BPD DIY",
        "website": "g2c.bpddiy.co.id",
        "sektor": "Sektor Keuangan",
        "nama_perusahaan": "BANK PEMBANGUNAN DAERAH DAERAH ISTIMEWA YOGYAKARTA",
        "tanggal_daftar": "2022-07-18",
        "nomor_tanda_daftar": "004410.06/DJAI.PSE/07/2022",
        "qr_code": "https://pse.kominfo.go.id/storage/images/qr_code/8a32e9d040a50a9c8b85de1edb567e58.png",
        "status_id": "TERDAFTAR",
        "sistem_elektronik_id": 6007
      }
    },
    {
      "type": "tdpseTerbit",
      "id": 6129,
      "attributes": {
        "nomor_pb_umku": "912060381299200050005",
        "nama": "RETRIBUSI NON BILLING BPD DIY",
        "website": "saget.bpddiy.co.id",
        "sektor": "Sektor Keuangan",
        "nama_perusahaan": "BANK PEMBANGUNAN DAERAH DAERAH ISTIMEWA YOGYAKARTA",
        "tanggal_daftar": "2022-07-18",
        "nomor_tanda_daftar": "004410.05/DJAI.PSE/07/2022",
        "qr_code": "https://pse.kominfo.go.id/storage/images/qr_code/0d41d505e710016f4c8dff5c135c4d44.png",
        "status_id": "TERDAFTAR",
        "sistem_elektronik_id": 6002
      }
    },
    {
      "type": "tdpseTerbit",
      "id": 6122,
      "attributes": {
        "nomor_pb_umku": "912060381299200050004",
        "nama": "LAKU PANDAI BPD DIY",
        "website": "-",
        "sektor": "Sektor Keuangan",
        "nama_perusahaan": "BANK PEMBANGUNAN DAERAH DAERAH ISTIMEWA YOGYAKARTA",
        "tanggal_daftar": "2022-07-18",
        "nomor_tanda_daftar": "004410.04/DJAI.PSE/07/2022",
        "qr_code": "https://pse.kominfo.go.id/storage/images/qr_code/aa60ec27b0aee5e4d8536012ed478317.png",
        "status_id": "TERDAFTAR",
        "sistem_elektronik_id": 5993
      }
    },
    {
      "type": "tdpseTerbit",
      "id": 6118,
      "attributes": {
        "nomor_pb_umku": "912060381299200050003",
        "nama": "CASH MANAGEMENT SYSTEM BANK BPD DIY",
        "website": "cm.bpddiy.co.id",
        "sektor": "Sektor Keuangan",
        "nama_perusahaan": "BANK PEMBANGUNAN DAERAH DAERAH ISTIMEWA YOGYAKARTA",
        "tanggal_daftar": "2022-07-18",
        "nomor_tanda_daftar": "004410.03/DJAI.PSE/07/2022",
        "qr_code": "https://pse.kominfo.go.id/storage/images/qr_code/b3d36da8130a4ed4570d37cce84e8289.png",
        "status_id": "TERDAFTAR",
        "sistem_elektronik_id": 5987
      }
    },
    {
      "type": "tdpseTerbit",
      "id": 6100,
      "attributes": {
        "nomor_pb_umku": "912060381299200050002",
        "nama": "MOBILE BANKING BANK BPD DIY",
        "website": "-",
        "sektor": "Sektor Keuangan",
        "nama_perusahaan": "BANK PEMBANGUNAN DAERAH DAERAH ISTIMEWA YOGYAKARTA",
        "tanggal_daftar": "2022-07-18",
        "nomor_tanda_daftar": "004410.02/DJAI.PSE/07/2022",
        "qr_code": "https://pse.kominfo.go.id/storage/images/qr_code/fb3b7fdef53547f499aab41cf3b02d80.png",
        "status_id": "TERDAFTAR",
        "sistem_elektronik_id": 5975
      }
    },
    {
      "type": "tdpseTerbit",
      "id": 6093,
      "attributes": {
        "nomor_pb_umku": "912060381299200050001",
        "nama": "OFFICIAL WEBSITE BPD DIY",
        "website": "bpddiy.co.id",
        "sektor": "Sektor Keuangan",
        "nama_perusahaan": "BANK PEMBANGUNAN DAERAH DAERAH ISTIMEWA YOGYAKARTA",
        "tanggal_daftar": "2022-07-18",
        "nomor_tanda_daftar": "004410.01/DJAI.PSE/07/2022",
        "qr_code": "https://pse.kominfo.go.id/storage/images/qr_code/01f724a601021c9403b33af2193a6d9c.png",
        "status_id": "TERDAFTAR",
        "sistem_elektronik_id": 5957
      }
    },
    {
      "type": "tdpseTerbit",
      "id": 11782,
      "attributes": {
        "nomor_pb_umku": "020722001459900000007",
        "nama": "BOTS.REINHART1010.ID",
        "website": "bots.reinhart1010.id",
        "sektor": "Sektor Teknologi Informasi dan Komunikasi",
        "nama_perusahaan": "REINHART PREVIANO KOENTJORO",
        "tanggal_daftar": "2022-10-12",
        "nomor_tanda_daftar": "004409.07/DJAI.PSE/10/2022",
        "qr_code": "https://pse.kominfo.go.id/storage/images/qr_code/dc3c977883e93317984afba442147aca.png",
        "status_id": "TERDAFTAR",
        "sistem_elektronik_id": 11582
      }
    },
    {
      "type": "tdpseTerbit",
      "id": 11538,
      "attributes": {
        "nomor_pb_umku": "020722001459900000006",
        "nama": "MY SPIRITUAL JOURNEY (MSJ) TELEGRAM BOT",
        "website": "gms-msj-telegram-bot.reinhart1010.id",
        "sektor": "Sektor Teknologi Informasi dan Komunikasi",
        "nama_perusahaan": "REINHART PREVIANO KOENTJORO",
        "tanggal_daftar": "2022-10-05",
        "nomor_tanda_daftar": "004409.06/DJAI.PSE/10/2022",
        "qr_code": "https://pse.kominfo.go.id/storage/images/qr_code/b85ef63d16f9f639340adff246ff9e8d.png",
        "status_id": "TERDAFTAR",
        "sistem_elektronik_id": 11355
      }
    },
    {
      "type": "tdpseTerbit",
      "id": 11278,
      "attributes": {
        "nomor_pb_umku": "020722001459900000005",
        "nama": "SHARE.REINHART1010.ID",
        "website": "share.reinhart1010.id",
        "sektor": "Sektor Teknologi Informasi dan Komunikasi",
        "nama_perusahaan": "REINHART PREVIANO KOENTJORO",
        "tanggal_daftar": "2022-09-21",
        "nomor_tanda_daftar": "004409.05/DJAI.PSE/09/2022",
        "qr_code": "https://pse.kominfo.go.id/storage/images/qr_code/f6224f94c06facf9f6e6e032640d3c12.png",
        "status_id": "TERDAFTAR",
        "sistem_elektronik_id": 11085
      }
    },
    {
      "type": "tdpseTerbit",
      "id": 10939,
      "attributes": {
        "nomor_pb_umku": "020722001459900000004",
        "nama": "OPEN IN MAPS...",
        "website": "maps.reinhart1010.id",
        "sektor": "Sektor Teknologi Informasi dan Komunikasi",
        "nama_perusahaan": "REINHART PREVIANO KOENTJORO",
        "tanggal_daftar": "2022-08-31",
        "nomor_tanda_daftar": "004409.04/DJAI.PSE/08/2022",
        "qr_code": "https://pse.kominfo.go.id/storage/images/qr_code/86a842c4819f75fd4deaffdb77d52fab.png",
        "status_id": "TERDAFTAR",
        "sistem_elektronik_id": 10747
      }
    }
  ]
}