{
  "meta": {
    "page": {
      "currentPage": 419,
      "from": 4181,
      "lastPage": 1068,
      "perPage": 10,
      "to": 4190,
      "total": 10675
    }
  },
  "data": [
    {
      "type": "tdpseTerbit",
      "id": 5818,
      "attributes": {
        "nomor_pb_umku": "150722000480600000001",
        "nama": "AVANTEE",
        "website": "avantee.co.id",
        "sektor": "Sektor Keuangan",
        "nama_perusahaan": "GRHA DANA BERSAMA",
        "tanggal_daftar": "2022-07-15",
        "nomor_tanda_daftar": "004281.01/DJAI.PSE/07/2022",
        "qr_code": "https://pse.kominfo.go.id/storage/images/qr_code/b866be67bf35a5dfe945097305d4daa2.png",
        "status_id": "TERDAFTAR",
        "sistem_elektronik_id": 5677
      }
    },
    {
      "type": "tdpseTerbit",
      "id": 11866,
      "attributes": {
        "nomor_pb_umku": "812000172108700080060",
        "nama": "FINDMYMOBILE",
        "website": "findmymobile.samsung",
        "sektor": "Sektor Teknologi Informasi dan Komunikasi",
        "nama_perusahaan": "SAMSUNG ELECTRONICS INDONESIA",
        "tanggal_daftar": "2022-10-18",
        "nomor_tanda_daftar": "004280.12/DJAI.PSE/10/2022",
        "qr_code": "https://pse.kominfo.go.id/storage/images/qr_code/7587a0998f0db0a62064cc344162d3e4.png",
        "status_id": "TERDAFTAR",
        "sistem_elektronik_id": 11669
      }
    },
    {
      "type": "tdpseTerbit",
      "id": 11865,
      "attributes": {
        "nomor_pb_umku": "812000172108700080059",
        "nama": "SAMSUNGREWARDS",
        "website": "-",
        "sektor": "Sektor Teknologi Informasi dan Komunikasi",
        "nama_perusahaan": "SAMSUNG ELECTRONICS INDONESIA",
        "tanggal_daftar": "2022-10-18",
        "nomor_tanda_daftar": "004280.11/DJAI.PSE/10/2022",
        "qr_code": "https://pse.kominfo.go.id/storage/images/qr_code/4c7cdc800ab7a43114c6d4d138faf041.png",
        "status_id": "TERDAFTAR",
        "sistem_elektronik_id": 11667
      }
    },
    {
      "type": "tdpseTerbit",
      "id": 11861,
      "attributes": {
        "nomor_pb_umku": "812000172108700080058",
        "nama": "VISITIN",
        "website": "-",
        "sektor": "Sektor Teknologi Informasi dan Komunikasi",
        "nama_perusahaan": "SAMSUNG ELECTRONICS INDONESIA",
        "tanggal_daftar": "2022-10-18",
        "nomor_tanda_daftar": "004280.10/DJAI.PSE/10/2022",
        "qr_code": "https://pse.kominfo.go.id/storage/images/qr_code/3b67fb740d90537c12aeaab6d628b1e3.png",
        "status_id": "TERDAFTAR",
        "sistem_elektronik_id": 11663
      }
    },
    {
      "type": "tdpseTerbit",
      "id": 11860,
      "attributes": {
        "nomor_pb_umku": "812000172108700080057",
        "nama": "GCIC A&S",
        "website": "apps-support-samsung.com",
        "sektor": "Sektor Teknologi Informasi dan Komunikasi",
        "nama_perusahaan": "SAMSUNG ELECTRONICS INDONESIA",
        "tanggal_daftar": "2022-10-18",
        "nomor_tanda_daftar": "004280.09/DJAI.PSE/10/2022",
        "qr_code": "https://pse.kominfo.go.id/storage/images/qr_code/ed89aec6cfd9d352d672ee31acc6724c.png",
        "status_id": "TERDAFTAR",
        "sistem_elektronik_id": 11662
      }
    },
    {
      "type": "tdpseTerbit",
      "id": 11758,
      "attributes": {
        "nomor_pb_umku": "812000172108700080055",
        "nama": "PENUP",
        "website": "-",
        "sektor": "Sektor Teknologi Informasi dan Komunikasi",
        "nama_perusahaan": "SAMSUNG ELECTRONICS INDONESIA",
        "tanggal_daftar": "2022-10-11",
        "nomor_tanda_daftar": "004280.08/DJAI.PSE/10/2022",
        "qr_code": "https://pse.kominfo.go.id/storage/images/qr_code/beddd2038d8573cbdaf55a5d0e6e8586.png",
        "status_id": "TERDAFTAR",
        "sistem_elektronik_id": 11558
      }
    },
    {
      "type": "tdpseTerbit",
      "id": 9056,
      "attributes": {
        "nomor_pb_umku": "812000172108700070040",
        "nama": "SAMSUNG MEMBERS",
        "website": "-",
        "sektor": "Sektor Teknologi Informasi dan Komunikasi",
        "nama_perusahaan": "SAMSUNG ELECTRONICS INDONESIA",
        "tanggal_daftar": "2022-07-26",
        "nomor_tanda_daftar": "004280.07/DJAI.PSE/07/2022",
        "qr_code": "https://pse.kominfo.go.id/storage/images/qr_code/18286becbb09867a78b2cb26e689e4ce.png",
        "status_id": "TERDAFTAR",
        "sistem_elektronik_id": 8966
      }
    },
    {
      "type": "tdpseTerbit",
      "id": 8956,
      "attributes": {
        "nomor_pb_umku": "812000172108700070039",
        "nama": "KNOX GUARD",
        "website": "samsungknox.com",
        "sektor": "Sektor Teknologi Informasi dan Komunikasi",
        "nama_perusahaan": "SAMSUNG ELECTRONICS INDONESIA",
        "tanggal_daftar": "2022-07-25",
        "nomor_tanda_daftar": "004280.06/DJAI.PSE/07/2022",
        "qr_code": "https://pse.kominfo.go.id/storage/images/qr_code/443c3361974f42280b6711b931a9755d.png",
        "status_id": "TERDAFTAR",
        "sistem_elektronik_id": 8867
      }
    },
    {
      "type": "tdpseTerbit",
      "id": 8531,
      "attributes": {
        "nomor_pb_umku": "812000172108700070037",
        "nama": "SAMSUNG PAY",
        "website": "-",
        "sektor": "Sektor Teknologi Informasi dan Komunikasi",
        "nama_perusahaan": "SAMSUNG ELECTRONICS INDONESIA",
        "tanggal_daftar": "2022-07-21",
        "nomor_tanda_daftar": "004280.05/DJAI.PSE/07/2022",
        "qr_code": "https://pse.kominfo.go.id/storage/images/qr_code/396bc74d1015f6c9076e7cd39bf8a4c6.png",
        "status_id": "TERDAFTAR",
        "sistem_elektronik_id": 8445
      }
    },
    {
      "type": "tdpseTerbit",
      "id": 8438,
      "attributes": {
        "nomor_pb_umku": "812000172108700070036",
        "nama": "SALAAM",
        "website": "-",
        "sektor": "Sektor Teknologi Informasi dan Komunikasi",
        "nama_perusahaan": "SAMSUNG ELECTRONICS INDONESIA",
        "tanggal_daftar": "2022-07-21",
        "nomor_tanda_daftar": "004280.04/DJAI.PSE/07/2022",
        "qr_code": "https://pse.kominfo.go.id/storage/images/qr_code/3845665cde3c96e75cf9d5071c55ad9a.png",
        "status_id": "TERDAFTAR",
        "sistem_elektronik_id": 8356
      }
    }
  ]
}