{
  "meta": {
    "page": {
      "currentPage": 425,
      "from": 4241,
      "lastPage": 1097,
      "perPage": 10,
      "to": 4250,
      "total": 10962
    }
  },
  "data": [
    {
      "type": "tdpseTerbit",
      "id": 5933,
      "attributes": {
        "nomor_pb_umku": "024301018143400030001",
        "nama": "LEAFHEA",
        "website": "leafhea.com",
        "sektor": "Sektor Perdagangan",
        "nama_perusahaan": "LEAFHEA INTERNATIONAL NETWORK",
        "tanggal_daftar": "2022-07-16",
        "nomor_tanda_daftar": "004400.01/DJAI.PSE/07/2022",
        "qr_code": "https://pse.kominfo.go.id/storage/images/qr_code/dc29de2624050bf0758254467c4e013b.png",
        "status_id": "TERDAFTAR",
        "sistem_elektronik_id": 5796
      }
    },
    {
      "type": "tdpseTerbit",
      "id": 6490,
      "attributes": {
        "nomor_pb_umku": "160722000473900000001",
        "nama": "ARENA KUOTA",
        "website": "arenakuota.com",
        "sektor": "Sektor Perdagangan",
        "nama_perusahaan": "DENI MULYANA",
        "tanggal_daftar": "2022-07-18",
        "nomor_tanda_daftar": "004399.01/DJAI.PSE/07/2022",
        "qr_code": "https://pse.kominfo.go.id/storage/images/qr_code/e52160218d0aa6820d2a96f3ef490774.png",
        "status_id": "TERDAFTAR",
        "sistem_elektronik_id": 6355
      }
    },
    {
      "type": "tdpseTerbit",
      "id": 6083,
      "attributes": {
        "nomor_pb_umku": "020622006029600000001",
        "nama": "BPR BUMI SEDIAGUNA",
        "website": "bprbumisediaguna.com",
        "sektor": "Sektor Keuangan",
        "nama_perusahaan": "BANK PERKREDITAN RAKYAT BUMI SEDIAGUNA",
        "tanggal_daftar": "2022-07-18",
        "nomor_tanda_daftar": "004398.01/DJAI.PSE/07/2022",
        "qr_code": "https://pse.kominfo.go.id/storage/images/qr_code/ec8c9ddc5e1a191b48fc572ce76b66ca.png",
        "status_id": "TERDAFTAR",
        "sistem_elektronik_id": 5954
      }
    },
    {
      "type": "tdpseTerbit",
      "id": 5947,
      "attributes": {
        "nomor_pb_umku": "130722006139200010001",
        "nama": "BPR ARTHA KRAMAT",
        "website": "bprarthakramat.com",
        "sektor": "Sektor Keuangan",
        "nama_perusahaan": "BANK PERKREDITAN RAKYAT ARTHA KRAMAT",
        "tanggal_daftar": "2022-07-16",
        "nomor_tanda_daftar": "004397.01/DJAI.PSE/07/2022",
        "qr_code": "https://pse.kominfo.go.id/storage/images/qr_code/8f636ce74709f3fcbe24811cfb7bd691.png",
        "status_id": "TERDAFTAR",
        "sistem_elektronik_id": 5811
      }
    },
    {
      "type": "tdpseTerbit",
      "id": 5961,
      "attributes": {
        "nomor_pb_umku": "160722000413300000001",
        "nama": "GTHRELOAD.XYZ",
        "website": "gthreload.xyz",
        "sektor": "Sektor Perdagangan",
        "nama_perusahaan": "HERMANTO",
        "tanggal_daftar": "2022-07-16",
        "nomor_tanda_daftar": "004396.01/DJAI.PSE/07/2022",
        "qr_code": "https://pse.kominfo.go.id/storage/images/qr_code/79e32ce4a550453fb3b46beb24a47dd5.png",
        "status_id": "TERDAFTAR",
        "sistem_elektronik_id": 5788
      }
    },
    {
      "type": "tdpseTerbit",
      "id": 5924,
      "attributes": {
        "nomor_pb_umku": "090622001519300000001",
        "nama": "APIK EDU",
        "website": "indonesiakompeten.com",
        "sektor": "Sektor Teknologi Informasi dan Komunikasi",
        "nama_perusahaan": "APIK EDU INDONESIA",
        "tanggal_daftar": "2022-07-16",
        "nomor_tanda_daftar": "004395.01/DJAI.PSE/07/2022",
        "qr_code": "https://pse.kominfo.go.id/storage/images/qr_code/cadd68932b5049a52a1a8b0f54c03418.png",
        "status_id": "TERDAFTAR",
        "sistem_elektronik_id": 5786
      }
    },
    {
      "type": "tdpseTerbit",
      "id": 5927,
      "attributes": {
        "nomor_pb_umku": "080322003661800010001",
        "nama": "PT BPR KARTIKAARTHA KENCANAJAYA",
        "website": "bprkartikaartha.co.id",
        "sektor": "Sektor Keuangan",
        "nama_perusahaan": "BANK PERKREDITAN RAKYAT KARTIKAARTHA KENCANAJAYA",
        "tanggal_daftar": "2022-07-16",
        "nomor_tanda_daftar": "004394.01/DJAI.PSE/07/2022",
        "qr_code": "https://pse.kominfo.go.id/storage/images/qr_code/33b6f4dec8f559b078c9a73f4e0b4aab.png",
        "status_id": "TERDAFTAR",
        "sistem_elektronik_id": 5790
      }
    },
    {
      "type": "tdpseTerbit",
      "id": 5936,
      "attributes": {
        "nomor_pb_umku": "912011315291300000001",
        "nama": "VIDYA AMALIAH",
        "website": "-",
        "sektor": "Sektor Perdagangan",
        "nama_perusahaan": "VIDYA AMALIAH",
        "tanggal_daftar": "2022-07-16",
        "nomor_tanda_daftar": "004393.01/DJAI.PSE/07/2022",
        "qr_code": "https://pse.kominfo.go.id/storage/images/qr_code/fa29895a68b3b597ce546d2a70d15dd2.png",
        "status_id": "TERDAFTAR",
        "sistem_elektronik_id": 5800
      }
    },
    {
      "type": "tdpseTerbit",
      "id": 5925,
      "attributes": {
        "nomor_pb_umku": "022010229168100010002",
        "nama": "MARS CLOUD",
        "website": "marstech.id",
        "sektor": "Sektor Teknologi Informasi dan Komunikasi",
        "nama_perusahaan": "MARS TECH GLOBAL",
        "tanggal_daftar": "2022-07-16",
        "nomor_tanda_daftar": "004392.02/DJAI.PSE/07/2022",
        "qr_code": "https://pse.kominfo.go.id/storage/images/qr_code/643694fc52f3d24fe0413807dcfabba0.png",
        "status_id": "TERDAFTAR",
        "sistem_elektronik_id": 5787
      }
    },
    {
      "type": "tdpseTerbit",
      "id": 5921,
      "attributes": {
        "nomor_pb_umku": "022010229168100000001",
        "nama": "WEBSITE",
        "website": "marstech.co.id",
        "sektor": "Sektor Teknologi Informasi dan Komunikasi",
        "nama_perusahaan": "MARS TECH GLOBAL",
        "tanggal_daftar": "2022-07-16",
        "nomor_tanda_daftar": "004392.01/DJAI.PSE/07/2022",
        "qr_code": "https://pse.kominfo.go.id/storage/images/qr_code/7ac0627eb001b54a17afee24f850dba4.png",
        "status_id": "TERDAFTAR",
        "sistem_elektronik_id": 5782
      }
    }
  ]
}