{
  "meta": {
    "page": {
      "currentPage": 426,
      "from": 4251,
      "lastPage": 981,
      "perPage": 10,
      "to": 4260,
      "total": 9802
    }
  },
  "data": [
    {
      "type": "tdpseTerbit",
      "id": 10543,
      "attributes": {
        "nomor_pb_umku": "290622007760200010001",
        "nama": "PSE",
        "website": "-",
        "sektor": "Sektor Perdagangan",
        "nama_perusahaan": "GEMILANG MAS",
        "tanggal_daftar": "2022-08-18",
        "nomor_tanda_daftar": "003589.01/DJAI.PSE/08/2022",
        "qr_code": "https://pse.kominfo.go.id/storage/images/qr_code/8c835b0a66930e6101190378dce2d321.png",
        "status_id": "TERDAFTAR",
        "sistem_elektronik_id": 10402
      }
    },
    {
      "type": "tdpseTerbit",
      "id": 5230,
      "attributes": {
        "nomor_pb_umku": "022010980017700000006",
        "nama": "KARYAANILO",
        "website": "karyaanilo.com",
        "sektor": "Sektor Teknologi Informasi dan Komunikasi",
        "nama_perusahaan": "ANILO ADIKARYA SENTOSA",
        "tanggal_daftar": "2022-07-08",
        "nomor_tanda_daftar": "003588.06/DJAI.PSE/07/2022",
        "qr_code": "https://pse.kominfo.go.id/storage/images/qr_code/b2dda6a5514d5fb05a390058eb72a400.png",
        "status_id": "TERDAFTAR",
        "sistem_elektronik_id": 5099
      }
    },
    {
      "type": "tdpseTerbit",
      "id": 5228,
      "attributes": {
        "nomor_pb_umku": "022010980017700000005",
        "nama": "INNOVATIONKIT",
        "website": "innovationkit.id",
        "sektor": "Sektor Teknologi Informasi dan Komunikasi",
        "nama_perusahaan": "ANILO ADIKARYA SENTOSA",
        "tanggal_daftar": "2022-07-08",
        "nomor_tanda_daftar": "003588.05/DJAI.PSE/07/2022",
        "qr_code": "https://pse.kominfo.go.id/storage/images/qr_code/ec35138455a8595e632d19758e5e8327.png",
        "status_id": "TERDAFTAR",
        "sistem_elektronik_id": 5097
      }
    },
    {
      "type": "tdpseTerbit",
      "id": 5226,
      "attributes": {
        "nomor_pb_umku": "022010980017700000004",
        "nama": "TIJAROH",
        "website": "tijaroh.id",
        "sektor": "Sektor Teknologi Informasi dan Komunikasi",
        "nama_perusahaan": "ANILO ADIKARYA SENTOSA",
        "tanggal_daftar": "2022-07-08",
        "nomor_tanda_daftar": "003588.04/DJAI.PSE/07/2022",
        "qr_code": "https://pse.kominfo.go.id/storage/images/qr_code/4551f83265cec50dd7b533cf52cc5284.png",
        "status_id": "TERDAFTAR",
        "sistem_elektronik_id": 5096
      }
    },
    {
      "type": "tdpseTerbit",
      "id": 5225,
      "attributes": {
        "nomor_pb_umku": "022010980017700000003",
        "nama": "CONNECTBANK",
        "website": "connectbank.id",
        "sektor": "Sektor Teknologi Informasi dan Komunikasi",
        "nama_perusahaan": "ANILO ADIKARYA SENTOSA",
        "tanggal_daftar": "2022-07-08",
        "nomor_tanda_daftar": "003588.03/DJAI.PSE/07/2022",
        "qr_code": "https://pse.kominfo.go.id/storage/images/qr_code/fc1efbd90bcec74613a4575f0709fea4.png",
        "status_id": "TERDAFTAR",
        "sistem_elektronik_id": 5095
      }
    },
    {
      "type": "tdpseTerbit",
      "id": 5185,
      "attributes": {
        "nomor_pb_umku": "022010980017700000002",
        "nama": "AAS1",
        "website": "aas1.id",
        "sektor": "Sektor Perdagangan",
        "nama_perusahaan": "ANILO ADIKARYA SENTOSA",
        "tanggal_daftar": "2022-07-07",
        "nomor_tanda_daftar": "003588.02/DJAI.PSE/07/2022",
        "qr_code": "https://pse.kominfo.go.id/storage/images/qr_code/063d3a42397bc5544178c133d3a0532a.png",
        "status_id": "TERDAFTAR",
        "sistem_elektronik_id": 5053
      }
    },
    {
      "type": "tdpseTerbit",
      "id": 5169,
      "attributes": {
        "nomor_pb_umku": "022010980017700000001",
        "nama": "ANIPAY",
        "website": "anipay.id",
        "sektor": "Sektor Perdagangan",
        "nama_perusahaan": "ANILO ADIKARYA SENTOSA",
        "tanggal_daftar": "2022-07-07",
        "nomor_tanda_daftar": "003588.01/DJAI.PSE/07/2022",
        "qr_code": "https://pse.kominfo.go.id/storage/images/qr_code/8cf80cec6ba6579df80d1ffa19e388b5.png",
        "status_id": "TERDAFTAR",
        "sistem_elektronik_id": 5034
      }
    },
    {
      "type": "tdpseTerbit",
      "id": 8668,
      "attributes": {
        "nomor_pb_umku": "812011108341700000003",
        "nama": "HADIRKOE",
        "website": "hadirkoe.com",
        "sektor": "Sektor Teknologi Informasi dan Komunikasi",
        "nama_perusahaan": "ELECTRONIC DATA INTERCHANGE INDONESIA",
        "tanggal_daftar": "2022-07-21",
        "nomor_tanda_daftar": "003587.03/DJAI.PSE/07/2022",
        "qr_code": "https://pse.kominfo.go.id/storage/images/qr_code/5a7994630bc5e71be805b2b3d5d1d38c.png",
        "status_id": "TERDAFTAR",
        "sistem_elektronik_id": 8585
      }
    },
    {
      "type": "tdpseTerbit",
      "id": 8654,
      "attributes": {
        "nomor_pb_umku": "812011108341700000002",
        "nama": "E-CMOS",
        "website": "e-cmos.com",
        "sektor": "Sektor Teknologi Informasi dan Komunikasi",
        "nama_perusahaan": "ELECTRONIC DATA INTERCHANGE INDONESIA",
        "tanggal_daftar": "2022-07-21",
        "nomor_tanda_daftar": "003587.02/DJAI.PSE/07/2022",
        "qr_code": "https://pse.kominfo.go.id/storage/images/qr_code/4de83fa0a8c9abc90190974ac91b4976.png",
        "status_id": "TERDAFTAR",
        "sistem_elektronik_id": 8566
      }
    },
    {
      "type": "tdpseTerbit",
      "id": 8527,
      "attributes": {
        "nomor_pb_umku": "812011108341700000001",
        "nama": "TPS ONLINE",
        "website": "seaport.tpsonline.co.id",
        "sektor": "Sektor Teknologi Informasi dan Komunikasi",
        "nama_perusahaan": "ELECTRONIC DATA INTERCHANGE INDONESIA",
        "tanggal_daftar": "2022-07-21",
        "nomor_tanda_daftar": "003587.01/DJAI.PSE/07/2022",
        "qr_code": "https://pse.kominfo.go.id/storage/images/qr_code/7d8845ed5bbc59b96a0a9331686314a0.png",
        "status_id": "TERDAFTAR",
        "sistem_elektronik_id": 8368
      }
    }
  ]
}