{
  "meta": {
    "page": {
      "currentPage": 427,
      "from": 4261,
      "lastPage": 1111,
      "perPage": 10,
      "to": 4270,
      "total": 11105
    }
  },
  "data": [
    {
      "type": "tdpseTerbit",
      "id": 6009,
      "attributes": {
        "nomor_pb_umku": "270422004726400000002",
        "nama": "NOURAPAY",
        "website": "nourapay.com",
        "sektor": "Sektor Perdagangan, Sektor Teknologi Informasi dan Komunikasi",
        "nama_perusahaan": "FARID ARIS P",
        "tanggal_daftar": "2022-07-17",
        "nomor_tanda_daftar": "004463.02/DJAI.PSE/07/2022",
        "qr_code": "https://pse.kominfo.go.id/storage/images/qr_code/06a96c94ef36805aa44783b91bbc2ce5.png",
        "status_id": "TERDAFTAR",
        "sistem_elektronik_id": 5873
      }
    },
    {
      "type": "tdpseTerbit",
      "id": 6006,
      "attributes": {
        "nomor_pb_umku": "270422004726400000001",
        "nama": "NURULPAY",
        "website": "nurulpay.com",
        "sektor": "Sektor Teknologi Informasi dan Komunikasi",
        "nama_perusahaan": "FARID ARIS P",
        "tanggal_daftar": "2022-07-17",
        "nomor_tanda_daftar": "004463.01/DJAI.PSE/07/2022",
        "qr_code": "https://pse.kominfo.go.id/storage/images/qr_code/31c3dd99805a192b8b9a27e23fd4f1ea.png",
        "status_id": "TERDAFTAR",
        "sistem_elektronik_id": 5870
      }
    },
    {
      "type": "tdpseTerbit",
      "id": 6008,
      "attributes": {
        "nomor_pb_umku": "180921001002800000001",
        "nama": "QIOSFIN",
        "website": "qiosfin.com",
        "sektor": "Sektor Perdagangan",
        "nama_perusahaan": "QIOSFIN MULTIPAYMENT INDONESIA",
        "tanggal_daftar": "2022-07-17",
        "nomor_tanda_daftar": "004461.01/DJAI.PSE/07/2022",
        "qr_code": "https://pse.kominfo.go.id/storage/images/qr_code/07f643a7835e452ab0a87ce9f87e13ae.png",
        "status_id": "TERDAFTAR",
        "sistem_elektronik_id": 5872
      }
    },
    {
      "type": "tdpseTerbit",
      "id": 6007,
      "attributes": {
        "nomor_pb_umku": "170921000140900000001",
        "nama": "RUGSTORE.ID",
        "website": "RUGSTORE.ID",
        "sektor": "Sektor Perdagangan",
        "nama_perusahaan": "NOVYAN MOEZHAKY UMBARA",
        "tanggal_daftar": "2022-07-17",
        "nomor_tanda_daftar": "004460.01/DJAI.PSE/07/2022",
        "qr_code": "https://pse.kominfo.go.id/storage/images/qr_code/4c31244419f538ec2e5bdcbbaaf899ed.png",
        "status_id": "TERDAFTAR",
        "sistem_elektronik_id": 5871
      }
    },
    {
      "type": "tdpseTerbit",
      "id": 6022,
      "attributes": {
        "nomor_pb_umku": "270622001320900000002",
        "nama": "TOPUPSTORE",
        "website": "Topup18.bukaolshop.site",
        "sektor": "Sektor Teknologi Informasi dan Komunikasi",
        "nama_perusahaan": "MUHAMMAD YUSUF RIFALDI",
        "tanggal_daftar": "2022-07-17",
        "nomor_tanda_daftar": "004459.02/DJAI.PSE/07/2022",
        "qr_code": "https://pse.kominfo.go.id/storage/images/qr_code/fd08e6314b97dd95b6f6f6c055e3b6a7.png",
        "status_id": "TERDAFTAR",
        "sistem_elektronik_id": 5885
      }
    },
    {
      "type": "tdpseTerbit",
      "id": 6003,
      "attributes": {
        "nomor_pb_umku": "270622001320900000001",
        "nama": "TOPUP STORE",
        "website": "-",
        "sektor": "Sektor Teknologi Informasi dan Komunikasi",
        "nama_perusahaan": "MUHAMMAD YUSUF RIFALDI",
        "tanggal_daftar": "2022-07-17",
        "nomor_tanda_daftar": "004459.01/DJAI.PSE/07/2022",
        "qr_code": "https://pse.kominfo.go.id/storage/images/qr_code/298d86660c51ac51697d75fab4d66a46.png",
        "status_id": "TERDAFTAR",
        "sistem_elektronik_id": 5867
      }
    },
    {
      "type": "tdpseTerbit",
      "id": 8213,
      "attributes": {
        "nomor_pb_umku": "100322000731300010002",
        "nama": "SYSTEM REGISTRASI DAN HOSTING",
        "website": "registrindo.id",
        "sektor": "Sektor Teknologi Informasi dan Komunikasi",
        "nama_perusahaan": "JARINGAN REGISTRI INDONESIA",
        "tanggal_daftar": "2022-07-20",
        "nomor_tanda_daftar": "004458.02/DJAI.PSE/07/2022",
        "qr_code": "https://pse.kominfo.go.id/storage/images/qr_code/c13dfc98e6f4a84526f97c9a62546482.png",
        "status_id": "TERDAFTAR",
        "sistem_elektronik_id": 8133
      }
    },
    {
      "type": "tdpseTerbit",
      "id": 6014,
      "attributes": {
        "nomor_pb_umku": "100322000731300010001",
        "nama": "SISTEM REGISTRASI DOMAIN DAN LAINNYA",
        "website": "registrindo.id",
        "sektor": "Sektor Teknologi Informasi dan Komunikasi",
        "nama_perusahaan": "JARINGAN REGISTRI INDONESIA",
        "tanggal_daftar": "2022-07-17",
        "nomor_tanda_daftar": "004458.01/DJAI.PSE/07/2022",
        "qr_code": "https://pse.kominfo.go.id/storage/images/qr_code/df960fa231af6345e450182c07c60803.png",
        "status_id": "TERDAFTAR",
        "sistem_elektronik_id": 5877
      }
    },
    {
      "type": "tdpseTerbit",
      "id": 6001,
      "attributes": {
        "nomor_pb_umku": "170722001678200000001",
        "nama": "ASTOREPAY",
        "website": "astoree.my.id",
        "sektor": "Sektor Perdagangan",
        "nama_perusahaan": "MUHAMMAD IRSYAD AZHAR",
        "tanggal_daftar": "2022-07-17",
        "nomor_tanda_daftar": "004457.01/DJAI.PSE/07/2022",
        "qr_code": "https://pse.kominfo.go.id/storage/images/qr_code/6bae9dd345f788deaa94df429a2bff4a.png",
        "status_id": "TERDAFTAR",
        "sistem_elektronik_id": 5865
      }
    },
    {
      "type": "tdpseTerbit",
      "id": 6027,
      "attributes": {
        "nomor_pb_umku": "170722001692500000001",
        "nama": "DPAJA : DAKA PAYMENT",
        "website": "dakapayment.my.id",
        "sektor": "Sektor Perdagangan, Sektor Keuangan",
        "nama_perusahaan": "IMAM NAWAWI",
        "tanggal_daftar": "2022-07-17",
        "nomor_tanda_daftar": "004456.01/DJAI.PSE/07/2022",
        "qr_code": "https://pse.kominfo.go.id/storage/images/qr_code/1fef76a5358f9ece45f081d78f597da0.png",
        "status_id": "TERDAFTAR",
        "sistem_elektronik_id": 5898
      }
    }
  ]
}