{
  "meta": {
    "page": {
      "currentPage": 428,
      "from": 4271,
      "lastPage": 1020,
      "perPage": 10,
      "to": 4280,
      "total": 10192
    }
  },
  "data": [
    {
      "type": "tdpseTerbit",
      "id": 9063,
      "attributes": {
        "nomor_pb_umku": "022010581264800010002",
        "nama": "BBW LAKU PANDAI",
        "website": "-",
        "sektor": "Sektor Teknologi Informasi dan Komunikasi",
        "nama_perusahaan": "BARON BIONDI WILLIAM",
        "tanggal_daftar": "2022-07-26",
        "nomor_tanda_daftar": "003962.02/DJAI.PSE/07/2022",
        "qr_code": "https://pse.kominfo.go.id/storage/images/qr_code/22be2555bd6a5f986ba31081e33ca4ba.png",
        "status_id": "TERDAFTAR",
        "sistem_elektronik_id": 8971
      }
    },
    {
      "type": "tdpseTerbit",
      "id": 7383,
      "attributes": {
        "nomor_pb_umku": "022010581264800010001",
        "nama": "BBW MOBILE BANKING",
        "website": "bbw.co.id",
        "sektor": "Sektor Teknologi Informasi dan Komunikasi",
        "nama_perusahaan": "BARON BIONDI WILLIAM",
        "tanggal_daftar": "2022-07-20",
        "nomor_tanda_daftar": "003962.01/DJAI.PSE/07/2022",
        "qr_code": "https://pse.kominfo.go.id/storage/images/qr_code/1f82f460fa86da65fc6c107be5c6a155.png",
        "status_id": "TERDAFTAR",
        "sistem_elektronik_id": 7281
      }
    },
    {
      "type": "tdpseTerbit",
      "id": 6069,
      "attributes": {
        "nomor_pb_umku": "912050187227500010002",
        "nama": "QFINCC. ID",
        "website": "-",
        "sektor": "Sektor Teknologi Informasi dan Komunikasi",
        "nama_perusahaan": "QFIN CREDIT CEMERLANG",
        "tanggal_daftar": "2022-07-18",
        "nomor_tanda_daftar": "003960.02/DJAI.PSE/07/2022",
        "qr_code": "https://pse.kominfo.go.id/storage/images/qr_code/61a4c726e8d19c3d06ef04a6d68b1930.png",
        "status_id": "TERDAFTAR",
        "sistem_elektronik_id": 5939
      }
    },
    {
      "type": "tdpseTerbit",
      "id": 5330,
      "attributes": {
        "nomor_pb_umku": "912011127166500000001",
        "nama": "IMADANI",
        "website": "madani-tech.com",
        "sektor": "Sektor Teknologi Informasi dan Komunikasi",
        "nama_perusahaan": "KRAKATAU CITRA ADHIYANA",
        "tanggal_daftar": "2022-07-12",
        "nomor_tanda_daftar": "003959.01/DJAI.PSE/07/2022",
        "qr_code": "https://pse.kominfo.go.id/storage/images/qr_code/793e107c173c80337c93352abfc6b616.png",
        "status_id": "TERDAFTAR",
        "sistem_elektronik_id": 5205
      }
    },
    {
      "type": "tdpseTerbit",
      "id": 9837,
      "attributes": {
        "nomor_pb_umku": "912030170073100120005",
        "nama": "WAHANA INDO TRADA MOBILINDO (UNICORN)",
        "website": "unicorn.indorent.co.id",
        "sektor": "Sektor Transportasi",
        "nama_perusahaan": "CSM CORPORATAMA",
        "tanggal_daftar": "2022-08-04",
        "nomor_tanda_daftar": "003958.07/DJAI.PSE/08/2022",
        "qr_code": "https://pse.kominfo.go.id/storage/images/qr_code/099c5918c504418ae1c39baed0e2bd36.png",
        "status_id": "TERDAFTAR",
        "sistem_elektronik_id": 9690
      }
    },
    {
      "type": "tdpseTerbit",
      "id": 7107,
      "attributes": {
        "nomor_pb_umku": "912030170073100060004",
        "nama": "CSM CORPORATAMA (ELITE CAR RENTAL)",
        "website": "elite.indorent.co.id",
        "sektor": "Sektor Transportasi",
        "nama_perusahaan": "CSM CORPORATAMA",
        "tanggal_daftar": "2022-07-19",
        "nomor_tanda_daftar": "003958.06/DJAI.PSE/07/2022",
        "qr_code": "https://pse.kominfo.go.id/storage/images/qr_code/1d5f3e864a04549492b200ed17b5a671.png",
        "status_id": "TERDAFTAR",
        "sistem_elektronik_id": 6968
      }
    },
    {
      "type": "tdpseTerbit",
      "id": 7071,
      "attributes": {
        "nomor_pb_umku": "912030170073100060003",
        "nama": "CSM CORPORATAMA (INDORENT CARE)",
        "website": "-",
        "sektor": "Sektor Transportasi",
        "nama_perusahaan": "CSM CORPORATAMA",
        "tanggal_daftar": "2022-07-19",
        "nomor_tanda_daftar": "003958.05/DJAI.PSE/07/2022",
        "qr_code": "https://pse.kominfo.go.id/storage/images/qr_code/8799b2e07e09004b1dcfe2762186295a.png",
        "status_id": "TERDAFTAR",
        "sistem_elektronik_id": 6940
      }
    },
    {
      "type": "tdpseTerbit",
      "id": 7059,
      "attributes": {
        "nomor_pb_umku": "912030170073100060002",
        "nama": "CSM CORPORATAMA (VEHICLE MANAGEMENT SYSTEM)",
        "website": "cp.indorent.co.id",
        "sektor": "Sektor Transportasi",
        "nama_perusahaan": "CSM CORPORATAMA",
        "tanggal_daftar": "2022-07-19",
        "nomor_tanda_daftar": "003958.04/DJAI.PSE/07/2022",
        "qr_code": "https://pse.kominfo.go.id/storage/images/qr_code/818a1f2fa000d5c2e28a4dc6073ecad1.png",
        "status_id": "TERDAFTAR",
        "sistem_elektronik_id": 6833
      }
    },
    {
      "type": "tdpseTerbit",
      "id": 5328,
      "attributes": {
        "nomor_pb_umku": "912030170073100060001",
        "nama": "CSM CORPORATAMA (WEBSITE GROUP)",
        "website": "csmgroup.co.id",
        "sektor": "Sektor Transportasi",
        "nama_perusahaan": "CSM CORPORATAMA",
        "tanggal_daftar": "2022-07-12",
        "nomor_tanda_daftar": "003958.02/DJAI.PSE/07/2022",
        "qr_code": "https://pse.kominfo.go.id/storage/images/qr_code/cdb163af2ebc91b913708a394184a7aa.png",
        "status_id": "TERDAFTAR",
        "sistem_elektronik_id": 5185
      }
    },
    {
      "type": "tdpseTerbit",
      "id": 5285,
      "attributes": {
        "nomor_pb_umku": "912030170073100060001",
        "nama": "CSM CORPORATAMA",
        "website": "indorent.co.id",
        "sektor": "Sektor Transportasi",
        "nama_perusahaan": "CSM CORPORATAMA",
        "tanggal_daftar": "2022-07-11",
        "nomor_tanda_daftar": "003958.01/DJAI.PSE/07/2022",
        "qr_code": "https://pse.kominfo.go.id/storage/images/qr_code/f30f14d4a1b10985bc2670eecf0d0d0c.png",
        "status_id": "TERDAFTAR",
        "sistem_elektronik_id": 5154
      }
    }
  ]
}