{
  "meta": {
    "page": {
      "currentPage": 429,
      "from": 4281,
      "lastPage": 1044,
      "perPage": 10,
      "to": 4290,
      "total": 10437
    }
  },
  "data": [
    {
      "type": "tdpseTerbit",
      "id": 6324,
      "attributes": {
        "nomor_pb_umku": "912001927083300020003",
        "nama": "AMANTARA.CO.ID",
        "website": "amantara.co.id",
        "sektor": "Sektor Keuangan",
        "nama_perusahaan": "AMANTARA SEKURITAS INDONESIA",
        "tanggal_daftar": "2022-07-18",
        "nomor_tanda_daftar": "004121.03/DJAI.PSE/07/2022",
        "qr_code": "https://pse.kominfo.go.id/storage/images/qr_code/7545255b3983466aa8ae3ca9ea6c4fe8.png",
        "status_id": "TERDAFTAR",
        "sistem_elektronik_id": 6186
      }
    },
    {
      "type": "tdpseTerbit",
      "id": 6140,
      "attributes": {
        "nomor_pb_umku": "912001927083300020002",
        "nama": "WEBSITE AMANTARA.COM",
        "website": "amantara.co.id",
        "sektor": "Sektor Keuangan",
        "nama_perusahaan": "AMANTARA SEKURITAS INDONESIA",
        "tanggal_daftar": "2022-07-18",
        "nomor_tanda_daftar": "004121.02/DJAI.PSE/07/2022",
        "qr_code": "https://pse.kominfo.go.id/storage/images/qr_code/c5dd7ca4c39a825c46d0a2d3a2a16fdb.png",
        "status_id": "TERDAFTAR",
        "sistem_elektronik_id": 6009
      }
    },
    {
      "type": "tdpseTerbit",
      "id": 6127,
      "attributes": {
        "nomor_pb_umku": "912001927083300020001",
        "nama": "WEBSITE WWW.AMANTARA.COM",
        "website": "amantara.com",
        "sektor": "Sektor Keuangan",
        "nama_perusahaan": "AMANTARA SEKURITAS INDONESIA",
        "tanggal_daftar": "2022-07-18",
        "nomor_tanda_daftar": "004121.01/DJAI.PSE/07/2022",
        "qr_code": "https://pse.kominfo.go.id/storage/images/qr_code/4d2273c128f881418d22268d0e5aff7b.png",
        "status_id": "TERDAFTAR",
        "sistem_elektronik_id": 5994
      }
    },
    {
      "type": "tdpseTerbit",
      "id": 5808,
      "attributes": {
        "nomor_pb_umku": "812011702350700050004",
        "nama": "ISOMEDIK",
        "website": "isomedik.com",
        "sektor": "Sektor Kesehatan",
        "nama_perusahaan": "VIVA MEDIKA",
        "tanggal_daftar": "2022-07-15",
        "nomor_tanda_daftar": "004120.04/DJAI.PSE/07/2022",
        "qr_code": "https://pse.kominfo.go.id/storage/images/qr_code/3dadc8cc8238bda2d616d8f52a418573.png",
        "status_id": "TERDAFTAR",
        "sistem_elektronik_id": 5671
      }
    },
    {
      "type": "tdpseTerbit",
      "id": 5805,
      "attributes": {
        "nomor_pb_umku": "812011702350700050003",
        "nama": "ISO APP",
        "website": "isomedik.com",
        "sektor": "Sektor Kesehatan",
        "nama_perusahaan": "VIVA MEDIKA",
        "tanggal_daftar": "2022-07-15",
        "nomor_tanda_daftar": "004120.03/DJAI.PSE/07/2022",
        "qr_code": "https://pse.kominfo.go.id/storage/images/qr_code/3655c7e2e6c99706b9b49e34cb6b07f5.png",
        "status_id": "TERDAFTAR",
        "sistem_elektronik_id": 5668
      }
    },
    {
      "type": "tdpseTerbit",
      "id": 5512,
      "attributes": {
        "nomor_pb_umku": "812011702350700050002",
        "nama": "VIVA MEDIKA APPS",
        "website": "vivamedika.id",
        "sektor": "Sektor Kesehatan",
        "nama_perusahaan": "VIVA MEDIKA",
        "tanggal_daftar": "2022-07-13",
        "nomor_tanda_daftar": "004120.02/DJAI.PSE/07/2022",
        "qr_code": "https://pse.kominfo.go.id/storage/images/qr_code/59198fe625bde5a828f1a662f2caf2ac.png",
        "status_id": "TERDAFTAR",
        "sistem_elektronik_id": 5374
      }
    },
    {
      "type": "tdpseTerbit",
      "id": 5509,
      "attributes": {
        "nomor_pb_umku": "812011702350700050001",
        "nama": "VIVA MEDIKA",
        "website": "Vivamedika.id",
        "sektor": "Sektor Kesehatan",
        "nama_perusahaan": "VIVA MEDIKA",
        "tanggal_daftar": "2022-07-13",
        "nomor_tanda_daftar": "004120.01/DJAI.PSE/07/2022",
        "qr_code": "https://pse.kominfo.go.id/storage/images/qr_code/a9e0d2d14a7dd2723b7382aa9ddb60c5.png",
        "status_id": "TERDAFTAR",
        "sistem_elektronik_id": 5372
      }
    },
    {
      "type": "tdpseTerbit",
      "id": 8851,
      "attributes": {
        "nomor_pb_umku": "121700342281800030003",
        "nama": "VEXASCAN.COM",
        "website": "-",
        "sektor": "Sektor Teknologi Informasi dan Komunikasi",
        "nama_perusahaan": "VEXANIUM TEKNOLOGI NUSANTARA",
        "tanggal_daftar": "2022-07-22",
        "nomor_tanda_daftar": "004118.02/DJAI.PSE/07/2022",
        "qr_code": "https://pse.kominfo.go.id/storage/images/qr_code/5c37e611e6994354a836c88322cabe82.png",
        "status_id": "TERDAFTAR",
        "sistem_elektronik_id": 8757
      }
    },
    {
      "type": "tdpseTerbit",
      "id": 8446,
      "attributes": {
        "nomor_pb_umku": "121700342281800030002",
        "nama": "VEXANIUM",
        "website": "vexanium.com",
        "sektor": "Sektor Teknologi Informasi dan Komunikasi",
        "nama_perusahaan": "VEXANIUM TEKNOLOGI NUSANTARA",
        "tanggal_daftar": "2022-07-21",
        "nomor_tanda_daftar": "004118.01/DJAI.PSE/07/2022",
        "qr_code": "https://pse.kominfo.go.id/storage/images/qr_code/84a5d46bccd2c34563fe4c002aaf094f.png",
        "status_id": "TERDAFTAR",
        "sistem_elektronik_id": 8365
      }
    },
    {
      "type": "tdpseTerbit",
      "id": 5834,
      "attributes": {
        "nomor_pb_umku": "022030270200200000001",
        "nama": "VIP VOUCHER",
        "website": "vipvoucher.id",
        "sektor": "Sektor Perdagangan, Sektor Teknologi Informasi dan Komunikasi",
        "nama_perusahaan": "VOUCHER IMPERIAL PERSADA",
        "tanggal_daftar": "2022-07-15",
        "nomor_tanda_daftar": "004117.01/DJAI.PSE/07/2022",
        "qr_code": "https://pse.kominfo.go.id/storage/images/qr_code/0792d71fbeef317cc4e01445c40b0fcd.png",
        "status_id": "TERDAFTAR",
        "sistem_elektronik_id": 5693
      }
    }
  ]
}