{
  "meta": {
    "page": {
      "currentPage": 430,
      "from": 4291,
      "lastPage": 952,
      "perPage": 10,
      "to": 4300,
      "total": 9517
    }
  },
  "data": [
    {
      "type": "tdpseTerbit",
      "id": 4711,
      "attributes": {
        "nomor_pb_umku": "270522000047600000002",
        "nama": "PORTAL BUANA ASIA",
        "website": "PORTALBUANANEW.ASIA",
        "sektor": "Sektor Teknologi Informasi dan Komunikasi",
        "nama_perusahaan": "PORTAL BUANA MEDIA",
        "tanggal_daftar": "2022-06-23",
        "nomor_tanda_daftar": "003342.02/DJAI.PSE/06/2022",
        "qr_code": "https://pse.kominfo.go.id/storage/images/qr_code/49cfd375a94e57dd94f45f4e0624c926.png",
        "status_id": "TERDAFTAR",
        "sistem_elektronik_id": 4666
      }
    },
    {
      "type": "tdpseTerbit",
      "id": 4660,
      "attributes": {
        "nomor_pb_umku": "270522000047600000001",
        "nama": "PORTAL BUANA NEW",
        "website": "portalbuananew.com",
        "sektor": "Sektor Teknologi Informasi dan Komunikasi",
        "nama_perusahaan": "PORTAL BUANA MEDIA",
        "tanggal_daftar": "2022-06-22",
        "nomor_tanda_daftar": "003342.01/DJAI.PSE/06/2022",
        "qr_code": "https://pse.kominfo.go.id/storage/images/qr_code/49b9f40b40a8b3ded278f875132389f8.png",
        "status_id": "TERDAFTAR",
        "sistem_elektronik_id": 4619
      }
    },
    {
      "type": "tdpseTerbit",
      "id": 4664,
      "attributes": {
        "nomor_pb_umku": "912030024153700000001",
        "nama": "SIANTANO FURNITURE",
        "website": "-",
        "sektor": "Sektor Perdagangan",
        "nama_perusahaan": "NATHANIA FURNITURE",
        "tanggal_daftar": "2022-06-22",
        "nomor_tanda_daftar": "003341.01/DJAI.PSE/06/2022",
        "qr_code": "https://pse.kominfo.go.id/storage/images/qr_code/452b21a7522fad019b8c67ce2e24eebf.png",
        "status_id": "TERDAFTAR",
        "sistem_elektronik_id": 4623
      }
    },
    {
      "type": "tdpseTerbit",
      "id": 4789,
      "attributes": {
        "nomor_pb_umku": "180222002122600010001",
        "nama": "ATMA",
        "website": "atma.co.id",
        "sektor": "Sektor Perdagangan, Sektor Teknologi Informasi dan Komunikasi",
        "nama_perusahaan": "ATMA MERAKI NUSANTARA",
        "tanggal_daftar": "2022-06-27",
        "nomor_tanda_daftar": "003340.01/DJAI.PSE/06/2022",
        "qr_code": "https://pse.kominfo.go.id/storage/images/qr_code/a4e89fc8a5428246a4d62824390995e5.png",
        "status_id": "TERDAFTAR",
        "sistem_elektronik_id": 4733
      }
    },
    {
      "type": "tdpseTerbit",
      "id": 4659,
      "attributes": {
        "nomor_pb_umku": "041021001090200010001",
        "nama": "SATUBON",
        "website": "satubon.com",
        "sektor": "Sektor Keuangan",
        "nama_perusahaan": "INDO SUKSES MANDIRI",
        "tanggal_daftar": "2022-06-22",
        "nomor_tanda_daftar": "003339.01/DJAI.PSE/06/2022",
        "qr_code": "https://pse.kominfo.go.id/storage/images/qr_code/d291dc237f96c05c184a6cb2759388da.png",
        "status_id": "TERDAFTAR",
        "sistem_elektronik_id": 4618
      }
    },
    {
      "type": "tdpseTerbit",
      "id": 4656,
      "attributes": {
        "nomor_pb_umku": "127300141183800000001",
        "nama": "MEDICAL TOURISM INDONESIA",
        "website": "app.medicaltourism.id",
        "sektor": "Sektor Kesehatan, Sektor Teknologi Informasi dan Komunikasi",
        "nama_perusahaan": "CIPTA WISATA MEDIKA",
        "tanggal_daftar": "2022-06-22",
        "nomor_tanda_daftar": "003338.01/DJAI.PSE/06/2022",
        "qr_code": "https://pse.kominfo.go.id/storage/images/qr_code/af9daaf3528b9f9290d5db6dcd77d6c3.png",
        "status_id": "TERDAFTAR",
        "sistem_elektronik_id": 4616
      }
    },
    {
      "type": "tdpseTerbit",
      "id": 4655,
      "attributes": {
        "nomor_pb_umku": "022010077110500010001",
        "nama": "ASTRAPAY",
        "website": "astrapay.com",
        "sektor": "Sektor Keuangan",
        "nama_perusahaan": "ASTRA DIGITAL ARTA",
        "tanggal_daftar": "2022-06-22",
        "nomor_tanda_daftar": "003337.01/DJAI.PSE/06/2022",
        "qr_code": "https://pse.kominfo.go.id/storage/images/qr_code/e7145cc62508e751687376663d6ffb1a.png",
        "status_id": "TERDAFTAR",
        "sistem_elektronik_id": 4615
      }
    },
    {
      "type": "tdpseTerbit",
      "id": 4653,
      "attributes": {
        "nomor_pb_umku": "310522005865500000001",
        "nama": "KONSULDONG",
        "website": "konsuldong.com",
        "sektor": "Sektor Kesehatan",
        "nama_perusahaan": "ANNARINDO MULIA ABADI",
        "tanggal_daftar": "2022-06-22",
        "nomor_tanda_daftar": "003336.01/DJAI.PSE/06/2022",
        "qr_code": "https://pse.kominfo.go.id/storage/images/qr_code/b5969b2293cccf527c47474dcc74d826.png",
        "status_id": "TERDAFTAR",
        "sistem_elektronik_id": 4613
      }
    },
    {
      "type": "tdpseTerbit",
      "id": 9963,
      "attributes": {
        "nomor_pb_umku": "912000417331800000003",
        "nama": "KGMEDIA.ID",
        "website": "kgmedia.id",
        "sektor": "Sektor Teknologi Informasi dan Komunikasi",
        "nama_perusahaan": "UNINET BHAKTINUSA",
        "tanggal_daftar": "2022-08-05",
        "nomor_tanda_daftar": "003334.03/DJAI.PSE/08/2022",
        "qr_code": "https://pse.kominfo.go.id/storage/images/qr_code/ebc9de65db76820ddf57ad9acb3bd8f0.png",
        "status_id": "TERDAFTAR",
        "sistem_elektronik_id": 9847
      }
    },
    {
      "type": "tdpseTerbit",
      "id": 9961,
      "attributes": {
        "nomor_pb_umku": "912000417331800000002",
        "nama": "STARTX.ID",
        "website": "startx.id",
        "sektor": "Sektor Teknologi Informasi dan Komunikasi",
        "nama_perusahaan": "UNINET BHAKTINUSA",
        "tanggal_daftar": "2022-08-05",
        "nomor_tanda_daftar": "003334.02/DJAI.PSE/08/2022",
        "qr_code": "https://pse.kominfo.go.id/storage/images/qr_code/0cbc6e6742fafb4dd790a2bf7a45f29e.png",
        "status_id": "TERDAFTAR",
        "sistem_elektronik_id": 9845
      }
    }
  ]
}