{
  "meta": {
    "page": {
      "currentPage": 431,
      "from": 4301,
      "lastPage": 957,
      "perPage": 10,
      "to": 4310,
      "total": 9563
    }
  },
  "data": [
    {
      "type": "tdpseTerbit",
      "id": 5353,
      "attributes": {
        "nomor_pb_umku": "812011705094600040011",
        "nama": "BJB QUICKCASH",
        "website": "qcportal.bankbjb.co.id",
        "sektor": "Sektor Keuangan",
        "nama_perusahaan": "BANK PEMBANGUNAN DAERAH JAWA BARAT DAN BANTEN TBK (BANK BJB)",
        "tanggal_daftar": "2022-07-12",
        "nomor_tanda_daftar": "003382.10/DJAI.PSE/07/2022",
        "qr_code": "https://pse.kominfo.go.id/storage/images/qr_code/88faa78ec69506c2c10983123b8213e8.png",
        "status_id": "TERDAFTAR",
        "sistem_elektronik_id": 5226
      }
    },
    {
      "type": "tdpseTerbit",
      "id": 5294,
      "attributes": {
        "nomor_pb_umku": "812011705094600040008",
        "nama": "MERCHANT MANAGEMENT SYSTEM",
        "website": "mms.bankbjb.co.id",
        "sektor": "Sektor Keuangan",
        "nama_perusahaan": "BANK PEMBANGUNAN DAERAH JAWA BARAT DAN BANTEN TBK (BANK BJB)",
        "tanggal_daftar": "2022-07-11",
        "nomor_tanda_daftar": "003382.09/DJAI.PSE/07/2022",
        "qr_code": "https://pse.kominfo.go.id/storage/images/qr_code/aa3dd28dd755c475940f3ecf013d6302.png",
        "status_id": "TERDAFTAR",
        "sistem_elektronik_id": 5165
      }
    },
    {
      "type": "tdpseTerbit",
      "id": 5295,
      "attributes": {
        "nomor_pb_umku": "812011705094600040009",
        "nama": "BJB BISA",
        "website": "-",
        "sektor": "Sektor Keuangan",
        "nama_perusahaan": "BANK PEMBANGUNAN DAERAH JAWA BARAT DAN BANTEN TBK (BANK BJB)",
        "tanggal_daftar": "2022-07-11",
        "nomor_tanda_daftar": "003382.08/DJAI.PSE/07/2022",
        "qr_code": "https://pse.kominfo.go.id/storage/images/qr_code/eea6aacc1e7290ecf3495a6d35c6204c.png",
        "status_id": "TERDAFTAR",
        "sistem_elektronik_id": 5164
      }
    },
    {
      "type": "tdpseTerbit",
      "id": 5296,
      "attributes": {
        "nomor_pb_umku": "812011705094600040010",
        "nama": "VIRTUAL OFFICES",
        "website": "virtualoffice.bankbjb.co.id",
        "sektor": "Sektor Keuangan",
        "nama_perusahaan": "BANK PEMBANGUNAN DAERAH JAWA BARAT DAN BANTEN TBK (BANK BJB)",
        "tanggal_daftar": "2022-07-11",
        "nomor_tanda_daftar": "003382.07/DJAI.PSE/07/2022",
        "qr_code": "https://pse.kominfo.go.id/storage/images/qr_code/ce13c94cd3f37e978eae63abb6608ca1.png",
        "status_id": "TERDAFTAR",
        "sistem_elektronik_id": 5163
      }
    },
    {
      "type": "tdpseTerbit",
      "id": 5293,
      "attributes": {
        "nomor_pb_umku": "812011705094600040007",
        "nama": "BJB POIN",
        "website": "bjbpoin.bankbjb.co.id",
        "sektor": "Sektor Keuangan",
        "nama_perusahaan": "BANK PEMBANGUNAN DAERAH JAWA BARAT DAN BANTEN TBK (BANK BJB)",
        "tanggal_daftar": "2022-07-11",
        "nomor_tanda_daftar": "003382.06/DJAI.PSE/07/2022",
        "qr_code": "https://pse.kominfo.go.id/storage/images/qr_code/e2072d380b53fc26a40b93bd708814aa.png",
        "status_id": "TERDAFTAR",
        "sistem_elektronik_id": 5162
      }
    },
    {
      "type": "tdpseTerbit",
      "id": 4943,
      "attributes": {
        "nomor_pb_umku": "812011705094600040006",
        "nama": "DIGINET",
        "website": "ib.bankbjb.co.id",
        "sektor": "Sektor Keuangan",
        "nama_perusahaan": "BANK PEMBANGUNAN DAERAH JAWA BARAT DAN BANTEN TBK (BANK BJB)",
        "tanggal_daftar": "2022-06-29",
        "nomor_tanda_daftar": "003382.05/DJAI.PSE/06/2022",
        "qr_code": "https://pse.kominfo.go.id/storage/images/qr_code/27982af0ca2d2acc68c5c28f6bbaa520.png",
        "status_id": "TERDAFTAR",
        "sistem_elektronik_id": 4810
      }
    },
    {
      "type": "tdpseTerbit",
      "id": 4930,
      "attributes": {
        "nomor_pb_umku": "812011705094600040005",
        "nama": "DIGICASH MERCHANT",
        "website": "-",
        "sektor": "Sektor Keuangan",
        "nama_perusahaan": "BANK PEMBANGUNAN DAERAH JAWA BARAT DAN BANTEN TBK (BANK BJB)",
        "tanggal_daftar": "2022-06-29",
        "nomor_tanda_daftar": "003382.04/DJAI.PSE/06/2022",
        "qr_code": "https://pse.kominfo.go.id/storage/images/qr_code/cb09107ae1f58abedbb58788cc0f34ae.png",
        "status_id": "TERDAFTAR",
        "sistem_elektronik_id": 4797
      }
    },
    {
      "type": "tdpseTerbit",
      "id": 4929,
      "attributes": {
        "nomor_pb_umku": "812011705094600040004",
        "nama": "DIGICASH BY BANK BJB",
        "website": "-",
        "sektor": "Sektor Keuangan",
        "nama_perusahaan": "BANK PEMBANGUNAN DAERAH JAWA BARAT DAN BANTEN TBK (BANK BJB)",
        "tanggal_daftar": "2022-06-29",
        "nomor_tanda_daftar": "003382.03/DJAI.PSE/06/2022",
        "qr_code": "https://pse.kominfo.go.id/storage/images/qr_code/ea1dd1c125cb847d339b356ce9789f93.png",
        "status_id": "TERDAFTAR",
        "sistem_elektronik_id": 4796
      }
    },
    {
      "type": "tdpseTerbit",
      "id": 4928,
      "attributes": {
        "nomor_pb_umku": "812011705094600040003",
        "nama": "TAMMI",
        "website": "-",
        "sektor": "Sektor Keuangan",
        "nama_perusahaan": "BANK PEMBANGUNAN DAERAH JAWA BARAT DAN BANTEN TBK (BANK BJB)",
        "tanggal_daftar": "2022-06-29",
        "nomor_tanda_daftar": "003382.02/DJAI.PSE/06/2022",
        "qr_code": "https://pse.kominfo.go.id/storage/images/qr_code/adf6ff651cfca8507c2460feecbef420.png",
        "status_id": "TERDAFTAR",
        "sistem_elektronik_id": 4795
      }
    },
    {
      "type": "tdpseTerbit",
      "id": 4927,
      "attributes": {
        "nomor_pb_umku": "812011705094600040002",
        "nama": "DIGI BY BANK BJB",
        "website": "-",
        "sektor": "Sektor Keuangan",
        "nama_perusahaan": "BANK PEMBANGUNAN DAERAH JAWA BARAT DAN BANTEN TBK (BANK BJB)",
        "tanggal_daftar": "2022-06-29",
        "nomor_tanda_daftar": "003382.01/DJAI.PSE/06/2022",
        "qr_code": "https://pse.kominfo.go.id/storage/images/qr_code/82a597f4c0494b4a0f6db0b3c323075b.png",
        "status_id": "TERDAFTAR",
        "sistem_elektronik_id": 4794
      }
    }
  ]
}