{
  "meta": {
    "page": {
      "currentPage": 433,
      "from": 4321,
      "lastPage": 1070,
      "perPage": 10,
      "to": 4330,
      "total": 10698
    }
  },
  "data": [
    {
      "type": "tdpseTerbit",
      "id": 6361,
      "attributes": {
        "nomor_pb_umku": "022010361157500010017",
        "nama": "JATIM ELEKTRONIK TRANSFER SISTEM (JETS)",
        "website": "jets.bankjatim.co.id",
        "sektor": "Sektor Keuangan, Sektor Teknologi Informasi dan Komunikasi",
        "nama_perusahaan": "BANK PEMBANGUNAN DAERAH JAWA TIMUR",
        "tanggal_daftar": "2022-07-18",
        "nomor_tanda_daftar": "004213.17/DJAI.PSE/07/2022",
        "qr_code": "https://pse.kominfo.go.id/storage/images/qr_code/d3d168a130e26b021725388c4a5b37e6.png",
        "status_id": "TERDAFTAR",
        "sistem_elektronik_id": 6225
      }
    },
    {
      "type": "tdpseTerbit",
      "id": 6353,
      "attributes": {
        "nomor_pb_umku": "022010361157500010016",
        "nama": "JATIM PRESENCE",
        "website": "-",
        "sektor": "Sektor Keuangan, Sektor Teknologi Informasi dan Komunikasi",
        "nama_perusahaan": "BANK PEMBANGUNAN DAERAH JAWA TIMUR",
        "tanggal_daftar": "2022-07-18",
        "nomor_tanda_daftar": "004213.16/DJAI.PSE/07/2022",
        "qr_code": "https://pse.kominfo.go.id/storage/images/qr_code/8a8e8dec1fd3ae0d6c6dee4b68b65384.png",
        "status_id": "TERDAFTAR",
        "sistem_elektronik_id": 6221
      }
    },
    {
      "type": "tdpseTerbit",
      "id": 6350,
      "attributes": {
        "nomor_pb_umku": "022010361157500010015",
        "nama": "ELEKTRONIK HUMAN CAPITAL",
        "website": "ehc.bankjatim.co.id",
        "sektor": "Sektor Keuangan, Sektor Teknologi Informasi dan Komunikasi",
        "nama_perusahaan": "BANK PEMBANGUNAN DAERAH JAWA TIMUR",
        "tanggal_daftar": "2022-07-18",
        "nomor_tanda_daftar": "004213.15/DJAI.PSE/07/2022",
        "qr_code": "https://pse.kominfo.go.id/storage/images/qr_code/f03f353a1eebb9c48f6813127d142d7b.png",
        "status_id": "TERDAFTAR",
        "sistem_elektronik_id": 6218
      }
    },
    {
      "type": "tdpseTerbit",
      "id": 6349,
      "attributes": {
        "nomor_pb_umku": "022010361157500010014",
        "nama": "SINTA",
        "website": "sinta.bankjatim.co.id",
        "sektor": "Sektor Keuangan, Sektor Teknologi Informasi dan Komunikasi",
        "nama_perusahaan": "BANK PEMBANGUNAN DAERAH JAWA TIMUR",
        "tanggal_daftar": "2022-07-18",
        "nomor_tanda_daftar": "004213.14/DJAI.PSE/07/2022",
        "qr_code": "https://pse.kominfo.go.id/storage/images/qr_code/7c17becebec565854ff9ff7f530408be.png",
        "status_id": "TERDAFTAR",
        "sistem_elektronik_id": 6214
      }
    },
    {
      "type": "tdpseTerbit",
      "id": 6346,
      "attributes": {
        "nomor_pb_umku": "022010361157500010013",
        "nama": "WBS UPG BANK JATIM",
        "website": "wbs.bankjatim.co.id",
        "sektor": "Sektor Keuangan, Sektor Teknologi Informasi dan Komunikasi",
        "nama_perusahaan": "BANK PEMBANGUNAN DAERAH JAWA TIMUR",
        "tanggal_daftar": "2022-07-18",
        "nomor_tanda_daftar": "004213.13/DJAI.PSE/07/2022",
        "qr_code": "https://pse.kominfo.go.id/storage/images/qr_code/48524a7cfec3e96247f58cfcc4baf662.png",
        "status_id": "TERDAFTAR",
        "sistem_elektronik_id": 6210
      }
    },
    {
      "type": "tdpseTerbit",
      "id": 6336,
      "attributes": {
        "nomor_pb_umku": "022010361157500010012",
        "nama": "MOBILE AUDIT BANK JATIM",
        "website": "mekka.bankjatim.co.id",
        "sektor": "Sektor Keuangan, Sektor Teknologi Informasi dan Komunikasi",
        "nama_perusahaan": "BANK PEMBANGUNAN DAERAH JAWA TIMUR",
        "tanggal_daftar": "2022-07-18",
        "nomor_tanda_daftar": "004213.12/DJAI.PSE/07/2022",
        "qr_code": "https://pse.kominfo.go.id/storage/images/qr_code/3d8c9711447b3bbd87dbaf0c7489bd2d.png",
        "status_id": "TERDAFTAR",
        "sistem_elektronik_id": 6202
      }
    },
    {
      "type": "tdpseTerbit",
      "id": 6328,
      "attributes": {
        "nomor_pb_umku": "022010361157500010011",
        "nama": "E-RECRUITMENT BANK JATIM",
        "website": "e-recruitment.bankjatim.co.id",
        "sektor": "Sektor Keuangan, Sektor Teknologi Informasi dan Komunikasi",
        "nama_perusahaan": "BANK PEMBANGUNAN DAERAH JAWA TIMUR",
        "tanggal_daftar": "2022-07-18",
        "nomor_tanda_daftar": "004213.11/DJAI.PSE/07/2022",
        "qr_code": "https://pse.kominfo.go.id/storage/images/qr_code/69a1cc100b03988a4079004dcc259608.png",
        "status_id": "TERDAFTAR",
        "sistem_elektronik_id": 6195
      }
    },
    {
      "type": "tdpseTerbit",
      "id": 6323,
      "attributes": {
        "nomor_pb_umku": "022010361157500010010",
        "nama": "JATIM KILAT",
        "website": "eform.bankjatim.co.id",
        "sektor": "Sektor Keuangan, Sektor Teknologi Informasi dan Komunikasi",
        "nama_perusahaan": "BANK PEMBANGUNAN DAERAH JAWA TIMUR",
        "tanggal_daftar": "2022-07-18",
        "nomor_tanda_daftar": "004213.10/DJAI.PSE/07/2022",
        "qr_code": "https://pse.kominfo.go.id/storage/images/qr_code/36f67ffa03ae49b637d577613acf9022.png",
        "status_id": "TERDAFTAR",
        "sistem_elektronik_id": 6190
      }
    },
    {
      "type": "tdpseTerbit",
      "id": 6316,
      "attributes": {
        "nomor_pb_umku": "022010361157500010009",
        "nama": "JCONNECT E-LOAN",
        "website": "-",
        "sektor": "Sektor Keuangan, Sektor Teknologi Informasi dan Komunikasi",
        "nama_perusahaan": "BANK PEMBANGUNAN DAERAH JAWA TIMUR",
        "tanggal_daftar": "2022-07-18",
        "nomor_tanda_daftar": "004213.09/DJAI.PSE/07/2022",
        "qr_code": "https://pse.kominfo.go.id/storage/images/qr_code/170aaf230c85d445250c5564bf05564f.png",
        "status_id": "TERDAFTAR",
        "sistem_elektronik_id": 6183
      }
    },
    {
      "type": "tdpseTerbit",
      "id": 6309,
      "attributes": {
        "nomor_pb_umku": "022010361157500010008",
        "nama": "JCONNECT INVEST",
        "website": "-",
        "sektor": "Sektor Keuangan, Sektor Teknologi Informasi dan Komunikasi",
        "nama_perusahaan": "BANK PEMBANGUNAN DAERAH JAWA TIMUR",
        "tanggal_daftar": "2022-07-18",
        "nomor_tanda_daftar": "004213.08/DJAI.PSE/07/2022",
        "qr_code": "https://pse.kominfo.go.id/storage/images/qr_code/8d667cd5444cdf18a60f277b0738a730.png",
        "status_id": "TERDAFTAR",
        "sistem_elektronik_id": 6180
      }
    }
  ]
}