{
  "meta": {
    "page": {
      "currentPage": 436,
      "from": 4351,
      "lastPage": 1089,
      "perPage": 10,
      "to": 4360,
      "total": 10885
    }
  },
  "data": [
    {
      "type": "tdpseTerbit",
      "id": 5738,
      "attributes": {
        "nomor_pb_umku": "090622002786300010001",
        "nama": "BSI NETWORK",
        "website": "bsisukses.com",
        "sektor": "Sektor Perdagangan",
        "nama_perusahaan": "BERLIAN SEJATI INDONESIA",
        "tanggal_daftar": "2022-07-15",
        "nomor_tanda_daftar": "004285.01/DJAI.PSE/07/2022",
        "qr_code": "https://pse.kominfo.go.id/storage/images/qr_code/991e0891bf1b5c143ccf99dfe7eb3f15.png",
        "status_id": "TERDAFTAR",
        "sistem_elektronik_id": 5603
      }
    },
    {
      "type": "tdpseTerbit",
      "id": 6148,
      "attributes": {
        "nomor_pb_umku": "912040576351400010001",
        "nama": "BPRNUSAMBA-BANGUNTAPAN",
        "website": "bprnusamba-banguntapan.com",
        "sektor": "Sektor Keuangan",
        "nama_perusahaan": "BANK PERKREDITAN RAKYAT NUSAMBA BANGUNTAPAN",
        "tanggal_daftar": "2022-07-18",
        "nomor_tanda_daftar": "004283.01/DJAI.PSE/07/2022",
        "qr_code": "https://pse.kominfo.go.id/storage/images/qr_code/e88235379b795296470bbddae9854ce0.png",
        "status_id": "TERDAFTAR",
        "sistem_elektronik_id": 6016
      }
    },
    {
      "type": "tdpseTerbit",
      "id": 6537,
      "attributes": {
        "nomor_pb_umku": "912000886154500010001",
        "nama": "BANKING.NET",
        "website": "-",
        "sektor": "Sektor Keuangan",
        "nama_perusahaan": "BANK PERKREDITAN RAKYAT ARTHA NUGRAHA",
        "tanggal_daftar": "2022-07-19",
        "nomor_tanda_daftar": "004282.01/DJAI.PSE/07/2022",
        "qr_code": "https://pse.kominfo.go.id/storage/images/qr_code/7c919fa01359cafddfaa4b77e75fb5a1.png",
        "status_id": "TERDAFTAR",
        "sistem_elektronik_id": 6402
      }
    },
    {
      "type": "tdpseTerbit",
      "id": 5818,
      "attributes": {
        "nomor_pb_umku": "150722000480600000001",
        "nama": "AVANTEE",
        "website": "avantee.co.id",
        "sektor": "Sektor Keuangan",
        "nama_perusahaan": "GRHA DANA BERSAMA",
        "tanggal_daftar": "2022-07-15",
        "nomor_tanda_daftar": "004281.01/DJAI.PSE/07/2022",
        "qr_code": "https://pse.kominfo.go.id/storage/images/qr_code/b866be67bf35a5dfe945097305d4daa2.png",
        "status_id": "TERDAFTAR",
        "sistem_elektronik_id": 5677
      }
    },
    {
      "type": "tdpseTerbit",
      "id": 12167,
      "attributes": {
        "nomor_pb_umku": "812000172108700080069",
        "nama": "GROUP SHARING",
        "website": "-",
        "sektor": "Sektor Teknologi Informasi dan Komunikasi",
        "nama_perusahaan": "SAMSUNG ELECTRONICS INDONESIA",
        "tanggal_daftar": "2022-11-08",
        "nomor_tanda_daftar": "004280.20/DJAI.PSE/11/2022",
        "qr_code": "https://pse.kominfo.go.id/storage/images/qr_code/7a2d598b065b3d3fd71fff2a470ae928.png",
        "status_id": "TERDAFTAR",
        "sistem_elektronik_id": 11961
      }
    },
    {
      "type": "tdpseTerbit",
      "id": 12166,
      "attributes": {
        "nomor_pb_umku": "812000172108700080068",
        "nama": "SAMSUNG ACCOUNT",
        "website": "-",
        "sektor": "Sektor Teknologi Informasi dan Komunikasi",
        "nama_perusahaan": "SAMSUNG ELECTRONICS INDONESIA",
        "tanggal_daftar": "2022-11-08",
        "nomor_tanda_daftar": "004280.19/DJAI.PSE/11/2022",
        "qr_code": "https://pse.kominfo.go.id/storage/images/qr_code/e2616441573193dfe09c47e4448142b8.png",
        "status_id": "TERDAFTAR",
        "sistem_elektronik_id": 11960
      }
    },
    {
      "type": "tdpseTerbit",
      "id": 12165,
      "attributes": {
        "nomor_pb_umku": "812000172108700080067",
        "nama": "VD KPI DATA SYSTEM",
        "website": "-",
        "sektor": "Sektor Teknologi Informasi dan Komunikasi",
        "nama_perusahaan": "SAMSUNG ELECTRONICS INDONESIA",
        "tanggal_daftar": "2022-11-08",
        "nomor_tanda_daftar": "004280.18/DJAI.PSE/11/2022",
        "qr_code": "https://pse.kominfo.go.id/storage/images/qr_code/9e6abe82a612879f0a45ef7a7e8d5841.png",
        "status_id": "TERDAFTAR",
        "sistem_elektronik_id": 11959
      }
    },
    {
      "type": "tdpseTerbit",
      "id": 12135,
      "attributes": {
        "nomor_pb_umku": "812000172108700080066",
        "nama": "·SAMSUNGHEALTH",
        "website": "-",
        "sektor": "Sektor Teknologi Informasi dan Komunikasi",
        "nama_perusahaan": "SAMSUNG ELECTRONICS INDONESIA",
        "tanggal_daftar": "2022-11-04",
        "nomor_tanda_daftar": "004280.17/DJAI.PSE/11/2022",
        "qr_code": "https://pse.kominfo.go.id/storage/images/qr_code/a04e17ea62f6bd63965ad7cb154118c0.png",
        "status_id": "TERDAFTAR",
        "sistem_elektronik_id": 11930
      }
    },
    {
      "type": "tdpseTerbit",
      "id": 12134,
      "attributes": {
        "nomor_pb_umku": "812000172108700080065",
        "nama": "VD BILLING (SAMSUNG CHECKOUT FOR SMARTTV)",
        "website": "-",
        "sektor": "Sektor Teknologi Informasi dan Komunikasi",
        "nama_perusahaan": "SAMSUNG ELECTRONICS INDONESIA",
        "tanggal_daftar": "2022-11-04",
        "nomor_tanda_daftar": "004280.16/DJAI.PSE/11/2022",
        "qr_code": "https://pse.kominfo.go.id/storage/images/qr_code/5c2c5e479d8d044a6bdd1a2348715295.png",
        "status_id": "TERDAFTAR",
        "sistem_elektronik_id": 11929
      }
    },
    {
      "type": "tdpseTerbit",
      "id": 12121,
      "attributes": {
        "nomor_pb_umku": "812000172108700080064",
        "nama": "AUTOSETUP - BACKUP AND RESTORE",
        "website": "-",
        "sektor": "Sektor Teknologi Informasi dan Komunikasi",
        "nama_perusahaan": "SAMSUNG ELECTRONICS INDONESIA",
        "tanggal_daftar": "2022-11-03",
        "nomor_tanda_daftar": "004280.15/DJAI.PSE/11/2022",
        "qr_code": "https://pse.kominfo.go.id/storage/images/qr_code/ac1079d3582609836e21b24d547ed946.png",
        "status_id": "TERDAFTAR",
        "sistem_elektronik_id": 11915
      }
    }
  ]
}