{
  "meta": {
    "page": {
      "currentPage": 437,
      "from": 4361,
      "lastPage": 1080,
      "perPage": 10,
      "to": 4370,
      "total": 10793
    }
  },
  "data": [
    {
      "type": "tdpseTerbit",
      "id": 5670,
      "attributes": {
        "nomor_pb_umku": "021121000080800010001",
        "nama": "SUBANG PEDIA",
        "website": "Subangpedia.com",
        "sektor": "Sektor Perdagangan",
        "nama_perusahaan": "MUHAMMAD RAMDAN",
        "tanggal_daftar": "2022-07-14",
        "nomor_tanda_daftar": "004233.01/DJAI.PSE/07/2022",
        "qr_code": "https://pse.kominfo.go.id/storage/images/qr_code/cf8701e40ed3ce2f474bdaa81286ff3f.png",
        "status_id": "TERDAFTAR",
        "sistem_elektronik_id": 5530
      }
    },
    {
      "type": "tdpseTerbit",
      "id": 7106,
      "attributes": {
        "nomor_pb_umku": "912050480057200030013",
        "nama": "I-STAND",
        "website": "istand.bankkalsel.co.id",
        "sektor": "Sektor Teknologi Informasi dan Komunikasi",
        "nama_perusahaan": "BANK PEMBANGUNAN DAERAH KALIMANTAN SELATAN",
        "tanggal_daftar": "2022-07-19",
        "nomor_tanda_daftar": "004232.13/DJAI.PSE/07/2022",
        "qr_code": "https://pse.kominfo.go.id/storage/images/qr_code/cfd81c9e6b342f16e986acb4dd3f6be3.png",
        "status_id": "TERDAFTAR",
        "sistem_elektronik_id": 6958
      }
    },
    {
      "type": "tdpseTerbit",
      "id": 7097,
      "attributes": {
        "nomor_pb_umku": "912050480057200030009",
        "nama": "DIGITAL ASSESSMENT TEST",
        "website": "hcis.bankkalsel.co.id",
        "sektor": "Sektor Teknologi Informasi dan Komunikasi",
        "nama_perusahaan": "BANK PEMBANGUNAN DAERAH KALIMANTAN SELATAN",
        "tanggal_daftar": "2022-07-19",
        "nomor_tanda_daftar": "004232.12/DJAI.PSE/07/2022",
        "qr_code": "https://pse.kominfo.go.id/storage/images/qr_code/96b720cc02db34e1386746366026d5c7.png",
        "status_id": "TERDAFTAR",
        "sistem_elektronik_id": 6952
      }
    },
    {
      "type": "tdpseTerbit",
      "id": 7100,
      "attributes": {
        "nomor_pb_umku": "912050480057200030010",
        "nama": "EMPLOYEE HEALTH SERVICE",
        "website": "hcis.bankkalsel.co.id",
        "sektor": "Sektor Teknologi Informasi dan Komunikasi",
        "nama_perusahaan": "BANK PEMBANGUNAN DAERAH KALIMANTAN SELATAN",
        "tanggal_daftar": "2022-07-19",
        "nomor_tanda_daftar": "004232.11/DJAI.PSE/07/2022",
        "qr_code": "https://pse.kominfo.go.id/storage/images/qr_code/fd0d29db312386c87c9273208c10fe43.png",
        "status_id": "TERDAFTAR",
        "sistem_elektronik_id": 6951
      }
    },
    {
      "type": "tdpseTerbit",
      "id": 7103,
      "attributes": {
        "nomor_pb_umku": "912050480057200030011",
        "nama": "REKRUTMEN BANK KALSEL TALENTA",
        "website": "rekrutmen.bankkalsel.co.id",
        "sektor": "Sektor Teknologi Informasi dan Komunikasi",
        "nama_perusahaan": "BANK PEMBANGUNAN DAERAH KALIMANTAN SELATAN",
        "tanggal_daftar": "2022-07-19",
        "nomor_tanda_daftar": "004232.10/DJAI.PSE/07/2022",
        "qr_code": "https://pse.kominfo.go.id/storage/images/qr_code/0247ce8b9856be8ab1c56e2f826459c1.png",
        "status_id": "TERDAFTAR",
        "sistem_elektronik_id": 6939
      }
    },
    {
      "type": "tdpseTerbit",
      "id": 7105,
      "attributes": {
        "nomor_pb_umku": "912050480057200030012",
        "nama": "PERFORMANCE EVALUATION DIGITAL GATE",
        "website": "pedig.bankkalsel.co.id",
        "sektor": "Sektor Teknologi Informasi dan Komunikasi",
        "nama_perusahaan": "BANK PEMBANGUNAN DAERAH KALIMANTAN SELATAN",
        "tanggal_daftar": "2022-07-19",
        "nomor_tanda_daftar": "004232.09/DJAI.PSE/07/2022",
        "qr_code": "https://pse.kominfo.go.id/storage/images/qr_code/00a6dec09e62a4ee6ab239379b332045.png",
        "status_id": "TERDAFTAR",
        "sistem_elektronik_id": 6931
      }
    },
    {
      "type": "tdpseTerbit",
      "id": 7092,
      "attributes": {
        "nomor_pb_umku": "912050480057200030008",
        "nama": "E-PERSONAL",
        "website": "hcis.bankkalsel.co.id",
        "sektor": "Sektor Teknologi Informasi dan Komunikasi",
        "nama_perusahaan": "BANK PEMBANGUNAN DAERAH KALIMANTAN SELATAN",
        "tanggal_daftar": "2022-07-19",
        "nomor_tanda_daftar": "004232.08/DJAI.PSE/07/2022",
        "qr_code": "https://pse.kominfo.go.id/storage/images/qr_code/178e184a975d19f97ec69e9cfa89ac2b.png",
        "status_id": "TERDAFTAR",
        "sistem_elektronik_id": 6925
      }
    },
    {
      "type": "tdpseTerbit",
      "id": 6935,
      "attributes": {
        "nomor_pb_umku": "912050480057200030007",
        "nama": "APLIKASI PPOB BANK KALSEL",
        "website": "ppob.bankkalsel.co.id",
        "sektor": "Sektor Keuangan",
        "nama_perusahaan": "BANK PEMBANGUNAN DAERAH KALIMANTAN SELATAN",
        "tanggal_daftar": "2022-07-19",
        "nomor_tanda_daftar": "004232.07/DJAI.PSE/07/2022",
        "qr_code": "https://pse.kominfo.go.id/storage/images/qr_code/94ff4fcfe026e799830e6c202980ceb4.png",
        "status_id": "TERDAFTAR",
        "sistem_elektronik_id": 6784
      }
    },
    {
      "type": "tdpseTerbit",
      "id": 5720,
      "attributes": {
        "nomor_pb_umku": "912050480057200030006",
        "nama": "ONE STEP PAYROLL BANK KALSEL",
        "website": "payroll.bankkalsel.co.id",
        "sektor": "Sektor Keuangan",
        "nama_perusahaan": "BANK PEMBANGUNAN DAERAH KALIMANTAN SELATAN",
        "tanggal_daftar": "2022-07-15",
        "nomor_tanda_daftar": "004232.06/DJAI.PSE/07/2022",
        "qr_code": "https://pse.kominfo.go.id/storage/images/qr_code/e95c8b08bd100953897eb1ef85623ce6.png",
        "status_id": "TERDAFTAR",
        "sistem_elektronik_id": 5585
      }
    },
    {
      "type": "tdpseTerbit",
      "id": 5716,
      "attributes": {
        "nomor_pb_umku": "912050480057200030005",
        "nama": "WEBSITE BANK KALSEL",
        "website": "bankkalsel.co.id",
        "sektor": "Sektor Keuangan",
        "nama_perusahaan": "BANK PEMBANGUNAN DAERAH KALIMANTAN SELATAN",
        "tanggal_daftar": "2022-07-15",
        "nomor_tanda_daftar": "004232.05/DJAI.PSE/07/2022",
        "qr_code": "https://pse.kominfo.go.id/storage/images/qr_code/9f7794d539e334ad7e3364e59060d3fe.png",
        "status_id": "TERDAFTAR",
        "sistem_elektronik_id": 5580
      }
    }
  ]
}