{
  "meta": {
    "page": {
      "currentPage": 438,
      "from": 4371,
      "lastPage": 952,
      "perPage": 10,
      "to": 4380,
      "total": 9517
    }
  },
  "data": [
    {
      "type": "tdpseTerbit",
      "id": 4370,
      "attributes": {
        "nomor_pb_umku": "170322002947500000001",
        "nama": "CLOSEPAY (APLIKASI DIGITAL BISNIS)",
        "website": "Closepay.id",
        "sektor": "Sektor Keuangan, Sektor Teknologi Informasi dan Komunikasi",
        "nama_perusahaan": "FOKUS TEKNOLOGI PEMBAYARAN",
        "tanggal_daftar": "2022-06-14",
        "nomor_tanda_daftar": "003173.01/DJAI.PSE/06/2022",
        "qr_code": "https://pse.kominfo.go.id/storage/images/qr_code/7698ac44ba0e33b8ab5b3588aa3f930f.png",
        "status_id": "TERDAFTAR",
        "sistem_elektronik_id": 4356
      }
    },
    {
      "type": "tdpseTerbit",
      "id": 4905,
      "attributes": {
        "nomor_pb_umku": "912000927044600040009",
        "nama": "OGAWA.ID",
        "website": "ogawa.id",
        "sektor": "Sektor Kesehatan, Sektor Teknologi Informasi dan Komunikasi",
        "nama_perusahaan": "DUTA ABADI PERDANA",
        "tanggal_daftar": "2022-06-28",
        "nomor_tanda_daftar": "003171.01/DJAI.PSE/06/2022",
        "qr_code": "https://pse.kominfo.go.id/storage/images/qr_code/2a4bef104a32822922bcb763e10d5396.png",
        "status_id": "TERDAFTAR",
        "sistem_elektronik_id": 4775
      }
    },
    {
      "type": "tdpseTerbit",
      "id": 4538,
      "attributes": {
        "nomor_pb_umku": "130422001907600000001",
        "nama": "BAITULJANNAH",
        "website": "baituljannah.com",
        "sektor": "Sektor Teknologi Informasi dan Komunikasi",
        "nama_perusahaan": "BAITULJANNAH INTERNATIONAL GROUP",
        "tanggal_daftar": "2022-06-16",
        "nomor_tanda_daftar": "003163.01/DJAI.PSE/06/2022",
        "qr_code": "https://pse.kominfo.go.id/storage/images/qr_code/0bd8a1f5b12bd9b91fc0578f46745ac8.png",
        "status_id": "TERDAFTAR",
        "sistem_elektronik_id": 4518
      }
    },
    {
      "type": "tdpseTerbit",
      "id": 4535,
      "attributes": {
        "nomor_pb_umku": "121121000256500000001",
        "nama": "TRADMED",
        "website": "tradmed.co.id",
        "sektor": "Sektor Perdagangan",
        "nama_perusahaan": "KHALILA TRADMED INDONESIA",
        "tanggal_daftar": "2022-06-16",
        "nomor_tanda_daftar": "003157.01/DJAI.PSE/06/2022",
        "qr_code": "https://pse.kominfo.go.id/storage/images/qr_code/e5ba7faeeaed2e99cd42e01c26bd0dab.png",
        "status_id": "TERDAFTAR",
        "sistem_elektronik_id": 4508
      }
    },
    {
      "type": "tdpseTerbit",
      "id": 4625,
      "attributes": {
        "nomor_pb_umku": "123100068067200000001",
        "nama": "FARMACARE",
        "website": "app.farmacare.id",
        "sektor": "Sektor Perdagangan, Sektor Kesehatan",
        "nama_perusahaan": "JENDELA AKSES SEHAT",
        "tanggal_daftar": "2022-06-20",
        "nomor_tanda_daftar": "003156.01/DJAI.PSE/06/2022",
        "qr_code": "https://pse.kominfo.go.id/storage/images/qr_code/bd4bb49f322dcf31703c71c4fec6d24d.png",
        "status_id": "TERDAFTAR",
        "sistem_elektronik_id": 4586
      }
    },
    {
      "type": "tdpseTerbit",
      "id": 6861,
      "attributes": {
        "nomor_pb_umku": "812011222157900020003",
        "nama": "WEBSITE FIFGROUP",
        "website": "fifgroup.co.id",
        "sektor": "Sektor Keuangan",
        "nama_perusahaan": "FEDERAL INTERNATIONAL FINANCE",
        "tanggal_daftar": "2022-07-19",
        "nomor_tanda_daftar": "003148.03/DJAI.PSE/07/2022",
        "qr_code": "https://pse.kominfo.go.id/storage/images/qr_code/d782a24bb0f0f2263d8bb80060719001.png",
        "status_id": "TERDAFTAR",
        "sistem_elektronik_id": 6709
      }
    },
    {
      "type": "tdpseTerbit",
      "id": 6702,
      "attributes": {
        "nomor_pb_umku": "812011222157900020002",
        "nama": "FIFGROUP MOBILE CUSTOMER (FMC)",
        "website": "-",
        "sektor": "Sektor Keuangan",
        "nama_perusahaan": "FEDERAL INTERNATIONAL FINANCE",
        "tanggal_daftar": "2022-07-19",
        "nomor_tanda_daftar": "003148.02/DJAI.PSE/07/2022",
        "qr_code": "https://pse.kominfo.go.id/storage/images/qr_code/71bf50b654079457a27004e336b730e5.png",
        "status_id": "TERDAFTAR",
        "sistem_elektronik_id": 6556
      }
    },
    {
      "type": "tdpseTerbit",
      "id": 4994,
      "attributes": {
        "nomor_pb_umku": "130622005558500000001",
        "nama": "GOAPOTIK",
        "website": "goapotik.com",
        "sektor": "Sektor Kesehatan",
        "nama_perusahaan": "KARSA INTI TUJU ASKARA",
        "tanggal_daftar": "2022-07-01",
        "nomor_tanda_daftar": "003144.01/DJAI.PSE/07/2022",
        "qr_code": "https://pse.kominfo.go.id/storage/images/qr_code/9b5465abe86340e52e2f7a3f212094f2.png",
        "status_id": "TERDAFTAR",
        "sistem_elektronik_id": 4863
      }
    },
    {
      "type": "tdpseTerbit",
      "id": 9119,
      "attributes": {
        "nomor_pb_umku": "812011224159400820001",
        "nama": "WATSONS ID",
        "website": "watsons.co.id",
        "sektor": "Sektor Perdagangan",
        "nama_perusahaan": "DUTA INTIDAYA",
        "tanggal_daftar": "2022-07-27",
        "nomor_tanda_daftar": "003140.01/DJAI.PSE/07/2022",
        "qr_code": "https://pse.kominfo.go.id/storage/images/qr_code/02e8f0c336f0d78bce0d5f8346c90dd2.png",
        "status_id": "TERDAFTAR",
        "sistem_elektronik_id": 8821
      }
    },
    {
      "type": "tdpseTerbit",
      "id": 6465,
      "attributes": {
        "nomor_pb_umku": "040122001284800000001",
        "nama": "LAPORHUKUM",
        "website": "laporhukum.com",
        "sektor": "Sektor Perdagangan, Sektor Teknologi Informasi dan Komunikasi",
        "nama_perusahaan": "BERTIGA BANYAK BERKAT",
        "tanggal_daftar": "2022-07-18",
        "nomor_tanda_daftar": "003136.01/DJAI.PSE/07/2022",
        "qr_code": "https://pse.kominfo.go.id/storage/images/qr_code/412ee794c09866d0c5bfed3e82de3341.png",
        "status_id": "TERDAFTAR",
        "sistem_elektronik_id": 6328
      }
    }
  ]
}