{
  "meta": {
    "page": {
      "currentPage": 439,
      "from": 4381,
      "lastPage": 875,
      "perPage": 10,
      "to": 4390,
      "total": 8749
    }
  },
  "data": [
    {
      "type": "tdpseTerbit",
      "id": 3683,
      "attributes": {
        "nomor_pb_umku": null,
        "nama": "Hukma",
        "website": "hukma.id",
        "sektor": "Sektor Teknologi Informasi dan Komunikasi",
        "nama_perusahaan": "BEDA SINEMA PICTURES",
        "tanggal_daftar": "2022-03-28",
        "nomor_tanda_daftar": "002398.01/DJAI.PSE/03/2022",
        "qr_code": "https://pse.kominfo.go.id/storage/images/qr_code/ebfbc52310c71bef238c0771f9872be2.png",
        "status_id": "TERDAFTAR",
        "sistem_elektronik_id": 3656
      }
    },
    {
      "type": "tdpseTerbit",
      "id": 3682,
      "attributes": {
        "nomor_pb_umku": null,
        "nama": "Liputan Kaltim",
        "website": "liputankaltim.com",
        "sektor": "Sektor Teknologi Informasi dan Komunikasi",
        "nama_perusahaan": "SANGATTA MUDA BERKARYA",
        "tanggal_daftar": "2022-03-28",
        "nomor_tanda_daftar": "002397.01/DJAI.PSE/03/2022",
        "qr_code": "https://pse.kominfo.go.id/storage/images/qr_code/30563b969b66a10a97312a5b4fa5bc01.png",
        "status_id": "TERDAFTAR",
        "sistem_elektronik_id": 3600
      }
    },
    {
      "type": "tdpseTerbit",
      "id": 3681,
      "attributes": {
        "nomor_pb_umku": null,
        "nama": "Isgroup Consulting",
        "website": "isgroupconsulting.com",
        "sektor": "Sektor Perdagangan, Sektor Teknologi Informasi dan Komunikasi, Sektor Transportasi",
        "nama_perusahaan": "INDONESIA SEJAHTERA GRUP",
        "tanggal_daftar": "2022-03-28",
        "nomor_tanda_daftar": "002396.01/DJAI.PSE/03/2022",
        "qr_code": "https://pse.kominfo.go.id/storage/images/qr_code/2f7363b2cac8c55bef7a74eb24533d94.png",
        "status_id": "TERDAFTAR",
        "sistem_elektronik_id": 3650
      }
    },
    {
      "type": "tdpseTerbit",
      "id": 3680,
      "attributes": {
        "nomor_pb_umku": null,
        "nama": "Atria DC (Atria Data Center)",
        "website": "atriadatacenter.com",
        "sektor": "Sektor Teknologi Informasi dan Komunikasi",
        "nama_perusahaan": "PCDC PROPCO ONE",
        "tanggal_daftar": "2022-03-28",
        "nomor_tanda_daftar": "002395.01/DJAI.PSE/03/2022",
        "qr_code": "https://pse.kominfo.go.id/storage/images/qr_code/580041001f83bdc633d06d8c64cf8b81.png",
        "status_id": "TERDAFTAR",
        "sistem_elektronik_id": 3665
      }
    },
    {
      "type": "tdpseTerbit",
      "id": 3677,
      "attributes": {
        "nomor_pb_umku": null,
        "nama": "Deltatech",
        "website": "deltatech.id",
        "sektor": "Sektor Teknologi Informasi dan Komunikasi",
        "nama_perusahaan": "DELTA TEKNOLOGI PRATAMA",
        "tanggal_daftar": "2022-03-28",
        "nomor_tanda_daftar": "002394.01/DJAI.PSE/03/2022",
        "qr_code": "https://pse.kominfo.go.id/storage/images/qr_code/d9f50d4d071004c07008e0b383084bf0.png",
        "status_id": "TERDAFTAR",
        "sistem_elektronik_id": 3589
      }
    },
    {
      "type": "tdpseTerbit",
      "id": 4361,
      "attributes": {
        "nomor_pb_umku": null,
        "nama": "E-Recruitment",
        "website": "recruitment.homecredit.co.id",
        "sektor": "Sektor Keuangan",
        "nama_perusahaan": "HOME CREDIT INDONESIA",
        "tanggal_daftar": "2022-05-09",
        "nomor_tanda_daftar": "002393.07/DJAI.PSE/05/2022",
        "qr_code": "https://pse.kominfo.go.id/storage/images/qr_code/39112363e36dba8a6905a7764cea09ce.png",
        "status_id": "TERDAFTAR",
        "sistem_elektronik_id": 4347
      }
    },
    {
      "type": "tdpseTerbit",
      "id": 4360,
      "attributes": {
        "nomor_pb_umku": null,
        "nama": "Candidate Mobile Application (CMA)",
        "website": "cma.homecredit.co.id",
        "sektor": "Sektor Keuangan",
        "nama_perusahaan": "HOME CREDIT INDONESIA",
        "tanggal_daftar": "2022-05-09",
        "nomor_tanda_daftar": "002393.06/DJAI.PSE/05/2022",
        "qr_code": "https://pse.kominfo.go.id/storage/images/qr_code/3c65abdc471a3bb2909027f8a010f220.png",
        "status_id": "TERDAFTAR",
        "sistem_elektronik_id": 4346
      }
    },
    {
      "type": "tdpseTerbit",
      "id": 3679,
      "attributes": {
        "nomor_pb_umku": null,
        "nama": "Home Credit Mitra",
        "website": "Mitra.homecredit.co.id",
        "sektor": "Sektor Keuangan",
        "nama_perusahaan": "HOME CREDIT INDONESIA",
        "tanggal_daftar": "2022-03-28",
        "nomor_tanda_daftar": "002393.05/DJAI.PSE/03/2022",
        "qr_code": "https://pse.kominfo.go.id/storage/images/qr_code/7c62fb9eb61479260e0635f454c28e7c.png",
        "status_id": "TERDAFTAR",
        "sistem_elektronik_id": 3564
      }
    },
    {
      "type": "tdpseTerbit",
      "id": 3678,
      "attributes": {
        "nomor_pb_umku": null,
        "nama": "Home Credit GO!",
        "website": "-",
        "sektor": "Sektor Keuangan",
        "nama_perusahaan": "HOME CREDIT INDONESIA",
        "tanggal_daftar": "2022-03-28",
        "nomor_tanda_daftar": "002393.04/DJAI.PSE/03/2022",
        "qr_code": "https://pse.kominfo.go.id/storage/images/qr_code/7f714adead3524ab323a23925c33aac1.png",
        "status_id": "TERDAFTAR",
        "sistem_elektronik_id": 3563
      }
    },
    {
      "type": "tdpseTerbit",
      "id": 3676,
      "attributes": {
        "nomor_pb_umku": null,
        "nama": "Home Credit OASys",
        "website": "oasys.homecredit.co.id",
        "sektor": "Sektor Keuangan",
        "nama_perusahaan": "HOME CREDIT INDONESIA",
        "tanggal_daftar": "2022-03-28",
        "nomor_tanda_daftar": "002393.03/DJAI.PSE/03/2022",
        "qr_code": "https://pse.kominfo.go.id/storage/images/qr_code/cbdfb96e9f0f4c64dd09639c9c5f89a8.png",
        "status_id": "TERDAFTAR",
        "sistem_elektronik_id": 3562
      }
    }
  ]
}