{
  "meta": {
    "page": {
      "currentPage": 440,
      "from": 4391,
      "lastPage": 975,
      "perPage": 10,
      "to": 4400,
      "total": 9746
    }
  },
  "data": [
    {
      "type": "tdpseTerbit",
      "id": 4740,
      "attributes": {
        "nomor_pb_umku": "110522004951700000001",
        "nama": "SHOP BANTUDESA",
        "website": "shop.bantudesa.com",
        "sektor": "Sektor Perdagangan, Sektor Teknologi Informasi dan Komunikasi",
        "nama_perusahaan": "BANTUDESA KARYA INDONESIA",
        "tanggal_daftar": "2022-06-24",
        "nomor_tanda_daftar": "003426.01/DJAI.PSE/06/2022",
        "qr_code": "https://pse.kominfo.go.id/storage/images/qr_code/8513d6de0bc386e85053e52101cee896.png",
        "status_id": "TERDAFTAR",
        "sistem_elektronik_id": 4690
      }
    },
    {
      "type": "tdpseTerbit",
      "id": 6082,
      "attributes": {
        "nomor_pb_umku": "812010895244500510002",
        "nama": "IOH WEBSITE",
        "website": "-",
        "sektor": "Sektor Teknologi Informasi dan Komunikasi",
        "nama_perusahaan": "INDOSAT",
        "tanggal_daftar": "2022-07-18",
        "nomor_tanda_daftar": "003423.01/DJAI.PSE/07/2022",
        "qr_code": "https://pse.kominfo.go.id/storage/images/qr_code/1c475cfa8b35a6e722866adf3b8419bd.png",
        "status_id": "TERDAFTAR",
        "sistem_elektronik_id": 5953
      }
    },
    {
      "type": "tdpseTerbit",
      "id": 4739,
      "attributes": {
        "nomor_pb_umku": "812010691296600000001",
        "nama": "SISTECH KHARISMA SE",
        "website": "sistechkharisma.com",
        "sektor": "Sektor Teknologi Informasi dan Komunikasi",
        "nama_perusahaan": "SISTECH KHARISMA",
        "tanggal_daftar": "2022-06-24",
        "nomor_tanda_daftar": "003421.01/DJAI.PSE/06/2022",
        "qr_code": "https://pse.kominfo.go.id/storage/images/qr_code/cd6cada5b1d8a850ac1ac24d122f0a0b.png",
        "status_id": "TERDAFTAR",
        "sistem_elektronik_id": 4689
      }
    },
    {
      "type": "tdpseTerbit",
      "id": 4900,
      "attributes": {
        "nomor_pb_umku": "812021620132500070001",
        "nama": "WWW.OTO.CO.ID",
        "website": "oto.co.id",
        "sektor": "Sektor Keuangan",
        "nama_perusahaan": "OTO MULTIARTHA",
        "tanggal_daftar": "2022-06-28",
        "nomor_tanda_daftar": "003420.01/DJAI.PSE/06/2022",
        "qr_code": "https://pse.kominfo.go.id/storage/images/qr_code/4a41163339489f9a989c6219e6cf1b30.png",
        "status_id": "TERDAFTAR",
        "sistem_elektronik_id": 4770
      }
    },
    {
      "type": "tdpseTerbit",
      "id": 5269,
      "attributes": {
        "nomor_pb_umku": "120300071242600040001",
        "nama": "CIPT ASET DIGITAAL",
        "website": "ciptaasetdigital.co.id",
        "sektor": "Sektor Perdagangan, Sektor Teknologi Informasi dan Komunikasi",
        "nama_perusahaan": "CIPTA ASET DIGITAL",
        "tanggal_daftar": "2022-07-10",
        "nomor_tanda_daftar": "003419.02/DJAI.PSE/07/2022",
        "qr_code": "https://pse.kominfo.go.id/storage/images/qr_code/c4a045b99a6b7cc2dc675667c45f008a.png",
        "status_id": "TERDAFTAR",
        "sistem_elektronik_id": 5126
      }
    },
    {
      "type": "tdpseTerbit",
      "id": 4918,
      "attributes": {
        "nomor_pb_umku": "120300071242600010001",
        "nama": "CIPTA ASET DIGITAL",
        "website": "ciptaasetdigital.co.id",
        "sektor": "Sektor Perdagangan",
        "nama_perusahaan": "CIPTA ASET DIGITAL",
        "tanggal_daftar": "2022-06-28",
        "nomor_tanda_daftar": "003419.01/DJAI.PSE/06/2022",
        "qr_code": "https://pse.kominfo.go.id/storage/images/qr_code/650feb8ba65d4ed19b71d2fc1d517281.png",
        "status_id": "TERDAFTAR",
        "sistem_elektronik_id": 4787
      }
    },
    {
      "type": "tdpseTerbit",
      "id": 4730,
      "attributes": {
        "nomor_pb_umku": "240622002259200020002",
        "nama": "WWW.PUSBIMTEKPALIRA.COM",
        "website": "pusbimtekpalira.com",
        "sektor": "Sektor Teknologi Informasi dan Komunikasi",
        "nama_perusahaan": "PADEPOKAN LITERASI NUSANTARA",
        "tanggal_daftar": "2022-06-24",
        "nomor_tanda_daftar": "003416.02/DJAI.PSE/06/2022",
        "qr_code": "https://pse.kominfo.go.id/storage/images/qr_code/d80671d3de33d36f290809a2686e795e.png",
        "status_id": "TERDAFTAR",
        "sistem_elektronik_id": 4681
      }
    },
    {
      "type": "tdpseTerbit",
      "id": 4728,
      "attributes": {
        "nomor_pb_umku": "240622002259200020001",
        "nama": "PUSBIMTEKPALIRA.COM",
        "website": "pusbimtekpalira.com",
        "sektor": "Sektor Teknologi Informasi dan Komunikasi",
        "nama_perusahaan": "PADEPOKAN LITERASI NUSANTARA",
        "tanggal_daftar": "2022-06-24",
        "nomor_tanda_daftar": "003416.01/DJAI.PSE/06/2022",
        "qr_code": "https://pse.kominfo.go.id/storage/images/qr_code/6c516f226e65f7733c3b7f02944159db.png",
        "status_id": "TERDAFTAR",
        "sistem_elektronik_id": 4680
      }
    },
    {
      "type": "tdpseTerbit",
      "id": 4945,
      "attributes": {
        "nomor_pb_umku": "022010515230500010008",
        "nama": "RTI RESEARCH",
        "website": "rti.co.id",
        "sektor": "Sektor Teknologi Informasi dan Komunikasi",
        "nama_perusahaan": "RTI INFOKOM",
        "tanggal_daftar": "2022-06-29",
        "nomor_tanda_daftar": "003415.08/DJAI.PSE/06/2022",
        "qr_code": "https://pse.kominfo.go.id/storage/images/qr_code/a9f9e0e8ffcdf00851d88451c9d87780.png",
        "status_id": "TERDAFTAR",
        "sistem_elektronik_id": 4813
      }
    },
    {
      "type": "tdpseTerbit",
      "id": 4944,
      "attributes": {
        "nomor_pb_umku": "022010515230500010007",
        "nama": "RTI MOBILE",
        "website": "Mobile.rti.co.id",
        "sektor": "Sektor Teknologi Informasi dan Komunikasi",
        "nama_perusahaan": "RTI INFOKOM",
        "tanggal_daftar": "2022-06-29",
        "nomor_tanda_daftar": "003415.07/DJAI.PSE/06/2022",
        "qr_code": "https://pse.kominfo.go.id/storage/images/qr_code/b6f748009c61d441b0fa23de75da0567.png",
        "status_id": "TERDAFTAR",
        "sistem_elektronik_id": 4811
      }
    }
  ]
}