{
  "meta": {
    "page": {
      "currentPage": 441,
      "from": 4401,
      "lastPage": 1046,
      "perPage": 10,
      "to": 4410,
      "total": 10457
    }
  },
  "data": [
    {
      "type": "tdpseTerbit",
      "id": 5397,
      "attributes": {
        "nomor_pb_umku": "120222001790300040001",
        "nama": "SEA MAKEUP BEAUTY",
        "website": "-",
        "sektor": "Sektor Perdagangan",
        "nama_perusahaan": "SEA MAKEUP BEAUTY",
        "tanggal_daftar": "2022-07-12",
        "nomor_tanda_daftar": "004047.01/DJAI.PSE/07/2022",
        "qr_code": "https://pse.kominfo.go.id/storage/images/qr_code/73bcb3273a6ef801c3514260ba9bbcb5.png",
        "status_id": "TERDAFTAR",
        "sistem_elektronik_id": 5267
      }
    },
    {
      "type": "tdpseTerbit",
      "id": 5550,
      "attributes": {
        "nomor_pb_umku": "812020077256100020136",
        "nama": "LG.COM/ID",
        "website": "lg.com",
        "sektor": "Sektor Perdagangan",
        "nama_perusahaan": "LG ELECTRONICS INDONESIA",
        "tanggal_daftar": "2022-07-14",
        "nomor_tanda_daftar": "004046.01/DJAI.PSE/07/2022",
        "qr_code": "https://pse.kominfo.go.id/storage/images/qr_code/02c2c7721f66d41d0007f482f64201e6.png",
        "status_id": "TERDAFTAR",
        "sistem_elektronik_id": 5269
      }
    },
    {
      "type": "tdpseTerbit",
      "id": 5422,
      "attributes": {
        "nomor_pb_umku": "110322005784100020001",
        "nama": "SUARALINTASINDONESIA.COM",
        "website": "suaralintasindonesia.com",
        "sektor": "Sektor Teknologi Informasi dan Komunikasi",
        "nama_perusahaan": "MEDIA SUARA LINTAS INDONESIA GROUP",
        "tanggal_daftar": "2022-07-12",
        "nomor_tanda_daftar": "004043.01/DJAI.PSE/07/2022",
        "qr_code": "https://pse.kominfo.go.id/storage/images/qr_code/5565e1e47298e484ec1f4d70f404c98e.png",
        "status_id": "TERDAFTAR",
        "sistem_elektronik_id": 5264
      }
    },
    {
      "type": "tdpseTerbit",
      "id": 10201,
      "attributes": {
        "nomor_pb_umku": "912030169218300020004",
        "nama": "AJK",
        "website": "sedana.co.id",
        "sektor": "Sektor Keuangan",
        "nama_perusahaan": "SEDANA PASIFIK SERVISTAMA",
        "tanggal_daftar": "2022-08-10",
        "nomor_tanda_daftar": "004042.05/DJAI.PSE/08/2022",
        "qr_code": "https://pse.kominfo.go.id/storage/images/qr_code/80a0d8a08048b816b9eed87a961cbe4d.png",
        "status_id": "TERDAFTAR",
        "sistem_elektronik_id": 10081
      }
    },
    {
      "type": "tdpseTerbit",
      "id": 10199,
      "attributes": {
        "nomor_pb_umku": "912030169218300020003",
        "nama": "FSA",
        "website": "sedana.co.id",
        "sektor": "Sektor Keuangan",
        "nama_perusahaan": "SEDANA PASIFIK SERVISTAMA",
        "tanggal_daftar": "2022-08-10",
        "nomor_tanda_daftar": "004042.04/DJAI.PSE/08/2022",
        "qr_code": "https://pse.kominfo.go.id/storage/images/qr_code/b537741e538f05c719778e9a53ec2014.png",
        "status_id": "TERDAFTAR",
        "sistem_elektronik_id": 10079
      }
    },
    {
      "type": "tdpseTerbit",
      "id": 10197,
      "attributes": {
        "nomor_pb_umku": "912030169218300020002",
        "nama": "ASO",
        "website": "sedana.co.id",
        "sektor": "Sektor Keuangan",
        "nama_perusahaan": "SEDANA PASIFIK SERVISTAMA",
        "tanggal_daftar": "2022-08-10",
        "nomor_tanda_daftar": "004042.03/DJAI.PSE/08/2022",
        "qr_code": "https://pse.kominfo.go.id/storage/images/qr_code/df6bb8b9caeb6dd7389eefd45aae5a5b.png",
        "status_id": "TERDAFTAR",
        "sistem_elektronik_id": 10077
      }
    },
    {
      "type": "tdpseTerbit",
      "id": 10202,
      "attributes": {
        "nomor_pb_umku": "912030169218300020005",
        "nama": "BNI FLEKSI",
        "website": "sedana.co.id",
        "sektor": "Sektor Keuangan",
        "nama_perusahaan": "SEDANA PASIFIK SERVISTAMA",
        "tanggal_daftar": "2022-08-10",
        "nomor_tanda_daftar": "004042.02/DJAI.PSE/08/2022",
        "qr_code": "https://pse.kominfo.go.id/storage/images/qr_code/939aeb43d0dd9eea46fb0c1d7ed990ba.png",
        "status_id": "TERDAFTAR",
        "sistem_elektronik_id": 10074
      }
    },
    {
      "type": "tdpseTerbit",
      "id": 5727,
      "attributes": {
        "nomor_pb_umku": "912030169218300010001",
        "nama": "ONPREMI",
        "website": "onpremi.com",
        "sektor": "Sektor Perdagangan, Sektor Keuangan",
        "nama_perusahaan": "SEDANA PASIFIK SERVISTAMA",
        "tanggal_daftar": "2022-07-15",
        "nomor_tanda_daftar": "004042.01/DJAI.PSE/07/2022",
        "qr_code": "https://pse.kominfo.go.id/storage/images/qr_code/ee300dc2dd691677ed941286bdfa4e81.png",
        "status_id": "TERDAFTAR",
        "sistem_elektronik_id": 5382
      }
    },
    {
      "type": "tdpseTerbit",
      "id": 5390,
      "attributes": {
        "nomor_pb_umku": "240821002021600040001",
        "nama": "ASTROCLUB7",
        "website": "astroclub7.com",
        "sektor": "Sektor Perdagangan, Sektor Kesehatan",
        "nama_perusahaan": "NATA KARYABORA GEMILANG",
        "tanggal_daftar": "2022-07-12",
        "nomor_tanda_daftar": "004041.01/DJAI.PSE/07/2022",
        "qr_code": "https://pse.kominfo.go.id/storage/images/qr_code/5aac2d56ff221b458a826950691ec7c3.png",
        "status_id": "TERDAFTAR",
        "sistem_elektronik_id": 5261
      }
    },
    {
      "type": "tdpseTerbit",
      "id": 5386,
      "attributes": {
        "nomor_pb_umku": "022010062285500000001",
        "nama": "WWW.SDSONLINE.CO.ID",
        "website": "sdsonline.co.id",
        "sektor": "Sektor Perdagangan",
        "nama_perusahaan": "SURYA DIGITAL SAMANTHA",
        "tanggal_daftar": "2022-07-12",
        "nomor_tanda_daftar": "004040.01/DJAI.PSE/07/2022",
        "qr_code": "https://pse.kominfo.go.id/storage/images/qr_code/cac9ade7fa4b36676ff49494ff069c65.png",
        "status_id": "TERDAFTAR",
        "sistem_elektronik_id": 5258
      }
    }
  ]
}