{
  "meta": {
    "page": {
      "currentPage": 442,
      "from": 4411,
      "lastPage": 939,
      "perPage": 10,
      "to": 4420,
      "total": 9386
    }
  },
  "data": [
    {
      "type": "tdpseTerbit",
      "id": 9764,
      "attributes": {
        "nomor_pb_umku": "912050370214200000003",
        "nama": "MOMSMONEY.ID",
        "website": "momsmoney.id",
        "sektor": "Sektor Teknologi Informasi dan Komunikasi",
        "nama_perusahaan": "GRAHANUSA MEDIATAMA",
        "tanggal_daftar": "2022-08-03",
        "nomor_tanda_daftar": "002778.03/DJAI.PSE/08/2022",
        "qr_code": "https://pse.kominfo.go.id/storage/images/qr_code/65b40ecaf2f650265d180fb7cd0748e8.png",
        "status_id": "TERDAFTAR",
        "sistem_elektronik_id": 9637
      }
    },
    {
      "type": "tdpseTerbit",
      "id": 9763,
      "attributes": {
        "nomor_pb_umku": "912050370214200000002",
        "nama": "KONTANACADEMY.COM",
        "website": "kontanacademy.com",
        "sektor": "Sektor Teknologi Informasi dan Komunikasi",
        "nama_perusahaan": "GRAHANUSA MEDIATAMA",
        "tanggal_daftar": "2022-08-03",
        "nomor_tanda_daftar": "002778.02/DJAI.PSE/08/2022",
        "qr_code": "https://pse.kominfo.go.id/storage/images/qr_code/b6b673db6c81302d90378a2af30913c1.png",
        "status_id": "TERDAFTAR",
        "sistem_elektronik_id": 9635
      }
    },
    {
      "type": "tdpseTerbit",
      "id": 4226,
      "attributes": {
        "nomor_pb_umku": "812021506234200010001",
        "nama": "CHOPE",
        "website": "chope.co",
        "sektor": "Sektor Perdagangan",
        "nama_perusahaan": "KUHI SOLUTIONS",
        "tanggal_daftar": "2022-06-03",
        "nomor_tanda_daftar": "002768.01/DJAI.PSE/06/2022",
        "qr_code": "https://pse.kominfo.go.id/storage/images/qr_code/cabcf3fdb6a66d80c19ca560de81fef2.png",
        "status_id": "TERDAFTAR",
        "sistem_elektronik_id": 4223
      }
    },
    {
      "type": "tdpseTerbit",
      "id": 4324,
      "attributes": {
        "nomor_pb_umku": "812011321073600330019",
        "nama": "PELNI PASSENGERS SERVICE SYSTEM",
        "website": "ticket.pelni.co.id",
        "sektor": "Sektor Transportasi",
        "nama_perusahaan": "PERUSAHAAN PERSEROAN (PERSERO) PT. PELAYARAN NASIONAL INDONESIA",
        "tanggal_daftar": "2022-06-10",
        "nomor_tanda_daftar": "002766.01/DJAI.PSE/05/2022",
        "qr_code": "https://pse.kominfo.go.id/storage/images/qr_code/f55a08220f0a6eacf6f359d3e29896b4.png",
        "status_id": "TERDAFTAR",
        "sistem_elektronik_id": 4191
      }
    },
    {
      "type": "tdpseTerbit",
      "id": 4279,
      "attributes": {
        "nomor_pb_umku": "812000189253900020001",
        "nama": "APLIKASI REGISTRASI ONLINE",
        "website": "didimax.co.id",
        "sektor": "Sektor Perdagangan, Sektor Keuangan",
        "nama_perusahaan": "DIDI MAX BERJANGKA",
        "tanggal_daftar": "2022-06-08",
        "nomor_tanda_daftar": "002760.01/DJAI.PSE/06/2022",
        "qr_code": "https://pse.kominfo.go.id/storage/images/qr_code/e553eeb847400b483477e7655d91447f.png",
        "status_id": "TERDAFTAR",
        "sistem_elektronik_id": 4272
      }
    },
    {
      "type": "tdpseTerbit",
      "id": 4223,
      "attributes": {
        "nomor_pb_umku": "022010166246700000001",
        "nama": "GOORITA",
        "website": "goorita.com",
        "sektor": "Sektor Perdagangan",
        "nama_perusahaan": "SEMERU INDONESIA MAJU",
        "tanggal_daftar": "2022-06-03",
        "nomor_tanda_daftar": "002741.01/DJAI.PSE/06/2022",
        "qr_code": "https://pse.kominfo.go.id/storage/images/qr_code/b30053e2718307ad8275c9c59c0fe525.png",
        "status_id": "TERDAFTAR",
        "sistem_elektronik_id": 4220
      }
    },
    {
      "type": "tdpseTerbit",
      "id": 8962,
      "attributes": {
        "nomor_pb_umku": "125500069073600050004",
        "nama": "SISTEM GANTI BATERAI",
        "website": "voltaindonesia.com",
        "sektor": "Sektor Transportasi, Sektor Teknologi Informasi dan Komunikasi",
        "nama_perusahaan": "ENERGI SELALU BARU",
        "tanggal_daftar": "2022-07-25",
        "nomor_tanda_daftar": "002740.01/DJAI.PSE/07/2022",
        "qr_code": "https://pse.kominfo.go.id/storage/images/qr_code/c24a82e038bc29c8ddefeaf744a9e713.png",
        "status_id": "TERDAFTAR",
        "sistem_elektronik_id": 8869
      }
    },
    {
      "type": "tdpseTerbit",
      "id": 4742,
      "attributes": {
        "nomor_pb_umku": "022020560262400000001",
        "nama": "TUJJU MANAGEMENT SYSTEM (TMS)",
        "website": "tujjumedia.com",
        "sektor": "Sektor Teknologi Informasi dan Komunikasi",
        "nama_perusahaan": "TUJJU BIO INDONESIA",
        "tanggal_daftar": "2022-06-24",
        "nomor_tanda_daftar": "002733.01/DJAI.PSE/06/2022",
        "qr_code": "https://pse.kominfo.go.id/storage/images/qr_code/306058c38317d26ff9b05d0b8f747492.png",
        "status_id": "TERDAFTAR",
        "sistem_elektronik_id": 4692
      }
    },
    {
      "type": "tdpseTerbit",
      "id": 4512,
      "attributes": {
        "nomor_pb_umku": null,
        "nama": "MORE FURNITURE",
        "website": "morefurniture.id",
        "sektor": "Sektor Perdagangan",
        "nama_perusahaan": "EFORIA FURNITUR INDONESIA",
        "tanggal_daftar": "2022-05-20",
        "nomor_tanda_daftar": "002731.01/DJAI.PSE/05/2022",
        "qr_code": "https://pse.kominfo.go.id/storage/images/qr_code/acac707a706a5e8fd3c79e93c10c1fd4.png",
        "status_id": "TERDAFTAR",
        "sistem_elektronik_id": 4496
      }
    },
    {
      "type": "tdpseTerbit",
      "id": 4511,
      "attributes": {
        "nomor_pb_umku": null,
        "nama": "tiadadua composite",
        "website": "tiadadua.com",
        "sektor": "Sektor Perdagangan, Sektor Teknologi Informasi dan Komunikasi",
        "nama_perusahaan": "DEDY MARYADI",
        "tanggal_daftar": "2022-05-20",
        "nomor_tanda_daftar": "002730.01/DJAI.PSE/05/2022",
        "qr_code": "https://pse.kominfo.go.id/storage/images/qr_code/ee93317965b540eea933810b306be60f.png",
        "status_id": "TERDAFTAR",
        "sistem_elektronik_id": 4495
      }
    }
  ]
}