{
  "meta": {
    "page": {
      "currentPage": 443,
      "from": 4421,
      "lastPage": 1097,
      "perPage": 10,
      "to": 4430,
      "total": 10962
    }
  },
  "data": [
    {
      "type": "tdpseTerbit",
      "id": 12197,
      "attributes": {
        "nomor_pb_umku": "812000172108700080073",
        "nama": "CMC",
        "website": "-",
        "sektor": "Sektor Teknologi Informasi dan Komunikasi",
        "nama_perusahaan": "SAMSUNG ELECTRONICS INDONESIA",
        "tanggal_daftar": "2022-11-09",
        "nomor_tanda_daftar": "004280.24/DJAI.PSE/11/2022",
        "qr_code": "https://pse.kominfo.go.id/storage/images/qr_code/7a9a9cb06945674777cf2779d1c3dedc.png",
        "status_id": "TERDAFTAR",
        "sistem_elektronik_id": 11993
      }
    },
    {
      "type": "tdpseTerbit",
      "id": 12196,
      "attributes": {
        "nomor_pb_umku": "812000172108700080072",
        "nama": "SAMSUNG CLOUD",
        "website": "-",
        "sektor": "Sektor Teknologi Informasi dan Komunikasi",
        "nama_perusahaan": "SAMSUNG ELECTRONICS INDONESIA",
        "tanggal_daftar": "2022-11-09",
        "nomor_tanda_daftar": "004280.23/DJAI.PSE/11/2022",
        "qr_code": "https://pse.kominfo.go.id/storage/images/qr_code/51d7388ab37a5cabc9de6b2e77a07b59.png",
        "status_id": "TERDAFTAR",
        "sistem_elektronik_id": 11992
      }
    },
    {
      "type": "tdpseTerbit",
      "id": 12171,
      "attributes": {
        "nomor_pb_umku": "812000172108700080071",
        "nama": "SMART THINGS",
        "website": "-",
        "sektor": "Sektor Teknologi Informasi dan Komunikasi",
        "nama_perusahaan": "SAMSUNG ELECTRONICS INDONESIA",
        "tanggal_daftar": "2022-11-08",
        "nomor_tanda_daftar": "004280.22/DJAI.PSE/11/2022",
        "qr_code": "https://pse.kominfo.go.id/storage/images/qr_code/d075f1df3a9cf06c515019299575d26d.png",
        "status_id": "TERDAFTAR",
        "sistem_elektronik_id": 11964
      }
    },
    {
      "type": "tdpseTerbit",
      "id": 12170,
      "attributes": {
        "nomor_pb_umku": "812000172108700080070",
        "nama": "BIXBY VOICE",
        "website": "-",
        "sektor": "Sektor Teknologi Informasi dan Komunikasi",
        "nama_perusahaan": "SAMSUNG ELECTRONICS INDONESIA",
        "tanggal_daftar": "2022-11-08",
        "nomor_tanda_daftar": "004280.21/DJAI.PSE/11/2022",
        "qr_code": "https://pse.kominfo.go.id/storage/images/qr_code/c382d3bbab7703807e0bb822b8ceeb61.png",
        "status_id": "TERDAFTAR",
        "sistem_elektronik_id": 11963
      }
    },
    {
      "type": "tdpseTerbit",
      "id": 12167,
      "attributes": {
        "nomor_pb_umku": "812000172108700080069",
        "nama": "GROUP SHARING",
        "website": "-",
        "sektor": "Sektor Teknologi Informasi dan Komunikasi",
        "nama_perusahaan": "SAMSUNG ELECTRONICS INDONESIA",
        "tanggal_daftar": "2022-11-08",
        "nomor_tanda_daftar": "004280.20/DJAI.PSE/11/2022",
        "qr_code": "https://pse.kominfo.go.id/storage/images/qr_code/7a2d598b065b3d3fd71fff2a470ae928.png",
        "status_id": "TERDAFTAR",
        "sistem_elektronik_id": 11961
      }
    },
    {
      "type": "tdpseTerbit",
      "id": 12166,
      "attributes": {
        "nomor_pb_umku": "812000172108700080068",
        "nama": "SAMSUNG ACCOUNT",
        "website": "-",
        "sektor": "Sektor Teknologi Informasi dan Komunikasi",
        "nama_perusahaan": "SAMSUNG ELECTRONICS INDONESIA",
        "tanggal_daftar": "2022-11-08",
        "nomor_tanda_daftar": "004280.19/DJAI.PSE/11/2022",
        "qr_code": "https://pse.kominfo.go.id/storage/images/qr_code/e2616441573193dfe09c47e4448142b8.png",
        "status_id": "TERDAFTAR",
        "sistem_elektronik_id": 11960
      }
    },
    {
      "type": "tdpseTerbit",
      "id": 12165,
      "attributes": {
        "nomor_pb_umku": "812000172108700080067",
        "nama": "VD KPI DATA SYSTEM",
        "website": "-",
        "sektor": "Sektor Teknologi Informasi dan Komunikasi",
        "nama_perusahaan": "SAMSUNG ELECTRONICS INDONESIA",
        "tanggal_daftar": "2022-11-08",
        "nomor_tanda_daftar": "004280.18/DJAI.PSE/11/2022",
        "qr_code": "https://pse.kominfo.go.id/storage/images/qr_code/9e6abe82a612879f0a45ef7a7e8d5841.png",
        "status_id": "TERDAFTAR",
        "sistem_elektronik_id": 11959
      }
    },
    {
      "type": "tdpseTerbit",
      "id": 12135,
      "attributes": {
        "nomor_pb_umku": "812000172108700080066",
        "nama": "·SAMSUNGHEALTH",
        "website": "-",
        "sektor": "Sektor Teknologi Informasi dan Komunikasi",
        "nama_perusahaan": "SAMSUNG ELECTRONICS INDONESIA",
        "tanggal_daftar": "2022-11-04",
        "nomor_tanda_daftar": "004280.17/DJAI.PSE/11/2022",
        "qr_code": "https://pse.kominfo.go.id/storage/images/qr_code/a04e17ea62f6bd63965ad7cb154118c0.png",
        "status_id": "TERDAFTAR",
        "sistem_elektronik_id": 11930
      }
    },
    {
      "type": "tdpseTerbit",
      "id": 12134,
      "attributes": {
        "nomor_pb_umku": "812000172108700080065",
        "nama": "VD BILLING (SAMSUNG CHECKOUT FOR SMARTTV)",
        "website": "-",
        "sektor": "Sektor Teknologi Informasi dan Komunikasi",
        "nama_perusahaan": "SAMSUNG ELECTRONICS INDONESIA",
        "tanggal_daftar": "2022-11-04",
        "nomor_tanda_daftar": "004280.16/DJAI.PSE/11/2022",
        "qr_code": "https://pse.kominfo.go.id/storage/images/qr_code/5c2c5e479d8d044a6bdd1a2348715295.png",
        "status_id": "TERDAFTAR",
        "sistem_elektronik_id": 11929
      }
    },
    {
      "type": "tdpseTerbit",
      "id": 12121,
      "attributes": {
        "nomor_pb_umku": "812000172108700080064",
        "nama": "AUTOSETUP - BACKUP AND RESTORE",
        "website": "-",
        "sektor": "Sektor Teknologi Informasi dan Komunikasi",
        "nama_perusahaan": "SAMSUNG ELECTRONICS INDONESIA",
        "tanggal_daftar": "2022-11-03",
        "nomor_tanda_daftar": "004280.15/DJAI.PSE/11/2022",
        "qr_code": "https://pse.kominfo.go.id/storage/images/qr_code/ac1079d3582609836e21b24d547ed946.png",
        "status_id": "TERDAFTAR",
        "sistem_elektronik_id": 11915
      }
    }
  ]
}