{
  "meta": {
    "page": {
      "currentPage": 444,
      "from": 4431,
      "lastPage": 1059,
      "perPage": 10,
      "to": 4440,
      "total": 10586
    }
  },
  "data": [
    {
      "type": "tdpseTerbit",
      "id": 6882,
      "attributes": {
        "nomor_pb_umku": "812010998167600110008",
        "nama": "LAYAR ANAK",
        "website": "layaranak.com",
        "sektor": "Sektor Teknologi Informasi dan Komunikasi",
        "nama_perusahaan": "TRIYAKOM",
        "tanggal_daftar": "2022-07-19",
        "nomor_tanda_daftar": "004113.08/DJAI.PSE/07/2022",
        "qr_code": "https://pse.kominfo.go.id/storage/images/qr_code/d2f3795519a6d5c450fd37e064bc1a18.png",
        "status_id": "TERDAFTAR",
        "sistem_elektronik_id": 6728
      }
    },
    {
      "type": "tdpseTerbit",
      "id": 6874,
      "attributes": {
        "nomor_pb_umku": "812010998167600110007",
        "nama": "FUNKOREA",
        "website": "funkorea.co.id",
        "sektor": "Sektor Teknologi Informasi dan Komunikasi",
        "nama_perusahaan": "TRIYAKOM",
        "tanggal_daftar": "2022-07-19",
        "nomor_tanda_daftar": "004113.07/DJAI.PSE/07/2022",
        "qr_code": "https://pse.kominfo.go.id/storage/images/qr_code/d089c780bafffbeebb8c038baa6efe9a.png",
        "status_id": "TERDAFTAR",
        "sistem_elektronik_id": 6721
      }
    },
    {
      "type": "tdpseTerbit",
      "id": 6870,
      "attributes": {
        "nomor_pb_umku": "",
        "nama": "GACHAGAME",
        "website": "gachagame.id",
        "sektor": "Sektor Teknologi Informasi dan Komunikasi",
        "nama_perusahaan": "TRIYAKOM",
        "tanggal_daftar": "2022-07-19",
        "nomor_tanda_daftar": "004113.06/DJAI.PSE/07/2022",
        "qr_code": "https://pse.kominfo.go.id/storage/images/qr_code/0c2bdd1e9d349443fbbad5b344025846.png",
        "status_id": "TERDAFTAR",
        "sistem_elektronik_id": 6718
      }
    },
    {
      "type": "tdpseTerbit",
      "id": 6858,
      "attributes": {
        "nomor_pb_umku": "812010998167600110005",
        "nama": "MATCHQUIZ",
        "website": "matchquiz.id",
        "sektor": "Sektor Teknologi Informasi dan Komunikasi",
        "nama_perusahaan": "TRIYAKOM",
        "tanggal_daftar": "2022-07-19",
        "nomor_tanda_daftar": "004113.05/DJAI.PSE/07/2022",
        "qr_code": "https://pse.kominfo.go.id/storage/images/qr_code/17689c7a66a46ebf8ac57c8393bc334b.png",
        "status_id": "TERDAFTAR",
        "sistem_elektronik_id": 6705
      }
    },
    {
      "type": "tdpseTerbit",
      "id": 6848,
      "attributes": {
        "nomor_pb_umku": "812010998167600110004",
        "nama": "SUSUNGAMBAR",
        "website": "susungambar.com",
        "sektor": "Sektor Teknologi Informasi dan Komunikasi",
        "nama_perusahaan": "TRIYAKOM",
        "tanggal_daftar": "2022-07-19",
        "nomor_tanda_daftar": "004113.04/DJAI.PSE/07/2022",
        "qr_code": "https://pse.kominfo.go.id/storage/images/qr_code/acee99624e1cee96167a6e6ba96d8111.png",
        "status_id": "TERDAFTAR",
        "sistem_elektronik_id": 6698
      }
    },
    {
      "type": "tdpseTerbit",
      "id": 6838,
      "attributes": {
        "nomor_pb_umku": "812010998167600110003",
        "nama": "KUISKUOTA",
        "website": "kuiskuota.id",
        "sektor": "Sektor Teknologi Informasi dan Komunikasi",
        "nama_perusahaan": "TRIYAKOM",
        "tanggal_daftar": "2022-07-19",
        "nomor_tanda_daftar": "004113.03/DJAI.PSE/07/2022",
        "qr_code": "https://pse.kominfo.go.id/storage/images/qr_code/44845b83c4b7138f1ec91cf7224664a6.png",
        "status_id": "TERDAFTAR",
        "sistem_elektronik_id": 6688
      }
    },
    {
      "type": "tdpseTerbit",
      "id": 6825,
      "attributes": {
        "nomor_pb_umku": "812010998167600110002",
        "nama": "IM3KUISKUOTA",
        "website": "im3kuiskuota.id",
        "sektor": "Sektor Teknologi Informasi dan Komunikasi",
        "nama_perusahaan": "TRIYAKOM",
        "tanggal_daftar": "2022-07-19",
        "nomor_tanda_daftar": "004113.02/DJAI.PSE/07/2022",
        "qr_code": "https://pse.kominfo.go.id/storage/images/qr_code/73af7e19a07363680bf8ae2b10818258.png",
        "status_id": "TERDAFTAR",
        "sistem_elektronik_id": 6673
      }
    },
    {
      "type": "tdpseTerbit",
      "id": 6813,
      "attributes": {
        "nomor_pb_umku": "812010998167600110001",
        "nama": "FUNSELEB",
        "website": "Funseleb.com",
        "sektor": "Sektor Teknologi Informasi dan Komunikasi",
        "nama_perusahaan": "TRIYAKOM",
        "tanggal_daftar": "2022-07-19",
        "nomor_tanda_daftar": "004113.01/DJAI.PSE/07/2022",
        "qr_code": "https://pse.kominfo.go.id/storage/images/qr_code/ef6af1993942a9c86d97716da9e594b1.png",
        "status_id": "TERDAFTAR",
        "sistem_elektronik_id": 6656
      }
    },
    {
      "type": "tdpseTerbit",
      "id": 6193,
      "attributes": {
        "nomor_pb_umku": "080422004216600010001",
        "nama": "MODUIT",
        "website": "moduit.id",
        "sektor": "Sektor Keuangan",
        "nama_perusahaan": "MODUIT DIGITAL INDONESIA",
        "tanggal_daftar": "2022-07-18",
        "nomor_tanda_daftar": "004111.01/DJAI.PSE/07/2022",
        "qr_code": "https://pse.kominfo.go.id/storage/images/qr_code/a81bd938d99d37af42e29a1de736075c.png",
        "status_id": "TERDAFTAR",
        "sistem_elektronik_id": 6058
      }
    },
    {
      "type": "tdpseTerbit",
      "id": 5837,
      "attributes": {
        "nomor_pb_umku": "912020780066200030001",
        "nama": "MICROSITE",
        "website": "pinjamaja.co.id",
        "sektor": "Sektor Keuangan",
        "nama_perusahaan": "VERENA MULTI FINANCE",
        "tanggal_daftar": "2022-07-15",
        "nomor_tanda_daftar": "004110.01/DJAI.PSE/07/2022",
        "qr_code": "https://pse.kominfo.go.id/storage/images/qr_code/4fecfd814d5ef2eaf7593e1d79802a71.png",
        "status_id": "TERDAFTAR",
        "sistem_elektronik_id": 5697
      }
    }
  ]
}