{
  "meta": {
    "page": {
      "currentPage": 445,
      "from": 4441,
      "lastPage": 1038,
      "perPage": 10,
      "to": 4450,
      "total": 10380
    }
  },
  "data": [
    {
      "type": "tdpseTerbit",
      "id": 7071,
      "attributes": {
        "nomor_pb_umku": "912030170073100060003",
        "nama": "CSM CORPORATAMA (INDORENT CARE)",
        "website": "-",
        "sektor": "Sektor Transportasi",
        "nama_perusahaan": "CSM CORPORATAMA",
        "tanggal_daftar": "2022-07-19",
        "nomor_tanda_daftar": "003958.05/DJAI.PSE/07/2022",
        "qr_code": "https://pse.kominfo.go.id/storage/images/qr_code/8799b2e07e09004b1dcfe2762186295a.png",
        "status_id": "TERDAFTAR",
        "sistem_elektronik_id": 6940
      }
    },
    {
      "type": "tdpseTerbit",
      "id": 7059,
      "attributes": {
        "nomor_pb_umku": "912030170073100060002",
        "nama": "CSM CORPORATAMA (VEHICLE MANAGEMENT SYSTEM)",
        "website": "cp.indorent.co.id",
        "sektor": "Sektor Transportasi",
        "nama_perusahaan": "CSM CORPORATAMA",
        "tanggal_daftar": "2022-07-19",
        "nomor_tanda_daftar": "003958.04/DJAI.PSE/07/2022",
        "qr_code": "https://pse.kominfo.go.id/storage/images/qr_code/818a1f2fa000d5c2e28a4dc6073ecad1.png",
        "status_id": "TERDAFTAR",
        "sistem_elektronik_id": 6833
      }
    },
    {
      "type": "tdpseTerbit",
      "id": 5328,
      "attributes": {
        "nomor_pb_umku": "912030170073100060001",
        "nama": "CSM CORPORATAMA (WEBSITE GROUP)",
        "website": "csmgroup.co.id",
        "sektor": "Sektor Transportasi",
        "nama_perusahaan": "CSM CORPORATAMA",
        "tanggal_daftar": "2022-07-12",
        "nomor_tanda_daftar": "003958.02/DJAI.PSE/07/2022",
        "qr_code": "https://pse.kominfo.go.id/storage/images/qr_code/cdb163af2ebc91b913708a394184a7aa.png",
        "status_id": "TERDAFTAR",
        "sistem_elektronik_id": 5185
      }
    },
    {
      "type": "tdpseTerbit",
      "id": 5285,
      "attributes": {
        "nomor_pb_umku": "912030170073100060001",
        "nama": "CSM CORPORATAMA",
        "website": "indorent.co.id",
        "sektor": "Sektor Transportasi",
        "nama_perusahaan": "CSM CORPORATAMA",
        "tanggal_daftar": "2022-07-11",
        "nomor_tanda_daftar": "003958.01/DJAI.PSE/07/2022",
        "qr_code": "https://pse.kominfo.go.id/storage/images/qr_code/f30f14d4a1b10985bc2670eecf0d0d0c.png",
        "status_id": "TERDAFTAR",
        "sistem_elektronik_id": 5154
      }
    },
    {
      "type": "tdpseTerbit",
      "id": 8045,
      "attributes": {
        "nomor_pb_umku": "912060285219600000001",
        "nama": "SMARTEXCHANGE",
        "website": "-",
        "sektor": "Sektor Teknologi Informasi dan Komunikasi",
        "nama_perusahaan": "COMPASIA TECHNOLOGY INDONESIA",
        "tanggal_daftar": "2022-07-20",
        "nomor_tanda_daftar": "003956.01/DJAI.PSE/07/2022",
        "qr_code": "https://pse.kominfo.go.id/storage/images/qr_code/d5528ca553b9d2cb04ba1e8950c8d9c3.png",
        "status_id": "TERDAFTAR",
        "sistem_elektronik_id": 7969
      }
    },
    {
      "type": "tdpseTerbit",
      "id": 5304,
      "attributes": {
        "nomor_pb_umku": "029301023016400000002",
        "nama": "VIONE",
        "website": "onvi.co.id",
        "sektor": "Sektor Teknologi Informasi dan Komunikasi",
        "nama_perusahaan": "ONVI SISTEM INDONESIA",
        "tanggal_daftar": "2022-07-11",
        "nomor_tanda_daftar": "003955.02/DJAI.PSE/07/2022",
        "qr_code": "https://pse.kominfo.go.id/storage/images/qr_code/3fb949403bade611ff64d074fbd87804.png",
        "status_id": "TERDAFTAR",
        "sistem_elektronik_id": 5175
      }
    },
    {
      "type": "tdpseTerbit",
      "id": 5286,
      "attributes": {
        "nomor_pb_umku": "029301023016400000001",
        "nama": "VIPOZY BY ONVI",
        "website": "vipozy.com",
        "sektor": "Sektor Teknologi Informasi dan Komunikasi",
        "nama_perusahaan": "ONVI SISTEM INDONESIA",
        "tanggal_daftar": "2022-07-11",
        "nomor_tanda_daftar": "003955.01/DJAI.PSE/07/2022",
        "qr_code": "https://pse.kominfo.go.id/storage/images/qr_code/326fd9da3eb1c538040cecd8f7bbc142.png",
        "status_id": "TERDAFTAR",
        "sistem_elektronik_id": 5155
      }
    },
    {
      "type": "tdpseTerbit",
      "id": 5640,
      "attributes": {
        "nomor_pb_umku": "912031508201900020001",
        "nama": "KEDAIMART",
        "website": "kedaisayur.com",
        "sektor": "Sektor Perdagangan",
        "nama_perusahaan": "KEDAI SAYUR INDONESIA",
        "tanggal_daftar": "2022-07-14",
        "nomor_tanda_daftar": "003953.01/DJAI.PSE/07/2022",
        "qr_code": "https://pse.kominfo.go.id/storage/images/qr_code/4165ec64a041bf7c7460c11a2d177648.png",
        "status_id": "TERDAFTAR",
        "sistem_elektronik_id": 5432
      }
    },
    {
      "type": "tdpseTerbit",
      "id": 5287,
      "attributes": {
        "nomor_pb_umku": "170322004820600010001",
        "nama": "WEBSITE",
        "website": "rindang-sejahtera.com",
        "sektor": "Sektor Keuangan",
        "nama_perusahaan": "RINDANG SEJAHTERA FINANCE",
        "tanggal_daftar": "2022-07-11",
        "nomor_tanda_daftar": "003952.01/DJAI.PSE/07/2022",
        "qr_code": "https://pse.kominfo.go.id/storage/images/qr_code/641ab7b93e991a0fcecad12191fad6fd.png",
        "status_id": "TERDAFTAR",
        "sistem_elektronik_id": 5157
      }
    },
    {
      "type": "tdpseTerbit",
      "id": 5273,
      "attributes": {
        "nomor_pb_umku": "180322003052300010001",
        "nama": "RIVERNITY.COM",
        "website": "rivernity.com",
        "sektor": "Sektor Teknologi Informasi dan Komunikasi",
        "nama_perusahaan": "RIVERNITY ASET DIGITAL",
        "tanggal_daftar": "2022-07-11",
        "nomor_tanda_daftar": "003950.01/DJAI.PSE/07/2022",
        "qr_code": "https://pse.kominfo.go.id/storage/images/qr_code/f4fbf3aa0bbb14d8b3812690baca752a.png",
        "status_id": "TERDAFTAR",
        "sistem_elektronik_id": 5142
      }
    }
  ]
}