{
  "meta": {
    "page": {
      "currentPage": 446,
      "from": 4451,
      "lastPage": 952,
      "perPage": 10,
      "to": 4460,
      "total": 9517
    }
  },
  "data": [
    {
      "type": "tdpseTerbit",
      "id": 4326,
      "attributes": {
        "nomor_pb_umku": "121121000833600010001",
        "nama": "PLATFORM JUAL BELI ASET DIGITAL KRIPTO",
        "website": "nvxchange.com",
        "sektor": "Sektor Perdagangan",
        "nama_perusahaan": "ASET KRIPTO INTERNASIONAL",
        "tanggal_daftar": "2022-06-10",
        "nomor_tanda_daftar": "002930.01/DJAI.PSE/06/2022",
        "qr_code": "https://pse.kominfo.go.id/storage/images/qr_code/454f0f620c238df103a91e0bd9700560.png",
        "status_id": "TERDAFTAR",
        "sistem_elektronik_id": 4313
      }
    },
    {
      "type": "tdpseTerbit",
      "id": 4242,
      "attributes": {
        "nomor_pb_umku": "030622005543700020001",
        "nama": "KODIPEST",
        "website": "kodipest.com",
        "sektor": "Sektor Teknologi Informasi dan Komunikasi",
        "nama_perusahaan": "INDONESIA CERDAS BERKARYA",
        "tanggal_daftar": "2022-06-06",
        "nomor_tanda_daftar": "002929.01/DJAI.PSE/06/2022",
        "qr_code": "https://pse.kominfo.go.id/storage/images/qr_code/577e7d119a6db4126dc7003f8b2f621f.png",
        "status_id": "TERDAFTAR",
        "sistem_elektronik_id": 4237
      }
    },
    {
      "type": "tdpseTerbit",
      "id": 4263,
      "attributes": {
        "nomor_pb_umku": "912010013110300000001",
        "nama": "RINGAN",
        "website": "ringan.co.id",
        "sektor": "Sektor Keuangan",
        "nama_perusahaan": "RINGAN TEKNOLOGI INDONESIA",
        "tanggal_daftar": "2022-06-07",
        "nomor_tanda_daftar": "002928.01/DJAI.PSE/06/2022",
        "qr_code": "https://pse.kominfo.go.id/storage/images/qr_code/25c222bb43de3ffb6b9e39b0f93e910e.png",
        "status_id": "TERDAFTAR",
        "sistem_elektronik_id": 4262
      }
    },
    {
      "type": "tdpseTerbit",
      "id": 4241,
      "attributes": {
        "nomor_pb_umku": "912011907022200000001",
        "nama": "CV DROPSHIP",
        "website": "dropshipaja.com",
        "sektor": "Sektor Keuangan",
        "nama_perusahaan": "DROPSHIP",
        "tanggal_daftar": "2022-06-06",
        "nomor_tanda_daftar": "002925.01/DJAI.PSE/06/2022",
        "qr_code": "https://pse.kominfo.go.id/storage/images/qr_code/5b9b4628ea6d3b8fb8bdf54515842bf4.png",
        "status_id": "TERDAFTAR",
        "sistem_elektronik_id": 4236
      }
    },
    {
      "type": "tdpseTerbit",
      "id": 9782,
      "attributes": {
        "nomor_pb_umku": "120422003372300000001",
        "nama": "FRDAY",
        "website": "frday.id",
        "sektor": "Sektor Perdagangan",
        "nama_perusahaan": "TIGRIS NUSANTARA TEKNO",
        "tanggal_daftar": "2022-08-03",
        "nomor_tanda_daftar": "002923.01/DJAI.PSE/08/2022",
        "qr_code": "https://pse.kominfo.go.id/storage/images/qr_code/ec55dfa6fb9de054fe91c7eb25a1fd04.png",
        "status_id": "TERDAFTAR",
        "sistem_elektronik_id": 9656
      }
    },
    {
      "type": "tdpseTerbit",
      "id": 4308,
      "attributes": {
        "nomor_pb_umku": "071021004989200010001",
        "nama": "WETALK",
        "website": "wetalk.id",
        "sektor": "Sektor Perdagangan, Sektor Transportasi, Sektor Kesehatan, Sektor Teknologi Informasi dan Komunikasi, Sektor Pangan, Sektor Pertahanan dan Keamanan",
        "nama_perusahaan": "DIGITAL KREATIF MILENIAL",
        "tanggal_daftar": "2022-06-09",
        "nomor_tanda_daftar": "002923.01/DJAI.PSE/06/2022",
        "qr_code": "https://pse.kominfo.go.id/storage/images/qr_code/71f24355102396b806c2ae637cea3aab.png",
        "status_id": "TERDAFTAR",
        "sistem_elektronik_id": 4301
      }
    },
    {
      "type": "tdpseTerbit",
      "id": 4328,
      "attributes": {
        "nomor_pb_umku": "912040130256100610001",
        "nama": "BCA MULTI FINANCE",
        "website": "bcamf.co.id",
        "sektor": "Sektor Keuangan",
        "nama_perusahaan": "BCA MULTI FINANCE",
        "tanggal_daftar": "2022-06-10",
        "nomor_tanda_daftar": "002922.01/DJAI.PSE/06/2022",
        "qr_code": "https://pse.kominfo.go.id/storage/images/qr_code/d988dc98415508cb684a5e2894882a5e.png",
        "status_id": "TERDAFTAR",
        "sistem_elektronik_id": 4315
      }
    },
    {
      "type": "tdpseTerbit",
      "id": 4282,
      "attributes": {
        "nomor_pb_umku": "127600345206400000001",
        "nama": "FOLLOWME",
        "website": "FOLLOWME.COM",
        "sektor": "Sektor Teknologi Informasi dan Komunikasi",
        "nama_perusahaan": "FOLLOWME MARKETS INDONESIA",
        "tanggal_daftar": "2022-06-08",
        "nomor_tanda_daftar": "002919.01/DJAI.PSE/06/2022",
        "qr_code": "https://pse.kominfo.go.id/storage/images/qr_code/29fa9cbf65c9a93fa27a3c25cd1c92ea.png",
        "status_id": "TERDAFTAR",
        "sistem_elektronik_id": 4273
      }
    },
    {
      "type": "tdpseTerbit",
      "id": 4238,
      "attributes": {
        "nomor_pb_umku": "100522004084300010001",
        "nama": "PAYHERE",
        "website": "payhere.id",
        "sektor": "Sektor Perdagangan",
        "nama_perusahaan": "PAYHERE NUSWANTARA INTERNATIONAL",
        "tanggal_daftar": "2022-06-06",
        "nomor_tanda_daftar": "002918.01/DJAI.PSE/06/2022",
        "qr_code": "https://pse.kominfo.go.id/storage/images/qr_code/d16a563c3956caa6b784d5732f2ad051.png",
        "status_id": "TERDAFTAR",
        "sistem_elektronik_id": 4235
      }
    },
    {
      "type": "tdpseTerbit",
      "id": 4371,
      "attributes": {
        "nomor_pb_umku": "812020091167500000002",
        "nama": "FOX LOGGER",
        "website": "tracker.foxlogger.info",
        "sektor": "Sektor Teknologi Informasi dan Komunikasi",
        "nama_perusahaan": "SUMBER SINERGI MAKMUR",
        "tanggal_daftar": "2022-06-14",
        "nomor_tanda_daftar": "002918.01/DJAI.PSE/06/2022",
        "qr_code": "https://pse.kominfo.go.id/storage/images/qr_code/63159cf99b3775c242300b880d98c31e.png",
        "status_id": "TERDAFTAR",
        "sistem_elektronik_id": 4357
      }
    }
  ]
}