{
  "meta": {
    "page": {
      "currentPage": 447,
      "from": 4461,
      "lastPage": 1068,
      "perPage": 10,
      "to": 4470,
      "total": 10675
    }
  },
  "data": [
    {
      "type": "tdpseTerbit",
      "id": 5527,
      "attributes": {
        "nomor_pb_umku": "140722000194700000001",
        "nama": "MITRA SERVER TRANSAKSI",
        "website": "Pulsaku.info",
        "sektor": "Sektor Perdagangan",
        "nama_perusahaan": "HENDRA",
        "tanggal_daftar": "2022-07-13",
        "nomor_tanda_daftar": "004139.01/DJAI.PSE/07/2022",
        "qr_code": "https://pse.kominfo.go.id/storage/images/qr_code/39156dfd5169d9deaff4301b24074e22.png",
        "status_id": "TERDAFTAR",
        "sistem_elektronik_id": 5392
      }
    },
    {
      "type": "tdpseTerbit",
      "id": 5542,
      "attributes": {
        "nomor_pb_umku": "022000952144600020001",
        "nama": "ALADIN",
        "website": "aladinbank.id",
        "sektor": "Sektor Keuangan",
        "nama_perusahaan": "BANK ALADIN SYARIAH",
        "tanggal_daftar": "2022-07-14",
        "nomor_tanda_daftar": "004137.01/DJAI.PSE/07/2022",
        "qr_code": "https://pse.kominfo.go.id/storage/images/qr_code/42132aec57ccbc1c927bfeb77e3cf752.png",
        "status_id": "TERDAFTAR",
        "sistem_elektronik_id": 5407
      }
    },
    {
      "type": "tdpseTerbit",
      "id": 5522,
      "attributes": {
        "nomor_pb_umku": "020222004899600000001",
        "nama": "VERTAL",
        "website": "vertal.co.id",
        "sektor": "Sektor Perdagangan, Sektor Teknologi Informasi dan Komunikasi",
        "nama_perusahaan": "NUSANTARA OLAH DIGITAL",
        "tanggal_daftar": "2022-07-13",
        "nomor_tanda_daftar": "004136.01/DJAI.PSE/07/2022",
        "qr_code": "https://pse.kominfo.go.id/storage/images/qr_code/1cd1d0c02d2b92b3fda37986a184559e.png",
        "status_id": "TERDAFTAR",
        "sistem_elektronik_id": 5388
      }
    },
    {
      "type": "tdpseTerbit",
      "id": 10077,
      "attributes": {
        "nomor_pb_umku": "130722006687300010001",
        "nama": "EGIFT SYSTEM",
        "website": "-",
        "sektor": "Sektor Perdagangan",
        "nama_perusahaan": "GIFTEE INTERNATIONAL INDONESIA",
        "tanggal_daftar": "2022-08-09",
        "nomor_tanda_daftar": "004135.01/DJAI.PSE/08/2022",
        "qr_code": "https://pse.kominfo.go.id/storage/images/qr_code/f478192709971e4226240b3c7dcb597d.png",
        "status_id": "TERDAFTAR",
        "sistem_elektronik_id": 9966
      }
    },
    {
      "type": "tdpseTerbit",
      "id": 5521,
      "attributes": {
        "nomor_pb_umku": "912040670121100010001",
        "nama": "IKI MODAL",
        "website": "ikimodal.com",
        "sektor": "Sektor Keuangan",
        "nama_perusahaan": "IKI KARUNIA INDONESIA",
        "tanggal_daftar": "2022-07-13",
        "nomor_tanda_daftar": "004134.01/DJAI.PSE/07/2022",
        "qr_code": "https://pse.kominfo.go.id/storage/images/qr_code/fdae204895669055f5be41fc3136c567.png",
        "status_id": "TERDAFTAR",
        "sistem_elektronik_id": 5387
      }
    },
    {
      "type": "tdpseTerbit",
      "id": 6211,
      "attributes": {
        "nomor_pb_umku": "912000614262100020001",
        "nama": "ICBS",
        "website": "kbij.co.id",
        "sektor": "Sektor Teknologi Informasi dan Komunikasi",
        "nama_perusahaan": "KREDIT BIRO INDONESIA JAYA",
        "tanggal_daftar": "2022-07-18",
        "nomor_tanda_daftar": "004133.01/DJAI.PSE/07/2022",
        "qr_code": "https://pse.kominfo.go.id/storage/images/qr_code/740883766fcb3c23990b569542727ba5.png",
        "status_id": "TERDAFTAR",
        "sistem_elektronik_id": 6076
      }
    },
    {
      "type": "tdpseTerbit",
      "id": 5529,
      "attributes": {
        "nomor_pb_umku": "025401013152800040001",
        "nama": "BOSCOD",
        "website": "boscod.com",
        "sektor": "Sektor Transportasi, Sektor Teknologi Informasi dan Komunikasi",
        "nama_perusahaan": "HADID PARAMA INDONESIA",
        "tanggal_daftar": "2022-07-14",
        "nomor_tanda_daftar": "004132.01/DJAI.PSE/07/2022",
        "qr_code": "https://pse.kominfo.go.id/storage/images/qr_code/325a8db3d0fd07d2205798b9f121f980.png",
        "status_id": "TERDAFTAR",
        "sistem_elektronik_id": 5383
      }
    },
    {
      "type": "tdpseTerbit",
      "id": 6452,
      "attributes": {
        "nomor_pb_umku": "912050883310100000001",
        "nama": "SHARIACOIN",
        "website": "shariacoin.co.id",
        "sektor": "Sektor Perdagangan",
        "nama_perusahaan": "SYARIAH KOIN INDONESIA",
        "tanggal_daftar": "2022-07-18",
        "nomor_tanda_daftar": "004129.01/DJAI.PSE/07/2022",
        "qr_code": "https://pse.kominfo.go.id/storage/images/qr_code/c7a2c844df902ee41dc0a3abfc160fd6.png",
        "status_id": "TERDAFTAR",
        "sistem_elektronik_id": 5813
      }
    },
    {
      "type": "tdpseTerbit",
      "id": 5587,
      "attributes": {
        "nomor_pb_umku": "912031501262900000001",
        "nama": "MEMEFLORIST",
        "website": "memeflorist.com",
        "sektor": "Sektor Perdagangan",
        "nama_perusahaan": "MELINDO DIGITAMA",
        "tanggal_daftar": "2022-10-05",
        "nomor_tanda_daftar": "004128.01/DJAI.PSE/07/2022",
        "qr_code": "https://pse.kominfo.go.id/storage/images/qr_code/bd5b42768787865ba740648393b2587a.png",
        "status_id": "TERDAFTAR",
        "sistem_elektronik_id": 5459
      }
    },
    {
      "type": "tdpseTerbit",
      "id": 6050,
      "attributes": {
        "nomor_pb_umku": "240622004537300140001",
        "nama": "SRIKANDI LISTRIK NETWORKING",
        "website": "-",
        "sektor": "Sektor Perdagangan",
        "nama_perusahaan": "SRIKANDI LISTRIK NETWORKING",
        "tanggal_daftar": "2022-07-18",
        "nomor_tanda_daftar": "004127.01/DJAI.PSE/07/2022",
        "qr_code": "https://pse.kominfo.go.id/storage/images/qr_code/919ec38b4ebfb760a22244a43843bcb6.png",
        "status_id": "TERDAFTAR",
        "sistem_elektronik_id": 5919
      }
    }
  ]
}