{
  "meta": {
    "page": {
      "currentPage": 448,
      "from": 4471,
      "lastPage": 949,
      "perPage": 10,
      "to": 4480,
      "total": 9482
    }
  },
  "data": [
    {
      "type": "tdpseTerbit",
      "id": 4369,
      "attributes": {
        "nomor_pb_umku": "912021126128300010004",
        "nama": "TILAKA",
        "website": "tilaka.id",
        "sektor": "Sektor Teknologi Informasi dan Komunikasi",
        "nama_perusahaan": "TILAKA NUSA TEKNOLOGI",
        "tanggal_daftar": "2022-06-14",
        "nomor_tanda_daftar": "002849.01/DJAI.PSE/06/2022",
        "qr_code": "https://pse.kominfo.go.id/storage/images/qr_code/5337308bb2422480a0bec956635a343f.png",
        "status_id": "TERDAFTAR",
        "sistem_elektronik_id": 4355
      }
    },
    {
      "type": "tdpseTerbit",
      "id": 4269,
      "attributes": {
        "nomor_pb_umku": "070422005931100100001",
        "nama": "YAYASAN PUSAT STRATEGI DAN AKSELERASI PEMBANGUNAN INDONESIA MAJU",
        "website": "indonesia2030.id",
        "sektor": "Sektor Perdagangan, Sektor Teknologi Informasi dan Komunikasi",
        "nama_perusahaan": "PUSAT STRATEGI DAN AKSELERASI PEMBANGUNAN INDONESIA MAJU",
        "tanggal_daftar": "2022-06-07",
        "nomor_tanda_daftar": "002848.01/DJAI.PSE/06/2022",
        "qr_code": "https://pse.kominfo.go.id/storage/images/qr_code/326b8c66092582f6798122b9d544762d.png",
        "status_id": "TERDAFTAR",
        "sistem_elektronik_id": 4268
      }
    },
    {
      "type": "tdpseTerbit",
      "id": 8921,
      "attributes": {
        "nomor_pb_umku": "129900048018300380005",
        "nama": "ANNORA AIR QUALITY MONITORING SYSTEM",
        "website": "-",
        "sektor": "Sektor Teknologi Informasi dan Komunikasi, Sektor Pertahanan dan Keamanan",
        "nama_perusahaan": "ANNORA MULTI INTECH",
        "tanggal_daftar": "2022-07-23",
        "nomor_tanda_daftar": "002842.05/DJAI.PSE/07/2022",
        "qr_code": "https://pse.kominfo.go.id/storage/images/qr_code/21c899b6b7ec6441d8c10759f7b7593f.png",
        "status_id": "TERDAFTAR",
        "sistem_elektronik_id": 8827
      }
    },
    {
      "type": "tdpseTerbit",
      "id": 8920,
      "attributes": {
        "nomor_pb_umku": "129900048018300380004",
        "nama": "KATALOG HEMATECH",
        "website": "-",
        "sektor": "Sektor Perdagangan",
        "nama_perusahaan": "ANNORA MULTI INTECH",
        "tanggal_daftar": "2022-07-23",
        "nomor_tanda_daftar": "002842.04/DJAI.PSE/07/2022",
        "qr_code": "https://pse.kominfo.go.id/storage/images/qr_code/5f308b85fc2a4d7f10b156c419e86559.png",
        "status_id": "TERDAFTAR",
        "sistem_elektronik_id": 8826
      }
    },
    {
      "type": "tdpseTerbit",
      "id": 8908,
      "attributes": {
        "nomor_pb_umku": "129900048018300380003",
        "nama": "KUANTAR",
        "website": "-",
        "sektor": "Sektor Perdagangan, Sektor Transportasi, Sektor Teknologi Informasi dan Komunikasi",
        "nama_perusahaan": "ANNORA MULTI INTECH",
        "tanggal_daftar": "2022-07-23",
        "nomor_tanda_daftar": "002842.03/DJAI.PSE/07/2022",
        "qr_code": "https://pse.kominfo.go.id/storage/images/qr_code/5e62841c638545e1fdbf15d62c86379d.png",
        "status_id": "TERDAFTAR",
        "sistem_elektronik_id": 8813
      }
    },
    {
      "type": "tdpseTerbit",
      "id": 8904,
      "attributes": {
        "nomor_pb_umku": "129900048018300380002",
        "nama": "ANNORA POINT OF SALES",
        "website": "-",
        "sektor": "Sektor Perdagangan, Sektor Teknologi Informasi dan Komunikasi",
        "nama_perusahaan": "ANNORA MULTI INTECH",
        "tanggal_daftar": "2022-07-23",
        "nomor_tanda_daftar": "002842.02/DJAI.PSE/07/2022",
        "qr_code": "https://pse.kominfo.go.id/storage/images/qr_code/2dd38a5d3f080c1c66d31a46f9d1a170.png",
        "status_id": "TERDAFTAR",
        "sistem_elektronik_id": 8809
      }
    },
    {
      "type": "tdpseTerbit",
      "id": 4231,
      "attributes": {
        "nomor_pb_umku": "912050881242300020001",
        "nama": "TICMIEDU",
        "website": "ticmiedu.co.id",
        "sektor": "Sektor Keuangan",
        "nama_perusahaan": "INDONESIAN CAPITAL MARKET ELECTRONIC LIBRARY",
        "tanggal_daftar": "2022-06-06",
        "nomor_tanda_daftar": "002841.01/DJAI.PSE/06/2022",
        "qr_code": "https://pse.kominfo.go.id/storage/images/qr_code/74f8adbf677f7de426f13635a1bfd512.png",
        "status_id": "TERDAFTAR",
        "sistem_elektronik_id": 4228
      }
    },
    {
      "type": "tdpseTerbit",
      "id": 4232,
      "attributes": {
        "nomor_pb_umku": "190522007020500000001",
        "nama": "BLOCKDREAM MEDIA",
        "website": "blockdreammedia.com",
        "sektor": "Sektor Teknologi Informasi dan Komunikasi",
        "nama_perusahaan": "BLOCKDREAM MEDIA INTERNASIONAL",
        "tanggal_daftar": "2022-06-06",
        "nomor_tanda_daftar": "002840.01/DJAI.PSE/06/2022",
        "qr_code": "https://pse.kominfo.go.id/storage/images/qr_code/d80a14bd61e6c60d2f353091b2402cf2.png",
        "status_id": "TERDAFTAR",
        "sistem_elektronik_id": 4230
      }
    },
    {
      "type": "tdpseTerbit",
      "id": 4368,
      "attributes": {
        "nomor_pb_umku": "812000176280300000001",
        "nama": "HELO-BABE",
        "website": "babe.co.id",
        "sektor": "Sektor Teknologi Informasi dan Komunikasi",
        "nama_perusahaan": "MP GAMES",
        "tanggal_daftar": "2022-06-14",
        "nomor_tanda_daftar": "002831.01/DJAI.PSE/06/2022",
        "qr_code": "https://pse.kominfo.go.id/storage/images/qr_code/b97a812185de42ab3d91b6d2cd6b56e3.png",
        "status_id": "TERDAFTAR",
        "sistem_elektronik_id": 4354
      }
    },
    {
      "type": "tdpseTerbit",
      "id": 8945,
      "attributes": {
        "nomor_pb_umku": "251021001164700130005",
        "nama": "ALAMBAMAKMUR.COM",
        "website": "alambamakmur.com",
        "sektor": "Sektor Perdagangan",
        "nama_perusahaan": "ALAMBA MAKMUR BERSAMA",
        "tanggal_daftar": "2022-07-25",
        "nomor_tanda_daftar": "002824.01/DJAI.PSE/07/2022",
        "qr_code": "https://pse.kominfo.go.id/storage/images/qr_code/b9f2816e8f69e7b4f9c989cc12c742e3.png",
        "status_id": "TERDAFTAR",
        "sistem_elektronik_id": 8854
      }
    }
  ]
}