{
  "meta": {
    "page": {
      "currentPage": 449,
      "from": 4481,
      "lastPage": 1025,
      "perPage": 10,
      "to": 4490,
      "total": 10245
    }
  },
  "data": [
    {
      "type": "tdpseTerbit",
      "id": 5402,
      "attributes": {
        "nomor_pb_umku": "260821005057400010002",
        "nama": "M-OJEK DRIVER",
        "website": "m-ojek.com",
        "sektor": "Sektor Transportasi",
        "nama_perusahaan": "MEDAN OJEK INDONESIA",
        "tanggal_daftar": "2022-07-12",
        "nomor_tanda_daftar": "003815.02/DJAI.PSE/07/2022",
        "qr_code": "https://pse.kominfo.go.id/storage/images/qr_code/6d696c1e4442cf96121662670be3c088.png",
        "status_id": "TERDAFTAR",
        "sistem_elektronik_id": 5274
      }
    },
    {
      "type": "tdpseTerbit",
      "id": 5152,
      "attributes": {
        "nomor_pb_umku": "260821005057400010001",
        "nama": "M-OJEK",
        "website": "M-OJEK.COM",
        "sektor": "Sektor Transportasi",
        "nama_perusahaan": "MEDAN OJEK INDONESIA",
        "tanggal_daftar": "2022-07-06",
        "nomor_tanda_daftar": "003815.01/DJAI.PSE/07/2022",
        "qr_code": "https://pse.kominfo.go.id/storage/images/qr_code/8df97660d5d48d8d2fce2ffe30274d78.png",
        "status_id": "TERDAFTAR",
        "sistem_elektronik_id": 5015
      }
    },
    {
      "type": "tdpseTerbit",
      "id": 5165,
      "attributes": {
        "nomor_pb_umku": "022000213259300020001",
        "nama": "INVITE - INVESTINDO TRADING SYSTEM (MOBILE - IOS & ANDROID)",
        "website": "-",
        "sektor": "Sektor Keuangan",
        "nama_perusahaan": "INVESTINDO NUSANTARA SEKURITAS",
        "tanggal_daftar": "2022-07-07",
        "nomor_tanda_daftar": "003813.05/DJAI.PSE/07/2022",
        "qr_code": "https://pse.kominfo.go.id/storage/images/qr_code/a509f5f2fc1de30fb616eef053b0b1c6.png",
        "status_id": "TERDAFTAR",
        "sistem_elektronik_id": 5029
      }
    },
    {
      "type": "tdpseTerbit",
      "id": 5163,
      "attributes": {
        "nomor_pb_umku": "022000213259300020001",
        "nama": "INVITE - INVESTINDO TRADING SYSTEM (DESKTOP)",
        "website": "-",
        "sektor": "Sektor Keuangan",
        "nama_perusahaan": "INVESTINDO NUSANTARA SEKURITAS",
        "tanggal_daftar": "2022-07-07",
        "nomor_tanda_daftar": "003813.04/DJAI.PSE/07/2022",
        "qr_code": "https://pse.kominfo.go.id/storage/images/qr_code/e2d7a4f020fe3848062694d294174948.png",
        "status_id": "TERDAFTAR",
        "sistem_elektronik_id": 5027
      }
    },
    {
      "type": "tdpseTerbit",
      "id": 5161,
      "attributes": {
        "nomor_pb_umku": "022000213259300020001",
        "nama": "INVITE - INVESTINDO NUSANTARA SEKURITAS (WEB)",
        "website": "invite.investindosekuritas.co.id",
        "sektor": "Sektor Keuangan",
        "nama_perusahaan": "INVESTINDO NUSANTARA SEKURITAS",
        "tanggal_daftar": "2022-07-07",
        "nomor_tanda_daftar": "003813.03/DJAI.PSE/07/2022",
        "qr_code": "https://pse.kominfo.go.id/storage/images/qr_code/06066c240d228296dd72c709f0f1b51e.png",
        "status_id": "TERDAFTAR",
        "sistem_elektronik_id": 5025
      }
    },
    {
      "type": "tdpseTerbit",
      "id": 5159,
      "attributes": {
        "nomor_pb_umku": "022000213259300020001",
        "nama": "E-FORM PT INVESTINDO NUSANTARA SEKURITAS",
        "website": "eform.investindosekuritas.co.id",
        "sektor": "Sektor Keuangan",
        "nama_perusahaan": "INVESTINDO NUSANTARA SEKURITAS",
        "tanggal_daftar": "2022-07-07",
        "nomor_tanda_daftar": "003813.02/DJAI.PSE/07/2022",
        "qr_code": "https://pse.kominfo.go.id/storage/images/qr_code/db19a457a1a60005738ccecbaaecdebb.png",
        "status_id": "TERDAFTAR",
        "sistem_elektronik_id": 5023
      }
    },
    {
      "type": "tdpseTerbit",
      "id": 5157,
      "attributes": {
        "nomor_pb_umku": "022000213259300020001",
        "nama": "WEBSITE PT INVESTINDO NUSANTARA SEKURITAS",
        "website": "investindosekuritas.co.id",
        "sektor": "Sektor Keuangan",
        "nama_perusahaan": "INVESTINDO NUSANTARA SEKURITAS",
        "tanggal_daftar": "2022-07-07",
        "nomor_tanda_daftar": "003813.01/DJAI.PSE/07/2022",
        "qr_code": "https://pse.kominfo.go.id/storage/images/qr_code/f77503db9ac623a01d0f3db0fb66ef43.png",
        "status_id": "TERDAFTAR",
        "sistem_elektronik_id": 5021
      }
    },
    {
      "type": "tdpseTerbit",
      "id": 5147,
      "attributes": {
        "nomor_pb_umku": "141021001352400020001",
        "nama": "SISTEM PENUNJANG PERDAGANGAN",
        "website": "-",
        "sektor": "Sektor Perdagangan",
        "nama_perusahaan": "DIKA ADITYA PRATAMA",
        "tanggal_daftar": "2022-07-06",
        "nomor_tanda_daftar": "003812.01/DJAI.PSE/07/2022",
        "qr_code": "https://pse.kominfo.go.id/storage/images/qr_code/577692c7dd8c584f0c415fff127a9049.png",
        "status_id": "TERDAFTAR",
        "sistem_elektronik_id": 5010
      }
    },
    {
      "type": "tdpseTerbit",
      "id": 5144,
      "attributes": {
        "nomor_pb_umku": "060722006987800000001",
        "nama": "PERPUSTAKAAN DIGITAL BUDAYA INDONESIA",
        "website": "budaya-indonesia.org",
        "sektor": "Sektor Teknologi Informasi dan Komunikasi",
        "nama_perusahaan": "BENTARA FRAKTAL INDONESIA TEKNOLOGI",
        "tanggal_daftar": "2022-07-06",
        "nomor_tanda_daftar": "003811.01/DJAI.PSE/07/2022",
        "qr_code": "https://pse.kominfo.go.id/storage/images/qr_code/b2d3ad86d55830208c28cac9f46d465a.png",
        "status_id": "TERDAFTAR",
        "sistem_elektronik_id": 5008
      }
    },
    {
      "type": "tdpseTerbit",
      "id": 10261,
      "attributes": {
        "nomor_pb_umku": "912020972074400020003",
        "nama": "EBCONNECT",
        "website": "ebconnect.sequis.co.id",
        "sektor": "Sektor Keuangan",
        "nama_perusahaan": "ASURANSI JIWA SEQUIS FINANCIAL",
        "tanggal_daftar": "2022-08-12",
        "nomor_tanda_daftar": "003810.03/DJAI.PSE/08/2022",
        "qr_code": "https://pse.kominfo.go.id/storage/images/qr_code/32d3ce78aac5e0fff02bea2577b66752.png",
        "status_id": "TERDAFTAR",
        "sistem_elektronik_id": 10147
      }
    }
  ]
}