{
  "meta": {
    "page": {
      "currentPage": 450,
      "from": 4491,
      "lastPage": 1053,
      "perPage": 10,
      "to": 4500,
      "total": 10528
    }
  },
  "data": [
    {
      "type": "tdpseTerbit",
      "id": 5441,
      "attributes": {
        "nomor_pb_umku": "022010270370800000003",
        "nama": "HALOBELANJADOTCOM",
        "website": "halobelanja.com",
        "sektor": "Sektor Teknologi Informasi dan Komunikasi",
        "nama_perusahaan": "HALO BELANJA DOTCOM",
        "tanggal_daftar": "2022-07-13",
        "nomor_tanda_daftar": "004030.03/DJAI.PSE/07/2022",
        "qr_code": "https://pse.kominfo.go.id/storage/images/qr_code/d54ee470557b6d1ab9d2d0a137ec06ee.png",
        "status_id": "TERDAFTAR",
        "sistem_elektronik_id": 5313
      }
    },
    {
      "type": "tdpseTerbit",
      "id": 5436,
      "attributes": {
        "nomor_pb_umku": "022010270370800000002",
        "nama": "HALO BELANJA",
        "website": "halobelanja.com",
        "sektor": "Sektor Teknologi Informasi dan Komunikasi",
        "nama_perusahaan": "HALO BELANJA DOTCOM",
        "tanggal_daftar": "2022-07-13",
        "nomor_tanda_daftar": "004030.02/DJAI.PSE/07/2022",
        "qr_code": "https://pse.kominfo.go.id/storage/images/qr_code/dabbc6f6488020cfd0411e0b6e18e4e6.png",
        "status_id": "TERDAFTAR",
        "sistem_elektronik_id": 5308
      }
    },
    {
      "type": "tdpseTerbit",
      "id": 5396,
      "attributes": {
        "nomor_pb_umku": "022010270370800000001",
        "nama": "HALOBELANJA",
        "website": "halobelanja.com",
        "sektor": "Sektor Teknologi Informasi dan Komunikasi",
        "nama_perusahaan": "HALO BELANJA DOTCOM",
        "tanggal_daftar": "2022-07-12",
        "nomor_tanda_daftar": "004030.01/DJAI.PSE/07/2022",
        "qr_code": "https://pse.kominfo.go.id/storage/images/qr_code/76443b57cfb3c31a6f8d17cd475aa122.png",
        "status_id": "TERDAFTAR",
        "sistem_elektronik_id": 5265
      }
    },
    {
      "type": "tdpseTerbit",
      "id": 5465,
      "attributes": {
        "nomor_pb_umku": "812010974276800010002",
        "nama": "OURCITRUS TODAY & FUTURE",
        "website": "ourcitrus.com",
        "sektor": "Sektor Perdagangan",
        "nama_perusahaan": "GEMILANG CITRUS BERJAYA",
        "tanggal_daftar": "2022-07-13",
        "nomor_tanda_daftar": "004029.02/DJAI.PSE/07/2022",
        "qr_code": "https://pse.kominfo.go.id/storage/images/qr_code/2305b52d48ff7e7778a6728f27830fff.png",
        "status_id": "TERDAFTAR",
        "sistem_elektronik_id": 5337
      }
    },
    {
      "type": "tdpseTerbit",
      "id": 5423,
      "attributes": {
        "nomor_pb_umku": "812010974276800010001",
        "nama": "OURCITRUS",
        "website": "OURCITRUS.ID",
        "sektor": "Sektor Perdagangan",
        "nama_perusahaan": "GEMILANG CITRUS BERJAYA",
        "tanggal_daftar": "2022-07-12",
        "nomor_tanda_daftar": "004029.01/DJAI.PSE/07/2022",
        "qr_code": "https://pse.kominfo.go.id/storage/images/qr_code/5255c0203d9ed83fbd7a02c8569edb9d.png",
        "status_id": "TERDAFTAR",
        "sistem_elektronik_id": 5293
      }
    },
    {
      "type": "tdpseTerbit",
      "id": 5381,
      "attributes": {
        "nomor_pb_umku": "912021525227600010001",
        "nama": "PT KSK INSURANCE INDONESIA",
        "website": "kskinsurance.co.id",
        "sektor": "Sektor Keuangan",
        "nama_perusahaan": "KSK INSURANCE INDONESIA",
        "tanggal_daftar": "2022-07-12",
        "nomor_tanda_daftar": "004028.01/DJAI.PSE/07/2022",
        "qr_code": "https://pse.kominfo.go.id/storage/images/qr_code/e0347e232c86007e58be5400f0862a6c.png",
        "status_id": "TERDAFTAR",
        "sistem_elektronik_id": 5252
      }
    },
    {
      "type": "tdpseTerbit",
      "id": 5408,
      "attributes": {
        "nomor_pb_umku": "120722003096900000001",
        "nama": "APLIKASIR",
        "website": "aplikasir.com",
        "sektor": "Sektor Teknologi Informasi dan Komunikasi",
        "nama_perusahaan": "APLIKASI NIAGA INDONESIA",
        "tanggal_daftar": "2022-07-12",
        "nomor_tanda_daftar": "004026.01/DJAI.PSE/07/2022",
        "qr_code": "https://pse.kominfo.go.id/storage/images/qr_code/dbdd824cd3631692402c6a976f18c948.png",
        "status_id": "TERDAFTAR",
        "sistem_elektronik_id": 5281
      }
    },
    {
      "type": "tdpseTerbit",
      "id": 5352,
      "attributes": {
        "nomor_pb_umku": "029201017253900030001",
        "nama": "MAO THARA INTERNASIONAL",
        "website": "mao.co.id",
        "sektor": "Sektor Perdagangan",
        "nama_perusahaan": "MAO THARA INTERNASIONAL",
        "tanggal_daftar": "2022-07-12",
        "nomor_tanda_daftar": "004025.01/DJAI.PSE/07/2022",
        "qr_code": "https://pse.kominfo.go.id/storage/images/qr_code/dee6f24621ca02a87b87b79f42ec5df3.png",
        "status_id": "TERDAFTAR",
        "sistem_elektronik_id": 5225
      }
    },
    {
      "type": "tdpseTerbit",
      "id": 6399,
      "attributes": {
        "nomor_pb_umku": "310322000150100010001",
        "nama": "SINERGI",
        "website": "-",
        "sektor": "Sektor Perdagangan, Sektor Teknologi Informasi dan Komunikasi",
        "nama_perusahaan": "SINERGI DIGITAL PUTRA",
        "tanggal_daftar": "2022-07-18",
        "nomor_tanda_daftar": "004024.01/DJAI.PSE/07/2022",
        "qr_code": "https://pse.kominfo.go.id/storage/images/qr_code/348d20bbff11dd41105546db7f4d265a.png",
        "status_id": "TERDAFTAR",
        "sistem_elektronik_id": 6235
      }
    },
    {
      "type": "tdpseTerbit",
      "id": 9460,
      "attributes": {
        "nomor_pb_umku": "912040375209300010003",
        "nama": "CLAIM WEBSITE SIMASINSURTECH.ID",
        "website": "simasinsurtech.com",
        "sektor": "Sektor Keuangan",
        "nama_perusahaan": "ASURANSI SIMAS INSURTECH",
        "tanggal_daftar": "2022-07-31",
        "nomor_tanda_daftar": "004022.03/DJAI.PSE/07/2022",
        "qr_code": "https://pse.kominfo.go.id/storage/images/qr_code/65f4b0ef64e6b2efe8279b2ad936b931.png",
        "status_id": "TERDAFTAR",
        "sistem_elektronik_id": 9364
      }
    }
  ]
}