{
  "meta": {
    "page": {
      "currentPage": 452,
      "from": 4511,
      "lastPage": 975,
      "perPage": 10,
      "to": 4520,
      "total": 9746
    }
  },
  "data": [
    {
      "type": "tdpseTerbit",
      "id": 4650,
      "attributes": {
        "nomor_pb_umku": "171221002216900010001",
        "nama": "KUCARI.COM",
        "website": "kucari.com",
        "sektor": "Sektor Perdagangan, Sektor Teknologi Informasi dan Komunikasi",
        "nama_perusahaan": "DARMA SAKTI ADISAPUTRA",
        "tanggal_daftar": "2022-06-21",
        "nomor_tanda_daftar": "003323.01/DJAI.PSE/06/2022",
        "qr_code": "https://pse.kominfo.go.id/storage/images/qr_code/698f5fbab549fcb55086a3f696b533ce.png",
        "status_id": "TERDAFTAR",
        "sistem_elektronik_id": 4610
      }
    },
    {
      "type": "tdpseTerbit",
      "id": 4951,
      "attributes": {
        "nomor_pb_umku": "022000077169200000002",
        "nama": "LENDINGHUB.ID",
        "website": "lendinghub.id",
        "sektor": "Sektor Teknologi Informasi dan Komunikasi",
        "nama_perusahaan": "CINTA INOVASI DALAM NEGERI",
        "tanggal_daftar": "2022-06-29",
        "nomor_tanda_daftar": "003322.01/DJAI.PSE/06/2022",
        "qr_code": "https://pse.kominfo.go.id/storage/images/qr_code/444e779ae5cbb097c4a8c839b3feb44e.png",
        "status_id": "TERDAFTAR",
        "sistem_elektronik_id": 4818
      }
    },
    {
      "type": "tdpseTerbit",
      "id": 4644,
      "attributes": {
        "nomor_pb_umku": "210622003594200000001",
        "nama": "BLITARKITA.COM",
        "website": "blitarkita.com",
        "sektor": "Sektor Teknologi Informasi dan Komunikasi",
        "nama_perusahaan": "BLITAR KITA SEKARANG",
        "tanggal_daftar": "2022-06-21",
        "nomor_tanda_daftar": "003316.01/DJAI.PSE/06/2022",
        "qr_code": "https://pse.kominfo.go.id/storage/images/qr_code/823d37e439a9a0d5458b969490d6571a.png",
        "status_id": "TERDAFTAR",
        "sistem_elektronik_id": 4605
      }
    },
    {
      "type": "tdpseTerbit",
      "id": 5109,
      "attributes": {
        "nomor_pb_umku": "070122003909100090001",
        "nama": "SMILE STORE",
        "website": "smilestore.id",
        "sektor": "Sektor Perdagangan",
        "nama_perusahaan": "SURYA PUTERA SEJAHTERA",
        "tanggal_daftar": "2022-07-06",
        "nomor_tanda_daftar": "003315.02/DJAI.PSE/07/2022",
        "qr_code": "https://pse.kominfo.go.id/storage/images/qr_code/7d80348910409653535caea06d3816a9.png",
        "status_id": "TERDAFTAR",
        "sistem_elektronik_id": 4970
      }
    },
    {
      "type": "tdpseTerbit",
      "id": 4643,
      "attributes": {
        "nomor_pb_umku": "260422003018500000001",
        "nama": "PT UPBANX GLOBAL INDONESIA (UPBANX)",
        "website": "upbanx.com",
        "sektor": "Sektor Keuangan",
        "nama_perusahaan": "UPBANX GLOBAL INDONESIA",
        "tanggal_daftar": "2022-06-21",
        "nomor_tanda_daftar": "003314.01/DJAI.PSE/06/2022",
        "qr_code": "https://pse.kominfo.go.id/storage/images/qr_code/c00f18502caaa250172a48a96b3f55f3.png",
        "status_id": "TERDAFTAR",
        "sistem_elektronik_id": 4604
      }
    },
    {
      "type": "tdpseTerbit",
      "id": 4649,
      "attributes": {
        "nomor_pb_umku": "301121004057800010001",
        "nama": "DRIVE NET INDONESIA",
        "website": "-",
        "sektor": "Sektor Teknologi Informasi dan Komunikasi",
        "nama_perusahaan": "KHASBI HUSAIN",
        "tanggal_daftar": "2022-06-21",
        "nomor_tanda_daftar": "003312.01/DJAI.PSE/06/2022",
        "qr_code": "https://pse.kominfo.go.id/storage/images/qr_code/c1147fe207880299f5c8c7e6c7ecadeb.png",
        "status_id": "TERDAFTAR",
        "sistem_elektronik_id": 4609
      }
    },
    {
      "type": "tdpseTerbit",
      "id": 4641,
      "attributes": {
        "nomor_pb_umku": "812020280115700000001",
        "nama": "CASHBAC",
        "website": "cashbac.com",
        "sektor": "Sektor Perdagangan",
        "nama_perusahaan": "GLOBAL PAY INDONESIA",
        "tanggal_daftar": "2022-06-21",
        "nomor_tanda_daftar": "003311.01/DJAI.PSE/06/2022",
        "qr_code": "https://pse.kominfo.go.id/storage/images/qr_code/7601bc9678b29a614ff561e0f1eee490.png",
        "status_id": "TERDAFTAR",
        "sistem_elektronik_id": 4601
      }
    },
    {
      "type": "tdpseTerbit",
      "id": 5040,
      "attributes": {
        "nomor_pb_umku": "022020314340500000001",
        "nama": "LUCUFLIX",
        "website": "lucuflix.id",
        "sektor": "Sektor Teknologi Informasi dan Komunikasi",
        "nama_perusahaan": "JENAKA SUMBER REJEKI",
        "tanggal_daftar": "2022-07-04",
        "nomor_tanda_daftar": "003310.01/DJAI.PSE/07/2022",
        "qr_code": "https://pse.kominfo.go.id/storage/images/qr_code/89d157e02e3780bff18a088aa4cd1936.png",
        "status_id": "TERDAFTAR",
        "sistem_elektronik_id": 4893
      }
    },
    {
      "type": "tdpseTerbit",
      "id": 4642,
      "attributes": {
        "nomor_pb_umku": "010622000978300000001",
        "nama": "LEGALPEDIA",
        "website": "Legalpedia.id",
        "sektor": "Sektor Teknologi Informasi dan Komunikasi",
        "nama_perusahaan": "ALPHA LEGAL ULTIMA",
        "tanggal_daftar": "2022-06-21",
        "nomor_tanda_daftar": "003309.01/DJAI.PSE/06/2022",
        "qr_code": "https://pse.kominfo.go.id/storage/images/qr_code/57b7f2517d3821f0db7a756ca39f94da.png",
        "status_id": "TERDAFTAR",
        "sistem_elektronik_id": 4603
      }
    },
    {
      "type": "tdpseTerbit",
      "id": 5082,
      "attributes": {
        "nomor_pb_umku": "250122006011400000001",
        "nama": "DOCUM4NT",
        "website": "-",
        "sektor": "Sektor Teknologi Informasi dan Komunikasi",
        "nama_perusahaan": "INDONESIA TANGGUH TUMBUH SELALU",
        "tanggal_daftar": "2022-07-05",
        "nomor_tanda_daftar": "003307.01/DJAI.PSE/07/2022",
        "qr_code": "https://pse.kominfo.go.id/storage/images/qr_code/c7fc2c9030fb97afd1691d16662144e5.png",
        "status_id": "TERDAFTAR",
        "sistem_elektronik_id": 4948
      }
    }
  ]
}