{
  "meta": {
    "page": {
      "currentPage": 454,
      "from": 4531,
      "lastPage": 1028,
      "perPage": 10,
      "to": 4540,
      "total": 10273
    }
  },
  "data": [
    {
      "type": "tdpseTerbit",
      "id": 5218,
      "attributes": {
        "nomor_pb_umku": "211221001451400010001",
        "nama": "PT MAXS DIGITAL TEKNOLOGI",
        "website": "maxspos.com",
        "sektor": "Sektor Teknologi Informasi dan Komunikasi",
        "nama_perusahaan": "MAXS DIGITAL TEKNOLOGI",
        "tanggal_daftar": "2022-07-08",
        "nomor_tanda_daftar": "003799.01/DJAI.PSE/07/2022",
        "qr_code": "https://pse.kominfo.go.id/storage/images/qr_code/b7b6c8c25c9d8b5eb2917a9dcaa11d2d.png",
        "status_id": "TERDAFTAR",
        "sistem_elektronik_id": 5088
      }
    },
    {
      "type": "tdpseTerbit",
      "id": 5131,
      "attributes": {
        "nomor_pb_umku": "812010379286800000002",
        "nama": "MINISO APPLICATION",
        "website": "miniso.co.id",
        "sektor": "Sektor Perdagangan",
        "nama_perusahaan": "Miniso Internasional Compani",
        "tanggal_daftar": "2022-07-06",
        "nomor_tanda_daftar": "003798.02/DJAI.PSE/07/2022",
        "qr_code": "https://pse.kominfo.go.id/storage/images/qr_code/419f08ff9e57b2ca5258c10302e9eb7d.png",
        "status_id": "TERDAFTAR",
        "sistem_elektronik_id": 4995
      }
    },
    {
      "type": "tdpseTerbit",
      "id": 5127,
      "attributes": {
        "nomor_pb_umku": "812010379286800000001",
        "nama": "MINISO APP",
        "website": "miniso.co.id",
        "sektor": "Sektor Perdagangan",
        "nama_perusahaan": "Miniso Internasional Compani",
        "tanggal_daftar": "2022-07-06",
        "nomor_tanda_daftar": "003798.01/DJAI.PSE/07/2022",
        "qr_code": "https://pse.kominfo.go.id/storage/images/qr_code/b298ffe6dd845d71c128e9cd0efd1a0c.png",
        "status_id": "TERDAFTAR",
        "sistem_elektronik_id": 4992
      }
    },
    {
      "type": "tdpseTerbit",
      "id": 5138,
      "attributes": {
        "nomor_pb_umku": "812021028053900000001",
        "nama": "BRAMBANG",
        "website": "brambang.com",
        "sektor": "Sektor Perdagangan",
        "nama_perusahaan": "BURSA INTERAKTIF GEMILANG",
        "tanggal_daftar": "2022-07-06",
        "nomor_tanda_daftar": "003797.01/DJAI.PSE/07/2022",
        "qr_code": "https://pse.kominfo.go.id/storage/images/qr_code/83e85f99bfa4f443ed68aea04958c82e.png",
        "status_id": "TERDAFTAR",
        "sistem_elektronik_id": 5001
      }
    },
    {
      "type": "tdpseTerbit",
      "id": 5128,
      "attributes": {
        "nomor_pb_umku": "912000125271700010001",
        "nama": "INDOFUND.ID",
        "website": "indofund.id",
        "sektor": "Sektor Keuangan",
        "nama_perusahaan": "BURSA AKSELERASI INDONESIA",
        "tanggal_daftar": "2022-07-06",
        "nomor_tanda_daftar": "003794.01/DJAI.PSE/07/2022",
        "qr_code": "https://pse.kominfo.go.id/storage/images/qr_code/9929a497b1d1db72f675faf6e383fd91.png",
        "status_id": "TERDAFTAR",
        "sistem_elektronik_id": 4991
      }
    },
    {
      "type": "tdpseTerbit",
      "id": 10943,
      "attributes": {
        "nomor_pb_umku": "310522004601800020001",
        "nama": "FILE ACADEMY",
        "website": "fileacademy.id",
        "sektor": "Sektor Teknologi Informasi dan Komunikasi",
        "nama_perusahaan": "FILE STUDIO INDONESIA",
        "tanggal_daftar": "2022-08-31",
        "nomor_tanda_daftar": "003793.01/DJAI.PSE/08/2022",
        "qr_code": "https://pse.kominfo.go.id/storage/images/qr_code/4c66344a9b94b439081b2619a1ffeef2.png",
        "status_id": "TERDAFTAR",
        "sistem_elektronik_id": 10751
      }
    },
    {
      "type": "tdpseTerbit",
      "id": 5140,
      "attributes": {
        "nomor_pb_umku": "120522001196600000001",
        "nama": "INPINJAMAN",
        "website": "inpinjaman.com",
        "sektor": "Sektor Keuangan",
        "nama_perusahaan": "KITA SIAP SEJAHTERA",
        "tanggal_daftar": "2022-07-06",
        "nomor_tanda_daftar": "003793.01/DJAI.PSE/07/2022",
        "qr_code": "https://pse.kominfo.go.id/storage/images/qr_code/404b2122acda1a7414d4528a745e481b.png",
        "status_id": "TERDAFTAR",
        "sistem_elektronik_id": 5003
      }
    },
    {
      "type": "tdpseTerbit",
      "id": 5150,
      "attributes": {
        "nomor_pb_umku": "124100022011700000001",
        "nama": "MEDIPLUS",
        "website": "mediplusindonesia.co.id",
        "sektor": "Sektor Kesehatan, Sektor Teknologi Informasi dan Komunikasi",
        "nama_perusahaan": "MEDIPLUS KARYA INDONESIA",
        "tanggal_daftar": "2022-07-06",
        "nomor_tanda_daftar": "003793.01/DJAI.PSE/07/2022",
        "qr_code": "https://pse.kominfo.go.id/storage/images/qr_code/61feb5c183ba8038a7744536bcfca896.png",
        "status_id": "TERDAFTAR",
        "sistem_elektronik_id": 5013
      }
    },
    {
      "type": "tdpseTerbit",
      "id": 5364,
      "attributes": {
        "nomor_pb_umku": "812020290271200000001",
        "nama": "KOTAMAYA",
        "website": "kotamaya.com",
        "sektor": "Sektor Perdagangan, Sektor Teknologi Informasi dan Komunikasi",
        "nama_perusahaan": "KOTA MAYA KREATIVINDO",
        "tanggal_daftar": "2022-07-12",
        "nomor_tanda_daftar": "003792.01/DJAI.PSE/07/2022",
        "qr_code": "https://pse.kominfo.go.id/storage/images/qr_code/a1586bbfa8f8e30b32da0d95d95a41c4.png",
        "status_id": "TERDAFTAR",
        "sistem_elektronik_id": 5235
      }
    },
    {
      "type": "tdpseTerbit",
      "id": 9030,
      "attributes": {
        "nomor_pb_umku": "812000484076100000001",
        "nama": "WWW.ACCOMMCAN.COM",
        "website": "accommcan.com",
        "sektor": "Sektor Perdagangan",
        "nama_perusahaan": "MANDARIN MEDIA INDONESIA",
        "tanggal_daftar": "2022-07-26",
        "nomor_tanda_daftar": "003790.01/DJAI.PSE/07/2022",
        "qr_code": "https://pse.kominfo.go.id/storage/images/qr_code/9add0659ffed9cfd0e76bad62e77c569.png",
        "status_id": "TERDAFTAR",
        "sistem_elektronik_id": 5138
      }
    }
  ]
}