{
  "meta": {
    "page": {
      "currentPage": 455,
      "from": 4541,
      "lastPage": 1080,
      "perPage": 10,
      "to": 4550,
      "total": 10793
    }
  },
  "data": [
    {
      "type": "tdpseTerbit",
      "id": 6260,
      "attributes": {
        "nomor_pb_umku": "912011409292100000001",
        "nama": "TUNAS AUCTION",
        "website": "tunasauction.tunasgroup.com",
        "sektor": "Sektor Perdagangan",
        "nama_perusahaan": "MEGA ARMADA SUDECO",
        "tanggal_daftar": "2022-07-18",
        "nomor_tanda_daftar": "004146.01/DJAI.PSE/07/2022",
        "qr_code": "https://pse.kominfo.go.id/storage/images/qr_code/9d02afdad868a45c0ffaf1ad972978d8.png",
        "status_id": "TERDAFTAR",
        "sistem_elektronik_id": 5712
      }
    },
    {
      "type": "tdpseTerbit",
      "id": 5540,
      "attributes": {
        "nomor_pb_umku": "020622003675100010001",
        "nama": "ABHAZEN CONSULTING",
        "website": "abhazen.com",
        "sektor": "Sektor Teknologi Informasi dan Komunikasi",
        "nama_perusahaan": "ABHA ZEN CONSULTING",
        "tanggal_daftar": "2022-07-14",
        "nomor_tanda_daftar": "004145.01/DJAI.PSE/07/2022",
        "qr_code": "https://pse.kominfo.go.id/storage/images/qr_code/21fd6040b29f2c29f55a49a24c31ab97.png",
        "status_id": "TERDAFTAR",
        "sistem_elektronik_id": 5405
      }
    },
    {
      "type": "tdpseTerbit",
      "id": 6040,
      "attributes": {
        "nomor_pb_umku": "191121003265800010002",
        "nama": "PT. BANK PERKREDITAN RAKYAT MUKOMUKO MAKMUR",
        "website": "bprmukomukomakmurgmail.wordpress.com",
        "sektor": "Sektor Keuangan",
        "nama_perusahaan": "BANK PERKREDITAN RAKYAT MUKOMUKO MAKMUR",
        "tanggal_daftar": "2022-07-18",
        "nomor_tanda_daftar": "004144.02/DJAI.PSE/07/2022",
        "qr_code": "https://pse.kominfo.go.id/storage/images/qr_code/1caf491cad134d2580026836dee640fb.png",
        "status_id": "TERDAFTAR",
        "sistem_elektronik_id": 5909
      }
    },
    {
      "type": "tdpseTerbit",
      "id": 5554,
      "attributes": {
        "nomor_pb_umku": "191121003265800010001",
        "nama": "PT BPR MUKOMUKO MAKMUR",
        "website": "-",
        "sektor": "Sektor Keuangan",
        "nama_perusahaan": "BANK PERKREDITAN RAKYAT MUKOMUKO MAKMUR",
        "tanggal_daftar": "2022-07-14",
        "nomor_tanda_daftar": "004144.01/DJAI.PSE/07/2022",
        "qr_code": "https://pse.kominfo.go.id/storage/images/qr_code/922fdbd953ebc28bc9887000e047a658.png",
        "status_id": "TERDAFTAR",
        "sistem_elektronik_id": 5420
      }
    },
    {
      "type": "tdpseTerbit",
      "id": 10698,
      "attributes": {
        "nomor_pb_umku": "912001108163900010023",
        "nama": "OWNERSOFFICIAL",
        "website": "ownersofficial.com",
        "sektor": "Sektor Perdagangan",
        "nama_perusahaan": "HYPEFAST KARYA NUSANTARA",
        "tanggal_daftar": "2022-08-26",
        "nomor_tanda_daftar": "004142.22/DJAI.PSE/08/2022",
        "qr_code": "https://pse.kominfo.go.id/storage/images/qr_code/a711a7b1cd9a7025fa764f9224700820.png",
        "status_id": "TERDAFTAR",
        "sistem_elektronik_id": 10532
      }
    },
    {
      "type": "tdpseTerbit",
      "id": 10697,
      "attributes": {
        "nomor_pb_umku": "912001108163900010022",
        "nama": "BONNELS ID",
        "website": "bonnels.id",
        "sektor": "Sektor Perdagangan",
        "nama_perusahaan": "HYPEFAST KARYA NUSANTARA",
        "tanggal_daftar": "2022-08-26",
        "nomor_tanda_daftar": "004142.21/DJAI.PSE/08/2022",
        "qr_code": "https://pse.kominfo.go.id/storage/images/qr_code/d2f2b0bfffeb44049a35563c41cc510e.png",
        "status_id": "TERDAFTAR",
        "sistem_elektronik_id": 10530
      }
    },
    {
      "type": "tdpseTerbit",
      "id": 10695,
      "attributes": {
        "nomor_pb_umku": "912001108163900010021",
        "nama": "CESSA NATURAL",
        "website": "cessanatural.com",
        "sektor": "Sektor Perdagangan",
        "nama_perusahaan": "HYPEFAST KARYA NUSANTARA",
        "tanggal_daftar": "2022-08-26",
        "nomor_tanda_daftar": "004142.20/DJAI.PSE/08/2022",
        "qr_code": "https://pse.kominfo.go.id/storage/images/qr_code/5625308ffd1cbd9e9d91e24364acdb1b.png",
        "status_id": "TERDAFTAR",
        "sistem_elektronik_id": 10529
      }
    },
    {
      "type": "tdpseTerbit",
      "id": 10693,
      "attributes": {
        "nomor_pb_umku": "912001108163900010020",
        "nama": "BOHOPANNA EUROPE",
        "website": "bohopannaeurope.com",
        "sektor": "Sektor Perdagangan",
        "nama_perusahaan": "HYPEFAST KARYA NUSANTARA",
        "tanggal_daftar": "2022-08-26",
        "nomor_tanda_daftar": "004142.19/DJAI.PSE/08/2022",
        "qr_code": "https://pse.kominfo.go.id/storage/images/qr_code/cd8ec159615de1ac23c43f607b9f47b9.png",
        "status_id": "TERDAFTAR",
        "sistem_elektronik_id": 10526
      }
    },
    {
      "type": "tdpseTerbit",
      "id": 10692,
      "attributes": {
        "nomor_pb_umku": "912001108163900010019",
        "nama": "BOHOPANNA",
        "website": "bohopanna.com",
        "sektor": "Sektor Perdagangan",
        "nama_perusahaan": "HYPEFAST KARYA NUSANTARA",
        "tanggal_daftar": "2022-08-26",
        "nomor_tanda_daftar": "004142.18/DJAI.PSE/08/2022",
        "qr_code": "https://pse.kominfo.go.id/storage/images/qr_code/6e6f1e77f82c1a0de1a75c3f2ad21599.png",
        "status_id": "TERDAFTAR",
        "sistem_elektronik_id": 10525
      }
    },
    {
      "type": "tdpseTerbit",
      "id": 10691,
      "attributes": {
        "nomor_pb_umku": "912001108163900010018",
        "nama": "NOORE GLOBAL",
        "website": "nooresportglobal.com",
        "sektor": "Sektor Perdagangan",
        "nama_perusahaan": "HYPEFAST KARYA NUSANTARA",
        "tanggal_daftar": "2022-08-23",
        "nomor_tanda_daftar": "004142.17/DJAI.PSE/08/2022",
        "qr_code": "https://pse.kominfo.go.id/storage/images/qr_code/636008257d1571a3a48e65e9b28f6d72.png",
        "status_id": "TERDAFTAR",
        "sistem_elektronik_id": 10524
      }
    }
  ]
}