{
  "meta": {
    "page": {
      "currentPage": 456,
      "from": 4551,
      "lastPage": 1074,
      "perPage": 10,
      "to": 4560,
      "total": 10738
    }
  },
  "data": [
    {
      "type": "tdpseTerbit",
      "id": 5509,
      "attributes": {
        "nomor_pb_umku": "812011702350700050001",
        "nama": "VIVA MEDIKA",
        "website": "Vivamedika.id",
        "sektor": "Sektor Kesehatan",
        "nama_perusahaan": "VIVA MEDIKA",
        "tanggal_daftar": "2022-07-13",
        "nomor_tanda_daftar": "004120.01/DJAI.PSE/07/2022",
        "qr_code": "https://pse.kominfo.go.id/storage/images/qr_code/a9e0d2d14a7dd2723b7382aa9ddb60c5.png",
        "status_id": "TERDAFTAR",
        "sistem_elektronik_id": 5372
      }
    },
    {
      "type": "tdpseTerbit",
      "id": 8851,
      "attributes": {
        "nomor_pb_umku": "121700342281800030003",
        "nama": "VEXASCAN.COM",
        "website": "-",
        "sektor": "Sektor Teknologi Informasi dan Komunikasi",
        "nama_perusahaan": "VEXANIUM TEKNOLOGI NUSANTARA",
        "tanggal_daftar": "2022-07-22",
        "nomor_tanda_daftar": "004118.02/DJAI.PSE/07/2022",
        "qr_code": "https://pse.kominfo.go.id/storage/images/qr_code/5c37e611e6994354a836c88322cabe82.png",
        "status_id": "TERDAFTAR",
        "sistem_elektronik_id": 8757
      }
    },
    {
      "type": "tdpseTerbit",
      "id": 8446,
      "attributes": {
        "nomor_pb_umku": "121700342281800030002",
        "nama": "VEXANIUM",
        "website": "vexanium.com",
        "sektor": "Sektor Teknologi Informasi dan Komunikasi",
        "nama_perusahaan": "VEXANIUM TEKNOLOGI NUSANTARA",
        "tanggal_daftar": "2022-07-21",
        "nomor_tanda_daftar": "004118.01/DJAI.PSE/07/2022",
        "qr_code": "https://pse.kominfo.go.id/storage/images/qr_code/84a5d46bccd2c34563fe4c002aaf094f.png",
        "status_id": "TERDAFTAR",
        "sistem_elektronik_id": 8365
      }
    },
    {
      "type": "tdpseTerbit",
      "id": 5834,
      "attributes": {
        "nomor_pb_umku": "022030270200200000001",
        "nama": "VIP VOUCHER",
        "website": "vipvoucher.id",
        "sektor": "Sektor Perdagangan, Sektor Teknologi Informasi dan Komunikasi",
        "nama_perusahaan": "VOUCHER IMPERIAL PERSADA",
        "tanggal_daftar": "2022-07-15",
        "nomor_tanda_daftar": "004117.01/DJAI.PSE/07/2022",
        "qr_code": "https://pse.kominfo.go.id/storage/images/qr_code/0792d71fbeef317cc4e01445c40b0fcd.png",
        "status_id": "TERDAFTAR",
        "sistem_elektronik_id": 5693
      }
    },
    {
      "type": "tdpseTerbit",
      "id": 6473,
      "attributes": {
        "nomor_pb_umku": "200422001944500010001",
        "nama": "HTTPS://ID.ALLIANZGI.COM/",
        "website": "id.allianzgi.com",
        "sektor": "Sektor Keuangan",
        "nama_perusahaan": "ALLIANZ GLOBAL INVESTORS ASSET MANAGEMENT INDONESIA",
        "tanggal_daftar": "2022-07-18",
        "nomor_tanda_daftar": "004116.01/DJAI.PSE/07/2022",
        "qr_code": "https://pse.kominfo.go.id/storage/images/qr_code/54419f3e3cc0fe681903a2ad071e5c31.png",
        "status_id": "TERDAFTAR",
        "sistem_elektronik_id": 6336
      }
    },
    {
      "type": "tdpseTerbit",
      "id": 8581,
      "attributes": {
        "nomor_pb_umku": "123700245186900000006",
        "nama": "SIMPELPAS",
        "website": "-",
        "sektor": "Sektor Perdagangan",
        "nama_perusahaan": "TERA KREASI SEMESTA",
        "tanggal_daftar": "2022-07-21",
        "nomor_tanda_daftar": "004115.06/DJAI.PSE/07/2022",
        "qr_code": "https://pse.kominfo.go.id/storage/images/qr_code/024cb30cefaf9374c9a719d624106fac.png",
        "status_id": "TERDAFTAR",
        "sistem_elektronik_id": 8492
      }
    },
    {
      "type": "tdpseTerbit",
      "id": 5513,
      "attributes": {
        "nomor_pb_umku": "123700245186900000005",
        "nama": "BAKULAN ELEKTRIK",
        "website": "bakulanelektrik.com",
        "sektor": "Sektor Perdagangan",
        "nama_perusahaan": "TERA KREASI SEMESTA",
        "tanggal_daftar": "2022-07-13",
        "nomor_tanda_daftar": "004115.05/DJAI.PSE/07/2022",
        "qr_code": "https://pse.kominfo.go.id/storage/images/qr_code/4cc5e84c353cc1b6726485fbb6e6b75b.png",
        "status_id": "TERDAFTAR",
        "sistem_elektronik_id": 5375
      }
    },
    {
      "type": "tdpseTerbit",
      "id": 5511,
      "attributes": {
        "nomor_pb_umku": "123700245186900000004",
        "nama": "SAHABATBAYAR",
        "website": "sahabatbayar.com",
        "sektor": "Sektor Perdagangan",
        "nama_perusahaan": "TERA KREASI SEMESTA",
        "tanggal_daftar": "2022-07-13",
        "nomor_tanda_daftar": "004115.04/DJAI.PSE/07/2022",
        "qr_code": "https://pse.kominfo.go.id/storage/images/qr_code/a87984384837444ca10fd7498c90a283.png",
        "status_id": "TERDAFTAR",
        "sistem_elektronik_id": 5373
      }
    },
    {
      "type": "tdpseTerbit",
      "id": 5506,
      "attributes": {
        "nomor_pb_umku": "123700245186900000003",
        "nama": "BATUSTORE",
        "website": "batustore.com",
        "sektor": "Sektor Perdagangan",
        "nama_perusahaan": "TERA KREASI SEMESTA",
        "tanggal_daftar": "2022-07-13",
        "nomor_tanda_daftar": "004115.03/DJAI.PSE/07/2022",
        "qr_code": "https://pse.kominfo.go.id/storage/images/qr_code/9d6a1b1705a926446e1b4fd56aaed3e1.png",
        "status_id": "TERDAFTAR",
        "sistem_elektronik_id": 5369
      }
    },
    {
      "type": "tdpseTerbit",
      "id": 5504,
      "attributes": {
        "nomor_pb_umku": "123700245186900000002",
        "nama": "CUAN AE",
        "website": "cuanae.com",
        "sektor": "Sektor Perdagangan",
        "nama_perusahaan": "TERA KREASI SEMESTA",
        "tanggal_daftar": "2022-07-13",
        "nomor_tanda_daftar": "004115.02/DJAI.PSE/07/2022",
        "qr_code": "https://pse.kominfo.go.id/storage/images/qr_code/939aba58c53263a8beb2f8a399433bf2.png",
        "status_id": "TERDAFTAR",
        "sistem_elektronik_id": 5367
      }
    }
  ]
}