{
  "meta": {
    "page": {
      "currentPage": 457,
      "from": 4561,
      "lastPage": 1113,
      "perPage": 10,
      "to": 4570,
      "total": 11124
    }
  },
  "data": [
    {
      "type": "tdpseTerbit",
      "id": 6537,
      "attributes": {
        "nomor_pb_umku": "912000886154500010001",
        "nama": "BANKING.NET",
        "website": "-",
        "sektor": "Sektor Keuangan",
        "nama_perusahaan": "BANK PERKREDITAN RAKYAT ARTHA NUGRAHA",
        "tanggal_daftar": "2022-07-19",
        "nomor_tanda_daftar": "004282.01/DJAI.PSE/07/2022",
        "qr_code": "https://pse.kominfo.go.id/storage/images/qr_code/7c919fa01359cafddfaa4b77e75fb5a1.png",
        "status_id": "TERDAFTAR",
        "sistem_elektronik_id": 6402
      }
    },
    {
      "type": "tdpseTerbit",
      "id": 5818,
      "attributes": {
        "nomor_pb_umku": "150722000480600000001",
        "nama": "AVANTEE",
        "website": "avantee.co.id",
        "sektor": "Sektor Keuangan",
        "nama_perusahaan": "GRHA DANA BERSAMA",
        "tanggal_daftar": "2022-07-15",
        "nomor_tanda_daftar": "004281.01/DJAI.PSE/07/2022",
        "qr_code": "https://pse.kominfo.go.id/storage/images/qr_code/b866be67bf35a5dfe945097305d4daa2.png",
        "status_id": "TERDAFTAR",
        "sistem_elektronik_id": 5677
      }
    },
    {
      "type": "tdpseTerbit",
      "id": 12241,
      "attributes": {
        "nomor_pb_umku": "812000172108700080084",
        "nama": "SAMSUNG FREE",
        "website": "-",
        "sektor": "Sektor Teknologi Informasi dan Komunikasi",
        "nama_perusahaan": "SAMSUNG ELECTRONICS INDONESIA",
        "tanggal_daftar": "2022-11-11",
        "nomor_tanda_daftar": "004280.30/DJAI.PSE/11/2022",
        "qr_code": "https://pse.kominfo.go.id/storage/images/qr_code/223ab34f1d0081e6e1739150a222cb96.png",
        "status_id": "TERDAFTAR",
        "sistem_elektronik_id": 12037
      }
    },
    {
      "type": "tdpseTerbit",
      "id": 12240,
      "attributes": {
        "nomor_pb_umku": "812000172108700080083",
        "nama": "SAMSUNG GLOBAL GOALS",
        "website": "-",
        "sektor": "Sektor Teknologi Informasi dan Komunikasi",
        "nama_perusahaan": "SAMSUNG ELECTRONICS INDONESIA",
        "tanggal_daftar": "2022-11-11",
        "nomor_tanda_daftar": "004280.29/DJAI.PSE/11/2022",
        "qr_code": "https://pse.kominfo.go.id/storage/images/qr_code/46556ce579b3f6f6d1f9ef09df39ff6e.png",
        "status_id": "TERDAFTAR",
        "sistem_elektronik_id": 12036
      }
    },
    {
      "type": "tdpseTerbit",
      "id": 12220,
      "attributes": {
        "nomor_pb_umku": "812000172108700080082",
        "nama": "SAMSUNG CARE +",
        "website": "-",
        "sektor": "Sektor Teknologi Informasi dan Komunikasi",
        "nama_perusahaan": "SAMSUNG ELECTRONICS INDONESIA",
        "tanggal_daftar": "2022-11-10",
        "nomor_tanda_daftar": "004280.28/DJAI.PSE/11/2022",
        "qr_code": "https://pse.kominfo.go.id/storage/images/qr_code/aa2fb090a93f1695752e9f8bfd315cdc.png",
        "status_id": "TERDAFTAR",
        "sistem_elektronik_id": 12017
      }
    },
    {
      "type": "tdpseTerbit",
      "id": 12219,
      "attributes": {
        "nomor_pb_umku": "812000172108700080081",
        "nama": "SAMSUNG INTERNET",
        "website": "-",
        "sektor": "Sektor Teknologi Informasi dan Komunikasi",
        "nama_perusahaan": "SAMSUNG ELECTRONICS INDONESIA",
        "tanggal_daftar": "2022-11-10",
        "nomor_tanda_daftar": "004280.27/DJAI.PSE/11/2022",
        "qr_code": "https://pse.kominfo.go.id/storage/images/qr_code/24e28a58035314e50d9be12a32d9c6ef.png",
        "status_id": "TERDAFTAR",
        "sistem_elektronik_id": 12015
      }
    },
    {
      "type": "tdpseTerbit",
      "id": 12218,
      "attributes": {
        "nomor_pb_umku": "812000172108700080080",
        "nama": "SAMSUNG ART STORE",
        "website": "-",
        "sektor": "Sektor Teknologi Informasi dan Komunikasi",
        "nama_perusahaan": "SAMSUNG ELECTRONICS INDONESIA",
        "tanggal_daftar": "2022-11-10",
        "nomor_tanda_daftar": "004280.26/DJAI.PSE/11/2022",
        "qr_code": "https://pse.kominfo.go.id/storage/images/qr_code/a7d4288abfa7fdbfc255dbf3e8b35cd0.png",
        "status_id": "TERDAFTAR",
        "sistem_elektronik_id": 12014
      }
    },
    {
      "type": "tdpseTerbit",
      "id": 12198,
      "attributes": {
        "nomor_pb_umku": "812000172108700080074",
        "nama": "SAMSUNG PASS",
        "website": "-",
        "sektor": "Sektor Teknologi Informasi dan Komunikasi",
        "nama_perusahaan": "SAMSUNG ELECTRONICS INDONESIA",
        "tanggal_daftar": "2022-11-09",
        "nomor_tanda_daftar": "004280.25/DJAI.PSE/11/2022",
        "qr_code": "https://pse.kominfo.go.id/storage/images/qr_code/9365f3220470e2eaf62493d7ece4fccf.png",
        "status_id": "TERDAFTAR",
        "sistem_elektronik_id": 11994
      }
    },
    {
      "type": "tdpseTerbit",
      "id": 12197,
      "attributes": {
        "nomor_pb_umku": "812000172108700080073",
        "nama": "CMC",
        "website": "-",
        "sektor": "Sektor Teknologi Informasi dan Komunikasi",
        "nama_perusahaan": "SAMSUNG ELECTRONICS INDONESIA",
        "tanggal_daftar": "2022-11-09",
        "nomor_tanda_daftar": "004280.24/DJAI.PSE/11/2022",
        "qr_code": "https://pse.kominfo.go.id/storage/images/qr_code/7a9a9cb06945674777cf2779d1c3dedc.png",
        "status_id": "TERDAFTAR",
        "sistem_elektronik_id": 11993
      }
    },
    {
      "type": "tdpseTerbit",
      "id": 12196,
      "attributes": {
        "nomor_pb_umku": "812000172108700080072",
        "nama": "SAMSUNG CLOUD",
        "website": "-",
        "sektor": "Sektor Teknologi Informasi dan Komunikasi",
        "nama_perusahaan": "SAMSUNG ELECTRONICS INDONESIA",
        "tanggal_daftar": "2022-11-09",
        "nomor_tanda_daftar": "004280.23/DJAI.PSE/11/2022",
        "qr_code": "https://pse.kominfo.go.id/storage/images/qr_code/51d7388ab37a5cabc9de6b2e77a07b59.png",
        "status_id": "TERDAFTAR",
        "sistem_elektronik_id": 11992
      }
    }
  ]
}