{
  "meta": {
    "page": {
      "currentPage": 458,
      "from": 4571,
      "lastPage": 949,
      "perPage": 10,
      "to": 4580,
      "total": 9489
    }
  },
  "data": [
    {
      "type": "tdpseTerbit",
      "id": 4475,
      "attributes": {
        "nomor_pb_umku": null,
        "nama": "SICATRA",
        "website": "idwebhost.com",
        "sektor": "Sektor Teknologi Informasi dan Komunikasi",
        "nama_perusahaan": "SAIFU RAMDHANI",
        "tanggal_daftar": "2022-05-17",
        "nomor_tanda_daftar": "002701.01/DJAI.PSE/05/2022",
        "qr_code": "https://pse.kominfo.go.id/storage/images/qr_code/900526a1bd527edc1d2a89ae1a1e77a1.png",
        "status_id": "TERDAFTAR",
        "sistem_elektronik_id": 4459
      }
    },
    {
      "type": "tdpseTerbit",
      "id": 4461,
      "attributes": {
        "nomor_pb_umku": null,
        "nama": "Hadeka Multisolution",
        "website": "hdk-solution.id",
        "sektor": "Sektor Perdagangan, Sektor Teknologi Informasi dan Komunikasi",
        "nama_perusahaan": "HADEKA MULTISOLUTION",
        "tanggal_daftar": "2022-05-20",
        "nomor_tanda_daftar": "002700.02/DJAI.PSE/05/2022",
        "qr_code": "https://pse.kominfo.go.id/storage/images/qr_code/2ddc7dd9df6fa8b9b41ece466ab23d79.png",
        "status_id": "TERDAFTAR",
        "sistem_elektronik_id": 4445
      }
    },
    {
      "type": "tdpseTerbit",
      "id": 4460,
      "attributes": {
        "nomor_pb_umku": null,
        "nama": "Hdk.id",
        "website": "hdk-solution.id",
        "sektor": "Sektor Perdagangan, Sektor Teknologi Informasi dan Komunikasi",
        "nama_perusahaan": "HADEKA MULTISOLUTION",
        "tanggal_daftar": "2022-05-17",
        "nomor_tanda_daftar": "002700.01/DJAI.PSE/05/2022",
        "qr_code": "https://pse.kominfo.go.id/storage/images/qr_code/8dd27a8583c4babb16d892ec481b3a31.png",
        "status_id": "TERDAFTAR",
        "sistem_elektronik_id": 4444
      }
    },
    {
      "type": "tdpseTerbit",
      "id": 4474,
      "attributes": {
        "nomor_pb_umku": null,
        "nama": "PSE",
        "website": "-",
        "sektor": "Sektor Keuangan, Sektor Pangan, Sektor Perdagangan",
        "nama_perusahaan": "CETEKU KARYA UTAMA",
        "tanggal_daftar": "2022-05-17",
        "nomor_tanda_daftar": "002699.01/DJAI.PSE/05/2022",
        "qr_code": "https://pse.kominfo.go.id/storage/images/qr_code/dfc14b2803068fc4c92d367cc7883559.png",
        "status_id": "TERDAFTAR",
        "sistem_elektronik_id": 4458
      }
    },
    {
      "type": "tdpseTerbit",
      "id": 4153,
      "attributes": {
        "nomor_pb_umku": null,
        "nama": "Uninet Marketing Services",
        "website": "www.uninetmg.com",
        "sektor": "Sektor Teknologi Informasi dan Komunikasi",
        "nama_perusahaan": "UNINET MEDIA GLOBAL",
        "tanggal_daftar": "2022-05-16",
        "nomor_tanda_daftar": "002698.01/DJAI.PSE/05/2022",
        "qr_code": "https://pse.kominfo.go.id/storage/images/qr_code/d3df7974af71790b81c680bc38fe3966.png",
        "status_id": "TERDAFTAR",
        "sistem_elektronik_id": 4457
      }
    },
    {
      "type": "tdpseTerbit",
      "id": 4472,
      "attributes": {
        "nomor_pb_umku": null,
        "nama": "Pasar Mikro",
        "website": "www.pasarmikro.id",
        "sektor": "Sektor Perdagangan, Sektor Teknologi Informasi dan Komunikasi",
        "nama_perusahaan": "PASAR MIKRO GLOBAL",
        "tanggal_daftar": "2022-05-15",
        "nomor_tanda_daftar": "002697.01/DJAI.PSE/05/2022",
        "qr_code": "https://pse.kominfo.go.id/storage/images/qr_code/0599c9dc8590fcc56c7862454eb48c6b.png",
        "status_id": "TERDAFTAR",
        "sistem_elektronik_id": 4456
      }
    },
    {
      "type": "tdpseTerbit",
      "id": 4471,
      "attributes": {
        "nomor_pb_umku": null,
        "nama": "KORNET INTER MEDIA",
        "website": "-",
        "sektor": "Sektor Teknologi Informasi dan Komunikasi",
        "nama_perusahaan": "YUSUF FAISAL",
        "tanggal_daftar": "2022-05-15",
        "nomor_tanda_daftar": "002696.01/DJAI.PSE/05/2022",
        "qr_code": "https://pse.kominfo.go.id/storage/images/qr_code/ea8903f1ab661388b8b830c38c1b3a3e.png",
        "status_id": "TERDAFTAR",
        "sistem_elektronik_id": 4455
      }
    },
    {
      "type": "tdpseTerbit",
      "id": 4470,
      "attributes": {
        "nomor_pb_umku": null,
        "nama": "SAKTI",
        "website": "ptskk.id",
        "sektor": "Sektor Teknologi Informasi dan Komunikasi",
        "nama_perusahaan": "SAKTI KINERJA KOLABORASINDO",
        "tanggal_daftar": "2022-05-14",
        "nomor_tanda_daftar": "002695.01/DJAI.PSE/05/2022",
        "qr_code": "https://pse.kominfo.go.id/storage/images/qr_code/0b0e7809c1d55d47c96025f28eb656cd.png",
        "status_id": "TERDAFTAR",
        "sistem_elektronik_id": 4454
      }
    },
    {
      "type": "tdpseTerbit",
      "id": 4469,
      "attributes": {
        "nomor_pb_umku": null,
        "nama": "TANA HULU TERBAIK",
        "website": "-",
        "sektor": "Sektor Pertahanan dan Keamanan",
        "nama_perusahaan": "TANA HULU TERBAIK",
        "tanggal_daftar": "2022-05-13",
        "nomor_tanda_daftar": "002694.01/DJAI.PSE/05/2022",
        "qr_code": "https://pse.kominfo.go.id/storage/images/qr_code/0c8793d92f90dac130702e9ecfd3f948.png",
        "status_id": "TERDAFTAR",
        "sistem_elektronik_id": 4453
      }
    },
    {
      "type": "tdpseTerbit",
      "id": 4468,
      "attributes": {
        "nomor_pb_umku": null,
        "nama": "Dishserve",
        "website": "www.dishserve.com",
        "sektor": "Sektor Perdagangan",
        "nama_perusahaan": "KULINER INOVATIF INDONESIA",
        "tanggal_daftar": "2022-05-13",
        "nomor_tanda_daftar": "002693.01/DJAI.PSE/05/2022",
        "qr_code": "https://pse.kominfo.go.id/storage/images/qr_code/621d3ae045f8890fc5c0fb23a1873b14.png",
        "status_id": "TERDAFTAR",
        "sistem_elektronik_id": 4452
      }
    }
  ]
}