{
  "meta": {
    "page": {
      "currentPage": 459,
      "from": 4581,
      "lastPage": 981,
      "perPage": 10,
      "to": 4590,
      "total": 9802
    }
  },
  "data": [
    {
      "type": "tdpseTerbit",
      "id": 4640,
      "attributes": {
        "nomor_pb_umku": "912030720189300010002",
        "nama": "ACC.CO.ID (WEBSITE RESMI ASTRA CREDIT COMPANIES)",
        "website": "acc.co.id",
        "sektor": "Sektor Keuangan",
        "nama_perusahaan": "ASTRA SEDAYA FINANCE",
        "tanggal_daftar": "2022-06-21",
        "nomor_tanda_daftar": "003299.01/DJAI.PSE/06/2022",
        "qr_code": "https://pse.kominfo.go.id/storage/images/qr_code/55a703997260fce8dead6e07d78e72a2.png",
        "status_id": "TERDAFTAR",
        "sistem_elektronik_id": 4600
      }
    },
    {
      "type": "tdpseTerbit",
      "id": 4639,
      "attributes": {
        "nomor_pb_umku": "812010285299800010001",
        "nama": "WEBSITE PERUSAHAAN",
        "website": "-",
        "sektor": "Sektor Teknologi Informasi dan Komunikasi",
        "nama_perusahaan": "JASA TEKNOLOGI INFORMASI IBM",
        "tanggal_daftar": "2022-06-21",
        "nomor_tanda_daftar": "003297.01/DJAI.PSE/06/2022",
        "qr_code": "https://pse.kominfo.go.id/storage/images/qr_code/6495fd423341a13fee01b321f10d054c.png",
        "status_id": "TERDAFTAR",
        "sistem_elektronik_id": 4598
      }
    },
    {
      "type": "tdpseTerbit",
      "id": 4983,
      "attributes": {
        "nomor_pb_umku": "200622006401700000002",
        "nama": "XTOKO",
        "website": "XTOKO.CO",
        "sektor": "Sektor Teknologi Informasi dan Komunikasi",
        "nama_perusahaan": "TOKO NFT NASIONAL",
        "tanggal_daftar": "2022-06-30",
        "nomor_tanda_daftar": "003293.02/DJAI.PSE/06/2022",
        "qr_code": "https://pse.kominfo.go.id/storage/images/qr_code/954d00accc1f2da97a04567eec962021.png",
        "status_id": "TERDAFTAR",
        "sistem_elektronik_id": 4851
      }
    },
    {
      "type": "tdpseTerbit",
      "id": 4629,
      "attributes": {
        "nomor_pb_umku": "200622006401700000001",
        "nama": "TOKO NFT",
        "website": "tokonft.shop",
        "sektor": "Sektor Teknologi Informasi dan Komunikasi",
        "nama_perusahaan": "TOKO NFT NASIONAL",
        "tanggal_daftar": "2022-06-20",
        "nomor_tanda_daftar": "003293.01/DJAI.PSE/06/2022",
        "qr_code": "https://pse.kominfo.go.id/storage/images/qr_code/096d08c3a46e0db69a61aad053844ef9.png",
        "status_id": "TERDAFTAR",
        "sistem_elektronik_id": 4589
      }
    },
    {
      "type": "tdpseTerbit",
      "id": 4630,
      "attributes": {
        "nomor_pb_umku": "300522005835100040001",
        "nama": "HOKIGOLD (PREMIUM EXPERT ADVISOR SOFTWARE FOR TRADING)",
        "website": "pthoki.id",
        "sektor": "Sektor Perdagangan",
        "nama_perusahaan": "HEXA OKE KREATIF INDONESIA",
        "tanggal_daftar": "2022-06-20",
        "nomor_tanda_daftar": "003292.01/DJAI.PSE/06/2022",
        "qr_code": "https://pse.kominfo.go.id/storage/images/qr_code/c079c2fed062cfcdcf8cd5ebaeed0f25.png",
        "status_id": "TERDAFTAR",
        "sistem_elektronik_id": 4590
      }
    },
    {
      "type": "tdpseTerbit",
      "id": 4636,
      "attributes": {
        "nomor_pb_umku": "912020235143900010001",
        "nama": "MCNI",
        "website": "m-cni.com",
        "sektor": "Sektor Perdagangan",
        "nama_perusahaan": "CITRA NUSA INSAN CEMERLANG",
        "tanggal_daftar": "2022-06-21",
        "nomor_tanda_daftar": "003285.01/DJAI.PSE/06/2022",
        "qr_code": "https://pse.kominfo.go.id/storage/images/qr_code/96ded4db637cae4544abe524e7d1da24.png",
        "status_id": "TERDAFTAR",
        "sistem_elektronik_id": 4597
      }
    },
    {
      "type": "tdpseTerbit",
      "id": 4627,
      "attributes": {
        "nomor_pb_umku": "022010727086300010001",
        "nama": "WISE",
        "website": "wise.com",
        "sektor": "Sektor Keuangan",
        "nama_perusahaan": "WISE PAYMENTS INDONESIA",
        "tanggal_daftar": "2022-06-20",
        "nomor_tanda_daftar": "003282.01/DJAI.PSE/06/2022",
        "qr_code": "https://pse.kominfo.go.id/storage/images/qr_code/859cb6c55d8e2000e3af95e19b2d78fc.png",
        "status_id": "TERDAFTAR",
        "sistem_elektronik_id": 4587
      }
    },
    {
      "type": "tdpseTerbit",
      "id": 4624,
      "attributes": {
        "nomor_pb_umku": "020921003480600010001",
        "nama": "KALTENGONLINE",
        "website": "kaltengonline.com",
        "sektor": "Sektor Teknologi Informasi dan Komunikasi",
        "nama_perusahaan": "SARANA BERITA NUSANTARA",
        "tanggal_daftar": "2022-06-20",
        "nomor_tanda_daftar": "003281.01/DJAI.PSE/06/2022",
        "qr_code": "https://pse.kominfo.go.id/storage/images/qr_code/0fe45d3731c29c780ec65c888324ec8c.png",
        "status_id": "TERDAFTAR",
        "sistem_elektronik_id": 4585
      }
    },
    {
      "type": "tdpseTerbit",
      "id": 4727,
      "attributes": {
        "nomor_pb_umku": "812021521153800010004",
        "nama": "TISI",
        "website": "tisi.id",
        "sektor": "Sektor Teknologi Informasi dan Komunikasi",
        "nama_perusahaan": "DIKA & KATON",
        "tanggal_daftar": "2022-06-24",
        "nomor_tanda_daftar": "003277.01/DJAI.PSE/06/2022",
        "qr_code": "https://pse.kominfo.go.id/storage/images/qr_code/f9470dae9c16cb636cc1cb211338b621.png",
        "status_id": "TERDAFTAR",
        "sistem_elektronik_id": 4679
      }
    },
    {
      "type": "tdpseTerbit",
      "id": 10078,
      "attributes": {
        "nomor_pb_umku": "022010614341800070010",
        "nama": "TKDN #TMS#",
        "website": "tronfleet.com",
        "sektor": "Sektor Transportasi, Sektor Teknologi Informasi dan Komunikasi",
        "nama_perusahaan": "TEKNOLOGI KARYA DIGITAL NUSA",
        "tanggal_daftar": "2022-08-09",
        "nomor_tanda_daftar": "003273.10/DJAI.PSE/08/2022",
        "qr_code": "https://pse.kominfo.go.id/storage/images/qr_code/401340c1b371f4e15770ed8a227b3c10.png",
        "status_id": "TERDAFTAR",
        "sistem_elektronik_id": 9967
      }
    }
  ]
}