{
  "meta": {
    "page": {
      "currentPage": 460,
      "from": 4591,
      "lastPage": 1001,
      "perPage": 10,
      "to": 4600,
      "total": 10002
    }
  },
  "data": [
    {
      "type": "tdpseTerbit",
      "id": 4777,
      "attributes": {
        "nomor_pb_umku": "128600014006500000002",
        "nama": "ASRONET",
        "website": "asro.net",
        "sektor": "Sektor Perdagangan, Sektor Teknologi Informasi dan Komunikasi",
        "nama_perusahaan": "ASEP ROHIMAT",
        "tanggal_daftar": "2022-06-26",
        "nomor_tanda_daftar": "003462.02/DJAI.PSE/06/2022",
        "qr_code": "https://pse.kominfo.go.id/storage/images/qr_code/1cfb14ecb01758862b80ee2b1c59b9db.png",
        "status_id": "TERDAFTAR",
        "sistem_elektronik_id": 4722
      }
    },
    {
      "type": "tdpseTerbit",
      "id": 4776,
      "attributes": {
        "nomor_pb_umku": "128600014006500000001",
        "nama": "YOI",
        "website": "asro.net",
        "sektor": "Sektor Perdagangan",
        "nama_perusahaan": "ASEP ROHIMAT",
        "tanggal_daftar": "2022-06-26",
        "nomor_tanda_daftar": "003462.01/DJAI.PSE/06/2022",
        "qr_code": "https://pse.kominfo.go.id/storage/images/qr_code/cc900467877a9d14a3bc7d7f93f1b7a8.png",
        "status_id": "TERDAFTAR",
        "sistem_elektronik_id": 4721
      }
    },
    {
      "type": "tdpseTerbit",
      "id": 4774,
      "attributes": {
        "nomor_pb_umku": "090322005391200010003",
        "nama": "BERDARING INDONESIA",
        "website": "-",
        "sektor": "Sektor Teknologi Informasi dan Komunikasi",
        "nama_perusahaan": "BERDARING INDONESIA",
        "tanggal_daftar": "2022-06-25",
        "nomor_tanda_daftar": "003456.03/DJAI.PSE/06/2022",
        "qr_code": "https://pse.kominfo.go.id/storage/images/qr_code/731d0e8a0a806b37c2c321b54d9ec584.png",
        "status_id": "TERDAFTAR",
        "sistem_elektronik_id": 4719
      }
    },
    {
      "type": "tdpseTerbit",
      "id": 4773,
      "attributes": {
        "nomor_pb_umku": "090322005391200010002",
        "nama": "SISTEM INTEGRASI PELAYANAN DESA (SIPDESA)",
        "website": "-",
        "sektor": "Sektor Teknologi Informasi dan Komunikasi",
        "nama_perusahaan": "BERDARING INDONESIA",
        "tanggal_daftar": "2022-06-25",
        "nomor_tanda_daftar": "003456.02/DJAI.PSE/06/2022",
        "qr_code": "https://pse.kominfo.go.id/storage/images/qr_code/27a8ecbc2a68b51a81df6efa63c9ee18.png",
        "status_id": "TERDAFTAR",
        "sistem_elektronik_id": 4718
      }
    },
    {
      "type": "tdpseTerbit",
      "id": 4772,
      "attributes": {
        "nomor_pb_umku": "090322005391200010001",
        "nama": "BERDARING.COM",
        "website": "berdaring.com",
        "sektor": "Sektor Perdagangan, Sektor Teknologi Informasi dan Komunikasi",
        "nama_perusahaan": "BERDARING INDONESIA",
        "tanggal_daftar": "2022-06-25",
        "nomor_tanda_daftar": "003456.01/DJAI.PSE/06/2022",
        "qr_code": "https://pse.kominfo.go.id/storage/images/qr_code/c8a2172bfc50e5d3a6e9692dc1e81d4c.png",
        "status_id": "TERDAFTAR",
        "sistem_elektronik_id": 4717
      }
    },
    {
      "type": "tdpseTerbit",
      "id": 4767,
      "attributes": {
        "nomor_pb_umku": "024101023293400000001",
        "nama": "CARIBOSS",
        "website": "cariboss.id",
        "sektor": "Sektor Teknologi Informasi dan Komunikasi",
        "nama_perusahaan": "APLIKASI CARI BOS",
        "tanggal_daftar": "2022-06-25",
        "nomor_tanda_daftar": "003454.01/DJAI.PSE/06/2022",
        "qr_code": "https://pse.kominfo.go.id/storage/images/qr_code/ae2ecd0752b556c769388f6ea2167cf3.png",
        "status_id": "TERDAFTAR",
        "sistem_elektronik_id": 4713
      }
    },
    {
      "type": "tdpseTerbit",
      "id": 4769,
      "attributes": {
        "nomor_pb_umku": "022010829221600020002",
        "nama": "ELASTIS",
        "website": "elastis.id",
        "sektor": "Sektor Teknologi Informasi dan Komunikasi",
        "nama_perusahaan": "LINKGO METRO TEKNOLOGI",
        "tanggal_daftar": "2022-06-25",
        "nomor_tanda_daftar": "003453.02/DJAI.PSE/06/2022",
        "qr_code": "https://pse.kominfo.go.id/storage/images/qr_code/18616cc6137b672df7528ada35e47c47.png",
        "status_id": "TERDAFTAR",
        "sistem_elektronik_id": 4715
      }
    },
    {
      "type": "tdpseTerbit",
      "id": 4768,
      "attributes": {
        "nomor_pb_umku": "022010829221600020001",
        "nama": "HOSTNIC",
        "website": "hostnic.id",
        "sektor": "Sektor Teknologi Informasi dan Komunikasi",
        "nama_perusahaan": "LINKGO METRO TEKNOLOGI",
        "tanggal_daftar": "2022-06-25",
        "nomor_tanda_daftar": "003453.01/DJAI.PSE/06/2022",
        "qr_code": "https://pse.kominfo.go.id/storage/images/qr_code/592ca54adc9ea06e7886fd5d4756c33b.png",
        "status_id": "TERDAFTAR",
        "sistem_elektronik_id": 4714
      }
    },
    {
      "type": "tdpseTerbit",
      "id": 4770,
      "attributes": {
        "nomor_pb_umku": "250622002912800000001",
        "nama": "PT NOVA NOVI SHOP",
        "website": "novanovishop.co.id",
        "sektor": "Sektor Perdagangan, Sektor Transportasi, Sektor Teknologi Informasi dan Komunikasi",
        "nama_perusahaan": "NOVA NOVI SHOP",
        "tanggal_daftar": "2022-06-25",
        "nomor_tanda_daftar": "003452.01/DJAI.PSE/06/2022",
        "qr_code": "https://pse.kominfo.go.id/storage/images/qr_code/b55a682cc5ab0880f4a666581b42503d.png",
        "status_id": "TERDAFTAR",
        "sistem_elektronik_id": 4716
      }
    },
    {
      "type": "tdpseTerbit",
      "id": 4765,
      "attributes": {
        "nomor_pb_umku": "912000773023200050001",
        "nama": "JPAYROLL",
        "website": "jpayroll.com",
        "sektor": "Sektor Teknologi Informasi dan Komunikasi",
        "nama_perusahaan": "JAVA CONSULTING INDONESIA",
        "tanggal_daftar": "2022-06-25",
        "nomor_tanda_daftar": "003450.01/DJAI.PSE/06/2022",
        "qr_code": "https://pse.kominfo.go.id/storage/images/qr_code/c77990abef5692e8f4242e76713d56ad.png",
        "status_id": "TERDAFTAR",
        "sistem_elektronik_id": 4711
      }
    }
  ]
}