{
  "meta": {
    "page": {
      "currentPage": 462,
      "from": 4611,
      "lastPage": 885,
      "perPage": 10,
      "to": 4620,
      "total": 8844
    }
  },
  "data": [
    {
      "type": "tdpseTerbit",
      "id": 3528,
      "attributes": {
        "nomor_pb_umku": null,
        "nama": "Website Dipo Star Finance",
        "website": "dipostar.com",
        "sektor": "Sektor Keuangan, Sektor Teknologi Informasi dan Komunikasi",
        "nama_perusahaan": "DIPO STAR FINANCE",
        "tanggal_daftar": "2022-03-14",
        "nomor_tanda_daftar": "002297.03/DJAI.PSE/03/2022",
        "qr_code": "https://pse.kominfo.go.id/storage/images/qr_code/e793c2fe326c1b610c833b4a5569df6d.png",
        "status_id": "TERDAFTAR",
        "sistem_elektronik_id": 2908
      }
    },
    {
      "type": "tdpseTerbit",
      "id": 3527,
      "attributes": {
        "nomor_pb_umku": null,
        "nama": "Mocil.id",
        "website": "www.mocil.id",
        "sektor": "Sektor Keuangan, Sektor Perdagangan",
        "nama_perusahaan": "DIPO STAR FINANCE",
        "tanggal_daftar": "2022-03-14",
        "nomor_tanda_daftar": "002297.02/DJAI.PSE/03/2022",
        "qr_code": "https://pse.kominfo.go.id/storage/images/qr_code/f7443ed6b0fb9e5703acc513e321986e.png",
        "status_id": "TERDAFTAR",
        "sistem_elektronik_id": 2907
      }
    },
    {
      "type": "tdpseTerbit",
      "id": 3526,
      "attributes": {
        "nomor_pb_umku": null,
        "nama": "Star Experience",
        "website": "www.starxperience.id",
        "sektor": "Sektor Keuangan, Sektor Teknologi Informasi dan Komunikasi",
        "nama_perusahaan": "DIPO STAR FINANCE",
        "tanggal_daftar": "2022-03-14",
        "nomor_tanda_daftar": "002297.01/DJAI.PSE/03/2022",
        "qr_code": "https://pse.kominfo.go.id/storage/images/qr_code/1714020e1050fbc5ee0a44a57531d1e5.png",
        "status_id": "TERDAFTAR",
        "sistem_elektronik_id": 2906
      }
    },
    {
      "type": "tdpseTerbit",
      "id": 3525,
      "attributes": {
        "nomor_pb_umku": null,
        "nama": "PT. YUKK Kreasi Indonesia",
        "website": "yukk.co.id",
        "sektor": "Sektor Keuangan, Sektor Teknologi Informasi dan Komunikasi",
        "nama_perusahaan": "YUKK KREASI INDONESIA",
        "tanggal_daftar": "2022-03-14",
        "nomor_tanda_daftar": "002296.01/DJAI.PSE/03/2022",
        "qr_code": "https://pse.kominfo.go.id/storage/images/qr_code/e42eec2d3e44d8f9b35151350fd62434.png",
        "status_id": "TERDAFTAR",
        "sistem_elektronik_id": 3153
      }
    },
    {
      "type": "tdpseTerbit",
      "id": 3524,
      "attributes": {
        "nomor_pb_umku": null,
        "nama": "Deliveree - Delivery Logistics",
        "website": "https://www.deliveree.com/id/satu-kendaraan-cek-ongkir/",
        "sektor": "Sektor Transportasi",
        "nama_perusahaan": "ANGKUT TEKNOLOGI INDONESIA",
        "tanggal_daftar": "2022-03-14",
        "nomor_tanda_daftar": "002295.01/DJAI.PSE/03/2022",
        "qr_code": "https://pse.kominfo.go.id/storage/images/qr_code/9b6e25b5f5ad7ea34eb636fdce3cc492.png",
        "status_id": "TERDAFTAR",
        "sistem_elektronik_id": 3427
      }
    },
    {
      "type": "tdpseTerbit",
      "id": 6234,
      "attributes": {
        "nomor_pb_umku": "129000023094700010002",
        "nama": "VIRALMU",
        "website": "viralmu.id",
        "sektor": "Sektor Perdagangan, Sektor Teknologi Informasi dan Komunikasi",
        "nama_perusahaan": "SABUK DIGITAL NUSANTARA",
        "tanggal_daftar": "2022-07-18",
        "nomor_tanda_daftar": "002294.02/DJAI.PSE/07/2022",
        "qr_code": "https://pse.kominfo.go.id/storage/images/qr_code/9ed8de23d887af9ef520f56c5d9bd102.png",
        "status_id": "TERDAFTAR",
        "sistem_elektronik_id": 6097
      }
    },
    {
      "type": "tdpseTerbit",
      "id": 3522,
      "attributes": {
        "nomor_pb_umku": null,
        "nama": "backtobali",
        "website": "http://backtobali.id/",
        "sektor": "Sektor Teknologi Informasi dan Komunikasi",
        "nama_perusahaan": "SABUK DIGITAL NUSANTARA",
        "tanggal_daftar": "2022-03-14",
        "nomor_tanda_daftar": "002294.01/DJAI.PSE/03/2022",
        "qr_code": "https://pse.kominfo.go.id/storage/images/qr_code/b1f1ae9a73d8ae789b0dfbd02b620dba.png",
        "status_id": "TERDAFTAR",
        "sistem_elektronik_id": 2984
      }
    },
    {
      "type": "tdpseTerbit",
      "id": 3520,
      "attributes": {
        "nomor_pb_umku": null,
        "nama": "cahaya amalia tamami",
        "website": "-",
        "sektor": "Sektor Perdagangan, Sektor Teknologi Informasi dan Komunikasi",
        "nama_perusahaan": "CAHAYA AMALIA TAMAMI",
        "tanggal_daftar": "2022-03-13",
        "nomor_tanda_daftar": "002293.01/DJAI.PSE/03/2022",
        "qr_code": "https://pse.kominfo.go.id/storage/images/qr_code/393ac2a850df9565112e9cee0263d40d.png",
        "status_id": "TERDAFTAR",
        "sistem_elektronik_id": 2982
      }
    },
    {
      "type": "tdpseTerbit",
      "id": 3519,
      "attributes": {
        "nomor_pb_umku": null,
        "nama": "RJH OFFICIALSTORE",
        "website": "-",
        "sektor": "Sektor Keuangan, Sektor Perdagangan",
        "nama_perusahaan": "IRVAN ANGGARA S",
        "tanggal_daftar": "2022-03-12",
        "nomor_tanda_daftar": "002292.01/DJAI.PSE/03/2022",
        "qr_code": "https://pse.kominfo.go.id/storage/images/qr_code/17bc4de2d9fff604545609d27adc609a.png",
        "status_id": "TERDAFTAR",
        "sistem_elektronik_id": 2981
      }
    },
    {
      "type": "tdpseTerbit",
      "id": 3518,
      "attributes": {
        "nomor_pb_umku": null,
        "nama": "Transaksi perdagangan ,keuangan lain nya melalui blockchain, dan alikasi lainya",
        "website": "-",
        "sektor": "Sektor Kesehatan, Sektor Keuangan, Sektor Pangan, Sektor Perdagangan, Sektor Pertahanan dan Keamanan, Sektor Teknologi Informasi dan Komunikasi, Sektor Transportasi",
        "nama_perusahaan": "INDO KOIN PERDANA",
        "tanggal_daftar": "2022-03-11",
        "nomor_tanda_daftar": "002291.01/DJAI.PSE/03/2022",
        "qr_code": "https://pse.kominfo.go.id/storage/images/qr_code/5545bcd55d1ece13f4f7c0f21bce5b1b.png",
        "status_id": "TERDAFTAR",
        "sistem_elektronik_id": 2980
      }
    }
  ]
}