{
  "meta": {
    "page": {
      "currentPage": 463,
      "from": 4621,
      "lastPage": 981,
      "perPage": 10,
      "to": 4630,
      "total": 9802
    }
  },
  "data": [
    {
      "type": "tdpseTerbit",
      "id": 4973,
      "attributes": {
        "nomor_pb_umku": "210322006176700010001",
        "nama": "TTCHAT",
        "website": "ttchat.com",
        "sektor": "Sektor Teknologi Informasi dan Komunikasi",
        "nama_perusahaan": "QUYAN TECHNOLOGY INDONESIA",
        "tanggal_daftar": "2022-06-30",
        "nomor_tanda_daftar": "003232.01/DJAI.PSE/06/2022",
        "qr_code": "https://pse.kominfo.go.id/storage/images/qr_code/6a2593e2990020ef536d5070db4e42c7.png",
        "status_id": "TERDAFTAR",
        "sistem_elektronik_id": 4830
      }
    },
    {
      "type": "tdpseTerbit",
      "id": 4648,
      "attributes": {
        "nomor_pb_umku": "912021909039600040001",
        "nama": "PASSIO ECO",
        "website": "passio.eco",
        "sektor": "Sektor Perdagangan",
        "nama_perusahaan": "ECOMOBI DIGITAL INDONESIA",
        "tanggal_daftar": "2022-06-21",
        "nomor_tanda_daftar": "003231.02/DJAI.PSE/06/2022",
        "qr_code": "https://pse.kominfo.go.id/storage/images/qr_code/cd7eaf5a248bd9dc432af68338eed486.png",
        "status_id": "TERDAFTAR",
        "sistem_elektronik_id": 4608
      }
    },
    {
      "type": "tdpseTerbit",
      "id": 5417,
      "attributes": {
        "nomor_pb_umku": "140622003113700010001",
        "nama": "KLIKIN.ID",
        "website": "klikin.id",
        "sektor": "Sektor Perdagangan",
        "nama_perusahaan": "SMART SULTAN TRADE",
        "tanggal_daftar": "2022-07-12",
        "nomor_tanda_daftar": "003214.01/DJAI.PSE/07/2022",
        "qr_code": "https://pse.kominfo.go.id/storage/images/qr_code/966f11caf5e61363b575593653d2ab90.png",
        "status_id": "TERDAFTAR",
        "sistem_elektronik_id": 5290
      }
    },
    {
      "type": "tdpseTerbit",
      "id": 4658,
      "attributes": {
        "nomor_pb_umku": "120900014128500020002",
        "nama": "AKAMAI CONTROL CENTER PORTAL (“ACC”)",
        "website": "akamai.com",
        "sektor": "Sektor Teknologi Informasi dan Komunikasi",
        "nama_perusahaan": "AKAMAI TEKNOLOGI INDONESIA",
        "tanggal_daftar": "2022-06-22",
        "nomor_tanda_daftar": "003212.01/DJAI.PSE/06/2022",
        "qr_code": "https://pse.kominfo.go.id/storage/images/qr_code/f5371dffb5835c8ccdc9dea794edf80e.png",
        "status_id": "TERDAFTAR",
        "sistem_elektronik_id": 4617
      }
    },
    {
      "type": "tdpseTerbit",
      "id": 8490,
      "attributes": {
        "nomor_pb_umku": "812000073159400020008",
        "nama": "WWW.PROVEN.KALBE.CO.ID",
        "website": "proven.kalbe.co.id",
        "sektor": "Sektor Kesehatan",
        "nama_perusahaan": "KALBE FARMA",
        "tanggal_daftar": "2022-07-21",
        "nomor_tanda_daftar": "003191.03/DJAI.PSE/07/2022",
        "qr_code": "https://pse.kominfo.go.id/storage/images/qr_code/f597a3f10bdd1b9babd8eb7309700e13.png",
        "status_id": "TERDAFTAR",
        "sistem_elektronik_id": 8407
      }
    },
    {
      "type": "tdpseTerbit",
      "id": 5431,
      "attributes": {
        "nomor_pb_umku": "812000073159400020007",
        "nama": "WWW.CDKJOURNAL.COM ATAU CDKJOURNAL",
        "website": "cdkjournal.com",
        "sektor": "Sektor Kesehatan",
        "nama_perusahaan": "KALBE FARMA",
        "tanggal_daftar": "2022-07-13",
        "nomor_tanda_daftar": "003191.02/DJAI.PSE/07/2022",
        "qr_code": "https://pse.kominfo.go.id/storage/images/qr_code/3d5b4507078fb74d50e7eee4254cd659.png",
        "status_id": "TERDAFTAR",
        "sistem_elektronik_id": 5300
      }
    },
    {
      "type": "tdpseTerbit",
      "id": 5338,
      "attributes": {
        "nomor_pb_umku": "812000073159400020006",
        "nama": "WWW.KALBEMED.COM ATAU KALBEMED",
        "website": "kalbemed.com",
        "sektor": "Sektor Kesehatan",
        "nama_perusahaan": "KALBE FARMA",
        "tanggal_daftar": "2022-07-12",
        "nomor_tanda_daftar": "003191.01/DJAI.PSE/06/2022",
        "qr_code": "https://pse.kominfo.go.id/storage/images/qr_code/a11a67c89cf500f3dd2473dc4a0a04b3.png",
        "status_id": "TERDAFTAR",
        "sistem_elektronik_id": 4792
      }
    },
    {
      "type": "tdpseTerbit",
      "id": 4380,
      "attributes": {
        "nomor_pb_umku": "080622005766300010001",
        "nama": "JNT EXPRESS SOROGENEN",
        "website": "-",
        "sektor": "Sektor Transportasi",
        "nama_perusahaan": "EVY ROFIANTI",
        "tanggal_daftar": "2022-06-14",
        "nomor_tanda_daftar": "003180.01/DJAI.PSE/06/2022",
        "qr_code": "https://pse.kominfo.go.id/storage/images/qr_code/366f901a1e2e7f3b2a9b9626775b2d5f.png",
        "status_id": "TERDAFTAR",
        "sistem_elektronik_id": 4364
      }
    },
    {
      "type": "tdpseTerbit",
      "id": 4379,
      "attributes": {
        "nomor_pb_umku": "030222000112600040001",
        "nama": "MAJAMOJO",
        "website": "majamojo.com",
        "sektor": "Sektor Teknologi Informasi dan Komunikasi",
        "nama_perusahaan": "GAMES KARYA NUSANTARA",
        "tanggal_daftar": "2022-06-14",
        "nomor_tanda_daftar": "003177.01/DJAI.PSE/06/2022",
        "qr_code": "https://pse.kominfo.go.id/storage/images/qr_code/6c1601808838d4cc6d4557d96f640338.png",
        "status_id": "TERDAFTAR",
        "sistem_elektronik_id": 4363
      }
    },
    {
      "type": "tdpseTerbit",
      "id": 5149,
      "attributes": {
        "nomor_pb_umku": "912030476021300000001",
        "nama": "MOBILKU.COM",
        "website": "mobilku.com",
        "sektor": "Sektor Perdagangan",
        "nama_perusahaan": "MOBILKU DOTCOM SEJAHTERA",
        "tanggal_daftar": "2022-07-06",
        "nomor_tanda_daftar": "003176.01/DJAI.PSE/07/2022",
        "qr_code": "https://pse.kominfo.go.id/storage/images/qr_code/645a87c732f8944445f182be9e7401fa.png",
        "status_id": "TERDAFTAR",
        "sistem_elektronik_id": 5012
      }
    }
  ]
}