{
  "meta": {
    "page": {
      "currentPage": 464,
      "from": 4631,
      "lastPage": 1074,
      "perPage": 10,
      "to": 4640,
      "total": 10738
    }
  },
  "data": [
    {
      "type": "tdpseTerbit",
      "id": 5486,
      "attributes": {
        "nomor_pb_umku": "126300063136800080001",
        "nama": "WEBSITE BOIINDONESIA",
        "website": "boiindonesia.co.id",
        "sektor": "Sektor Keuangan",
        "nama_perusahaan": "BANK OF INDIA INDONESIA",
        "tanggal_daftar": "2022-07-13",
        "nomor_tanda_daftar": "004059.01/DJAI.PSE/07/2022",
        "qr_code": "https://pse.kominfo.go.id/storage/images/qr_code/23df863f22b4a875a7031b0d11d898c8.png",
        "status_id": "TERDAFTAR",
        "sistem_elektronik_id": 5349
      }
    },
    {
      "type": "tdpseTerbit",
      "id": 5414,
      "attributes": {
        "nomor_pb_umku": "812001104192600050002",
        "nama": "HTTPS://USAHA.CO.ID/",
        "website": "usaha.co.id",
        "sektor": "Sektor Perdagangan",
        "nama_perusahaan": "CEKINDO BUSINESS INTERNATIONAL",
        "tanggal_daftar": "2022-07-12",
        "nomor_tanda_daftar": "004058.02/DJAI.PSE/07/2022",
        "qr_code": "https://pse.kominfo.go.id/storage/images/qr_code/32441ba32e303d85fe6d394ad4f927e5.png",
        "status_id": "TERDAFTAR",
        "sistem_elektronik_id": 5287
      }
    },
    {
      "type": "tdpseTerbit",
      "id": 5413,
      "attributes": {
        "nomor_pb_umku": "812001104192600050001",
        "nama": "HTTPS://CEKINDOBUSINESSCENTER.COM/",
        "website": "cekindobusinesscenter.com",
        "sektor": "Sektor Perdagangan, Sektor Teknologi Informasi dan Komunikasi",
        "nama_perusahaan": "CEKINDO BUSINESS INTERNATIONAL",
        "tanggal_daftar": "2022-07-12",
        "nomor_tanda_daftar": "004058.01/DJAI.PSE/07/2022",
        "qr_code": "https://pse.kominfo.go.id/storage/images/qr_code/99459dad6d3d83eac201865f45439596.png",
        "status_id": "TERDAFTAR",
        "sistem_elektronik_id": 5286
      }
    },
    {
      "type": "tdpseTerbit",
      "id": 11106,
      "attributes": {
        "nomor_pb_umku": "912040032198900030001",
        "nama": "REFINA",
        "website": "refina.ptsmi.co.id",
        "sektor": "Sektor Keuangan",
        "nama_perusahaan": "PERUSAHAAN PERSEROAN (PERSERO) PT. SARANA MULTI INFRASTRUKTUR",
        "tanggal_daftar": "2022-09-08",
        "nomor_tanda_daftar": "004057.01/DJAI.PSE/09/2022",
        "qr_code": "https://pse.kominfo.go.id/storage/images/qr_code/04d718b52eef6d01731c3157f4b75401.png",
        "status_id": "TERDAFTAR",
        "sistem_elektronik_id": 10906
      }
    },
    {
      "type": "tdpseTerbit",
      "id": 5499,
      "attributes": {
        "nomor_pb_umku": "812020596267900000001",
        "nama": "GOWORK COWORKING OFFICE SPACE",
        "website": "go-work.com",
        "sektor": "Sektor Perdagangan",
        "nama_perusahaan": "KOLABORASI GLOBAL SUKSES",
        "tanggal_daftar": "2022-07-13",
        "nomor_tanda_daftar": "004055.01/DJAI.PSE/07/2022",
        "qr_code": "https://pse.kominfo.go.id/storage/images/qr_code/1a4b1ef037fb3ae05d57939d6a496236.png",
        "status_id": "TERDAFTAR",
        "sistem_elektronik_id": 5364
      }
    },
    {
      "type": "tdpseTerbit",
      "id": 5524,
      "attributes": {
        "nomor_pb_umku": "912020714161200010001",
        "nama": "BANTUSAKU",
        "website": "bantusaku.id",
        "sektor": "Sektor Keuangan, Sektor Teknologi Informasi dan Komunikasi",
        "nama_perusahaan": "SMARTEC TEKNOLOGI INDONESIA",
        "tanggal_daftar": "2022-07-13",
        "nomor_tanda_daftar": "004054.01/DJAI.PSE/07/2022",
        "qr_code": "https://pse.kominfo.go.id/storage/images/qr_code/59aa2246455ca046b2c4be44f2932060.png",
        "status_id": "TERDAFTAR",
        "sistem_elektronik_id": 5279
      }
    },
    {
      "type": "tdpseTerbit",
      "id": 10934,
      "attributes": {
        "nomor_pb_umku": "120722005076900020002",
        "nama": "MANGO",
        "website": "mangolive.net",
        "sektor": "Sektor Teknologi Informasi dan Komunikasi",
        "nama_perusahaan": "BRILLIANT FUTURE TECHNOLOGY",
        "tanggal_daftar": "2022-09-05",
        "nomor_tanda_daftar": "004053.04/DJAI.PSE/08/2022",
        "qr_code": "https://pse.kominfo.go.id/storage/images/qr_code/9874d09a1bbc7c0654e9d1ff8d3b2608.png",
        "status_id": "TERDAFTAR",
        "sistem_elektronik_id": 10743
      }
    },
    {
      "type": "tdpseTerbit",
      "id": 5432,
      "attributes": {
        "nomor_pb_umku": "",
        "nama": "MANGO LIVE",
        "website": "mangolive.net",
        "sektor": "Sektor Teknologi Informasi dan Komunikasi",
        "nama_perusahaan": "BRILLIANT FUTURE TECHNOLOGY",
        "tanggal_daftar": "2022-09-05",
        "nomor_tanda_daftar": "004053.02/DJAI.PSE/07/2022",
        "qr_code": "https://pse.kominfo.go.id/storage/images/qr_code/7a9e907026b63ec04575e3ac796dd5a7.png",
        "status_id": "TERDAFTAR",
        "sistem_elektronik_id": 5301
      }
    },
    {
      "type": "tdpseTerbit",
      "id": 5494,
      "attributes": {
        "nomor_pb_umku": "220921002850800010001",
        "nama": "PLP MARI BERPROSES",
        "website": "mariberproses.com",
        "sektor": "Sektor Kesehatan",
        "nama_perusahaan": "BENUANTA KREASI MANDIRI",
        "tanggal_daftar": "2022-07-13",
        "nomor_tanda_daftar": "004051.01/DJAI.PSE/07/2022",
        "qr_code": "https://pse.kominfo.go.id/storage/images/qr_code/adf9e5365e5a88f59d2295cc51b5f6fa.png",
        "status_id": "TERDAFTAR",
        "sistem_elektronik_id": 5357
      }
    },
    {
      "type": "tdpseTerbit",
      "id": 6152,
      "attributes": {
        "nomor_pb_umku": "031121001829500070001",
        "nama": "KEBIZZ",
        "website": "kebizz.id",
        "sektor": "Sektor Keuangan, Sektor Teknologi Informasi dan Komunikasi",
        "nama_perusahaan": "KEUANGAN BISNIS INDONESIA",
        "tanggal_daftar": "2022-07-18",
        "nomor_tanda_daftar": "004050.01/DJAI.PSE/07/2022",
        "qr_code": "https://pse.kominfo.go.id/storage/images/qr_code/a95a68c3b74ef2e6b4f47b40dc6624b9.png",
        "status_id": "TERDAFTAR",
        "sistem_elektronik_id": 5915
      }
    }
  ]
}