{
  "meta": {
    "page": {
      "currentPage": 465,
      "from": 4641,
      "lastPage": 952,
      "perPage": 10,
      "to": 4650,
      "total": 9517
    }
  },
  "data": [
    {
      "type": "tdpseTerbit",
      "id": 4436,
      "attributes": {
        "nomor_pb_umku": null,
        "nama": "Reflow Indonesia",
        "website": "reflowindonesia.id",
        "sektor": "Sektor Teknologi Informasi dan Komunikasi",
        "nama_perusahaan": "BERJAYA KREASI INDONESIA",
        "tanggal_daftar": "2022-05-11",
        "nomor_tanda_daftar": "002667.01/DJAI.PSE/05/2022",
        "qr_code": "https://pse.kominfo.go.id/storage/images/qr_code/5ff2186e0bb64db3d982fc1c8482fb18.png",
        "status_id": "TERDAFTAR",
        "sistem_elektronik_id": 4420
      }
    },
    {
      "type": "tdpseTerbit",
      "id": 4435,
      "attributes": {
        "nomor_pb_umku": null,
        "nama": "Marketplace & Kemitraan Usaha",
        "website": "www.marketani.com",
        "sektor": "Sektor Keuangan, Sektor Pangan, Sektor Perdagangan",
        "nama_perusahaan": "PASAR TANI INDONESIA",
        "tanggal_daftar": "2022-05-11",
        "nomor_tanda_daftar": "002666.02/DJAI.PSE/05/2022",
        "qr_code": "https://pse.kominfo.go.id/storage/images/qr_code/46db7ae4e030e71e755f83e347a8e2cd.png",
        "status_id": "TERDAFTAR",
        "sistem_elektronik_id": 4419
      }
    },
    {
      "type": "tdpseTerbit",
      "id": 4434,
      "attributes": {
        "nomor_pb_umku": null,
        "nama": "E-commerce & Kemitraan Market Tani",
        "website": "marketani.com",
        "sektor": "Sektor Perdagangan",
        "nama_perusahaan": "PASAR TANI INDONESIA",
        "tanggal_daftar": "2022-05-11",
        "nomor_tanda_daftar": "002666.01/DJAI.PSE/05/2022",
        "qr_code": "https://pse.kominfo.go.id/storage/images/qr_code/d72c5cc51a6d3dfc9a5b0ac6498c1ea5.png",
        "status_id": "TERDAFTAR",
        "sistem_elektronik_id": 4418
      }
    },
    {
      "type": "tdpseTerbit",
      "id": 4786,
      "attributes": {
        "nomor_pb_umku": "912020714208400000002",
        "nama": "E2PAY GLOBAL UTAMA",
        "website": "e2pay.co.id",
        "sektor": "Sektor Keuangan, Sektor Teknologi Informasi dan Komunikasi",
        "nama_perusahaan": "E2PAY GLOBAL UTAMA",
        "tanggal_daftar": "2022-06-27",
        "nomor_tanda_daftar": "002665.02/DJAI.PSE/06/2022",
        "qr_code": "https://pse.kominfo.go.id/storage/images/qr_code/6d8c4763ba79e6f48773f4242f5fb8ac.png",
        "status_id": "TERDAFTAR",
        "sistem_elektronik_id": 4729
      }
    },
    {
      "type": "tdpseTerbit",
      "id": 4433,
      "attributes": {
        "nomor_pb_umku": null,
        "nama": "E2Pay Payment Gateway",
        "website": "e2pay.co.id",
        "sektor": "Sektor Keuangan, Sektor Teknologi Informasi dan Komunikasi",
        "nama_perusahaan": "E2PAY GLOBAL UTAMA",
        "tanggal_daftar": "2022-05-10",
        "nomor_tanda_daftar": "002665.01/DJAI.PSE/05/2022",
        "qr_code": "https://pse.kominfo.go.id/storage/images/qr_code/18ec7e52124500e160fa133a825686e8.png",
        "status_id": "TERDAFTAR",
        "sistem_elektronik_id": 4417
      }
    },
    {
      "type": "tdpseTerbit",
      "id": 4432,
      "attributes": {
        "nomor_pb_umku": null,
        "nama": "GLOBAL AIDEN TEKNOLOGI",
        "website": "www.aidenasia.com",
        "sektor": "Sektor Kesehatan, Sektor Teknologi Informasi dan Komunikasi",
        "nama_perusahaan": "GLOBAL AIDEN TEKNOLOGI",
        "tanggal_daftar": "2022-05-10",
        "nomor_tanda_daftar": "002664.01/DJAI.PSE/05/2022",
        "qr_code": "https://pse.kominfo.go.id/storage/images/qr_code/daddbb112c11c2c0bd53bd133f00aede.png",
        "status_id": "TERDAFTAR",
        "sistem_elektronik_id": 4416
      }
    },
    {
      "type": "tdpseTerbit",
      "id": 4431,
      "attributes": {
        "nomor_pb_umku": null,
        "nama": "www.jet.co.id",
        "website": "www.jet.co.id",
        "sektor": "Sektor Transportasi",
        "nama_perusahaan": "GLOBAL JET EXPRESS",
        "tanggal_daftar": "2022-05-10",
        "nomor_tanda_daftar": "002663.02/DJAI.PSE/05/2022",
        "qr_code": "https://pse.kominfo.go.id/storage/images/qr_code/42b05d0352447bc082e126e33ea3df26.png",
        "status_id": "TERDAFTAR",
        "sistem_elektronik_id": 4415
      }
    },
    {
      "type": "tdpseTerbit",
      "id": 4430,
      "attributes": {
        "nomor_pb_umku": null,
        "nama": "J&T Express",
        "website": "jet.co.id",
        "sektor": "Sektor Transportasi",
        "nama_perusahaan": "GLOBAL JET EXPRESS",
        "tanggal_daftar": "2022-05-10",
        "nomor_tanda_daftar": "002663.01/DJAI.PSE/05/2022",
        "qr_code": "https://pse.kominfo.go.id/storage/images/qr_code/f192b3d044e9589fd73ec52bf4e0856a.png",
        "status_id": "TERDAFTAR",
        "sistem_elektronik_id": 4414
      }
    },
    {
      "type": "tdpseTerbit",
      "id": 4429,
      "attributes": {
        "nomor_pb_umku": null,
        "nama": "Investly",
        "website": "investly.id",
        "sektor": "Sektor Keuangan, Sektor Teknologi Informasi dan Komunikasi",
        "nama_perusahaan": "INVESTASI CERDAS BERSAMA",
        "tanggal_daftar": "2022-05-09",
        "nomor_tanda_daftar": "002662.01/DJAI.PSE/05/2022",
        "qr_code": "https://pse.kominfo.go.id/storage/images/qr_code/21eac309dacbf76726171360780b106a.png",
        "status_id": "TERDAFTAR",
        "sistem_elektronik_id": 4413
      }
    },
    {
      "type": "tdpseTerbit",
      "id": 4428,
      "attributes": {
        "nomor_pb_umku": null,
        "nama": "Meta Bisnis Indonesia",
        "website": "calobisnis.com",
        "sektor": "Sektor Perdagangan",
        "nama_perusahaan": "METADATA BISNIS INDONESIA",
        "tanggal_daftar": "2022-05-09",
        "nomor_tanda_daftar": "002661.01/DJAI.PSE/05/2022",
        "qr_code": "https://pse.kominfo.go.id/storage/images/qr_code/8a0b7f63cf30ddda0b5b50b239593174.png",
        "status_id": "TERDAFTAR",
        "sistem_elektronik_id": 4412
      }
    }
  ]
}