{
  "meta": {
    "page": {
      "currentPage": 466,
      "from": 4651,
      "lastPage": 970,
      "perPage": 10,
      "to": 4660,
      "total": 9692
    }
  },
  "data": [
    {
      "type": "tdpseTerbit",
      "id": 9977,
      "attributes": {
        "nomor_pb_umku": "812011321073600340020",
        "nama": "MYCARGOO!",
        "website": "mycargoo.pelni.co.id",
        "sektor": "Sektor Transportasi",
        "nama_perusahaan": "PERUSAHAAN PERSEROAN (PERSERO) PT. PELAYARAN NASIONAL INDONESIA",
        "tanggal_daftar": "2022-08-05",
        "nomor_tanda_daftar": "002870.02/DJAI.PSE/08/2022",
        "qr_code": "https://pse.kominfo.go.id/storage/images/qr_code/c73abc59f825554e403c33b20751b172.png",
        "status_id": "TERDAFTAR",
        "sistem_elektronik_id": 9864
      }
    },
    {
      "type": "tdpseTerbit",
      "id": 4330,
      "attributes": {
        "nomor_pb_umku": "022010822221600000005",
        "nama": "INMOBI AFFILIATE PLATFORM",
        "website": "iap.gowadogo.com",
        "sektor": "Sektor Teknologi Informasi dan Komunikasi",
        "nama_perusahaan": "INMOBI INDONESIA TECHNOLOGIES",
        "tanggal_daftar": "2022-06-10",
        "nomor_tanda_daftar": "002868.03/DJAI.PSE/06/2022",
        "qr_code": "https://pse.kominfo.go.id/storage/images/qr_code/02f4ccfc64fea8f6ef23289ace8b8f16.png",
        "status_id": "TERDAFTAR",
        "sistem_elektronik_id": 4317
      }
    },
    {
      "type": "tdpseTerbit",
      "id": 4327,
      "attributes": {
        "nomor_pb_umku": "022010822221600000004",
        "nama": "INMOBI PULSE",
        "website": "pulse.inmobi.com",
        "sektor": "Sektor Perdagangan",
        "nama_perusahaan": "INMOBI INDONESIA TECHNOLOGIES",
        "tanggal_daftar": "2022-06-10",
        "nomor_tanda_daftar": "002868.02/DJAI.PSE/06/2022",
        "qr_code": "https://pse.kominfo.go.id/storage/images/qr_code/6a68395488e4757107ac6033c98d2a4c.png",
        "status_id": "TERDAFTAR",
        "sistem_elektronik_id": 4312
      }
    },
    {
      "type": "tdpseTerbit",
      "id": 4325,
      "attributes": {
        "nomor_pb_umku": "022010822221600000003",
        "nama": "INMOBI EXCHANGE",
        "website": "exchange.inmobi.com",
        "sektor": "Sektor Perdagangan",
        "nama_perusahaan": "INMOBI INDONESIA TECHNOLOGIES",
        "tanggal_daftar": "2022-06-10",
        "nomor_tanda_daftar": "002868.01/DJAI.PSE/06/2022",
        "qr_code": "https://pse.kominfo.go.id/storage/images/qr_code/de5cfa510754773a0aaf0fec87f2e99e.png",
        "status_id": "TERDAFTAR",
        "sistem_elektronik_id": 4276
      }
    },
    {
      "type": "tdpseTerbit",
      "id": 10515,
      "attributes": {
        "nomor_pb_umku": "912030519120100010004",
        "nama": "TRIBUNTRAVEL.COM",
        "website": "tribuntravel.com",
        "sektor": "Sektor Teknologi Informasi dan Komunikasi",
        "nama_perusahaan": "TRIBUN BERITA ONLINE",
        "tanggal_daftar": "2022-08-18",
        "nomor_tanda_daftar": "002867.05/DJAI.PSE/08/2022",
        "qr_code": "https://pse.kominfo.go.id/storage/images/qr_code/b749791d8fce182561c7a107a340c914.png",
        "status_id": "TERDAFTAR",
        "sistem_elektronik_id": 10374
      }
    },
    {
      "type": "tdpseTerbit",
      "id": 10513,
      "attributes": {
        "nomor_pb_umku": "912030519120100010003",
        "nama": "TRIBUNSTYLE.COM",
        "website": "tribunstyle.com",
        "sektor": "Sektor Teknologi Informasi dan Komunikasi",
        "nama_perusahaan": "TRIBUN BERITA ONLINE",
        "tanggal_daftar": "2022-08-18",
        "nomor_tanda_daftar": "002867.04/DJAI.PSE/08/2022",
        "qr_code": "https://pse.kominfo.go.id/storage/images/qr_code/5d9a7bd3d6914522fbd2c9f75ccd1bb4.png",
        "status_id": "TERDAFTAR",
        "sistem_elektronik_id": 10372
      }
    },
    {
      "type": "tdpseTerbit",
      "id": 10501,
      "attributes": {
        "nomor_pb_umku": "912030519120100010002",
        "nama": "TRIBUNNEWSWIKI.COM",
        "website": "tribunnewswiki.com",
        "sektor": "Sektor Teknologi Informasi dan Komunikasi",
        "nama_perusahaan": "TRIBUN BERITA ONLINE",
        "tanggal_daftar": "2022-08-18",
        "nomor_tanda_daftar": "002867.03/DJAI.PSE/08/2022",
        "qr_code": "https://pse.kominfo.go.id/storage/images/qr_code/7178ae790b904ef4b190b67e265878b1.png",
        "status_id": "TERDAFTAR",
        "sistem_elektronik_id": 10352
      }
    },
    {
      "type": "tdpseTerbit",
      "id": 4579,
      "attributes": {
        "nomor_pb_umku": "912030519120100010001",
        "nama": "TRIBUN DIGITAL ONLINE",
        "website": "Tribunnews.com",
        "sektor": "Sektor Perdagangan, Sektor Teknologi Informasi dan Komunikasi",
        "nama_perusahaan": "TRIBUN BERITA ONLINE",
        "tanggal_daftar": "2022-06-17",
        "nomor_tanda_daftar": "002867.02/DJAI.PSE/06/2022",
        "qr_code": "https://pse.kominfo.go.id/storage/images/qr_code/f4f38cd08094bd8c87128cf95041b0b9.png",
        "status_id": "TERDAFTAR",
        "sistem_elektronik_id": 4541
      }
    },
    {
      "type": "tdpseTerbit",
      "id": 4228,
      "attributes": {
        "nomor_pb_umku": "912040480017400100001",
        "nama": "USP MOBILE",
        "website": "induk.uspminatani.id",
        "sektor": "Sektor Keuangan, Sektor Teknologi Informasi dan Komunikasi",
        "nama_perusahaan": "KOP UNIT DESA MINATANI",
        "tanggal_daftar": "2022-06-04",
        "nomor_tanda_daftar": "002862.01/DJAI.PSE/06/2022",
        "qr_code": "https://pse.kominfo.go.id/storage/images/qr_code/f059f1b8776ec79baed9954cfb7f9e8a.png",
        "status_id": "TERDAFTAR",
        "sistem_elektronik_id": 4225
      }
    },
    {
      "type": "tdpseTerbit",
      "id": 4657,
      "attributes": {
        "nomor_pb_umku": "912020693005500010002",
        "nama": "360KREDI",
        "website": "360kredi.id",
        "sektor": "Sektor Keuangan",
        "nama_perusahaan": "INOVASI TERDEPAN NUSANTARA",
        "tanggal_daftar": "2022-06-22",
        "nomor_tanda_daftar": "002862.01/DJAI.PSE/06/2022",
        "qr_code": "https://pse.kominfo.go.id/storage/images/qr_code/893fd3ea89482687c94dab85aecb6cbd.png",
        "status_id": "TERDAFTAR",
        "sistem_elektronik_id": 4260
      }
    }
  ]
}