{
  "meta": {
    "page": {
      "currentPage": 467,
      "from": 4661,
      "lastPage": 1089,
      "perPage": 10,
      "to": 4670,
      "total": 10885
    }
  },
  "data": [
    {
      "type": "tdpseTerbit",
      "id": 5733,
      "attributes": {
        "nomor_pb_umku": "912000951092600010003",
        "nama": "NEOPAY",
        "website": "nobuepay.nobubank.com",
        "sektor": "Sektor Keuangan",
        "nama_perusahaan": "BANK NATIONALNOBU",
        "tanggal_daftar": "2022-07-15",
        "nomor_tanda_daftar": "004124.03/DJAI.PSE/07/2022",
        "qr_code": "https://pse.kominfo.go.id/storage/images/qr_code/ba07f8fcf71db2a712755f6a1647b584.png",
        "status_id": "TERDAFTAR",
        "sistem_elektronik_id": 5596
      }
    },
    {
      "type": "tdpseTerbit",
      "id": 5711,
      "attributes": {
        "nomor_pb_umku": "912000951092600010002",
        "nama": "NOBU BANK88",
        "website": "nobu8.nobubank.com",
        "sektor": "Sektor Keuangan",
        "nama_perusahaan": "BANK NATIONALNOBU",
        "tanggal_daftar": "2022-07-15",
        "nomor_tanda_daftar": "004124.02/DJAI.PSE/07/2022",
        "qr_code": "https://pse.kominfo.go.id/storage/images/qr_code/950b340ea5a7837d61562b55453014db.png",
        "status_id": "TERDAFTAR",
        "sistem_elektronik_id": 5575
      }
    },
    {
      "type": "tdpseTerbit",
      "id": 5673,
      "attributes": {
        "nomor_pb_umku": "912000951092600010001",
        "nama": "WEB EXTERNAL",
        "website": "nobubank.com",
        "sektor": "Sektor Keuangan",
        "nama_perusahaan": "BANK NATIONALNOBU",
        "tanggal_daftar": "2022-07-14",
        "nomor_tanda_daftar": "004124.01/DJAI.PSE/07/2022",
        "qr_code": "https://pse.kominfo.go.id/storage/images/qr_code/4a3e2ae4ba4ed2799522633b264ac371.png",
        "status_id": "TERDAFTAR",
        "sistem_elektronik_id": 5531
      }
    },
    {
      "type": "tdpseTerbit",
      "id": 5503,
      "attributes": {
        "nomor_pb_umku": "090722000762300090001",
        "nama": "SOLUMED",
        "website": "solumedis.com",
        "sektor": "Sektor Perdagangan, Sektor Kesehatan, Sektor Teknologi Informasi dan Komunikasi",
        "nama_perusahaan": "RUKUN SOLUSI MEDIKA",
        "tanggal_daftar": "2022-07-13",
        "nomor_tanda_daftar": "004123.01/DJAI.PSE/07/2022",
        "qr_code": "https://pse.kominfo.go.id/storage/images/qr_code/9be09749af28ffc26df2ddf1ffa96d38.png",
        "status_id": "TERDAFTAR",
        "sistem_elektronik_id": 5366
      }
    },
    {
      "type": "tdpseTerbit",
      "id": 12070,
      "attributes": {
        "nomor_pb_umku": "812021412243700030003",
        "nama": "SHOTT",
        "website": "-",
        "sektor": "Sektor Transportasi, Sektor Teknologi Informasi dan Komunikasi",
        "nama_perusahaan": "SURYA SUDECO",
        "tanggal_daftar": "2022-11-01",
        "nomor_tanda_daftar": "004122.03/DJAI.PSE/11/2022",
        "qr_code": "https://pse.kominfo.go.id/storage/images/qr_code/fc13657eef686bb8c61391e4ad32249a.png",
        "status_id": "TERDAFTAR",
        "sistem_elektronik_id": 11871
      }
    },
    {
      "type": "tdpseTerbit",
      "id": 12066,
      "attributes": {
        "nomor_pb_umku": "812021412243700030002",
        "nama": "SHOT",
        "website": "-",
        "sektor": "Sektor Transportasi, Sektor Teknologi Informasi dan Komunikasi",
        "nama_perusahaan": "SURYA SUDECO",
        "tanggal_daftar": "2022-11-01",
        "nomor_tanda_daftar": "004122.02/DJAI.PSE/11/2022",
        "qr_code": "https://pse.kominfo.go.id/storage/images/qr_code/6001c9b6041e6b176e30baec91cc5499.png",
        "status_id": "TERDAFTAR",
        "sistem_elektronik_id": 11869
      }
    },
    {
      "type": "tdpseTerbit",
      "id": 6251,
      "attributes": {
        "nomor_pb_umku": "812021412243700030001",
        "nama": "TSMART",
        "website": "-",
        "sektor": "Sektor Transportasi",
        "nama_perusahaan": "SURYA SUDECO",
        "tanggal_daftar": "2022-07-18",
        "nomor_tanda_daftar": "004122.01/DJAI.PSE/07/2022",
        "qr_code": "https://pse.kominfo.go.id/storage/images/qr_code/3bf7961d44f8f6222c511c0c54144d59.png",
        "status_id": "TERDAFTAR",
        "sistem_elektronik_id": 6108
      }
    },
    {
      "type": "tdpseTerbit",
      "id": 6324,
      "attributes": {
        "nomor_pb_umku": "912001927083300020003",
        "nama": "AMANTARA.CO.ID",
        "website": "amantara.co.id",
        "sektor": "Sektor Keuangan",
        "nama_perusahaan": "AMANTARA SEKURITAS INDONESIA",
        "tanggal_daftar": "2022-07-18",
        "nomor_tanda_daftar": "004121.03/DJAI.PSE/07/2022",
        "qr_code": "https://pse.kominfo.go.id/storage/images/qr_code/7545255b3983466aa8ae3ca9ea6c4fe8.png",
        "status_id": "TERDAFTAR",
        "sistem_elektronik_id": 6186
      }
    },
    {
      "type": "tdpseTerbit",
      "id": 6140,
      "attributes": {
        "nomor_pb_umku": "912001927083300020002",
        "nama": "WEBSITE AMANTARA.COM",
        "website": "amantara.co.id",
        "sektor": "Sektor Keuangan",
        "nama_perusahaan": "AMANTARA SEKURITAS INDONESIA",
        "tanggal_daftar": "2022-07-18",
        "nomor_tanda_daftar": "004121.02/DJAI.PSE/07/2022",
        "qr_code": "https://pse.kominfo.go.id/storage/images/qr_code/c5dd7ca4c39a825c46d0a2d3a2a16fdb.png",
        "status_id": "TERDAFTAR",
        "sistem_elektronik_id": 6009
      }
    },
    {
      "type": "tdpseTerbit",
      "id": 6127,
      "attributes": {
        "nomor_pb_umku": "912001927083300020001",
        "nama": "WEBSITE WWW.AMANTARA.COM",
        "website": "amantara.com",
        "sektor": "Sektor Keuangan",
        "nama_perusahaan": "AMANTARA SEKURITAS INDONESIA",
        "tanggal_daftar": "2022-07-18",
        "nomor_tanda_daftar": "004121.01/DJAI.PSE/07/2022",
        "qr_code": "https://pse.kominfo.go.id/storage/images/qr_code/4d2273c128f881418d22268d0e5aff7b.png",
        "status_id": "TERDAFTAR",
        "sistem_elektronik_id": 5994
      }
    }
  ]
}