{
  "meta": {
    "page": {
      "currentPage": 468,
      "from": 4671,
      "lastPage": 1063,
      "perPage": 10,
      "to": 4680,
      "total": 10630
    }
  },
  "data": [
    {
      "type": "tdpseTerbit",
      "id": 5640,
      "attributes": {
        "nomor_pb_umku": "912031508201900020001",
        "nama": "KEDAIMART",
        "website": "kedaisayur.com",
        "sektor": "Sektor Perdagangan",
        "nama_perusahaan": "KEDAI SAYUR INDONESIA",
        "tanggal_daftar": "2022-07-14",
        "nomor_tanda_daftar": "003953.01/DJAI.PSE/07/2022",
        "qr_code": "https://pse.kominfo.go.id/storage/images/qr_code/4165ec64a041bf7c7460c11a2d177648.png",
        "status_id": "TERDAFTAR",
        "sistem_elektronik_id": 5432
      }
    },
    {
      "type": "tdpseTerbit",
      "id": 5287,
      "attributes": {
        "nomor_pb_umku": "170322004820600010001",
        "nama": "WEBSITE",
        "website": "rindang-sejahtera.com",
        "sektor": "Sektor Keuangan",
        "nama_perusahaan": "RINDANG SEJAHTERA FINANCE",
        "tanggal_daftar": "2022-07-11",
        "nomor_tanda_daftar": "003952.01/DJAI.PSE/07/2022",
        "qr_code": "https://pse.kominfo.go.id/storage/images/qr_code/641ab7b93e991a0fcecad12191fad6fd.png",
        "status_id": "TERDAFTAR",
        "sistem_elektronik_id": 5157
      }
    },
    {
      "type": "tdpseTerbit",
      "id": 5273,
      "attributes": {
        "nomor_pb_umku": "180322003052300010001",
        "nama": "RIVERNITY.COM",
        "website": "rivernity.com",
        "sektor": "Sektor Teknologi Informasi dan Komunikasi",
        "nama_perusahaan": "RIVERNITY ASET DIGITAL",
        "tanggal_daftar": "2022-07-11",
        "nomor_tanda_daftar": "003950.01/DJAI.PSE/07/2022",
        "qr_code": "https://pse.kominfo.go.id/storage/images/qr_code/f4fbf3aa0bbb14d8b3812690baca752a.png",
        "status_id": "TERDAFTAR",
        "sistem_elektronik_id": 5142
      }
    },
    {
      "type": "tdpseTerbit",
      "id": 6043,
      "attributes": {
        "nomor_pb_umku": "912010135191100350003",
        "nama": "MYREWARDS",
        "website": "Bankmayapada.id",
        "sektor": "Sektor Keuangan",
        "nama_perusahaan": "BANK MAYAPADA INTERNASIONAL",
        "tanggal_daftar": "2022-07-18",
        "nomor_tanda_daftar": "003949.03/DJAI.PSE/07/2022",
        "qr_code": "https://pse.kominfo.go.id/storage/images/qr_code/5297ed46b9a5f3379ec57635fc3abf2b.png",
        "status_id": "TERDAFTAR",
        "sistem_elektronik_id": 5745
      }
    },
    {
      "type": "tdpseTerbit",
      "id": 5276,
      "attributes": {
        "nomor_pb_umku": "912010135191100270002",
        "nama": "MYMOBILE",
        "website": "-",
        "sektor": "Sektor Keuangan",
        "nama_perusahaan": "BANK MAYAPADA INTERNASIONAL",
        "tanggal_daftar": "2022-07-11",
        "nomor_tanda_daftar": "003949.02/DJAI.PSE/07/2022",
        "qr_code": "https://pse.kominfo.go.id/storage/images/qr_code/00bf804d5813a6a2acb1643f8ffc2714.png",
        "status_id": "TERDAFTAR",
        "sistem_elektronik_id": 5145
      }
    },
    {
      "type": "tdpseTerbit",
      "id": 5274,
      "attributes": {
        "nomor_pb_umku": "912010135191100270001",
        "nama": "MYONLINE",
        "website": "mayapadaonline.com",
        "sektor": "Sektor Keuangan",
        "nama_perusahaan": "BANK MAYAPADA INTERNASIONAL",
        "tanggal_daftar": "2022-07-11",
        "nomor_tanda_daftar": "003949.01/DJAI.PSE/07/2022",
        "qr_code": "https://pse.kominfo.go.id/storage/images/qr_code/c420c17d76ebe39fa6c861a3144eb26b.png",
        "status_id": "TERDAFTAR",
        "sistem_elektronik_id": 5143
      }
    },
    {
      "type": "tdpseTerbit",
      "id": 5270,
      "attributes": {
        "nomor_pb_umku": "126300546252400350003",
        "nama": "TRAVEL",
        "website": "-",
        "sektor": "Sektor Transportasi",
        "nama_perusahaan": "VANDY PRATAMA",
        "tanggal_daftar": "2022-07-10",
        "nomor_tanda_daftar": "003947.01/DJAI.PSE/07/2022",
        "qr_code": "https://pse.kominfo.go.id/storage/images/qr_code/9bc99f5320b0a534d7da24ce673fb589.png",
        "status_id": "TERDAFTAR",
        "sistem_elektronik_id": 5137
      }
    },
    {
      "type": "tdpseTerbit",
      "id": 5266,
      "attributes": {
        "nomor_pb_umku": "100722000776900000001",
        "nama": "SERVICE KULKAS, MESIN CUCI, AC, TV, POMPA AIR, DISPENSER",
        "website": "permidteknik.com",
        "sektor": "Sektor Perdagangan, Sektor Teknologi Informasi dan Komunikasi",
        "nama_perusahaan": "PERMID TEKNIK GROUP",
        "tanggal_daftar": "2022-07-10",
        "nomor_tanda_daftar": "003946.01/DJAI.PSE/07/2022",
        "qr_code": "https://pse.kominfo.go.id/storage/images/qr_code/bf4ee0c3ac57da45163d921d6135eca6.png",
        "status_id": "TERDAFTAR",
        "sistem_elektronik_id": 5131
      }
    },
    {
      "type": "tdpseTerbit",
      "id": 5265,
      "attributes": {
        "nomor_pb_umku": "128500072066500000003",
        "nama": "AKSESORIS KOMPUTER",
        "website": "evindotama.com",
        "sektor": "Sektor Teknologi Informasi dan Komunikasi",
        "nama_perusahaan": "EVINDOTAMA JAYA INTERNUSA",
        "tanggal_daftar": "2022-07-10",
        "nomor_tanda_daftar": "003945.03/DJAI.PSE/07/2022",
        "qr_code": "https://pse.kominfo.go.id/storage/images/qr_code/73d8dd7e60af8e6669c047f7883c865e.png",
        "status_id": "TERDAFTAR",
        "sistem_elektronik_id": 5134
      }
    },
    {
      "type": "tdpseTerbit",
      "id": 5264,
      "attributes": {
        "nomor_pb_umku": "128500072066500000002",
        "nama": "WEBSITE",
        "website": "evindotama.com",
        "sektor": "Sektor Teknologi Informasi dan Komunikasi",
        "nama_perusahaan": "EVINDOTAMA JAYA INTERNUSA",
        "tanggal_daftar": "2022-07-10",
        "nomor_tanda_daftar": "003945.02/DJAI.PSE/07/2022",
        "qr_code": "https://pse.kominfo.go.id/storage/images/qr_code/72ad0ee71794540d6ec825af53f2e26f.png",
        "status_id": "TERDAFTAR",
        "sistem_elektronik_id": 5133
      }
    }
  ]
}