{
  "meta": {
    "page": {
      "currentPage": 469,
      "from": 4681,
      "lastPage": 885,
      "perPage": 10,
      "to": 4690,
      "total": 8844
    }
  },
  "data": [
    {
      "type": "tdpseTerbit",
      "id": 3477,
      "attributes": {
        "nomor_pb_umku": null,
        "nama": "www.swiss-belinnmanyar.com",
        "website": "swiss-belinnmanyar.com",
        "sektor": "Sektor Perdagangan",
        "nama_perusahaan": "SWISS-BELHOTEL INTERNATIONAL INDONESIA",
        "tanggal_daftar": "2022-03-08",
        "nomor_tanda_daftar": "002245.08/DJAI.PSE/03/2022",
        "qr_code": "https://pse.kominfo.go.id/storage/images/qr_code/ba36393648974afb895aca7ada073d51.png",
        "status_id": "TERDAFTAR",
        "sistem_elektronik_id": 2949
      }
    },
    {
      "type": "tdpseTerbit",
      "id": 3476,
      "attributes": {
        "nomor_pb_umku": null,
        "nama": "www.hotelciputraworld.com",
        "website": "hotelciputraworld.com",
        "sektor": "Sektor Perdagangan",
        "nama_perusahaan": "SWISS-BELHOTEL INTERNATIONAL INDONESIA",
        "tanggal_daftar": "2022-03-08",
        "nomor_tanda_daftar": "002245.07/DJAI.PSE/03/2022",
        "qr_code": "https://pse.kominfo.go.id/storage/images/qr_code/192e2ee55091e5eae45797cf915176c8.png",
        "status_id": "TERDAFTAR",
        "sistem_elektronik_id": 2948
      }
    },
    {
      "type": "tdpseTerbit",
      "id": 3475,
      "attributes": {
        "nomor_pb_umku": null,
        "nama": "swiss-belboutiqueyogyakarta.com",
        "website": "swiss-belboutiqueyogyakarta.com",
        "sektor": "Sektor Perdagangan",
        "nama_perusahaan": "SWISS-BELHOTEL INTERNATIONAL INDONESIA",
        "tanggal_daftar": "2022-03-08",
        "nomor_tanda_daftar": "002245.06/DJAI.PSE/03/2022",
        "qr_code": "https://pse.kominfo.go.id/storage/images/qr_code/3124ab2d679d5340bca3908ca90c5734.png",
        "status_id": "TERDAFTAR",
        "sistem_elektronik_id": 2947
      }
    },
    {
      "type": "tdpseTerbit",
      "id": 3474,
      "attributes": {
        "nomor_pb_umku": null,
        "nama": "www.swiss-belresortwatujimbar.com",
        "website": "swiss-belresortwatujimbar.com",
        "sektor": "Sektor Perdagangan",
        "nama_perusahaan": "SWISS-BELHOTEL INTERNATIONAL INDONESIA",
        "tanggal_daftar": "2022-03-08",
        "nomor_tanda_daftar": "002245.05/DJAI.PSE/03/2022",
        "qr_code": "https://pse.kominfo.go.id/storage/images/qr_code/8f35f144585d62363e8f45c06dcb5301.png",
        "status_id": "TERDAFTAR",
        "sistem_elektronik_id": 2946
      }
    },
    {
      "type": "tdpseTerbit",
      "id": 3473,
      "attributes": {
        "nomor_pb_umku": null,
        "nama": "www.swiss-belhotelrainforest.com",
        "website": "swiss-belhotelrainforest.com",
        "sektor": "Sektor Perdagangan",
        "nama_perusahaan": "SWISS-BELHOTEL INTERNATIONAL INDONESIA",
        "tanggal_daftar": "2022-03-08",
        "nomor_tanda_daftar": "002245.04/DJAI.PSE/03/2022",
        "qr_code": "https://pse.kominfo.go.id/storage/images/qr_code/f8eb9fd74f59c78f5f9b637b13cb7138.png",
        "status_id": "TERDAFTAR",
        "sistem_elektronik_id": 2945
      }
    },
    {
      "type": "tdpseTerbit",
      "id": 3472,
      "attributes": {
        "nomor_pb_umku": null,
        "nama": "www.swiss-belhoteltuban.com",
        "website": "swiss-belhoteltuban.com",
        "sektor": "Sektor Perdagangan",
        "nama_perusahaan": "SWISS-BELHOTEL INTERNATIONAL INDONESIA",
        "tanggal_daftar": "2022-03-08",
        "nomor_tanda_daftar": "002245.03/DJAI.PSE/03/2022",
        "qr_code": "https://pse.kominfo.go.id/storage/images/qr_code/c7c3a7452755327801d9422261491e20.png",
        "status_id": "TERDAFTAR",
        "sistem_elektronik_id": 2944
      }
    },
    {
      "type": "tdpseTerbit",
      "id": 3469,
      "attributes": {
        "nomor_pb_umku": null,
        "nama": "www.hotelciputra.com",
        "website": "hotelciputra.com",
        "sektor": "Sektor Perdagangan",
        "nama_perusahaan": "SWISS-BELHOTEL INTERNATIONAL INDONESIA",
        "tanggal_daftar": "2022-03-08",
        "nomor_tanda_daftar": "002245.02/DJAI.PSE/03/2022",
        "qr_code": "https://pse.kominfo.go.id/storage/images/qr_code/5e8ea9b1538a8b434fbb943639d1937c.png",
        "status_id": "TERDAFTAR",
        "sistem_elektronik_id": 2943
      }
    },
    {
      "type": "tdpseTerbit",
      "id": 3446,
      "attributes": {
        "nomor_pb_umku": null,
        "nama": "Website online booking",
        "website": "swiss-belhotel.com",
        "sektor": "Sektor Perdagangan",
        "nama_perusahaan": "SWISS-BELHOTEL INTERNATIONAL INDONESIA",
        "tanggal_daftar": "2022-03-07",
        "nomor_tanda_daftar": "002245.01/DJAI.PSE/03/2022",
        "qr_code": "https://pse.kominfo.go.id/storage/images/qr_code/b44b49ffa3958707031c6fdd15a6f23d.png",
        "status_id": "TERDAFTAR",
        "sistem_elektronik_id": 2942
      }
    },
    {
      "type": "tdpseTerbit",
      "id": 3445,
      "attributes": {
        "nomor_pb_umku": null,
        "nama": "LALAMOVE",
        "website": "lalamove.com",
        "sektor": "Sektor Teknologi Informasi dan Komunikasi, Sektor Transportasi",
        "nama_perusahaan": "LALAMOVE LOGISTIK INDONESIA",
        "tanggal_daftar": "2022-03-07",
        "nomor_tanda_daftar": "002244.01/DJAI.PSE/03/2022",
        "qr_code": "https://pse.kominfo.go.id/storage/images/qr_code/191fb3130041ca68d033b68b8a3b665e.png",
        "status_id": "TERDAFTAR",
        "sistem_elektronik_id": 2933
      }
    },
    {
      "type": "tdpseTerbit",
      "id": 3444,
      "attributes": {
        "nomor_pb_umku": null,
        "nama": "Danasyariah.id",
        "website": "www.danasyariah.id",
        "sektor": "Sektor Keuangan",
        "nama_perusahaan": "DANA SYARIAH INDONESIA",
        "tanggal_daftar": "2022-03-07",
        "nomor_tanda_daftar": "002243.01/DJAI.PSE/03/2022",
        "qr_code": "https://pse.kominfo.go.id/storage/images/qr_code/6f29b5c90224ae6e0729ecd6c2d7ff6e.png",
        "status_id": "TERDAFTAR",
        "sistem_elektronik_id": 2929
      }
    }
  ]
}