{
  "meta": {
    "page": {
      "currentPage": 470,
      "from": 4691,
      "lastPage": 1014,
      "perPage": 10,
      "to": 4700,
      "total": 10138
    }
  },
  "data": [
    {
      "type": "tdpseTerbit",
      "id": 4800,
      "attributes": {
        "nomor_pb_umku": "301221003691500000003",
        "nama": "KONG RIDER",
        "website": "misterkong.com",
        "sektor": "Sektor Transportasi",
        "nama_perusahaan": "KONG JAYA PERKASA",
        "tanggal_daftar": "2022-06-27",
        "nomor_tanda_daftar": "003475.03/DJAI.PSE/06/2022",
        "qr_code": "https://pse.kominfo.go.id/storage/images/qr_code/949b04f27dadd1fefeebd643255ce761.png",
        "status_id": "TERDAFTAR",
        "sistem_elektronik_id": 4742
      }
    },
    {
      "type": "tdpseTerbit",
      "id": 4799,
      "attributes": {
        "nomor_pb_umku": "301221003691500000002",
        "nama": "KONGPOS",
        "website": "misterkong.com",
        "sektor": "Sektor Perdagangan",
        "nama_perusahaan": "KONG JAYA PERKASA",
        "tanggal_daftar": "2022-06-27",
        "nomor_tanda_daftar": "003475.02/DJAI.PSE/06/2022",
        "qr_code": "https://pse.kominfo.go.id/storage/images/qr_code/27330b24cdcd574cf70a93bbb0fc902e.png",
        "status_id": "TERDAFTAR",
        "sistem_elektronik_id": 4741
      }
    },
    {
      "type": "tdpseTerbit",
      "id": 4798,
      "attributes": {
        "nomor_pb_umku": "301221003691500000001",
        "nama": "MISTERKONG",
        "website": "misterkong.com",
        "sektor": "Sektor Perdagangan",
        "nama_perusahaan": "KONG JAYA PERKASA",
        "tanggal_daftar": "2022-06-27",
        "nomor_tanda_daftar": "003475.01/DJAI.PSE/06/2022",
        "qr_code": "https://pse.kominfo.go.id/storage/images/qr_code/4b24b635f832de3ca0d9947ac692a3cf.png",
        "status_id": "TERDAFTAR",
        "sistem_elektronik_id": 4740
      }
    },
    {
      "type": "tdpseTerbit",
      "id": 4896,
      "attributes": {
        "nomor_pb_umku": "912030053213600000003",
        "nama": "MKM",
        "website": "mkm.id",
        "sektor": "Sektor Perdagangan",
        "nama_perusahaan": "MAGNA KARSA MULYA",
        "tanggal_daftar": "2022-06-28",
        "nomor_tanda_daftar": "003472.03/DJAI.PSE/06/2022",
        "qr_code": "https://pse.kominfo.go.id/storage/images/qr_code/cf26045bf202fdff7a61c37def7a4fe0.png",
        "status_id": "TERDAFTAR",
        "sistem_elektronik_id": 4766
      }
    },
    {
      "type": "tdpseTerbit",
      "id": 4787,
      "attributes": {
        "nomor_pb_umku": "912030053213600000001",
        "nama": "GRIYA BAYAR",
        "website": "GRIYABAYAR.COM",
        "sektor": "Sektor Perdagangan",
        "nama_perusahaan": "MAGNA KARSA MULYA",
        "tanggal_daftar": "2022-06-27",
        "nomor_tanda_daftar": "003472.01/DJAI.PSE/06/2022",
        "qr_code": "https://pse.kominfo.go.id/storage/images/qr_code/4af5703a9c804d04d021333ab5ddd1f9.png",
        "status_id": "TERDAFTAR",
        "sistem_elektronik_id": 4731
      }
    },
    {
      "type": "tdpseTerbit",
      "id": 5349,
      "attributes": {
        "nomor_pb_umku": "",
        "nama": "LEASING AND FINANCE ADVANCED MANAGEMENT PORTAL (LAMP)",
        "website": "-",
        "sektor": "Sektor Keuangan",
        "nama_perusahaan": "MITSUBISHI HC CAPITAL AND FINANCE INDONESIA",
        "tanggal_daftar": "2022-07-12",
        "nomor_tanda_daftar": "003471.01/DJAI.PSE/07/2022",
        "qr_code": "https://pse.kominfo.go.id/storage/images/qr_code/acab5f9b6c603d7c639b0fc1a98bb75f.png",
        "status_id": "TERDAFTAR",
        "sistem_elektronik_id": 5221
      }
    },
    {
      "type": "tdpseTerbit",
      "id": 4796,
      "attributes": {
        "nomor_pb_umku": "211121001207200000001",
        "nama": "DIBIMBING DOKTER",
        "website": "dibimbingdokter.com",
        "sektor": "Sektor Kesehatan",
        "nama_perusahaan": "HENRI PERWIRA NEGARA",
        "tanggal_daftar": "2022-06-27",
        "nomor_tanda_daftar": "003469.01/DJAI.PSE/06/2022",
        "qr_code": "https://pse.kominfo.go.id/storage/images/qr_code/af3541c036f9e864f90e1ab120c25b9f.png",
        "status_id": "TERDAFTAR",
        "sistem_elektronik_id": 4738
      }
    },
    {
      "type": "tdpseTerbit",
      "id": 4778,
      "attributes": {
        "nomor_pb_umku": "180622002411400030001",
        "nama": "AMGA",
        "website": "amga.co.id",
        "sektor": "Sektor Perdagangan, Sektor Teknologi Informasi dan Komunikasi",
        "nama_perusahaan": "ALPHA MAHAJAYA GEMILANG ABADI",
        "tanggal_daftar": "2022-06-26",
        "nomor_tanda_daftar": "003468.01/DJAI.PSE/06/2022",
        "qr_code": "https://pse.kominfo.go.id/storage/images/qr_code/2414efa8788ec3d3e798857a4af8132e.png",
        "status_id": "TERDAFTAR",
        "sistem_elektronik_id": 4723
      }
    },
    {
      "type": "tdpseTerbit",
      "id": 5006,
      "attributes": {
        "nomor_pb_umku": "912020655244100010001",
        "nama": "FINTECH PLATFORM",
        "website": "matajari.co.id",
        "sektor": "Sektor Teknologi Informasi dan Komunikasi",
        "nama_perusahaan": "MATAJARI MITRA SOLUSI",
        "tanggal_daftar": "2022-07-01",
        "nomor_tanda_daftar": "003465.01/DJAI.PSE/07/2022",
        "qr_code": "https://pse.kominfo.go.id/storage/images/qr_code/5badc00afc1ffc75396962564e7205e4.png",
        "status_id": "TERDAFTAR",
        "sistem_elektronik_id": 4874
      }
    },
    {
      "type": "tdpseTerbit",
      "id": 5460,
      "attributes": {
        "nomor_pb_umku": "121300010106800010002",
        "nama": "QUANTUS TELEMATIKA IND",
        "website": "qti.co.id",
        "sektor": "Sektor Teknologi Informasi dan Komunikasi",
        "nama_perusahaan": "QUANTUS TELEMATIKA INDONESIA",
        "tanggal_daftar": "2022-07-13",
        "nomor_tanda_daftar": "003463.02/DJAI.PSE/07/2022",
        "qr_code": "https://pse.kominfo.go.id/storage/images/qr_code/3f5b28ee0e2edbe4a6dfd5c44faf9ce7.png",
        "status_id": "TERDAFTAR",
        "sistem_elektronik_id": 5333
      }
    }
  ]
}