{
  "meta": {
    "page": {
      "currentPage": 48,
      "from": 471,
      "lastPage": 985,
      "perPage": 10,
      "to": 480,
      "total": 9842
    }
  },
  "data": [
    {
      "type": "tdpseTerbit",
      "id": 9854,
      "attributes": {
        "nomor_pb_umku": "026801003082700170003",
        "nama": "NUSAN PLATFORM",
        "website": "-",
        "sektor": "Sektor Teknologi Informasi dan Komunikasi",
        "nama_perusahaan": "IDE KREATIF NUSANTARA",
        "tanggal_daftar": "2022-08-04",
        "nomor_tanda_daftar": "006924.01/DJAI.PSE/08/2022",
        "qr_code": "https://pse.kominfo.go.id/storage/images/qr_code/78f0e97767693fe3dc99de2f8c5de1dd.png",
        "status_id": "TERDAFTAR",
        "sistem_elektronik_id": 9734
      }
    },
    {
      "type": "tdpseTerbit",
      "id": 9947,
      "attributes": {
        "nomor_pb_umku": "040822003630500000007",
        "nama": "KOTAPELAJAR.COM",
        "website": "kotapelajar.com",
        "sektor": "Sektor Teknologi Informasi dan Komunikasi",
        "nama_perusahaan": "DWI YOGA PRASETYO",
        "tanggal_daftar": "2022-08-05",
        "nomor_tanda_daftar": "006923.07/DJAI.PSE/08/2022",
        "qr_code": "https://pse.kominfo.go.id/storage/images/qr_code/fe7aa8bb419199431350c1a5fbe5d3bf.png",
        "status_id": "TERDAFTAR",
        "sistem_elektronik_id": 9836
      }
    },
    {
      "type": "tdpseTerbit",
      "id": 9946,
      "attributes": {
        "nomor_pb_umku": "040822003630500000006",
        "nama": "WEBIFY.ID",
        "website": "webify.id",
        "sektor": "Sektor Teknologi Informasi dan Komunikasi",
        "nama_perusahaan": "DWI YOGA PRASETYO",
        "tanggal_daftar": "2022-08-05",
        "nomor_tanda_daftar": "006923.06/DJAI.PSE/08/2022",
        "qr_code": "https://pse.kominfo.go.id/storage/images/qr_code/cf0b357e36ed6a3bf6b576031bcb6802.png",
        "status_id": "TERDAFTAR",
        "sistem_elektronik_id": 9835
      }
    },
    {
      "type": "tdpseTerbit",
      "id": 9945,
      "attributes": {
        "nomor_pb_umku": "040822003630500000005",
        "nama": "WEBISASI.COM",
        "website": "webisasi.com",
        "sektor": "Sektor Teknologi Informasi dan Komunikasi",
        "nama_perusahaan": "DWI YOGA PRASETYO",
        "tanggal_daftar": "2022-08-05",
        "nomor_tanda_daftar": "006923.05/DJAI.PSE/08/2022",
        "qr_code": "https://pse.kominfo.go.id/storage/images/qr_code/a96db996d54934e4dbcc24aefec62a56.png",
        "status_id": "TERDAFTAR",
        "sistem_elektronik_id": 9834
      }
    },
    {
      "type": "tdpseTerbit",
      "id": 9943,
      "attributes": {
        "nomor_pb_umku": "040822003630500000004",
        "nama": "WEBDAGANG.COM",
        "website": "webdagang.com",
        "sektor": "Sektor Teknologi Informasi dan Komunikasi",
        "nama_perusahaan": "DWI YOGA PRASETYO",
        "tanggal_daftar": "2022-08-05",
        "nomor_tanda_daftar": "006923.04/DJAI.PSE/08/2022",
        "qr_code": "https://pse.kominfo.go.id/storage/images/qr_code/ab40ea80c571d23524c2685b11665847.png",
        "status_id": "TERDAFTAR",
        "sistem_elektronik_id": 9832
      }
    },
    {
      "type": "tdpseTerbit",
      "id": 9942,
      "attributes": {
        "nomor_pb_umku": "040822003630500000003",
        "nama": "WEBMEREK.COM",
        "website": "webmerek.com",
        "sektor": "Sektor Teknologi Informasi dan Komunikasi",
        "nama_perusahaan": "DWI YOGA PRASETYO",
        "tanggal_daftar": "2022-08-05",
        "nomor_tanda_daftar": "006923.03/DJAI.PSE/08/2022",
        "qr_code": "https://pse.kominfo.go.id/storage/images/qr_code/726eb8625ac4800fa9249a32c1116f44.png",
        "status_id": "TERDAFTAR",
        "sistem_elektronik_id": 9831
      }
    },
    {
      "type": "tdpseTerbit",
      "id": 9941,
      "attributes": {
        "nomor_pb_umku": "040822003630500000002",
        "nama": "WEBAJAR.COM",
        "website": "webajar.com",
        "sektor": "Sektor Teknologi Informasi dan Komunikasi",
        "nama_perusahaan": "DWI YOGA PRASETYO",
        "tanggal_daftar": "2022-08-05",
        "nomor_tanda_daftar": "006923.02/DJAI.PSE/08/2022",
        "qr_code": "https://pse.kominfo.go.id/storage/images/qr_code/f7803404776978df36c4efc592f8d981.png",
        "status_id": "TERDAFTAR",
        "sistem_elektronik_id": 9830
      }
    },
    {
      "type": "tdpseTerbit",
      "id": 9853,
      "attributes": {
        "nomor_pb_umku": "040822003630500000001",
        "nama": "WEBIFY.CO.ID",
        "website": "webify.co.id",
        "sektor": "Sektor Teknologi Informasi dan Komunikasi",
        "nama_perusahaan": "DWI YOGA PRASETYO",
        "tanggal_daftar": "2022-08-04",
        "nomor_tanda_daftar": "006923.01/DJAI.PSE/08/2022",
        "qr_code": "https://pse.kominfo.go.id/storage/images/qr_code/87463b7e9ce3ab76683d250635bd85d2.png",
        "status_id": "TERDAFTAR",
        "sistem_elektronik_id": 9732
      }
    },
    {
      "type": "tdpseTerbit",
      "id": 9883,
      "attributes": {
        "nomor_pb_umku": "010222000522900010001",
        "nama": "JCC APPS",
        "website": "jcc-corp.co.id",
        "sektor": "Sektor Perdagangan",
        "nama_perusahaan": "JASMINE CAHAYA CEMERLANG",
        "tanggal_daftar": "2022-08-08",
        "nomor_tanda_daftar": "006922.01/DJAI.PSE/08/2022",
        "qr_code": "https://pse.kominfo.go.id/storage/images/qr_code/f3577285bc524ab1f12e27b5bb0e24e1.png",
        "status_id": "TERDAFTAR",
        "sistem_elektronik_id": 9769
      }
    },
    {
      "type": "tdpseTerbit",
      "id": 9855,
      "attributes": {
        "nomor_pb_umku": "200222001137400010001",
        "nama": "SMESHUB.ID",
        "website": "smeshub.id",
        "sektor": "Sektor Teknologi Informasi dan Komunikasi",
        "nama_perusahaan": "SMESHUB BANGUN NEGERI",
        "tanggal_daftar": "2022-08-04",
        "nomor_tanda_daftar": "006921.01/DJAI.PSE/08/2022",
        "qr_code": "https://pse.kominfo.go.id/storage/images/qr_code/082fa0d1cf15fe0a8586bbadc26a625a.png",
        "status_id": "TERDAFTAR",
        "sistem_elektronik_id": 9735
      }
    }
  ]
}