{
  "meta": {
    "page": {
      "currentPage": 471,
      "from": 4701,
      "lastPage": 1032,
      "perPage": 10,
      "to": 4710,
      "total": 10315
    }
  },
  "data": [
    {
      "type": "tdpseTerbit",
      "id": 5020,
      "attributes": {
        "nomor_pb_umku": "912020927101200020001",
        "nama": "HOL",
        "website": "hukumonline.com",
        "sektor": "Sektor Perdagangan, Sektor Teknologi Informasi dan Komunikasi",
        "nama_perusahaan": "JUSTIKA SIAR PUBLIKA",
        "tanggal_daftar": "2022-07-01",
        "nomor_tanda_daftar": "003593.03/DJAI.PSE/07/2022",
        "qr_code": "https://pse.kominfo.go.id/storage/images/qr_code/519482c755368df200cc12c2166b8cbe.png",
        "status_id": "TERDAFTAR",
        "sistem_elektronik_id": 4892
      }
    },
    {
      "type": "tdpseTerbit",
      "id": 5057,
      "attributes": {
        "nomor_pb_umku": "912030571242400020002",
        "nama": "UKU",
        "website": "ukuindo.com",
        "sektor": "Sektor Keuangan",
        "nama_perusahaan": "TEKNOLOGI MERLIN SEJAHTERA",
        "tanggal_daftar": "2022-07-04",
        "nomor_tanda_daftar": "003590.01/DJAI.PSE/07/2022",
        "qr_code": "https://pse.kominfo.go.id/storage/images/qr_code/3c024af79080bf43e1ac740aa5152952.png",
        "status_id": "TERDAFTAR",
        "sistem_elektronik_id": 4926
      }
    },
    {
      "type": "tdpseTerbit",
      "id": 10543,
      "attributes": {
        "nomor_pb_umku": "290622007760200010001",
        "nama": "PSE",
        "website": "-",
        "sektor": "Sektor Perdagangan",
        "nama_perusahaan": "GEMILANG MAS",
        "tanggal_daftar": "2022-08-18",
        "nomor_tanda_daftar": "003589.01/DJAI.PSE/08/2022",
        "qr_code": "https://pse.kominfo.go.id/storage/images/qr_code/8c835b0a66930e6101190378dce2d321.png",
        "status_id": "TERDAFTAR",
        "sistem_elektronik_id": 10402
      }
    },
    {
      "type": "tdpseTerbit",
      "id": 5230,
      "attributes": {
        "nomor_pb_umku": "022010980017700000006",
        "nama": "KARYAANILO",
        "website": "karyaanilo.com",
        "sektor": "Sektor Teknologi Informasi dan Komunikasi",
        "nama_perusahaan": "ANILO ADIKARYA SENTOSA",
        "tanggal_daftar": "2022-07-08",
        "nomor_tanda_daftar": "003588.06/DJAI.PSE/07/2022",
        "qr_code": "https://pse.kominfo.go.id/storage/images/qr_code/b2dda6a5514d5fb05a390058eb72a400.png",
        "status_id": "TERDAFTAR",
        "sistem_elektronik_id": 5099
      }
    },
    {
      "type": "tdpseTerbit",
      "id": 5228,
      "attributes": {
        "nomor_pb_umku": "022010980017700000005",
        "nama": "INNOVATIONKIT",
        "website": "innovationkit.id",
        "sektor": "Sektor Teknologi Informasi dan Komunikasi",
        "nama_perusahaan": "ANILO ADIKARYA SENTOSA",
        "tanggal_daftar": "2022-07-08",
        "nomor_tanda_daftar": "003588.05/DJAI.PSE/07/2022",
        "qr_code": "https://pse.kominfo.go.id/storage/images/qr_code/ec35138455a8595e632d19758e5e8327.png",
        "status_id": "TERDAFTAR",
        "sistem_elektronik_id": 5097
      }
    },
    {
      "type": "tdpseTerbit",
      "id": 5226,
      "attributes": {
        "nomor_pb_umku": "022010980017700000004",
        "nama": "TIJAROH",
        "website": "tijaroh.id",
        "sektor": "Sektor Teknologi Informasi dan Komunikasi",
        "nama_perusahaan": "ANILO ADIKARYA SENTOSA",
        "tanggal_daftar": "2022-07-08",
        "nomor_tanda_daftar": "003588.04/DJAI.PSE/07/2022",
        "qr_code": "https://pse.kominfo.go.id/storage/images/qr_code/4551f83265cec50dd7b533cf52cc5284.png",
        "status_id": "TERDAFTAR",
        "sistem_elektronik_id": 5096
      }
    },
    {
      "type": "tdpseTerbit",
      "id": 5225,
      "attributes": {
        "nomor_pb_umku": "022010980017700000003",
        "nama": "CONNECTBANK",
        "website": "connectbank.id",
        "sektor": "Sektor Teknologi Informasi dan Komunikasi",
        "nama_perusahaan": "ANILO ADIKARYA SENTOSA",
        "tanggal_daftar": "2022-07-08",
        "nomor_tanda_daftar": "003588.03/DJAI.PSE/07/2022",
        "qr_code": "https://pse.kominfo.go.id/storage/images/qr_code/fc1efbd90bcec74613a4575f0709fea4.png",
        "status_id": "TERDAFTAR",
        "sistem_elektronik_id": 5095
      }
    },
    {
      "type": "tdpseTerbit",
      "id": 5185,
      "attributes": {
        "nomor_pb_umku": "022010980017700000002",
        "nama": "AAS1",
        "website": "aas1.id",
        "sektor": "Sektor Perdagangan",
        "nama_perusahaan": "ANILO ADIKARYA SENTOSA",
        "tanggal_daftar": "2022-07-07",
        "nomor_tanda_daftar": "003588.02/DJAI.PSE/07/2022",
        "qr_code": "https://pse.kominfo.go.id/storage/images/qr_code/063d3a42397bc5544178c133d3a0532a.png",
        "status_id": "TERDAFTAR",
        "sistem_elektronik_id": 5053
      }
    },
    {
      "type": "tdpseTerbit",
      "id": 5169,
      "attributes": {
        "nomor_pb_umku": "022010980017700000001",
        "nama": "ANIPAY",
        "website": "anipay.id",
        "sektor": "Sektor Perdagangan",
        "nama_perusahaan": "ANILO ADIKARYA SENTOSA",
        "tanggal_daftar": "2022-07-07",
        "nomor_tanda_daftar": "003588.01/DJAI.PSE/07/2022",
        "qr_code": "https://pse.kominfo.go.id/storage/images/qr_code/8cf80cec6ba6579df80d1ffa19e388b5.png",
        "status_id": "TERDAFTAR",
        "sistem_elektronik_id": 5034
      }
    },
    {
      "type": "tdpseTerbit",
      "id": 8668,
      "attributes": {
        "nomor_pb_umku": "812011108341700000003",
        "nama": "HADIRKOE",
        "website": "hadirkoe.com",
        "sektor": "Sektor Teknologi Informasi dan Komunikasi",
        "nama_perusahaan": "ELECTRONIC DATA INTERCHANGE INDONESIA",
        "tanggal_daftar": "2022-07-21",
        "nomor_tanda_daftar": "003587.03/DJAI.PSE/07/2022",
        "qr_code": "https://pse.kominfo.go.id/storage/images/qr_code/5a7994630bc5e71be805b2b3d5d1d38c.png",
        "status_id": "TERDAFTAR",
        "sistem_elektronik_id": 8585
      }
    }
  ]
}