{
  "meta": {
    "page": {
      "currentPage": 472,
      "from": 4711,
      "lastPage": 991,
      "perPage": 10,
      "to": 4720,
      "total": 9907
    }
  },
  "data": [
    {
      "type": "tdpseTerbit",
      "id": 10148,
      "attributes": {
        "nomor_pb_umku": "812001623058400270010",
        "nama": "TERASEHAT",
        "website": "terasehat.id",
        "sektor": "Sektor Kesehatan, Sektor Teknologi Informasi dan Komunikasi",
        "nama_perusahaan": "APLIKANUSA LINTASARTA",
        "tanggal_daftar": "2022-08-09",
        "nomor_tanda_daftar": "003235.06/DJAI.PSE/08/2022",
        "qr_code": "https://pse.kominfo.go.id/storage/images/qr_code/d95cb5dc934a29b4f679e63c7173f8cf.png",
        "status_id": "TERDAFTAR",
        "sistem_elektronik_id": 10030
      }
    },
    {
      "type": "tdpseTerbit",
      "id": 10147,
      "attributes": {
        "nomor_pb_umku": "812001623058400270009",
        "nama": "OWLEXA CLAIM MANAGEMENT",
        "website": "owlexa.com",
        "sektor": "Sektor Perdagangan, Sektor Kesehatan, Sektor Teknologi Informasi dan Komunikasi",
        "nama_perusahaan": "APLIKANUSA LINTASARTA",
        "tanggal_daftar": "2022-08-09",
        "nomor_tanda_daftar": "003235.05/DJAI.PSE/08/2022",
        "qr_code": "https://pse.kominfo.go.id/storage/images/qr_code/7436493261070d6a9e2de33136c23137.png",
        "status_id": "TERDAFTAR",
        "sistem_elektronik_id": 10029
      }
    },
    {
      "type": "tdpseTerbit",
      "id": 9429,
      "attributes": {
        "nomor_pb_umku": "812001623058400270008",
        "nama": "LINTASARTA CLOUDEKA",
        "website": "cloudeka.id",
        "sektor": "Sektor Teknologi Informasi dan Komunikasi",
        "nama_perusahaan": "APLIKANUSA LINTASARTA",
        "tanggal_daftar": "2022-07-30",
        "nomor_tanda_daftar": "003235.04/DJAI.PSE/07/2022",
        "qr_code": "https://pse.kominfo.go.id/storage/images/qr_code/1b61d89e3eeec7315668ea4e64c756f5.png",
        "status_id": "TERDAFTAR",
        "sistem_elektronik_id": 9341
      }
    },
    {
      "type": "tdpseTerbit",
      "id": 9348,
      "attributes": {
        "nomor_pb_umku": "812001623058400270007",
        "nama": "LINTASARTA E-COMMERCE",
        "website": "lintasarta.net",
        "sektor": "Sektor Perdagangan",
        "nama_perusahaan": "APLIKANUSA LINTASARTA",
        "tanggal_daftar": "2022-07-29",
        "nomor_tanda_daftar": "003235.03/DJAI.PSE/07/2022",
        "qr_code": "https://pse.kominfo.go.id/storage/images/qr_code/2173f1189fac78d9e18f02663a6f0f67.png",
        "status_id": "TERDAFTAR",
        "sistem_elektronik_id": 9260
      }
    },
    {
      "type": "tdpseTerbit",
      "id": 8912,
      "attributes": {
        "nomor_pb_umku": "812001623058400270006",
        "nama": "IPROCURA",
        "website": "eproc.lintasarta.net",
        "sektor": "Sektor Perdagangan",
        "nama_perusahaan": "APLIKANUSA LINTASARTA",
        "tanggal_daftar": "2022-07-23",
        "nomor_tanda_daftar": "003235.02/DJAI.PSE/07/2022",
        "qr_code": "https://pse.kominfo.go.id/storage/images/qr_code/505dd4255eb79bc286fd967fe41b1d29.png",
        "status_id": "TERDAFTAR",
        "sistem_elektronik_id": 8816
      }
    },
    {
      "type": "tdpseTerbit",
      "id": 4635,
      "attributes": {
        "nomor_pb_umku": "812001623058400250005",
        "nama": "LINTASARTA E-KYC",
        "website": "-",
        "sektor": "Sektor Teknologi Informasi dan Komunikasi",
        "nama_perusahaan": "APLIKANUSA LINTASARTA",
        "tanggal_daftar": "2022-06-21",
        "nomor_tanda_daftar": "003235.01/DJAI.PSE/06/2022",
        "qr_code": "https://pse.kominfo.go.id/storage/images/qr_code/454f79b8f662c414077f36657ab76311.png",
        "status_id": "TERDAFTAR",
        "sistem_elektronik_id": 4596
      }
    },
    {
      "type": "tdpseTerbit",
      "id": 4973,
      "attributes": {
        "nomor_pb_umku": "210322006176700010001",
        "nama": "TTCHAT",
        "website": "ttchat.com",
        "sektor": "Sektor Teknologi Informasi dan Komunikasi",
        "nama_perusahaan": "QUYAN TECHNOLOGY INDONESIA",
        "tanggal_daftar": "2022-06-30",
        "nomor_tanda_daftar": "003232.01/DJAI.PSE/06/2022",
        "qr_code": "https://pse.kominfo.go.id/storage/images/qr_code/6a2593e2990020ef536d5070db4e42c7.png",
        "status_id": "TERDAFTAR",
        "sistem_elektronik_id": 4830
      }
    },
    {
      "type": "tdpseTerbit",
      "id": 4648,
      "attributes": {
        "nomor_pb_umku": "912021909039600040001",
        "nama": "PASSIO ECO",
        "website": "passio.eco",
        "sektor": "Sektor Perdagangan",
        "nama_perusahaan": "ECOMOBI DIGITAL INDONESIA",
        "tanggal_daftar": "2022-06-21",
        "nomor_tanda_daftar": "003231.02/DJAI.PSE/06/2022",
        "qr_code": "https://pse.kominfo.go.id/storage/images/qr_code/cd7eaf5a248bd9dc432af68338eed486.png",
        "status_id": "TERDAFTAR",
        "sistem_elektronik_id": 4608
      }
    },
    {
      "type": "tdpseTerbit",
      "id": 5417,
      "attributes": {
        "nomor_pb_umku": "140622003113700010001",
        "nama": "KLIKIN.ID",
        "website": "klikin.id",
        "sektor": "Sektor Perdagangan",
        "nama_perusahaan": "SMART SULTAN TRADE",
        "tanggal_daftar": "2022-07-12",
        "nomor_tanda_daftar": "003214.01/DJAI.PSE/07/2022",
        "qr_code": "https://pse.kominfo.go.id/storage/images/qr_code/966f11caf5e61363b575593653d2ab90.png",
        "status_id": "TERDAFTAR",
        "sistem_elektronik_id": 5290
      }
    },
    {
      "type": "tdpseTerbit",
      "id": 4658,
      "attributes": {
        "nomor_pb_umku": "120900014128500020002",
        "nama": "AKAMAI CONTROL CENTER PORTAL (“ACC”)",
        "website": "akamai.com",
        "sektor": "Sektor Teknologi Informasi dan Komunikasi",
        "nama_perusahaan": "AKAMAI TEKNOLOGI INDONESIA",
        "tanggal_daftar": "2022-06-22",
        "nomor_tanda_daftar": "003212.01/DJAI.PSE/06/2022",
        "qr_code": "https://pse.kominfo.go.id/storage/images/qr_code/f5371dffb5835c8ccdc9dea794edf80e.png",
        "status_id": "TERDAFTAR",
        "sistem_elektronik_id": 4617
      }
    }
  ]
}