{
  "meta": {
    "page": {
      "currentPage": 473,
      "from": 4721,
      "lastPage": 945,
      "perPage": 10,
      "to": 4730,
      "total": 9449
    }
  },
  "data": [
    {
      "type": "tdpseTerbit",
      "id": 3939,
      "attributes": {
        "nomor_pb_umku": null,
        "nama": "ABS.Net",
        "website": "abs.net.id",
        "sektor": "Sektor Teknologi Informasi dan Komunikasi",
        "nama_perusahaan": "ABS MULTIMEDIA INDONESIA",
        "tanggal_daftar": "2022-04-20",
        "nomor_tanda_daftar": "002561.01/DJAI.PSE/04/2022",
        "qr_code": "https://pse.kominfo.go.id/storage/images/qr_code/8149849f6e6a7124a7535b195e110d01.png",
        "status_id": "TERDAFTAR",
        "sistem_elektronik_id": 3910
      }
    },
    {
      "type": "tdpseTerbit",
      "id": 3938,
      "attributes": {
        "nomor_pb_umku": null,
        "nama": "Warung Kita Merchant",
        "website": "www.warungkita.info",
        "sektor": "Sektor Perdagangan",
        "nama_perusahaan": "BASISTA TEAMWORK",
        "tanggal_daftar": "2022-04-19",
        "nomor_tanda_daftar": "002560.01/DJAI.PSE/04/2022",
        "qr_code": "https://pse.kominfo.go.id/storage/images/qr_code/4f4520ae1cc2e7beaed0b92ed84ce22a.png",
        "status_id": "TERDAFTAR",
        "sistem_elektronik_id": 3739
      }
    },
    {
      "type": "tdpseTerbit",
      "id": 3937,
      "attributes": {
        "nomor_pb_umku": null,
        "nama": "ikreasi",
        "website": "ikreasi.com",
        "sektor": "Sektor Teknologi Informasi dan Komunikasi",
        "nama_perusahaan": "KREASI DIGITAL PERKASA",
        "tanggal_daftar": "2022-04-19",
        "nomor_tanda_daftar": "002559.01/DJAI.PSE/04/2022",
        "qr_code": "https://pse.kominfo.go.id/storage/images/qr_code/dcb23ccbeae1c2db7c079b89e74b750e.png",
        "status_id": "TERDAFTAR",
        "sistem_elektronik_id": 3887
      }
    },
    {
      "type": "tdpseTerbit",
      "id": 5335,
      "attributes": {
        "nomor_pb_umku": "812011302055500020005",
        "nama": "MEDICILLIN",
        "website": "medicillin.com",
        "sektor": "Sektor Keuangan",
        "nama_perusahaan": "ZURICH ASURANSI INDONESIA",
        "tanggal_daftar": "2022-07-12",
        "nomor_tanda_daftar": "002558.04/DJAI.PSE/07/2022",
        "qr_code": "https://pse.kominfo.go.id/storage/images/qr_code/f1d5eb7913dbe418c6c815e5e12d3a39.png",
        "status_id": "TERDAFTAR",
        "sistem_elektronik_id": 5208
      }
    },
    {
      "type": "tdpseTerbit",
      "id": 5329,
      "attributes": {
        "nomor_pb_umku": "812011302055500020004",
        "nama": "AUTOCILLIN MOBILE CLAIM",
        "website": "-",
        "sektor": "Sektor Keuangan",
        "nama_perusahaan": "ZURICH ASURANSI INDONESIA",
        "tanggal_daftar": "2022-07-12",
        "nomor_tanda_daftar": "002558.03/DJAI.PSE/07/2022",
        "qr_code": "https://pse.kominfo.go.id/storage/images/qr_code/05cfaa7f6447ad73b87a48f9e6774c21.png",
        "status_id": "TERDAFTAR",
        "sistem_elektronik_id": 5203
      }
    },
    {
      "type": "tdpseTerbit",
      "id": 4126,
      "attributes": {
        "nomor_pb_umku": "812011302055500020003",
        "nama": "CORPORATE WEB E-COMMERCE",
        "website": "asuransi.zurich.co.id",
        "sektor": "Sektor Keuangan",
        "nama_perusahaan": "ZURICH ASURANSI INDONESIA",
        "tanggal_daftar": "2022-05-25",
        "nomor_tanda_daftar": "002558.02/DJAI.PSE/06/2022",
        "qr_code": "https://pse.kominfo.go.id/storage/images/qr_code/c693a03e41807b9589f35942be3bfd58.png",
        "status_id": "TERDAFTAR",
        "sistem_elektronik_id": 4128
      }
    },
    {
      "type": "tdpseTerbit",
      "id": 4386,
      "attributes": {
        "nomor_pb_umku": null,
        "nama": "Travellin",
        "website": "travellin.co.id",
        "sektor": "Sektor Keuangan",
        "nama_perusahaan": "ZURICH ASURANSI INDONESIA",
        "tanggal_daftar": "2022-05-17",
        "nomor_tanda_daftar": "002558.02/DJAI.PSE/05/2022",
        "qr_code": "https://pse.kominfo.go.id/storage/images/qr_code/b4b688144b6239bbb90ac376c74e45b4.png",
        "status_id": "TERDAFTAR",
        "sistem_elektronik_id": 4370
      }
    },
    {
      "type": "tdpseTerbit",
      "id": 3936,
      "attributes": {
        "nomor_pb_umku": null,
        "nama": "MyLife App",
        "website": "-",
        "sektor": "Sektor Keuangan, Sektor Teknologi Informasi dan Komunikasi",
        "nama_perusahaan": "ZURICH ASURANSI INDONESIA",
        "tanggal_daftar": "2022-04-19",
        "nomor_tanda_daftar": "002558.01/DJAI.PSE/04/2022",
        "qr_code": "https://pse.kominfo.go.id/storage/images/qr_code/fb7ac905d36374dd4963f2064524602f.png",
        "status_id": "TERDAFTAR",
        "sistem_elektronik_id": 3932
      }
    },
    {
      "type": "tdpseTerbit",
      "id": 3933,
      "attributes": {
        "nomor_pb_umku": null,
        "nama": "bank pusaka alam nusantara",
        "website": "-",
        "sektor": "Sektor Energi dan Sumber Daya Mineral, Sektor Kesehatan, Sektor Keuangan, Sektor Pangan, Sektor Perdagangan, Sektor Pertahanan dan Keamanan, Sektor Teknologi Informasi dan Komunikasi, Sektor Transportasi",
        "nama_perusahaan": "HENDI RIAN MAULANA",
        "tanggal_daftar": "2022-04-19",
        "nomor_tanda_daftar": "002557.01/DJAI.PSE/04/2022",
        "qr_code": "https://pse.kominfo.go.id/storage/images/qr_code/2cc81129abfa06ce8d0a29cc3a2aaa3c.png",
        "status_id": "TERDAFTAR",
        "sistem_elektronik_id": 3834
      }
    },
    {
      "type": "tdpseTerbit",
      "id": 3932,
      "attributes": {
        "nomor_pb_umku": null,
        "nama": "Insertlive.com",
        "website": "insertlive.com",
        "sektor": "Sektor Teknologi Informasi dan Komunikasi",
        "nama_perusahaan": "TELEVISI TRANSFORMASI INDONESIA",
        "tanggal_daftar": "2022-04-19",
        "nomor_tanda_daftar": "002556.01/DJAI.PSE/04/2022",
        "qr_code": "https://pse.kominfo.go.id/storage/images/qr_code/63dd24b028ce3b9bf20c52f0a9c534f8.png",
        "status_id": "TERDAFTAR",
        "sistem_elektronik_id": 3967
      }
    }
  ]
}