{
  "meta": {
    "page": {
      "currentPage": 475,
      "from": 4741,
      "lastPage": 1061,
      "perPage": 10,
      "to": 4750,
      "total": 10601
    }
  },
  "data": [
    {
      "type": "tdpseTerbit",
      "id": 9771,
      "attributes": {
        "nomor_pb_umku": "912010514083200040003",
        "nama": "PIJARU.COM",
        "website": "pijaru.com",
        "sektor": "Sektor Teknologi Informasi dan Komunikasi",
        "nama_perusahaan": "KOMPAS CYBER MEDIA",
        "tanggal_daftar": "2022-08-03",
        "nomor_tanda_daftar": "003859.03/DJAI.PSE/08/2022",
        "qr_code": "https://pse.kominfo.go.id/storage/images/qr_code/f171257d56483f8a015888846dc31d51.png",
        "status_id": "TERDAFTAR",
        "sistem_elektronik_id": 9638
      }
    },
    {
      "type": "tdpseTerbit",
      "id": 9747,
      "attributes": {
        "nomor_pb_umku": "912010514083200040002",
        "nama": "WWW.KOMPAS.COM",
        "website": "kompasiana.com",
        "sektor": "Sektor Teknologi Informasi dan Komunikasi",
        "nama_perusahaan": "KOMPAS CYBER MEDIA",
        "tanggal_daftar": "2022-08-03",
        "nomor_tanda_daftar": "003859.02/DJAI.PSE/08/2022",
        "qr_code": "https://pse.kominfo.go.id/storage/images/qr_code/0d67fb0dd588138ee9a6153da6d88308.png",
        "status_id": "TERDAFTAR",
        "sistem_elektronik_id": 9621
      }
    },
    {
      "type": "tdpseTerbit",
      "id": 5203,
      "attributes": {
        "nomor_pb_umku": "912010514083200040001",
        "nama": "KOMPAS.COM",
        "website": "kompas.com",
        "sektor": "Sektor Teknologi Informasi dan Komunikasi",
        "nama_perusahaan": "KOMPAS CYBER MEDIA",
        "tanggal_daftar": "2022-07-08",
        "nomor_tanda_daftar": "003859.01/DJAI.PSE/07/2022",
        "qr_code": "https://pse.kominfo.go.id/storage/images/qr_code/8a08097193bd1bdefc3e0bdd3b93c183.png",
        "status_id": "TERDAFTAR",
        "sistem_elektronik_id": 5060
      }
    },
    {
      "type": "tdpseTerbit",
      "id": 9231,
      "attributes": {
        "nomor_pb_umku": "812021319184101560013",
        "nama": "BFI CONNECT (BFI FINANCE)",
        "website": "connect.bfi.co.id",
        "sektor": "Sektor Keuangan",
        "nama_perusahaan": "BFI FINANCE INDONESIA",
        "tanggal_daftar": "2022-07-28",
        "nomor_tanda_daftar": "003857.13/DJAI.PSE/07/2022",
        "qr_code": "https://pse.kominfo.go.id/storage/images/qr_code/cc8306242d3fe0ef70f0244e3674f974.png",
        "status_id": "TERDAFTAR",
        "sistem_elektronik_id": 9144
      }
    },
    {
      "type": "tdpseTerbit",
      "id": 8820,
      "attributes": {
        "nomor_pb_umku": "812021319184101560010",
        "nama": "ONBOARDING AGENT BRAVO BFI (BFI FINANCE)",
        "website": "agency.bfi.co.id",
        "sektor": "Sektor Keuangan",
        "nama_perusahaan": "BFI FINANCE INDONESIA",
        "tanggal_daftar": "2022-07-22",
        "nomor_tanda_daftar": "003857.12/DJAI.PSE/07/2022",
        "qr_code": "https://pse.kominfo.go.id/storage/images/qr_code/c205d22492e8cdb079cdf5ebc5b077b1.png",
        "status_id": "TERDAFTAR",
        "sistem_elektronik_id": 7923
      }
    },
    {
      "type": "tdpseTerbit",
      "id": 8814,
      "attributes": {
        "nomor_pb_umku": "812021319184101560005",
        "nama": "PENGAJUAN PINJAMAN UNTUK CUSTOMER BFI FINANCE",
        "website": "pinjaman.bfi.co.id",
        "sektor": "Sektor Keuangan",
        "nama_perusahaan": "BFI FINANCE INDONESIA",
        "tanggal_daftar": "2022-07-22",
        "nomor_tanda_daftar": "003857.11/DJAI.PSE/07/2022",
        "qr_code": "https://pse.kominfo.go.id/storage/images/qr_code/f471e8cda75a76508a4be9f524722ea7.png",
        "status_id": "TERDAFTAR",
        "sistem_elektronik_id": 7888
      }
    },
    {
      "type": "tdpseTerbit",
      "id": 8816,
      "attributes": {
        "nomor_pb_umku": "812021319184101560006",
        "nama": "WEBSITE KREDIT BFI (BFI FINANCE)",
        "website": "kredit.bfi.co.id",
        "sektor": "Sektor Keuangan",
        "nama_perusahaan": "BFI FINANCE INDONESIA",
        "tanggal_daftar": "2022-07-22",
        "nomor_tanda_daftar": "003857.10/DJAI.PSE/07/2022",
        "qr_code": "https://pse.kominfo.go.id/storage/images/qr_code/a775fa70981289f2ebabfc0de836e946.png",
        "status_id": "TERDAFTAR",
        "sistem_elektronik_id": 7868
      }
    },
    {
      "type": "tdpseTerbit",
      "id": 8818,
      "attributes": {
        "nomor_pb_umku": "812021319184101560008",
        "nama": "WEB FORM (FORM.IO) BFI FINANCE",
        "website": "e-webform.bfi.co.id",
        "sektor": "Sektor Keuangan",
        "nama_perusahaan": "BFI FINANCE INDONESIA",
        "tanggal_daftar": "2022-07-22",
        "nomor_tanda_daftar": "003857.09/DJAI.PSE/07/2022",
        "qr_code": "https://pse.kominfo.go.id/storage/images/qr_code/d7130a44716d17928cdba73570b4d6d5.png",
        "status_id": "TERDAFTAR",
        "sistem_elektronik_id": 7846
      }
    },
    {
      "type": "tdpseTerbit",
      "id": 8819,
      "attributes": {
        "nomor_pb_umku": "812021319184101560009",
        "nama": "EMAIL (BFI FINANCE)",
        "website": "mail.bfi.co.id",
        "sektor": "Sektor Keuangan",
        "nama_perusahaan": "BFI FINANCE INDONESIA",
        "tanggal_daftar": "2022-07-22",
        "nomor_tanda_daftar": "003857.08/DJAI.PSE/07/2022",
        "qr_code": "https://pse.kominfo.go.id/storage/images/qr_code/a3e3582a6742b455b8d0b594072bb288.png",
        "status_id": "TERDAFTAR",
        "sistem_elektronik_id": 7822
      }
    },
    {
      "type": "tdpseTerbit",
      "id": 8821,
      "attributes": {
        "nomor_pb_umku": "812021319184101560011",
        "nama": "WEB E-COMMERCE BFI SYARIAH (BFI FINANCE)",
        "website": "syariah.bfi.co.id",
        "sektor": "Sektor Keuangan",
        "nama_perusahaan": "BFI FINANCE INDONESIA",
        "tanggal_daftar": "2022-07-22",
        "nomor_tanda_daftar": "003857.07/DJAI.PSE/07/2022",
        "qr_code": "https://pse.kominfo.go.id/storage/images/qr_code/8fee35b6b21266c4cd2189cc7aa9a8c2.png",
        "status_id": "TERDAFTAR",
        "sistem_elektronik_id": 7778
      }
    }
  ]
}