{
  "meta": {
    "page": {
      "currentPage": 476,
      "from": 4751,
      "lastPage": 1008,
      "perPage": 10,
      "to": 4760,
      "total": 10073
    }
  },
  "data": [
    {
      "type": "tdpseTerbit",
      "id": 5479,
      "attributes": {
        "nomor_pb_umku": "812011705094600040035",
        "nama": "MY FIRST STEP HC",
        "website": "-",
        "sektor": "Sektor Keuangan",
        "nama_perusahaan": "BANK PEMBANGUNAN DAERAH JAWA BARAT DAN BANTEN TBK (BANK BJB)",
        "tanggal_daftar": "2022-08-08",
        "nomor_tanda_daftar": "003382.16/DJAI.PSE/07/2022",
        "qr_code": "https://pse.kominfo.go.id/storage/images/qr_code/d9ab0c19a740495f425b2d4393e3726a.png",
        "status_id": "TERDAFTAR",
        "sistem_elektronik_id": 5348
      }
    },
    {
      "type": "tdpseTerbit",
      "id": 5480,
      "attributes": {
        "nomor_pb_umku": "812011705094600040034",
        "nama": "REKRUTMENT BANK BJB",
        "website": "rekrutmen.bankbjb.co.id",
        "sektor": "Sektor Keuangan",
        "nama_perusahaan": "BANK PEMBANGUNAN DAERAH JAWA BARAT DAN BANTEN TBK (BANK BJB)",
        "tanggal_daftar": "2022-08-08",
        "nomor_tanda_daftar": "003382.15/DJAI.PSE/07/2022",
        "qr_code": "https://pse.kominfo.go.id/storage/images/qr_code/6ee0f606d5f237875b51ad3bedbf7c02.png",
        "status_id": "TERDAFTAR",
        "sistem_elektronik_id": 5345
      }
    },
    {
      "type": "tdpseTerbit",
      "id": 5481,
      "attributes": {
        "nomor_pb_umku": "812011705094600040033",
        "nama": "BJB HCS",
        "website": "hcs.bankbjb.co.id",
        "sektor": "Sektor Keuangan",
        "nama_perusahaan": "BANK PEMBANGUNAN DAERAH JAWA BARAT DAN BANTEN TBK (BANK BJB)",
        "tanggal_daftar": "2022-08-08",
        "nomor_tanda_daftar": "003382.14/DJAI.PSE/07/2022",
        "qr_code": "https://pse.kominfo.go.id/storage/images/qr_code/f029fff5d244739413f5ae9f2f8ff622.png",
        "status_id": "TERDAFTAR",
        "sistem_elektronik_id": 5344
      }
    },
    {
      "type": "tdpseTerbit",
      "id": 5468,
      "attributes": {
        "nomor_pb_umku": "812011705094600040014",
        "nama": "BJB EPROCUREMENT",
        "website": "eproc.bankbjb.co.id",
        "sektor": "Sektor Keuangan",
        "nama_perusahaan": "BANK PEMBANGUNAN DAERAH JAWA BARAT DAN BANTEN TBK (BANK BJB)",
        "tanggal_daftar": "2022-07-13",
        "nomor_tanda_daftar": "003382.13/DJAI.PSE/07/2022",
        "qr_code": "https://pse.kominfo.go.id/storage/images/qr_code/e81ef3355b967487d37ada42a0fc13ba.png",
        "status_id": "TERDAFTAR",
        "sistem_elektronik_id": 5340
      }
    },
    {
      "type": "tdpseTerbit",
      "id": 5365,
      "attributes": {
        "nomor_pb_umku": "812011705094600040013",
        "nama": "BJB CASH MANAGEMENT ACCOUNT SERVICE ONLINE",
        "website": "cms.bankbjb.co.id",
        "sektor": "Sektor Keuangan",
        "nama_perusahaan": "BANK PEMBANGUNAN DAERAH JAWA BARAT DAN BANTEN TBK (BANK BJB)",
        "tanggal_daftar": "2022-07-12",
        "nomor_tanda_daftar": "003382.12/DJAI.PSE/07/2022",
        "qr_code": "https://pse.kominfo.go.id/storage/images/qr_code/6a11cb6b5d2ef089c04978b9a6996161.png",
        "status_id": "TERDAFTAR",
        "sistem_elektronik_id": 5236
      }
    },
    {
      "type": "tdpseTerbit",
      "id": 5357,
      "attributes": {
        "nomor_pb_umku": "812011705094600040012",
        "nama": "INTERNET BANKING CORPORATE (IBC)",
        "website": "bjbcorp.bankbjb.co.id",
        "sektor": "Sektor Keuangan",
        "nama_perusahaan": "BANK PEMBANGUNAN DAERAH JAWA BARAT DAN BANTEN TBK (BANK BJB)",
        "tanggal_daftar": "2022-07-12",
        "nomor_tanda_daftar": "003382.11/DJAI.PSE/07/2022",
        "qr_code": "https://pse.kominfo.go.id/storage/images/qr_code/4dc1c056df3bb1fac179534d39c3d24c.png",
        "status_id": "TERDAFTAR",
        "sistem_elektronik_id": 5230
      }
    },
    {
      "type": "tdpseTerbit",
      "id": 5353,
      "attributes": {
        "nomor_pb_umku": "812011705094600040011",
        "nama": "BJB QUICKCASH",
        "website": "qcportal.bankbjb.co.id",
        "sektor": "Sektor Keuangan",
        "nama_perusahaan": "BANK PEMBANGUNAN DAERAH JAWA BARAT DAN BANTEN TBK (BANK BJB)",
        "tanggal_daftar": "2022-07-12",
        "nomor_tanda_daftar": "003382.10/DJAI.PSE/07/2022",
        "qr_code": "https://pse.kominfo.go.id/storage/images/qr_code/88faa78ec69506c2c10983123b8213e8.png",
        "status_id": "TERDAFTAR",
        "sistem_elektronik_id": 5226
      }
    },
    {
      "type": "tdpseTerbit",
      "id": 5294,
      "attributes": {
        "nomor_pb_umku": "812011705094600040008",
        "nama": "MERCHANT MANAGEMENT SYSTEM",
        "website": "mms.bankbjb.co.id",
        "sektor": "Sektor Keuangan",
        "nama_perusahaan": "BANK PEMBANGUNAN DAERAH JAWA BARAT DAN BANTEN TBK (BANK BJB)",
        "tanggal_daftar": "2022-07-11",
        "nomor_tanda_daftar": "003382.09/DJAI.PSE/07/2022",
        "qr_code": "https://pse.kominfo.go.id/storage/images/qr_code/aa3dd28dd755c475940f3ecf013d6302.png",
        "status_id": "TERDAFTAR",
        "sistem_elektronik_id": 5165
      }
    },
    {
      "type": "tdpseTerbit",
      "id": 5295,
      "attributes": {
        "nomor_pb_umku": "812011705094600040009",
        "nama": "BJB BISA",
        "website": "-",
        "sektor": "Sektor Keuangan",
        "nama_perusahaan": "BANK PEMBANGUNAN DAERAH JAWA BARAT DAN BANTEN TBK (BANK BJB)",
        "tanggal_daftar": "2022-07-11",
        "nomor_tanda_daftar": "003382.08/DJAI.PSE/07/2022",
        "qr_code": "https://pse.kominfo.go.id/storage/images/qr_code/eea6aacc1e7290ecf3495a6d35c6204c.png",
        "status_id": "TERDAFTAR",
        "sistem_elektronik_id": 5164
      }
    },
    {
      "type": "tdpseTerbit",
      "id": 5296,
      "attributes": {
        "nomor_pb_umku": "812011705094600040010",
        "nama": "VIRTUAL OFFICES",
        "website": "virtualoffice.bankbjb.co.id",
        "sektor": "Sektor Keuangan",
        "nama_perusahaan": "BANK PEMBANGUNAN DAERAH JAWA BARAT DAN BANTEN TBK (BANK BJB)",
        "tanggal_daftar": "2022-07-11",
        "nomor_tanda_daftar": "003382.07/DJAI.PSE/07/2022",
        "qr_code": "https://pse.kominfo.go.id/storage/images/qr_code/ce13c94cd3f37e978eae63abb6608ca1.png",
        "status_id": "TERDAFTAR",
        "sistem_elektronik_id": 5163
      }
    }
  ]
}