{
  "meta": {
    "page": {
      "currentPage": 477,
      "from": 4761,
      "lastPage": 944,
      "perPage": 10,
      "to": 4770,
      "total": 9434
    }
  },
  "data": [
    {
      "type": "tdpseTerbit",
      "id": 3892,
      "attributes": {
        "nomor_pb_umku": null,
        "nama": "Disprz",
        "website": "disprz.com",
        "sektor": "Sektor Teknologi Informasi dan Komunikasi",
        "nama_perusahaan": "HEURISTIX DIGITAL TECHNOLOGIES",
        "tanggal_daftar": "2022-04-18",
        "nomor_tanda_daftar": "002534.01/DJAI.PSE/04/2022",
        "qr_code": "https://pse.kominfo.go.id/storage/images/qr_code/2dd5677b135e9202acef5229a4d19801.png",
        "status_id": "TERDAFTAR",
        "sistem_elektronik_id": 3781
      }
    },
    {
      "type": "tdpseTerbit",
      "id": 3889,
      "attributes": {
        "nomor_pb_umku": null,
        "nama": "B-Lanja",
        "website": "b-lanja.co.id",
        "sektor": "Sektor Kesehatan, Sektor Pangan, Sektor Perdagangan, Sektor Teknologi Informasi dan Komunikasi, Sektor Transportasi",
        "nama_perusahaan": "R. ALEXANDRY SURYA W.",
        "tanggal_daftar": "2022-04-17",
        "nomor_tanda_daftar": "002533.01/DJAI.PSE/04/2022",
        "qr_code": "https://pse.kominfo.go.id/storage/images/qr_code/72416d6da57ce9083ba2a639e64ca688.png",
        "status_id": "TERDAFTAR",
        "sistem_elektronik_id": 3744
      }
    },
    {
      "type": "tdpseTerbit",
      "id": 3888,
      "attributes": {
        "nomor_pb_umku": null,
        "nama": "PT Yang Muda Kaya",
        "website": "finplan.id",
        "sektor": "Sektor Perdagangan, Sektor Teknologi Informasi dan Komunikasi",
        "nama_perusahaan": "YANG MUDA KAYA",
        "tanggal_daftar": "2022-04-17",
        "nomor_tanda_daftar": "002532.01/DJAI.PSE/04/2022",
        "qr_code": "https://pse.kominfo.go.id/storage/images/qr_code/718c085b1bde3177ec2b27c54d4b9adf.png",
        "status_id": "TERDAFTAR",
        "sistem_elektronik_id": 3748
      }
    },
    {
      "type": "tdpseTerbit",
      "id": 3887,
      "attributes": {
        "nomor_pb_umku": null,
        "nama": "javatech media solusindo",
        "website": "javatrade.biz",
        "sektor": "Sektor Perdagangan, Sektor Teknologi Informasi dan Komunikasi",
        "nama_perusahaan": "LUKMANUL HAKIM",
        "tanggal_daftar": "2022-04-17",
        "nomor_tanda_daftar": "002531.01/DJAI.PSE/04/2022",
        "qr_code": "https://pse.kominfo.go.id/storage/images/qr_code/9928d59e49bed8c8e236f4778dd2dbf8.png",
        "status_id": "TERDAFTAR",
        "sistem_elektronik_id": 3777
      }
    },
    {
      "type": "tdpseTerbit",
      "id": 3886,
      "attributes": {
        "nomor_pb_umku": null,
        "nama": "CV. RAHMAN MULTIGUNA PERKASA",
        "website": "-",
        "sektor": "Sektor Perdagangan",
        "nama_perusahaan": "RAHMAN MULTIGUNA PERKASA",
        "tanggal_daftar": "2022-04-17",
        "nomor_tanda_daftar": "002530.01/DJAI.PSE/04/2022",
        "qr_code": "https://pse.kominfo.go.id/storage/images/qr_code/e4ac1bdf091e3f0c8a9b671a919ff5e8.png",
        "status_id": "TERDAFTAR",
        "sistem_elektronik_id": 3797
      }
    },
    {
      "type": "tdpseTerbit",
      "id": 3885,
      "attributes": {
        "nomor_pb_umku": null,
        "nama": "CV. HULUBALANG",
        "website": "-",
        "sektor": "Sektor Pangan, Sektor Perdagangan",
        "nama_perusahaan": "HULUBALANG",
        "tanggal_daftar": "2022-04-17",
        "nomor_tanda_daftar": "002529.01/DJAI.PSE/04/2022",
        "qr_code": "https://pse.kominfo.go.id/storage/images/qr_code/7b0aae1656364aa54605f9f2e2734024.png",
        "status_id": "TERDAFTAR",
        "sistem_elektronik_id": 3968
      }
    },
    {
      "type": "tdpseTerbit",
      "id": 3985,
      "attributes": {
        "nomor_pb_umku": null,
        "nama": "www.bmnetwork.co.id",
        "website": "www.bmnetwork.co.id",
        "sektor": "Sektor Teknologi Informasi dan Komunikasi",
        "nama_perusahaan": "BANYUASIN MEDIA NETWORK",
        "tanggal_daftar": "2022-04-21",
        "nomor_tanda_daftar": "002528.04/DJAI.PSE/04/2022",
        "qr_code": "https://pse.kominfo.go.id/storage/images/qr_code/9e8acc1146363d08d3984868642b93a7.png",
        "status_id": "TERDAFTAR",
        "sistem_elektronik_id": 3871
      }
    },
    {
      "type": "tdpseTerbit",
      "id": 3893,
      "attributes": {
        "nomor_pb_umku": null,
        "nama": "www.lensasumatera.com",
        "website": "www.lensasumatera.com",
        "sektor": "Sektor Teknologi Informasi dan Komunikasi",
        "nama_perusahaan": "BANYUASIN MEDIA NETWORK",
        "tanggal_daftar": "2022-04-18",
        "nomor_tanda_daftar": "002528.03/DJAI.PSE/04/2022",
        "qr_code": "https://pse.kominfo.go.id/storage/images/qr_code/b26b03b9ffe90fbb13857ee8bcdc2d36.png",
        "status_id": "TERDAFTAR",
        "sistem_elektronik_id": 3870
      }
    },
    {
      "type": "tdpseTerbit",
      "id": 3884,
      "attributes": {
        "nomor_pb_umku": null,
        "nama": "Web Developer & Content Management System",
        "website": "www.bmnetwork.co.id",
        "sektor": "Sektor Teknologi Informasi dan Komunikasi",
        "nama_perusahaan": "BANYUASIN MEDIA NETWORK",
        "tanggal_daftar": "2022-04-16",
        "nomor_tanda_daftar": "002528.02/DJAI.PSE/04/2022",
        "qr_code": "https://pse.kominfo.go.id/storage/images/qr_code/04d9d76aea97e483e7debfe6d2729993.png",
        "status_id": "TERDAFTAR",
        "sistem_elektronik_id": 3869
      }
    },
    {
      "type": "tdpseTerbit",
      "id": 3883,
      "attributes": {
        "nomor_pb_umku": null,
        "nama": "BMNETWORK",
        "website": "www.bmnetwork.co.id",
        "sektor": "Sektor Teknologi Informasi dan Komunikasi",
        "nama_perusahaan": "BANYUASIN MEDIA NETWORK",
        "tanggal_daftar": "2022-04-16",
        "nomor_tanda_daftar": "002528.01/DJAI.PSE/04/2022",
        "qr_code": "https://pse.kominfo.go.id/storage/images/qr_code/dbb7b344cc650e2e80bab92bcd39ba0b.png",
        "status_id": "TERDAFTAR",
        "sistem_elektronik_id": 3868
      }
    }
  ]
}