{
  "meta": {
    "page": {
      "currentPage": 478,
      "from": 4771,
      "lastPage": 981,
      "perPage": 10,
      "to": 4780,
      "total": 9802
    }
  },
  "data": [
    {
      "type": "tdpseTerbit",
      "id": 4338,
      "attributes": {
        "nomor_pb_umku": "912030886185300020002",
        "nama": "LAPAKCHINA.COM",
        "website": "Lapakchina.com",
        "sektor": "Sektor Perdagangan",
        "nama_perusahaan": "OCOMMERCE CAPITAL INDONESIA",
        "tanggal_daftar": "2022-06-13",
        "nomor_tanda_daftar": "002857.02/DJAI.PSE/06/2022",
        "qr_code": "https://pse.kominfo.go.id/storage/images/qr_code/e205c2955299a5a18560fc4c738092dc.png",
        "status_id": "TERDAFTAR",
        "sistem_elektronik_id": 4323
      }
    },
    {
      "type": "tdpseTerbit",
      "id": 4276,
      "attributes": {
        "nomor_pb_umku": "912030886185300020001",
        "nama": "OCISTOK.COM",
        "website": "Ocistok.com",
        "sektor": "Sektor Perdagangan",
        "nama_perusahaan": "OCOMMERCE CAPITAL INDONESIA",
        "tanggal_daftar": "2022-06-08",
        "nomor_tanda_daftar": "002857.01/DJAI.PSE/06/2022",
        "qr_code": "https://pse.kominfo.go.id/storage/images/qr_code/13e9dde1eb2be54cea295c886cbc5579.png",
        "status_id": "TERDAFTAR",
        "sistem_elektronik_id": 4270
      }
    },
    {
      "type": "tdpseTerbit",
      "id": 8360,
      "attributes": {
        "nomor_pb_umku": "912031619290400050007",
        "nama": "SATRIACORP - COMMUNICATIONS",
        "website": "satriacorp.id",
        "sektor": "Sektor Perdagangan",
        "nama_perusahaan": "SATRIA MEDIA TEKNOLOGI",
        "tanggal_daftar": "2022-07-20",
        "nomor_tanda_daftar": "002851.07/DJAI.PSE/07/2022",
        "qr_code": "https://pse.kominfo.go.id/storage/images/qr_code/78253494ad8b87cfb45c0de52e9ad701.png",
        "status_id": "TERDAFTAR",
        "sistem_elektronik_id": 8280
      }
    },
    {
      "type": "tdpseTerbit",
      "id": 8356,
      "attributes": {
        "nomor_pb_umku": "912031619290400050006",
        "nama": "SATRIACORP",
        "website": "satriacorp.id",
        "sektor": "Sektor Perdagangan, Sektor Teknologi Informasi dan Komunikasi",
        "nama_perusahaan": "SATRIA MEDIA TEKNOLOGI",
        "tanggal_daftar": "2022-07-20",
        "nomor_tanda_daftar": "002851.06/DJAI.PSE/07/2022",
        "qr_code": "https://pse.kominfo.go.id/storage/images/qr_code/60af21e1aecfd1c2c260ab4baaaa90ab.png",
        "status_id": "TERDAFTAR",
        "sistem_elektronik_id": 8276
      }
    },
    {
      "type": "tdpseTerbit",
      "id": 8351,
      "attributes": {
        "nomor_pb_umku": "912031619290400050005",
        "nama": "SATRIATECH",
        "website": "satriacorp.id",
        "sektor": "Sektor Perdagangan",
        "nama_perusahaan": "SATRIA MEDIA TEKNOLOGI",
        "tanggal_daftar": "2022-07-20",
        "nomor_tanda_daftar": "002851.05/DJAI.PSE/07/2022",
        "qr_code": "https://pse.kominfo.go.id/storage/images/qr_code/7db5475da844783d8b9e7ebfa5f368bd.png",
        "status_id": "TERDAFTAR",
        "sistem_elektronik_id": 8271
      }
    },
    {
      "type": "tdpseTerbit",
      "id": 5526,
      "attributes": {
        "nomor_pb_umku": "912031619290400050004",
        "nama": "SATRIACORP.ID",
        "website": "satriacorp.id",
        "sektor": "Sektor Teknologi Informasi dan Komunikasi",
        "nama_perusahaan": "SATRIA MEDIA TEKNOLOGI",
        "tanggal_daftar": "2022-07-13",
        "nomor_tanda_daftar": "002851.04/DJAI.PSE/07/2022",
        "qr_code": "https://pse.kominfo.go.id/storage/images/qr_code/0c36dd712a3fb8e253731f219d0b2b37.png",
        "status_id": "TERDAFTAR",
        "sistem_elektronik_id": 5391
      }
    },
    {
      "type": "tdpseTerbit",
      "id": 5525,
      "attributes": {
        "nomor_pb_umku": "912031619290400050003",
        "nama": "SATRIA MEDIA TEKNOLOGI",
        "website": "satriacorp.id",
        "sektor": "Sektor Perdagangan, Sektor Teknologi Informasi dan Komunikasi",
        "nama_perusahaan": "SATRIA MEDIA TEKNOLOGI",
        "tanggal_daftar": "2022-07-13",
        "nomor_tanda_daftar": "002851.03/DJAI.PSE/07/2022",
        "qr_code": "https://pse.kominfo.go.id/storage/images/qr_code/98c476659d8d746bf997230ac110425a.png",
        "status_id": "TERDAFTAR",
        "sistem_elektronik_id": 5390
      }
    },
    {
      "type": "tdpseTerbit",
      "id": 5489,
      "attributes": {
        "nomor_pb_umku": "912031619290400050001",
        "nama": "WECOPOS",
        "website": "-",
        "sektor": "Sektor Perdagangan, Sektor Teknologi Informasi dan Komunikasi",
        "nama_perusahaan": "SATRIA MEDIA TEKNOLOGI",
        "tanggal_daftar": "2022-05-25",
        "nomor_tanda_daftar": "002851.01/DJAI.PSE/05/2022",
        "qr_code": "https://pse.kominfo.go.id/storage/images/qr_code/8c90035747ca8d574643462a09ab6a04.png",
        "status_id": "TERDAFTAR",
        "sistem_elektronik_id": 4152
      }
    },
    {
      "type": "tdpseTerbit",
      "id": 4369,
      "attributes": {
        "nomor_pb_umku": "912021126128300010004",
        "nama": "TILAKA",
        "website": "tilaka.id",
        "sektor": "Sektor Teknologi Informasi dan Komunikasi",
        "nama_perusahaan": "TILAKA NUSA TEKNOLOGI",
        "tanggal_daftar": "2022-06-14",
        "nomor_tanda_daftar": "002849.01/DJAI.PSE/06/2022",
        "qr_code": "https://pse.kominfo.go.id/storage/images/qr_code/5337308bb2422480a0bec956635a343f.png",
        "status_id": "TERDAFTAR",
        "sistem_elektronik_id": 4355
      }
    },
    {
      "type": "tdpseTerbit",
      "id": 4269,
      "attributes": {
        "nomor_pb_umku": "070422005931100100001",
        "nama": "YAYASAN PUSAT STRATEGI DAN AKSELERASI PEMBANGUNAN INDONESIA MAJU",
        "website": "indonesia2030.id",
        "sektor": "Sektor Perdagangan, Sektor Teknologi Informasi dan Komunikasi",
        "nama_perusahaan": "PUSAT STRATEGI DAN AKSELERASI PEMBANGUNAN INDONESIA MAJU",
        "tanggal_daftar": "2022-06-07",
        "nomor_tanda_daftar": "002848.01/DJAI.PSE/06/2022",
        "qr_code": "https://pse.kominfo.go.id/storage/images/qr_code/326b8c66092582f6798122b9d544762d.png",
        "status_id": "TERDAFTAR",
        "sistem_elektronik_id": 4268
      }
    }
  ]
}