{
  "meta": {
    "page": {
      "currentPage": 479,
      "from": 4781,
      "lastPage": 1089,
      "perPage": 10,
      "to": 4790,
      "total": 10885
    }
  },
  "data": [
    {
      "type": "tdpseTerbit",
      "id": 6282,
      "attributes": {
        "nomor_pb_umku": "912010267208600010003",
        "nama": "ADAJALANS",
        "website": "adajalans.co.id",
        "sektor": "Sektor Keuangan, Sektor Teknologi Informasi dan Komunikasi",
        "nama_perusahaan": "BANK PERKREDITAN RAKYAT ARTHAGUNA MANDIRI",
        "tanggal_daftar": "2022-07-18",
        "nomor_tanda_daftar": "004039.03/DJAI.PSE/07/2022",
        "qr_code": "https://pse.kominfo.go.id/storage/images/qr_code/f0e66bc0dbb4a5af5eba5dae9b527d79.png",
        "status_id": "TERDAFTAR",
        "sistem_elektronik_id": 6142
      }
    },
    {
      "type": "tdpseTerbit",
      "id": 6268,
      "attributes": {
        "nomor_pb_umku": "912010267208600010002",
        "nama": "ADAJALANS.CO.ID",
        "website": "adajalans.co.id",
        "sektor": "Sektor Keuangan",
        "nama_perusahaan": "BANK PERKREDITAN RAKYAT ARTHAGUNA MANDIRI",
        "tanggal_daftar": "2022-07-18",
        "nomor_tanda_daftar": "004039.02/DJAI.PSE/07/2022",
        "qr_code": "https://pse.kominfo.go.id/storage/images/qr_code/e3fd513d0af31bfdead5a3fc4c1c697b.png",
        "status_id": "TERDAFTAR",
        "sistem_elektronik_id": 6127
      }
    },
    {
      "type": "tdpseTerbit",
      "id": 6225,
      "attributes": {
        "nomor_pb_umku": "912010267208600010001",
        "nama": "WEBSITE PT BPR ARTHAGUNA MANDIRI",
        "website": "bpragm.com",
        "sektor": "Sektor Keuangan",
        "nama_perusahaan": "BANK PERKREDITAN RAKYAT ARTHAGUNA MANDIRI",
        "tanggal_daftar": "2022-07-18",
        "nomor_tanda_daftar": "004039.01/DJAI.PSE/07/2022",
        "qr_code": "https://pse.kominfo.go.id/storage/images/qr_code/dc8eb3e1b66233459662c569a6ef00e2.png",
        "status_id": "TERDAFTAR",
        "sistem_elektronik_id": 6091
      }
    },
    {
      "type": "tdpseTerbit",
      "id": 6592,
      "attributes": {
        "nomor_pb_umku": "100622002238300010001",
        "nama": "TANAKU",
        "website": "tanaku.co",
        "sektor": "Sektor Perdagangan",
        "nama_perusahaan": "TANAKU NUSANTARA INTERNASIONAL",
        "tanggal_daftar": "2022-07-19",
        "nomor_tanda_daftar": "004038.01/DJAI.PSE/07/2022",
        "qr_code": "https://pse.kominfo.go.id/storage/images/qr_code/5f6a583b3737622156623307ca004ff9.png",
        "status_id": "TERDAFTAR",
        "sistem_elektronik_id": 6212
      }
    },
    {
      "type": "tdpseTerbit",
      "id": 5407,
      "attributes": {
        "nomor_pb_umku": "812020096205300000002",
        "nama": "FLIGHT INFORMATION DISPLAY SYSTEM",
        "website": "notifbox.com",
        "sektor": "Sektor Teknologi Informasi dan Komunikasi",
        "nama_perusahaan": "NERS INTI PERSADA",
        "tanggal_daftar": "2022-07-12",
        "nomor_tanda_daftar": "004037.02/DJAI.PSE/07/2022",
        "qr_code": "https://pse.kominfo.go.id/storage/images/qr_code/abe821a1f2af542a6502eaebd9234f80.png",
        "status_id": "TERDAFTAR",
        "sistem_elektronik_id": 5280
      }
    },
    {
      "type": "tdpseTerbit",
      "id": 5404,
      "attributes": {
        "nomor_pb_umku": "812020096205300000001",
        "nama": "FIDS & AAS",
        "website": "notifbox.com",
        "sektor": "Sektor Teknologi Informasi dan Komunikasi",
        "nama_perusahaan": "NERS INTI PERSADA",
        "tanggal_daftar": "2022-07-12",
        "nomor_tanda_daftar": "004037.01/DJAI.PSE/07/2022",
        "qr_code": "https://pse.kominfo.go.id/storage/images/qr_code/48b769f0b7591a1f400b5c44fa695352.png",
        "status_id": "TERDAFTAR",
        "sistem_elektronik_id": 5276
      }
    },
    {
      "type": "tdpseTerbit",
      "id": 5395,
      "attributes": {
        "nomor_pb_umku": "912020297162200020005",
        "nama": "ACCOUNTING SPORT GLOVE INDONESIA",
        "website": "-",
        "sektor": "Sektor Teknologi Informasi dan Komunikasi",
        "nama_perusahaan": "SPORT GLOVE INDONESIA",
        "tanggal_daftar": "2022-07-12",
        "nomor_tanda_daftar": "004036.04/DJAI.PSE/07/2022",
        "qr_code": "https://pse.kominfo.go.id/storage/images/qr_code/3b490cd3fceaec1a9545ce5e19b5e972.png",
        "status_id": "TERDAFTAR",
        "sistem_elektronik_id": 5263
      }
    },
    {
      "type": "tdpseTerbit",
      "id": 5389,
      "attributes": {
        "nomor_pb_umku": "912020297162200020004",
        "nama": "ERP SPORT GLOVE INDONESIA",
        "website": "-",
        "sektor": "Sektor Teknologi Informasi dan Komunikasi",
        "nama_perusahaan": "SPORT GLOVE INDONESIA",
        "tanggal_daftar": "2022-07-12",
        "nomor_tanda_daftar": "004036.03/DJAI.PSE/07/2022",
        "qr_code": "https://pse.kominfo.go.id/storage/images/qr_code/980155eab27c458e3a80d1c01e85ea20.png",
        "status_id": "TERDAFTAR",
        "sistem_elektronik_id": 5259
      }
    },
    {
      "type": "tdpseTerbit",
      "id": 5384,
      "attributes": {
        "nomor_pb_umku": "912020297162200020003",
        "nama": "APLIKASI CHAT SPORT GLOVE INDONESIA",
        "website": "chat.ptsgi.co.id",
        "sektor": "Sektor Teknologi Informasi dan Komunikasi",
        "nama_perusahaan": "SPORT GLOVE INDONESIA",
        "tanggal_daftar": "2022-07-12",
        "nomor_tanda_daftar": "004036.02/DJAI.PSE/07/2022",
        "qr_code": "https://pse.kominfo.go.id/storage/images/qr_code/87b0bfe45aa72cd5a5ede94dfca8c3bd.png",
        "status_id": "TERDAFTAR",
        "sistem_elektronik_id": 5256
      }
    },
    {
      "type": "tdpseTerbit",
      "id": 5380,
      "attributes": {
        "nomor_pb_umku": "912020297162200020002",
        "nama": "WEBSITE SPORT GLOVE INDONESIA",
        "website": "ptsgi.co.id",
        "sektor": "Sektor Teknologi Informasi dan Komunikasi",
        "nama_perusahaan": "SPORT GLOVE INDONESIA",
        "tanggal_daftar": "2022-07-12",
        "nomor_tanda_daftar": "004036.01/DJAI.PSE/07/2022",
        "qr_code": "https://pse.kominfo.go.id/storage/images/qr_code/cdd8bfdcf03be72ee0183d44f60e1539.png",
        "status_id": "TERDAFTAR",
        "sistem_elektronik_id": 5251
      }
    }
  ]
}