{
  "meta": {
    "page": {
      "currentPage": 480,
      "from": 4791,
      "lastPage": 1070,
      "perPage": 10,
      "to": 4800,
      "total": 10698
    }
  },
  "data": [
    {
      "type": "tdpseTerbit",
      "id": 5237,
      "attributes": {
        "nomor_pb_umku": "022010055144800010001",
        "nama": "LOTTE CAPITAL INDONESIA",
        "website": "lottecapital.co.id",
        "sektor": "Sektor Keuangan",
        "nama_perusahaan": "LOTTE CAPITAL INDONESIA",
        "tanggal_daftar": "2022-07-08",
        "nomor_tanda_daftar": "003878.01/DJAI.PSE/07/2022",
        "qr_code": "https://pse.kominfo.go.id/storage/images/qr_code/4a69ea3ff3a05c3c6204753a22b61d8a.png",
        "status_id": "TERDAFTAR",
        "sistem_elektronik_id": 5103
      }
    },
    {
      "type": "tdpseTerbit",
      "id": 5612,
      "attributes": {
        "nomor_pb_umku": "210921000070600000001",
        "nama": "ASSIST.ID",
        "website": "essensial.assist.id",
        "sektor": "Sektor Kesehatan, Sektor Teknologi Informasi dan Komunikasi",
        "nama_perusahaan": "TEKNOLOGI MEDIA MEDIKA",
        "tanggal_daftar": "2022-07-14",
        "nomor_tanda_daftar": "003877.01/DJAI.PSE/07/2022",
        "qr_code": "https://pse.kominfo.go.id/storage/images/qr_code/ec2222aeec454c9c1a50bf2522c0a1ce.png",
        "status_id": "TERDAFTAR",
        "sistem_elektronik_id": 5480
      }
    },
    {
      "type": "tdpseTerbit",
      "id": 5214,
      "attributes": {
        "nomor_pb_umku": "080722000906200000002",
        "nama": "STARINDO SANTOSO (TOKOPEDIA)",
        "website": "-",
        "sektor": "Sektor Perdagangan",
        "nama_perusahaan": "RATNAWATI",
        "tanggal_daftar": "2022-07-08",
        "nomor_tanda_daftar": "003876.03/DJAI.PSE/07/2022",
        "qr_code": "https://pse.kominfo.go.id/storage/images/qr_code/b96f11a8216617cf4207bc6404a406ba.png",
        "status_id": "TERDAFTAR",
        "sistem_elektronik_id": 5085
      }
    },
    {
      "type": "tdpseTerbit",
      "id": 10089,
      "attributes": {
        "nomor_pb_umku": "912030970011100040005",
        "nama": "COMBO RUSH - KEEP YOUR COMBO",
        "website": "duniapp.com",
        "sektor": "Sektor Teknologi Informasi dan Komunikasi",
        "nama_perusahaan": "MEGAXUS INFOTECH",
        "tanggal_daftar": "2022-08-09",
        "nomor_tanda_daftar": "003875.14/DJAI.PSE/08/2022",
        "qr_code": "https://pse.kominfo.go.id/storage/images/qr_code/11a08039f21e10174af847547cc63818.png",
        "status_id": "TERDAFTAR",
        "sistem_elektronik_id": 9745
      }
    },
    {
      "type": "tdpseTerbit",
      "id": 10096,
      "attributes": {
        "nomor_pb_umku": "912030970011100040012",
        "nama": "BAKSO HORROR: COOKING ADVENTURE",
        "website": "duniapp.com",
        "sektor": "Sektor Teknologi Informasi dan Komunikasi",
        "nama_perusahaan": "MEGAXUS INFOTECH",
        "tanggal_daftar": "2022-08-09",
        "nomor_tanda_daftar": "003875.13/DJAI.PSE/08/2022",
        "qr_code": "https://pse.kominfo.go.id/storage/images/qr_code/ef23a2c7e40212555354e3471dc9da8a.png",
        "status_id": "TERDAFTAR",
        "sistem_elektronik_id": 9744
      }
    },
    {
      "type": "tdpseTerbit",
      "id": 10098,
      "attributes": {
        "nomor_pb_umku": "912030970011100040014",
        "nama": "TOWER FEVER",
        "website": "duniapp.com",
        "sektor": "Sektor Teknologi Informasi dan Komunikasi",
        "nama_perusahaan": "MEGAXUS INFOTECH",
        "tanggal_daftar": "2022-08-09",
        "nomor_tanda_daftar": "003875.12/DJAI.PSE/08/2022",
        "qr_code": "https://pse.kominfo.go.id/storage/images/qr_code/4b08ecc9a24f5ee461cabcf685d18fb9.png",
        "status_id": "TERDAFTAR",
        "sistem_elektronik_id": 9743
      }
    },
    {
      "type": "tdpseTerbit",
      "id": 10097,
      "attributes": {
        "nomor_pb_umku": "912030970011100040013",
        "nama": "SCREAMING MONSTER: ENDLESS VOICE RUNNER",
        "website": "duniapp.com",
        "sektor": "Sektor Teknologi Informasi dan Komunikasi",
        "nama_perusahaan": "MEGAXUS INFOTECH",
        "tanggal_daftar": "2022-08-09",
        "nomor_tanda_daftar": "003875.11/DJAI.PSE/08/2022",
        "qr_code": "https://pse.kominfo.go.id/storage/images/qr_code/1bd793a9266c5154f3ff5997e334b03c.png",
        "status_id": "TERDAFTAR",
        "sistem_elektronik_id": 9741
      }
    },
    {
      "type": "tdpseTerbit",
      "id": 10095,
      "attributes": {
        "nomor_pb_umku": "912030970011100040011",
        "nama": "AMAZING SWING: MONYET HOROR",
        "website": "duniapp.com",
        "sektor": "Sektor Teknologi Informasi dan Komunikasi",
        "nama_perusahaan": "MEGAXUS INFOTECH",
        "tanggal_daftar": "2022-08-09",
        "nomor_tanda_daftar": "003875.10/DJAI.PSE/08/2022",
        "qr_code": "https://pse.kominfo.go.id/storage/images/qr_code/2e239e45d85c6cb267304a031b99f7c1.png",
        "status_id": "TERDAFTAR",
        "sistem_elektronik_id": 9740
      }
    },
    {
      "type": "tdpseTerbit",
      "id": 10094,
      "attributes": {
        "nomor_pb_umku": "912030970011100040010",
        "nama": "WARTEG GELORA - ANTI COVID",
        "website": "duniapp.com",
        "sektor": "Sektor Teknologi Informasi dan Komunikasi",
        "nama_perusahaan": "MEGAXUS INFOTECH",
        "tanggal_daftar": "2022-08-09",
        "nomor_tanda_daftar": "003875.09/DJAI.PSE/08/2022",
        "qr_code": "https://pse.kominfo.go.id/storage/images/qr_code/7c423feababfccd3ed09dd3533d6b677.png",
        "status_id": "TERDAFTAR",
        "sistem_elektronik_id": 9739
      }
    },
    {
      "type": "tdpseTerbit",
      "id": 10093,
      "attributes": {
        "nomor_pb_umku": "912030970011100040009",
        "nama": "WARUNG ASN: AJIB, SEDAP, NAGIH",
        "website": "duniapp.com",
        "sektor": "Sektor Teknologi Informasi dan Komunikasi",
        "nama_perusahaan": "MEGAXUS INFOTECH",
        "tanggal_daftar": "2022-08-09",
        "nomor_tanda_daftar": "003875.08/DJAI.PSE/08/2022",
        "qr_code": "https://pse.kominfo.go.id/storage/images/qr_code/d378199985884ff81e446e3da6fcc9ee.png",
        "status_id": "TERDAFTAR",
        "sistem_elektronik_id": 9738
      }
    }
  ]
}