{
  "meta": {
    "page": {
      "currentPage": 481,
      "from": 4801,
      "lastPage": 997,
      "perPage": 10,
      "to": 4810,
      "total": 9961
    }
  },
  "data": [
    {
      "type": "tdpseTerbit",
      "id": 4702,
      "attributes": {
        "nomor_pb_umku": "812021323096500040001",
        "nama": "AGOES DJOENAEDI HARSOBISONO",
        "website": "genetek.co.id",
        "sektor": "Sektor Perdagangan",
        "nama_perusahaan": "EFFRENSINDO KENCANA",
        "tanggal_daftar": "2022-06-23",
        "nomor_tanda_daftar": "003086.01/DJAI.PSE/06/2022",
        "qr_code": "https://pse.kominfo.go.id/storage/images/qr_code/d69947a14f3464a49927d4fac490f87b.png",
        "status_id": "TERDAFTAR",
        "sistem_elektronik_id": 4657
      }
    },
    {
      "type": "tdpseTerbit",
      "id": 5154,
      "attributes": {
        "nomor_pb_umku": "080622002914200000001",
        "nama": "TELEPANDU",
        "website": "-",
        "sektor": "Sektor Kesehatan",
        "nama_perusahaan": "TELEMEDISIN PADJADJARAN TERPANDU",
        "tanggal_daftar": "2022-07-06",
        "nomor_tanda_daftar": "003076.01/DJAI.PSE/07/2022",
        "qr_code": "https://pse.kominfo.go.id/storage/images/qr_code/0e55b6b3877ceafeb3e07dec3f93c912.png",
        "status_id": "TERDAFTAR",
        "sistem_elektronik_id": 5017
      }
    },
    {
      "type": "tdpseTerbit",
      "id": 4367,
      "attributes": {
        "nomor_pb_umku": "130622008453200000001",
        "nama": "WINDOW OF INDONESIA",
        "website": "windowofindonesia.com",
        "sektor": "Sektor Perdagangan",
        "nama_perusahaan": "MUHAMMAD ALPIAN",
        "tanggal_daftar": "2022-06-13",
        "nomor_tanda_daftar": "003065.01/DJAI.PSE/06/2022",
        "qr_code": "https://pse.kominfo.go.id/storage/images/qr_code/3db6dbc7b9229a89ed70d7894cc4b78c.png",
        "status_id": "TERDAFTAR",
        "sistem_elektronik_id": 4353
      }
    },
    {
      "type": "tdpseTerbit",
      "id": 4581,
      "attributes": {
        "nomor_pb_umku": "912000981078600010001",
        "nama": "PURWANTOAM",
        "website": "WWW.PURWANTO.CO.ID",
        "sektor": "Sektor Keuangan",
        "nama_perusahaan": "PURWANTO ASSET MANAGEMENT",
        "tanggal_daftar": "2022-06-17",
        "nomor_tanda_daftar": "003065.01/DJAI.PSE/06/2022",
        "qr_code": "https://pse.kominfo.go.id/storage/images/qr_code/fd55fc8ed206f059fafe22f0cdd0fc95.png",
        "status_id": "TERDAFTAR",
        "sistem_elektronik_id": 4544
      }
    },
    {
      "type": "tdpseTerbit",
      "id": 4534,
      "attributes": {
        "nomor_pb_umku": "812001600284900040001",
        "nama": "ONLINE PAYMENT POINT (OPP)",
        "website": "ptuangkita.com",
        "sektor": "Sektor Teknologi Informasi dan Komunikasi",
        "nama_perusahaan": "UANGKITA",
        "tanggal_daftar": "2022-06-16",
        "nomor_tanda_daftar": "003060.01/DJAI.PSE/06/2022",
        "qr_code": "https://pse.kominfo.go.id/storage/images/qr_code/b4d6cb25dfa519239da763acb360f2f1.png",
        "status_id": "TERDAFTAR",
        "sistem_elektronik_id": 4515
      }
    },
    {
      "type": "tdpseTerbit",
      "id": 4749,
      "attributes": {
        "nomor_pb_umku": "912010894003500010003",
        "nama": "GRAVEL DULUR",
        "website": "gravel.co.id",
        "sektor": "Sektor Perdagangan, Sektor Teknologi Informasi dan Komunikasi",
        "nama_perusahaan": "GRAVEL TEKNOLOGI INDONESIA",
        "tanggal_daftar": "2022-06-24",
        "nomor_tanda_daftar": "003043.02/DJAI.PSE/06/2022",
        "qr_code": "https://pse.kominfo.go.id/storage/images/qr_code/4bc63aac80c951d694e94bfac61a8edf.png",
        "status_id": "TERDAFTAR",
        "sistem_elektronik_id": 4697
      }
    },
    {
      "type": "tdpseTerbit",
      "id": 4607,
      "attributes": {
        "nomor_pb_umku": "070622000179200000001",
        "nama": "APLIKASI",
        "website": "-",
        "sektor": "Sektor Transportasi",
        "nama_perusahaan": "ENDY FRANDO SIMBOLON",
        "tanggal_daftar": "2022-06-19",
        "nomor_tanda_daftar": "003040.01/DJAI.PSE/06/2022",
        "qr_code": "https://pse.kominfo.go.id/storage/images/qr_code/23593d5b91774e71e4c66537c7d20587.png",
        "status_id": "TERDAFTAR",
        "sistem_elektronik_id": 4570
      }
    },
    {
      "type": "tdpseTerbit",
      "id": 5166,
      "attributes": {
        "nomor_pb_umku": "912040130256100690004",
        "nama": "CORPORATE WEBSITE BCAMF",
        "website": "bcamf.co.id",
        "sektor": "Sektor Keuangan",
        "nama_perusahaan": "BCA MULTI FINANCE",
        "tanggal_daftar": "2022-07-07",
        "nomor_tanda_daftar": "003026.02/DJAI.PSE/07/2022",
        "qr_code": "https://pse.kominfo.go.id/storage/images/qr_code/5a775464e91512929146cde7b0eb79a9.png",
        "status_id": "TERDAFTAR",
        "sistem_elektronik_id": 5030
      }
    },
    {
      "type": "tdpseTerbit",
      "id": 4634,
      "attributes": {
        "nomor_pb_umku": "040622001126800000001",
        "nama": "AGX",
        "website": "agx.co",
        "sektor": "Sektor Perdagangan",
        "nama_perusahaan": "HYDRAX DIGITAL TEKNOLOGI",
        "tanggal_daftar": "2022-06-21",
        "nomor_tanda_daftar": "003015.01/DJAI.PSE/06/2022",
        "qr_code": "https://pse.kominfo.go.id/storage/images/qr_code/15f44510cb34be44cb539d213fffd591.png",
        "status_id": "TERDAFTAR",
        "sistem_elektronik_id": 4595
      }
    },
    {
      "type": "tdpseTerbit",
      "id": 5000,
      "attributes": {
        "nomor_pb_umku": "170222006255900030001",
        "nama": "KAISARCAHYABERKAH.COM",
        "website": "kaisarcahyaberkah.com",
        "sektor": "Sektor Perdagangan",
        "nama_perusahaan": "KAISAR CAHYA BERKAH",
        "tanggal_daftar": "2022-07-01",
        "nomor_tanda_daftar": "002995.01/DJAI.PSE/07/2022",
        "qr_code": "https://pse.kominfo.go.id/storage/images/qr_code/4eee3f03fe2255baf49246c46cbff50e.png",
        "status_id": "TERDAFTAR",
        "sistem_elektronik_id": 4869
      }
    }
  ]
}