{
  "meta": {
    "page": {
      "currentPage": 482,
      "from": 4811,
      "lastPage": 1086,
      "perPage": 10,
      "to": 4820,
      "total": 10851
    }
  },
  "data": [
    {
      "type": "tdpseTerbit",
      "id": 5999,
      "attributes": {
        "nomor_pb_umku": "110722005768900000001",
        "nama": "ACEH MULTI PAYMENT",
        "website": "ahafidstore.jualan.me",
        "sektor": "Sektor Perdagangan, Sektor Keuangan, Sektor Teknologi Informasi dan Komunikasi",
        "nama_perusahaan": "ACEH MULTI PAYMENT",
        "tanggal_daftar": "2022-07-17",
        "nomor_tanda_daftar": "003990.01/DJAI.PSE/07/2022",
        "qr_code": "https://pse.kominfo.go.id/storage/images/qr_code/e663669eee85574b6e18c6665f8e4ff7.png",
        "status_id": "TERDAFTAR",
        "sistem_elektronik_id": 5863
      }
    },
    {
      "type": "tdpseTerbit",
      "id": 5318,
      "attributes": {
        "nomor_pb_umku": "912030697006400000003",
        "nama": "XERATIC",
        "website": "xeratic.com",
        "sektor": "Sektor Teknologi Informasi dan Komunikasi",
        "nama_perusahaan": "PUTERA HANDAL INDOTAMA",
        "tanggal_daftar": "2022-07-11",
        "nomor_tanda_daftar": "003988.03/DJAI.PSE/07/2022",
        "qr_code": "https://pse.kominfo.go.id/storage/images/qr_code/8f7677433aff2b797fe1600dcab1a2f7.png",
        "status_id": "TERDAFTAR",
        "sistem_elektronik_id": 5192
      }
    },
    {
      "type": "tdpseTerbit",
      "id": 5316,
      "attributes": {
        "nomor_pb_umku": "912030697006400000002",
        "nama": "XELLR.ID",
        "website": "xellr.id",
        "sektor": "Sektor Teknologi Informasi dan Komunikasi",
        "nama_perusahaan": "PUTERA HANDAL INDOTAMA",
        "tanggal_daftar": "2022-07-11",
        "nomor_tanda_daftar": "003988.02/DJAI.PSE/07/2022",
        "qr_code": "https://pse.kominfo.go.id/storage/images/qr_code/be4614d405124b16a1655ed28de2dad3.png",
        "status_id": "TERDAFTAR",
        "sistem_elektronik_id": 5191
      }
    },
    {
      "type": "tdpseTerbit",
      "id": 5315,
      "attributes": {
        "nomor_pb_umku": "912030697006400000001",
        "nama": "DQLAB.ID",
        "website": "dqlab.id",
        "sektor": "Sektor Teknologi Informasi dan Komunikasi",
        "nama_perusahaan": "PUTERA HANDAL INDOTAMA",
        "tanggal_daftar": "2022-07-11",
        "nomor_tanda_daftar": "003988.01/DJAI.PSE/07/2022",
        "qr_code": "https://pse.kominfo.go.id/storage/images/qr_code/e4db3f6fbb3c96cf84b6ac93b2376b76.png",
        "status_id": "TERDAFTAR",
        "sistem_elektronik_id": 5190
      }
    },
    {
      "type": "tdpseTerbit",
      "id": 5333,
      "attributes": {
        "nomor_pb_umku": "912030421225800000001",
        "nama": "FORE COFFEE",
        "website": "fore.coffee",
        "sektor": "Sektor Perdagangan",
        "nama_perusahaan": "FORE KOPI INDONESIA",
        "tanggal_daftar": "2022-07-12",
        "nomor_tanda_daftar": "003986.01/DJAI.PSE/07/2022",
        "qr_code": "https://pse.kominfo.go.id/storage/images/qr_code/db0c8db6b636f5706afce3fd3bc944f8.png",
        "status_id": "TERDAFTAR",
        "sistem_elektronik_id": 5186
      }
    },
    {
      "type": "tdpseTerbit",
      "id": 5348,
      "attributes": {
        "nomor_pb_umku": "912050483267800010001",
        "nama": "UPSTATION.ASIA",
        "website": "upstation.asia",
        "sektor": "Sektor Perdagangan, Sektor Teknologi Informasi dan Komunikasi",
        "nama_perusahaan": "MONETIZE INDONESIA",
        "tanggal_daftar": "2022-07-12",
        "nomor_tanda_daftar": "003985.01/DJAI.PSE/07/2022",
        "qr_code": "https://pse.kominfo.go.id/storage/images/qr_code/19cbc5a8602bf39560a7580618423e50.png",
        "status_id": "TERDAFTAR",
        "sistem_elektronik_id": 5224
      }
    },
    {
      "type": "tdpseTerbit",
      "id": 10715,
      "attributes": {
        "nomor_pb_umku": "912030033035600030001",
        "nama": "JM CARE",
        "website": "-",
        "sektor": "Sektor Perdagangan",
        "nama_perusahaan": "JACCS MITRA PINASTHIKA MUSTIKA FINANCE INDONESIA",
        "tanggal_daftar": "2022-08-23",
        "nomor_tanda_daftar": "003984.03/DJAI.PSE/08/2022",
        "qr_code": "https://pse.kominfo.go.id/storage/images/qr_code/c4ad014b41d62e5edc196bdec8b59570.png",
        "status_id": "TERDAFTAR",
        "sistem_elektronik_id": 10548
      }
    },
    {
      "type": "tdpseTerbit",
      "id": 5369,
      "attributes": {
        "nomor_pb_umku": "912030033035600010001",
        "nama": "MICROSITE MYCASH",
        "website": "mycash.co.id",
        "sektor": "Sektor Keuangan",
        "nama_perusahaan": "JACCS MITRA PINASTHIKA MUSTIKA FINANCE INDONESIA",
        "tanggal_daftar": "2022-07-12",
        "nomor_tanda_daftar": "003984.02/DJAI.PSE/07/2022",
        "qr_code": "https://pse.kominfo.go.id/storage/images/qr_code/5a4f113a585bd3fb245fdb7b241fa3db.png",
        "status_id": "TERDAFTAR",
        "sistem_elektronik_id": 5240
      }
    },
    {
      "type": "tdpseTerbit",
      "id": 5366,
      "attributes": {
        "nomor_pb_umku": "",
        "nama": "WEBSITE JACCS MPM FINANCE",
        "website": "jaccs-mpmfinance.com",
        "sektor": "Sektor Keuangan",
        "nama_perusahaan": "JACCS MITRA PINASTHIKA MUSTIKA FINANCE INDONESIA",
        "tanggal_daftar": "2022-07-12",
        "nomor_tanda_daftar": "003984.01/DJAI.PSE/07/2022",
        "qr_code": "https://pse.kominfo.go.id/storage/images/qr_code/d7b8626567265a39d3b90c57896a17d2.png",
        "status_id": "TERDAFTAR",
        "sistem_elektronik_id": 5237
      }
    },
    {
      "type": "tdpseTerbit",
      "id": 6220,
      "attributes": {
        "nomor_pb_umku": "271021003116800000009",
        "nama": "FDEVICE.COM",
        "website": "-",
        "sektor": "Sektor Teknologi Informasi dan Komunikasi",
        "nama_perusahaan": "ERA LINTAS TEKNOLOGI",
        "tanggal_daftar": "2022-07-18",
        "nomor_tanda_daftar": "003983.09/DJAI.PSE/07/2022",
        "qr_code": "https://pse.kominfo.go.id/storage/images/qr_code/0747688136c13a343cd8c849bf108410.png",
        "status_id": "TERDAFTAR",
        "sistem_elektronik_id": 6082
      }
    }
  ]
}