{
  "meta": {
    "page": {
      "currentPage": 484,
      "from": 4831,
      "lastPage": 912,
      "perPage": 10,
      "to": 4840,
      "total": 9118
    }
  },
  "data": [
    {
      "type": "tdpseTerbit",
      "id": 3553,
      "attributes": {
        "nomor_pb_umku": null,
        "nama": "RAHASIA INVESTASI SUKSES",
        "website": "-",
        "sektor": "Sektor Teknologi Informasi dan Komunikasi",
        "nama_perusahaan": "RAHASIA INVESTASI SUKSES",
        "tanggal_daftar": "2022-03-16",
        "nomor_tanda_daftar": "002317.01/DJAI.PSE/03/2022",
        "qr_code": "https://pse.kominfo.go.id/storage/images/qr_code/0d45a2a668c18362cd5aeb67cb02a90a.png",
        "status_id": "TERDAFTAR",
        "sistem_elektronik_id": 2990
      }
    },
    {
      "type": "tdpseTerbit",
      "id": 3552,
      "attributes": {
        "nomor_pb_umku": null,
        "nama": "BUKALEGAL.com",
        "website": "bukalegal.com",
        "sektor": "Sektor Perdagangan",
        "nama_perusahaan": "BUKALEGAL TEKNO DIGITAL",
        "tanggal_daftar": "2022-03-16",
        "nomor_tanda_daftar": "002316.01/DJAI.PSE/03/2022",
        "qr_code": "https://pse.kominfo.go.id/storage/images/qr_code/55046673b5d19af4f48029e00bf985d0.png",
        "status_id": "TERDAFTAR",
        "sistem_elektronik_id": 2988
      }
    },
    {
      "type": "tdpseTerbit",
      "id": 3550,
      "attributes": {
        "nomor_pb_umku": null,
        "nama": "LexDigi",
        "website": "https://lexdigi.id/",
        "sektor": "Sektor Perdagangan, Sektor Teknologi Informasi dan Komunikasi",
        "nama_perusahaan": "Lexgo Karya Indonesia",
        "tanggal_daftar": "2022-03-16",
        "nomor_tanda_daftar": "002315.01/DJAI.PSE/03/2022",
        "qr_code": "https://pse.kominfo.go.id/storage/images/qr_code/20017f535b23649886462b11df31503f.png",
        "status_id": "TERDAFTAR",
        "sistem_elektronik_id": 2905
      }
    },
    {
      "type": "tdpseTerbit",
      "id": 4200,
      "attributes": {
        "nomor_pb_umku": "912010215390100030002",
        "nama": "CARSOME: BUY USED CARS ONLINE",
        "website": "-",
        "sektor": "Sektor Perdagangan",
        "nama_perusahaan": "CAR SOME INDONESIA",
        "tanggal_daftar": "2022-06-01",
        "nomor_tanda_daftar": "002314.02/DJAI.PSE/06/2022",
        "qr_code": "https://pse.kominfo.go.id/storage/images/qr_code/26ceebed3c91a39cb25763fa19c0eaef.png",
        "status_id": "TERDAFTAR",
        "sistem_elektronik_id": 4200
      }
    },
    {
      "type": "tdpseTerbit",
      "id": 3549,
      "attributes": {
        "nomor_pb_umku": null,
        "nama": "Car Some Indonesia",
        "website": "www.carsome.id",
        "sektor": "Sektor Perdagangan",
        "nama_perusahaan": "CAR SOME INDONESIA",
        "tanggal_daftar": "2022-03-16",
        "nomor_tanda_daftar": "002314.01/DJAI.PSE/03/2022",
        "qr_code": "https://pse.kominfo.go.id/storage/images/qr_code/8dcb1b12415ca416424ac40d1709198c.png",
        "status_id": "TERDAFTAR",
        "sistem_elektronik_id": 3373
      }
    },
    {
      "type": "tdpseTerbit",
      "id": 3548,
      "attributes": {
        "nomor_pb_umku": null,
        "nama": "E-Invoice",
        "website": "-",
        "sektor": "Sektor Transportasi",
        "nama_perusahaan": "SRIYANTO",
        "tanggal_daftar": "2022-03-16",
        "nomor_tanda_daftar": "002313.01/DJAI.PSE/03/2022",
        "qr_code": "https://pse.kominfo.go.id/storage/images/qr_code/a3ea87f21b06eb02e0e6101a216ceda3.png",
        "status_id": "TERDAFTAR",
        "sistem_elektronik_id": 2994
      }
    },
    {
      "type": "tdpseTerbit",
      "id": 9549,
      "attributes": {
        "nomor_pb_umku": "010322000331800000002",
        "nama": "WWW.NIRAHDIGITAL.COM",
        "website": "nirahdigital.com",
        "sektor": "Sektor Perdagangan",
        "nama_perusahaan": "NIRAH DIGITAL MEDIA",
        "tanggal_daftar": "2022-08-02",
        "nomor_tanda_daftar": "002311.02/DJAI.PSE/08/2022",
        "qr_code": "https://pse.kominfo.go.id/storage/images/qr_code/5bca5061f50bca7876856f40e34eca4d.png",
        "status_id": "TERDAFTAR",
        "sistem_elektronik_id": 9457
      }
    },
    {
      "type": "tdpseTerbit",
      "id": 3545,
      "attributes": {
        "nomor_pb_umku": null,
        "nama": "Kelas.Com dan Kelas.Center",
        "website": "www.kelas.center",
        "sektor": "Sektor Teknologi Informasi dan Komunikasi",
        "nama_perusahaan": "MEGA HARAPAN MULIA",
        "tanggal_daftar": "2022-03-15",
        "nomor_tanda_daftar": "002310.01/DJAI.PSE/03/2022",
        "qr_code": "https://pse.kominfo.go.id/storage/images/qr_code/c81a103e9d98991ddc08bc31348bff43.png",
        "status_id": "TERDAFTAR",
        "sistem_elektronik_id": 2989
      }
    },
    {
      "type": "tdpseTerbit",
      "id": 3544,
      "attributes": {
        "nomor_pb_umku": null,
        "nama": "belanjarutin.id",
        "website": "belanjarutin.id",
        "sektor": "Sektor Perdagangan, Sektor Teknologi Informasi dan Komunikasi",
        "nama_perusahaan": "BINTANG ASET INDONESIA",
        "tanggal_daftar": "2022-03-15",
        "nomor_tanda_daftar": "002309.01/DJAI.PSE/03/2022",
        "qr_code": "https://pse.kominfo.go.id/storage/images/qr_code/0b541c993ad15340adf66de9f6479d70.png",
        "status_id": "TERDAFTAR",
        "sistem_elektronik_id": 2953
      }
    },
    {
      "type": "tdpseTerbit",
      "id": 3543,
      "attributes": {
        "nomor_pb_umku": null,
        "nama": "KREEN",
        "website": "kreen.id",
        "sektor": "Sektor Teknologi Informasi dan Komunikasi",
        "nama_perusahaan": "TIKET KEREN NUSANTARA",
        "tanggal_daftar": "2022-03-15",
        "nomor_tanda_daftar": "002308.01/DJAI.PSE/03/2022",
        "qr_code": "https://pse.kominfo.go.id/storage/images/qr_code/f6f2be955f091a4d20ca402ddce5e382.png",
        "status_id": "TERDAFTAR",
        "sistem_elektronik_id": 2992
      }
    }
  ]
}