{
  "meta": {
    "page": {
      "currentPage": 485,
      "from": 4841,
      "lastPage": 970,
      "perPage": 10,
      "to": 4850,
      "total": 9692
    }
  },
  "data": [
    {
      "type": "tdpseTerbit",
      "id": 4407,
      "attributes": {
        "nomor_pb_umku": null,
        "nama": "Pt.Market Indonesia startup",
        "website": "marketindonesia.co.id",
        "sektor": "Sektor Perdagangan, Sektor Teknologi Informasi dan Komunikasi",
        "nama_perusahaan": "MARKET INDONESIA STARTUP",
        "tanggal_daftar": "2022-05-03",
        "nomor_tanda_daftar": "002644.01/DJAI.PSE/05/2022",
        "qr_code": "https://pse.kominfo.go.id/storage/images/qr_code/c23345dc66f6c82e90fd475de314fae0.png",
        "status_id": "TERDAFTAR",
        "sistem_elektronik_id": 4391
      }
    },
    {
      "type": "tdpseTerbit",
      "id": 4406,
      "attributes": {
        "nomor_pb_umku": null,
        "nama": "PT Akar Inti Data",
        "website": "www.akarintidata.ai",
        "sektor": "Sektor Keuangan, Sektor Perdagangan, Sektor Teknologi Informasi dan Komunikasi",
        "nama_perusahaan": "AKAR INTI DATA",
        "tanggal_daftar": "2022-04-29",
        "nomor_tanda_daftar": "002643.01/DJAI.PSE/04/2022",
        "qr_code": "https://pse.kominfo.go.id/storage/images/qr_code/0fdb9b8443ad8039670e0e23c85588a8.png",
        "status_id": "TERDAFTAR",
        "sistem_elektronik_id": 4390
      }
    },
    {
      "type": "tdpseTerbit",
      "id": 4405,
      "attributes": {
        "nomor_pb_umku": null,
        "nama": "CV DUTA EDUKASI BOALEMO",
        "website": "-",
        "sektor": "Sektor Perdagangan",
        "nama_perusahaan": "DUTA EDUKASI BOALEMO",
        "tanggal_daftar": "2022-04-29",
        "nomor_tanda_daftar": "002642.01/DJAI.PSE/04/2022",
        "qr_code": "https://pse.kominfo.go.id/storage/images/qr_code/f065f71756600ff795e92ae6d81dffbe.png",
        "status_id": "TERDAFTAR",
        "sistem_elektronik_id": 4389
      }
    },
    {
      "type": "tdpseTerbit",
      "id": 4404,
      "attributes": {
        "nomor_pb_umku": null,
        "nama": "SAHABAT INSURANCE MOBILE APPS",
        "website": "sahabatinsurance.id",
        "sektor": "Sektor Keuangan",
        "nama_perusahaan": "ASURANSI SAHABAT ARTHA PROTEKSI",
        "tanggal_daftar": "2022-04-29",
        "nomor_tanda_daftar": "002641.02/DJAI.PSE/04/2022",
        "qr_code": "https://pse.kominfo.go.id/storage/images/qr_code/78d4b9330d79714c8687531176c6972b.png",
        "status_id": "TERDAFTAR",
        "sistem_elektronik_id": 4388
      }
    },
    {
      "type": "tdpseTerbit",
      "id": 4403,
      "attributes": {
        "nomor_pb_umku": null,
        "nama": "sahabatinsurance.id",
        "website": "sahabatinsurance.id",
        "sektor": "Sektor Keuangan",
        "nama_perusahaan": "ASURANSI SAHABAT ARTHA PROTEKSI",
        "tanggal_daftar": "2022-04-29",
        "nomor_tanda_daftar": "002641.01/DJAI.PSE/04/2022",
        "qr_code": "https://pse.kominfo.go.id/storage/images/qr_code/03dc4fa301b25e31783a9dde82b668ce.png",
        "status_id": "TERDAFTAR",
        "sistem_elektronik_id": 4387
      }
    },
    {
      "type": "tdpseTerbit",
      "id": 4402,
      "attributes": {
        "nomor_pb_umku": null,
        "nama": "1000saudara.com",
        "website": "1000saudara.com",
        "sektor": "Sektor Perdagangan, Sektor Teknologi Informasi dan Komunikasi",
        "nama_perusahaan": "MITRA SERIBU SAUDARA",
        "tanggal_daftar": "2022-04-29",
        "nomor_tanda_daftar": "002640.01/DJAI.PSE/04/2022",
        "qr_code": "https://pse.kominfo.go.id/storage/images/qr_code/ac2395135ac45098c3752989ff6743d3.png",
        "status_id": "TERDAFTAR",
        "sistem_elektronik_id": 4386
      }
    },
    {
      "type": "tdpseTerbit",
      "id": 4401,
      "attributes": {
        "nomor_pb_umku": null,
        "nama": "OKEPAY INDONESIA",
        "website": "-",
        "sektor": "Sektor Keuangan, Sektor Perdagangan",
        "nama_perusahaan": "YEYEP GUSTIAN",
        "tanggal_daftar": "2022-05-02",
        "nomor_tanda_daftar": "002639.02/DJAI.PSE/05/2022",
        "qr_code": "https://pse.kominfo.go.id/storage/images/qr_code/ce46e679bfd4806bb055d75d450208de.png",
        "status_id": "TERDAFTAR",
        "sistem_elektronik_id": 4385
      }
    },
    {
      "type": "tdpseTerbit",
      "id": 4400,
      "attributes": {
        "nomor_pb_umku": null,
        "nama": "OkePay",
        "website": "-",
        "sektor": "Sektor Keuangan",
        "nama_perusahaan": "YEYEP GUSTIAN",
        "tanggal_daftar": "2022-04-28",
        "nomor_tanda_daftar": "002639.01/DJAI.PSE/04/2022",
        "qr_code": "https://pse.kominfo.go.id/storage/images/qr_code/2223ab7f32587ffa3c33a257d3a6330f.png",
        "status_id": "TERDAFTAR",
        "sistem_elektronik_id": 4384
      }
    },
    {
      "type": "tdpseTerbit",
      "id": 4399,
      "attributes": {
        "nomor_pb_umku": null,
        "nama": "IJIN KU",
        "website": "ijinku.com",
        "sektor": "Sektor Perdagangan, Sektor Teknologi Informasi dan Komunikasi, Sektor Transportasi",
        "nama_perusahaan": "BIRO PATNER ABADI",
        "tanggal_daftar": "2022-04-28",
        "nomor_tanda_daftar": "002638.01/DJAI.PSE/04/2022",
        "qr_code": "https://pse.kominfo.go.id/storage/images/qr_code/9de134c34880b2f0d27274b83425822a.png",
        "status_id": "TERDAFTAR",
        "sistem_elektronik_id": 4383
      }
    },
    {
      "type": "tdpseTerbit",
      "id": 4398,
      "attributes": {
        "nomor_pb_umku": null,
        "nama": "andeskabpdotnet",
        "website": "-",
        "sektor": "Sektor Perdagangan, Sektor Teknologi Informasi dan Komunikasi",
        "nama_perusahaan": "ANDESKA BINA PERSADA",
        "tanggal_daftar": "2022-04-28",
        "nomor_tanda_daftar": "002637.02/DJAI.PSE/04/2022",
        "qr_code": "https://pse.kominfo.go.id/storage/images/qr_code/adbb7436748d1bcf1769f695edd78e48.png",
        "status_id": "TERDAFTAR",
        "sistem_elektronik_id": 4382
      }
    }
  ]
}