{
  "meta": {
    "page": {
      "currentPage": 486,
      "from": 4851,
      "lastPage": 945,
      "perPage": 10,
      "to": 4860,
      "total": 9449
    }
  },
  "data": [
    {
      "type": "tdpseTerbit",
      "id": 5060,
      "attributes": {
        "nomor_pb_umku": "022000844370700090003",
        "nama": "POWERBIZ",
        "website": "powerbiz.asia",
        "sektor": "Sektor Teknologi Informasi dan Komunikasi",
        "nama_perusahaan": "MITRA SEMERU INDONESIA",
        "tanggal_daftar": "2022-07-04",
        "nomor_tanda_daftar": "002471.04/DJAI.PSE/07/2022",
        "qr_code": "https://pse.kominfo.go.id/storage/images/qr_code/ecd11c62737dc79edf3f4a84c8eaa2e9.png",
        "status_id": "TERDAFTAR",
        "sistem_elektronik_id": 4929
      }
    },
    {
      "type": "tdpseTerbit",
      "id": 3977,
      "attributes": {
        "nomor_pb_umku": null,
        "nama": "Channel Management",
        "website": "powercommerce.asia",
        "sektor": "Sektor Teknologi Informasi dan Komunikasi",
        "nama_perusahaan": "MITRA SEMERU INDONESIA",
        "tanggal_daftar": "2022-04-21",
        "nomor_tanda_daftar": "002471.03/DJAI.PSE/04/2022",
        "qr_code": "https://pse.kominfo.go.id/storage/images/qr_code/4205d094085e8d1cededbd74194c4845.png",
        "status_id": "TERDAFTAR",
        "sistem_elektronik_id": 3722
      }
    },
    {
      "type": "tdpseTerbit",
      "id": 3904,
      "attributes": {
        "nomor_pb_umku": null,
        "nama": "Menarini Store",
        "website": "menarinistore.id",
        "sektor": "Sektor Perdagangan",
        "nama_perusahaan": "MITRA SEMERU INDONESIA",
        "tanggal_daftar": "2022-04-18",
        "nomor_tanda_daftar": "002471.02/DJAI.PSE/04/2022",
        "qr_code": "https://pse.kominfo.go.id/storage/images/qr_code/9851ca0cfb2ce55ba2a7204e78db6c0c.png",
        "status_id": "TERDAFTAR",
        "sistem_elektronik_id": 3721
      }
    },
    {
      "type": "tdpseTerbit",
      "id": 3806,
      "attributes": {
        "nomor_pb_umku": null,
        "nama": "Halal Plaza",
        "website": "halalplaza.asia",
        "sektor": "Sektor Perdagangan",
        "nama_perusahaan": "MITRA SEMERU INDONESIA",
        "tanggal_daftar": "2022-04-07",
        "nomor_tanda_daftar": "002471.01/DJAI.PSE/04/2022",
        "qr_code": "https://pse.kominfo.go.id/storage/images/qr_code/a050b8a9d4f039e8cde599f7f893319b.png",
        "status_id": "TERDAFTAR",
        "sistem_elektronik_id": 3720
      }
    },
    {
      "type": "tdpseTerbit",
      "id": 3930,
      "attributes": {
        "nomor_pb_umku": null,
        "nama": "Mo88i",
        "website": "www.mo88i.com",
        "sektor": "Sektor Perdagangan",
        "nama_perusahaan": "SERASI MITRA MOBIL",
        "tanggal_daftar": "2022-04-07",
        "nomor_tanda_daftar": "002470.01/DJAI.PSE/04/2022",
        "qr_code": "https://pse.kominfo.go.id/storage/images/qr_code/0fce78c26b61feab0834ab00c23630c6.png",
        "status_id": "TERDAFTAR",
        "sistem_elektronik_id": 3929
      }
    },
    {
      "type": "tdpseTerbit",
      "id": 3804,
      "attributes": {
        "nomor_pb_umku": null,
        "nama": "PT WARTAMOTO INDONESIA",
        "website": "wartamoto.com",
        "sektor": "Sektor Perdagangan, Sektor Transportasi",
        "nama_perusahaan": "NURLAILA",
        "tanggal_daftar": "2022-04-07",
        "nomor_tanda_daftar": "002469.01/DJAI.PSE/04/2022",
        "qr_code": "https://pse.kominfo.go.id/storage/images/qr_code/0d5889528db8bf8772d7f4552c5e7ef5.png",
        "status_id": "TERDAFTAR",
        "sistem_elektronik_id": 3758
      }
    },
    {
      "type": "tdpseTerbit",
      "id": 9735,
      "attributes": {
        "nomor_pb_umku": "812011413226801270062",
        "nama": "NEW INTERNET BANKING BISNIS (NEWBIZ)",
        "website": "newbiz.bri.co.id",
        "sektor": "Sektor Keuangan",
        "nama_perusahaan": "PERUSAHAAN PERSEROAN (PERSERO) PT. BANK RAKYAT INDONESIA",
        "tanggal_daftar": "2022-08-03",
        "nomor_tanda_daftar": "002468.58/DJAI.PSE/08/2022",
        "qr_code": "https://pse.kominfo.go.id/storage/images/qr_code/97af55ac570329f2cbc08b65cce26880.png",
        "status_id": "TERDAFTAR",
        "sistem_elektronik_id": 9612
      }
    },
    {
      "type": "tdpseTerbit",
      "id": 9731,
      "attributes": {
        "nomor_pb_umku": "812011413226801270061",
        "nama": "BRI JUNIO SMART",
        "website": "junio-smart.id",
        "sektor": "Sektor Keuangan, Sektor Teknologi Informasi dan Komunikasi",
        "nama_perusahaan": "PERUSAHAAN PERSEROAN (PERSERO) PT. BANK RAKYAT INDONESIA",
        "tanggal_daftar": "2022-08-03",
        "nomor_tanda_daftar": "002468.57/DJAI.PSE/08/2022",
        "qr_code": "https://pse.kominfo.go.id/storage/images/qr_code/cc2cecf561dd0a84739e178a2b6dede4.png",
        "status_id": "TERDAFTAR",
        "sistem_elektronik_id": 9609
      }
    },
    {
      "type": "tdpseTerbit",
      "id": 8943,
      "attributes": {
        "nomor_pb_umku": "812011413226801200060",
        "nama": "DASHBOARD VIRTUAL ACCOUNT KORPORASI",
        "website": "bricorporateva.id",
        "sektor": "Sektor Keuangan",
        "nama_perusahaan": "PERUSAHAAN PERSEROAN (PERSERO) PT. BANK RAKYAT INDONESIA",
        "tanggal_daftar": "2022-07-25",
        "nomor_tanda_daftar": "002468.56/DJAI.PSE/07/2022",
        "qr_code": "https://pse.kominfo.go.id/storage/images/qr_code/660412f989079d46659bed1b405b4688.png",
        "status_id": "TERDAFTAR",
        "sistem_elektronik_id": 8851
      }
    },
    {
      "type": "tdpseTerbit",
      "id": 8410,
      "attributes": {
        "nomor_pb_umku": "812011413226801200059",
        "nama": "WEBSITE KORPORAT BRI",
        "website": "bri.co.id",
        "sektor": "Sektor Keuangan, Sektor Teknologi Informasi dan Komunikasi",
        "nama_perusahaan": "PERUSAHAAN PERSEROAN (PERSERO) PT. BANK RAKYAT INDONESIA",
        "tanggal_daftar": "2022-07-21",
        "nomor_tanda_daftar": "002468.55/DJAI.PSE/07/2022",
        "qr_code": "https://pse.kominfo.go.id/storage/images/qr_code/44c9df72ddfd5059a071e40195958c8b.png",
        "status_id": "TERDAFTAR",
        "sistem_elektronik_id": 8330
      }
    }
  ]
}