{
  "meta": {
    "page": {
      "currentPage": 487,
      "from": 4861,
      "lastPage": 1097,
      "perPage": 10,
      "to": 4870,
      "total": 10962
    }
  },
  "data": [
    {
      "type": "tdpseTerbit",
      "id": 5647,
      "attributes": {
        "nomor_pb_umku": "912000784132500020001",
        "nama": "CORPORATE WEBSITE PT EASTSPRING INVESTMENTS INDONESIA",
        "website": "eastspring.co.id",
        "sektor": "Sektor Keuangan",
        "nama_perusahaan": "EASTSPRING INVESTMENTS INDONESIA",
        "tanggal_daftar": "2022-07-14",
        "nomor_tanda_daftar": "004035.01/DJAI.PSE/07/2022",
        "qr_code": "https://pse.kominfo.go.id/storage/images/qr_code/65cbe6e98518684f783a5608b5ac6de8.png",
        "status_id": "TERDAFTAR",
        "sistem_elektronik_id": 5507
      }
    },
    {
      "type": "tdpseTerbit",
      "id": 7067,
      "attributes": {
        "nomor_pb_umku": "022010351048300010004",
        "nama": "E-MAIL CORPORATE BANK MEGA SYARIAH",
        "website": "mail.megasyariah.co.id",
        "sektor": "Sektor Keuangan",
        "nama_perusahaan": "BANK MEGA SYARIAH",
        "tanggal_daftar": "2022-07-19",
        "nomor_tanda_daftar": "004034.04/DJAI.PSE/07/2022",
        "qr_code": "https://pse.kominfo.go.id/storage/images/qr_code/35c65dc7f75b57cca28fc40a8eb6f406.png",
        "status_id": "TERDAFTAR",
        "sistem_elektronik_id": 6807
      }
    },
    {
      "type": "tdpseTerbit",
      "id": 5514,
      "attributes": {
        "nomor_pb_umku": "022010351048300010003",
        "nama": "M-SYARIAH",
        "website": "-",
        "sektor": "Sektor Keuangan",
        "nama_perusahaan": "BANK MEGA SYARIAH",
        "tanggal_daftar": "2022-07-13",
        "nomor_tanda_daftar": "004034.03/DJAI.PSE/07/2022",
        "qr_code": "https://pse.kominfo.go.id/storage/images/qr_code/bb7b8b1624599eec163aff5872a71502.png",
        "status_id": "TERDAFTAR",
        "sistem_elektronik_id": 5376
      }
    },
    {
      "type": "tdpseTerbit",
      "id": 5491,
      "attributes": {
        "nomor_pb_umku": "022010351048300010002",
        "nama": "CASH MANAGEMENT SERVICES BANK MEGA SYARIAH",
        "website": "cms.megasyariah.co.id",
        "sektor": "Sektor Keuangan",
        "nama_perusahaan": "BANK MEGA SYARIAH",
        "tanggal_daftar": "2022-07-13",
        "nomor_tanda_daftar": "004034.02/DJAI.PSE/07/2022",
        "qr_code": "https://pse.kominfo.go.id/storage/images/qr_code/8a182dd47719cda7475265cdcb055363.png",
        "status_id": "TERDAFTAR",
        "sistem_elektronik_id": 5354
      }
    },
    {
      "type": "tdpseTerbit",
      "id": 5487,
      "attributes": {
        "nomor_pb_umku": "022010351048300010001",
        "nama": "WEBSITE BANK MEGA SYARIAH",
        "website": "megasyariah.co.id",
        "sektor": "Sektor Keuangan",
        "nama_perusahaan": "BANK MEGA SYARIAH",
        "tanggal_daftar": "2022-07-13",
        "nomor_tanda_daftar": "004034.01/DJAI.PSE/07/2022",
        "qr_code": "https://pse.kominfo.go.id/storage/images/qr_code/45661a5a29d89ba717adf38177859e50.png",
        "status_id": "TERDAFTAR",
        "sistem_elektronik_id": 5351
      }
    },
    {
      "type": "tdpseTerbit",
      "id": 5385,
      "attributes": {
        "nomor_pb_umku": "812000989153700050002",
        "nama": "BAHTERA ADI JAYA",
        "website": "bahteraadijaya.com",
        "sektor": "Sektor Perdagangan",
        "nama_perusahaan": "BAHTERA ADI JAYA",
        "tanggal_daftar": "2022-07-12",
        "nomor_tanda_daftar": "004033.01/DJAI.PSE/07/2022",
        "qr_code": "https://pse.kominfo.go.id/storage/images/qr_code/6449d2e73336c031c2f0a8534e6c1fac.png",
        "status_id": "TERDAFTAR",
        "sistem_elektronik_id": 5257
      }
    },
    {
      "type": "tdpseTerbit",
      "id": 5377,
      "attributes": {
        "nomor_pb_umku": "912020348242500010002",
        "nama": "INFINITO",
        "website": "vfirst.com",
        "sektor": "Sektor Teknologi Informasi dan Komunikasi",
        "nama_perusahaan": "VFIRST KOMUNIKASI INDONESIA",
        "tanggal_daftar": "2022-07-12",
        "nomor_tanda_daftar": "004031.02/DJAI.PSE/07/2022",
        "qr_code": "https://pse.kominfo.go.id/storage/images/qr_code/adde980114c535a2a9366a1c20fba5d8.png",
        "status_id": "TERDAFTAR",
        "sistem_elektronik_id": 5247
      }
    },
    {
      "type": "tdpseTerbit",
      "id": 5368,
      "attributes": {
        "nomor_pb_umku": "912020348242500010001",
        "nama": "CPAAS",
        "website": "vfirst.com",
        "sektor": "Sektor Teknologi Informasi dan Komunikasi",
        "nama_perusahaan": "VFIRST KOMUNIKASI INDONESIA",
        "tanggal_daftar": "2022-07-12",
        "nomor_tanda_daftar": "004031.01/DJAI.PSE/07/2022",
        "qr_code": "https://pse.kominfo.go.id/storage/images/qr_code/2f6f0b2b82219f20258fc092f23d448c.png",
        "status_id": "TERDAFTAR",
        "sistem_elektronik_id": 5239
      }
    },
    {
      "type": "tdpseTerbit",
      "id": 5444,
      "attributes": {
        "nomor_pb_umku": "022010270370800000004",
        "nama": "HALOBELANJA DOTCOM",
        "website": "halobelanja.com",
        "sektor": "Sektor Transportasi",
        "nama_perusahaan": "HALO BELANJA DOTCOM",
        "tanggal_daftar": "2022-07-13",
        "nomor_tanda_daftar": "004030.04/DJAI.PSE/07/2022",
        "qr_code": "https://pse.kominfo.go.id/storage/images/qr_code/d7448a5feeef8ec5dc7a17d225d4e4bb.png",
        "status_id": "TERDAFTAR",
        "sistem_elektronik_id": 5316
      }
    },
    {
      "type": "tdpseTerbit",
      "id": 5441,
      "attributes": {
        "nomor_pb_umku": "022010270370800000003",
        "nama": "HALOBELANJADOTCOM",
        "website": "halobelanja.com",
        "sektor": "Sektor Teknologi Informasi dan Komunikasi",
        "nama_perusahaan": "HALO BELANJA DOTCOM",
        "tanggal_daftar": "2022-07-13",
        "nomor_tanda_daftar": "004030.03/DJAI.PSE/07/2022",
        "qr_code": "https://pse.kominfo.go.id/storage/images/qr_code/d54ee470557b6d1ab9d2d0a137ec06ee.png",
        "status_id": "TERDAFTAR",
        "sistem_elektronik_id": 5313
      }
    }
  ]
}