{
  "meta": {
    "page": {
      "currentPage": 488,
      "from": 4871,
      "lastPage": 957,
      "perPage": 10,
      "to": 4880,
      "total": 9563
    }
  },
  "data": [
    {
      "type": "tdpseTerbit",
      "id": 3901,
      "attributes": {
        "nomor_pb_umku": null,
        "nama": "SENTRAL DATA RDP",
        "website": "-",
        "sektor": "Sektor Pertahanan dan Keamanan, Sektor Teknologi Informasi dan Komunikasi",
        "nama_perusahaan": "RUMAH DIGITAL PRODUCTION",
        "tanggal_daftar": "2022-04-18",
        "nomor_tanda_daftar": "002535.05/DJAI.PSE/04/2022",
        "qr_code": "https://pse.kominfo.go.id/storage/images/qr_code/23bb38c2c7aeb4d3e0af672d6f961f55.png",
        "status_id": "TERDAFTAR",
        "sistem_elektronik_id": 3767
      }
    },
    {
      "type": "tdpseTerbit",
      "id": 3900,
      "attributes": {
        "nomor_pb_umku": null,
        "nama": "SENTRAL INVESTASI RDP",
        "website": "rumahdigital.pro",
        "sektor": "Sektor Perdagangan, Sektor Teknologi Informasi dan Komunikasi",
        "nama_perusahaan": "RUMAH DIGITAL PRODUCTION",
        "tanggal_daftar": "2022-04-18",
        "nomor_tanda_daftar": "002535.04/DJAI.PSE/04/2022",
        "qr_code": "https://pse.kominfo.go.id/storage/images/qr_code/b4b0df778c1a14a267888eb501396c33.png",
        "status_id": "TERDAFTAR",
        "sistem_elektronik_id": 3766
      }
    },
    {
      "type": "tdpseTerbit",
      "id": 3899,
      "attributes": {
        "nomor_pb_umku": null,
        "nama": "RUMAH DIGITAL PAYMENT ( RDPay )",
        "website": "rdpro.co.id",
        "sektor": "Sektor Pangan, Sektor Perdagangan, Sektor Teknologi Informasi dan Komunikasi",
        "nama_perusahaan": "RUMAH DIGITAL PRODUCTION",
        "tanggal_daftar": "2022-04-18",
        "nomor_tanda_daftar": "002535.03/DJAI.PSE/04/2022",
        "qr_code": "https://pse.kominfo.go.id/storage/images/qr_code/0383484249e915295716f9f6bde05ef6.png",
        "status_id": "TERDAFTAR",
        "sistem_elektronik_id": 3765
      }
    },
    {
      "type": "tdpseTerbit",
      "id": 3898,
      "attributes": {
        "nomor_pb_umku": null,
        "nama": "GADIS DESA",
        "website": "GADISDESA.ID",
        "sektor": "Sektor Perdagangan, Sektor Teknologi Informasi dan Komunikasi",
        "nama_perusahaan": "RUMAH DIGITAL PRODUCTION",
        "tanggal_daftar": "2022-04-18",
        "nomor_tanda_daftar": "002535.02/DJAI.PSE/04/2022",
        "qr_code": "https://pse.kominfo.go.id/storage/images/qr_code/6372349c8078127f2ab8d1d444bfbd04.png",
        "status_id": "TERDAFTAR",
        "sistem_elektronik_id": 3764
      }
    },
    {
      "type": "tdpseTerbit",
      "id": 3894,
      "attributes": {
        "nomor_pb_umku": null,
        "nama": "RDP ASIA",
        "website": "rdp.asia",
        "sektor": "Sektor Teknologi Informasi dan Komunikasi",
        "nama_perusahaan": "RUMAH DIGITAL PRODUCTION",
        "tanggal_daftar": "2022-04-18",
        "nomor_tanda_daftar": "002535.01/DJAI.PSE/04/2022",
        "qr_code": "https://pse.kominfo.go.id/storage/images/qr_code/6fda8ce388210787a0071a002bfd4504.png",
        "status_id": "TERDAFTAR",
        "sistem_elektronik_id": 3763
      }
    },
    {
      "type": "tdpseTerbit",
      "id": 3892,
      "attributes": {
        "nomor_pb_umku": null,
        "nama": "Disprz",
        "website": "disprz.com",
        "sektor": "Sektor Teknologi Informasi dan Komunikasi",
        "nama_perusahaan": "HEURISTIX DIGITAL TECHNOLOGIES",
        "tanggal_daftar": "2022-04-18",
        "nomor_tanda_daftar": "002534.01/DJAI.PSE/04/2022",
        "qr_code": "https://pse.kominfo.go.id/storage/images/qr_code/2dd5677b135e9202acef5229a4d19801.png",
        "status_id": "TERDAFTAR",
        "sistem_elektronik_id": 3781
      }
    },
    {
      "type": "tdpseTerbit",
      "id": 3889,
      "attributes": {
        "nomor_pb_umku": null,
        "nama": "B-Lanja",
        "website": "b-lanja.co.id",
        "sektor": "Sektor Kesehatan, Sektor Pangan, Sektor Perdagangan, Sektor Teknologi Informasi dan Komunikasi, Sektor Transportasi",
        "nama_perusahaan": "R. ALEXANDRY SURYA W.",
        "tanggal_daftar": "2022-04-17",
        "nomor_tanda_daftar": "002533.01/DJAI.PSE/04/2022",
        "qr_code": "https://pse.kominfo.go.id/storage/images/qr_code/72416d6da57ce9083ba2a639e64ca688.png",
        "status_id": "TERDAFTAR",
        "sistem_elektronik_id": 3744
      }
    },
    {
      "type": "tdpseTerbit",
      "id": 3888,
      "attributes": {
        "nomor_pb_umku": null,
        "nama": "PT Yang Muda Kaya",
        "website": "finplan.id",
        "sektor": "Sektor Perdagangan, Sektor Teknologi Informasi dan Komunikasi",
        "nama_perusahaan": "YANG MUDA KAYA",
        "tanggal_daftar": "2022-04-17",
        "nomor_tanda_daftar": "002532.01/DJAI.PSE/04/2022",
        "qr_code": "https://pse.kominfo.go.id/storage/images/qr_code/718c085b1bde3177ec2b27c54d4b9adf.png",
        "status_id": "TERDAFTAR",
        "sistem_elektronik_id": 3748
      }
    },
    {
      "type": "tdpseTerbit",
      "id": 3887,
      "attributes": {
        "nomor_pb_umku": null,
        "nama": "javatech media solusindo",
        "website": "javatrade.biz",
        "sektor": "Sektor Perdagangan, Sektor Teknologi Informasi dan Komunikasi",
        "nama_perusahaan": "LUKMANUL HAKIM",
        "tanggal_daftar": "2022-04-17",
        "nomor_tanda_daftar": "002531.01/DJAI.PSE/04/2022",
        "qr_code": "https://pse.kominfo.go.id/storage/images/qr_code/9928d59e49bed8c8e236f4778dd2dbf8.png",
        "status_id": "TERDAFTAR",
        "sistem_elektronik_id": 3777
      }
    },
    {
      "type": "tdpseTerbit",
      "id": 3886,
      "attributes": {
        "nomor_pb_umku": null,
        "nama": "CV. RAHMAN MULTIGUNA PERKASA",
        "website": "-",
        "sektor": "Sektor Perdagangan",
        "nama_perusahaan": "RAHMAN MULTIGUNA PERKASA",
        "tanggal_daftar": "2022-04-17",
        "nomor_tanda_daftar": "002530.01/DJAI.PSE/04/2022",
        "qr_code": "https://pse.kominfo.go.id/storage/images/qr_code/e4ac1bdf091e3f0c8a9b671a919ff5e8.png",
        "status_id": "TERDAFTAR",
        "sistem_elektronik_id": 3797
      }
    }
  ]
}