{
  "meta": {
    "page": {
      "currentPage": 489,
      "from": 4881,
      "lastPage": 991,
      "perPage": 10,
      "to": 4890,
      "total": 9907
    }
  },
  "data": [
    {
      "type": "tdpseTerbit",
      "id": 8904,
      "attributes": {
        "nomor_pb_umku": "129900048018300380002",
        "nama": "ANNORA POINT OF SALES",
        "website": "-",
        "sektor": "Sektor Perdagangan, Sektor Teknologi Informasi dan Komunikasi",
        "nama_perusahaan": "ANNORA MULTI INTECH",
        "tanggal_daftar": "2022-07-23",
        "nomor_tanda_daftar": "002842.02/DJAI.PSE/07/2022",
        "qr_code": "https://pse.kominfo.go.id/storage/images/qr_code/2dd38a5d3f080c1c66d31a46f9d1a170.png",
        "status_id": "TERDAFTAR",
        "sistem_elektronik_id": 8809
      }
    },
    {
      "type": "tdpseTerbit",
      "id": 4231,
      "attributes": {
        "nomor_pb_umku": "912050881242300020001",
        "nama": "TICMIEDU",
        "website": "ticmiedu.co.id",
        "sektor": "Sektor Keuangan",
        "nama_perusahaan": "INDONESIAN CAPITAL MARKET ELECTRONIC LIBRARY",
        "tanggal_daftar": "2022-06-06",
        "nomor_tanda_daftar": "002841.01/DJAI.PSE/06/2022",
        "qr_code": "https://pse.kominfo.go.id/storage/images/qr_code/74f8adbf677f7de426f13635a1bfd512.png",
        "status_id": "TERDAFTAR",
        "sistem_elektronik_id": 4228
      }
    },
    {
      "type": "tdpseTerbit",
      "id": 4232,
      "attributes": {
        "nomor_pb_umku": "190522007020500000001",
        "nama": "BLOCKDREAM MEDIA",
        "website": "blockdreammedia.com",
        "sektor": "Sektor Teknologi Informasi dan Komunikasi",
        "nama_perusahaan": "BLOCKDREAM MEDIA INTERNASIONAL",
        "tanggal_daftar": "2022-06-06",
        "nomor_tanda_daftar": "002840.01/DJAI.PSE/06/2022",
        "qr_code": "https://pse.kominfo.go.id/storage/images/qr_code/d80a14bd61e6c60d2f353091b2402cf2.png",
        "status_id": "TERDAFTAR",
        "sistem_elektronik_id": 4230
      }
    },
    {
      "type": "tdpseTerbit",
      "id": 4368,
      "attributes": {
        "nomor_pb_umku": "812000176280300000001",
        "nama": "HELO-BABE",
        "website": "babe.co.id",
        "sektor": "Sektor Teknologi Informasi dan Komunikasi",
        "nama_perusahaan": "MP GAMES",
        "tanggal_daftar": "2022-06-14",
        "nomor_tanda_daftar": "002831.01/DJAI.PSE/06/2022",
        "qr_code": "https://pse.kominfo.go.id/storage/images/qr_code/b97a812185de42ab3d91b6d2cd6b56e3.png",
        "status_id": "TERDAFTAR",
        "sistem_elektronik_id": 4354
      }
    },
    {
      "type": "tdpseTerbit",
      "id": 8945,
      "attributes": {
        "nomor_pb_umku": "251021001164700130005",
        "nama": "ALAMBAMAKMUR.COM",
        "website": "alambamakmur.com",
        "sektor": "Sektor Perdagangan",
        "nama_perusahaan": "ALAMBA MAKMUR BERSAMA",
        "tanggal_daftar": "2022-07-25",
        "nomor_tanda_daftar": "002824.01/DJAI.PSE/07/2022",
        "qr_code": "https://pse.kominfo.go.id/storage/images/qr_code/b9f2816e8f69e7b4f9c989cc12c742e3.png",
        "status_id": "TERDAFTAR",
        "sistem_elektronik_id": 8854
      }
    },
    {
      "type": "tdpseTerbit",
      "id": 5439,
      "attributes": {
        "nomor_pb_umku": "812011403137800010002",
        "nama": "WAHYOO",
        "website": "-",
        "sektor": "Sektor Perdagangan",
        "nama_perusahaan": "ALIRAN SUMBER BERKAT",
        "tanggal_daftar": "2022-07-13",
        "nomor_tanda_daftar": "002823.02/DJAI.PSE/07/2022",
        "qr_code": "https://pse.kominfo.go.id/storage/images/qr_code/b7f253c776395669555089113f9a912a.png",
        "status_id": "TERDAFTAR",
        "sistem_elektronik_id": 5309
      }
    },
    {
      "type": "tdpseTerbit",
      "id": 10110,
      "attributes": {
        "nomor_pb_umku": "912030838199700010002",
        "nama": "TSMEDIA.ID",
        "website": "tsmedia.id",
        "sektor": "Sektor Perdagangan",
        "nama_perusahaan": "GLOBAL LOYAL SEJAHTERA",
        "tanggal_daftar": "2022-08-09",
        "nomor_tanda_daftar": "002813.02/DJAI.PSE/08/2022",
        "qr_code": "https://pse.kominfo.go.id/storage/images/qr_code/02952437281d62df4677c9cfc2bee110.png",
        "status_id": "TERDAFTAR",
        "sistem_elektronik_id": 9992
      }
    },
    {
      "type": "tdpseTerbit",
      "id": 4257,
      "attributes": {
        "nomor_pb_umku": "120522003981100000001",
        "nama": "BMONEY APPLICATION & WM BACK OFFICE SYSTEM",
        "website": "bmoney.id",
        "sektor": "Sektor Teknologi Informasi dan Komunikasi",
        "nama_perusahaan": "BUKA INVESTASI DIGITAL",
        "tanggal_daftar": "2022-06-07",
        "nomor_tanda_daftar": "002813.01/DJAI.PSE/06/2022",
        "qr_code": "https://pse.kominfo.go.id/storage/images/qr_code/2ed2895730be13695d5160e1e75befc4.png",
        "status_id": "TERDAFTAR",
        "sistem_elektronik_id": 4252
      }
    },
    {
      "type": "tdpseTerbit",
      "id": 4637,
      "attributes": {
        "nomor_pb_umku": "912030838199700010001",
        "nama": "MEMBER.ID",
        "website": "member.id",
        "sektor": "Sektor Perdagangan",
        "nama_perusahaan": "GLOBAL LOYAL SEJAHTERA",
        "tanggal_daftar": "2022-06-21",
        "nomor_tanda_daftar": "002813.01/DJAI.PSE/06/2022",
        "qr_code": "https://pse.kominfo.go.id/storage/images/qr_code/f2c8e264e7ea742b246c7150ef0b9e6b.png",
        "status_id": "TERDAFTAR",
        "sistem_elektronik_id": 4591
      }
    },
    {
      "type": "tdpseTerbit",
      "id": 4294,
      "attributes": {
        "nomor_pb_umku": "190522006674300000002",
        "nama": "UI CONNECT ILUNI UI",
        "website": "-",
        "sektor": "Sektor Teknologi Informasi dan Komunikasi",
        "nama_perusahaan": "IKATAN ALUMNI UNIVERSITAS INDONESIA (ILUNI UI)",
        "tanggal_daftar": "2022-06-08",
        "nomor_tanda_daftar": "002812.02/DJAI.PSE/06/2022",
        "qr_code": "https://pse.kominfo.go.id/storage/images/qr_code/f2c1fffd2a80e71871cda721be37a4b2.png",
        "status_id": "TERDAFTAR",
        "sistem_elektronik_id": 4288
      }
    }
  ]
}