{
  "meta": {
    "page": {
      "currentPage": 490,
      "from": 4891,
      "lastPage": 1008,
      "perPage": 10,
      "to": 4900,
      "total": 10073
    }
  },
  "data": [
    {
      "type": "tdpseTerbit",
      "id": 5156,
      "attributes": {
        "nomor_pb_umku": "812001029058400050002",
        "nama": "NALLASTORE",
        "website": "nallastore.co.id",
        "sektor": "Sektor Perdagangan",
        "nama_perusahaan": "NALLA REKAYASA TEKNOLOGI",
        "tanggal_daftar": "2022-07-07",
        "nomor_tanda_daftar": "003099.01/DJAI.PSE/07/2022",
        "qr_code": "https://pse.kominfo.go.id/storage/images/qr_code/b0e9df124419116093734290db823bd6.png",
        "status_id": "TERDAFTAR",
        "sistem_elektronik_id": 5020
      }
    },
    {
      "type": "tdpseTerbit",
      "id": 7450,
      "attributes": {
        "nomor_pb_umku": "912010019298300010003",
        "nama": "MSIG.CO.ID",
        "website": "msig.co.id",
        "sektor": "Sektor Keuangan",
        "nama_perusahaan": "ASURANSI MSIG INDONESIA",
        "tanggal_daftar": "2022-07-20",
        "nomor_tanda_daftar": "003087.03/DJAI.PSE/07/2022",
        "qr_code": "https://pse.kominfo.go.id/storage/images/qr_code/ac99d5d6496ae6ab6190a1766488003d.png",
        "status_id": "TERDAFTAR",
        "sistem_elektronik_id": 7347
      }
    },
    {
      "type": "tdpseTerbit",
      "id": 7399,
      "attributes": {
        "nomor_pb_umku": "912010019298300010002",
        "nama": "MSIG MOBILE",
        "website": "-",
        "sektor": "Sektor Keuangan",
        "nama_perusahaan": "ASURANSI MSIG INDONESIA",
        "tanggal_daftar": "2022-07-20",
        "nomor_tanda_daftar": "003087.02/DJAI.PSE/07/2022",
        "qr_code": "https://pse.kominfo.go.id/storage/images/qr_code/2d5495865c8cd5c4408acab6d2741316.png",
        "status_id": "TERDAFTAR",
        "sistem_elektronik_id": 7291
      }
    },
    {
      "type": "tdpseTerbit",
      "id": 4525,
      "attributes": {
        "nomor_pb_umku": "912010019298300010001",
        "nama": "MSIGONLINE",
        "website": "msigonline.co.id",
        "sektor": "Sektor Keuangan",
        "nama_perusahaan": "ASURANSI MSIG INDONESIA",
        "tanggal_daftar": "2022-06-16",
        "nomor_tanda_daftar": "003087.01/DJAI.PSE/06/2022",
        "qr_code": "https://pse.kominfo.go.id/storage/images/qr_code/0cd734e7935b6710dc6485ac20996001.png",
        "status_id": "TERDAFTAR",
        "sistem_elektronik_id": 4509
      }
    },
    {
      "type": "tdpseTerbit",
      "id": 4702,
      "attributes": {
        "nomor_pb_umku": "812021323096500040001",
        "nama": "AGOES DJOENAEDI HARSOBISONO",
        "website": "genetek.co.id",
        "sektor": "Sektor Perdagangan",
        "nama_perusahaan": "EFFRENSINDO KENCANA",
        "tanggal_daftar": "2022-06-23",
        "nomor_tanda_daftar": "003086.01/DJAI.PSE/06/2022",
        "qr_code": "https://pse.kominfo.go.id/storage/images/qr_code/d69947a14f3464a49927d4fac490f87b.png",
        "status_id": "TERDAFTAR",
        "sistem_elektronik_id": 4657
      }
    },
    {
      "type": "tdpseTerbit",
      "id": 5154,
      "attributes": {
        "nomor_pb_umku": "080622002914200000001",
        "nama": "TELEPANDU",
        "website": "-",
        "sektor": "Sektor Kesehatan",
        "nama_perusahaan": "TELEMEDISIN PADJADJARAN TERPANDU",
        "tanggal_daftar": "2022-07-06",
        "nomor_tanda_daftar": "003076.01/DJAI.PSE/07/2022",
        "qr_code": "https://pse.kominfo.go.id/storage/images/qr_code/0e55b6b3877ceafeb3e07dec3f93c912.png",
        "status_id": "TERDAFTAR",
        "sistem_elektronik_id": 5017
      }
    },
    {
      "type": "tdpseTerbit",
      "id": 4367,
      "attributes": {
        "nomor_pb_umku": "130622008453200000001",
        "nama": "WINDOW OF INDONESIA",
        "website": "windowofindonesia.com",
        "sektor": "Sektor Perdagangan",
        "nama_perusahaan": "MUHAMMAD ALPIAN",
        "tanggal_daftar": "2022-06-13",
        "nomor_tanda_daftar": "003065.01/DJAI.PSE/06/2022",
        "qr_code": "https://pse.kominfo.go.id/storage/images/qr_code/3db6dbc7b9229a89ed70d7894cc4b78c.png",
        "status_id": "TERDAFTAR",
        "sistem_elektronik_id": 4353
      }
    },
    {
      "type": "tdpseTerbit",
      "id": 4581,
      "attributes": {
        "nomor_pb_umku": "912000981078600010001",
        "nama": "PURWANTOAM",
        "website": "WWW.PURWANTO.CO.ID",
        "sektor": "Sektor Keuangan",
        "nama_perusahaan": "PURWANTO ASSET MANAGEMENT",
        "tanggal_daftar": "2022-06-17",
        "nomor_tanda_daftar": "003065.01/DJAI.PSE/06/2022",
        "qr_code": "https://pse.kominfo.go.id/storage/images/qr_code/fd55fc8ed206f059fafe22f0cdd0fc95.png",
        "status_id": "TERDAFTAR",
        "sistem_elektronik_id": 4544
      }
    },
    {
      "type": "tdpseTerbit",
      "id": 4534,
      "attributes": {
        "nomor_pb_umku": "812001600284900040001",
        "nama": "ONLINE PAYMENT POINT (OPP)",
        "website": "ptuangkita.com",
        "sektor": "Sektor Teknologi Informasi dan Komunikasi",
        "nama_perusahaan": "UANGKITA",
        "tanggal_daftar": "2022-06-16",
        "nomor_tanda_daftar": "003060.01/DJAI.PSE/06/2022",
        "qr_code": "https://pse.kominfo.go.id/storage/images/qr_code/b4d6cb25dfa519239da763acb360f2f1.png",
        "status_id": "TERDAFTAR",
        "sistem_elektronik_id": 4515
      }
    },
    {
      "type": "tdpseTerbit",
      "id": 4749,
      "attributes": {
        "nomor_pb_umku": "912010894003500010003",
        "nama": "GRAVEL DULUR",
        "website": "gravel.co.id",
        "sektor": "Sektor Perdagangan, Sektor Teknologi Informasi dan Komunikasi",
        "nama_perusahaan": "GRAVEL TEKNOLOGI INDONESIA",
        "tanggal_daftar": "2022-06-24",
        "nomor_tanda_daftar": "003043.02/DJAI.PSE/06/2022",
        "qr_code": "https://pse.kominfo.go.id/storage/images/qr_code/4bc63aac80c951d694e94bfac61a8edf.png",
        "status_id": "TERDAFTAR",
        "sistem_elektronik_id": 4697
      }
    }
  ]
}