{
  "meta": {
    "page": {
      "currentPage": 491,
      "from": 4901,
      "lastPage": 978,
      "perPage": 10,
      "to": 4910,
      "total": 9774
    }
  },
  "data": [
    {
      "type": "tdpseTerbit",
      "id": 4424,
      "attributes": {
        "nomor_pb_umku": null,
        "nama": "AIN SHOP",
        "website": "-",
        "sektor": "Sektor Perdagangan",
        "nama_perusahaan": "CHUROTUL AINNIAH",
        "tanggal_daftar": "2022-05-09",
        "nomor_tanda_daftar": "002657.01/DJAI.PSE/05/2022",
        "qr_code": "https://pse.kominfo.go.id/storage/images/qr_code/25b229aff3e11bb6de97d5a8674a015f.png",
        "status_id": "TERDAFTAR",
        "sistem_elektronik_id": 4408
      }
    },
    {
      "type": "tdpseTerbit",
      "id": 4423,
      "attributes": {
        "nomor_pb_umku": null,
        "nama": "Enerba Teknologi",
        "website": "enerba-teknologi.co.id",
        "sektor": "Sektor Perdagangan",
        "nama_perusahaan": "ENERBA TEKNOLOGI",
        "tanggal_daftar": "2022-05-09",
        "nomor_tanda_daftar": "002656.01/DJAI.PSE/05/2022",
        "qr_code": "https://pse.kominfo.go.id/storage/images/qr_code/79c38a7b72d916a436090d89acba2248.png",
        "status_id": "TERDAFTAR",
        "sistem_elektronik_id": 4407
      }
    },
    {
      "type": "tdpseTerbit",
      "id": 4422,
      "attributes": {
        "nomor_pb_umku": null,
        "nama": "Durasafe",
        "website": "durasafe.co.id",
        "sektor": "Sektor Perdagangan",
        "nama_perusahaan": "DURASAFE WORKWEAR INDONESIA",
        "tanggal_daftar": "2022-05-09",
        "nomor_tanda_daftar": "002655.01/DJAI.PSE/05/2022",
        "qr_code": "https://pse.kominfo.go.id/storage/images/qr_code/42f3a79b18f6d7b363f9db338b19fc5f.png",
        "status_id": "TERDAFTAR",
        "sistem_elektronik_id": 4406
      }
    },
    {
      "type": "tdpseTerbit",
      "id": 4421,
      "attributes": {
        "nomor_pb_umku": null,
        "nama": "Zillingo",
        "website": "https://zilingotrade.id/id/",
        "sektor": "Sektor Perdagangan",
        "nama_perusahaan": "ZILLION TECH INDONESIA",
        "tanggal_daftar": "2022-05-07",
        "nomor_tanda_daftar": "002654.01/DJAI.PSE/05/2022",
        "qr_code": "https://pse.kominfo.go.id/storage/images/qr_code/f765c91895cfa5273bc176bbaadbd967.png",
        "status_id": "TERDAFTAR",
        "sistem_elektronik_id": 4405
      }
    },
    {
      "type": "tdpseTerbit",
      "id": 4420,
      "attributes": {
        "nomor_pb_umku": null,
        "nama": "CIPTA INDAH PERSADA",
        "website": "-",
        "sektor": "Sektor Perdagangan",
        "nama_perusahaan": "CIPTA INDAH PERSADA",
        "tanggal_daftar": "2022-05-07",
        "nomor_tanda_daftar": "002653.01/DJAI.PSE/05/2022",
        "qr_code": "https://pse.kominfo.go.id/storage/images/qr_code/c6c91823cf82dd7bfbcc7d150516feaf.png",
        "status_id": "TERDAFTAR",
        "sistem_elektronik_id": 4404
      }
    },
    {
      "type": "tdpseTerbit",
      "id": 4587,
      "attributes": {
        "nomor_pb_umku": null,
        "nama": "BANK BUMNU INDONESIA",
        "website": "www.bumnuindonesia.co.id",
        "sektor": "Sektor Energi dan Sumber Daya Mineral, Sektor Kesehatan, Sektor Keuangan, Sektor Pangan, Sektor Perdagangan, Sektor Pertahanan dan Keamanan, Sektor Teknologi Informasi dan Komunikasi, Sektor Transportasi",
        "nama_perusahaan": "BADAN USAHA MILIK NAHDLATUL ULAMA",
        "tanggal_daftar": "2022-05-07",
        "nomor_tanda_daftar": "002652.01/DJAI.PSE/05/2022",
        "qr_code": "https://pse.kominfo.go.id/storage/images/qr_code/d969d6b166b9e2e1e7f744d833ea4e16.png",
        "status_id": "TERDAFTAR",
        "sistem_elektronik_id": 4550
      }
    },
    {
      "type": "tdpseTerbit",
      "id": 4419,
      "attributes": {
        "nomor_pb_umku": null,
        "nama": "Solusi Bisnis Indonesia",
        "website": "izin99.com",
        "sektor": "Sektor Perdagangan",
        "nama_perusahaan": "CIPTA IZIN INDONESIA",
        "tanggal_daftar": "2022-05-07",
        "nomor_tanda_daftar": "002651.03/DJAI.PSE/05/2022",
        "qr_code": "https://pse.kominfo.go.id/storage/images/qr_code/4adfe4b24ec17a90f0c78334b3a5fe00.png",
        "status_id": "TERDAFTAR",
        "sistem_elektronik_id": 4403
      }
    },
    {
      "type": "tdpseTerbit",
      "id": 4418,
      "attributes": {
        "nomor_pb_umku": null,
        "nama": "Cipta Izin Indonesia",
        "website": "izin99.com",
        "sektor": "Sektor Perdagangan",
        "nama_perusahaan": "CIPTA IZIN INDONESIA",
        "tanggal_daftar": "2022-05-07",
        "nomor_tanda_daftar": "002651.02/DJAI.PSE/05/2022",
        "qr_code": "https://pse.kominfo.go.id/storage/images/qr_code/06e581fb23c1b20870a813b71902b3ac.png",
        "status_id": "TERDAFTAR",
        "sistem_elektronik_id": 4402
      }
    },
    {
      "type": "tdpseTerbit",
      "id": 4417,
      "attributes": {
        "nomor_pb_umku": null,
        "nama": "Izin99.com",
        "website": "izin99.com",
        "sektor": "Sektor Perdagangan",
        "nama_perusahaan": "CIPTA IZIN INDONESIA",
        "tanggal_daftar": "2022-05-06",
        "nomor_tanda_daftar": "002651.01/DJAI.PSE/05/2022",
        "qr_code": "https://pse.kominfo.go.id/storage/images/qr_code/c83cd060c58193dcc2478c9b6809b979.png",
        "status_id": "TERDAFTAR",
        "sistem_elektronik_id": 4401
      }
    },
    {
      "type": "tdpseTerbit",
      "id": 10603,
      "attributes": {
        "nomor_pb_umku": "300422000033100000003",
        "nama": "DUSUNLOWOK.WEB.ID",
        "website": "dusunlowok.web.id",
        "sektor": "Sektor Perdagangan, Sektor Teknologi Informasi dan Komunikasi",
        "nama_perusahaan": "LIONARDI URSAPUTRA PRATAMA",
        "tanggal_daftar": "2022-08-19",
        "nomor_tanda_daftar": "002650.03/DJAI.PSE/08/2022",
        "qr_code": "https://pse.kominfo.go.id/storage/images/qr_code/c1c2643a80e354751fa755d6fb4352e7.png",
        "status_id": "TERDAFTAR",
        "sistem_elektronik_id": 10441
      }
    }
  ]
}