{
  "meta": {
    "page": {
      "currentPage": 492,
      "from": 4911,
      "lastPage": 981,
      "perPage": 10,
      "to": 4920,
      "total": 9802
    }
  },
  "data": [
    {
      "type": "tdpseTerbit",
      "id": 4586,
      "attributes": {
        "nomor_pb_umku": null,
        "nama": "BITRAS",
        "website": "bitras.com",
        "sektor": "Sektor Perdagangan, Sektor Pertahanan dan Keamanan, Sektor Teknologi Informasi dan Komunikasi, Sektor Transportasi",
        "nama_perusahaan": "BITRAS",
        "tanggal_daftar": "2022-05-11",
        "nomor_tanda_daftar": "002673.01/DJAI.PSE/05/2022",
        "qr_code": "https://pse.kominfo.go.id/storage/images/qr_code/a1aef409e82321de1b606df07677e90b.png",
        "status_id": "TERDAFTAR",
        "sistem_elektronik_id": 4549
      }
    },
    {
      "type": "tdpseTerbit",
      "id": 4441,
      "attributes": {
        "nomor_pb_umku": null,
        "nama": "natindocargo.com",
        "website": "natindocargo.com",
        "sektor": "Sektor Perdagangan",
        "nama_perusahaan": "NATINDO SEJAHTERA INDONESIA",
        "tanggal_daftar": "2022-05-11",
        "nomor_tanda_daftar": "002672.01/DJAI.PSE/05/2022",
        "qr_code": "https://pse.kominfo.go.id/storage/images/qr_code/77e0dd44debdc28f4062f448d39f0ff3.png",
        "status_id": "TERDAFTAR",
        "sistem_elektronik_id": 4425
      }
    },
    {
      "type": "tdpseTerbit",
      "id": 4440,
      "attributes": {
        "nomor_pb_umku": null,
        "nama": "o'sweet singapore",
        "website": "https://osweetsingapore.com/",
        "sektor": "Sektor Perdagangan",
        "nama_perusahaan": "ARKATAMA CAKKAVATI INDONESIA",
        "tanggal_daftar": "2022-05-11",
        "nomor_tanda_daftar": "002671.01/DJAI.PSE/05/2022",
        "qr_code": "https://pse.kominfo.go.id/storage/images/qr_code/c8688e20520600ce3300a89e3c08c53b.png",
        "status_id": "TERDAFTAR",
        "sistem_elektronik_id": 4424
      }
    },
    {
      "type": "tdpseTerbit",
      "id": 4439,
      "attributes": {
        "nomor_pb_umku": null,
        "nama": "PanenID",
        "website": "www.panen.id",
        "sektor": "Sektor Perdagangan",
        "nama_perusahaan": "PANEN INDONESIA SEJAHTERA",
        "tanggal_daftar": "2022-05-11",
        "nomor_tanda_daftar": "002670.01/DJAI.PSE/05/2022",
        "qr_code": "https://pse.kominfo.go.id/storage/images/qr_code/d0dfd080b3275a6758ec5a2e32153982.png",
        "status_id": "TERDAFTAR",
        "sistem_elektronik_id": 4423
      }
    },
    {
      "type": "tdpseTerbit",
      "id": 4438,
      "attributes": {
        "nomor_pb_umku": null,
        "nama": "lippershop",
        "website": "lippershop.id",
        "sektor": "Sektor Perdagangan",
        "nama_perusahaan": "ANDARA BARATA SUKSES",
        "tanggal_daftar": "2022-05-11",
        "nomor_tanda_daftar": "002669.01/DJAI.PSE/05/2022",
        "qr_code": "https://pse.kominfo.go.id/storage/images/qr_code/c160101557a6d69fce8a384ccb2fa786.png",
        "status_id": "TERDAFTAR",
        "sistem_elektronik_id": 4422
      }
    },
    {
      "type": "tdpseTerbit",
      "id": 4437,
      "attributes": {
        "nomor_pb_umku": null,
        "nama": "Savesola",
        "website": "lippershop.id",
        "sektor": "Sektor Perdagangan",
        "nama_perusahaan": "KHARISMA SENTOSA RETAIL",
        "tanggal_daftar": "2022-05-11",
        "nomor_tanda_daftar": "002668.01/DJAI.PSE/05/2022",
        "qr_code": "https://pse.kominfo.go.id/storage/images/qr_code/f5cd18ad8aea6b9306f8c2de53fb20cc.png",
        "status_id": "TERDAFTAR",
        "sistem_elektronik_id": 4421
      }
    },
    {
      "type": "tdpseTerbit",
      "id": 4436,
      "attributes": {
        "nomor_pb_umku": null,
        "nama": "Reflow Indonesia",
        "website": "reflowindonesia.id",
        "sektor": "Sektor Teknologi Informasi dan Komunikasi",
        "nama_perusahaan": "BERJAYA KREASI INDONESIA",
        "tanggal_daftar": "2022-05-11",
        "nomor_tanda_daftar": "002667.01/DJAI.PSE/05/2022",
        "qr_code": "https://pse.kominfo.go.id/storage/images/qr_code/5ff2186e0bb64db3d982fc1c8482fb18.png",
        "status_id": "TERDAFTAR",
        "sistem_elektronik_id": 4420
      }
    },
    {
      "type": "tdpseTerbit",
      "id": 4435,
      "attributes": {
        "nomor_pb_umku": null,
        "nama": "Marketplace & Kemitraan Usaha",
        "website": "www.marketani.com",
        "sektor": "Sektor Keuangan, Sektor Pangan, Sektor Perdagangan",
        "nama_perusahaan": "PASAR TANI INDONESIA",
        "tanggal_daftar": "2022-05-11",
        "nomor_tanda_daftar": "002666.02/DJAI.PSE/05/2022",
        "qr_code": "https://pse.kominfo.go.id/storage/images/qr_code/46db7ae4e030e71e755f83e347a8e2cd.png",
        "status_id": "TERDAFTAR",
        "sistem_elektronik_id": 4419
      }
    },
    {
      "type": "tdpseTerbit",
      "id": 4434,
      "attributes": {
        "nomor_pb_umku": null,
        "nama": "E-commerce & Kemitraan Market Tani",
        "website": "marketani.com",
        "sektor": "Sektor Perdagangan",
        "nama_perusahaan": "PASAR TANI INDONESIA",
        "tanggal_daftar": "2022-05-11",
        "nomor_tanda_daftar": "002666.01/DJAI.PSE/05/2022",
        "qr_code": "https://pse.kominfo.go.id/storage/images/qr_code/d72c5cc51a6d3dfc9a5b0ac6498c1ea5.png",
        "status_id": "TERDAFTAR",
        "sistem_elektronik_id": 4418
      }
    },
    {
      "type": "tdpseTerbit",
      "id": 4786,
      "attributes": {
        "nomor_pb_umku": "912020714208400000002",
        "nama": "E2PAY GLOBAL UTAMA",
        "website": "e2pay.co.id",
        "sektor": "Sektor Keuangan, Sektor Teknologi Informasi dan Komunikasi",
        "nama_perusahaan": "E2PAY GLOBAL UTAMA",
        "tanggal_daftar": "2022-06-27",
        "nomor_tanda_daftar": "002665.02/DJAI.PSE/06/2022",
        "qr_code": "https://pse.kominfo.go.id/storage/images/qr_code/6d8c4763ba79e6f48773f4242f5fb8ac.png",
        "status_id": "TERDAFTAR",
        "sistem_elektronik_id": 4729
      }
    }
  ]
}