{
  "meta": {
    "page": {
      "currentPage": 499,
      "from": 4981,
      "lastPage": 1005,
      "perPage": 10,
      "to": 4990,
      "total": 10048
    }
  },
  "data": [
    {
      "type": "tdpseTerbit",
      "id": 10515,
      "attributes": {
        "nomor_pb_umku": "912030519120100010004",
        "nama": "TRIBUNTRAVEL.COM",
        "website": "tribuntravel.com",
        "sektor": "Sektor Teknologi Informasi dan Komunikasi",
        "nama_perusahaan": "TRIBUN BERITA ONLINE",
        "tanggal_daftar": "2022-08-18",
        "nomor_tanda_daftar": "002867.05/DJAI.PSE/08/2022",
        "qr_code": "https://pse.kominfo.go.id/storage/images/qr_code/b749791d8fce182561c7a107a340c914.png",
        "status_id": "TERDAFTAR",
        "sistem_elektronik_id": 10374
      }
    },
    {
      "type": "tdpseTerbit",
      "id": 10513,
      "attributes": {
        "nomor_pb_umku": "912030519120100010003",
        "nama": "TRIBUNSTYLE.COM",
        "website": "tribunstyle.com",
        "sektor": "Sektor Teknologi Informasi dan Komunikasi",
        "nama_perusahaan": "TRIBUN BERITA ONLINE",
        "tanggal_daftar": "2022-08-18",
        "nomor_tanda_daftar": "002867.04/DJAI.PSE/08/2022",
        "qr_code": "https://pse.kominfo.go.id/storage/images/qr_code/5d9a7bd3d6914522fbd2c9f75ccd1bb4.png",
        "status_id": "TERDAFTAR",
        "sistem_elektronik_id": 10372
      }
    },
    {
      "type": "tdpseTerbit",
      "id": 10501,
      "attributes": {
        "nomor_pb_umku": "912030519120100010002",
        "nama": "TRIBUNNEWSWIKI.COM",
        "website": "tribunnewswiki.com",
        "sektor": "Sektor Teknologi Informasi dan Komunikasi",
        "nama_perusahaan": "TRIBUN BERITA ONLINE",
        "tanggal_daftar": "2022-08-18",
        "nomor_tanda_daftar": "002867.03/DJAI.PSE/08/2022",
        "qr_code": "https://pse.kominfo.go.id/storage/images/qr_code/7178ae790b904ef4b190b67e265878b1.png",
        "status_id": "TERDAFTAR",
        "sistem_elektronik_id": 10352
      }
    },
    {
      "type": "tdpseTerbit",
      "id": 4579,
      "attributes": {
        "nomor_pb_umku": "912030519120100010001",
        "nama": "TRIBUN DIGITAL ONLINE",
        "website": "Tribunnews.com",
        "sektor": "Sektor Perdagangan, Sektor Teknologi Informasi dan Komunikasi",
        "nama_perusahaan": "TRIBUN BERITA ONLINE",
        "tanggal_daftar": "2022-06-17",
        "nomor_tanda_daftar": "002867.02/DJAI.PSE/06/2022",
        "qr_code": "https://pse.kominfo.go.id/storage/images/qr_code/f4f38cd08094bd8c87128cf95041b0b9.png",
        "status_id": "TERDAFTAR",
        "sistem_elektronik_id": 4541
      }
    },
    {
      "type": "tdpseTerbit",
      "id": 4228,
      "attributes": {
        "nomor_pb_umku": "912040480017400100001",
        "nama": "USP MOBILE",
        "website": "induk.uspminatani.id",
        "sektor": "Sektor Keuangan, Sektor Teknologi Informasi dan Komunikasi",
        "nama_perusahaan": "KOP UNIT DESA MINATANI",
        "tanggal_daftar": "2022-06-04",
        "nomor_tanda_daftar": "002862.01/DJAI.PSE/06/2022",
        "qr_code": "https://pse.kominfo.go.id/storage/images/qr_code/f059f1b8776ec79baed9954cfb7f9e8a.png",
        "status_id": "TERDAFTAR",
        "sistem_elektronik_id": 4225
      }
    },
    {
      "type": "tdpseTerbit",
      "id": 4657,
      "attributes": {
        "nomor_pb_umku": "912020693005500010002",
        "nama": "360KREDI",
        "website": "360kredi.id",
        "sektor": "Sektor Keuangan",
        "nama_perusahaan": "INOVASI TERDEPAN NUSANTARA",
        "tanggal_daftar": "2022-06-22",
        "nomor_tanda_daftar": "002862.01/DJAI.PSE/06/2022",
        "qr_code": "https://pse.kominfo.go.id/storage/images/qr_code/893fd3ea89482687c94dab85aecb6cbd.png",
        "status_id": "TERDAFTAR",
        "sistem_elektronik_id": 4260
      }
    },
    {
      "type": "tdpseTerbit",
      "id": 4991,
      "attributes": {
        "nomor_pb_umku": "912000117206600140012",
        "nama": "SNAP CAREERS",
        "website": "snap.careers",
        "sektor": "Sektor Teknologi Informasi dan Komunikasi",
        "nama_perusahaan": "SNAP INNOVATIONS INDONESIA",
        "tanggal_daftar": "2022-07-01",
        "nomor_tanda_daftar": "002861.01/DJAI.PSE/07/2022",
        "qr_code": "https://pse.kominfo.go.id/storage/images/qr_code/0521cfad60bdf5a57b75a38dc5728007.png",
        "status_id": "TERDAFTAR",
        "sistem_elektronik_id": 4859
      }
    },
    {
      "type": "tdpseTerbit",
      "id": 4237,
      "attributes": {
        "nomor_pb_umku": "912001321370600000002",
        "nama": "WEBSITE (KLEANER INDONESIA)",
        "website": "kleaner.co.id",
        "sektor": "Sektor Perdagangan",
        "nama_perusahaan": "INTERNUSA TERUS JAYA",
        "tanggal_daftar": "2022-06-06",
        "nomor_tanda_daftar": "002858.03/DJAI.PSE/06/2022",
        "qr_code": "https://pse.kominfo.go.id/storage/images/qr_code/6ac10d4b25a4b849962a7f0623dba5bc.png",
        "status_id": "TERDAFTAR",
        "sistem_elektronik_id": 4233
      }
    },
    {
      "type": "tdpseTerbit",
      "id": 4338,
      "attributes": {
        "nomor_pb_umku": "912030886185300020002",
        "nama": "LAPAKCHINA.COM",
        "website": "Lapakchina.com",
        "sektor": "Sektor Perdagangan",
        "nama_perusahaan": "OCOMMERCE CAPITAL INDONESIA",
        "tanggal_daftar": "2022-06-13",
        "nomor_tanda_daftar": "002857.02/DJAI.PSE/06/2022",
        "qr_code": "https://pse.kominfo.go.id/storage/images/qr_code/e205c2955299a5a18560fc4c738092dc.png",
        "status_id": "TERDAFTAR",
        "sistem_elektronik_id": 4323
      }
    },
    {
      "type": "tdpseTerbit",
      "id": 4276,
      "attributes": {
        "nomor_pb_umku": "912030886185300020001",
        "nama": "OCISTOK.COM",
        "website": "Ocistok.com",
        "sektor": "Sektor Perdagangan",
        "nama_perusahaan": "OCOMMERCE CAPITAL INDONESIA",
        "tanggal_daftar": "2022-06-08",
        "nomor_tanda_daftar": "002857.01/DJAI.PSE/06/2022",
        "qr_code": "https://pse.kominfo.go.id/storage/images/qr_code/13e9dde1eb2be54cea295c886cbc5579.png",
        "status_id": "TERDAFTAR",
        "sistem_elektronik_id": 4270
      }
    }
  ]
}