{
  "meta": {
    "page": {
      "currentPage": 500,
      "from": 4991,
      "lastPage": 1008,
      "perPage": 10,
      "to": 5000,
      "total": 10073
    }
  },
  "data": [
    {
      "type": "tdpseTerbit",
      "id": 4327,
      "attributes": {
        "nomor_pb_umku": "022010822221600000004",
        "nama": "INMOBI PULSE",
        "website": "pulse.inmobi.com",
        "sektor": "Sektor Perdagangan",
        "nama_perusahaan": "INMOBI INDONESIA TECHNOLOGIES",
        "tanggal_daftar": "2022-06-10",
        "nomor_tanda_daftar": "002868.02/DJAI.PSE/06/2022",
        "qr_code": "https://pse.kominfo.go.id/storage/images/qr_code/6a68395488e4757107ac6033c98d2a4c.png",
        "status_id": "TERDAFTAR",
        "sistem_elektronik_id": 4312
      }
    },
    {
      "type": "tdpseTerbit",
      "id": 4325,
      "attributes": {
        "nomor_pb_umku": "022010822221600000003",
        "nama": "INMOBI EXCHANGE",
        "website": "exchange.inmobi.com",
        "sektor": "Sektor Perdagangan",
        "nama_perusahaan": "INMOBI INDONESIA TECHNOLOGIES",
        "tanggal_daftar": "2022-06-10",
        "nomor_tanda_daftar": "002868.01/DJAI.PSE/06/2022",
        "qr_code": "https://pse.kominfo.go.id/storage/images/qr_code/de5cfa510754773a0aaf0fec87f2e99e.png",
        "status_id": "TERDAFTAR",
        "sistem_elektronik_id": 4276
      }
    },
    {
      "type": "tdpseTerbit",
      "id": 10533,
      "attributes": {
        "nomor_pb_umku": "912030519120100010015",
        "nama": "TRIBUNSHOPPING.COM",
        "website": "tribunshopping.com",
        "sektor": "Sektor Teknologi Informasi dan Komunikasi",
        "nama_perusahaan": "TRIBUN BERITA ONLINE",
        "tanggal_daftar": "2022-08-18",
        "nomor_tanda_daftar": "002867.16/DJAI.PSE/08/2022",
        "qr_code": "https://pse.kominfo.go.id/storage/images/qr_code/371e7d7193397bf25f49fd0f4ab00f6b.png",
        "status_id": "TERDAFTAR",
        "sistem_elektronik_id": 10392
      }
    },
    {
      "type": "tdpseTerbit",
      "id": 10532,
      "attributes": {
        "nomor_pb_umku": "912030519120100010014",
        "nama": "TRIBUNBELANJA.COM",
        "website": "tribunbelanja.com",
        "sektor": "Sektor Teknologi Informasi dan Komunikasi",
        "nama_perusahaan": "TRIBUN BERITA ONLINE",
        "tanggal_daftar": "2022-08-18",
        "nomor_tanda_daftar": "002867.15/DJAI.PSE/08/2022",
        "qr_code": "https://pse.kominfo.go.id/storage/images/qr_code/432ae4e5769af2bc3c2ccb006b5c697c.png",
        "status_id": "TERDAFTAR",
        "sistem_elektronik_id": 10391
      }
    },
    {
      "type": "tdpseTerbit",
      "id": 10529,
      "attributes": {
        "nomor_pb_umku": "912030519120100010013",
        "nama": "TRIBUNHEALTH.COM",
        "website": "tribunhealth.com",
        "sektor": "Sektor Teknologi Informasi dan Komunikasi",
        "nama_perusahaan": "TRIBUN BERITA ONLINE",
        "tanggal_daftar": "2022-08-18",
        "nomor_tanda_daftar": "002867.14/DJAI.PSE/08/2022",
        "qr_code": "https://pse.kominfo.go.id/storage/images/qr_code/efbb57e83fb22fd9a2f36af65af55c30.png",
        "status_id": "TERDAFTAR",
        "sistem_elektronik_id": 10388
      }
    },
    {
      "type": "tdpseTerbit",
      "id": 10528,
      "attributes": {
        "nomor_pb_umku": "912030519120100010012",
        "nama": "TRIBUNSOLO.COM",
        "website": "tribunsolo.com",
        "sektor": "Sektor Teknologi Informasi dan Komunikasi",
        "nama_perusahaan": "TRIBUN BERITA ONLINE",
        "tanggal_daftar": "2022-08-18",
        "nomor_tanda_daftar": "002867.13/DJAI.PSE/08/2022",
        "qr_code": "https://pse.kominfo.go.id/storage/images/qr_code/1125504a1e3bb1b26fd98bd8fadd85e8.png",
        "status_id": "TERDAFTAR",
        "sistem_elektronik_id": 10387
      }
    },
    {
      "type": "tdpseTerbit",
      "id": 10527,
      "attributes": {
        "nomor_pb_umku": "912030519120100010011",
        "nama": "TRIBUNNEWSBOGOR.COM",
        "website": "tribunnewsbogor.com",
        "sektor": "Sektor Teknologi Informasi dan Komunikasi",
        "nama_perusahaan": "TRIBUN BERITA ONLINE",
        "tanggal_daftar": "2022-08-18",
        "nomor_tanda_daftar": "002867.12/DJAI.PSE/08/2022",
        "qr_code": "https://pse.kominfo.go.id/storage/images/qr_code/4ea4ed03f035f94930bedb0d97f7b39f.png",
        "status_id": "TERDAFTAR",
        "sistem_elektronik_id": 10386
      }
    },
    {
      "type": "tdpseTerbit",
      "id": 10524,
      "attributes": {
        "nomor_pb_umku": "912030519120100010010",
        "nama": "WARTAKOTALIVE.COM",
        "website": "wartakotalive.com",
        "sektor": "Sektor Teknologi Informasi dan Komunikasi",
        "nama_perusahaan": "TRIBUN BERITA ONLINE",
        "tanggal_daftar": "2022-08-18",
        "nomor_tanda_daftar": "002867.11/DJAI.PSE/08/2022",
        "qr_code": "https://pse.kominfo.go.id/storage/images/qr_code/7fe706a5f7fa80553415b752eb2eeaa0.png",
        "status_id": "TERDAFTAR",
        "sistem_elektronik_id": 10384
      }
    },
    {
      "type": "tdpseTerbit",
      "id": 10523,
      "attributes": {
        "nomor_pb_umku": "912030519120100010009",
        "nama": "TRIBUNJAKARTA.COM",
        "website": "tribunjakarta.com",
        "sektor": "Sektor Teknologi Informasi dan Komunikasi",
        "nama_perusahaan": "TRIBUN BERITA ONLINE",
        "tanggal_daftar": "2022-08-18",
        "nomor_tanda_daftar": "002867.10/DJAI.PSE/08/2022",
        "qr_code": "https://pse.kominfo.go.id/storage/images/qr_code/11dab50145cfbf3b7d495ff9935a38c8.png",
        "status_id": "TERDAFTAR",
        "sistem_elektronik_id": 10382
      }
    },
    {
      "type": "tdpseTerbit",
      "id": 10522,
      "attributes": {
        "nomor_pb_umku": "912030519120100010008",
        "nama": "TRIBUNJUALBELI.COM",
        "website": "tribunjualbeli.com",
        "sektor": "Sektor Teknologi Informasi dan Komunikasi",
        "nama_perusahaan": "TRIBUN BERITA ONLINE",
        "tanggal_daftar": "2022-08-18",
        "nomor_tanda_daftar": "002867.09/DJAI.PSE/08/2022",
        "qr_code": "https://pse.kominfo.go.id/storage/images/qr_code/f377d56776ce9b0a02ea686b42acca10.png",
        "status_id": "TERDAFTAR",
        "sistem_elektronik_id": 10381
      }
    }
  ]
}