{
  "meta": {
    "page": {
      "currentPage": 6,
      "from": 51,
      "lastPage": 1097,
      "perPage": 10,
      "to": 60,
      "total": 10962
    }
  },
  "data": [
    {
      "type": "tdpseTerbit",
      "id": 12164,
      "attributes": {
        "nomor_pb_umku": "912010788006300010001",
        "nama": "SUPERMARKET REKSADANA",
        "website": "-",
        "sektor": "Sektor Keuangan",
        "nama_perusahaan": "SUPERMARKET REKSADANA INDONESIA",
        "tanggal_daftar": "2022-11-08",
        "nomor_tanda_daftar": "008376.01/DJAI.PSE/11/2022",
        "qr_code": "https://pse.kominfo.go.id/storage/images/qr_code/e7b76ec8ac758b473d21ce5d0e763ec1.png",
        "status_id": "TERDAFTAR",
        "sistem_elektronik_id": 11958
      }
    },
    {
      "type": "tdpseTerbit",
      "id": 12147,
      "attributes": {
        "nomor_pb_umku": "127400024019700030001",
        "nama": "TOP KARIR MULTINUSA",
        "website": "-",
        "sektor": "Sektor Teknologi Informasi dan Komunikasi",
        "nama_perusahaan": "TOP KARIR MULTINUSA",
        "tanggal_daftar": "2022-11-07",
        "nomor_tanda_daftar": "008375.01/DJAI.PSE/11/2022",
        "qr_code": "https://pse.kominfo.go.id/storage/images/qr_code/4b1097edafea9af39f457e2a73d8bd51.png",
        "status_id": "TERDAFTAR",
        "sistem_elektronik_id": 11942
      }
    },
    {
      "type": "tdpseTerbit",
      "id": 12145,
      "attributes": {
        "nomor_pb_umku": "161221000396800010001",
        "nama": "PT. CAHAYA SUKSES INSANI",
        "website": "Berkah150.com",
        "sektor": "Sektor Perdagangan, Sektor Keuangan, Sektor Teknologi Informasi dan Komunikasi",
        "nama_perusahaan": "CAHAYA SUKSES INSANI",
        "tanggal_daftar": "2022-11-07",
        "nomor_tanda_daftar": "008372.01/DJAI.PSE/11/2022",
        "qr_code": "https://pse.kominfo.go.id/storage/images/qr_code/0d22fe6e88156a02df72a9d1454b75c5.png",
        "status_id": "TERDAFTAR",
        "sistem_elektronik_id": 11940
      }
    },
    {
      "type": "tdpseTerbit",
      "id": 12154,
      "attributes": {
        "nomor_pb_umku": "171022008001600070001",
        "nama": "RODADJATI.COM",
        "website": "rodadjati.com",
        "sektor": "Sektor Transportasi",
        "nama_perusahaan": "RODA DJATI TRANS LOGISTIK",
        "tanggal_daftar": "2022-11-07",
        "nomor_tanda_daftar": "008371.01/DJAI.PSE/11/2022",
        "qr_code": "https://pse.kominfo.go.id/storage/images/qr_code/2a5515a3a649dd5c9c0daa0a88e6e46a.png",
        "status_id": "TERDAFTAR",
        "sistem_elektronik_id": 11949
      }
    },
    {
      "type": "tdpseTerbit",
      "id": 12138,
      "attributes": {
        "nomor_pb_umku": "031122008180300030001",
        "nama": "KABARNUSA24",
        "website": "-",
        "sektor": "Sektor Teknologi Informasi dan Komunikasi",
        "nama_perusahaan": "INTERNUSA MEDIA GROUP",
        "tanggal_daftar": "2022-11-06",
        "nomor_tanda_daftar": "008367.01/DJAI.PSE/11/2022",
        "qr_code": "https://pse.kominfo.go.id/storage/images/qr_code/61f44f99c0718ad0fe51dae9d2fd6dc6.png",
        "status_id": "TERDAFTAR",
        "sistem_elektronik_id": 11933
      }
    },
    {
      "type": "tdpseTerbit",
      "id": 12133,
      "attributes": {
        "nomor_pb_umku": "030822004473100000001",
        "nama": "DUNGOPO",
        "website": "dungopo.id",
        "sektor": "Sektor Perdagangan",
        "nama_perusahaan": "RUANG LINTAS SIBER",
        "tanggal_daftar": "2022-11-04",
        "nomor_tanda_daftar": "008363.01/DJAI.PSE/11/2022",
        "qr_code": "https://pse.kominfo.go.id/storage/images/qr_code/434f415b3373605db997fdabf33f7212.png",
        "status_id": "TERDAFTAR",
        "sistem_elektronik_id": 11928
      }
    },
    {
      "type": "tdpseTerbit",
      "id": 12131,
      "attributes": {
        "nomor_pb_umku": "021122001642500010001",
        "nama": "SMARTOSC DIGITAL INDONESIA",
        "website": "smartosc.co.id",
        "sektor": "Sektor Perdagangan, Sektor Teknologi Informasi dan Komunikasi",
        "nama_perusahaan": "SMARTOSC DIGITAL INDONESIA",
        "tanggal_daftar": "2022-11-04",
        "nomor_tanda_daftar": "008362.01/DJAI.PSE/11/2022",
        "qr_code": "https://pse.kominfo.go.id/storage/images/qr_code/55aab5195f0a676ad7e47e3d0f1a523e.png",
        "status_id": "TERDAFTAR",
        "sistem_elektronik_id": 11926
      }
    },
    {
      "type": "tdpseTerbit",
      "id": 12182,
      "attributes": {
        "nomor_pb_umku": "026000092146700120001",
        "nama": "MBS INDONESIA",
        "website": "mbs-indonesia.id",
        "sektor": "Sektor Perdagangan",
        "nama_perusahaan": "MULIA BERKAT SENTOSA",
        "tanggal_daftar": "2022-11-09",
        "nomor_tanda_daftar": "008357.01/DJAI.PSE/11/2022",
        "qr_code": "https://pse.kominfo.go.id/storage/images/qr_code/4e5e1fa6aeb10ce8f135a4aa4d6043b3.png",
        "status_id": "TERDAFTAR",
        "sistem_elektronik_id": 11974
      }
    },
    {
      "type": "tdpseTerbit",
      "id": 12127,
      "attributes": {
        "nomor_pb_umku": "200922007445300120001",
        "nama": "ONEASIA.ID",
        "website": "oneasia.id",
        "sektor": "Sektor Teknologi Informasi dan Komunikasi",
        "nama_perusahaan": "ONE ASIA TEKNOLOGI",
        "tanggal_daftar": "2022-11-04",
        "nomor_tanda_daftar": "008355.01/DJAI.PSE/11/2022",
        "qr_code": "https://pse.kominfo.go.id/storage/images/qr_code/dd1de5b3a1e4ad374174a7cb15cfde73.png",
        "status_id": "TERDAFTAR",
        "sistem_elektronik_id": 11921
      }
    },
    {
      "type": "tdpseTerbit",
      "id": 12124,
      "attributes": {
        "nomor_pb_umku": "240921003077300010001",
        "nama": "EEZEE IN-HOUSE SYSTEM.",
        "website": "eezee.co",
        "sektor": "Sektor Perdagangan, Sektor Teknologi Informasi dan Komunikasi",
        "nama_perusahaan": "EEZEE TECHNOLOGIES INDONESIA",
        "tanggal_daftar": "2022-11-04",
        "nomor_tanda_daftar": "008353.01/DJAI.PSE/11/2022",
        "qr_code": "https://pse.kominfo.go.id/storage/images/qr_code/15de0075969b7dc6930f2c64355cbf8c.png",
        "status_id": "TERDAFTAR",
        "sistem_elektronik_id": 11918
      }
    }
  ]
}