{
  "meta": {
    "page": {
      "currentPage": 501,
      "from": 5001,
      "lastPage": 991,
      "perPage": 10,
      "to": 5010,
      "total": 9907
    }
  },
  "data": [
    {
      "type": "tdpseTerbit",
      "id": 4449,
      "attributes": {
        "nomor_pb_umku": null,
        "nama": "Koko De Parfum",
        "website": "kokodeparfum.com",
        "sektor": "Sektor Perdagangan",
        "nama_perusahaan": "PARFUM INDONESIA RAYA",
        "tanggal_daftar": "2022-05-12",
        "nomor_tanda_daftar": "002677.01/DJAI.PSE/05/2022",
        "qr_code": "https://pse.kominfo.go.id/storage/images/qr_code/d9af19122c3486b34140f82f2b2db32b.png",
        "status_id": "TERDAFTAR",
        "sistem_elektronik_id": 4433
      }
    },
    {
      "type": "tdpseTerbit",
      "id": 4448,
      "attributes": {
        "nomor_pb_umku": null,
        "nama": "Fundgrow",
        "website": "fundgrow.id",
        "sektor": "Sektor Keuangan, Sektor Teknologi Informasi dan Komunikasi",
        "nama_perusahaan": "ARTHA BANGSA SUKSES",
        "tanggal_daftar": "2022-05-12",
        "nomor_tanda_daftar": "002676.01/DJAI.PSE/05/2022",
        "qr_code": "https://pse.kominfo.go.id/storage/images/qr_code/ccb856aa6a4940ed4513ecde83a0f9ce.png",
        "status_id": "TERDAFTAR",
        "sistem_elektronik_id": 4432
      }
    },
    {
      "type": "tdpseTerbit",
      "id": 4447,
      "attributes": {
        "nomor_pb_umku": null,
        "nama": "Pembuatan website Company Profile,websistem dll",
        "website": "bravosolutionindonesia.com",
        "sektor": "Sektor Teknologi Informasi dan Komunikasi",
        "nama_perusahaan": "BRAVO SOLUTION INDONESIA",
        "tanggal_daftar": "2022-05-12",
        "nomor_tanda_daftar": "002675.04/DJAI.PSE/05/2022",
        "qr_code": "https://pse.kominfo.go.id/storage/images/qr_code/22e3b4197b4fc371086d265063d8922d.png",
        "status_id": "TERDAFTAR",
        "sistem_elektronik_id": 4431
      }
    },
    {
      "type": "tdpseTerbit",
      "id": 4446,
      "attributes": {
        "nomor_pb_umku": null,
        "nama": "Websistem",
        "website": "bravosolutionindonesia.com",
        "sektor": "Sektor Teknologi Informasi dan Komunikasi",
        "nama_perusahaan": "BRAVO SOLUTION INDONESIA",
        "tanggal_daftar": "2022-05-12",
        "nomor_tanda_daftar": "002675.03/DJAI.PSE/05/2022",
        "qr_code": "https://pse.kominfo.go.id/storage/images/qr_code/abbd09c5bd67db0244f1d827519db572.png",
        "status_id": "TERDAFTAR",
        "sistem_elektronik_id": 4430
      }
    },
    {
      "type": "tdpseTerbit",
      "id": 4445,
      "attributes": {
        "nomor_pb_umku": null,
        "nama": "SIMPEL MAS",
        "website": "-",
        "sektor": "Sektor Teknologi Informasi dan Komunikasi",
        "nama_perusahaan": "BRAVO SOLUTION INDONESIA",
        "tanggal_daftar": "2022-05-12",
        "nomor_tanda_daftar": "002675.02/DJAI.PSE/05/2022",
        "qr_code": "https://pse.kominfo.go.id/storage/images/qr_code/5f2eab8202a5aa38a4686da88f2105eb.png",
        "status_id": "TERDAFTAR",
        "sistem_elektronik_id": 4429
      }
    },
    {
      "type": "tdpseTerbit",
      "id": 4444,
      "attributes": {
        "nomor_pb_umku": null,
        "nama": "Website dan websistem",
        "website": "bravosolutionindonesia.com",
        "sektor": "Sektor Teknologi Informasi dan Komunikasi",
        "nama_perusahaan": "BRAVO SOLUTION INDONESIA",
        "tanggal_daftar": "2022-05-12",
        "nomor_tanda_daftar": "002675.01/DJAI.PSE/05/2022",
        "qr_code": "https://pse.kominfo.go.id/storage/images/qr_code/ba5e7cbfbf3309d53b02c762a525df13.png",
        "status_id": "TERDAFTAR",
        "sistem_elektronik_id": 4428
      }
    },
    {
      "type": "tdpseTerbit",
      "id": 4442,
      "attributes": {
        "nomor_pb_umku": null,
        "nama": "RANUP SIGAPU",
        "website": "-",
        "sektor": "Sektor Perdagangan",
        "nama_perusahaan": "RANUP SIGAPU",
        "tanggal_daftar": "2022-05-12",
        "nomor_tanda_daftar": "002674.01/DJAI.PSE/05/2022",
        "qr_code": "https://pse.kominfo.go.id/storage/images/qr_code/104422e2ad5ebfa7208cc61342957890.png",
        "status_id": "TERDAFTAR",
        "sistem_elektronik_id": 4426
      }
    },
    {
      "type": "tdpseTerbit",
      "id": 4586,
      "attributes": {
        "nomor_pb_umku": null,
        "nama": "BITRAS",
        "website": "bitras.com",
        "sektor": "Sektor Perdagangan, Sektor Pertahanan dan Keamanan, Sektor Teknologi Informasi dan Komunikasi, Sektor Transportasi",
        "nama_perusahaan": "BITRAS",
        "tanggal_daftar": "2022-05-11",
        "nomor_tanda_daftar": "002673.01/DJAI.PSE/05/2022",
        "qr_code": "https://pse.kominfo.go.id/storage/images/qr_code/a1aef409e82321de1b606df07677e90b.png",
        "status_id": "TERDAFTAR",
        "sistem_elektronik_id": 4549
      }
    },
    {
      "type": "tdpseTerbit",
      "id": 4441,
      "attributes": {
        "nomor_pb_umku": null,
        "nama": "natindocargo.com",
        "website": "natindocargo.com",
        "sektor": "Sektor Perdagangan",
        "nama_perusahaan": "NATINDO SEJAHTERA INDONESIA",
        "tanggal_daftar": "2022-05-11",
        "nomor_tanda_daftar": "002672.01/DJAI.PSE/05/2022",
        "qr_code": "https://pse.kominfo.go.id/storage/images/qr_code/77e0dd44debdc28f4062f448d39f0ff3.png",
        "status_id": "TERDAFTAR",
        "sistem_elektronik_id": 4425
      }
    },
    {
      "type": "tdpseTerbit",
      "id": 4440,
      "attributes": {
        "nomor_pb_umku": null,
        "nama": "o'sweet singapore",
        "website": "https://osweetsingapore.com/",
        "sektor": "Sektor Perdagangan",
        "nama_perusahaan": "ARKATAMA CAKKAVATI INDONESIA",
        "tanggal_daftar": "2022-05-11",
        "nomor_tanda_daftar": "002671.01/DJAI.PSE/05/2022",
        "qr_code": "https://pse.kominfo.go.id/storage/images/qr_code/c8688e20520600ce3300a89e3c08c53b.png",
        "status_id": "TERDAFTAR",
        "sistem_elektronik_id": 4424
      }
    }
  ]
}