{
  "meta": {
    "page": {
      "currentPage": 503,
      "from": 5021,
      "lastPage": 991,
      "perPage": 10,
      "to": 5030,
      "total": 9907
    }
  },
  "data": [
    {
      "type": "tdpseTerbit",
      "id": 4432,
      "attributes": {
        "nomor_pb_umku": null,
        "nama": "GLOBAL AIDEN TEKNOLOGI",
        "website": "www.aidenasia.com",
        "sektor": "Sektor Kesehatan, Sektor Teknologi Informasi dan Komunikasi",
        "nama_perusahaan": "GLOBAL AIDEN TEKNOLOGI",
        "tanggal_daftar": "2022-05-10",
        "nomor_tanda_daftar": "002664.01/DJAI.PSE/05/2022",
        "qr_code": "https://pse.kominfo.go.id/storage/images/qr_code/daddbb112c11c2c0bd53bd133f00aede.png",
        "status_id": "TERDAFTAR",
        "sistem_elektronik_id": 4416
      }
    },
    {
      "type": "tdpseTerbit",
      "id": 4431,
      "attributes": {
        "nomor_pb_umku": null,
        "nama": "www.jet.co.id",
        "website": "www.jet.co.id",
        "sektor": "Sektor Transportasi",
        "nama_perusahaan": "GLOBAL JET EXPRESS",
        "tanggal_daftar": "2022-05-10",
        "nomor_tanda_daftar": "002663.02/DJAI.PSE/05/2022",
        "qr_code": "https://pse.kominfo.go.id/storage/images/qr_code/42b05d0352447bc082e126e33ea3df26.png",
        "status_id": "TERDAFTAR",
        "sistem_elektronik_id": 4415
      }
    },
    {
      "type": "tdpseTerbit",
      "id": 4430,
      "attributes": {
        "nomor_pb_umku": null,
        "nama": "J&T Express",
        "website": "jet.co.id",
        "sektor": "Sektor Transportasi",
        "nama_perusahaan": "GLOBAL JET EXPRESS",
        "tanggal_daftar": "2022-05-10",
        "nomor_tanda_daftar": "002663.01/DJAI.PSE/05/2022",
        "qr_code": "https://pse.kominfo.go.id/storage/images/qr_code/f192b3d044e9589fd73ec52bf4e0856a.png",
        "status_id": "TERDAFTAR",
        "sistem_elektronik_id": 4414
      }
    },
    {
      "type": "tdpseTerbit",
      "id": 4429,
      "attributes": {
        "nomor_pb_umku": null,
        "nama": "Investly",
        "website": "investly.id",
        "sektor": "Sektor Keuangan, Sektor Teknologi Informasi dan Komunikasi",
        "nama_perusahaan": "INVESTASI CERDAS BERSAMA",
        "tanggal_daftar": "2022-05-09",
        "nomor_tanda_daftar": "002662.01/DJAI.PSE/05/2022",
        "qr_code": "https://pse.kominfo.go.id/storage/images/qr_code/21eac309dacbf76726171360780b106a.png",
        "status_id": "TERDAFTAR",
        "sistem_elektronik_id": 4413
      }
    },
    {
      "type": "tdpseTerbit",
      "id": 4428,
      "attributes": {
        "nomor_pb_umku": null,
        "nama": "Meta Bisnis Indonesia",
        "website": "calobisnis.com",
        "sektor": "Sektor Perdagangan",
        "nama_perusahaan": "METADATA BISNIS INDONESIA",
        "tanggal_daftar": "2022-05-09",
        "nomor_tanda_daftar": "002661.01/DJAI.PSE/05/2022",
        "qr_code": "https://pse.kominfo.go.id/storage/images/qr_code/8a0b7f63cf30ddda0b5b50b239593174.png",
        "status_id": "TERDAFTAR",
        "sistem_elektronik_id": 4412
      }
    },
    {
      "type": "tdpseTerbit",
      "id": 4427,
      "attributes": {
        "nomor_pb_umku": null,
        "nama": "WARGA STORE",
        "website": "-",
        "sektor": "Sektor Perdagangan, Sektor Teknologi Informasi dan Komunikasi",
        "nama_perusahaan": "SANGKURIANG BERKAH NUSANTARA",
        "tanggal_daftar": "2022-05-09",
        "nomor_tanda_daftar": "002660.01/DJAI.PSE/05/2022",
        "qr_code": "https://pse.kominfo.go.id/storage/images/qr_code/1ecb5e6cd2ecdecb27970306b6aca2de.png",
        "status_id": "TERDAFTAR",
        "sistem_elektronik_id": 4411
      }
    },
    {
      "type": "tdpseTerbit",
      "id": 4426,
      "attributes": {
        "nomor_pb_umku": null,
        "nama": "Flash Pay",
        "website": "flashpay.co.th",
        "sektor": "Sektor Keuangan, Sektor Teknologi Informasi dan Komunikasi",
        "nama_perusahaan": "FLASH PAY INDONESIA",
        "tanggal_daftar": "2022-05-09",
        "nomor_tanda_daftar": "002659.01/DJAI.PSE/05/2022",
        "qr_code": "https://pse.kominfo.go.id/storage/images/qr_code/8631e0b7cb276eedc7079f0bd24c5ef3.png",
        "status_id": "TERDAFTAR",
        "sistem_elektronik_id": 4410
      }
    },
    {
      "type": "tdpseTerbit",
      "id": 4425,
      "attributes": {
        "nomor_pb_umku": null,
        "nama": "Kesehatan",
        "website": "-",
        "sektor": "Sektor Kesehatan",
        "nama_perusahaan": "KLINIK PERMATA MEDIKA",
        "tanggal_daftar": "2022-05-09",
        "nomor_tanda_daftar": "002658.01/DJAI.PSE/05/2022",
        "qr_code": "https://pse.kominfo.go.id/storage/images/qr_code/f7a1f0c1a7afeaa1427d9881ae078c87.png",
        "status_id": "TERDAFTAR",
        "sistem_elektronik_id": 4409
      }
    },
    {
      "type": "tdpseTerbit",
      "id": 4424,
      "attributes": {
        "nomor_pb_umku": null,
        "nama": "AIN SHOP",
        "website": "-",
        "sektor": "Sektor Perdagangan",
        "nama_perusahaan": "CHUROTUL AINNIAH",
        "tanggal_daftar": "2022-05-09",
        "nomor_tanda_daftar": "002657.01/DJAI.PSE/05/2022",
        "qr_code": "https://pse.kominfo.go.id/storage/images/qr_code/25b229aff3e11bb6de97d5a8674a015f.png",
        "status_id": "TERDAFTAR",
        "sistem_elektronik_id": 4408
      }
    },
    {
      "type": "tdpseTerbit",
      "id": 4423,
      "attributes": {
        "nomor_pb_umku": null,
        "nama": "Enerba Teknologi",
        "website": "enerba-teknologi.co.id",
        "sektor": "Sektor Perdagangan",
        "nama_perusahaan": "ENERBA TEKNOLOGI",
        "tanggal_daftar": "2022-05-09",
        "nomor_tanda_daftar": "002656.01/DJAI.PSE/05/2022",
        "qr_code": "https://pse.kominfo.go.id/storage/images/qr_code/79c38a7b72d916a436090d89acba2248.png",
        "status_id": "TERDAFTAR",
        "sistem_elektronik_id": 4407
      }
    }
  ]
}