{
  "meta": {
    "page": {
      "currentPage": 504,
      "from": 5031,
      "lastPage": 1056,
      "perPage": 10,
      "to": 5040,
      "total": 10553
    }
  },
  "data": [
    {
      "type": "tdpseTerbit",
      "id": 4920,
      "attributes": {
        "nomor_pb_umku": "022020984037500000002",
        "nama": "OKEDOK",
        "website": "okedok.co.id",
        "sektor": "Sektor Kesehatan",
        "nama_perusahaan": "MEDIS INDONESIA DIGITAL",
        "tanggal_daftar": "2022-06-28",
        "nomor_tanda_daftar": "003502.01/DJAI.PSE/06/2022",
        "qr_code": "https://pse.kominfo.go.id/storage/images/qr_code/2d51f42d61facbcbb99eaf97fedfb53a.png",
        "status_id": "TERDAFTAR",
        "sistem_elektronik_id": 4790
      }
    },
    {
      "type": "tdpseTerbit",
      "id": 5268,
      "attributes": {
        "nomor_pb_umku": "250921000724900000001",
        "nama": "BENGKEL MANIA",
        "website": "bengkelmania.com",
        "sektor": "Sektor Perdagangan",
        "nama_perusahaan": "DIGITAL AUTO SEJAHTERA",
        "tanggal_daftar": "2022-07-10",
        "nomor_tanda_daftar": "003501.01/DJAI.PSE/07/2022",
        "qr_code": "https://pse.kominfo.go.id/storage/images/qr_code/05b0303d5b259bcad362f2f6bf37e257.png",
        "status_id": "TERDAFTAR",
        "sistem_elektronik_id": 5136
      }
    },
    {
      "type": "tdpseTerbit",
      "id": 5202,
      "attributes": {
        "nomor_pb_umku": "060422000218900000001",
        "nama": "TOKO ONLINE BUYINGKLUB",
        "website": "idnbuyingclub.com",
        "sektor": "Sektor Perdagangan",
        "nama_perusahaan": "BUYINGKLUB GLOBAL INTERNASIONAL",
        "tanggal_daftar": "2022-07-08",
        "nomor_tanda_daftar": "003499.01/DJAI.PSE/07/2022",
        "qr_code": "https://pse.kominfo.go.id/storage/images/qr_code/c6f503a56e72884f00e6e529130ea074.png",
        "status_id": "TERDAFTAR",
        "sistem_elektronik_id": 5074
      }
    },
    {
      "type": "tdpseTerbit",
      "id": 4803,
      "attributes": {
        "nomor_pb_umku": "812020076276200060001",
        "nama": "WWW.PDT.CO.ID",
        "website": "pdt.co.id",
        "sektor": "Sektor Teknologi Informasi dan Komunikasi",
        "nama_perusahaan": "PRASETIA DWIDHARMA TEKNOLOGI",
        "tanggal_daftar": "2022-06-27",
        "nomor_tanda_daftar": "003498.01/DJAI.PSE/06/2022",
        "qr_code": "https://pse.kominfo.go.id/storage/images/qr_code/e413c50dae04c43ffc869703dbe3d698.png",
        "status_id": "TERDAFTAR",
        "sistem_elektronik_id": 4745
      }
    },
    {
      "type": "tdpseTerbit",
      "id": 4801,
      "attributes": {
        "nomor_pb_umku": "250622002516800000002",
        "nama": "PERDANA NETWORK INDONESIA",
        "website": "perdananetwork.id",
        "sektor": "Sektor Perdagangan, Sektor Teknologi Informasi dan Komunikasi",
        "nama_perusahaan": "PERDANA NETWORK INDONESIA",
        "tanggal_daftar": "2022-06-27",
        "nomor_tanda_daftar": "003497.02/DJAI.PSE/06/2022",
        "qr_code": "https://pse.kominfo.go.id/storage/images/qr_code/7572c6f16e8b3b3ec87e87529e6dd05c.png",
        "status_id": "TERDAFTAR",
        "sistem_elektronik_id": 4743
      }
    },
    {
      "type": "tdpseTerbit",
      "id": 4797,
      "attributes": {
        "nomor_pb_umku": "250622002516800000001",
        "nama": "PERDANA NETWORK INDONES",
        "website": "perdananetwork.com",
        "sektor": "Sektor Perdagangan, Sektor Teknologi Informasi dan Komunikasi",
        "nama_perusahaan": "PERDANA NETWORK INDONESIA",
        "tanggal_daftar": "2022-06-27",
        "nomor_tanda_daftar": "003497.01/DJAI.PSE/06/2022",
        "qr_code": "https://pse.kominfo.go.id/storage/images/qr_code/086c8391aafa79bd534b0c2c641fdd00.png",
        "status_id": "TERDAFTAR",
        "sistem_elektronik_id": 4739
      }
    },
    {
      "type": "tdpseTerbit",
      "id": 4971,
      "attributes": {
        "nomor_pb_umku": "240622005099900010001",
        "nama": "BLIMOBIL",
        "website": "blimobil.id",
        "sektor": "Sektor Perdagangan",
        "nama_perusahaan": "NAWA CARCIEGE INDONESIA",
        "tanggal_daftar": "2022-06-30",
        "nomor_tanda_daftar": "003494.01/DJAI.PSE/06/2022",
        "qr_code": "https://pse.kominfo.go.id/storage/images/qr_code/a29df8d3c7faf538699c6fcb4df095d6.png",
        "status_id": "TERDAFTAR",
        "sistem_elektronik_id": 4839
      }
    },
    {
      "type": "tdpseTerbit",
      "id": 8656,
      "attributes": {
        "nomor_pb_umku": "812000584098600020010",
        "nama": "APLIKASI YAMAHA MOTORCYCLE CONNECT / Y CONNECT",
        "website": "-",
        "sektor": "Sektor Perdagangan, Sektor Teknologi Informasi dan Komunikasi",
        "nama_perusahaan": "YAMAHA INDONESIA MOTOR MANUFACTURING",
        "tanggal_daftar": "2022-07-21",
        "nomor_tanda_daftar": "003491.05/DJAI.PSE/07/2022",
        "qr_code": "https://pse.kominfo.go.id/storage/images/qr_code/c33be9ff826ef2e7b254a48358b77321.png",
        "status_id": "TERDAFTAR",
        "sistem_elektronik_id": 8575
      }
    },
    {
      "type": "tdpseTerbit",
      "id": 8649,
      "attributes": {
        "nomor_pb_umku": "812000584098600020009",
        "nama": "APLIKASI MY YAMAHA MOTOR",
        "website": "-",
        "sektor": "Sektor Perdagangan, Sektor Teknologi Informasi dan Komunikasi",
        "nama_perusahaan": "YAMAHA INDONESIA MOTOR MANUFACTURING",
        "tanggal_daftar": "2022-07-21",
        "nomor_tanda_daftar": "003491.04/DJAI.PSE/07/2022",
        "qr_code": "https://pse.kominfo.go.id/storage/images/qr_code/114ff524c3229d5acfe1aff85a38e90c.png",
        "status_id": "TERDAFTAR",
        "sistem_elektronik_id": 8568
      }
    },
    {
      "type": "tdpseTerbit",
      "id": 5777,
      "attributes": {
        "nomor_pb_umku": "812000584098600020008",
        "nama": "WEBSITE YAMALUBE PROMO",
        "website": "yamalubepromo.com",
        "sektor": "Sektor Perdagangan, Sektor Teknologi Informasi dan Komunikasi",
        "nama_perusahaan": "YAMAHA INDONESIA MOTOR MANUFACTURING",
        "tanggal_daftar": "2022-07-15",
        "nomor_tanda_daftar": "003491.03/DJAI.PSE/07/2022",
        "qr_code": "https://pse.kominfo.go.id/storage/images/qr_code/0df7969d833da39de279ec1999ffca64.png",
        "status_id": "TERDAFTAR",
        "sistem_elektronik_id": 5641
      }
    }
  ]
}