{
  "meta": {
    "page": {
      "currentPage": 505,
      "from": 5041,
      "lastPage": 903,
      "perPage": 10,
      "to": 5050,
      "total": 9025
    }
  },
  "data": [
    {
      "type": "tdpseTerbit",
      "id": 3250,
      "attributes": {
        "nomor_pb_umku": null,
        "nama": "e-Lawyer",
        "website": "officiumnobile.com",
        "sektor": "Sektor Teknologi Informasi dan Komunikasi",
        "nama_perusahaan": "OFFICIUM NOBILE INDOLAW",
        "tanggal_daftar": "2022-02-15",
        "nomor_tanda_daftar": "002107.01/DJAI.PSE/02/2022",
        "qr_code": "https://pse.kominfo.go.id/storage/images/qr_code/7fd0d5b555b3adaf190e8b69178ef1c3.png",
        "status_id": "TERDAFTAR",
        "sistem_elektronik_id": 2186
      }
    },
    {
      "type": "tdpseTerbit",
      "id": 3249,
      "attributes": {
        "nomor_pb_umku": null,
        "nama": "INVESTDATA",
        "website": "www.infovesta.com",
        "sektor": "Sektor Teknologi Informasi dan Komunikasi",
        "nama_perusahaan": "INFOVESTA UTAMA",
        "tanggal_daftar": "2022-02-14",
        "nomor_tanda_daftar": "002106.01/DJAI.PSE/02/2022",
        "qr_code": "https://pse.kominfo.go.id/storage/images/qr_code/693e01d9fd5c5e6c50ae26b2ca055cff.png",
        "status_id": "TERDAFTAR",
        "sistem_elektronik_id": 2184
      }
    },
    {
      "type": "tdpseTerbit",
      "id": 3248,
      "attributes": {
        "nomor_pb_umku": null,
        "nama": "Halokas.com",
        "website": "halokas.com",
        "sektor": "Sektor Teknologi Informasi dan Komunikasi",
        "nama_perusahaan": "FINACCEL TEKNOLOGI INDONESIA",
        "tanggal_daftar": "2022-02-14",
        "nomor_tanda_daftar": "002105.01/DJAI.PSE/02/2022",
        "qr_code": "https://pse.kominfo.go.id/storage/images/qr_code/8b8e5fa1711eaf8b9a9749b127bc67e0.png",
        "status_id": "TERDAFTAR",
        "sistem_elektronik_id": 3177
      }
    },
    {
      "type": "tdpseTerbit",
      "id": 3247,
      "attributes": {
        "nomor_pb_umku": null,
        "nama": "Maswindoku",
        "website": "maswindokupay.com",
        "sektor": "Sektor Perdagangan, Sektor Teknologi Informasi dan Komunikasi",
        "nama_perusahaan": "CITA TEKNOLOGI INDONESIA",
        "tanggal_daftar": "2022-02-14",
        "nomor_tanda_daftar": "002104.01/DJAI.PSE/02/2022",
        "qr_code": "https://pse.kominfo.go.id/storage/images/qr_code/85bc11bc44a311756f4ad2da8605733b.png",
        "status_id": "TERDAFTAR",
        "sistem_elektronik_id": 2853
      }
    },
    {
      "type": "tdpseTerbit",
      "id": 3246,
      "attributes": {
        "nomor_pb_umku": null,
        "nama": "Game Merchant Kalyanu Solusi Optima",
        "website": "-",
        "sektor": "Sektor Teknologi Informasi dan Komunikasi",
        "nama_perusahaan": "KALYANU SOLUSI OPTIMA",
        "tanggal_daftar": "2022-02-14",
        "nomor_tanda_daftar": "002103.01/DJAI.PSE/02/2022",
        "qr_code": "https://pse.kominfo.go.id/storage/images/qr_code/4c3cbd89b02dc676a783ca22b4def411.png",
        "status_id": "TERDAFTAR",
        "sistem_elektronik_id": 2201
      }
    },
    {
      "type": "tdpseTerbit",
      "id": 3245,
      "attributes": {
        "nomor_pb_umku": null,
        "nama": "9to9 Online",
        "website": "9to9.co.id",
        "sektor": "Sektor Perdagangan",
        "nama_perusahaan": "TRANSMARCO",
        "tanggal_daftar": "2022-02-14",
        "nomor_tanda_daftar": "002102.01/DJAI.PSE/02/2022",
        "qr_code": "https://pse.kominfo.go.id/storage/images/qr_code/cefeeb71e274c44bcdc6c1ccc5be864d.png",
        "status_id": "TERDAFTAR",
        "sistem_elektronik_id": 2121
      }
    },
    {
      "type": "tdpseTerbit",
      "id": 3244,
      "attributes": {
        "nomor_pb_umku": null,
        "nama": "Medevo",
        "website": "http://www.medevo.id",
        "sektor": "Sektor Kesehatan",
        "nama_perusahaan": "PERUSAHAAN PERSEROAN (PERSERO) PT. BIO FARMA DISINGKAT PT. BIO FARMA (PERSERO)",
        "tanggal_daftar": "2022-02-14",
        "nomor_tanda_daftar": "002101.01/DJAI.PSE/02/2022",
        "qr_code": "https://pse.kominfo.go.id/storage/images/qr_code/e551cf4ad3b48174c9783b76dd846ea9.png",
        "status_id": "TERDAFTAR",
        "sistem_elektronik_id": 2194
      }
    },
    {
      "type": "tdpseTerbit",
      "id": 3243,
      "attributes": {
        "nomor_pb_umku": null,
        "nama": "NOICE",
        "website": "https://noice.id/",
        "sektor": "Sektor Teknologi Informasi dan Komunikasi",
        "nama_perusahaan": "MAHAKA RADIO DIGITAL",
        "tanggal_daftar": "2022-02-14",
        "nomor_tanda_daftar": "002100.01/DJAI.PSE/02/2022",
        "qr_code": "https://pse.kominfo.go.id/storage/images/qr_code/88b9ef39d35bf5289f6d8ff8d97b7f9f.png",
        "status_id": "TERDAFTAR",
        "sistem_elektronik_id": 2189
      }
    },
    {
      "type": "tdpseTerbit",
      "id": 3242,
      "attributes": {
        "nomor_pb_umku": null,
        "nama": "Fintar",
        "website": "www.fintar.co.id",
        "sektor": "Sektor Teknologi Informasi dan Komunikasi",
        "nama_perusahaan": "TEKNOLOGI PINTAR NUSANTARA",
        "tanggal_daftar": "2022-02-14",
        "nomor_tanda_daftar": "002099.01/DJAI.PSE/02/2022",
        "qr_code": "https://pse.kominfo.go.id/storage/images/qr_code/60b1c53d075a1d54566c371783d8e567.png",
        "status_id": "TERDAFTAR",
        "sistem_elektronik_id": 2144
      }
    },
    {
      "type": "tdpseTerbit",
      "id": 3241,
      "attributes": {
        "nomor_pb_umku": null,
        "nama": "Shoppy",
        "website": "-",
        "sektor": "Sektor Pangan, Sektor Perdagangan",
        "nama_perusahaan": "HARUNIA JAYA GRUP",
        "tanggal_daftar": "2022-02-14",
        "nomor_tanda_daftar": "002098.01/DJAI.PSE/02/2022",
        "qr_code": "https://pse.kominfo.go.id/storage/images/qr_code/64ece66b54bbcd2a6f147269f9f4bdf5.png",
        "status_id": "TERDAFTAR",
        "sistem_elektronik_id": 3426
      }
    }
  ]
}