{
  "meta": {
    "page": {
      "currentPage": 506,
      "from": 5051,
      "lastPage": 1111,
      "perPage": 10,
      "to": 5060,
      "total": 11105
    }
  },
  "data": [
    {
      "type": "tdpseTerbit",
      "id": 5532,
      "attributes": {
        "nomor_pb_umku": "271021003116800000006",
        "nama": "FINGERSPOT.NET",
        "website": "fingerspot.net",
        "sektor": "Sektor Teknologi Informasi dan Komunikasi",
        "nama_perusahaan": "ERA LINTAS TEKNOLOGI",
        "tanggal_daftar": "2022-07-14",
        "nomor_tanda_daftar": "003983.06/DJAI.PSE/07/2022",
        "qr_code": "https://pse.kominfo.go.id/storage/images/qr_code/2270afc2a9fd5fb7d4c99d8c15ed42fc.png",
        "status_id": "TERDAFTAR",
        "sistem_elektronik_id": 5397
      }
    },
    {
      "type": "tdpseTerbit",
      "id": 5531,
      "attributes": {
        "nomor_pb_umku": "271021003116800000005",
        "nama": "REVOTIME.ID",
        "website": "revotime.id",
        "sektor": "Sektor Teknologi Informasi dan Komunikasi",
        "nama_perusahaan": "ERA LINTAS TEKNOLOGI",
        "tanggal_daftar": "2022-07-14",
        "nomor_tanda_daftar": "003983.05/DJAI.PSE/07/2022",
        "qr_code": "https://pse.kominfo.go.id/storage/images/qr_code/92ed006abfab08114938bed0c404c562.png",
        "status_id": "TERDAFTAR",
        "sistem_elektronik_id": 5396
      }
    },
    {
      "type": "tdpseTerbit",
      "id": 5530,
      "attributes": {
        "nomor_pb_umku": "271021003116800000004",
        "nama": "FEDU.IO",
        "website": "fedu.io",
        "sektor": "Sektor Teknologi Informasi dan Komunikasi",
        "nama_perusahaan": "ERA LINTAS TEKNOLOGI",
        "tanggal_daftar": "2022-07-14",
        "nomor_tanda_daftar": "003983.04/DJAI.PSE/07/2022",
        "qr_code": "https://pse.kominfo.go.id/storage/images/qr_code/1767d40e1a150955c6d543ec9a79ba6f.png",
        "status_id": "TERDAFTAR",
        "sistem_elektronik_id": 5394
      }
    },
    {
      "type": "tdpseTerbit",
      "id": 5510,
      "attributes": {
        "nomor_pb_umku": "271021003116800000003",
        "nama": "TIMECLOCK.ID",
        "website": "timeclock.id",
        "sektor": "Sektor Teknologi Informasi dan Komunikasi",
        "nama_perusahaan": "ERA LINTAS TEKNOLOGI",
        "tanggal_daftar": "2022-07-13",
        "nomor_tanda_daftar": "003983.03/DJAI.PSE/07/2022",
        "qr_code": "https://pse.kominfo.go.id/storage/images/qr_code/20ac6a7804dd03caec57586a65aafecb.png",
        "status_id": "TERDAFTAR",
        "sistem_elektronik_id": 5326
      }
    },
    {
      "type": "tdpseTerbit",
      "id": 5455,
      "attributes": {
        "nomor_pb_umku": "271021003116800000002",
        "nama": "DEVELOPER.FINGERSPOT.IO",
        "website": "developer.fingerspot.io",
        "sektor": "Sektor Teknologi Informasi dan Komunikasi",
        "nama_perusahaan": "ERA LINTAS TEKNOLOGI",
        "tanggal_daftar": "2022-07-13",
        "nomor_tanda_daftar": "003983.02/DJAI.PSE/07/2022",
        "qr_code": "https://pse.kominfo.go.id/storage/images/qr_code/e9141f9ef8922f1839d0c5ef9ba08f69.png",
        "status_id": "TERDAFTAR",
        "sistem_elektronik_id": 5325
      }
    },
    {
      "type": "tdpseTerbit",
      "id": 5437,
      "attributes": {
        "nomor_pb_umku": "271021003116800000001",
        "nama": "FINGERSPOT.IO",
        "website": "fingerspot.io",
        "sektor": "Sektor Teknologi Informasi dan Komunikasi",
        "nama_perusahaan": "ERA LINTAS TEKNOLOGI",
        "tanggal_daftar": "2022-07-13",
        "nomor_tanda_daftar": "003983.01/DJAI.PSE/07/2022",
        "qr_code": "https://pse.kominfo.go.id/storage/images/qr_code/285a2dfd2ef538c58784656a1aa1c39d.png",
        "status_id": "TERDAFTAR",
        "sistem_elektronik_id": 5302
      }
    },
    {
      "type": "tdpseTerbit",
      "id": 5322,
      "attributes": {
        "nomor_pb_umku": "912030068291200000001",
        "nama": "TRIBELIO.COM",
        "website": "tribelio.com",
        "sektor": "Sektor Teknologi Informasi dan Komunikasi",
        "nama_perusahaan": "TRIBELIO DIGITAL GLOBAL",
        "tanggal_daftar": "2022-07-11",
        "nomor_tanda_daftar": "003982.01/DJAI.PSE/07/2022",
        "qr_code": "https://pse.kominfo.go.id/storage/images/qr_code/c7834f80b84645e668fed1d319a8be55.png",
        "status_id": "TERDAFTAR",
        "sistem_elektronik_id": 5196
      }
    },
    {
      "type": "tdpseTerbit",
      "id": 11136,
      "attributes": {
        "nomor_pb_umku": "",
        "nama": "WEBSITE SPK",
        "website": "simaspenjaminan.com",
        "sektor": "Sektor Keuangan",
        "nama_perusahaan": "SINARMAS PENJAMINAN KREDIT",
        "tanggal_daftar": "2022-10-05",
        "nomor_tanda_daftar": "003981.01/DJAI.PSE/09/2022",
        "qr_code": "https://pse.kominfo.go.id/storage/images/qr_code/445d9e1c8760f9448c9585820d46b259.png",
        "status_id": "TERDAFTAR",
        "sistem_elektronik_id": 10940
      }
    },
    {
      "type": "tdpseTerbit",
      "id": 5310,
      "attributes": {
        "nomor_pb_umku": "912000387151500010001",
        "nama": "DXTRADE",
        "website": "dxtrade.bahana.co.id",
        "sektor": "Sektor Keuangan",
        "nama_perusahaan": "BAHANA SEKURITAS",
        "tanggal_daftar": "2022-07-11",
        "nomor_tanda_daftar": "003980.01/DJAI.PSE/07/2022",
        "qr_code": "https://pse.kominfo.go.id/storage/images/qr_code/290599a0c443b59fc3b76d2b41ef363b.png",
        "status_id": "TERDAFTAR",
        "sistem_elektronik_id": 5184
      }
    },
    {
      "type": "tdpseTerbit",
      "id": 9603,
      "attributes": {
        "nomor_pb_umku": "912020572101700000004",
        "nama": "WEBSITE PERUSAHAAN PT ADICIPTA INOVASI TEKNOLOGI",
        "website": "ad-ins.com",
        "sektor": "Sektor Teknologi Informasi dan Komunikasi",
        "nama_perusahaan": "ADICIPTA INOVASI TEKNOLOGI",
        "tanggal_daftar": "2022-08-02",
        "nomor_tanda_daftar": "003979.04/DJAI.PSE/08/2022",
        "qr_code": "https://pse.kominfo.go.id/storage/images/qr_code/707900ec5d43935b59b1fe3bcde97ab7.png",
        "status_id": "TERDAFTAR",
        "sistem_elektronik_id": 9487
      }
    }
  ]
}