{
  "meta": {
    "page": {
      "currentPage": 508,
      "from": 5071,
      "lastPage": 1063,
      "perPage": 10,
      "to": 5080,
      "total": 10630
    }
  },
  "data": [
    {
      "type": "tdpseTerbit",
      "id": 11553,
      "attributes": {
        "nomor_pb_umku": "912030986115600010012",
        "nama": "ECLAIM",
        "website": "eclaim.bcainsurance.co.id",
        "sektor": "Sektor Keuangan",
        "nama_perusahaan": "ASURANSI UMUM BCA",
        "tanggal_daftar": "2022-10-05",
        "nomor_tanda_daftar": "003517.12/DJAI.PSE/10/2022",
        "qr_code": "https://pse.kominfo.go.id/storage/images/qr_code/4bf4d69e56309798131aa14fc25ff1cd.png",
        "status_id": "TERDAFTAR",
        "sistem_elektronik_id": 11360
      }
    },
    {
      "type": "tdpseTerbit",
      "id": 11026,
      "attributes": {
        "nomor_pb_umku": "912030986115600010011",
        "nama": "ELECTRONIC EQUIPMENT INSURANCE",
        "website": "eeins.bcainsurance.co.id",
        "sektor": "Sektor Keuangan",
        "nama_perusahaan": "ASURANSI UMUM BCA",
        "tanggal_daftar": "2022-09-06",
        "nomor_tanda_daftar": "003517.11/DJAI.PSE/09/2022",
        "qr_code": "https://pse.kominfo.go.id/storage/images/qr_code/39c0074274fe4681fc17d2e2dced05f9.png",
        "status_id": "TERDAFTAR",
        "sistem_elektronik_id": 10829
      }
    },
    {
      "type": "tdpseTerbit",
      "id": 11024,
      "attributes": {
        "nomor_pb_umku": "912030986115600010010",
        "nama": "PERSONAL CYBER INSURANCE",
        "website": "cyberins.bcainsurance.co.id",
        "sektor": "Sektor Keuangan",
        "nama_perusahaan": "ASURANSI UMUM BCA",
        "tanggal_daftar": "2022-09-06",
        "nomor_tanda_daftar": "003517.10/DJAI.PSE/09/2022",
        "qr_code": "https://pse.kominfo.go.id/storage/images/qr_code/06b2f798c11761c728f217c0d9b88f5e.png",
        "status_id": "TERDAFTAR",
        "sistem_elektronik_id": 10827
      }
    },
    {
      "type": "tdpseTerbit",
      "id": 7551,
      "attributes": {
        "nomor_pb_umku": "912030986115600010009",
        "nama": "TRAVEL FAIR",
        "website": "apps.bcainsurance.co.id",
        "sektor": "Sektor Keuangan",
        "nama_perusahaan": "ASURANSI UMUM BCA",
        "tanggal_daftar": "2022-07-20",
        "nomor_tanda_daftar": "003517.09/DJAI.PSE/07/2022",
        "qr_code": "https://pse.kominfo.go.id/storage/images/qr_code/05394f3d9eda59cbe24d303c2bec8b47.png",
        "status_id": "TERDAFTAR",
        "sistem_elektronik_id": 7441
      }
    },
    {
      "type": "tdpseTerbit",
      "id": 7297,
      "attributes": {
        "nomor_pb_umku": "912030986115600010008",
        "nama": "E-MARINE",
        "website": "emarine.bcainsurance.co.id",
        "sektor": "Sektor Keuangan",
        "nama_perusahaan": "ASURANSI UMUM BCA",
        "tanggal_daftar": "2022-07-20",
        "nomor_tanda_daftar": "003517.08/DJAI.PSE/07/2022",
        "qr_code": "https://pse.kominfo.go.id/storage/images/qr_code/fe633543cfc0703bd72e7ba72f3bf26a.png",
        "status_id": "TERDAFTAR",
        "sistem_elektronik_id": 7187
      }
    },
    {
      "type": "tdpseTerbit",
      "id": 7292,
      "attributes": {
        "nomor_pb_umku": "912030986115600010007",
        "nama": "E-POLIS",
        "website": "e-polis.bcainsurance.co.id",
        "sektor": "Sektor Keuangan",
        "nama_perusahaan": "ASURANSI UMUM BCA",
        "tanggal_daftar": "2022-07-20",
        "nomor_tanda_daftar": "003517.07/DJAI.PSE/07/2022",
        "qr_code": "https://pse.kominfo.go.id/storage/images/qr_code/afd8cc23241d35ef8333e1495bb60100.png",
        "status_id": "TERDAFTAR",
        "sistem_elektronik_id": 7182
      }
    },
    {
      "type": "tdpseTerbit",
      "id": 5537,
      "attributes": {
        "nomor_pb_umku": "912030986115600010006",
        "nama": "WHISTLEBLOWING SYSTEM",
        "website": "wbs.bcainsurance.co.id",
        "sektor": "Sektor Keuangan",
        "nama_perusahaan": "ASURANSI UMUM BCA",
        "tanggal_daftar": "2022-07-14",
        "nomor_tanda_daftar": "003517.06/DJAI.PSE/07/2022",
        "qr_code": "https://pse.kominfo.go.id/storage/images/qr_code/5bc7f9f4104a30d8b8b77bb9572a0bcb.png",
        "status_id": "TERDAFTAR",
        "sistem_elektronik_id": 5402
      }
    },
    {
      "type": "tdpseTerbit",
      "id": 5518,
      "attributes": {
        "nomor_pb_umku": "912030986115600010005",
        "nama": "TRAVEL INSURANCE AGENT",
        "website": "travelagent.bcainsurance.co.id",
        "sektor": "Sektor Keuangan",
        "nama_perusahaan": "ASURANSI UMUM BCA",
        "tanggal_daftar": "2022-07-13",
        "nomor_tanda_daftar": "003517.05/DJAI.PSE/07/2022",
        "qr_code": "https://pse.kominfo.go.id/storage/images/qr_code/6e1f3ff9baa1e8f45e637d6cdbcd2f35.png",
        "status_id": "TERDAFTAR",
        "sistem_elektronik_id": 5380
      }
    },
    {
      "type": "tdpseTerbit",
      "id": 5517,
      "attributes": {
        "nomor_pb_umku": "912030986115600010004",
        "nama": "FLEXAS",
        "website": "flexas.bcainsurance.co.id",
        "sektor": "Sektor Keuangan",
        "nama_perusahaan": "ASURANSI UMUM BCA",
        "tanggal_daftar": "2022-07-13",
        "nomor_tanda_daftar": "003517.04/DJAI.PSE/07/2022",
        "qr_code": "https://pse.kominfo.go.id/storage/images/qr_code/983c4acabfdfaede1eb98294191e4d21.png",
        "status_id": "TERDAFTAR",
        "sistem_elektronik_id": 5379
      }
    },
    {
      "type": "tdpseTerbit",
      "id": 5516,
      "attributes": {
        "nomor_pb_umku": "912030986115600010003",
        "nama": "BCAINSURANCE MOBILE APPS",
        "website": "-",
        "sektor": "Sektor Keuangan",
        "nama_perusahaan": "ASURANSI UMUM BCA",
        "tanggal_daftar": "2022-07-13",
        "nomor_tanda_daftar": "003517.03/DJAI.PSE/07/2022",
        "qr_code": "https://pse.kominfo.go.id/storage/images/qr_code/7b702f9e6eebe430ab3228ac83fc4a17.png",
        "status_id": "TERDAFTAR",
        "sistem_elektronik_id": 5378
      }
    }
  ]
}