{
  "meta": {
    "page": {
      "currentPage": 511,
      "from": 5101,
      "lastPage": 949,
      "perPage": 10,
      "to": 5110,
      "total": 9482
    }
  },
  "data": [
    {
      "type": "tdpseTerbit",
      "id": 4108,
      "attributes": {
        "nomor_pb_umku": "812000094143900000006",
        "nama": "PROSA - MEEMO",
        "website": "meetinganalytics.prosa.ai",
        "sektor": "Sektor Perdagangan, Sektor Energi dan Sumber Daya Mineral, Sektor Keuangan, Sektor Kesehatan, Sektor Teknologi Informasi dan Komunikasi, Sektor Pertahanan dan Keamanan",
        "nama_perusahaan": "PROSA SOLUSI CERDAS",
        "tanggal_daftar": "2022-05-24",
        "nomor_tanda_daftar": "002371.06/DJAI.PSE/06/2022",
        "qr_code": "https://pse.kominfo.go.id/storage/images/qr_code/51f15044dcbe7ce523b2934a5db03614.png",
        "status_id": "TERDAFTAR",
        "sistem_elektronik_id": 4108
      }
    },
    {
      "type": "tdpseTerbit",
      "id": 3645,
      "attributes": {
        "nomor_pb_umku": null,
        "nama": "Prosa - Speech API",
        "website": "console.prosa.ai",
        "sektor": "Sektor Kesehatan, Sektor Keuangan, Sektor Perdagangan, Sektor Pertahanan dan Keamanan, Sektor Teknologi Informasi dan Komunikasi, Sektor Transportasi",
        "nama_perusahaan": "PROSA SOLUSI CERDAS",
        "tanggal_daftar": "2022-03-24",
        "nomor_tanda_daftar": "002371.05/DJAI.PSE/03/2022",
        "qr_code": "https://pse.kominfo.go.id/storage/images/qr_code/f05961629c408c17350a34c14221138c.png",
        "status_id": "TERDAFTAR",
        "sistem_elektronik_id": 3642
      }
    },
    {
      "type": "tdpseTerbit",
      "id": 3644,
      "attributes": {
        "nomor_pb_umku": null,
        "nama": "Prosa - Voice ID API",
        "website": "console.prosa.ai",
        "sektor": "Sektor Energi dan Sumber Daya Mineral, Sektor Kesehatan, Sektor Keuangan, Sektor Pertahanan dan Keamanan, Sektor Teknologi Informasi dan Komunikasi, Sektor Transportasi",
        "nama_perusahaan": "PROSA SOLUSI CERDAS",
        "tanggal_daftar": "2022-03-24",
        "nomor_tanda_daftar": "002371.04/DJAI.PSE/03/2022",
        "qr_code": "https://pse.kominfo.go.id/storage/images/qr_code/13216c7634a8d3f4c506c8e91dcdc830.png",
        "status_id": "TERDAFTAR",
        "sistem_elektronik_id": 3641
      }
    },
    {
      "type": "tdpseTerbit",
      "id": 3643,
      "attributes": {
        "nomor_pb_umku": null,
        "nama": "Prosa - NLP API",
        "website": "prosa.ai",
        "sektor": "Sektor Keuangan, Sektor Perdagangan, Sektor Pertahanan dan Keamanan, Sektor Teknologi Informasi dan Komunikasi",
        "nama_perusahaan": "PROSA SOLUSI CERDAS",
        "tanggal_daftar": "2022-03-24",
        "nomor_tanda_daftar": "002371.03/DJAI.PSE/03/2022",
        "qr_code": "https://pse.kominfo.go.id/storage/images/qr_code/b8868fbe5cb2d84952ec8570cd166c01.png",
        "status_id": "TERDAFTAR",
        "sistem_elektronik_id": 3640
      }
    },
    {
      "type": "tdpseTerbit",
      "id": 3642,
      "attributes": {
        "nomor_pb_umku": null,
        "nama": "Prosa - Text To Speech",
        "website": "prosa.ai",
        "sektor": "Sektor Keuangan, Sektor Teknologi Informasi dan Komunikasi, Sektor Transportasi",
        "nama_perusahaan": "PROSA SOLUSI CERDAS",
        "tanggal_daftar": "2022-03-24",
        "nomor_tanda_daftar": "002371.02/DJAI.PSE/03/2022",
        "qr_code": "https://pse.kominfo.go.id/storage/images/qr_code/5ecd9481b61a3772831c9bcdb3be9a64.png",
        "status_id": "TERDAFTAR",
        "sistem_elektronik_id": 3639
      }
    },
    {
      "type": "tdpseTerbit",
      "id": 3637,
      "attributes": {
        "nomor_pb_umku": null,
        "nama": "Salyns",
        "website": "prosa.ai",
        "sektor": "Sektor Energi dan Sumber Daya Mineral, Sektor Kesehatan, Sektor Keuangan, Sektor Perdagangan, Sektor Pertahanan dan Keamanan, Sektor Teknologi Informasi dan Komunikasi, Sektor Transportasi",
        "nama_perusahaan": "PROSA SOLUSI CERDAS",
        "tanggal_daftar": "2022-03-24",
        "nomor_tanda_daftar": "002371.01/DJAI.PSE/03/2022",
        "qr_code": "https://pse.kominfo.go.id/storage/images/qr_code/f51c99d74044649535a661d85a61c550.png",
        "status_id": "TERDAFTAR",
        "sistem_elektronik_id": 3638
      }
    },
    {
      "type": "tdpseTerbit",
      "id": 3651,
      "attributes": {
        "nomor_pb_umku": null,
        "nama": "DHP DIGITAL",
        "website": "www.dhp.co.id",
        "sektor": "Sektor Teknologi Informasi dan Komunikasi",
        "nama_perusahaan": "DHP DIGITAL TEKNOLOGI",
        "tanggal_daftar": "2022-03-25",
        "nomor_tanda_daftar": "002370.02/DJAI.PSE/03/2022",
        "qr_code": "https://pse.kominfo.go.id/storage/images/qr_code/a1f3f3d9238f9ba619a482641bd1d837.png",
        "status_id": "TERDAFTAR",
        "sistem_elektronik_id": 3621
      }
    },
    {
      "type": "tdpseTerbit",
      "id": 3634,
      "attributes": {
        "nomor_pb_umku": null,
        "nama": "DHP",
        "website": "www.dhp.co.id",
        "sektor": "Sektor Teknologi Informasi dan Komunikasi",
        "nama_perusahaan": "DHP DIGITAL TEKNOLOGI",
        "tanggal_daftar": "2022-03-24",
        "nomor_tanda_daftar": "002370.01/DJAI.PSE/03/2022",
        "qr_code": "https://pse.kominfo.go.id/storage/images/qr_code/5ad9b72d1ce2f7402ad6ebf1131ec318.png",
        "status_id": "TERDAFTAR",
        "sistem_elektronik_id": 3620
      }
    },
    {
      "type": "tdpseTerbit",
      "id": 3633,
      "attributes": {
        "nomor_pb_umku": null,
        "nama": "DHP",
        "website": "www.dhp.co.id",
        "sektor": "Sektor Teknologi Informasi dan Komunikasi",
        "nama_perusahaan": "DESMAN HARIANTO",
        "tanggal_daftar": "2022-03-24",
        "nomor_tanda_daftar": "002369.01/DJAI.PSE/03/2022",
        "qr_code": "https://pse.kominfo.go.id/storage/images/qr_code/f72a59004baa6d3f5eb69b48c68c9e9f.png",
        "status_id": "TERDAFTAR",
        "sistem_elektronik_id": 3609
      }
    },
    {
      "type": "tdpseTerbit",
      "id": 3631,
      "attributes": {
        "nomor_pb_umku": null,
        "nama": "STARS OFFICIAL",
        "website": "-",
        "sektor": "Sektor Perdagangan, Sektor Teknologi Informasi dan Komunikasi, Sektor Transportasi",
        "nama_perusahaan": "STARS OFFICIAL",
        "tanggal_daftar": "2022-03-24",
        "nomor_tanda_daftar": "002368.01/DJAI.PSE/03/2022",
        "qr_code": "https://pse.kominfo.go.id/storage/images/qr_code/daac866785a67f0eb6dfe43d108af822.png",
        "status_id": "TERDAFTAR",
        "sistem_elektronik_id": 3571
      }
    }
  ]
}