{
  "meta": {
    "page": {
      "currentPage": 513,
      "from": 5121,
      "lastPage": 1113,
      "perPage": 10,
      "to": 5130,
      "total": 11124
    }
  },
  "data": [
    {
      "type": "tdpseTerbit",
      "id": 5263,
      "attributes": {
        "nomor_pb_umku": "128500072066500000001",
        "nama": "ANTIVIRUS",
        "website": "evindotama.com",
        "sektor": "Sektor Teknologi Informasi dan Komunikasi",
        "nama_perusahaan": "EVINDOTAMA JAYA INTERNUSA",
        "tanggal_daftar": "2022-07-10",
        "nomor_tanda_daftar": "003945.01/DJAI.PSE/07/2022",
        "qr_code": "https://pse.kominfo.go.id/storage/images/qr_code/c20764a4590fecfa694003ba628675f8.png",
        "status_id": "TERDAFTAR",
        "sistem_elektronik_id": 5132
      }
    },
    {
      "type": "tdpseTerbit",
      "id": 5262,
      "attributes": {
        "nomor_pb_umku": "022000039295900090001",
        "nama": "PROPERTY21",
        "website": "-",
        "sektor": "Sektor Teknologi Informasi dan Komunikasi",
        "nama_perusahaan": "PROPERTY 21",
        "tanggal_daftar": "2022-07-10",
        "nomor_tanda_daftar": "003944.01/DJAI.PSE/07/2022",
        "qr_code": "https://pse.kominfo.go.id/storage/images/qr_code/7eb2bdad6aa7ee7a89d837c63c817a92.png",
        "status_id": "TERDAFTAR",
        "sistem_elektronik_id": 5130
      }
    },
    {
      "type": "tdpseTerbit",
      "id": 5261,
      "attributes": {
        "nomor_pb_umku": "100722000533700000001",
        "nama": "APOTEK",
        "website": "-",
        "sektor": "Sektor Perdagangan",
        "nama_perusahaan": "OLGA ASSIRAQ",
        "tanggal_daftar": "2022-07-10",
        "nomor_tanda_daftar": "003942.01/DJAI.PSE/07/2022",
        "qr_code": "https://pse.kominfo.go.id/storage/images/qr_code/e71b02fdd48288fe3fba695ffaa26a20.png",
        "status_id": "TERDAFTAR",
        "sistem_elektronik_id": 5129
      }
    },
    {
      "type": "tdpseTerbit",
      "id": 5260,
      "attributes": {
        "nomor_pb_umku": "023101008267700000001",
        "nama": "BACKLINK.CO.ID",
        "website": "backlink.co.id",
        "sektor": "Sektor Perdagangan",
        "nama_perusahaan": "ANDY NUGROHO",
        "tanggal_daftar": "2022-07-10",
        "nomor_tanda_daftar": "003941.01/DJAI.PSE/07/2022",
        "qr_code": "https://pse.kominfo.go.id/storage/images/qr_code/9da8aebbcbf591591c9d9909dc96e88a.png",
        "status_id": "TERDAFTAR",
        "sistem_elektronik_id": 5128
      }
    },
    {
      "type": "tdpseTerbit",
      "id": 7674,
      "attributes": {
        "nomor_pb_umku": "912021126055200020002",
        "nama": "WOI (WALLET OF INDIVARA)",
        "website": "-",
        "sektor": "Sektor Keuangan, Sektor Teknologi Informasi dan Komunikasi",
        "nama_perusahaan": "INDIVARA SEJAHTERA SUKSES MAKMUR",
        "tanggal_daftar": "2022-07-20",
        "nomor_tanda_daftar": "003940.01/DJAI.PSE/07/2022",
        "qr_code": "https://pse.kominfo.go.id/storage/images/qr_code/a113401b9ca8f82670a030eb3bc02ff5.png",
        "status_id": "TERDAFTAR",
        "sistem_elektronik_id": 7576
      }
    },
    {
      "type": "tdpseTerbit",
      "id": 5309,
      "attributes": {
        "nomor_pb_umku": "029101010033400000002",
        "nama": "MAHASISWAONLINE.COM (MEDIA SHARING PENGETAHUAN DAN BAHAN STUDI ANTAR MAHASISWA)",
        "website": "mahasiswaonline.com",
        "sektor": "Sektor Teknologi Informasi dan Komunikasi",
        "nama_perusahaan": "DEBRIAN RUHUT SARAGIH",
        "tanggal_daftar": "2022-07-11",
        "nomor_tanda_daftar": "003939.02/DJAI.PSE/07/2022",
        "qr_code": "https://pse.kominfo.go.id/storage/images/qr_code/348f24626eaf731f8e713452b7a0b5d9.png",
        "status_id": "TERDAFTAR",
        "sistem_elektronik_id": 5183
      }
    },
    {
      "type": "tdpseTerbit",
      "id": 5259,
      "attributes": {
        "nomor_pb_umku": "029101010033400000001",
        "nama": "SOLUSI DIAGRAM (SOLUGRAM.COM)",
        "website": "solugram.com",
        "sektor": "Sektor Teknologi Informasi dan Komunikasi",
        "nama_perusahaan": "DEBRIAN RUHUT SARAGIH",
        "tanggal_daftar": "2022-07-10",
        "nomor_tanda_daftar": "003939.01/DJAI.PSE/07/2022",
        "qr_code": "https://pse.kominfo.go.id/storage/images/qr_code/e4035e9dafe65c458a256a4efccba5bf.png",
        "status_id": "TERDAFTAR",
        "sistem_elektronik_id": 5127
      }
    },
    {
      "type": "tdpseTerbit",
      "id": 5519,
      "attributes": {
        "nomor_pb_umku": "022000015162300030001",
        "nama": "HOSTINGAN",
        "website": "hostingan.id",
        "sektor": "Sektor Teknologi Informasi dan Komunikasi",
        "nama_perusahaan": "HOSTINGAN AWAN INDONESIA",
        "tanggal_daftar": "2022-07-13",
        "nomor_tanda_daftar": "003937.01/DJAI.PSE/07/2022",
        "qr_code": "https://pse.kominfo.go.id/storage/images/qr_code/b1003bc7fd61ebbcc5d7829e564be808.png",
        "status_id": "TERDAFTAR",
        "sistem_elektronik_id": 5381
      }
    },
    {
      "type": "tdpseTerbit",
      "id": 6478,
      "attributes": {
        "nomor_pb_umku": "129500054046400000002",
        "nama": "CARBON ADDONS",
        "website": "carbonadoons.id",
        "sektor": "Sektor Perdagangan",
        "nama_perusahaan": "INOVASI HIJAU SANGKABIRA",
        "tanggal_daftar": "2022-07-18",
        "nomor_tanda_daftar": "003936.01/DJAI.PSE/07/2022",
        "qr_code": "https://pse.kominfo.go.id/storage/images/qr_code/cef033ccd8509a92f17e8ab6b2360baf.png",
        "status_id": "TERDAFTAR",
        "sistem_elektronik_id": 6341
      }
    },
    {
      "type": "tdpseTerbit",
      "id": 9643,
      "attributes": {
        "nomor_pb_umku": "300821003740500010002",
        "nama": "TARA TIANA",
        "website": "taratiana.com",
        "sektor": "Sektor Perdagangan, Sektor Teknologi Informasi dan Komunikasi",
        "nama_perusahaan": "TARA TIANA",
        "tanggal_daftar": "2022-08-02",
        "nomor_tanda_daftar": "003934.02/DJAI.PSE/08/2022",
        "qr_code": "https://pse.kominfo.go.id/storage/images/qr_code/0285cdb4d811d15bcd9ac0128d9f88cf.png",
        "status_id": "TERDAFTAR",
        "sistem_elektronik_id": 9533
      }
    }
  ]
}