{
  "meta": {
    "page": {
      "currentPage": 514,
      "from": 5131,
      "lastPage": 885,
      "perPage": 10,
      "to": 5140,
      "total": 8844
    }
  },
  "data": [
    {
      "type": "tdpseTerbit",
      "id": 2977,
      "attributes": {
        "nomor_pb_umku": null,
        "nama": "JURNAL",
        "website": "www.jurnal.id",
        "sektor": "Sektor Teknologi Informasi dan Komunikasi",
        "nama_perusahaan": "JURNAL CONSULTING INDONESIA",
        "tanggal_daftar": "2022-01-06",
        "nomor_tanda_daftar": "001907.01/DJAI.PSE/01/2022",
        "qr_code": "https://pse.kominfo.go.id/storage/images/qr_code/1c8135343b9af81f698543f2cf79c021.png",
        "status_id": "TERDAFTAR",
        "sistem_elektronik_id": 1229
      }
    },
    {
      "type": "tdpseTerbit",
      "id": 8308,
      "attributes": {
        "nomor_pb_umku": "812000482300500000005",
        "nama": "MEKARI UNIV",
        "website": "univ.mekari.com",
        "sektor": "Sektor Teknologi Informasi dan Komunikasi",
        "nama_perusahaan": "MID SOLUSI NUSANTARA",
        "tanggal_daftar": "2022-07-20",
        "nomor_tanda_daftar": "001906.05/DJAI.PSE/07/2022",
        "qr_code": "https://pse.kominfo.go.id/storage/images/qr_code/abf3a18d8d14877d2f786af3baa8a935.png",
        "status_id": "TERDAFTAR",
        "sistem_elektronik_id": 8229
      }
    },
    {
      "type": "tdpseTerbit",
      "id": 8288,
      "attributes": {
        "nomor_pb_umku": "812000482300500000004",
        "nama": "MEKARI",
        "website": "mekari.com",
        "sektor": "Sektor Teknologi Informasi dan Komunikasi",
        "nama_perusahaan": "MID SOLUSI NUSANTARA",
        "tanggal_daftar": "2022-07-20",
        "nomor_tanda_daftar": "001906.04/DJAI.PSE/07/2022",
        "qr_code": "https://pse.kominfo.go.id/storage/images/qr_code/89c72a469adb2d1e0be75b8e8a25d996.png",
        "status_id": "TERDAFTAR",
        "sistem_elektronik_id": 8206
      }
    },
    {
      "type": "tdpseTerbit",
      "id": 3614,
      "attributes": {
        "nomor_pb_umku": null,
        "nama": "MEKARI FLEX",
        "website": "https://mekari.com/produk/mekari-flex/",
        "sektor": "Sektor Perdagangan",
        "nama_perusahaan": "MID SOLUSI NUSANTARA",
        "tanggal_daftar": "2022-03-22",
        "nomor_tanda_daftar": "001906.03/DJAI.PSE/03/2022",
        "qr_code": "https://pse.kominfo.go.id/storage/images/qr_code/f31283caf3c11deaf2cad2cc119b6585.png",
        "status_id": "TERDAFTAR",
        "sistem_elektronik_id": 3553
      }
    },
    {
      "type": "tdpseTerbit",
      "id": 2988,
      "attributes": {
        "nomor_pb_umku": null,
        "nama": "SLEEKR",
        "website": "www.sleekr.co",
        "sektor": "Sektor Teknologi Informasi dan Komunikasi",
        "nama_perusahaan": "MID SOLUSI NUSANTARA",
        "tanggal_daftar": "2022-01-07",
        "nomor_tanda_daftar": "001906.02/DJAI.PSE/01/2022",
        "qr_code": "https://pse.kominfo.go.id/storage/images/qr_code/4553235a1b6b9d42db5def3c0cfe40c7.png",
        "status_id": "TERDAFTAR",
        "sistem_elektronik_id": 472
      }
    },
    {
      "type": "tdpseTerbit",
      "id": 2976,
      "attributes": {
        "nomor_pb_umku": null,
        "nama": "TALENTA",
        "website": "https://hr.talenta.co/",
        "sektor": "Sektor Teknologi Informasi dan Komunikasi",
        "nama_perusahaan": "MID SOLUSI NUSANTARA",
        "tanggal_daftar": "2022-01-06",
        "nomor_tanda_daftar": "001906.01/DJAI.PSE/01/2022",
        "qr_code": "https://pse.kominfo.go.id/storage/images/qr_code/c8690d0f5cd1ca7d300c29c03a553f31.png",
        "status_id": "TERDAFTAR",
        "sistem_elektronik_id": 471
      }
    },
    {
      "type": "tdpseTerbit",
      "id": 2989,
      "attributes": {
        "nomor_pb_umku": null,
        "nama": "PT. NDH SUKSES PERKASA",
        "website": "-",
        "sektor": "Sektor Kesehatan, Sektor Perdagangan, Sektor Teknologi Informasi dan Komunikasi",
        "nama_perusahaan": "NDH SUKSES PERKASA",
        "tanggal_daftar": "2022-01-07",
        "nomor_tanda_daftar": "001905.02/DJAI.PSE/01/2022",
        "qr_code": "https://pse.kominfo.go.id/storage/images/qr_code/9f84acd49aed479eb98d148e41253f5c.png",
        "status_id": "TERDAFTAR",
        "sistem_elektronik_id": 2024
      }
    },
    {
      "type": "tdpseTerbit",
      "id": 2969,
      "attributes": {
        "nomor_pb_umku": null,
        "nama": "NDH Sukses Perkasa",
        "website": "-",
        "sektor": "Sektor Perdagangan, Sektor Teknologi Informasi dan Komunikasi",
        "nama_perusahaan": "NDH SUKSES PERKASA",
        "tanggal_daftar": "2022-01-06",
        "nomor_tanda_daftar": "001905.01/DJAI.PSE/01/2022",
        "qr_code": "https://pse.kominfo.go.id/storage/images/qr_code/3bf506f1dff5a221426787078c9b3a6b.png",
        "status_id": "TERDAFTAR",
        "sistem_elektronik_id": 2023
      }
    },
    {
      "type": "tdpseTerbit",
      "id": 2967,
      "attributes": {
        "nomor_pb_umku": null,
        "nama": "VSA",
        "website": "Vsaglobal.co.id",
        "sektor": "Sektor Perdagangan",
        "nama_perusahaan": "VAYYA SUKSES ABADI",
        "tanggal_daftar": "2022-01-06",
        "nomor_tanda_daftar": "001904.01/DJAI.PSE/01/2022",
        "qr_code": "https://pse.kominfo.go.id/storage/images/qr_code/7c3413790b321ad1a812b44adba8de4a.png",
        "status_id": "TERDAFTAR",
        "sistem_elektronik_id": 2025
      }
    },
    {
      "type": "tdpseTerbit",
      "id": 2968,
      "attributes": {
        "nomor_pb_umku": null,
        "nama": "Maintenance Information System",
        "website": "elisium.id",
        "sektor": "Sektor Teknologi Informasi dan Komunikasi",
        "nama_perusahaan": "ELISIUM DIGITAL TEKNOLOGI",
        "tanggal_daftar": "2022-01-06",
        "nomor_tanda_daftar": "001903.02/DJAI.PSE/01/2022",
        "qr_code": "https://pse.kominfo.go.id/storage/images/qr_code/186ef6050ad2829419ad2f4922268b5a.png",
        "status_id": "TERDAFTAR",
        "sistem_elektronik_id": 2005
      }
    }
  ]
}