{
  "meta": {
    "page": {
      "currentPage": 515,
      "from": 5141,
      "lastPage": 1097,
      "perPage": 10,
      "to": 5150,
      "total": 10962
    }
  },
  "data": [
    {
      "type": "tdpseTerbit",
      "id": 5218,
      "attributes": {
        "nomor_pb_umku": "211221001451400010001",
        "nama": "PT MAXS DIGITAL TEKNOLOGI",
        "website": "maxspos.com",
        "sektor": "Sektor Teknologi Informasi dan Komunikasi",
        "nama_perusahaan": "MAXS DIGITAL TEKNOLOGI",
        "tanggal_daftar": "2022-07-08",
        "nomor_tanda_daftar": "003799.01/DJAI.PSE/07/2022",
        "qr_code": "https://pse.kominfo.go.id/storage/images/qr_code/b7b6c8c25c9d8b5eb2917a9dcaa11d2d.png",
        "status_id": "TERDAFTAR",
        "sistem_elektronik_id": 5088
      }
    },
    {
      "type": "tdpseTerbit",
      "id": 5131,
      "attributes": {
        "nomor_pb_umku": "812010379286800000002",
        "nama": "MINISO APPLICATION",
        "website": "miniso.co.id",
        "sektor": "Sektor Perdagangan",
        "nama_perusahaan": "Miniso Internasional Compani",
        "tanggal_daftar": "2022-07-06",
        "nomor_tanda_daftar": "003798.02/DJAI.PSE/07/2022",
        "qr_code": "https://pse.kominfo.go.id/storage/images/qr_code/419f08ff9e57b2ca5258c10302e9eb7d.png",
        "status_id": "TERDAFTAR",
        "sistem_elektronik_id": 4995
      }
    },
    {
      "type": "tdpseTerbit",
      "id": 5127,
      "attributes": {
        "nomor_pb_umku": "812010379286800000001",
        "nama": "MINISO APP",
        "website": "miniso.co.id",
        "sektor": "Sektor Perdagangan",
        "nama_perusahaan": "Miniso Internasional Compani",
        "tanggal_daftar": "2022-07-06",
        "nomor_tanda_daftar": "003798.01/DJAI.PSE/07/2022",
        "qr_code": "https://pse.kominfo.go.id/storage/images/qr_code/b298ffe6dd845d71c128e9cd0efd1a0c.png",
        "status_id": "TERDAFTAR",
        "sistem_elektronik_id": 4992
      }
    },
    {
      "type": "tdpseTerbit",
      "id": 5138,
      "attributes": {
        "nomor_pb_umku": "812021028053900000001",
        "nama": "BRAMBANG",
        "website": "brambang.com",
        "sektor": "Sektor Perdagangan",
        "nama_perusahaan": "BURSA INTERAKTIF GEMILANG",
        "tanggal_daftar": "2022-07-06",
        "nomor_tanda_daftar": "003797.01/DJAI.PSE/07/2022",
        "qr_code": "https://pse.kominfo.go.id/storage/images/qr_code/83e85f99bfa4f443ed68aea04958c82e.png",
        "status_id": "TERDAFTAR",
        "sistem_elektronik_id": 5001
      }
    },
    {
      "type": "tdpseTerbit",
      "id": 5128,
      "attributes": {
        "nomor_pb_umku": "912000125271700010001",
        "nama": "INDOFUND.ID",
        "website": "indofund.id",
        "sektor": "Sektor Keuangan",
        "nama_perusahaan": "BURSA AKSELERASI INDONESIA",
        "tanggal_daftar": "2022-07-06",
        "nomor_tanda_daftar": "003794.01/DJAI.PSE/07/2022",
        "qr_code": "https://pse.kominfo.go.id/storage/images/qr_code/9929a497b1d1db72f675faf6e383fd91.png",
        "status_id": "TERDAFTAR",
        "sistem_elektronik_id": 4991
      }
    },
    {
      "type": "tdpseTerbit",
      "id": 5364,
      "attributes": {
        "nomor_pb_umku": "812020290271200000001",
        "nama": "KOTAMAYA",
        "website": "kotamaya.com",
        "sektor": "Sektor Perdagangan, Sektor Teknologi Informasi dan Komunikasi",
        "nama_perusahaan": "KOTA MAYA KREATIVINDO",
        "tanggal_daftar": "2022-07-12",
        "nomor_tanda_daftar": "003792.01/DJAI.PSE/07/2022",
        "qr_code": "https://pse.kominfo.go.id/storage/images/qr_code/a1586bbfa8f8e30b32da0d95d95a41c4.png",
        "status_id": "TERDAFTAR",
        "sistem_elektronik_id": 5235
      }
    },
    {
      "type": "tdpseTerbit",
      "id": 9030,
      "attributes": {
        "nomor_pb_umku": "812000484076100000001",
        "nama": "WWW.ACCOMMCAN.COM",
        "website": "accommcan.com",
        "sektor": "Sektor Perdagangan",
        "nama_perusahaan": "MANDARIN MEDIA INDONESIA",
        "tanggal_daftar": "2022-07-26",
        "nomor_tanda_daftar": "003790.01/DJAI.PSE/07/2022",
        "qr_code": "https://pse.kominfo.go.id/storage/images/qr_code/9add0659ffed9cfd0e76bad62e77c569.png",
        "status_id": "TERDAFTAR",
        "sistem_elektronik_id": 5138
      }
    },
    {
      "type": "tdpseTerbit",
      "id": 5121,
      "attributes": {
        "nomor_pb_umku": "912010578023600010001",
        "nama": "ABSIMASFINANCE.CO.ID",
        "website": "absimasfinance.co.id",
        "sektor": "Sektor Keuangan",
        "nama_perusahaan": "AB SINAR MAS MULTIFINANCE",
        "tanggal_daftar": "2022-07-06",
        "nomor_tanda_daftar": "003787.01/DJAI.PSE/07/2022",
        "qr_code": "https://pse.kominfo.go.id/storage/images/qr_code/16613aa111e728c3ba1b8088c574c12e.png",
        "status_id": "TERDAFTAR",
        "sistem_elektronik_id": 4985
      }
    },
    {
      "type": "tdpseTerbit",
      "id": 5137,
      "attributes": {
        "nomor_pb_umku": "128300022028500030001",
        "nama": "PT RELABS NET DAYACIPTA",
        "website": "relabs.id",
        "sektor": "Sektor Teknologi Informasi dan Komunikasi",
        "nama_perusahaan": "RELABS NET DAYACIPTA",
        "tanggal_daftar": "2022-07-06",
        "nomor_tanda_daftar": "003786.01/DJAI.PSE/07/2022",
        "qr_code": "https://pse.kominfo.go.id/storage/images/qr_code/577e9104ab026026ce073d61f008c94f.png",
        "status_id": "TERDAFTAR",
        "sistem_elektronik_id": 5000
      }
    },
    {
      "type": "tdpseTerbit",
      "id": 11793,
      "attributes": {
        "nomor_pb_umku": "300622007257200030001",
        "nama": "WWW.GETLOOP.ID",
        "website": "getloop.id",
        "sektor": "Sektor Perdagangan, Sektor Teknologi Informasi dan Komunikasi",
        "nama_perusahaan": "GETLOOP MEDIA INDONESIA",
        "tanggal_daftar": "2022-10-13",
        "nomor_tanda_daftar": "003784.01/DJAI.PSE/10/2022",
        "qr_code": "https://pse.kominfo.go.id/storage/images/qr_code/9156d0da7e0c29f8bbe79a49326b916d.png",
        "status_id": "TERDAFTAR",
        "sistem_elektronik_id": 11593
      }
    }
  ]
}