{
  "meta": {
    "page": {
      "currentPage": 516,
      "from": 5151,
      "lastPage": 1056,
      "perPage": 10,
      "to": 5160,
      "total": 10553
    }
  },
  "data": [
    {
      "type": "tdpseTerbit",
      "id": 4709,
      "attributes": {
        "nomor_pb_umku": "912021414159900020001",
        "nama": "MALLRAYSPEED",
        "website": "mallrayspeed.com",
        "sektor": "Sektor Perdagangan, Sektor Transportasi, Sektor Teknologi Informasi dan Komunikasi",
        "nama_perusahaan": "RAYSPID INDONESIA",
        "tanggal_daftar": "2022-06-23",
        "nomor_tanda_daftar": "003395.01/DJAI.PSE/06/2022",
        "qr_code": "https://pse.kominfo.go.id/storage/images/qr_code/c518b0f2e6bf8f4ad8092cf5147986ff.png",
        "status_id": "TERDAFTAR",
        "sistem_elektronik_id": 4664
      }
    },
    {
      "type": "tdpseTerbit",
      "id": 4712,
      "attributes": {
        "nomor_pb_umku": "301221002425600020001",
        "nama": "FAZPASS",
        "website": "fazpass.com",
        "sektor": "Sektor Teknologi Informasi dan Komunikasi",
        "nama_perusahaan": "FAZPASS INTEGRASI INDONESIA",
        "tanggal_daftar": "2022-06-23",
        "nomor_tanda_daftar": "003394.01/DJAI.PSE/06/2022",
        "qr_code": "https://pse.kominfo.go.id/storage/images/qr_code/e904d0d2f279584d0ef2592f31cb58ba.png",
        "status_id": "TERDAFTAR",
        "sistem_elektronik_id": 4665
      }
    },
    {
      "type": "tdpseTerbit",
      "id": 8185,
      "attributes": {
        "nomor_pb_umku": "812001925005100000003",
        "nama": "ZALORA.CO.ID",
        "website": "zalora.co.id",
        "sektor": "Sektor Perdagangan",
        "nama_perusahaan": "FASHION ESERVICES INDONESIA",
        "tanggal_daftar": "2022-07-20",
        "nomor_tanda_daftar": "003393.02/DJAI.PSE/07/2022",
        "qr_code": "https://pse.kominfo.go.id/storage/images/qr_code/6b5f701620803ada7325ec963e20c3cf.png",
        "status_id": "TERDAFTAR",
        "sistem_elektronik_id": 8103
      }
    },
    {
      "type": "tdpseTerbit",
      "id": 4708,
      "attributes": {
        "nomor_pb_umku": "812001925005100000002",
        "nama": "ZALORA",
        "website": "zalora.co.id",
        "sektor": "Sektor Perdagangan",
        "nama_perusahaan": "FASHION ESERVICES INDONESIA",
        "tanggal_daftar": "2022-06-23",
        "nomor_tanda_daftar": "003393.01/DJAI.PSE/06/2022",
        "qr_code": "https://pse.kominfo.go.id/storage/images/qr_code/d15328095ed57ecec26f1888c1156114.png",
        "status_id": "TERDAFTAR",
        "sistem_elektronik_id": 4663
      }
    },
    {
      "type": "tdpseTerbit",
      "id": 4704,
      "attributes": {
        "nomor_pb_umku": "912030239104200040001",
        "nama": "BOSWISATA",
        "website": "boswisata.com",
        "sektor": "Sektor Perdagangan, Sektor Teknologi Informasi dan Komunikasi",
        "nama_perusahaan": "BOS SOLUSI WISATA",
        "tanggal_daftar": "2022-06-23",
        "nomor_tanda_daftar": "003392.01/DJAI.PSE/06/2022",
        "qr_code": "https://pse.kominfo.go.id/storage/images/qr_code/1212ac63944f22af429b0c40d028bc88.png",
        "status_id": "TERDAFTAR",
        "sistem_elektronik_id": 4659
      }
    },
    {
      "type": "tdpseTerbit",
      "id": 8189,
      "attributes": {
        "nomor_pb_umku": "912021406196200010001",
        "nama": "ZALORA.CO.ID",
        "website": "zalora.co.id",
        "sektor": "Sektor Perdagangan",
        "nama_perusahaan": "FASHION MARKETPLACE INDONESIA",
        "tanggal_daftar": "2022-07-20",
        "nomor_tanda_daftar": "003391.02/DJAI.PSE/07/2022",
        "qr_code": "https://pse.kominfo.go.id/storage/images/qr_code/e76caed74ec3dbb1ff506a8a039c5bff.png",
        "status_id": "TERDAFTAR",
        "sistem_elektronik_id": 8108
      }
    },
    {
      "type": "tdpseTerbit",
      "id": 4705,
      "attributes": {
        "nomor_pb_umku": "912021406196200000001",
        "nama": "ZALORA",
        "website": "zalora.co.id",
        "sektor": "Sektor Perdagangan",
        "nama_perusahaan": "FASHION MARKETPLACE INDONESIA",
        "tanggal_daftar": "2022-06-23",
        "nomor_tanda_daftar": "003391.01/DJAI.PSE/06/2022",
        "qr_code": "https://pse.kominfo.go.id/storage/images/qr_code/80fb3f4e05def54e3f0d59f4683b2b8e.png",
        "status_id": "TERDAFTAR",
        "sistem_elektronik_id": 4661
      }
    },
    {
      "type": "tdpseTerbit",
      "id": 4707,
      "attributes": {
        "nomor_pb_umku": "130122002648600020001",
        "nama": "GROWSIRE",
        "website": "growsir-e.com",
        "sektor": "Sektor Perdagangan",
        "nama_perusahaan": "GROWSIRE KARYA INDONESIA",
        "tanggal_daftar": "2022-06-23",
        "nomor_tanda_daftar": "003390.01/DJAI.PSE/06/2022",
        "qr_code": "https://pse.kominfo.go.id/storage/images/qr_code/0242f175b33fd8a0c924e56430415f06.png",
        "status_id": "TERDAFTAR",
        "sistem_elektronik_id": 4662
      }
    },
    {
      "type": "tdpseTerbit",
      "id": 5092,
      "attributes": {
        "nomor_pb_umku": "220622007782600000002",
        "nama": "ESS-ON",
        "website": "elitsuksessekuritas.com",
        "sektor": "Sektor Keuangan",
        "nama_perusahaan": "ELIT SUKSES SEKURITAS",
        "tanggal_daftar": "2022-07-05",
        "nomor_tanda_daftar": "003389.02/DJAI.PSE/07/2022",
        "qr_code": "https://pse.kominfo.go.id/storage/images/qr_code/6582610af1e95393d33282f065322787.png",
        "status_id": "TERDAFTAR",
        "sistem_elektronik_id": 4946
      }
    },
    {
      "type": "tdpseTerbit",
      "id": 5072,
      "attributes": {
        "nomor_pb_umku": "",
        "nama": "WEBSITE ELIT SUKSES SEKURITAS",
        "website": "elitsuksessekuritas.com",
        "sektor": "Sektor Keuangan",
        "nama_perusahaan": "ELIT SUKSES SEKURITAS",
        "tanggal_daftar": "2022-07-05",
        "nomor_tanda_daftar": "003389.01/DJAI.PSE/07/2022",
        "qr_code": "https://pse.kominfo.go.id/storage/images/qr_code/8e2022b61f95b7c31edfd4524c7b522e.png",
        "status_id": "TERDAFTAR",
        "sistem_elektronik_id": 4938
      }
    }
  ]
}