{
  "meta": {
    "page": {
      "currentPage": 517,
      "from": 5161,
      "lastPage": 903,
      "perPage": 10,
      "to": 5170,
      "total": 9025
    }
  },
  "data": [
    {
      "type": "tdpseTerbit",
      "id": 6984,
      "attributes": {
        "nomor_pb_umku": "812001303166800780007",
        "nama": "MUAMALAT DIGITAL INTEGRATED ACCESS (MADINA)",
        "website": "bankmuamalat.co.id",
        "sektor": "Sektor Keuangan",
        "nama_perusahaan": "BANK MUAMALAT INDONESIA",
        "tanggal_daftar": "2022-07-19",
        "nomor_tanda_daftar": "002012.07/DJAI.PSE/07/2022",
        "qr_code": "https://pse.kominfo.go.id/storage/images/qr_code/0e9e336d39ccf6db8651cc2589f38ae0.png",
        "status_id": "TERDAFTAR",
        "sistem_elektronik_id": 6819
      }
    },
    {
      "type": "tdpseTerbit",
      "id": 3312,
      "attributes": {
        "nomor_pb_umku": null,
        "nama": "Internet Banking Muamalat",
        "website": "www.bankmuamalat.co.id",
        "sektor": "Sektor Keuangan",
        "nama_perusahaan": "BANK MUAMALAT INDONESIA",
        "tanggal_daftar": "2022-02-18",
        "nomor_tanda_daftar": "002012.06/DJAI.PSE/02/2022",
        "qr_code": "https://pse.kominfo.go.id/storage/images/qr_code/9edac13234163b4f79fde7d4a34f117d.png",
        "status_id": "TERDAFTAR",
        "sistem_elektronik_id": 1783
      }
    },
    {
      "type": "tdpseTerbit",
      "id": 3311,
      "attributes": {
        "nomor_pb_umku": null,
        "nama": "Muamalat DIN",
        "website": "www.bankmuamalat.co.id",
        "sektor": "Sektor Keuangan",
        "nama_perusahaan": "BANK MUAMALAT INDONESIA",
        "tanggal_daftar": "2022-02-18",
        "nomor_tanda_daftar": "002012.05/DJAI.PSE/02/2022",
        "qr_code": "https://pse.kominfo.go.id/storage/images/qr_code/3bf623f71d30eeaa12c5b145fe90ec72.png",
        "status_id": "TERDAFTAR",
        "sistem_elektronik_id": 1782
      }
    },
    {
      "type": "tdpseTerbit",
      "id": 3310,
      "attributes": {
        "nomor_pb_umku": null,
        "nama": "QRIS Acquiring",
        "website": "www.bankmuamalat.co.id",
        "sektor": "Sektor Keuangan",
        "nama_perusahaan": "BANK MUAMALAT INDONESIA",
        "tanggal_daftar": "2022-02-18",
        "nomor_tanda_daftar": "002012.04/DJAI.PSE/02/2022",
        "qr_code": "https://pse.kominfo.go.id/storage/images/qr_code/3ce861f8951c3cc0ddc27fee415da30f.png",
        "status_id": "TERDAFTAR",
        "sistem_elektronik_id": 1781
      }
    },
    {
      "type": "tdpseTerbit",
      "id": 3307,
      "attributes": {
        "nomor_pb_umku": null,
        "nama": "Layanan Host to Host Web Service",
        "website": "www.bankmuamalat.co.id",
        "sektor": "Sektor Keuangan",
        "nama_perusahaan": "BANK MUAMALAT INDONESIA",
        "tanggal_daftar": "2022-02-18",
        "nomor_tanda_daftar": "002012.03/DJAI.PSE/02/2022",
        "qr_code": "https://pse.kominfo.go.id/storage/images/qr_code/ca7f62fdde333c8327e2bbd002e75696.png",
        "status_id": "TERDAFTAR",
        "sistem_elektronik_id": 1780
      }
    },
    {
      "type": "tdpseTerbit",
      "id": 3305,
      "attributes": {
        "nomor_pb_umku": null,
        "nama": "Automatic Teller Machine (ATM)",
        "website": "www.bankmuamalat.co.id",
        "sektor": "Sektor Keuangan",
        "nama_perusahaan": "BANK MUAMALAT INDONESIA",
        "tanggal_daftar": "2022-02-18",
        "nomor_tanda_daftar": "002012.02/DJAI.PSE/02/2022",
        "qr_code": "https://pse.kominfo.go.id/storage/images/qr_code/e353c3bafd09d671c209c2b2a05b064d.png",
        "status_id": "TERDAFTAR",
        "sistem_elektronik_id": 1779
      }
    },
    {
      "type": "tdpseTerbit",
      "id": 3122,
      "attributes": {
        "nomor_pb_umku": null,
        "nama": "Widget Reksadana Syariah Bank Muamalat Indonesia",
        "website": "www.bankmuamalat.co.id",
        "sektor": "Sektor Keuangan",
        "nama_perusahaan": "BANK MUAMALAT INDONESIA",
        "tanggal_daftar": "2022-01-26",
        "nomor_tanda_daftar": "002012.01/DJAI.PSE/01/2022",
        "qr_code": "https://pse.kominfo.go.id/storage/images/qr_code/acc6c95bd974102f5961f14de0a8c48f.png",
        "status_id": "TERDAFTAR",
        "sistem_elektronik_id": 1778
      }
    },
    {
      "type": "tdpseTerbit",
      "id": 3121,
      "attributes": {
        "nomor_pb_umku": null,
        "nama": "Horici Mobile",
        "website": "-",
        "sektor": "Sektor Perdagangan",
        "nama_perusahaan": "HORICI CIPTA ABADI",
        "tanggal_daftar": "2022-01-26",
        "nomor_tanda_daftar": "002011.01/DJAI.PSE/01/2022",
        "qr_code": "https://pse.kominfo.go.id/storage/images/qr_code/679e28ea19791768ad4668210e0747d4.png",
        "status_id": "TERDAFTAR",
        "sistem_elektronik_id": 2116
      }
    },
    {
      "type": "tdpseTerbit",
      "id": 3120,
      "attributes": {
        "nomor_pb_umku": null,
        "nama": "pesenkamar",
        "website": "pesenkamar.com",
        "sektor": "Sektor Perdagangan",
        "nama_perusahaan": "ANORI DIGIPRENEUR NUSANTARA",
        "tanggal_daftar": "2022-01-25",
        "nomor_tanda_daftar": "002010.01/DJAI.PSE/01/2022",
        "qr_code": "https://pse.kominfo.go.id/storage/images/qr_code/1847e81c9c1557091e26ca06dc683d00.png",
        "status_id": "TERDAFTAR",
        "sistem_elektronik_id": 2100
      }
    },
    {
      "type": "tdpseTerbit",
      "id": 3119,
      "attributes": {
        "nomor_pb_umku": null,
        "nama": "Tvsekolah.id",
        "website": "Tvsekolah.id",
        "sektor": "Sektor Teknologi Informasi dan Komunikasi",
        "nama_perusahaan": "TVSEKOLAH WAHANA KREASI",
        "tanggal_daftar": "2022-01-25",
        "nomor_tanda_daftar": "002009.01/DJAI.PSE/01/2022",
        "qr_code": "https://pse.kominfo.go.id/storage/images/qr_code/d2818a8a5744fc14e2c20d8592500ddc.png",
        "status_id": "TERDAFTAR",
        "sistem_elektronik_id": 1876
      }
    }
  ]
}