{
  "meta": {
    "page": {
      "currentPage": 518,
      "from": 5171,
      "lastPage": 1038,
      "perPage": 10,
      "to": 5180,
      "total": 10380
    }
  },
  "data": [
    {
      "type": "tdpseTerbit",
      "id": 4340,
      "attributes": {
        "nomor_pb_umku": "912010556233500020001",
        "nama": "SRIBU.COM",
        "website": "sribu.com",
        "sektor": "Sektor Perdagangan",
        "nama_perusahaan": "SRIBU DIGITAL KREATIF",
        "tanggal_daftar": "2022-06-13",
        "nomor_tanda_daftar": "003150.01/DJAI.PSE/06/2022",
        "qr_code": "https://pse.kominfo.go.id/storage/images/qr_code/d8f99ec95b1a8044f09348e93ff50c4d.png",
        "status_id": "TERDAFTAR",
        "sistem_elektronik_id": 4326
      }
    },
    {
      "type": "tdpseTerbit",
      "id": 6861,
      "attributes": {
        "nomor_pb_umku": "812011222157900020003",
        "nama": "WEBSITE FIFGROUP",
        "website": "fifgroup.co.id",
        "sektor": "Sektor Keuangan",
        "nama_perusahaan": "FEDERAL INTERNATIONAL FINANCE",
        "tanggal_daftar": "2022-07-19",
        "nomor_tanda_daftar": "003148.03/DJAI.PSE/07/2022",
        "qr_code": "https://pse.kominfo.go.id/storage/images/qr_code/d782a24bb0f0f2263d8bb80060719001.png",
        "status_id": "TERDAFTAR",
        "sistem_elektronik_id": 6709
      }
    },
    {
      "type": "tdpseTerbit",
      "id": 6702,
      "attributes": {
        "nomor_pb_umku": "812011222157900020002",
        "nama": "FIFGROUP MOBILE CUSTOMER (FMC)",
        "website": "-",
        "sektor": "Sektor Keuangan",
        "nama_perusahaan": "FEDERAL INTERNATIONAL FINANCE",
        "tanggal_daftar": "2022-07-19",
        "nomor_tanda_daftar": "003148.02/DJAI.PSE/07/2022",
        "qr_code": "https://pse.kominfo.go.id/storage/images/qr_code/71bf50b654079457a27004e336b730e5.png",
        "status_id": "TERDAFTAR",
        "sistem_elektronik_id": 6556
      }
    },
    {
      "type": "tdpseTerbit",
      "id": 4341,
      "attributes": {
        "nomor_pb_umku": "812011222157900020001",
        "nama": "FIFGROUP INTELLIGENT PERSONAL ASSISTANT ATAU FIONA",
        "website": "fifgroup.co.id",
        "sektor": "Sektor Keuangan",
        "nama_perusahaan": "FEDERAL INTERNATIONAL FINANCE",
        "tanggal_daftar": "2022-06-13",
        "nomor_tanda_daftar": "003148.01/DJAI.PSE/06/2022",
        "qr_code": "https://pse.kominfo.go.id/storage/images/qr_code/d374100e4e1f2a28d5e7da90829ab3af.png",
        "status_id": "TERDAFTAR",
        "sistem_elektronik_id": 4327
      }
    },
    {
      "type": "tdpseTerbit",
      "id": 10741,
      "attributes": {
        "nomor_pb_umku": "023200091134900170002",
        "nama": "PENERBITAN PIRANTI LUNAK ATAU SOFTWARE",
        "website": "-",
        "sektor": "Sektor Teknologi Informasi dan Komunikasi",
        "nama_perusahaan": "BIG DEAL CREATIVE",
        "tanggal_daftar": "2022-08-23",
        "nomor_tanda_daftar": "003147.02/DJAI.PSE/08/2022",
        "qr_code": "https://pse.kominfo.go.id/storage/images/qr_code/1872d7b7fca3b9824d79e7391c816320.png",
        "status_id": "TERDAFTAR",
        "sistem_elektronik_id": 10573
      }
    },
    {
      "type": "tdpseTerbit",
      "id": 10642,
      "attributes": {
        "nomor_pb_umku": "023200091134900170001",
        "nama": "AKTIVITAS PEMROGRAMAN KOMPUTER LAINNYA",
        "website": "-",
        "sektor": "Sektor Teknologi Informasi dan Komunikasi",
        "nama_perusahaan": "BIG DEAL CREATIVE",
        "tanggal_daftar": "2022-08-21",
        "nomor_tanda_daftar": "003147.01/DJAI.PSE/08/2022",
        "qr_code": "https://pse.kominfo.go.id/storage/images/qr_code/1f2f92c16bcbdf1832280e8570a4ee46.png",
        "status_id": "TERDAFTAR",
        "sistem_elektronik_id": 10477
      }
    },
    {
      "type": "tdpseTerbit",
      "id": 4268,
      "attributes": {
        "nomor_pb_umku": "812011416095600000001",
        "nama": "HAKUHODO INDONESIA",
        "website": "hakuhodo.id",
        "sektor": "Sektor Perdagangan",
        "nama_perusahaan": "HAKUHODO INDONESIA",
        "tanggal_daftar": "2022-06-07",
        "nomor_tanda_daftar": "003145.01/DJAI.PSE/06/2022",
        "qr_code": "https://pse.kominfo.go.id/storage/images/qr_code/c9a1144b2dba71dea7a96159fa5084ae.png",
        "status_id": "TERDAFTAR",
        "sistem_elektronik_id": 4265
      }
    },
    {
      "type": "tdpseTerbit",
      "id": 4994,
      "attributes": {
        "nomor_pb_umku": "130622005558500000001",
        "nama": "GOAPOTIK",
        "website": "goapotik.com",
        "sektor": "Sektor Kesehatan",
        "nama_perusahaan": "KARSA INTI TUJU ASKARA",
        "tanggal_daftar": "2022-07-01",
        "nomor_tanda_daftar": "003144.01/DJAI.PSE/07/2022",
        "qr_code": "https://pse.kominfo.go.id/storage/images/qr_code/9b5465abe86340e52e2f7a3f212094f2.png",
        "status_id": "TERDAFTAR",
        "sistem_elektronik_id": 4863
      }
    },
    {
      "type": "tdpseTerbit",
      "id": 4267,
      "attributes": {
        "nomor_pb_umku": "250422004502300000001",
        "nama": "ERADIGITALCEMERLANG.COM",
        "website": "eradigitalcemerlang.com",
        "sektor": "Sektor Perdagangan",
        "nama_perusahaan": "ERA DIGITAL CEMERLANG",
        "tanggal_daftar": "2022-06-07",
        "nomor_tanda_daftar": "003143.01/DJAI.PSE/06/2022",
        "qr_code": "https://pse.kominfo.go.id/storage/images/qr_code/4b077b9b37ceba105b2c1a17595e0b22.png",
        "status_id": "TERDAFTAR",
        "sistem_elektronik_id": 4267
      }
    },
    {
      "type": "tdpseTerbit",
      "id": 9119,
      "attributes": {
        "nomor_pb_umku": "812011224159400820001",
        "nama": "WATSONS ID",
        "website": "watsons.co.id",
        "sektor": "Sektor Perdagangan",
        "nama_perusahaan": "DUTA INTIDAYA",
        "tanggal_daftar": "2022-07-27",
        "nomor_tanda_daftar": "003140.01/DJAI.PSE/07/2022",
        "qr_code": "https://pse.kominfo.go.id/storage/images/qr_code/02e8f0c336f0d78bce0d5f8346c90dd2.png",
        "status_id": "TERDAFTAR",
        "sistem_elektronik_id": 8821
      }
    }
  ]
}