{
  "meta": {
    "page": {
      "currentPage": 519,
      "from": 5181,
      "lastPage": 1005,
      "perPage": 10,
      "to": 5190,
      "total": 10048
    }
  },
  "data": [
    {
      "type": "tdpseTerbit",
      "id": 4396,
      "attributes": {
        "nomor_pb_umku": null,
        "nama": "PT JAYA BAYA SEJAHTERA",
        "website": "-",
        "sektor": "Sektor Perdagangan",
        "nama_perusahaan": "JAYADI",
        "tanggal_daftar": "2022-04-28",
        "nomor_tanda_daftar": "002636.01/DJAI.PSE/04/2022",
        "qr_code": "https://pse.kominfo.go.id/storage/images/qr_code/34b1621fd44e47b316177dc4943e919b.png",
        "status_id": "TERDAFTAR",
        "sistem_elektronik_id": 4380
      }
    },
    {
      "type": "tdpseTerbit",
      "id": 4395,
      "attributes": {
        "nomor_pb_umku": null,
        "nama": "Nuumi Pulsa",
        "website": "mpulsa.net",
        "sektor": "Sektor Perdagangan",
        "nama_perusahaan": "NUUMI HZM",
        "tanggal_daftar": "2022-04-28",
        "nomor_tanda_daftar": "002635.01/DJAI.PSE/04/2022",
        "qr_code": "https://pse.kominfo.go.id/storage/images/qr_code/1ae96b2e87d31d27c7114dc61dee4ba9.png",
        "status_id": "TERDAFTAR",
        "sistem_elektronik_id": 4379
      }
    },
    {
      "type": "tdpseTerbit",
      "id": 4394,
      "attributes": {
        "nomor_pb_umku": null,
        "nama": "Kepulauan Riau Indonesia Media",
        "website": "-",
        "sektor": "Sektor Teknologi Informasi dan Komunikasi",
        "nama_perusahaan": "HENDRO PRIYONO",
        "tanggal_daftar": "2022-04-27",
        "nomor_tanda_daftar": "002634.01/DJAI.PSE/04/2022",
        "qr_code": "https://pse.kominfo.go.id/storage/images/qr_code/9168c4cb6d3a7f8af5932d42ea8835db.png",
        "status_id": "TERDAFTAR",
        "sistem_elektronik_id": 4378
      }
    },
    {
      "type": "tdpseTerbit",
      "id": 4249,
      "attributes": {
        "nomor_pb_umku": null,
        "nama": "Majoo",
        "website": "www.majoo.id",
        "sektor": "Sektor Perdagangan",
        "nama_perusahaan": "MAJOO TEKNOLOGI INDONESIA",
        "tanggal_daftar": "2022-04-27",
        "nomor_tanda_daftar": "002633.01/DJAI.PSE/04/2022",
        "qr_code": "https://pse.kominfo.go.id/storage/images/qr_code/d3e936a4f4a9cfaad4ad2e22d1309b27.png",
        "status_id": "TERDAFTAR",
        "sistem_elektronik_id": 4244
      }
    },
    {
      "type": "tdpseTerbit",
      "id": 4392,
      "attributes": {
        "nomor_pb_umku": null,
        "nama": "lidipedia",
        "website": "lidipedia.com",
        "sektor": "Sektor Pangan, Sektor Perdagangan, Sektor Teknologi Informasi dan Komunikasi",
        "nama_perusahaan": "LIDI PEDIA INDONESIA",
        "tanggal_daftar": "2022-04-27",
        "nomor_tanda_daftar": "002631.01/DJAI.PSE/04/2022",
        "qr_code": "https://pse.kominfo.go.id/storage/images/qr_code/49f244d64f45366ed7586f032690819f.png",
        "status_id": "TERDAFTAR",
        "sistem_elektronik_id": 4376
      }
    },
    {
      "type": "tdpseTerbit",
      "id": 4391,
      "attributes": {
        "nomor_pb_umku": null,
        "nama": "Aplikasi Kargo Hermes Soft",
        "website": "-",
        "sektor": "Sektor Perdagangan, Sektor Teknologi Informasi dan Komunikasi",
        "nama_perusahaan": "AERO SYSTEMS INDONESIA",
        "tanggal_daftar": "2022-04-27",
        "nomor_tanda_daftar": "002630.02/DJAI.PSE/04/2022",
        "qr_code": "https://pse.kominfo.go.id/storage/images/qr_code/7f676940f0e333fc1ab9eff7f52f1ba5.png",
        "status_id": "TERDAFTAR",
        "sistem_elektronik_id": 4375
      }
    },
    {
      "type": "tdpseTerbit",
      "id": 4390,
      "attributes": {
        "nomor_pb_umku": null,
        "nama": "Kargo Hermes Soft",
        "website": "asyst.co.id",
        "sektor": "Sektor Perdagangan",
        "nama_perusahaan": "AERO SYSTEMS INDONESIA",
        "tanggal_daftar": "2022-04-27",
        "nomor_tanda_daftar": "002630.01/DJAI.PSE/04/2022",
        "qr_code": "https://pse.kominfo.go.id/storage/images/qr_code/c689fdc19f8b51a874ae3321420fb3e5.png",
        "status_id": "TERDAFTAR",
        "sistem_elektronik_id": 4374
      }
    },
    {
      "type": "tdpseTerbit",
      "id": 4389,
      "attributes": {
        "nomor_pb_umku": null,
        "nama": "JayJay Edukasi",
        "website": "jayjay.co",
        "sektor": "Sektor Teknologi Informasi dan Komunikasi",
        "nama_perusahaan": "JAY JAY EDUKASI",
        "tanggal_daftar": "2022-04-27",
        "nomor_tanda_daftar": "002629.01/DJAI.PSE/04/2022",
        "qr_code": "https://pse.kominfo.go.id/storage/images/qr_code/7678a021d93ebc3defc8427627c92153.png",
        "status_id": "TERDAFTAR",
        "sistem_elektronik_id": 4373
      }
    },
    {
      "type": "tdpseTerbit",
      "id": 4388,
      "attributes": {
        "nomor_pb_umku": null,
        "nama": "CitraPulsa",
        "website": "citrapulsa.me",
        "sektor": "Sektor Perdagangan",
        "nama_perusahaan": "JASINDO CITRA MAJU",
        "tanggal_daftar": "2022-04-27",
        "nomor_tanda_daftar": "002628.01/DJAI.PSE/04/2022",
        "qr_code": "https://pse.kominfo.go.id/storage/images/qr_code/2bff0b731df2d4bb2fbbb2f54f1017da.png",
        "status_id": "TERDAFTAR",
        "sistem_elektronik_id": 4372
      }
    },
    {
      "type": "tdpseTerbit",
      "id": 6396,
      "attributes": {
        "nomor_pb_umku": null,
        "nama": "Lifepal",
        "website": "Lifepal.co.id",
        "sektor": "Sektor Perdagangan",
        "nama_perusahaan": "LIFEPAL TECHNOLOGIES INDONESIA",
        "tanggal_daftar": "2022-04-26",
        "nomor_tanda_daftar": "002627.01/DJAI.PSE/04/2022",
        "qr_code": "https://pse.kominfo.go.id/storage/images/qr_code/a725c831499233aca1172c306b45dca4.png",
        "status_id": "TERDAFTAR",
        "sistem_elektronik_id": 3931
      }
    }
  ]
}