{
  "meta": {
    "page": {
      "currentPage": 520,
      "from": 5191,
      "lastPage": 1005,
      "perPage": 10,
      "to": 5200,
      "total": 10048
    }
  },
  "data": [
    {
      "type": "tdpseTerbit",
      "id": 9955,
      "attributes": {
        "nomor_pb_umku": "812010386155100010076",
        "nama": "WEBSITE SOWELL INDONESIA (WWW.SOWELL.CO.ID)",
        "website": "sowell.co.id",
        "sektor": "Sektor Perdagangan, Sektor Teknologi Informasi dan Komunikasi",
        "nama_perusahaan": "KRISBOW INDONESIA",
        "tanggal_daftar": "2022-08-05",
        "nomor_tanda_daftar": "002626.02/DJAI.PSE/08/2022",
        "qr_code": "https://pse.kominfo.go.id/storage/images/qr_code/eb0eca0fe99a883a01a1f89db6400af7.png",
        "status_id": "TERDAFTAR",
        "sistem_elektronik_id": 9844
      }
    },
    {
      "type": "tdpseTerbit",
      "id": 4046,
      "attributes": {
        "nomor_pb_umku": null,
        "nama": "Krisbow Indonesia E-Commerce",
        "website": "krisbow.com",
        "sektor": "Sektor Perdagangan",
        "nama_perusahaan": "KRISBOW INDONESIA",
        "tanggal_daftar": "2022-04-26",
        "nomor_tanda_daftar": "002626.01/DJAI.PSE/04/2022",
        "qr_code": "https://pse.kominfo.go.id/storage/images/qr_code/6eb4b2ff8ae7d1c3ea724ef57149c0e7.png",
        "status_id": "TERDAFTAR",
        "sistem_elektronik_id": 3925
      }
    },
    {
      "type": "tdpseTerbit",
      "id": 4045,
      "attributes": {
        "nomor_pb_umku": null,
        "nama": "SPADA",
        "website": "www.spada.id",
        "sektor": "Sektor Teknologi Informasi dan Komunikasi",
        "nama_perusahaan": "CHRISTIAN RAHARJO",
        "tanggal_daftar": "2022-04-26",
        "nomor_tanda_daftar": "002625.01/DJAI.PSE/04/2022",
        "qr_code": "https://pse.kominfo.go.id/storage/images/qr_code/bf0cd3e8499441519e244183ad3e1415.png",
        "status_id": "TERDAFTAR",
        "sistem_elektronik_id": 3879
      }
    },
    {
      "type": "tdpseTerbit",
      "id": 4044,
      "attributes": {
        "nomor_pb_umku": null,
        "nama": "Infinity Tech",
        "website": "-",
        "sektor": "Sektor Perdagangan, Sektor Teknologi Informasi dan Komunikasi",
        "nama_perusahaan": "ANUGERAH BINTANG UTAMA",
        "tanggal_daftar": "2022-04-26",
        "nomor_tanda_daftar": "002624.01/DJAI.PSE/04/2022",
        "qr_code": "https://pse.kominfo.go.id/storage/images/qr_code/8a3c6e4dc7b9173842ae333d90fc4d07.png",
        "status_id": "TERDAFTAR",
        "sistem_elektronik_id": 3819
      }
    },
    {
      "type": "tdpseTerbit",
      "id": 4040,
      "attributes": {
        "nomor_pb_umku": null,
        "nama": "OLD AMSTERDAM ANTIQUES",
        "website": "oldamsterdamantiques.com",
        "sektor": "Sektor Perdagangan",
        "nama_perusahaan": "KAMPOENG DJATI",
        "tanggal_daftar": "2022-04-26",
        "nomor_tanda_daftar": "002623.01/DJAI.PSE/04/2022",
        "qr_code": "https://pse.kominfo.go.id/storage/images/qr_code/59f622ddc222c9417ef2c7852026cf08.png",
        "status_id": "TERDAFTAR",
        "sistem_elektronik_id": 3904
      }
    },
    {
      "type": "tdpseTerbit",
      "id": 4036,
      "attributes": {
        "nomor_pb_umku": null,
        "nama": "Sevimapay",
        "website": "sentrafinansial.id",
        "sektor": "Sektor Teknologi Informasi dan Komunikasi",
        "nama_perusahaan": "SENTRA FINANSIAL TEKNOLOGI",
        "tanggal_daftar": "2022-04-26",
        "nomor_tanda_daftar": "002622.01/DJAI.PSE/04/2022",
        "qr_code": "https://pse.kominfo.go.id/storage/images/qr_code/26f843a1c50814ca482d9bbdcd2f3c87.png",
        "status_id": "TERDAFTAR",
        "sistem_elektronik_id": 3860
      }
    },
    {
      "type": "tdpseTerbit",
      "id": 4035,
      "attributes": {
        "nomor_pb_umku": null,
        "nama": "lifeforwin.com, lifeforwin.co.id, lifeforwin.id, lifeforwin.net",
        "website": "lifeforwin.co.id",
        "sektor": "Sektor Perdagangan",
        "nama_perusahaan": "GRAHA SUKSES MENDUNIA",
        "tanggal_daftar": "2022-04-26",
        "nomor_tanda_daftar": "002621.01/DJAI.PSE/04/2022",
        "qr_code": "https://pse.kominfo.go.id/storage/images/qr_code/40866b8ca115215cc294935d8d755a51.png",
        "status_id": "TERDAFTAR",
        "sistem_elektronik_id": 3790
      }
    },
    {
      "type": "tdpseTerbit",
      "id": 4034,
      "attributes": {
        "nomor_pb_umku": null,
        "nama": "iSeller",
        "website": "www.isellercommerce.com",
        "sektor": "Sektor Perdagangan",
        "nama_perusahaan": "INTERSOFT SOLUTIONS",
        "tanggal_daftar": "2022-04-26",
        "nomor_tanda_daftar": "002620.01/DJAI.PSE/04/2022",
        "qr_code": "https://pse.kominfo.go.id/storage/images/qr_code/0d9884f5bd42d54b82b5f6c4ebce58f0.png",
        "status_id": "TERDAFTAR",
        "sistem_elektronik_id": 3905
      }
    },
    {
      "type": "tdpseTerbit",
      "id": 4033,
      "attributes": {
        "nomor_pb_umku": null,
        "nama": "PT WELLNESS PINK PEONY GARDENIA",
        "website": "https://msha.ke/wellnesspinkpeonygardenia",
        "sektor": "Sektor Kesehatan, Sektor Pangan, Sektor Perdagangan",
        "nama_perusahaan": "ADE SRI MIYANTI",
        "tanggal_daftar": "2022-04-26",
        "nomor_tanda_daftar": "002619.01/DJAI.PSE/04/2022",
        "qr_code": "https://pse.kominfo.go.id/storage/images/qr_code/49c2e330cb2f8ed9ca95afeea0992c0d.png",
        "status_id": "TERDAFTAR",
        "sistem_elektronik_id": 3863
      }
    },
    {
      "type": "tdpseTerbit",
      "id": 4030,
      "attributes": {
        "nomor_pb_umku": null,
        "nama": "www.thebodyshop.co.id",
        "website": "www.thebodyshop.co.id",
        "sektor": "Sektor Perdagangan",
        "nama_perusahaan": "MONICA HIJAULESTARI",
        "tanggal_daftar": "2022-04-25",
        "nomor_tanda_daftar": "002618.01/DJAI.PSE/04/2022",
        "qr_code": "https://pse.kominfo.go.id/storage/images/qr_code/f7793e51645e19ea2a0f44991a382e53.png",
        "status_id": "TERDAFTAR",
        "sistem_elektronik_id": 3908
      }
    }
  ]
}