{
  "meta": {
    "page": {
      "currentPage": 53,
      "from": 521,
      "lastPage": 1086,
      "perPage": 10,
      "to": 530,
      "total": 10851
    }
  },
  "data": [
    {
      "type": "tdpseTerbit",
      "id": 11094,
      "attributes": {
        "nomor_pb_umku": "060722006478300070001",
        "nama": "INDIE MARKETFEST",
        "website": "indiemarketfest.com",
        "sektor": "Sektor Perdagangan",
        "nama_perusahaan": "INDIE MARKETINDO CERIA",
        "tanggal_daftar": "2022-09-07",
        "nomor_tanda_daftar": "007680.01/DJAI.PSE/09/2022",
        "qr_code": "https://pse.kominfo.go.id/storage/images/qr_code/3d804cbd440ad493bda38c3832a078aa.png",
        "status_id": "TERDAFTAR",
        "sistem_elektronik_id": 10896
      }
    },
    {
      "type": "tdpseTerbit",
      "id": 11102,
      "attributes": {
        "nomor_pb_umku": "310122002172500020002",
        "nama": "BAHARITAXI",
        "website": "baharitaxi.com",
        "sektor": "Sektor Transportasi",
        "nama_perusahaan": "SERBA USAHA SEDANA BAHARI TRANSPORT BENOA",
        "tanggal_daftar": "2022-09-08",
        "nomor_tanda_daftar": "007679.02/DJAI.PSE/09/2022",
        "qr_code": "https://pse.kominfo.go.id/storage/images/qr_code/eaa9b5647150bcc86900b673ee185e85.png",
        "status_id": "TERDAFTAR",
        "sistem_elektronik_id": 10904
      }
    },
    {
      "type": "tdpseTerbit",
      "id": 11090,
      "attributes": {
        "nomor_pb_umku": "310122002172500020001",
        "nama": "BAHARI TAXI",
        "website": "baharitaxi.com",
        "sektor": "Sektor Transportasi",
        "nama_perusahaan": "SERBA USAHA SEDANA BAHARI TRANSPORT BENOA",
        "tanggal_daftar": "2022-09-07",
        "nomor_tanda_daftar": "007679.01/DJAI.PSE/09/2022",
        "qr_code": "https://pse.kominfo.go.id/storage/images/qr_code/6332891ae37770d19ebdbefd39ceea2b.png",
        "status_id": "TERDAFTAR",
        "sistem_elektronik_id": 10892
      }
    },
    {
      "type": "tdpseTerbit",
      "id": 11087,
      "attributes": {
        "nomor_pb_umku": "026201012252700000001",
        "nama": "DIBUANG.COM",
        "website": "dibuang.com",
        "sektor": "Sektor Teknologi Informasi dan Komunikasi",
        "nama_perusahaan": "BUMI INDAH BERSIH",
        "tanggal_daftar": "2022-09-07",
        "nomor_tanda_daftar": "007678.01/DJAI.PSE/09/2022",
        "qr_code": "https://pse.kominfo.go.id/storage/images/qr_code/84629027840973e69dc36df94c11203c.png",
        "status_id": "TERDAFTAR",
        "sistem_elektronik_id": 10889
      }
    },
    {
      "type": "tdpseTerbit",
      "id": 11115,
      "attributes": {
        "nomor_pb_umku": "310822003419100000001",
        "nama": "DAISI APP",
        "website": "DAISI.ID",
        "sektor": "Sektor Perdagangan, Sektor Teknologi Informasi dan Komunikasi",
        "nama_perusahaan": "TIMKADO SEJAHTERA INDONESIA",
        "tanggal_daftar": "2022-09-09",
        "nomor_tanda_daftar": "007677.01/DJAI.PSE/09/2022",
        "qr_code": "https://pse.kominfo.go.id/storage/images/qr_code/9757b7b9f3012fe888b097e35283292c.png",
        "status_id": "TERDAFTAR",
        "sistem_elektronik_id": 10917
      }
    },
    {
      "type": "tdpseTerbit",
      "id": 11108,
      "attributes": {
        "nomor_pb_umku": "912030574075400030001",
        "nama": "ANDIAGA",
        "website": "andiaga.com",
        "sektor": "Sektor Perdagangan",
        "nama_perusahaan": "ANDROMEDA KARYA CEMERLANG",
        "tanggal_daftar": "2022-09-08",
        "nomor_tanda_daftar": "007676.01/DJAI.PSE/09/2022",
        "qr_code": "https://pse.kominfo.go.id/storage/images/qr_code/a0efba5b02f6cae97fd7a1f7ebfdea62.png",
        "status_id": "TERDAFTAR",
        "sistem_elektronik_id": 10910
      }
    },
    {
      "type": "tdpseTerbit",
      "id": 11120,
      "attributes": {
        "nomor_pb_umku": "070922012624300000002",
        "nama": "MEDANDAY",
        "website": "medan.day",
        "sektor": "Sektor Perdagangan, Sektor Transportasi, Sektor Teknologi Informasi dan Komunikasi",
        "nama_perusahaan": "TAUFIK",
        "tanggal_daftar": "2022-09-09",
        "nomor_tanda_daftar": "007675.02/DJAI.PSE/09/2022",
        "qr_code": "https://pse.kominfo.go.id/storage/images/qr_code/51fe4d6ea7a6b211bbfa987207298cf4.png",
        "status_id": "TERDAFTAR",
        "sistem_elektronik_id": 10924
      }
    },
    {
      "type": "tdpseTerbit",
      "id": 11085,
      "attributes": {
        "nomor_pb_umku": "070922012624300000001",
        "nama": "INDOTEMA.COM",
        "website": "indotema.com",
        "sektor": "Sektor Teknologi Informasi dan Komunikasi",
        "nama_perusahaan": "TAUFIK",
        "tanggal_daftar": "2022-09-07",
        "nomor_tanda_daftar": "007675.01/DJAI.PSE/09/2022",
        "qr_code": "https://pse.kominfo.go.id/storage/images/qr_code/343de91ed9e24a02845b5d9cc19b1973.png",
        "status_id": "TERDAFTAR",
        "sistem_elektronik_id": 10887
      }
    },
    {
      "type": "tdpseTerbit",
      "id": 11119,
      "attributes": {
        "nomor_pb_umku": "812000982048300020003",
        "nama": "TRADE REGISTRATION CLIENT",
        "website": "-",
        "sektor": "Sektor Perdagangan, Sektor Keuangan",
        "nama_perusahaan": "DANPAC FINANSA UTAMA",
        "tanggal_daftar": "2022-09-09",
        "nomor_tanda_daftar": "007674.03/DJAI.PSE/09/2022",
        "qr_code": "https://pse.kominfo.go.id/storage/images/qr_code/f6feb945e4bd481bb0e18fa412a5074f.png",
        "status_id": "TERDAFTAR",
        "sistem_elektronik_id": 10923
      }
    },
    {
      "type": "tdpseTerbit",
      "id": 11092,
      "attributes": {
        "nomor_pb_umku": "812000982048300020002",
        "nama": "META TRADER",
        "website": "-",
        "sektor": "Sektor Perdagangan, Sektor Keuangan",
        "nama_perusahaan": "DANPAC FINANSA UTAMA",
        "tanggal_daftar": "2022-09-07",
        "nomor_tanda_daftar": "007674.02/DJAI.PSE/09/2022",
        "qr_code": "https://pse.kominfo.go.id/storage/images/qr_code/1a3bf0292b008e1bacb7e5063ad9e346.png",
        "status_id": "TERDAFTAR",
        "sistem_elektronik_id": 10894
      }
    }
  ]
}