{
  "meta": {
    "page": {
      "currentPage": 523,
      "from": 5221,
      "lastPage": 978,
      "perPage": 10,
      "to": 5230,
      "total": 9774
    }
  },
  "data": [
    {
      "type": "tdpseTerbit",
      "id": 4363,
      "attributes": {
        "nomor_pb_umku": null,
        "nama": "BRIMO (Mobile Banking App.Bank BRI)",
        "website": "-",
        "sektor": "Sektor Keuangan, Sektor Teknologi Informasi dan Komunikasi",
        "nama_perusahaan": "PERUSAHAAN PERSEROAN (PERSERO) PT. BANK RAKYAT INDONESIA",
        "tanggal_daftar": "2022-04-28",
        "nomor_tanda_daftar": "002468.06/DJAI.PSE/04/2022",
        "qr_code": "https://pse.kominfo.go.id/storage/images/qr_code/75e577794ddf4492db6b54d92c128901.png",
        "status_id": "TERDAFTAR",
        "sistem_elektronik_id": 4349
      }
    },
    {
      "type": "tdpseTerbit",
      "id": 4049,
      "attributes": {
        "nomor_pb_umku": null,
        "nama": "BRIAPI",
        "website": "developers.bri.co.id",
        "sektor": "Sektor Keuangan, Sektor Teknologi Informasi dan Komunikasi",
        "nama_perusahaan": "PERUSAHAAN PERSEROAN (PERSERO) PT. BANK RAKYAT INDONESIA",
        "tanggal_daftar": "2022-04-27",
        "nomor_tanda_daftar": "002468.05/DJAI.PSE/04/2022",
        "qr_code": "https://pse.kominfo.go.id/storage/images/qr_code/64d344bd73c233b0a21220fc9579a282.png",
        "status_id": "TERDAFTAR",
        "sistem_elektronik_id": 3937
      }
    },
    {
      "type": "tdpseTerbit",
      "id": 4041,
      "attributes": {
        "nomor_pb_umku": null,
        "nama": "BRISPOT",
        "website": "Brispot.bri.co.id",
        "sektor": "Sektor Keuangan, Sektor Teknologi Informasi dan Komunikasi",
        "nama_perusahaan": "PERUSAHAAN PERSEROAN (PERSERO) PT. BANK RAKYAT INDONESIA",
        "tanggal_daftar": "2022-04-26",
        "nomor_tanda_daftar": "002468.04/DJAI.PSE/04/2022",
        "qr_code": "https://pse.kominfo.go.id/storage/images/qr_code/94b0aea5c27b4fb4b2b6fb4453fef30d.png",
        "status_id": "TERDAFTAR",
        "sistem_elektronik_id": 3936
      }
    },
    {
      "type": "tdpseTerbit",
      "id": 6447,
      "attributes": {
        "nomor_pb_umku": null,
        "nama": "BRIefx Client",
        "website": "briefx.bri.co.id",
        "sektor": "Sektor Keuangan",
        "nama_perusahaan": "PERUSAHAAN PERSEROAN (PERSERO) PT. BANK RAKYAT INDONESIA",
        "tanggal_daftar": "2022-04-19",
        "nomor_tanda_daftar": "002468.03/DJAI.PSE/04/2022",
        "qr_code": "https://pse.kominfo.go.id/storage/images/qr_code/02207f8d46b085160a27d2f7a84029e0.png",
        "status_id": "TERDAFTAR",
        "sistem_elektronik_id": 3935
      }
    },
    {
      "type": "tdpseTerbit",
      "id": 3803,
      "attributes": {
        "nomor_pb_umku": null,
        "nama": "Cash Management System BRI",
        "website": "ibank.bri.co.id",
        "sektor": "Sektor Keuangan",
        "nama_perusahaan": "PERUSAHAAN PERSEROAN (PERSERO) PT. BANK RAKYAT INDONESIA",
        "tanggal_daftar": "2022-04-07",
        "nomor_tanda_daftar": "002468.02/DJAI.PSE/04/2022",
        "qr_code": "https://pse.kominfo.go.id/storage/images/qr_code/b4c1e8960bd9f0bb8a78fda2a416f70f.png",
        "status_id": "TERDAFTAR",
        "sistem_elektronik_id": 3934
      }
    },
    {
      "type": "tdpseTerbit",
      "id": 3802,
      "attributes": {
        "nomor_pb_umku": null,
        "nama": "BRICAMS",
        "website": "cms.bri.co.id",
        "sektor": "Sektor Keuangan",
        "nama_perusahaan": "PERUSAHAAN PERSEROAN (PERSERO) PT. BANK RAKYAT INDONESIA",
        "tanggal_daftar": "2022-04-07",
        "nomor_tanda_daftar": "002468.01/DJAI.PSE/04/2022",
        "qr_code": "https://pse.kominfo.go.id/storage/images/qr_code/44d801e00343eec68be66f5d32d7a7c5.png",
        "status_id": "TERDAFTAR",
        "sistem_elektronik_id": 3933
      }
    },
    {
      "type": "tdpseTerbit",
      "id": 3798,
      "attributes": {
        "nomor_pb_umku": null,
        "nama": "ONEMED STORE",
        "website": "onemedstore.id",
        "sektor": "Sektor Kesehatan, Sektor Perdagangan",
        "nama_perusahaan": "PT INTI MEDICOM RETAILINDO",
        "tanggal_daftar": "2022-04-07",
        "nomor_tanda_daftar": "002467.01/DJAI.PSE/04/2022",
        "qr_code": "https://pse.kominfo.go.id/storage/images/qr_code/3fc463cc73ee8377d800c47ddcb0d653.png",
        "status_id": "TERDAFTAR",
        "sistem_elektronik_id": 3926
      }
    },
    {
      "type": "tdpseTerbit",
      "id": 3807,
      "attributes": {
        "nomor_pb_umku": null,
        "nama": "Herbalife Nutrition Point Of Sales",
        "website": "-",
        "sektor": "Sektor Perdagangan",
        "nama_perusahaan": "HERBALIFE INDONESIA",
        "tanggal_daftar": "2022-04-07",
        "nomor_tanda_daftar": "002466.04/DJAI.PSE/04/2022",
        "qr_code": "https://pse.kominfo.go.id/storage/images/qr_code/8acfbeb0223a8f3e6026d7af003ed027.png",
        "status_id": "TERDAFTAR",
        "sistem_elektronik_id": 3924
      }
    },
    {
      "type": "tdpseTerbit",
      "id": 3801,
      "attributes": {
        "nomor_pb_umku": null,
        "nama": "Herbalife Distributor Order",
        "website": "-",
        "sektor": "Sektor Perdagangan",
        "nama_perusahaan": "HERBALIFE INDONESIA",
        "tanggal_daftar": "2022-04-07",
        "nomor_tanda_daftar": "002466.03/DJAI.PSE/04/2022",
        "qr_code": "https://pse.kominfo.go.id/storage/images/qr_code/ed8476a02cefa9ebb85e1f4b87894709.png",
        "status_id": "TERDAFTAR",
        "sistem_elektronik_id": 3923
      }
    },
    {
      "type": "tdpseTerbit",
      "id": 3797,
      "attributes": {
        "nomor_pb_umku": null,
        "nama": "myHerbalife.com",
        "website": "myHerbalife.com",
        "sektor": "Sektor Perdagangan",
        "nama_perusahaan": "HERBALIFE INDONESIA",
        "tanggal_daftar": "2022-04-07",
        "nomor_tanda_daftar": "002466.02/DJAI.PSE/04/2022",
        "qr_code": "https://pse.kominfo.go.id/storage/images/qr_code/3f96817607e3607dcc9e6f8c8f0296c6.png",
        "status_id": "TERDAFTAR",
        "sistem_elektronik_id": 3922
      }
    }
  ]
}