{
  "meta": {
    "page": {
      "currentPage": 525,
      "from": 5241,
      "lastPage": 1097,
      "perPage": 10,
      "to": 5250,
      "total": 10962
    }
  },
  "data": [
    {
      "type": "tdpseTerbit",
      "id": 5004,
      "attributes": {
        "nomor_pb_umku": "010722003362300000001",
        "nama": "CITCALL",
        "website": "citcall.com",
        "sektor": "Sektor Teknologi Informasi dan Komunikasi",
        "nama_perusahaan": "CITCALL TEKNOLOGI INDONESIA",
        "tanggal_daftar": "2022-07-01",
        "nomor_tanda_daftar": "003631.01/DJAI.PSE/07/2022",
        "qr_code": "https://pse.kominfo.go.id/storage/images/qr_code/48e0ae46d7e699881cf3da45a92f63ff.png",
        "status_id": "TERDAFTAR",
        "sistem_elektronik_id": 4872
      }
    },
    {
      "type": "tdpseTerbit",
      "id": 5002,
      "attributes": {
        "nomor_pb_umku": "200622006146600000001",
        "nama": "TOKOFANS",
        "website": "tokofans.co.id",
        "sektor": "Sektor Perdagangan",
        "nama_perusahaan": "TOKOFANS SMM INDONESIA",
        "tanggal_daftar": "2022-09-13",
        "nomor_tanda_daftar": "003630.01/DJAI.PSE/07/2022",
        "qr_code": "https://pse.kominfo.go.id/storage/images/qr_code/e3fa1820a2002cc6a110087ce07970cd.png",
        "status_id": "TERDAFTAR",
        "sistem_elektronik_id": 4871
      }
    },
    {
      "type": "tdpseTerbit",
      "id": 5528,
      "attributes": {
        "nomor_pb_umku": "812000390167501850007",
        "nama": "INDOMOBIL FINANCE INDONESIA (IMFI) VENDOR BIDDING",
        "website": "vendorbidding.indomobilfinance.com",
        "sektor": "Sektor Keuangan",
        "nama_perusahaan": "INDOMOBIL FINANCE INDONESIA",
        "tanggal_daftar": "2022-07-14",
        "nomor_tanda_daftar": "003628.07/DJAI.PSE/07/2022",
        "qr_code": "https://pse.kominfo.go.id/storage/images/qr_code/377e3aa431b89e2b819943edd4ba7c7a.png",
        "status_id": "TERDAFTAR",
        "sistem_elektronik_id": 5395
      }
    },
    {
      "type": "tdpseTerbit",
      "id": 5372,
      "attributes": {
        "nomor_pb_umku": "812000390167501850006",
        "nama": "IMFI MIKRO",
        "website": "-",
        "sektor": "Sektor Keuangan",
        "nama_perusahaan": "INDOMOBIL FINANCE INDONESIA",
        "tanggal_daftar": "2022-07-12",
        "nomor_tanda_daftar": "003628.06/DJAI.PSE/07/2022",
        "qr_code": "https://pse.kominfo.go.id/storage/images/qr_code/133d8c16d9c43bb70e651b9c54361fa1.png",
        "status_id": "TERDAFTAR",
        "sistem_elektronik_id": 5242
      }
    },
    {
      "type": "tdpseTerbit",
      "id": 5362,
      "attributes": {
        "nomor_pb_umku": "812000390167501850005",
        "nama": "KENDARAANBEKAS",
        "website": "kendaraanbekas.com",
        "sektor": "Sektor Keuangan",
        "nama_perusahaan": "INDOMOBIL FINANCE INDONESIA",
        "tanggal_daftar": "2022-07-12",
        "nomor_tanda_daftar": "003628.05/DJAI.PSE/07/2022",
        "qr_code": "https://pse.kominfo.go.id/storage/images/qr_code/4db8df37033a2028c3e910bd56a2cb79.png",
        "status_id": "TERDAFTAR",
        "sistem_elektronik_id": 5234
      }
    },
    {
      "type": "tdpseTerbit",
      "id": 5360,
      "attributes": {
        "nomor_pb_umku": "812000390167501850004",
        "nama": "INDOMOBIL FINANCE INDONESIA (IMFI) KENDARAANBEKAS.COM",
        "website": "kendaraanbekas.com",
        "sektor": "Sektor Keuangan",
        "nama_perusahaan": "INDOMOBIL FINANCE INDONESIA",
        "tanggal_daftar": "2022-07-12",
        "nomor_tanda_daftar": "003628.04/DJAI.PSE/07/2022",
        "qr_code": "https://pse.kominfo.go.id/storage/images/qr_code/da41c0552e4a2767afd30326c5d27451.png",
        "status_id": "TERDAFTAR",
        "sistem_elektronik_id": 5233
      }
    },
    {
      "type": "tdpseTerbit",
      "id": 5358,
      "attributes": {
        "nomor_pb_umku": "812000390167501850003",
        "nama": "IMFI EZ FOR YOU",
        "website": "-",
        "sektor": "Sektor Keuangan",
        "nama_perusahaan": "INDOMOBIL FINANCE INDONESIA",
        "tanggal_daftar": "2022-07-12",
        "nomor_tanda_daftar": "003628.03/DJAI.PSE/07/2022",
        "qr_code": "https://pse.kominfo.go.id/storage/images/qr_code/9da1bb7321495218a364b383dc9a3140.png",
        "status_id": "TERDAFTAR",
        "sistem_elektronik_id": 5231
      }
    },
    {
      "type": "tdpseTerbit",
      "id": 5355,
      "attributes": {
        "nomor_pb_umku": "812000390167501850002",
        "nama": "INDOMOBIL FINANCE INDONESIA (IMFI) PRODUCT WEBSITE",
        "website": "imfi.co.id",
        "sektor": "Sektor Keuangan",
        "nama_perusahaan": "INDOMOBIL FINANCE INDONESIA",
        "tanggal_daftar": "2022-07-12",
        "nomor_tanda_daftar": "003628.02/DJAI.PSE/07/2022",
        "qr_code": "https://pse.kominfo.go.id/storage/images/qr_code/e2103ffdf19ee0f890e1381474429375.png",
        "status_id": "TERDAFTAR",
        "sistem_elektronik_id": 5228
      }
    },
    {
      "type": "tdpseTerbit",
      "id": 5171,
      "attributes": {
        "nomor_pb_umku": "812000390167501850001",
        "nama": "INDOMOBIL FINANCE INDONESIA (IMFI) WEBSITE",
        "website": "indomobilfinance.com",
        "sektor": "Sektor Keuangan",
        "nama_perusahaan": "INDOMOBIL FINANCE INDONESIA",
        "tanggal_daftar": "2022-07-07",
        "nomor_tanda_daftar": "003628.01/DJAI.PSE/07/2022",
        "qr_code": "https://pse.kominfo.go.id/storage/images/qr_code/44d8428393f8c95737ff63abac57cb1d.png",
        "status_id": "TERDAFTAR",
        "sistem_elektronik_id": 5037
      }
    },
    {
      "type": "tdpseTerbit",
      "id": 5001,
      "attributes": {
        "nomor_pb_umku": "180622000116400020001",
        "nama": "FIXPULSA",
        "website": "fixpulsa.top",
        "sektor": "Sektor Perdagangan",
        "nama_perusahaan": "SURYA SENTOSA SELALU",
        "tanggal_daftar": "2022-07-01",
        "nomor_tanda_daftar": "003627.01/DJAI.PSE/07/2022",
        "qr_code": "https://pse.kominfo.go.id/storage/images/qr_code/9f31c80b3c7d23e15737c2fb07bf9d6d.png",
        "status_id": "TERDAFTAR",
        "sistem_elektronik_id": 4870
      }
    }
  ]
}