{
  "meta": {
    "page": {
      "currentPage": 526,
      "from": 5251,
      "lastPage": 1085,
      "perPage": 10,
      "to": 5260,
      "total": 10842
    }
  },
  "data": [
    {
      "type": "tdpseTerbit",
      "id": 4954,
      "attributes": {
        "nomor_pb_umku": "160921002393400030002",
        "nama": "MOSTRANS E-POD",
        "website": "mostrans.co.id",
        "sektor": "Sektor Keuangan",
        "nama_perusahaan": "MOSTRANS GLOBAL DIGILOG",
        "tanggal_daftar": "2022-06-29",
        "nomor_tanda_daftar": "003527.02/DJAI.PSE/06/2022",
        "qr_code": "https://pse.kominfo.go.id/storage/images/qr_code/04ea4c6f186c9d8f0d4f1314f3eb65e9.png",
        "status_id": "TERDAFTAR",
        "sistem_elektronik_id": 4822
      }
    },
    {
      "type": "tdpseTerbit",
      "id": 4952,
      "attributes": {
        "nomor_pb_umku": "160921002393400030001",
        "nama": "MOSTRANS",
        "website": "mostrans.co.id",
        "sektor": "Sektor Transportasi",
        "nama_perusahaan": "MOSTRANS GLOBAL DIGILOG",
        "tanggal_daftar": "2022-06-29",
        "nomor_tanda_daftar": "003527.01/DJAI.PSE/06/2022",
        "qr_code": "https://pse.kominfo.go.id/storage/images/qr_code/f0b0fc13d3fb440cad10923dacc079ae.png",
        "status_id": "TERDAFTAR",
        "sistem_elektronik_id": 4820
      }
    },
    {
      "type": "tdpseTerbit",
      "id": 4942,
      "attributes": {
        "nomor_pb_umku": "150222001129900000001",
        "nama": "PRISMAKLIK",
        "website": "prismaklik.com",
        "sektor": "Sektor Perdagangan",
        "nama_perusahaan": "PRISMA SOLUSINDO",
        "tanggal_daftar": "2022-06-29",
        "nomor_tanda_daftar": "003521.01/DJAI.PSE/06/2022",
        "qr_code": "https://pse.kominfo.go.id/storage/images/qr_code/56635bb201639c821add5746a083a3bb.png",
        "status_id": "TERDAFTAR",
        "sistem_elektronik_id": 4804
      }
    },
    {
      "type": "tdpseTerbit",
      "id": 6534,
      "attributes": {
        "nomor_pb_umku": "127100054022800020002",
        "nama": "GLIMCASH",
        "website": "-",
        "sektor": "Sektor Teknologi Informasi dan Komunikasi",
        "nama_perusahaan": "GLIM MEDIA INDONESIA",
        "tanggal_daftar": "2022-07-19",
        "nomor_tanda_daftar": "003520.02/DJAI.PSE/07/2022",
        "qr_code": "https://pse.kominfo.go.id/storage/images/qr_code/cf4a35683382a3cee4e017818f1f8fbd.png",
        "status_id": "TERDAFTAR",
        "sistem_elektronik_id": 6349
      }
    },
    {
      "type": "tdpseTerbit",
      "id": 4936,
      "attributes": {
        "nomor_pb_umku": "127100054022800020001",
        "nama": "APLIKASI GLIM CHAT",
        "website": "-",
        "sektor": "Sektor Teknologi Informasi dan Komunikasi",
        "nama_perusahaan": "GLIM MEDIA INDONESIA",
        "tanggal_daftar": "2022-06-29",
        "nomor_tanda_daftar": "003520.01/DJAI.PSE/06/2022",
        "qr_code": "https://pse.kominfo.go.id/storage/images/qr_code/ea80c0fefbac9df99bdea4ec8a8acabf.png",
        "status_id": "TERDAFTAR",
        "sistem_elektronik_id": 4762
      }
    },
    {
      "type": "tdpseTerbit",
      "id": 4884,
      "attributes": {
        "nomor_pb_umku": "912010063217900000001",
        "nama": "DOCTORTOOL",
        "website": "doctortool.id",
        "sektor": "Sektor Kesehatan",
        "nama_perusahaan": "MEDIFA INFOYASA SURYANTARA",
        "tanggal_daftar": "2022-06-28",
        "nomor_tanda_daftar": "003519.01/DJAI.PSE/06/2022",
        "qr_code": "https://pse.kominfo.go.id/storage/images/qr_code/c35bc3a4fddaa0975b909d3dfda330c4.png",
        "status_id": "TERDAFTAR",
        "sistem_elektronik_id": 4752
      }
    },
    {
      "type": "tdpseTerbit",
      "id": 11872,
      "attributes": {
        "nomor_pb_umku": "128100244139300060004",
        "nama": "BLITZNET",
        "website": "blitznet.co.id",
        "sektor": "Sektor Perdagangan, Sektor Teknologi Informasi dan Komunikasi",
        "nama_perusahaan": "BLITZNET UPAYA INDONESIA",
        "tanggal_daftar": "2022-10-18",
        "nomor_tanda_daftar": "003518.03/DJAI.PSE/10/2022",
        "qr_code": "https://pse.kominfo.go.id/storage/images/qr_code/44077f312578400941abd17b2649c579.png",
        "status_id": "TERDAFTAR",
        "sistem_elektronik_id": 11674
      }
    },
    {
      "type": "tdpseTerbit",
      "id": 11871,
      "attributes": {
        "nomor_pb_umku": "128100244139300060003",
        "nama": "BLITZNET.CO.ID",
        "website": "blitznet.co.id",
        "sektor": "Sektor Perdagangan, Sektor Teknologi Informasi dan Komunikasi",
        "nama_perusahaan": "BLITZNET UPAYA INDONESIA",
        "tanggal_daftar": "2022-10-18",
        "nomor_tanda_daftar": "003518.02/DJAI.PSE/10/2022",
        "qr_code": "https://pse.kominfo.go.id/storage/images/qr_code/8c6f98836685da25656ba44984a955eb.png",
        "status_id": "TERDAFTAR",
        "sistem_elektronik_id": 11673
      }
    },
    {
      "type": "tdpseTerbit",
      "id": 5079,
      "attributes": {
        "nomor_pb_umku": "128100244139300060002",
        "nama": "AWS INDONESIA",
        "website": "blitznet.co.id",
        "sektor": "Sektor Perdagangan, Sektor Teknologi Informasi dan Komunikasi",
        "nama_perusahaan": "BLITZNET UPAYA INDONESIA",
        "tanggal_daftar": "2022-07-05",
        "nomor_tanda_daftar": "003518.01/DJAI.PSE/07/2022",
        "qr_code": "https://pse.kominfo.go.id/storage/images/qr_code/a1bdc28d53d26dc1ab058963ce1c5d91.png",
        "status_id": "TERDAFTAR",
        "sistem_elektronik_id": 4944
      }
    },
    {
      "type": "tdpseTerbit",
      "id": 11553,
      "attributes": {
        "nomor_pb_umku": "912030986115600010012",
        "nama": "ECLAIM",
        "website": "eclaim.bcainsurance.co.id",
        "sektor": "Sektor Keuangan",
        "nama_perusahaan": "ASURANSI UMUM BCA",
        "tanggal_daftar": "2022-10-05",
        "nomor_tanda_daftar": "003517.12/DJAI.PSE/10/2022",
        "qr_code": "https://pse.kominfo.go.id/storage/images/qr_code/4bf4d69e56309798131aa14fc25ff1cd.png",
        "status_id": "TERDAFTAR",
        "sistem_elektronik_id": 11360
      }
    }
  ]
}