{
  "meta": {
    "page": {
      "currentPage": 527,
      "from": 5261,
      "lastPage": 1044,
      "perPage": 10,
      "to": 5270,
      "total": 10437
    }
  },
  "data": [
    {
      "type": "tdpseTerbit",
      "id": 4310,
      "attributes": {
        "nomor_pb_umku": "091221004417800030002",
        "nama": "CV.MANDRAKARTA",
        "website": "mandrakarta.id",
        "sektor": "Sektor Perdagangan",
        "nama_perusahaan": "MANDRAKARTA",
        "tanggal_daftar": "2022-06-09",
        "nomor_tanda_daftar": "003085.02/DJAI.PSE/06/2022",
        "qr_code": "https://pse.kominfo.go.id/storage/images/qr_code/b48ed77c11648ef0dfbae148c037913d.png",
        "status_id": "TERDAFTAR",
        "sistem_elektronik_id": 4303
      }
    },
    {
      "type": "tdpseTerbit",
      "id": 4309,
      "attributes": {
        "nomor_pb_umku": "091221004417800030001",
        "nama": "MANDRAKARTA",
        "website": "mandrakarta.id",
        "sektor": "Sektor Perdagangan",
        "nama_perusahaan": "MANDRAKARTA",
        "tanggal_daftar": "2022-06-09",
        "nomor_tanda_daftar": "003085.01/DJAI.PSE/06/2022",
        "qr_code": "https://pse.kominfo.go.id/storage/images/qr_code/5355f0e0dd2012c846a729eedf4b3b02.png",
        "status_id": "TERDAFTAR",
        "sistem_elektronik_id": 4302
      }
    },
    {
      "type": "tdpseTerbit",
      "id": 4317,
      "attributes": {
        "nomor_pb_umku": "812031112185100020001",
        "nama": "ANNORA JAYA ABADI",
        "website": "indonesiavisaservice.com",
        "sektor": "Sektor Perdagangan",
        "nama_perusahaan": "ANNORA JAYA ABADI",
        "tanggal_daftar": "2022-06-10",
        "nomor_tanda_daftar": "003084.01/DJAI.PSE/06/2022",
        "qr_code": "https://pse.kominfo.go.id/storage/images/qr_code/0d4306a2c8b0ca68d8998e5f531a3e1a.png",
        "status_id": "TERDAFTAR",
        "sistem_elektronik_id": 4310
      }
    },
    {
      "type": "tdpseTerbit",
      "id": 4299,
      "attributes": {
        "nomor_pb_umku": "140522000072700040001",
        "nama": "GOPOP",
        "website": "-",
        "sektor": "Sektor Transportasi",
        "nama_perusahaan": "GLOBAL ANUGRAH SARANA",
        "tanggal_daftar": "2022-06-08",
        "nomor_tanda_daftar": "003081.01/DJAI.PSE/06/2022",
        "qr_code": "https://pse.kominfo.go.id/storage/images/qr_code/3519dc1c39fbf89d5e10042fc0dd8e6a.png",
        "status_id": "TERDAFTAR",
        "sistem_elektronik_id": 4292
      }
    },
    {
      "type": "tdpseTerbit",
      "id": 4300,
      "attributes": {
        "nomor_pb_umku": "912011318183600010002",
        "nama": "WATULINTANG MEDIA",
        "website": "watulintang.com",
        "sektor": "Sektor Perdagangan, Sektor Teknologi Informasi dan Komunikasi",
        "nama_perusahaan": "WATULINTANG MEDIA",
        "tanggal_daftar": "2022-06-08",
        "nomor_tanda_daftar": "003079.02/DJAI.PSE/06/2022",
        "qr_code": "https://pse.kominfo.go.id/storage/images/qr_code/c75e250de5c634710b0d825729071369.png",
        "status_id": "TERDAFTAR",
        "sistem_elektronik_id": 4293
      }
    },
    {
      "type": "tdpseTerbit",
      "id": 4298,
      "attributes": {
        "nomor_pb_umku": "912011318183600010001",
        "nama": "SEKOLAHKITA NET",
        "website": "sekolahkita.net",
        "sektor": "Sektor Teknologi Informasi dan Komunikasi",
        "nama_perusahaan": "WATULINTANG MEDIA",
        "tanggal_daftar": "2022-06-08",
        "nomor_tanda_daftar": "003079.01/DJAI.PSE/06/2022",
        "qr_code": "https://pse.kominfo.go.id/storage/images/qr_code/1ec19f11551f4bae1d2f0d1b5bc894a3.png",
        "status_id": "TERDAFTAR",
        "sistem_elektronik_id": 4291
      }
    },
    {
      "type": "tdpseTerbit",
      "id": 4311,
      "attributes": {
        "nomor_pb_umku": "027701101272700010001",
        "nama": "SIMASBID",
        "website": "balailelangsimas.id",
        "sektor": "Sektor Perdagangan",
        "nama_perusahaan": "BALAI LELANG SINARMAS",
        "tanggal_daftar": "2022-06-09",
        "nomor_tanda_daftar": "003077.01/DJAI.PSE/06/2022",
        "qr_code": "https://pse.kominfo.go.id/storage/images/qr_code/8eb3d5f68bd3848f4b18980dfd6d20a7.png",
        "status_id": "TERDAFTAR",
        "sistem_elektronik_id": 4304
      }
    },
    {
      "type": "tdpseTerbit",
      "id": 5154,
      "attributes": {
        "nomor_pb_umku": "080622002914200000001",
        "nama": "TELEPANDU",
        "website": "-",
        "sektor": "Sektor Kesehatan",
        "nama_perusahaan": "TELEMEDISIN PADJADJARAN TERPANDU",
        "tanggal_daftar": "2022-07-06",
        "nomor_tanda_daftar": "003076.01/DJAI.PSE/07/2022",
        "qr_code": "https://pse.kominfo.go.id/storage/images/qr_code/0e55b6b3877ceafeb3e07dec3f93c912.png",
        "status_id": "TERDAFTAR",
        "sistem_elektronik_id": 5017
      }
    },
    {
      "type": "tdpseTerbit",
      "id": 4306,
      "attributes": {
        "nomor_pb_umku": "022000338138700000001",
        "nama": "KASKU",
        "website": "kasku.id",
        "sektor": "Sektor Keuangan, Sektor Teknologi Informasi dan Komunikasi",
        "nama_perusahaan": "SOMA KARYA GEMILANG",
        "tanggal_daftar": "2022-06-09",
        "nomor_tanda_daftar": "003075.01/DJAI.PSE/06/2022",
        "qr_code": "https://pse.kominfo.go.id/storage/images/qr_code/14e0b86733338ec5bbeb649ea1ee3340.png",
        "status_id": "TERDAFTAR",
        "sistem_elektronik_id": 4299
      }
    },
    {
      "type": "tdpseTerbit",
      "id": 4297,
      "attributes": {
        "nomor_pb_umku": "250422004020500020002",
        "nama": "RINGKAS.",
        "website": "ringkas.co.id",
        "sektor": "Sektor Perdagangan, Sektor Teknologi Informasi dan Komunikasi",
        "nama_perusahaan": "RINGKAS ASIA TECHNOLOGY",
        "tanggal_daftar": "2022-06-08",
        "nomor_tanda_daftar": "003074.02/DJAI.PSE/06/2022",
        "qr_code": "https://pse.kominfo.go.id/storage/images/qr_code/eee23a3348551567277200872badf2cf.png",
        "status_id": "TERDAFTAR",
        "sistem_elektronik_id": 4290
      }
    }
  ]
}