{
  "meta": {
    "page": {
      "currentPage": 528,
      "from": 5271,
      "lastPage": 923,
      "perPage": 10,
      "to": 5280,
      "total": 9227
    }
  },
  "data": [
    {
      "type": "tdpseTerbit",
      "id": 3199,
      "attributes": {
        "nomor_pb_umku": null,
        "nama": "SUBAK TANI",
        "website": "www.smarttanisubak.id",
        "sektor": "Sektor Perdagangan",
        "nama_perusahaan": "SMART TANI SUBAK",
        "tanggal_daftar": "2022-02-08",
        "nomor_tanda_daftar": "002071.01/DJAI.PSE/02/2022",
        "qr_code": "https://pse.kominfo.go.id/storage/images/qr_code/7d9871e5fda972112f21310a974d5942.png",
        "status_id": "TERDAFTAR",
        "sistem_elektronik_id": 2174
      }
    },
    {
      "type": "tdpseTerbit",
      "id": 3198,
      "attributes": {
        "nomor_pb_umku": null,
        "nama": "Monit",
        "website": "www.monit.id",
        "sektor": "Sektor Teknologi Informasi dan Komunikasi",
        "nama_perusahaan": "MONIT TEKNOLOGI INDONESIA",
        "tanggal_daftar": "2022-02-08",
        "nomor_tanda_daftar": "002070.01/DJAI.PSE/02/2022",
        "qr_code": "https://pse.kominfo.go.id/storage/images/qr_code/458630820ec03ff24cbf59c57fd1defe.png",
        "status_id": "TERDAFTAR",
        "sistem_elektronik_id": 2167
      }
    },
    {
      "type": "tdpseTerbit",
      "id": 3197,
      "attributes": {
        "nomor_pb_umku": null,
        "nama": "BAVKU",
        "website": "bina-artha.com",
        "sektor": "Sektor Keuangan",
        "nama_perusahaan": "BINA ARTHA VENTURA",
        "tanggal_daftar": "2022-02-08",
        "nomor_tanda_daftar": "002069.01/DJAI.PSE/02/2022",
        "qr_code": "https://pse.kominfo.go.id/storage/images/qr_code/77dd4040c8cfcd441b9ce0271080da7d.png",
        "status_id": "TERDAFTAR",
        "sistem_elektronik_id": 2159
      }
    },
    {
      "type": "tdpseTerbit",
      "id": 3196,
      "attributes": {
        "nomor_pb_umku": null,
        "nama": "Cryptokun",
        "website": "cryptokun.com",
        "sektor": "Sektor Keuangan, Sektor Perdagangan",
        "nama_perusahaan": "FAMINDO BURSA INDONESIA",
        "tanggal_daftar": "2022-02-08",
        "nomor_tanda_daftar": "002068.01/DJAI.PSE/02/2022",
        "qr_code": "https://pse.kominfo.go.id/storage/images/qr_code/c614f218055596d9cf2e99cde504240d.png",
        "status_id": "TERDAFTAR",
        "sistem_elektronik_id": 2139
      }
    },
    {
      "type": "tdpseTerbit",
      "id": 3195,
      "attributes": {
        "nomor_pb_umku": null,
        "nama": "lapakgaming",
        "website": "www.lapakgaming.com",
        "sektor": "Sektor Teknologi Informasi dan Komunikasi",
        "nama_perusahaan": "GLOBAL DIGITAL INDOKREASI",
        "tanggal_daftar": "2022-02-08",
        "nomor_tanda_daftar": "002067.01/DJAI.PSE/02/2022",
        "qr_code": "https://pse.kominfo.go.id/storage/images/qr_code/4a46f420b9a540114c79ade6451ee95f.png",
        "status_id": "TERDAFTAR",
        "sistem_elektronik_id": 2171
      }
    },
    {
      "type": "tdpseTerbit",
      "id": 3194,
      "attributes": {
        "nomor_pb_umku": null,
        "nama": "www.bwlgroup.com",
        "website": "www.bwlgroup.com",
        "sektor": "Sektor Perdagangan",
        "nama_perusahaan": "BWL INDONESIA",
        "tanggal_daftar": "2022-02-08",
        "nomor_tanda_daftar": "002066.01/DJAI.PSE/02/2022",
        "qr_code": "https://pse.kominfo.go.id/storage/images/qr_code/b438327140bdf81e4f9fa7f0ffadb3c2.png",
        "status_id": "TERDAFTAR",
        "sistem_elektronik_id": 2125
      }
    },
    {
      "type": "tdpseTerbit",
      "id": 3193,
      "attributes": {
        "nomor_pb_umku": null,
        "nama": "MetaPro",
        "website": "-",
        "sektor": "Sektor Perdagangan",
        "nama_perusahaan": "META INOVASI DIGITAL",
        "tanggal_daftar": "2022-02-08",
        "nomor_tanda_daftar": "002065.01/DJAI.PSE/02/2022",
        "qr_code": "https://pse.kominfo.go.id/storage/images/qr_code/1feff75ed0a9714b19dcd026f447ca42.png",
        "status_id": "TERDAFTAR",
        "sistem_elektronik_id": 2166
      }
    },
    {
      "type": "tdpseTerbit",
      "id": 3192,
      "attributes": {
        "nomor_pb_umku": null,
        "nama": "Kelolayuk",
        "website": "Kelolayuk.com",
        "sektor": "Sektor Teknologi Informasi dan Komunikasi",
        "nama_perusahaan": "KARYA TEKNOLOGI ANDALAN",
        "tanggal_daftar": "2022-02-08",
        "nomor_tanda_daftar": "002064.01/DJAI.PSE/02/2022",
        "qr_code": "https://pse.kominfo.go.id/storage/images/qr_code/595567f2cc2f0aefdfa4a0ff7e9e8693.png",
        "status_id": "TERDAFTAR",
        "sistem_elektronik_id": 2143
      }
    },
    {
      "type": "tdpseTerbit",
      "id": 4355,
      "attributes": {
        "nomor_pb_umku": null,
        "nama": "www.jurnaltv.my.id",
        "website": "www.jurnaltv.my.id",
        "sektor": "Sektor Teknologi Informasi dan Komunikasi",
        "nama_perusahaan": "AGENCY KOMUNITAS INDOSYSTEM NETWORK INDONESIA",
        "tanggal_daftar": "2022-05-05",
        "nomor_tanda_daftar": "002063.03/DJAI.PSE/05/2022",
        "qr_code": "https://pse.kominfo.go.id/storage/images/qr_code/99fe6dc25cf6dfbf4f6428e519b84cde.png",
        "status_id": "TERDAFTAR",
        "sistem_elektronik_id": 4341
      }
    },
    {
      "type": "tdpseTerbit",
      "id": 3711,
      "attributes": {
        "nomor_pb_umku": null,
        "nama": "www.pukimaknews.my.id",
        "website": "www.pukimaknews.my.id",
        "sektor": "Sektor Teknologi Informasi dan Komunikasi",
        "nama_perusahaan": "AGENCY KOMUNITAS INDOSYSTEM NETWORK INDONESIA",
        "tanggal_daftar": "2022-03-30",
        "nomor_tanda_daftar": "002063.02/DJAI.PSE/03/2022",
        "qr_code": "https://pse.kominfo.go.id/storage/images/qr_code/04356135aee33b5216f8f6b4d1ef6bfd.png",
        "status_id": "TERDAFTAR",
        "sistem_elektronik_id": 3557
      }
    }
  ]
}