{
  "meta": {
    "page": {
      "currentPage": 529,
      "from": 5281,
      "lastPage": 1038,
      "perPage": 10,
      "to": 5290,
      "total": 10380
    }
  },
  "data": [
    {
      "type": "tdpseTerbit",
      "id": 4762,
      "attributes": {
        "nomor_pb_umku": "812000693149400000001",
        "nama": "ULKALOKA",
        "website": "ulkaloka.com",
        "sektor": "Sektor Perdagangan",
        "nama_perusahaan": "UD. Pasifik Indah Garment",
        "tanggal_daftar": "2022-06-25",
        "nomor_tanda_daftar": "002960.01/DJAI.PSE/06/2022",
        "qr_code": "https://pse.kominfo.go.id/storage/images/qr_code/10c69ffc138e16d45a80d22c08c0829d.png",
        "status_id": "TERDAFTAR",
        "sistem_elektronik_id": 4708
      }
    },
    {
      "type": "tdpseTerbit",
      "id": 4207,
      "attributes": {
        "nomor_pb_umku": "290522001292200000001",
        "nama": "KAWANUA DIGITAL MULTIVERSE",
        "website": "kawanuadigital.com",
        "sektor": "Sektor Teknologi Informasi dan Komunikasi",
        "nama_perusahaan": "MELKY TUMPIA",
        "tanggal_daftar": "2022-06-02",
        "nomor_tanda_daftar": "002959.01/DJAI.PSE/06/2022",
        "qr_code": "https://pse.kominfo.go.id/storage/images/qr_code/307f6c0e589a4841a569564516a16bcc.png",
        "status_id": "TERDAFTAR",
        "sistem_elektronik_id": 4206
      }
    },
    {
      "type": "tdpseTerbit",
      "id": 4204,
      "attributes": {
        "nomor_pb_umku": "022000631213400000001",
        "nama": "SERMORPHEUS",
        "website": "-",
        "sektor": "Sektor Teknologi Informasi dan Komunikasi",
        "nama_perusahaan": "LIKUID JAYA INISIASI",
        "tanggal_daftar": "2022-06-01",
        "nomor_tanda_daftar": "002955.01/DJAI.PSE/06/2022",
        "qr_code": "https://pse.kominfo.go.id/storage/images/qr_code/c87671a50cde5851831e800a78faace7.png",
        "status_id": "TERDAFTAR",
        "sistem_elektronik_id": 4203
      }
    },
    {
      "type": "tdpseTerbit",
      "id": 4578,
      "attributes": {
        "nomor_pb_umku": "070422005931100100002",
        "nama": "UMKM LOMPAT KELAS ( E-UMKM.MY.ID )",
        "website": "e-umkm.my.id",
        "sektor": "Sektor Perdagangan, Sektor Energi dan Sumber Daya Mineral, Sektor Transportasi, Sektor Keuangan, Sektor Kesehatan, Sektor Teknologi Informasi dan Komunikasi, Sektor Pangan, Sektor Pertahanan dan Keamanan",
        "nama_perusahaan": "PUSAT STRATEGI DAN AKSELERASI PEMBANGUNAN INDONESIA MAJU",
        "tanggal_daftar": "2022-06-17",
        "nomor_tanda_daftar": "002952.02/DJAI.PSE/06/2022",
        "qr_code": "https://pse.kominfo.go.id/storage/images/qr_code/557af2496ea066a53d6bd1f1dca6ce43.png",
        "status_id": "TERDAFTAR",
        "sistem_elektronik_id": 4542
      }
    },
    {
      "type": "tdpseTerbit",
      "id": 4269,
      "attributes": {
        "nomor_pb_umku": "070422005931100100001",
        "nama": "YAYASAN PUSAT STRATEGI DAN AKSELERASI PEMBANGUNAN INDONESIA MAJU",
        "website": "indonesia2030.id",
        "sektor": "Sektor Perdagangan, Sektor Teknologi Informasi dan Komunikasi",
        "nama_perusahaan": "PUSAT STRATEGI DAN AKSELERASI PEMBANGUNAN INDONESIA MAJU",
        "tanggal_daftar": "2022-06-07",
        "nomor_tanda_daftar": "002952.01/DJAI.PSE/06/2022",
        "qr_code": "https://pse.kominfo.go.id/storage/images/qr_code/326b8c66092582f6798122b9d544762d.png",
        "status_id": "TERDAFTAR",
        "sistem_elektronik_id": 4268
      }
    },
    {
      "type": "tdpseTerbit",
      "id": 4209,
      "attributes": {
        "nomor_pb_umku": "812021304102800000001",
        "nama": "AUTO PORTAL",
        "website": "oto.com",
        "sektor": "Sektor Perdagangan",
        "nama_perusahaan": "CARBAY SERVICES INDONESIA",
        "tanggal_daftar": "2022-06-02",
        "nomor_tanda_daftar": "002951.01/DJAI.PSE/06/2022",
        "qr_code": "https://pse.kominfo.go.id/storage/images/qr_code/b107b9850ea66dd374e22bdf3e17534f.png",
        "status_id": "TERDAFTAR",
        "sistem_elektronik_id": 4208
      }
    },
    {
      "type": "tdpseTerbit",
      "id": 4201,
      "attributes": {
        "nomor_pb_umku": "122200165121700000002",
        "nama": "RAFFARASYA BIROJASA",
        "website": "-",
        "sektor": "Sektor Perdagangan, Sektor Teknologi Informasi dan Komunikasi",
        "nama_perusahaan": "SITI KHADIJAH",
        "tanggal_daftar": "2022-06-01",
        "nomor_tanda_daftar": "002949.02/DJAI.PSE/06/2022",
        "qr_code": "https://pse.kominfo.go.id/storage/images/qr_code/82b388b72fa69689cdd67691e992ebb4.png",
        "status_id": "TERDAFTAR",
        "sistem_elektronik_id": 4202
      }
    },
    {
      "type": "tdpseTerbit",
      "id": 4199,
      "attributes": {
        "nomor_pb_umku": "122200165121700000001",
        "nama": "SITI KHADIJAH",
        "website": "-",
        "sektor": "Sektor Perdagangan, Sektor Teknologi Informasi dan Komunikasi",
        "nama_perusahaan": "SITI KHADIJAH",
        "tanggal_daftar": "2022-05-31",
        "nomor_tanda_daftar": "002949.01/DJAI.PSE/05/2022",
        "qr_code": "https://pse.kominfo.go.id/storage/images/qr_code/ca098ca214a91186b43acfdb89b3efa9.png",
        "status_id": "TERDAFTAR",
        "sistem_elektronik_id": 4201
      }
    },
    {
      "type": "tdpseTerbit",
      "id": 4231,
      "attributes": {
        "nomor_pb_umku": "912050881242300020001",
        "nama": "TICMIEDU",
        "website": "ticmiedu.co.id",
        "sektor": "Sektor Keuangan",
        "nama_perusahaan": "INDONESIAN CAPITAL MARKET ELECTRONIC LIBRARY",
        "tanggal_daftar": "2022-06-06",
        "nomor_tanda_daftar": "002945.01/DJAI.PSE/06/2022",
        "qr_code": "https://pse.kominfo.go.id/storage/images/qr_code/74f8adbf677f7de426f13635a1bfd512.png",
        "status_id": "TERDAFTAR",
        "sistem_elektronik_id": 4228
      }
    },
    {
      "type": "tdpseTerbit",
      "id": 4232,
      "attributes": {
        "nomor_pb_umku": "190522007020500000001",
        "nama": "BLOCKDREAM MEDIA",
        "website": "blockdreammedia.com",
        "sektor": "Sektor Teknologi Informasi dan Komunikasi",
        "nama_perusahaan": "BLOCKDREAM MEDIA INTERNASIONAL",
        "tanggal_daftar": "2022-06-06",
        "nomor_tanda_daftar": "002944.01/DJAI.PSE/06/2022",
        "qr_code": "https://pse.kominfo.go.id/storage/images/qr_code/d80a14bd61e6c60d2f353091b2402cf2.png",
        "status_id": "TERDAFTAR",
        "sistem_elektronik_id": 4230
      }
    }
  ]
}