{
  "meta": {
    "page": {
      "currentPage": 53,
      "from": 521,
      "lastPage": 816,
      "perPage": 10,
      "to": 530,
      "total": 8153
    }
  },
  "jsonapi": {
    "version": "1.0"
  },
  "links": {
    "first": "http://pse.kominfo.go.id/api/v1/jsonapi/tdpse-terbit?page%5Blimit%5D=10&page%5Bpage%5D=1",
    "last": "http://pse.kominfo.go.id/api/v1/jsonapi/tdpse-terbit?page%5Blimit%5D=10&page%5Bpage%5D=816",
    "next": "http://pse.kominfo.go.id/api/v1/jsonapi/tdpse-terbit?page%5Blimit%5D=10&page%5Bpage%5D=54",
    "prev": "http://pse.kominfo.go.id/api/v1/jsonapi/tdpse-terbit?page%5Blimit%5D=10&page%5Bpage%5D=52"
  },
  "data": [
    {
      "type": "tdpseTerbit",
      "id": "8102",
      "attributes": {
        "nomor_pb_umku": "912010827101900010001",
        "nama": "WEBSITE",
        "website": "bprarayaarta.co.id",
        "sektor": "Sektor Keuangan",
        "nama_tampil_badan_hukum": "PT",
        "nama_perusahaan": "PT BANK PERKREDITAN RAKYAT ARAYA ARTA",
        "tanggal_daftar": "2022-07-20",
        "tanggal_terbit": "2022-07-20",
        "nomor_tanda_daftar": "005320.01/DJAI.PSE/07/2022",
        "qr_code": "http://pse.kominfo.go.id/api/v1/jsonapi/tdpse-terbit/qr-code/8102",
        "status_id": "TERDAFTAR",
        "sistem_elektronik_id": "8009",
        "keterangan": "-",
        "lokalitas": "LOKAL"
      },
      "links": {
        "self": "http://pse.kominfo.go.id/api/v1/jsonapi/tdpse-terbit/8102"
      }
    },
    {
      "type": "tdpseTerbit",
      "id": "8101",
      "attributes": {
        "nomor_pb_umku": "041121004306600010001",
        "nama": " WEBSITE PT BTPN SYARIAH VENTURA",
        "website": "btpnsyariahventura.com",
        "sektor": "Sektor Keuangan",
        "nama_tampil_badan_hukum": "PT",
        "nama_perusahaan": "PT BTPN SYARIAH VENTURA",
        "tanggal_daftar": "2022-07-20",
        "tanggal_terbit": "2022-07-20",
        "nomor_tanda_daftar": "005754.01/DJAI.PSE/07/2022",
        "qr_code": "http://pse.kominfo.go.id/api/v1/jsonapi/tdpse-terbit/qr-code/8101",
        "status_id": "TERDAFTAR",
        "sistem_elektronik_id": "8021",
        "keterangan": "-",
        "lokalitas": "LOKAL"
      },
      "links": {
        "self": "http://pse.kominfo.go.id/api/v1/jsonapi/tdpse-terbit/8101"
      }
    },
    {
      "type": "tdpseTerbit",
      "id": "8100",
      "attributes": {
        "nomor_pb_umku": "912010444120500020018",
        "nama": "TIKETING AKSES",
        "website": "-",
        "sektor": "Sektor Keuangan",
        "nama_tampil_badan_hukum": "PT",
        "nama_perusahaan": "PT BANK PERKREDITAN RAKYAT KARYAJATNIKA SADAYA",
        "tanggal_daftar": "2022-07-20",
        "tanggal_terbit": "2022-07-20",
        "nomor_tanda_daftar": "004305.18/DJAI.PSE/07/2022",
        "qr_code": "http://pse.kominfo.go.id/api/v1/jsonapi/tdpse-terbit/qr-code/8100",
        "status_id": "TERDAFTAR",
        "sistem_elektronik_id": "8020",
        "keterangan": "-",
        "lokalitas": "LOKAL"
      },
      "links": {
        "self": "http://pse.kominfo.go.id/api/v1/jsonapi/tdpse-terbit/8100"
      }
    },
    {
      "type": "tdpseTerbit",
      "id": "8099",
      "attributes": {
        "nomor_pb_umku": "812000482155400010001",
        "nama": "TRADEPROFX",
        "website": "-",
        "sektor": "Sektor Perdagangan, Sektor Keuangan",
        "nama_tampil_badan_hukum": "PT",
        "nama_perusahaan": "PT ROYAL ASSETINDO",
        "tanggal_daftar": "2022-07-20",
        "tanggal_terbit": "2022-07-20",
        "nomor_tanda_daftar": "005760.01/DJAI.PSE/07/2022",
        "qr_code": "http://pse.kominfo.go.id/api/v1/jsonapi/tdpse-terbit/qr-code/8099",
        "status_id": "TERDAFTAR",
        "sistem_elektronik_id": "8016",
        "keterangan": "-",
        "lokalitas": "LOKAL"
      },
      "links": {
        "self": "http://pse.kominfo.go.id/api/v1/jsonapi/tdpse-terbit/8099"
      }
    },
    {
      "type": "tdpseTerbit",
      "id": "8098",
      "attributes": {
        "nomor_pb_umku": "051021001328700020008",
        "nama": "CENTRALCORPORATIONS.COM",
        "website": "centralcorporations.com",
        "sektor": "Sektor Perdagangan",
        "nama_tampil_badan_hukum": "PT",
        "nama_perusahaan": "PT MAHKOTA PERMATA JAYA",
        "tanggal_daftar": "2022-07-20",
        "tanggal_terbit": "2022-07-20",
        "nomor_tanda_daftar": "005702.10/DJAI.PSE/07/2022",
        "qr_code": "http://pse.kominfo.go.id/api/v1/jsonapi/tdpse-terbit/qr-code/8098",
        "status_id": "TERDAFTAR",
        "sistem_elektronik_id": "8017",
        "keterangan": "-",
        "lokalitas": "LOKAL"
      },
      "links": {
        "self": "http://pse.kominfo.go.id/api/v1/jsonapi/tdpse-terbit/8098"
      }
    },
    {
      "type": "tdpseTerbit",
      "id": "8097",
      "attributes": {
        "nomor_pb_umku": "120500014228900010001",
        "nama": "PT SANGKURIANG SINERI INSAN",
        "website": "sangquvision.co.id",
        "sektor": "Sektor Perdagangan",
        "nama_tampil_badan_hukum": "PT",
        "nama_perusahaan": "PT SANGKURIANG SINERGI INSAN",
        "tanggal_daftar": "2022-07-20",
        "tanggal_terbit": "2022-07-20",
        "nomor_tanda_daftar": "005699.01/DJAI.PSE/07/2022",
        "qr_code": "http://pse.kominfo.go.id/api/v1/jsonapi/tdpse-terbit/qr-code/8097",
        "status_id": "TERDAFTAR",
        "sistem_elektronik_id": "8014",
        "keterangan": "-",
        "lokalitas": "LOKAL"
      },
      "links": {
        "self": "http://pse.kominfo.go.id/api/v1/jsonapi/tdpse-terbit/8097"
      }
    },
    {
      "type": "tdpseTerbit",
      "id": "8096",
      "attributes": {
        "nomor_pb_umku": "812001002164900000003",
        "nama": "KAKAO WEBTOON",
        "website": "-",
        "sektor": "Sektor Teknologi Informasi dan Komunikasi",
        "nama_tampil_badan_hukum": "PT",
        "nama_perusahaan": "PT NEO BAZAR INDONESIA",
        "tanggal_daftar": "2022-07-20",
        "tanggal_terbit": "2022-07-20",
        "nomor_tanda_daftar": "005376.02/DJAI.PSE/07/2022",
        "qr_code": "http://pse.kominfo.go.id/api/v1/jsonapi/tdpse-terbit/qr-code/8096",
        "status_id": "TERDAFTAR",
        "sistem_elektronik_id": "7692",
        "keterangan": "-",
        "lokalitas": "LOKAL"
      },
      "links": {
        "self": "http://pse.kominfo.go.id/api/v1/jsonapi/tdpse-terbit/8096"
      }
    },
    {
      "type": "tdpseTerbit",
      "id": "8095",
      "attributes": {
        "nomor_pb_umku": "022030372221800010006",
        "nama": "PAPUA DIGITAL SERVICE",
        "website": "digital.bankpapua.co.id",
        "sektor": "Sektor Keuangan",
        "nama_tampil_badan_hukum": "PT",
        "nama_perusahaan": "PT BANK PEMBANGUNAN DAERAH PAPUA",
        "tanggal_daftar": "2022-07-20",
        "tanggal_terbit": "2022-07-20",
        "nomor_tanda_daftar": "005497.07/DJAI.PSE/07/2022",
        "qr_code": "http://pse.kominfo.go.id/api/v1/jsonapi/tdpse-terbit/qr-code/8095",
        "status_id": "TERDAFTAR",
        "sistem_elektronik_id": "8001",
        "keterangan": "-",
        "lokalitas": "LOKAL"
      },
      "links": {
        "self": "http://pse.kominfo.go.id/api/v1/jsonapi/tdpse-terbit/8095"
      }
    },
    {
      "type": "tdpseTerbit",
      "id": "8094",
      "attributes": {
        "nomor_pb_umku": "812031210219700010001",
        "nama": "BPRMETROASIAMANDIRI.COM",
        "website": "Bprmetroasiamandiri.com",
        "sektor": "Sektor Keuangan",
        "nama_tampil_badan_hukum": "PT",
        "nama_perusahaan": "PT BANK PERKREDITAN RAKYAT METRO ASIA MANDIRI",
        "tanggal_daftar": "2022-07-20",
        "tanggal_terbit": "2022-07-20",
        "nomor_tanda_daftar": "005744.01/DJAI.PSE/07/2022",
        "qr_code": "http://pse.kominfo.go.id/api/v1/jsonapi/tdpse-terbit/qr-code/8094",
        "status_id": "TERDAFTAR",
        "sistem_elektronik_id": "7990",
        "keterangan": "-",
        "lokalitas": "LOKAL"
      },
      "links": {
        "self": "http://pse.kominfo.go.id/api/v1/jsonapi/tdpse-terbit/8094"
      }
    },
    {
      "type": "tdpseTerbit",
      "id": "8093",
      "attributes": {
        "nomor_pb_umku": "912030335189500010001",
        "nama": "BANK PERKREDITAN RAKYAT MADANI SEJAHTERA ABADI",
        "website": "-",
        "sektor": "Sektor Keuangan",
        "nama_tampil_badan_hukum": "PT",
        "nama_perusahaan": "PT BANK PERKREDITAN RAKYAT MADANI SEJAHTERA ABADI",
        "tanggal_daftar": "2022-07-20",
        "tanggal_terbit": "2022-07-20",
        "nomor_tanda_daftar": "005274.01/DJAI.PSE/07/2022",
        "qr_code": "http://pse.kominfo.go.id/api/v1/jsonapi/tdpse-terbit/qr-code/8093",
        "status_id": "TERDAFTAR",
        "sistem_elektronik_id": "8007",
        "keterangan": "-",
        "lokalitas": "LOKAL"
      },
      "links": {
        "self": "http://pse.kominfo.go.id/api/v1/jsonapi/tdpse-terbit/8093"
      }
    }
  ]
}