{
  "meta": {
    "page": {
      "currentPage": 531,
      "from": 5301,
      "lastPage": 1038,
      "perPage": 10,
      "to": 5310,
      "total": 10380
    }
  },
  "data": [
    {
      "type": "tdpseTerbit",
      "id": 7983,
      "attributes": {
        "nomor_pb_umku": "812010791224500050190",
        "nama": "MOBILE APP INFORMA",
        "website": "informa.co.id",
        "sektor": "Sektor Perdagangan, Sektor Teknologi Informasi dan Komunikasi",
        "nama_perusahaan": "HOME CENTER INDONESIA",
        "tanggal_daftar": "2022-07-20",
        "nomor_tanda_daftar": "002939.02/DJAI.PSE/07/2022",
        "qr_code": "https://pse.kominfo.go.id/storage/images/qr_code/b1c1ce427ef5019478d8a5adc873b786.png",
        "status_id": "TERDAFTAR",
        "sistem_elektronik_id": 7901
      }
    },
    {
      "type": "tdpseTerbit",
      "id": 4190,
      "attributes": {
        "nomor_pb_umku": "812010791224500050179",
        "nama": "HOME CENTER INDONESIA - COMPANY PROFILE",
        "website": "informa.co.id",
        "sektor": "Sektor Perdagangan",
        "nama_perusahaan": "HOME CENTER INDONESIA",
        "tanggal_daftar": "2022-05-31",
        "nomor_tanda_daftar": "002939.01/DJAI.PSE/05/2022",
        "qr_code": "https://pse.kominfo.go.id/storage/images/qr_code/8daf27b74a4084a2b69871b6a8ab1fa7.png",
        "status_id": "TERDAFTAR",
        "sistem_elektronik_id": 4192
      }
    },
    {
      "type": "tdpseTerbit",
      "id": 4563,
      "attributes": {
        "nomor_pb_umku": "123300024013300000001",
        "nama": "RUANGNYAMAN",
        "website": "ruangnyaman.id",
        "sektor": "Sektor Teknologi Informasi dan Komunikasi",
        "nama_perusahaan": "RUANG NYAMAN ABADI",
        "tanggal_daftar": "2022-06-16",
        "nomor_tanda_daftar": "002938.01/DJAI.PSE/06/2022",
        "qr_code": "https://pse.kominfo.go.id/storage/images/qr_code/9fd9aea09f82c96d71378948797c9933.png",
        "status_id": "TERDAFTAR",
        "sistem_elektronik_id": 4526
      }
    },
    {
      "type": "tdpseTerbit",
      "id": 4191,
      "attributes": {
        "nomor_pb_umku": "040422002988900000001",
        "nama": "PAKETINDO",
        "website": "paketindo.id",
        "sektor": "Sektor Teknologi Informasi dan Komunikasi",
        "nama_perusahaan": "TECHINDO SENTOSA RAYA",
        "tanggal_daftar": "2022-05-31",
        "nomor_tanda_daftar": "002937.01/DJAI.PSE/05/2022",
        "qr_code": "https://pse.kominfo.go.id/storage/images/qr_code/e8b3cde75d6c731717cd1353f3c77178.png",
        "status_id": "TERDAFTAR",
        "sistem_elektronik_id": 4193
      }
    },
    {
      "type": "tdpseTerbit",
      "id": 4198,
      "attributes": {
        "nomor_pb_umku": "010422002678900000001",
        "nama": "BEBAS",
        "website": "bebasinvestasi.com",
        "sektor": "Sektor Teknologi Informasi dan Komunikasi",
        "nama_perusahaan": "BEBAS INVESTAMA GLOBAL",
        "tanggal_daftar": "2022-05-31",
        "nomor_tanda_daftar": "002936.01/DJAI.PSE/05/2022",
        "qr_code": "https://pse.kominfo.go.id/storage/images/qr_code/4b12cbb5132ba943f2b4509fc633bac1.png",
        "status_id": "TERDAFTAR",
        "sistem_elektronik_id": 4196
      }
    },
    {
      "type": "tdpseTerbit",
      "id": 4576,
      "attributes": {
        "nomor_pb_umku": "912040122198900000001",
        "nama": "PAWOON POS",
        "website": "pawoon.com",
        "sektor": "Sektor Teknologi Informasi dan Komunikasi",
        "nama_perusahaan": "ALPHANOVATION DIGITAL TEKNINDO",
        "tanggal_daftar": "2022-06-17",
        "nomor_tanda_daftar": "002935.01/DJAI.PSE/06/2022",
        "qr_code": "https://pse.kominfo.go.id/storage/images/qr_code/d812ee975e81accf40b6206788cb5c94.png",
        "status_id": "TERDAFTAR",
        "sistem_elektronik_id": 4540
      }
    },
    {
      "type": "tdpseTerbit",
      "id": 6990,
      "attributes": {
        "nomor_pb_umku": "041121001530200010002",
        "nama": "AYOINSIGHT",
        "website": "ayoinsights.id",
        "sektor": "Sektor Keuangan, Sektor Teknologi Informasi dan Komunikasi",
        "nama_perusahaan": "INSIGHT INOVASI INDONESIA",
        "tanggal_daftar": "2022-07-19",
        "nomor_tanda_daftar": "002934.02/DJAI.PSE/07/2022",
        "qr_code": "https://pse.kominfo.go.id/storage/images/qr_code/25c38519ef003b2889bcd2550eed85a8.png",
        "status_id": "TERDAFTAR",
        "sistem_elektronik_id": 6850
      }
    },
    {
      "type": "tdpseTerbit",
      "id": 4206,
      "attributes": {
        "nomor_pb_umku": "041121001530200010001",
        "nama": "AYOCONNECT INSIGHT",
        "website": "-",
        "sektor": "Sektor Keuangan, Sektor Teknologi Informasi dan Komunikasi",
        "nama_perusahaan": "INSIGHT INOVASI INDONESIA",
        "tanggal_daftar": "2022-06-02",
        "nomor_tanda_daftar": "002934.01/DJAI.PSE/06/2022",
        "qr_code": "https://pse.kominfo.go.id/storage/images/qr_code/afcaa793e9c002381927b532e95647f3.png",
        "status_id": "TERDAFTAR",
        "sistem_elektronik_id": 4205
      }
    },
    {
      "type": "tdpseTerbit",
      "id": 7197,
      "attributes": {
        "nomor_pb_umku": "022020063190900040020",
        "nama": "SUROBOYO PAY",
        "website": "-",
        "sektor": "Sektor Perdagangan, Sektor Keuangan",
        "nama_perusahaan": "BIMASAKTI MULTI SINERGI",
        "tanggal_daftar": "2022-07-19",
        "nomor_tanda_daftar": "002933.22/DJAI.PSE/07/2022",
        "qr_code": "https://pse.kominfo.go.id/storage/images/qr_code/7d1e8407bbd60b8d9fa10e0045ae4a6e.png",
        "status_id": "TERDAFTAR",
        "sistem_elektronik_id": 7083
      }
    },
    {
      "type": "tdpseTerbit",
      "id": 7189,
      "attributes": {
        "nomor_pb_umku": "022020063190900040019",
        "nama": "MANDALIKATREN",
        "website": "-",
        "sektor": "Sektor Perdagangan, Sektor Keuangan",
        "nama_perusahaan": "BIMASAKTI MULTI SINERGI",
        "tanggal_daftar": "2022-07-19",
        "nomor_tanda_daftar": "002933.21/DJAI.PSE/07/2022",
        "qr_code": "https://pse.kominfo.go.id/storage/images/qr_code/f10424411bc73f7875a82aeeb04da274.png",
        "status_id": "TERDAFTAR",
        "sistem_elektronik_id": 7076
      }
    }
  ]
}