{
  "meta": {
    "page": {
      "currentPage": 532,
      "from": 5311,
      "lastPage": 994,
      "perPage": 10,
      "to": 5320,
      "total": 9936
    }
  },
  "data": [
    {
      "type": "tdpseTerbit",
      "id": 3810,
      "attributes": {
        "nomor_pb_umku": null,
        "nama": "Website",
        "website": "octa.id",
        "sektor": "Sektor Keuangan",
        "nama_perusahaan": "OCTA INVESTAMA BERJANGKA",
        "tanggal_daftar": "2022-04-07",
        "nomor_tanda_daftar": "002474.01/DJAI.PSE/04/2022",
        "qr_code": "https://pse.kominfo.go.id/storage/images/qr_code/8a4b4b3e1c1c06b96dbceaae8d8626f0.png",
        "status_id": "TERDAFTAR",
        "sistem_elektronik_id": 3942
      }
    },
    {
      "type": "tdpseTerbit",
      "id": 3809,
      "attributes": {
        "nomor_pb_umku": null,
        "nama": "Erha Buddy",
        "website": "-",
        "sektor": "Sektor Kesehatan, Sektor Perdagangan, Sektor Teknologi Informasi dan Komunikasi",
        "nama_perusahaan": "ERHA CLINIC INDONESIA",
        "tanggal_daftar": "2022-04-07",
        "nomor_tanda_daftar": "002473.01/DJAI.PSE/04/2022",
        "qr_code": "https://pse.kominfo.go.id/storage/images/qr_code/b9aa2e6ad0d5a2699a2f8c5f0e2a2210.png",
        "status_id": "TERDAFTAR",
        "sistem_elektronik_id": 3965
      }
    },
    {
      "type": "tdpseTerbit",
      "id": 3808,
      "attributes": {
        "nomor_pb_umku": null,
        "nama": "idcash",
        "website": "www.idcash.id",
        "sektor": "Sektor Teknologi Informasi dan Komunikasi",
        "nama_perusahaan": "ARTHA TOTAL MANDIRI",
        "tanggal_daftar": "2022-04-07",
        "nomor_tanda_daftar": "002472.01/DJAI.PSE/04/2022",
        "qr_code": "https://pse.kominfo.go.id/storage/images/qr_code/85d45e01d407ee5897b2eb301a7ffff5.png",
        "status_id": "TERDAFTAR",
        "sistem_elektronik_id": 3969
      }
    },
    {
      "type": "tdpseTerbit",
      "id": 5060,
      "attributes": {
        "nomor_pb_umku": "022000844370700090003",
        "nama": "POWERBIZ",
        "website": "powerbiz.asia",
        "sektor": "Sektor Teknologi Informasi dan Komunikasi",
        "nama_perusahaan": "MITRA SEMERU INDONESIA",
        "tanggal_daftar": "2022-07-04",
        "nomor_tanda_daftar": "002471.04/DJAI.PSE/07/2022",
        "qr_code": "https://pse.kominfo.go.id/storage/images/qr_code/ecd11c62737dc79edf3f4a84c8eaa2e9.png",
        "status_id": "TERDAFTAR",
        "sistem_elektronik_id": 4929
      }
    },
    {
      "type": "tdpseTerbit",
      "id": 3977,
      "attributes": {
        "nomor_pb_umku": null,
        "nama": "Channel Management",
        "website": "powercommerce.asia",
        "sektor": "Sektor Teknologi Informasi dan Komunikasi",
        "nama_perusahaan": "MITRA SEMERU INDONESIA",
        "tanggal_daftar": "2022-04-21",
        "nomor_tanda_daftar": "002471.03/DJAI.PSE/04/2022",
        "qr_code": "https://pse.kominfo.go.id/storage/images/qr_code/4205d094085e8d1cededbd74194c4845.png",
        "status_id": "TERDAFTAR",
        "sistem_elektronik_id": 3722
      }
    },
    {
      "type": "tdpseTerbit",
      "id": 3904,
      "attributes": {
        "nomor_pb_umku": null,
        "nama": "Menarini Store",
        "website": "menarinistore.id",
        "sektor": "Sektor Perdagangan",
        "nama_perusahaan": "MITRA SEMERU INDONESIA",
        "tanggal_daftar": "2022-04-18",
        "nomor_tanda_daftar": "002471.02/DJAI.PSE/04/2022",
        "qr_code": "https://pse.kominfo.go.id/storage/images/qr_code/9851ca0cfb2ce55ba2a7204e78db6c0c.png",
        "status_id": "TERDAFTAR",
        "sistem_elektronik_id": 3721
      }
    },
    {
      "type": "tdpseTerbit",
      "id": 3806,
      "attributes": {
        "nomor_pb_umku": null,
        "nama": "Halal Plaza",
        "website": "halalplaza.asia",
        "sektor": "Sektor Perdagangan",
        "nama_perusahaan": "MITRA SEMERU INDONESIA",
        "tanggal_daftar": "2022-04-07",
        "nomor_tanda_daftar": "002471.01/DJAI.PSE/04/2022",
        "qr_code": "https://pse.kominfo.go.id/storage/images/qr_code/a050b8a9d4f039e8cde599f7f893319b.png",
        "status_id": "TERDAFTAR",
        "sistem_elektronik_id": 3720
      }
    },
    {
      "type": "tdpseTerbit",
      "id": 3930,
      "attributes": {
        "nomor_pb_umku": null,
        "nama": "Mo88i",
        "website": "www.mo88i.com",
        "sektor": "Sektor Perdagangan",
        "nama_perusahaan": "SERASI MITRA MOBIL",
        "tanggal_daftar": "2022-04-07",
        "nomor_tanda_daftar": "002470.01/DJAI.PSE/04/2022",
        "qr_code": "https://pse.kominfo.go.id/storage/images/qr_code/0fce78c26b61feab0834ab00c23630c6.png",
        "status_id": "TERDAFTAR",
        "sistem_elektronik_id": 3929
      }
    },
    {
      "type": "tdpseTerbit",
      "id": 3804,
      "attributes": {
        "nomor_pb_umku": null,
        "nama": "PT WARTAMOTO INDONESIA",
        "website": "wartamoto.com",
        "sektor": "Sektor Perdagangan, Sektor Transportasi",
        "nama_perusahaan": "NURLAILA",
        "tanggal_daftar": "2022-04-07",
        "nomor_tanda_daftar": "002469.01/DJAI.PSE/04/2022",
        "qr_code": "https://pse.kominfo.go.id/storage/images/qr_code/0d5889528db8bf8772d7f4552c5e7ef5.png",
        "status_id": "TERDAFTAR",
        "sistem_elektronik_id": 3758
      }
    },
    {
      "type": "tdpseTerbit",
      "id": 10819,
      "attributes": {
        "nomor_pb_umku": "812011413226801490063",
        "nama": "KUSTODIAN BRI FRONT END SYSTEM (BRIFRENS)",
        "website": "brifrens.bri.co.id",
        "sektor": "Sektor Keuangan",
        "nama_perusahaan": "PERUSAHAAN PERSEROAN (PERSERO) PT. BANK RAKYAT INDONESIA",
        "tanggal_daftar": "2022-08-26",
        "nomor_tanda_daftar": "002468.59/DJAI.PSE/08/2022",
        "qr_code": "https://pse.kominfo.go.id/storage/images/qr_code/ec9f53f406e457765a740e6afcc84ae4.png",
        "status_id": "TERDAFTAR",
        "sistem_elektronik_id": 10623
      }
    }
  ]
}