{
  "meta": {
    "page": {
      "currentPage": 533,
      "from": 5321,
      "lastPage": 1056,
      "perPage": 10,
      "to": 5330,
      "total": 10553
    }
  },
  "data": [
    {
      "type": "tdpseTerbit",
      "id": 5149,
      "attributes": {
        "nomor_pb_umku": "912030476021300000001",
        "nama": "MOBILKU.COM",
        "website": "mobilku.com",
        "sektor": "Sektor Perdagangan",
        "nama_perusahaan": "MOBILKU DOTCOM SEJAHTERA",
        "tanggal_daftar": "2022-07-06",
        "nomor_tanda_daftar": "003176.01/DJAI.PSE/07/2022",
        "qr_code": "https://pse.kominfo.go.id/storage/images/qr_code/645a87c732f8944445f182be9e7401fa.png",
        "status_id": "TERDAFTAR",
        "sistem_elektronik_id": 5012
      }
    },
    {
      "type": "tdpseTerbit",
      "id": 4370,
      "attributes": {
        "nomor_pb_umku": "170322002947500000001",
        "nama": "CLOSEPAY (APLIKASI DIGITAL BISNIS)",
        "website": "Closepay.id",
        "sektor": "Sektor Keuangan, Sektor Teknologi Informasi dan Komunikasi",
        "nama_perusahaan": "FOKUS TEKNOLOGI PEMBAYARAN",
        "tanggal_daftar": "2022-06-14",
        "nomor_tanda_daftar": "003173.01/DJAI.PSE/06/2022",
        "qr_code": "https://pse.kominfo.go.id/storage/images/qr_code/7698ac44ba0e33b8ab5b3588aa3f930f.png",
        "status_id": "TERDAFTAR",
        "sistem_elektronik_id": 4356
      }
    },
    {
      "type": "tdpseTerbit",
      "id": 4905,
      "attributes": {
        "nomor_pb_umku": "912000927044600040009",
        "nama": "OGAWA.ID",
        "website": "ogawa.id",
        "sektor": "Sektor Kesehatan, Sektor Teknologi Informasi dan Komunikasi",
        "nama_perusahaan": "DUTA ABADI PERDANA",
        "tanggal_daftar": "2022-06-28",
        "nomor_tanda_daftar": "003171.01/DJAI.PSE/06/2022",
        "qr_code": "https://pse.kominfo.go.id/storage/images/qr_code/2a4bef104a32822922bcb763e10d5396.png",
        "status_id": "TERDAFTAR",
        "sistem_elektronik_id": 4775
      }
    },
    {
      "type": "tdpseTerbit",
      "id": 4367,
      "attributes": {
        "nomor_pb_umku": "130622008453200000001",
        "nama": "WINDOW OF INDONESIA",
        "website": "windowofindonesia.com",
        "sektor": "Sektor Perdagangan",
        "nama_perusahaan": "MUHAMMAD ALPIAN",
        "tanggal_daftar": "2022-06-13",
        "nomor_tanda_daftar": "003169.01/DJAI.PSE/06/2022",
        "qr_code": "https://pse.kominfo.go.id/storage/images/qr_code/3db6dbc7b9229a89ed70d7894cc4b78c.png",
        "status_id": "TERDAFTAR",
        "sistem_elektronik_id": 4353
      }
    },
    {
      "type": "tdpseTerbit",
      "id": 4538,
      "attributes": {
        "nomor_pb_umku": "130422001907600000001",
        "nama": "BAITULJANNAH",
        "website": "baituljannah.com",
        "sektor": "Sektor Teknologi Informasi dan Komunikasi",
        "nama_perusahaan": "BAITULJANNAH INTERNATIONAL GROUP",
        "tanggal_daftar": "2022-06-16",
        "nomor_tanda_daftar": "003163.01/DJAI.PSE/06/2022",
        "qr_code": "https://pse.kominfo.go.id/storage/images/qr_code/0bd8a1f5b12bd9b91fc0578f46745ac8.png",
        "status_id": "TERDAFTAR",
        "sistem_elektronik_id": 4518
      }
    },
    {
      "type": "tdpseTerbit",
      "id": 4342,
      "attributes": {
        "nomor_pb_umku": "130122003547500000001",
        "nama": "SOLIS RESTO",
        "website": "-",
        "sektor": "Sektor Teknologi Informasi dan Komunikasi",
        "nama_perusahaan": "SOLUSI LOGIKA KREASI",
        "tanggal_daftar": "2022-06-13",
        "nomor_tanda_daftar": "003161.01/DJAI.PSE/06/2022",
        "qr_code": "https://pse.kominfo.go.id/storage/images/qr_code/e4140c9a73d96f05201d7a5fb4c7b025.png",
        "status_id": "TERDAFTAR",
        "sistem_elektronik_id": 4328
      }
    },
    {
      "type": "tdpseTerbit",
      "id": 4535,
      "attributes": {
        "nomor_pb_umku": "121121000256500000001",
        "nama": "TRADMED",
        "website": "tradmed.co.id",
        "sektor": "Sektor Perdagangan",
        "nama_perusahaan": "KHALILA TRADMED INDONESIA",
        "tanggal_daftar": "2022-06-16",
        "nomor_tanda_daftar": "003157.01/DJAI.PSE/06/2022",
        "qr_code": "https://pse.kominfo.go.id/storage/images/qr_code/e5ba7faeeaed2e99cd42e01c26bd0dab.png",
        "status_id": "TERDAFTAR",
        "sistem_elektronik_id": 4508
      }
    },
    {
      "type": "tdpseTerbit",
      "id": 4625,
      "attributes": {
        "nomor_pb_umku": "123100068067200000001",
        "nama": "FARMACARE",
        "website": "app.farmacare.id",
        "sektor": "Sektor Perdagangan, Sektor Kesehatan",
        "nama_perusahaan": "JENDELA AKSES SEHAT",
        "tanggal_daftar": "2022-06-20",
        "nomor_tanda_daftar": "003156.01/DJAI.PSE/06/2022",
        "qr_code": "https://pse.kominfo.go.id/storage/images/qr_code/bd4bb49f322dcf31703c71c4fec6d24d.png",
        "status_id": "TERDAFTAR",
        "sistem_elektronik_id": 4586
      }
    },
    {
      "type": "tdpseTerbit",
      "id": 4339,
      "attributes": {
        "nomor_pb_umku": "070622005218100000001",
        "nama": "LILI STYLE",
        "website": "lili.style",
        "sektor": "Sektor Perdagangan",
        "nama_perusahaan": "LILI STYLE INDONESIA",
        "tanggal_daftar": "2022-06-13",
        "nomor_tanda_daftar": "003155.01/DJAI.PSE/06/2022",
        "qr_code": "https://pse.kominfo.go.id/storage/images/qr_code/e8fe38e976cdf223b2669dcbffc3f8a4.png",
        "status_id": "TERDAFTAR",
        "sistem_elektronik_id": 4325
      }
    },
    {
      "type": "tdpseTerbit",
      "id": 4340,
      "attributes": {
        "nomor_pb_umku": "912010556233500020001",
        "nama": "SRIBU.COM",
        "website": "sribu.com",
        "sektor": "Sektor Perdagangan",
        "nama_perusahaan": "SRIBU DIGITAL KREATIF",
        "tanggal_daftar": "2022-06-13",
        "nomor_tanda_daftar": "003150.01/DJAI.PSE/06/2022",
        "qr_code": "https://pse.kominfo.go.id/storage/images/qr_code/d8f99ec95b1a8044f09348e93ff50c4d.png",
        "status_id": "TERDAFTAR",
        "sistem_elektronik_id": 4326
      }
    }
  ]
}