{
  "meta": {
    "page": {
      "currentPage": 534,
      "from": 5331,
      "lastPage": 875,
      "perPage": 10,
      "to": 5340,
      "total": 8749
    }
  },
  "data": [
    {
      "type": "tdpseTerbit",
      "id": 2712,
      "attributes": {
        "nomor_pb_umku": null,
        "nama": "Portal Penjualan  Asuransi Mikro IFG Life(Microsite IFG Life)",
        "website": "asuransi.ifg-life.id/mikro/",
        "sektor": "Sektor Keuangan",
        "nama_perusahaan": "ASURANSI JIWA IFG",
        "tanggal_daftar": "2021-12-10",
        "nomor_tanda_daftar": "001739.03/DJAI.PSE/12/2021",
        "qr_code": "https://pse.kominfo.go.id/storage/images/qr_code/149f2bc91d60c347185048b43683163d.png",
        "status_id": "TERDAFTAR",
        "sistem_elektronik_id": 1834
      }
    },
    {
      "type": "tdpseTerbit",
      "id": 2711,
      "attributes": {
        "nomor_pb_umku": null,
        "nama": "Corporate Website IFG Life",
        "website": "ifg-life.id",
        "sektor": "Sektor Keuangan",
        "nama_perusahaan": "ASURANSI JIWA IFG",
        "tanggal_daftar": "2021-12-10",
        "nomor_tanda_daftar": "001739.02/DJAI.PSE/12/2021",
        "qr_code": "https://pse.kominfo.go.id/storage/images/qr_code/d0c081c43de5789743a148a0276de4ef.png",
        "status_id": "TERDAFTAR",
        "sistem_elektronik_id": 1833
      }
    },
    {
      "type": "tdpseTerbit",
      "id": 2708,
      "attributes": {
        "nomor_pb_umku": null,
        "nama": "Agency Information Management System",
        "website": "aims.ifg-life.id",
        "sektor": "Sektor Keuangan",
        "nama_perusahaan": "ASURANSI JIWA IFG",
        "tanggal_daftar": "2021-12-10",
        "nomor_tanda_daftar": "001739.01/DJAI.PSE/12/2021",
        "qr_code": "https://pse.kominfo.go.id/storage/images/qr_code/25a2c1ad03b7cbc1cd1140a82c2d097a.png",
        "status_id": "TERDAFTAR",
        "sistem_elektronik_id": 1832
      }
    },
    {
      "type": "tdpseTerbit",
      "id": 2707,
      "attributes": {
        "nomor_pb_umku": null,
        "nama": "Iluma",
        "website": "www.iluma.ai",
        "sektor": "Sektor Teknologi Informasi dan Komunikasi",
        "nama_perusahaan": "SUMBER DIGITAL TEKNOLOGI",
        "tanggal_daftar": "2021-12-10",
        "nomor_tanda_daftar": "001738.01/DJAI.PSE/12/2021",
        "qr_code": "https://pse.kominfo.go.id/storage/images/qr_code/9067d25624cce4dcafdbcce10981cd97.png",
        "status_id": "TERDAFTAR",
        "sistem_elektronik_id": 3421
      }
    },
    {
      "type": "tdpseTerbit",
      "id": 8669,
      "attributes": {
        "nomor_pb_umku": "812011802002900160005",
        "nama": "ENGLISHACADEMY",
        "website": "english-academy.id",
        "sektor": "Sektor Perdagangan, Sektor Teknologi Informasi dan Komunikasi",
        "nama_perusahaan": "RUANG RAYA INDONESIA",
        "tanggal_daftar": "2022-07-21",
        "nomor_tanda_daftar": "001737.05/DJAI.PSE/07/2022",
        "qr_code": "https://pse.kominfo.go.id/storage/images/qr_code/1f791ed55be3863cdbf1875b97e4eb7f.png",
        "status_id": "TERDAFTAR",
        "sistem_elektronik_id": 8587
      }
    },
    {
      "type": "tdpseTerbit",
      "id": 8665,
      "attributes": {
        "nomor_pb_umku": "812011802002900160004",
        "nama": "BRAINACADEMY",
        "website": "brainacademy.id",
        "sektor": "Sektor Perdagangan, Sektor Teknologi Informasi dan Komunikasi",
        "nama_perusahaan": "RUANG RAYA INDONESIA",
        "tanggal_daftar": "2022-07-21",
        "nomor_tanda_daftar": "001737.04/DJAI.PSE/07/2022",
        "qr_code": "https://pse.kominfo.go.id/storage/images/qr_code/3d642dc845ec291a77845ed29b1c3603.png",
        "status_id": "TERDAFTAR",
        "sistem_elektronik_id": 8583
      }
    },
    {
      "type": "tdpseTerbit",
      "id": 8521,
      "attributes": {
        "nomor_pb_umku": "812011802002900160003",
        "nama": "RUANGKERJA",
        "website": "ruangkerja.id",
        "sektor": "Sektor Perdagangan, Sektor Teknologi Informasi dan Komunikasi",
        "nama_perusahaan": "RUANG RAYA INDONESIA",
        "tanggal_daftar": "2022-07-21",
        "nomor_tanda_daftar": "001737.03/DJAI.PSE/07/2022",
        "qr_code": "https://pse.kominfo.go.id/storage/images/qr_code/36038d85221fe17aa19b330865be3996.png",
        "status_id": "TERDAFTAR",
        "sistem_elektronik_id": 8434
      }
    },
    {
      "type": "tdpseTerbit",
      "id": 8436,
      "attributes": {
        "nomor_pb_umku": "812011802002900160002",
        "nama": "SKILLACADEMY",
        "website": "skillacademy.com",
        "sektor": "Sektor Perdagangan, Sektor Teknologi Informasi dan Komunikasi",
        "nama_perusahaan": "RUANG RAYA INDONESIA",
        "tanggal_daftar": "2022-07-21",
        "nomor_tanda_daftar": "001737.02/DJAI.PSE/07/2022",
        "qr_code": "https://pse.kominfo.go.id/storage/images/qr_code/d3feafd407e82279ad0fe5eef516fd0e.png",
        "status_id": "TERDAFTAR",
        "sistem_elektronik_id": 8354
      }
    },
    {
      "type": "tdpseTerbit",
      "id": 2706,
      "attributes": {
        "nomor_pb_umku": null,
        "nama": "ruangguru",
        "website": "ruangguru.com",
        "sektor": "Sektor Perdagangan",
        "nama_perusahaan": "RUANG RAYA INDONESIA",
        "tanggal_daftar": "2021-12-10",
        "nomor_tanda_daftar": "001737.01/DJAI.PSE/12/2021",
        "qr_code": "https://pse.kominfo.go.id/storage/images/qr_code/12faefed609bf19eda4aa8267726e41f.png",
        "status_id": "TERDAFTAR",
        "sistem_elektronik_id": 1609
      }
    },
    {
      "type": "tdpseTerbit",
      "id": 4009,
      "attributes": {
        "nomor_pb_umku": null,
        "nama": "www.bhayangkaranews.my.id",
        "website": "www.bhayangkaranews.my.id",
        "sektor": "Sektor Teknologi Informasi dan Komunikasi",
        "nama_perusahaan": "MEDIA NARASI JARINGAN RAKYAT",
        "tanggal_daftar": "2022-04-23",
        "nomor_tanda_daftar": "001736.04/DJAI.PSE/04/2022",
        "qr_code": "https://pse.kominfo.go.id/storage/images/qr_code/315cf8552dfa7a5eb56b1a61ba8c44d0.png",
        "status_id": "TERDAFTAR",
        "sistem_elektronik_id": 3743
      }
    }
  ]
}