{
  "meta": {
    "page": {
      "currentPage": 535,
      "from": 5341,
      "lastPage": 1052,
      "perPage": 10,
      "to": 5350,
      "total": 10513
    }
  },
  "data": [
    {
      "type": "tdpseTerbit",
      "id": 4297,
      "attributes": {
        "nomor_pb_umku": "250422004020500020002",
        "nama": "RINGKAS.",
        "website": "ringkas.co.id",
        "sektor": "Sektor Perdagangan, Sektor Teknologi Informasi dan Komunikasi",
        "nama_perusahaan": "RINGKAS ASIA TECHNOLOGY",
        "tanggal_daftar": "2022-06-08",
        "nomor_tanda_daftar": "003074.02/DJAI.PSE/06/2022",
        "qr_code": "https://pse.kominfo.go.id/storage/images/qr_code/eee23a3348551567277200872badf2cf.png",
        "status_id": "TERDAFTAR",
        "sistem_elektronik_id": 4290
      }
    },
    {
      "type": "tdpseTerbit",
      "id": 4295,
      "attributes": {
        "nomor_pb_umku": "250422004020500020001",
        "nama": "RINGKAS",
        "website": "ringkas.co.id",
        "sektor": "Sektor Perdagangan, Sektor Teknologi Informasi dan Komunikasi",
        "nama_perusahaan": "RINGKAS ASIA TECHNOLOGY",
        "tanggal_daftar": "2022-06-08",
        "nomor_tanda_daftar": "003074.01/DJAI.PSE/06/2022",
        "qr_code": "https://pse.kominfo.go.id/storage/images/qr_code/8aee64b875aeb0b239e8435bcc01d792.png",
        "status_id": "TERDAFTAR",
        "sistem_elektronik_id": 4289
      }
    },
    {
      "type": "tdpseTerbit",
      "id": 4305,
      "attributes": {
        "nomor_pb_umku": "022020582003800000001",
        "nama": "TRILOGIS.ID",
        "website": "trilogis.id",
        "sektor": "Sektor Teknologi Informasi dan Komunikasi",
        "nama_perusahaan": "PATIMURA MEDIA SIBER",
        "tanggal_daftar": "2022-06-09",
        "nomor_tanda_daftar": "003070.01/DJAI.PSE/06/2022",
        "qr_code": "https://pse.kominfo.go.id/storage/images/qr_code/3cb7163c3dbc3a0f9de4ff290e85fe4f.png",
        "status_id": "TERDAFTAR",
        "sistem_elektronik_id": 4298
      }
    },
    {
      "type": "tdpseTerbit",
      "id": 4307,
      "attributes": {
        "nomor_pb_umku": "024601101250600000001",
        "nama": "NYMBI",
        "website": "copytrade.nymbi.id",
        "sektor": "Sektor Teknologi Informasi dan Komunikasi",
        "nama_perusahaan": "SOFIN TEKNOLOGI UTAMA",
        "tanggal_daftar": "2022-06-09",
        "nomor_tanda_daftar": "003068.01/DJAI.PSE/06/2022",
        "qr_code": "https://pse.kominfo.go.id/storage/images/qr_code/4f827e09afe593c5d314cd017817f9aa.png",
        "status_id": "TERDAFTAR",
        "sistem_elektronik_id": 4300
      }
    },
    {
      "type": "tdpseTerbit",
      "id": 11013,
      "attributes": {
        "nomor_pb_umku": "912020024276300050003",
        "nama": "INDOPEDIA.ID",
        "website": "indopedia.id",
        "sektor": "Sektor Perdagangan, Sektor Transportasi, Sektor Keuangan, Sektor Teknologi Informasi dan Komunikasi, Sektor Pertahanan dan Keamanan",
        "nama_perusahaan": "NETWAVE MULTI MEDIA",
        "tanggal_daftar": "2022-09-07",
        "nomor_tanda_daftar": "003067.02/DJAI.PSE/09/2022",
        "qr_code": "https://pse.kominfo.go.id/storage/images/qr_code/23ac3f359163ad574c068b4136bc11c3.png",
        "status_id": "TERDAFTAR",
        "sistem_elektronik_id": 10816
      }
    },
    {
      "type": "tdpseTerbit",
      "id": 4289,
      "attributes": {
        "nomor_pb_umku": "912020024276300040002",
        "nama": "NETWAVE",
        "website": "indopedia.id",
        "sektor": "Sektor Perdagangan, Sektor Energi dan Sumber Daya Mineral, Sektor Transportasi, Sektor Keuangan, Sektor Kesehatan, Sektor Teknologi Informasi dan Komunikasi, Sektor Pangan, Sektor Pertahanan dan Keamanan",
        "nama_perusahaan": "NETWAVE MULTI MEDIA",
        "tanggal_daftar": "2022-06-08",
        "nomor_tanda_daftar": "003067.01/DJAI.PSE/06/2022",
        "qr_code": "https://pse.kominfo.go.id/storage/images/qr_code/d02e481261e384027d56efdd7507d57f.png",
        "status_id": "TERDAFTAR",
        "sistem_elektronik_id": 4285
      }
    },
    {
      "type": "tdpseTerbit",
      "id": 4581,
      "attributes": {
        "nomor_pb_umku": "912000981078600010001",
        "nama": "PURWANTOAM",
        "website": "WWW.PURWANTO.CO.ID",
        "sektor": "Sektor Keuangan",
        "nama_perusahaan": "PURWANTO ASSET MANAGEMENT",
        "tanggal_daftar": "2022-06-17",
        "nomor_tanda_daftar": "003065.01/DJAI.PSE/06/2022",
        "qr_code": "https://pse.kominfo.go.id/storage/images/qr_code/fd55fc8ed206f059fafe22f0cdd0fc95.png",
        "status_id": "TERDAFTAR",
        "sistem_elektronik_id": 4544
      }
    },
    {
      "type": "tdpseTerbit",
      "id": 4303,
      "attributes": {
        "nomor_pb_umku": "912020636202100070005",
        "nama": "HDK MULTISOLUTION",
        "website": "hdk-solution.id",
        "sektor": "Sektor Perdagangan, Sektor Kesehatan, Sektor Teknologi Informasi dan Komunikasi",
        "nama_perusahaan": "HADEKA MULTISOLUTION",
        "tanggal_daftar": "2022-06-09",
        "nomor_tanda_daftar": "003062.03/DJAI.PSE/06/2022",
        "qr_code": "https://pse.kominfo.go.id/storage/images/qr_code/51d22b446f821631e0b1f334dff463ca.png",
        "status_id": "TERDAFTAR",
        "sistem_elektronik_id": 4296
      }
    },
    {
      "type": "tdpseTerbit",
      "id": 4302,
      "attributes": {
        "nomor_pb_umku": "912020636202100070004",
        "nama": "HADEKAMULTISOLUTION",
        "website": "hdk-solution.id",
        "sektor": "Sektor Teknologi Informasi dan Komunikasi",
        "nama_perusahaan": "HADEKA MULTISOLUTION",
        "tanggal_daftar": "2022-06-09",
        "nomor_tanda_daftar": "003062.02/DJAI.PSE/06/2022",
        "qr_code": "https://pse.kominfo.go.id/storage/images/qr_code/051a5f84c572f654fd8d7499768f1080.png",
        "status_id": "TERDAFTAR",
        "sistem_elektronik_id": 4295
      }
    },
    {
      "type": "tdpseTerbit",
      "id": 4301,
      "attributes": {
        "nomor_pb_umku": "912020636202100070003",
        "nama": "HADEKA MULTISOLUTION",
        "website": "hdk-solution.id",
        "sektor": "Sektor Teknologi Informasi dan Komunikasi",
        "nama_perusahaan": "HADEKA MULTISOLUTION",
        "tanggal_daftar": "2022-06-09",
        "nomor_tanda_daftar": "003062.01/DJAI.PSE/06/2022",
        "qr_code": "https://pse.kominfo.go.id/storage/images/qr_code/a1f91c76b96044d9ccba2c832a8c6fbf.png",
        "status_id": "TERDAFTAR",
        "sistem_elektronik_id": 4294
      }
    }
  ]
}