{
  "meta": {
    "page": {
      "currentPage": 536,
      "from": 5351,
      "lastPage": 1055,
      "perPage": 10,
      "to": 5360,
      "total": 10545
    }
  },
  "data": [
    {
      "type": "tdpseTerbit",
      "id": 5156,
      "attributes": {
        "nomor_pb_umku": "812001029058400050002",
        "nama": "NALLASTORE",
        "website": "nallastore.co.id",
        "sektor": "Sektor Perdagangan",
        "nama_perusahaan": "NALLA REKAYASA TEKNOLOGI",
        "tanggal_daftar": "2022-07-07",
        "nomor_tanda_daftar": "003099.01/DJAI.PSE/07/2022",
        "qr_code": "https://pse.kominfo.go.id/storage/images/qr_code/b0e9df124419116093734290db823bd6.png",
        "status_id": "TERDAFTAR",
        "sistem_elektronik_id": 5020
      }
    },
    {
      "type": "tdpseTerbit",
      "id": 4331,
      "attributes": {
        "nomor_pb_umku": "128800070079300000001",
        "nama": "PT DIGITAL JAGAD NUSANTARA",
        "website": "digitaljagadnusantara.com",
        "sektor": "Sektor Teknologi Informasi dan Komunikasi",
        "nama_perusahaan": "DIGITAL JAGAD NUSANTARA",
        "tanggal_daftar": "2022-06-12",
        "nomor_tanda_daftar": "003097.01/DJAI.PSE/06/2022",
        "qr_code": "https://pse.kominfo.go.id/storage/images/qr_code/09e92c39271c472472de1dde55bc600c.png",
        "status_id": "TERDAFTAR",
        "sistem_elektronik_id": 4318
      }
    },
    {
      "type": "tdpseTerbit",
      "id": 4316,
      "attributes": {
        "nomor_pb_umku": "022020510300800160002",
        "nama": "JETHOSTING",
        "website": "jethosting.id",
        "sektor": "Sektor Perdagangan, Sektor Teknologi Informasi dan Komunikasi",
        "nama_perusahaan": "CELEBES CIPTA KARYA",
        "tanggal_daftar": "2022-06-09",
        "nomor_tanda_daftar": "003093.01/DJAI.PSE/06/2022",
        "qr_code": "https://pse.kominfo.go.id/storage/images/qr_code/89a97ae0981a3d5c2ebd743e316836c6.png",
        "status_id": "TERDAFTAR",
        "sistem_elektronik_id": 4309
      }
    },
    {
      "type": "tdpseTerbit",
      "id": 7450,
      "attributes": {
        "nomor_pb_umku": "912010019298300010003",
        "nama": "MSIG.CO.ID",
        "website": "msig.co.id",
        "sektor": "Sektor Keuangan",
        "nama_perusahaan": "ASURANSI MSIG INDONESIA",
        "tanggal_daftar": "2022-07-20",
        "nomor_tanda_daftar": "003087.03/DJAI.PSE/07/2022",
        "qr_code": "https://pse.kominfo.go.id/storage/images/qr_code/ac99d5d6496ae6ab6190a1766488003d.png",
        "status_id": "TERDAFTAR",
        "sistem_elektronik_id": 7347
      }
    },
    {
      "type": "tdpseTerbit",
      "id": 7399,
      "attributes": {
        "nomor_pb_umku": "912010019298300010002",
        "nama": "MSIG MOBILE",
        "website": "-",
        "sektor": "Sektor Keuangan",
        "nama_perusahaan": "ASURANSI MSIG INDONESIA",
        "tanggal_daftar": "2022-07-20",
        "nomor_tanda_daftar": "003087.02/DJAI.PSE/07/2022",
        "qr_code": "https://pse.kominfo.go.id/storage/images/qr_code/2d5495865c8cd5c4408acab6d2741316.png",
        "status_id": "TERDAFTAR",
        "sistem_elektronik_id": 7291
      }
    },
    {
      "type": "tdpseTerbit",
      "id": 4525,
      "attributes": {
        "nomor_pb_umku": "912010019298300010001",
        "nama": "MSIGONLINE",
        "website": "msigonline.co.id",
        "sektor": "Sektor Keuangan",
        "nama_perusahaan": "ASURANSI MSIG INDONESIA",
        "tanggal_daftar": "2022-06-16",
        "nomor_tanda_daftar": "003087.01/DJAI.PSE/06/2022",
        "qr_code": "https://pse.kominfo.go.id/storage/images/qr_code/0cd734e7935b6710dc6485ac20996001.png",
        "status_id": "TERDAFTAR",
        "sistem_elektronik_id": 4509
      }
    },
    {
      "type": "tdpseTerbit",
      "id": 4702,
      "attributes": {
        "nomor_pb_umku": "812021323096500040001",
        "nama": "AGOES DJOENAEDI HARSOBISONO",
        "website": "genetek.co.id",
        "sektor": "Sektor Perdagangan",
        "nama_perusahaan": "EFFRENSINDO KENCANA",
        "tanggal_daftar": "2022-06-23",
        "nomor_tanda_daftar": "003086.01/DJAI.PSE/06/2022",
        "qr_code": "https://pse.kominfo.go.id/storage/images/qr_code/d69947a14f3464a49927d4fac490f87b.png",
        "status_id": "TERDAFTAR",
        "sistem_elektronik_id": 4657
      }
    },
    {
      "type": "tdpseTerbit",
      "id": 4310,
      "attributes": {
        "nomor_pb_umku": "091221004417800030002",
        "nama": "CV.MANDRAKARTA",
        "website": "mandrakarta.id",
        "sektor": "Sektor Perdagangan",
        "nama_perusahaan": "MANDRAKARTA",
        "tanggal_daftar": "2022-06-09",
        "nomor_tanda_daftar": "003085.02/DJAI.PSE/06/2022",
        "qr_code": "https://pse.kominfo.go.id/storage/images/qr_code/b48ed77c11648ef0dfbae148c037913d.png",
        "status_id": "TERDAFTAR",
        "sistem_elektronik_id": 4303
      }
    },
    {
      "type": "tdpseTerbit",
      "id": 4309,
      "attributes": {
        "nomor_pb_umku": "091221004417800030001",
        "nama": "MANDRAKARTA",
        "website": "mandrakarta.id",
        "sektor": "Sektor Perdagangan",
        "nama_perusahaan": "MANDRAKARTA",
        "tanggal_daftar": "2022-06-09",
        "nomor_tanda_daftar": "003085.01/DJAI.PSE/06/2022",
        "qr_code": "https://pse.kominfo.go.id/storage/images/qr_code/5355f0e0dd2012c846a729eedf4b3b02.png",
        "status_id": "TERDAFTAR",
        "sistem_elektronik_id": 4302
      }
    },
    {
      "type": "tdpseTerbit",
      "id": 4317,
      "attributes": {
        "nomor_pb_umku": "812031112185100020001",
        "nama": "ANNORA JAYA ABADI",
        "website": "indonesiavisaservice.com",
        "sektor": "Sektor Perdagangan",
        "nama_perusahaan": "ANNORA JAYA ABADI",
        "tanggal_daftar": "2022-06-10",
        "nomor_tanda_daftar": "003084.01/DJAI.PSE/06/2022",
        "qr_code": "https://pse.kominfo.go.id/storage/images/qr_code/0d4306a2c8b0ca68d8998e5f531a3e1a.png",
        "status_id": "TERDAFTAR",
        "sistem_elektronik_id": 4310
      }
    }
  ]
}