{
  "meta": {
    "page": {
      "currentPage": 538,
      "from": 5371,
      "lastPage": 1038,
      "perPage": 10,
      "to": 5380,
      "total": 10380
    }
  },
  "data": [
    {
      "type": "tdpseTerbit",
      "id": 10441,
      "attributes": {
        "nomor_pb_umku": "812011321073600340021",
        "nama": "SITUS RESMI PT PELAYARAN NASIONAL INDONESIA (PERSERO)",
        "website": "pelni.co.id",
        "sektor": "Sektor Transportasi",
        "nama_perusahaan": "PERUSAHAAN PERSEROAN (PERSERO) PT. PELAYARAN NASIONAL INDONESIA",
        "tanggal_daftar": "2022-08-18",
        "nomor_tanda_daftar": "002870.03/DJAI.PSE/08/2022",
        "qr_code": "https://pse.kominfo.go.id/storage/images/qr_code/a020316d71e4ce850d7516322ebd6102.png",
        "status_id": "TERDAFTAR",
        "sistem_elektronik_id": 10298
      }
    },
    {
      "type": "tdpseTerbit",
      "id": 9977,
      "attributes": {
        "nomor_pb_umku": "812011321073600340020",
        "nama": "MYCARGOO!",
        "website": "mycargoo.pelni.co.id",
        "sektor": "Sektor Transportasi",
        "nama_perusahaan": "PERUSAHAAN PERSEROAN (PERSERO) PT. PELAYARAN NASIONAL INDONESIA",
        "tanggal_daftar": "2022-08-05",
        "nomor_tanda_daftar": "002870.02/DJAI.PSE/08/2022",
        "qr_code": "https://pse.kominfo.go.id/storage/images/qr_code/c73abc59f825554e403c33b20751b172.png",
        "status_id": "TERDAFTAR",
        "sistem_elektronik_id": 9864
      }
    },
    {
      "type": "tdpseTerbit",
      "id": 4324,
      "attributes": {
        "nomor_pb_umku": "812011321073600330019",
        "nama": "PELNI PASSENGERS SERVICE SYSTEM",
        "website": "ticket.pelni.co.id",
        "sektor": "Sektor Transportasi",
        "nama_perusahaan": "PERUSAHAAN PERSEROAN (PERSERO) PT. PELAYARAN NASIONAL INDONESIA",
        "tanggal_daftar": "2022-06-10",
        "nomor_tanda_daftar": "002870.01/DJAI.PSE/05/2022",
        "qr_code": "https://pse.kominfo.go.id/storage/images/qr_code/f55a08220f0a6eacf6f359d3e29896b4.png",
        "status_id": "TERDAFTAR",
        "sistem_elektronik_id": 4191
      }
    },
    {
      "type": "tdpseTerbit",
      "id": 4154,
      "attributes": {
        "nomor_pb_umku": "270522002107500010001",
        "nama": "OXYMAS",
        "website": "oxymas.info",
        "sektor": "Sektor Perdagangan, Sektor Kesehatan",
        "nama_perusahaan": "IMAM SUBANDI",
        "tanggal_daftar": "2022-05-27",
        "nomor_tanda_daftar": "002869.01/DJAI.PSE/05/2022",
        "qr_code": "https://pse.kominfo.go.id/storage/images/qr_code/030dd4c2ca8af225a707035db46bec09.png",
        "status_id": "TERDAFTAR",
        "sistem_elektronik_id": 4160
      }
    },
    {
      "type": "tdpseTerbit",
      "id": 10533,
      "attributes": {
        "nomor_pb_umku": "912030519120100010015",
        "nama": "TRIBUNSHOPPING.COM",
        "website": "tribunshopping.com",
        "sektor": "Sektor Teknologi Informasi dan Komunikasi",
        "nama_perusahaan": "TRIBUN BERITA ONLINE",
        "tanggal_daftar": "2022-08-18",
        "nomor_tanda_daftar": "002867.16/DJAI.PSE/08/2022",
        "qr_code": "https://pse.kominfo.go.id/storage/images/qr_code/371e7d7193397bf25f49fd0f4ab00f6b.png",
        "status_id": "TERDAFTAR",
        "sistem_elektronik_id": 10392
      }
    },
    {
      "type": "tdpseTerbit",
      "id": 10532,
      "attributes": {
        "nomor_pb_umku": "912030519120100010014",
        "nama": "TRIBUNBELANJA.COM",
        "website": "tribunbelanja.com",
        "sektor": "Sektor Teknologi Informasi dan Komunikasi",
        "nama_perusahaan": "TRIBUN BERITA ONLINE",
        "tanggal_daftar": "2022-08-18",
        "nomor_tanda_daftar": "002867.15/DJAI.PSE/08/2022",
        "qr_code": "https://pse.kominfo.go.id/storage/images/qr_code/432ae4e5769af2bc3c2ccb006b5c697c.png",
        "status_id": "TERDAFTAR",
        "sistem_elektronik_id": 10391
      }
    },
    {
      "type": "tdpseTerbit",
      "id": 10529,
      "attributes": {
        "nomor_pb_umku": "912030519120100010013",
        "nama": "TRIBUNHEALTH.COM",
        "website": "tribunhealth.com",
        "sektor": "Sektor Teknologi Informasi dan Komunikasi",
        "nama_perusahaan": "TRIBUN BERITA ONLINE",
        "tanggal_daftar": "2022-08-18",
        "nomor_tanda_daftar": "002867.14/DJAI.PSE/08/2022",
        "qr_code": "https://pse.kominfo.go.id/storage/images/qr_code/efbb57e83fb22fd9a2f36af65af55c30.png",
        "status_id": "TERDAFTAR",
        "sistem_elektronik_id": 10388
      }
    },
    {
      "type": "tdpseTerbit",
      "id": 10528,
      "attributes": {
        "nomor_pb_umku": "912030519120100010012",
        "nama": "TRIBUNSOLO.COM",
        "website": "tribunsolo.com",
        "sektor": "Sektor Teknologi Informasi dan Komunikasi",
        "nama_perusahaan": "TRIBUN BERITA ONLINE",
        "tanggal_daftar": "2022-08-18",
        "nomor_tanda_daftar": "002867.13/DJAI.PSE/08/2022",
        "qr_code": "https://pse.kominfo.go.id/storage/images/qr_code/1125504a1e3bb1b26fd98bd8fadd85e8.png",
        "status_id": "TERDAFTAR",
        "sistem_elektronik_id": 10387
      }
    },
    {
      "type": "tdpseTerbit",
      "id": 10527,
      "attributes": {
        "nomor_pb_umku": "912030519120100010011",
        "nama": "TRIBUNNEWSBOGOR.COM",
        "website": "tribunnewsbogor.com",
        "sektor": "Sektor Teknologi Informasi dan Komunikasi",
        "nama_perusahaan": "TRIBUN BERITA ONLINE",
        "tanggal_daftar": "2022-08-18",
        "nomor_tanda_daftar": "002867.12/DJAI.PSE/08/2022",
        "qr_code": "https://pse.kominfo.go.id/storage/images/qr_code/4ea4ed03f035f94930bedb0d97f7b39f.png",
        "status_id": "TERDAFTAR",
        "sistem_elektronik_id": 10386
      }
    },
    {
      "type": "tdpseTerbit",
      "id": 10524,
      "attributes": {
        "nomor_pb_umku": "912030519120100010010",
        "nama": "WARTAKOTALIVE.COM",
        "website": "wartakotalive.com",
        "sektor": "Sektor Teknologi Informasi dan Komunikasi",
        "nama_perusahaan": "TRIBUN BERITA ONLINE",
        "tanggal_daftar": "2022-08-18",
        "nomor_tanda_daftar": "002867.11/DJAI.PSE/08/2022",
        "qr_code": "https://pse.kominfo.go.id/storage/images/qr_code/7fe706a5f7fa80553415b752eb2eeaa0.png",
        "status_id": "TERDAFTAR",
        "sistem_elektronik_id": 10384
      }
    }
  ]
}