{
  "meta": {
    "page": {
      "currentPage": 539,
      "from": 5381,
      "lastPage": 1061,
      "perPage": 10,
      "to": 5390,
      "total": 10601
    }
  },
  "data": [
    {
      "type": "tdpseTerbit",
      "id": 4267,
      "attributes": {
        "nomor_pb_umku": "250422004502300000001",
        "nama": "ERADIGITALCEMERLANG.COM",
        "website": "eradigitalcemerlang.com",
        "sektor": "Sektor Perdagangan",
        "nama_perusahaan": "ERA DIGITAL CEMERLANG",
        "tanggal_daftar": "2022-06-07",
        "nomor_tanda_daftar": "003143.01/DJAI.PSE/06/2022",
        "qr_code": "https://pse.kominfo.go.id/storage/images/qr_code/4b077b9b37ceba105b2c1a17595e0b22.png",
        "status_id": "TERDAFTAR",
        "sistem_elektronik_id": 4267
      }
    },
    {
      "type": "tdpseTerbit",
      "id": 9119,
      "attributes": {
        "nomor_pb_umku": "812011224159400820001",
        "nama": "WATSONS ID",
        "website": "watsons.co.id",
        "sektor": "Sektor Perdagangan",
        "nama_perusahaan": "DUTA INTIDAYA",
        "tanggal_daftar": "2022-07-27",
        "nomor_tanda_daftar": "003140.01/DJAI.PSE/07/2022",
        "qr_code": "https://pse.kominfo.go.id/storage/images/qr_code/02e8f0c336f0d78bce0d5f8346c90dd2.png",
        "status_id": "TERDAFTAR",
        "sistem_elektronik_id": 8821
      }
    },
    {
      "type": "tdpseTerbit",
      "id": 4278,
      "attributes": {
        "nomor_pb_umku": "812031015066100000001",
        "nama": "HYBRID-H",
        "website": "hybrid-h.id",
        "sektor": "Sektor Perdagangan",
        "nama_perusahaan": "HARDANA WIDYA MAHIR",
        "tanggal_daftar": "2022-06-08",
        "nomor_tanda_daftar": "003138.02/DJAI.PSE/06/2022",
        "qr_code": "https://pse.kominfo.go.id/storage/images/qr_code/acb7cc4bad2ee3528b902abe3a6e6e57.png",
        "status_id": "TERDAFTAR",
        "sistem_elektronik_id": 4263
      }
    },
    {
      "type": "tdpseTerbit",
      "id": 4281,
      "attributes": {
        "nomor_pb_umku": "812021213051300000001",
        "nama": "STOCKBIT WEB",
        "website": "stockbit.com",
        "sektor": "Sektor Keuangan",
        "nama_perusahaan": "TRENOLOGI INDONESIA",
        "tanggal_daftar": "2022-06-08",
        "nomor_tanda_daftar": "003137.01/DJAI.PSE/06/2022",
        "qr_code": "https://pse.kominfo.go.id/storage/images/qr_code/b50b0386c3a95d526ecff76c78556195.png",
        "status_id": "TERDAFTAR",
        "sistem_elektronik_id": 4274
      }
    },
    {
      "type": "tdpseTerbit",
      "id": 6465,
      "attributes": {
        "nomor_pb_umku": "040122001284800000001",
        "nama": "LAPORHUKUM",
        "website": "laporhukum.com",
        "sektor": "Sektor Perdagangan, Sektor Teknologi Informasi dan Komunikasi",
        "nama_perusahaan": "BERTIGA BANYAK BERKAT",
        "tanggal_daftar": "2022-07-18",
        "nomor_tanda_daftar": "003136.01/DJAI.PSE/07/2022",
        "qr_code": "https://pse.kominfo.go.id/storage/images/qr_code/412ee794c09866d0c5bfed3e82de3341.png",
        "status_id": "TERDAFTAR",
        "sistem_elektronik_id": 6328
      }
    },
    {
      "type": "tdpseTerbit",
      "id": 4272,
      "attributes": {
        "nomor_pb_umku": "120122003037500000001",
        "nama": "HTTP://DIGITALBARU.COM/",
        "website": "digitalbaru.com",
        "sektor": "Sektor Teknologi Informasi dan Komunikasi",
        "nama_perusahaan": "DIGITAL BARU BERJAYA",
        "tanggal_daftar": "2022-06-08",
        "nomor_tanda_daftar": "003135.01/DJAI.PSE/06/2022",
        "qr_code": "https://pse.kominfo.go.id/storage/images/qr_code/e273658ea385214d9859b34cdefb6f9c.png",
        "status_id": "TERDAFTAR",
        "sistem_elektronik_id": 4259
      }
    },
    {
      "type": "tdpseTerbit",
      "id": 10829,
      "attributes": {
        "nomor_pb_umku": "912000969184100010004",
        "nama": "BENEFITS ACCESS",
        "website": "-",
        "sektor": "Sektor Keuangan",
        "nama_perusahaan": "WILLIS TOWERS WATSON INSURANCE BROKER INDONESIA",
        "tanggal_daftar": "2022-08-26",
        "nomor_tanda_daftar": "003127.03/DJAI.PSE/08/2022",
        "qr_code": "https://pse.kominfo.go.id/storage/images/qr_code/9c92f2b9b7335c14d97f3c4855e04687.png",
        "status_id": "TERDAFTAR",
        "sistem_elektronik_id": 10639
      }
    },
    {
      "type": "tdpseTerbit",
      "id": 10826,
      "attributes": {
        "nomor_pb_umku": "912000969184100010003",
        "nama": "EMBARK",
        "website": "ehr.com",
        "sektor": "Sektor Keuangan",
        "nama_perusahaan": "WILLIS TOWERS WATSON INSURANCE BROKER INDONESIA",
        "tanggal_daftar": "2022-08-26",
        "nomor_tanda_daftar": "003127.02/DJAI.PSE/08/2022",
        "qr_code": "https://pse.kominfo.go.id/storage/images/qr_code/76fcb1215549d52f63304b4cb3a0cbe3.png",
        "status_id": "TERDAFTAR",
        "sistem_elektronik_id": 10634
      }
    },
    {
      "type": "tdpseTerbit",
      "id": 8576,
      "attributes": {
        "nomor_pb_umku": "912000969184100010002",
        "nama": "AFFINITY TECHNOLOGY PLATFORM (ATP)",
        "website": "-",
        "sektor": "Sektor Keuangan",
        "nama_perusahaan": "WILLIS TOWERS WATSON INSURANCE BROKER INDONESIA",
        "tanggal_daftar": "2022-07-21",
        "nomor_tanda_daftar": "003127.01/DJAI.PSE/07/2022",
        "qr_code": "https://pse.kominfo.go.id/storage/images/qr_code/17f203ae2a95ee46841511a5111c9951.png",
        "status_id": "TERDAFTAR",
        "sistem_elektronik_id": 8488
      }
    },
    {
      "type": "tdpseTerbit",
      "id": 11156,
      "attributes": {
        "nomor_pb_umku": "812000290008700000002",
        "nama": "C-ACCESS",
        "website": "krl.co.id",
        "sektor": "Sektor Transportasi",
        "nama_perusahaan": "KERETA COMMUTER INDONESIA",
        "tanggal_daftar": "2022-09-13",
        "nomor_tanda_daftar": "003126.02/DJAI.PSE/09/2022",
        "qr_code": "https://pse.kominfo.go.id/storage/images/qr_code/8ee004374b1c86cc4d08b31f8b07dc63.png",
        "status_id": "TERDAFTAR",
        "sistem_elektronik_id": 10957
      }
    }
  ]
}