{
  "meta": {
    "page": {
      "currentPage": 540,
      "from": 5391,
      "lastPage": 1055,
      "perPage": 10,
      "to": 5400,
      "total": 10545
    }
  },
  "data": [
    {
      "type": "tdpseTerbit",
      "id": 4277,
      "attributes": {
        "nomor_pb_umku": "300522005263500010001",
        "nama": "A&B MEDIKA",
        "website": "-",
        "sektor": "Sektor Kesehatan",
        "nama_perusahaan": "ANASTASIA PANGGELO",
        "tanggal_daftar": "2022-06-08",
        "nomor_tanda_daftar": "003038.01/DJAI.PSE/06/2022",
        "qr_code": "https://pse.kominfo.go.id/storage/images/qr_code/ad8eb66baec1899976d380a5b4499fdf.png",
        "status_id": "TERDAFTAR",
        "sistem_elektronik_id": 4271
      }
    },
    {
      "type": "tdpseTerbit",
      "id": 4245,
      "attributes": {
        "nomor_pb_umku": "912001101330500110001",
        "nama": "MAKASSAR COMPUTINDO",
        "website": "makassarcomputindo.com",
        "sektor": "Sektor Perdagangan, Sektor Teknologi Informasi dan Komunikasi",
        "nama_perusahaan": "MAKASSAR COMPUTINDO",
        "tanggal_daftar": "2022-06-06",
        "nomor_tanda_daftar": "003037.01/DJAI.PSE/06/2022",
        "qr_code": "https://pse.kominfo.go.id/storage/images/qr_code/39fd1e9e5b2be99b165677ec74cacfd9.png",
        "status_id": "TERDAFTAR",
        "sistem_elektronik_id": 4240
      }
    },
    {
      "type": "tdpseTerbit",
      "id": 4326,
      "attributes": {
        "nomor_pb_umku": "121121000833600010001",
        "nama": "PLATFORM JUAL BELI ASET DIGITAL KRIPTO",
        "website": "nvxchange.com",
        "sektor": "Sektor Perdagangan",
        "nama_perusahaan": "ASET KRIPTO INTERNASIONAL",
        "tanggal_daftar": "2022-06-10",
        "nomor_tanda_daftar": "003034.01/DJAI.PSE/06/2022",
        "qr_code": "https://pse.kominfo.go.id/storage/images/qr_code/454f0f620c238df103a91e0bd9700560.png",
        "status_id": "TERDAFTAR",
        "sistem_elektronik_id": 4313
      }
    },
    {
      "type": "tdpseTerbit",
      "id": 4242,
      "attributes": {
        "nomor_pb_umku": "030622005543700020001",
        "nama": "KODIPEST",
        "website": "kodipest.com",
        "sektor": "Sektor Teknologi Informasi dan Komunikasi",
        "nama_perusahaan": "INDONESIA CERDAS BERKARYA",
        "tanggal_daftar": "2022-06-06",
        "nomor_tanda_daftar": "003033.01/DJAI.PSE/06/2022",
        "qr_code": "https://pse.kominfo.go.id/storage/images/qr_code/577e7d119a6db4126dc7003f8b2f621f.png",
        "status_id": "TERDAFTAR",
        "sistem_elektronik_id": 4237
      }
    },
    {
      "type": "tdpseTerbit",
      "id": 4263,
      "attributes": {
        "nomor_pb_umku": "912010013110300000001",
        "nama": "RINGAN",
        "website": "ringan.co.id",
        "sektor": "Sektor Keuangan",
        "nama_perusahaan": "RINGAN TEKNOLOGI INDONESIA",
        "tanggal_daftar": "2022-06-07",
        "nomor_tanda_daftar": "003032.01/DJAI.PSE/06/2022",
        "qr_code": "https://pse.kominfo.go.id/storage/images/qr_code/25c222bb43de3ffb6b9e39b0f93e910e.png",
        "status_id": "TERDAFTAR",
        "sistem_elektronik_id": 4262
      }
    },
    {
      "type": "tdpseTerbit",
      "id": 4241,
      "attributes": {
        "nomor_pb_umku": "912011907022200000001",
        "nama": "CV DROPSHIP",
        "website": "dropshipaja.com",
        "sektor": "Sektor Keuangan",
        "nama_perusahaan": "DROPSHIP",
        "tanggal_daftar": "2022-06-06",
        "nomor_tanda_daftar": "003029.01/DJAI.PSE/06/2022",
        "qr_code": "https://pse.kominfo.go.id/storage/images/qr_code/5b9b4628ea6d3b8fb8bdf54515842bf4.png",
        "status_id": "TERDAFTAR",
        "sistem_elektronik_id": 4236
      }
    },
    {
      "type": "tdpseTerbit",
      "id": 4308,
      "attributes": {
        "nomor_pb_umku": "071021004989200010001",
        "nama": "WETALK",
        "website": "wetalk.id",
        "sektor": "Sektor Perdagangan, Sektor Transportasi, Sektor Kesehatan, Sektor Teknologi Informasi dan Komunikasi, Sektor Pangan, Sektor Pertahanan dan Keamanan",
        "nama_perusahaan": "DIGITAL KREATIF MILENIAL",
        "tanggal_daftar": "2022-06-09",
        "nomor_tanda_daftar": "003027.01/DJAI.PSE/06/2022",
        "qr_code": "https://pse.kominfo.go.id/storage/images/qr_code/71f24355102396b806c2ae637cea3aab.png",
        "status_id": "TERDAFTAR",
        "sistem_elektronik_id": 4301
      }
    },
    {
      "type": "tdpseTerbit",
      "id": 5166,
      "attributes": {
        "nomor_pb_umku": "912040130256100690004",
        "nama": "CORPORATE WEBSITE BCAMF",
        "website": "bcamf.co.id",
        "sektor": "Sektor Keuangan",
        "nama_perusahaan": "BCA MULTI FINANCE",
        "tanggal_daftar": "2022-07-07",
        "nomor_tanda_daftar": "003026.02/DJAI.PSE/07/2022",
        "qr_code": "https://pse.kominfo.go.id/storage/images/qr_code/5a775464e91512929146cde7b0eb79a9.png",
        "status_id": "TERDAFTAR",
        "sistem_elektronik_id": 5030
      }
    },
    {
      "type": "tdpseTerbit",
      "id": 4328,
      "attributes": {
        "nomor_pb_umku": "912040130256100610001",
        "nama": "BCA MULTI FINANCE",
        "website": "bcamf.co.id",
        "sektor": "Sektor Keuangan",
        "nama_perusahaan": "BCA MULTI FINANCE",
        "tanggal_daftar": "2022-06-10",
        "nomor_tanda_daftar": "003026.01/DJAI.PSE/06/2022",
        "qr_code": "https://pse.kominfo.go.id/storage/images/qr_code/d988dc98415508cb684a5e2894882a5e.png",
        "status_id": "TERDAFTAR",
        "sistem_elektronik_id": 4315
      }
    },
    {
      "type": "tdpseTerbit",
      "id": 4282,
      "attributes": {
        "nomor_pb_umku": "127600345206400000001",
        "nama": "FOLLOWME",
        "website": "FOLLOWME.COM",
        "sektor": "Sektor Teknologi Informasi dan Komunikasi",
        "nama_perusahaan": "FOLLOWME MARKETS INDONESIA",
        "tanggal_daftar": "2022-06-08",
        "nomor_tanda_daftar": "003023.01/DJAI.PSE/06/2022",
        "qr_code": "https://pse.kominfo.go.id/storage/images/qr_code/29fa9cbf65c9a93fa27a3c25cd1c92ea.png",
        "status_id": "TERDAFTAR",
        "sistem_elektronik_id": 4273
      }
    }
  ]
}