{
  "meta": {
    "page": {
      "currentPage": 541,
      "from": 5401,
      "lastPage": 1055,
      "perPage": 10,
      "to": 5410,
      "total": 10545
    }
  },
  "data": [
    {
      "type": "tdpseTerbit",
      "id": 4238,
      "attributes": {
        "nomor_pb_umku": "100522004084300010001",
        "nama": "PAYHERE",
        "website": "payhere.id",
        "sektor": "Sektor Perdagangan",
        "nama_perusahaan": "PAYHERE NUSWANTARA INTERNATIONAL",
        "tanggal_daftar": "2022-06-06",
        "nomor_tanda_daftar": "003022.01/DJAI.PSE/06/2022",
        "qr_code": "https://pse.kominfo.go.id/storage/images/qr_code/d16a563c3956caa6b784d5732f2ad051.png",
        "status_id": "TERDAFTAR",
        "sistem_elektronik_id": 4235
      }
    },
    {
      "type": "tdpseTerbit",
      "id": 4244,
      "attributes": {
        "nomor_pb_umku": "912040287176800020001",
        "nama": "PITIK - SMART BROILER FARMING",
        "website": "pitik.id",
        "sektor": "Sektor Perdagangan, Sektor Teknologi Informasi dan Komunikasi",
        "nama_perusahaan": "PITIK DIGITAL INDONESIA",
        "tanggal_daftar": "2022-06-06",
        "nomor_tanda_daftar": "003019.01/DJAI.PSE/06/2022",
        "qr_code": "https://pse.kominfo.go.id/storage/images/qr_code/6cab608f2c5f18a41a227a51edf65399.png",
        "status_id": "TERDAFTAR",
        "sistem_elektronik_id": 4238
      }
    },
    {
      "type": "tdpseTerbit",
      "id": 4634,
      "attributes": {
        "nomor_pb_umku": "040622001126800000001",
        "nama": "AGX",
        "website": "agx.co",
        "sektor": "Sektor Perdagangan",
        "nama_perusahaan": "HYDRAX DIGITAL TEKNOLOGI",
        "tanggal_daftar": "2022-06-21",
        "nomor_tanda_daftar": "003015.01/DJAI.PSE/06/2022",
        "qr_code": "https://pse.kominfo.go.id/storage/images/qr_code/15f44510cb34be44cb539d213fffd591.png",
        "status_id": "TERDAFTAR",
        "sistem_elektronik_id": 4595
      }
    },
    {
      "type": "tdpseTerbit",
      "id": 4230,
      "attributes": {
        "nomor_pb_umku": "060622001466100000001",
        "nama": "PRO DIGITAL AGENCY",
        "website": "prodigitalagency.com",
        "sektor": "Sektor Perdagangan",
        "nama_perusahaan": "ANJAS SWARA",
        "tanggal_daftar": "2022-06-06",
        "nomor_tanda_daftar": "003014.01/DJAI.PSE/06/2022",
        "qr_code": "https://pse.kominfo.go.id/storage/images/qr_code/3d79a096b0acb7685121b9b9e0bbb5e9.png",
        "status_id": "TERDAFTAR",
        "sistem_elektronik_id": 4227
      }
    },
    {
      "type": "tdpseTerbit",
      "id": 4262,
      "attributes": {
        "nomor_pb_umku": "812000598133100010001",
        "nama": "WEBSITE PROFILE PERUSAHAAN",
        "website": "eisai.co.id",
        "sektor": "Sektor Kesehatan",
        "nama_perusahaan": "EISAI INDONESIA",
        "tanggal_daftar": "2022-06-07",
        "nomor_tanda_daftar": "003013.01/DJAI.PSE/06/2022",
        "qr_code": "https://pse.kominfo.go.id/storage/images/qr_code/3161e2339dcb8a47e58521a8f705139c.png",
        "status_id": "TERDAFTAR",
        "sistem_elektronik_id": 4258
      }
    },
    {
      "type": "tdpseTerbit",
      "id": 4284,
      "attributes": {
        "nomor_pb_umku": "812000091181800000001",
        "nama": "HAKUHODO INDONESIA",
        "website": "hakuhodo.id",
        "sektor": "Sektor Perdagangan",
        "nama_perusahaan": "HITA WISTARA MAHIR",
        "tanggal_daftar": "2022-06-08",
        "nomor_tanda_daftar": "003008.01/DJAI.PSE/06/2022",
        "qr_code": "https://pse.kominfo.go.id/storage/images/qr_code/cd53e0511ee89a393549b616510fb4ff.png",
        "status_id": "TERDAFTAR",
        "sistem_elektronik_id": 4277
      }
    },
    {
      "type": "tdpseTerbit",
      "id": 4283,
      "attributes": {
        "nomor_pb_umku": "812031311007400000001",
        "nama": "HAKUHODO ID",
        "website": "HAKUHODO.ID",
        "sektor": "Sektor Perdagangan",
        "nama_perusahaan": "HARKAT FITRAH MAHIR",
        "tanggal_daftar": "2022-06-08",
        "nomor_tanda_daftar": "003007.01/DJAI.PSE/06/2022",
        "qr_code": "https://pse.kominfo.go.id/storage/images/qr_code/d1f0279c5cf53bbcb38e147dbab341d7.png",
        "status_id": "TERDAFTAR",
        "sistem_elektronik_id": 4278
      }
    },
    {
      "type": "tdpseTerbit",
      "id": 5000,
      "attributes": {
        "nomor_pb_umku": "170222006255900030001",
        "nama": "KAISARCAHYABERKAH.COM",
        "website": "kaisarcahyaberkah.com",
        "sektor": "Sektor Perdagangan",
        "nama_perusahaan": "KAISAR CAHYA BERKAH",
        "tanggal_daftar": "2022-07-01",
        "nomor_tanda_daftar": "002995.01/DJAI.PSE/07/2022",
        "qr_code": "https://pse.kominfo.go.id/storage/images/qr_code/4eee3f03fe2255baf49246c46cbff50e.png",
        "status_id": "TERDAFTAR",
        "sistem_elektronik_id": 4869
      }
    },
    {
      "type": "tdpseTerbit",
      "id": 11052,
      "attributes": {
        "nomor_pb_umku": "912000746018600010002",
        "nama": "JAGO APP MOBILE",
        "website": "jagocoffee.com",
        "sektor": "Sektor Perdagangan",
        "nama_perusahaan": "SATUAN TEKNOLOGI BERJALAN",
        "tanggal_daftar": "2022-09-06",
        "nomor_tanda_daftar": "002992.02/DJAI.PSE/09/2022",
        "qr_code": "https://pse.kominfo.go.id/storage/images/qr_code/71d4552f14db7be44f826d84a379f151.png",
        "status_id": "TERDAFTAR",
        "sistem_elektronik_id": 10855
      }
    },
    {
      "type": "tdpseTerbit",
      "id": 4227,
      "attributes": {
        "nomor_pb_umku": "912000746018600010002",
        "nama": "JAGO",
        "website": "jagocoffee.com",
        "sektor": "Sektor Perdagangan",
        "nama_perusahaan": "SATUAN TEKNOLOGI BERJALAN",
        "tanggal_daftar": "2022-06-03",
        "nomor_tanda_daftar": "002992.01/DJAI.PSE/06/2022",
        "qr_code": "https://pse.kominfo.go.id/storage/images/qr_code/57ab6b88c583984ab4b160087c61379f.png",
        "status_id": "TERDAFTAR",
        "sistem_elektronik_id": 4224
      }
    }
  ]
}