{
  "meta": {
    "page": {
      "currentPage": 542,
      "from": 5411,
      "lastPage": 1046,
      "perPage": 10,
      "to": 5420,
      "total": 10457
    }
  },
  "data": [
    {
      "type": "tdpseTerbit",
      "id": 4257,
      "attributes": {
        "nomor_pb_umku": "120522003981100000001",
        "nama": "BMONEY APPLICATION & WM BACK OFFICE SYSTEM",
        "website": "bmoney.id",
        "sektor": "Sektor Teknologi Informasi dan Komunikasi",
        "nama_perusahaan": "BUKA INVESTASI DIGITAL",
        "tanggal_daftar": "2022-06-07",
        "nomor_tanda_daftar": "002917.01/DJAI.PSE/06/2022",
        "qr_code": "https://pse.kominfo.go.id/storage/images/qr_code/2ed2895730be13695d5160e1e75befc4.png",
        "status_id": "TERDAFTAR",
        "sistem_elektronik_id": 4252
      }
    },
    {
      "type": "tdpseTerbit",
      "id": 4294,
      "attributes": {
        "nomor_pb_umku": "190522006674300000002",
        "nama": "UI CONNECT ILUNI UI",
        "website": "-",
        "sektor": "Sektor Teknologi Informasi dan Komunikasi",
        "nama_perusahaan": "IKATAN ALUMNI UNIVERSITAS INDONESIA (ILUNI UI)",
        "tanggal_daftar": "2022-06-08",
        "nomor_tanda_daftar": "002916.02/DJAI.PSE/06/2022",
        "qr_code": "https://pse.kominfo.go.id/storage/images/qr_code/f2c1fffd2a80e71871cda721be37a4b2.png",
        "status_id": "TERDAFTAR",
        "sistem_elektronik_id": 4288
      }
    },
    {
      "type": "tdpseTerbit",
      "id": 4293,
      "attributes": {
        "nomor_pb_umku": "190522006674300000001",
        "nama": "UI CONNECT",
        "website": "-",
        "sektor": "Sektor Teknologi Informasi dan Komunikasi",
        "nama_perusahaan": "IKATAN ALUMNI UNIVERSITAS INDONESIA (ILUNI UI)",
        "tanggal_daftar": "2022-06-08",
        "nomor_tanda_daftar": "002916.01/DJAI.PSE/06/2022",
        "qr_code": "https://pse.kominfo.go.id/storage/images/qr_code/fa81c3b355576c6a1dbebbcea277cb72.png",
        "status_id": "TERDAFTAR",
        "sistem_elektronik_id": 4287
      }
    },
    {
      "type": "tdpseTerbit",
      "id": 4182,
      "attributes": {
        "nomor_pb_umku": "128000070102500030001",
        "nama": "SETIAWAN DIGI NET",
        "website": "bc24pedia.my.id",
        "sektor": "Sektor Teknologi Informasi dan Komunikasi",
        "nama_perusahaan": "MUNZI SETIAWAN",
        "tanggal_daftar": "2022-05-30",
        "nomor_tanda_daftar": "002915.01/DJAI.PSE/05/2022",
        "qr_code": "https://pse.kominfo.go.id/storage/images/qr_code/64a97b5dbd4a2ff678b3a6633be525bf.png",
        "status_id": "TERDAFTAR",
        "sistem_elektronik_id": 4183
      }
    },
    {
      "type": "tdpseTerbit",
      "id": 4184,
      "attributes": {
        "nomor_pb_umku": "022010564042300000001",
        "nama": "ANTRIQUE",
        "website": "antrique.com",
        "sektor": "Sektor Teknologi Informasi dan Komunikasi",
        "nama_perusahaan": "VISI KARYA PRAKARSA",
        "tanggal_daftar": "2022-05-30",
        "nomor_tanda_daftar": "002914.01/DJAI.PSE/05/2022",
        "qr_code": "https://pse.kominfo.go.id/storage/images/qr_code/94dd5b18363e2270d7d7941799051fb9.png",
        "status_id": "TERDAFTAR",
        "sistem_elektronik_id": 4184
      }
    },
    {
      "type": "tdpseTerbit",
      "id": 5184,
      "attributes": {
        "nomor_pb_umku": "240921002096300010001",
        "nama": "TIPTIP.",
        "website": "Tiptip.tv",
        "sektor": "Sektor Perdagangan",
        "nama_perusahaan": "TIPTIP NETWORK INDONESIA",
        "tanggal_daftar": "2022-07-07",
        "nomor_tanda_daftar": "002911.02/DJAI.PSE/07/2022",
        "qr_code": "https://pse.kominfo.go.id/storage/images/qr_code/7604081647d9d01e590421bdf7a5c941.png",
        "status_id": "TERDAFTAR",
        "sistem_elektronik_id": 5043
      }
    },
    {
      "type": "tdpseTerbit",
      "id": 4180,
      "attributes": {
        "nomor_pb_umku": "240921002096300010001",
        "nama": "TIPTIP",
        "website": "Tiptip.tv",
        "sektor": "Sektor Perdagangan",
        "nama_perusahaan": "TIPTIP NETWORK INDONESIA",
        "tanggal_daftar": "2022-05-30",
        "nomor_tanda_daftar": "002911.01/DJAI.PSE/05/2022",
        "qr_code": "https://pse.kominfo.go.id/storage/images/qr_code/8e27a93dcffb7527fca5e098050a9f39.png",
        "status_id": "TERDAFTAR",
        "sistem_elektronik_id": 4181
      }
    },
    {
      "type": "tdpseTerbit",
      "id": 4638,
      "attributes": {
        "nomor_pb_umku": "130522004312700000001",
        "nama": "REACH!",
        "website": "getreach.id",
        "sektor": "Sektor Keuangan, Sektor Teknologi Informasi dan Komunikasi",
        "nama_perusahaan": "TUJUAN NYATA ANAK BANGSA",
        "tanggal_daftar": "2022-06-21",
        "nomor_tanda_daftar": "002910.01/DJAI.PSE/06/2022",
        "qr_code": "https://pse.kominfo.go.id/storage/images/qr_code/4e6122803a34c6ddffc4142a4e90cd0c.png",
        "status_id": "TERDAFTAR",
        "sistem_elektronik_id": 4599
      }
    },
    {
      "type": "tdpseTerbit",
      "id": 4176,
      "attributes": {
        "nomor_pb_umku": "231021002078300000001",
        "nama": "SWOOP MOVE",
        "website": "swoopmove.com",
        "sektor": "Sektor Transportasi",
        "nama_perusahaan": "TEKNOLOGI MOBILITAS INDONESIA",
        "tanggal_daftar": "2022-05-30",
        "nomor_tanda_daftar": "002906.01/DJAI.PSE/05/2022",
        "qr_code": "https://pse.kominfo.go.id/storage/images/qr_code/3021b2aaa26f151961c87793df2557ff.png",
        "status_id": "TERDAFTAR",
        "sistem_elektronik_id": 4179
      }
    },
    {
      "type": "tdpseTerbit",
      "id": 4173,
      "attributes": {
        "nomor_pb_umku": "270522004261800000001",
        "nama": "ANDROID OS",
        "website": "-",
        "sektor": "Sektor Teknologi Informasi dan Komunikasi",
        "nama_perusahaan": "HERU WIDODO",
        "tanggal_daftar": "2022-05-30",
        "nomor_tanda_daftar": "002904.01/DJAI.PSE/05/2022",
        "qr_code": "https://pse.kominfo.go.id/storage/images/qr_code/c0d146c2c8ee1e47241343f1815f9faf.png",
        "status_id": "TERDAFTAR",
        "sistem_elektronik_id": 4176
      }
    }
  ]
}