{
  "meta": {
    "page": {
      "currentPage": 543,
      "from": 5421,
      "lastPage": 1070,
      "perPage": 10,
      "to": 5430,
      "total": 10698
    }
  },
  "data": [
    {
      "type": "tdpseTerbit",
      "id": 9348,
      "attributes": {
        "nomor_pb_umku": "812001623058400270007",
        "nama": "LINTASARTA E-COMMERCE",
        "website": "lintasarta.net",
        "sektor": "Sektor Perdagangan",
        "nama_perusahaan": "APLIKANUSA LINTASARTA",
        "tanggal_daftar": "2022-07-29",
        "nomor_tanda_daftar": "003235.03/DJAI.PSE/07/2022",
        "qr_code": "https://pse.kominfo.go.id/storage/images/qr_code/2173f1189fac78d9e18f02663a6f0f67.png",
        "status_id": "TERDAFTAR",
        "sistem_elektronik_id": 9260
      }
    },
    {
      "type": "tdpseTerbit",
      "id": 8912,
      "attributes": {
        "nomor_pb_umku": "812001623058400270006",
        "nama": "IPROCURA",
        "website": "eproc.lintasarta.net",
        "sektor": "Sektor Perdagangan",
        "nama_perusahaan": "APLIKANUSA LINTASARTA",
        "tanggal_daftar": "2022-07-23",
        "nomor_tanda_daftar": "003235.02/DJAI.PSE/07/2022",
        "qr_code": "https://pse.kominfo.go.id/storage/images/qr_code/505dd4255eb79bc286fd967fe41b1d29.png",
        "status_id": "TERDAFTAR",
        "sistem_elektronik_id": 8816
      }
    },
    {
      "type": "tdpseTerbit",
      "id": 4635,
      "attributes": {
        "nomor_pb_umku": "812001623058400250005",
        "nama": "LINTASARTA E-KYC",
        "website": "-",
        "sektor": "Sektor Teknologi Informasi dan Komunikasi",
        "nama_perusahaan": "APLIKANUSA LINTASARTA",
        "tanggal_daftar": "2022-06-21",
        "nomor_tanda_daftar": "003235.01/DJAI.PSE/06/2022",
        "qr_code": "https://pse.kominfo.go.id/storage/images/qr_code/454f79b8f662c414077f36657ab76311.png",
        "status_id": "TERDAFTAR",
        "sistem_elektronik_id": 4596
      }
    },
    {
      "type": "tdpseTerbit",
      "id": 4973,
      "attributes": {
        "nomor_pb_umku": "210322006176700010001",
        "nama": "TTCHAT",
        "website": "ttchat.com",
        "sektor": "Sektor Teknologi Informasi dan Komunikasi",
        "nama_perusahaan": "QUYAN TECHNOLOGY INDONESIA",
        "tanggal_daftar": "2022-06-30",
        "nomor_tanda_daftar": "003232.01/DJAI.PSE/06/2022",
        "qr_code": "https://pse.kominfo.go.id/storage/images/qr_code/6a2593e2990020ef536d5070db4e42c7.png",
        "status_id": "TERDAFTAR",
        "sistem_elektronik_id": 4830
      }
    },
    {
      "type": "tdpseTerbit",
      "id": 4648,
      "attributes": {
        "nomor_pb_umku": "912021909039600040001",
        "nama": "PASSIO ECO",
        "website": "passio.eco",
        "sektor": "Sektor Perdagangan",
        "nama_perusahaan": "ECOMOBI DIGITAL INDONESIA",
        "tanggal_daftar": "2022-06-21",
        "nomor_tanda_daftar": "003231.02/DJAI.PSE/06/2022",
        "qr_code": "https://pse.kominfo.go.id/storage/images/qr_code/cd7eaf5a248bd9dc432af68338eed486.png",
        "status_id": "TERDAFTAR",
        "sistem_elektronik_id": 4608
      }
    },
    {
      "type": "tdpseTerbit",
      "id": 4571,
      "attributes": {
        "nomor_pb_umku": "912040980232100000001",
        "nama": "WILKA STORE",
        "website": "wilkastore.co.id",
        "sektor": "Sektor Perdagangan, Sektor Energi dan Sumber Daya Mineral",
        "nama_perusahaan": "WILKA ENERGI SOLUSI",
        "tanggal_daftar": "2022-06-16",
        "nomor_tanda_daftar": "003222.02/DJAI.PSE/06/2022",
        "qr_code": "https://pse.kominfo.go.id/storage/images/qr_code/54b142284c7d369e3403547c35bb26a0.png",
        "status_id": "TERDAFTAR",
        "sistem_elektronik_id": 4535
      }
    },
    {
      "type": "tdpseTerbit",
      "id": 4577,
      "attributes": {
        "nomor_pb_umku": "912040980232100000001",
        "nama": "WILKASTORE.CO.ID",
        "website": "wilkapower.com",
        "sektor": "Sektor Perdagangan, Sektor Energi dan Sumber Daya Mineral",
        "nama_perusahaan": "WILKA ENERGI SOLUSI",
        "tanggal_daftar": "2022-06-17",
        "nomor_tanda_daftar": "003222.01/DJAI.PSE/06/2022",
        "qr_code": "https://pse.kominfo.go.id/storage/images/qr_code/f708734f3f2ca044a5475edb1e0581be.png",
        "status_id": "TERDAFTAR",
        "sistem_elektronik_id": 4534
      }
    },
    {
      "type": "tdpseTerbit",
      "id": 4570,
      "attributes": {
        "nomor_pb_umku": "310122004227800000001",
        "nama": "ZAHSY ALESHA DIGITAL & TECH",
        "website": "-",
        "sektor": "Sektor Teknologi Informasi dan Komunikasi",
        "nama_perusahaan": "RULLY SIREY",
        "tanggal_daftar": "2022-06-16",
        "nomor_tanda_daftar": "003219.01/DJAI.PSE/06/2022",
        "qr_code": "https://pse.kominfo.go.id/storage/images/qr_code/6c9912fcdfa17adde801c293d0b234ae.png",
        "status_id": "TERDAFTAR",
        "sistem_elektronik_id": 4533
      }
    },
    {
      "type": "tdpseTerbit",
      "id": 4569,
      "attributes": {
        "nomor_pb_umku": "190522007657500010001",
        "nama": "SMARTCU",
        "website": "smartcu.id",
        "sektor": "Sektor Perdagangan",
        "nama_perusahaan": "PUSKOP CREDIT UNION INDONESIA",
        "tanggal_daftar": "2022-06-16",
        "nomor_tanda_daftar": "003216.01/DJAI.PSE/06/2022",
        "qr_code": "https://pse.kominfo.go.id/storage/images/qr_code/e3291dc07549bd249196de13d0848d5e.png",
        "status_id": "TERDAFTAR",
        "sistem_elektronik_id": 4532
      }
    },
    {
      "type": "tdpseTerbit",
      "id": 4568,
      "attributes": {
        "nomor_pb_umku": "231021002315400080001",
        "nama": "PTAMS",
        "website": "ptams.id",
        "sektor": "Sektor Perdagangan",
        "nama_perusahaan": "AROMA MAKMUR SENTOSA",
        "tanggal_daftar": "2022-06-16",
        "nomor_tanda_daftar": "003215.01/DJAI.PSE/06/2022",
        "qr_code": "https://pse.kominfo.go.id/storage/images/qr_code/2a36c65c28cc051707dd567c08df5321.png",
        "status_id": "TERDAFTAR",
        "sistem_elektronik_id": 4531
      }
    }
  ]
}