{
  "meta": {
    "page": {
      "currentPage": 544,
      "from": 5431,
      "lastPage": 1040,
      "perPage": 10,
      "to": 5440,
      "total": 10398
    }
  },
  "data": [
    {
      "type": "tdpseTerbit",
      "id": 8904,
      "attributes": {
        "nomor_pb_umku": "129900048018300380002",
        "nama": "ANNORA POINT OF SALES",
        "website": "-",
        "sektor": "Sektor Perdagangan, Sektor Teknologi Informasi dan Komunikasi",
        "nama_perusahaan": "ANNORA MULTI INTECH",
        "tanggal_daftar": "2022-07-23",
        "nomor_tanda_daftar": "002842.02/DJAI.PSE/07/2022",
        "qr_code": "https://pse.kominfo.go.id/storage/images/qr_code/2dd38a5d3f080c1c66d31a46f9d1a170.png",
        "status_id": "TERDAFTAR",
        "sistem_elektronik_id": 8809
      }
    },
    {
      "type": "tdpseTerbit",
      "id": 4195,
      "attributes": {
        "nomor_pb_umku": "129900048018300380001",
        "nama": "LABEL (LABORATORIUM PEMBELAJARAN)",
        "website": "-",
        "sektor": "Sektor Teknologi Informasi dan Komunikasi",
        "nama_perusahaan": "ANNORA MULTI INTECH",
        "tanggal_daftar": "2022-05-31",
        "nomor_tanda_daftar": "002842.01/DJAI.PSE/05/2022",
        "qr_code": "https://pse.kominfo.go.id/storage/images/qr_code/f65520a3b783db8a13aa59ce1067b262.png",
        "status_id": "TERDAFTAR",
        "sistem_elektronik_id": 4198
      }
    },
    {
      "type": "tdpseTerbit",
      "id": 4235,
      "attributes": {
        "nomor_pb_umku": "912000633132700000003",
        "nama": "SIPLAH BLIBLI CV. MEDIATEK INTERNUSA",
        "website": "-",
        "sektor": "Sektor Perdagangan",
        "nama_perusahaan": "MEDIATEK INTERNUSA",
        "tanggal_daftar": "2022-06-06",
        "nomor_tanda_daftar": "002833.03/DJAI.PSE/06/2022",
        "qr_code": "https://pse.kominfo.go.id/storage/images/qr_code/acde2c31aba25f4278cdc11c557bd543.png",
        "status_id": "TERDAFTAR",
        "sistem_elektronik_id": 4231
      }
    },
    {
      "type": "tdpseTerbit",
      "id": 4144,
      "attributes": {
        "nomor_pb_umku": "912000633132700000002",
        "nama": "SIPLAH BLIBLI MEDIATEK INTERNUSA",
        "website": "-",
        "sektor": "Sektor Perdagangan",
        "nama_perusahaan": "MEDIATEK INTERNUSA",
        "tanggal_daftar": "2022-05-25",
        "nomor_tanda_daftar": "002833.02/DJAI.PSE/05/2022",
        "qr_code": "https://pse.kominfo.go.id/storage/images/qr_code/b6a767c4564d62cabe7eeae1d0bf4989.png",
        "status_id": "TERDAFTAR",
        "sistem_elektronik_id": 4146
      }
    },
    {
      "type": "tdpseTerbit",
      "id": 4143,
      "attributes": {
        "nomor_pb_umku": "912000633132700000001",
        "nama": "SIPLAH MEDIATEK INTERNUSA",
        "website": "-",
        "sektor": "Sektor Perdagangan, Sektor Teknologi Informasi dan Komunikasi",
        "nama_perusahaan": "MEDIATEK INTERNUSA",
        "tanggal_daftar": "2022-05-25",
        "nomor_tanda_daftar": "002833.01/DJAI.PSE/05/2022",
        "qr_code": "https://pse.kominfo.go.id/storage/images/qr_code/fed32f9fc6afab4ffd8b6c45d7499a71.png",
        "status_id": "TERDAFTAR",
        "sistem_elektronik_id": 4145
      }
    },
    {
      "type": "tdpseTerbit",
      "id": 11275,
      "attributes": {
        "nomor_pb_umku": "812000176280300000002",
        "nama": "BABE+",
        "website": "babe.co.id",
        "sektor": "Sektor Teknologi Informasi dan Komunikasi",
        "nama_perusahaan": "MP GAMES",
        "tanggal_daftar": "2022-09-21",
        "nomor_tanda_daftar": "002831.02/DJAI.PSE/09/2022",
        "qr_code": "https://pse.kominfo.go.id/storage/images/qr_code/aadfed2837a596d2caaba1451af706fa.png",
        "status_id": "TERDAFTAR",
        "sistem_elektronik_id": 11083
      }
    },
    {
      "type": "tdpseTerbit",
      "id": 4368,
      "attributes": {
        "nomor_pb_umku": "812000176280300000001",
        "nama": "HELO-BABE",
        "website": "babe.co.id",
        "sektor": "Sektor Teknologi Informasi dan Komunikasi",
        "nama_perusahaan": "MP GAMES",
        "tanggal_daftar": "2022-06-14",
        "nomor_tanda_daftar": "002831.01/DJAI.PSE/06/2022",
        "qr_code": "https://pse.kominfo.go.id/storage/images/qr_code/b97a812185de42ab3d91b6d2cd6b56e3.png",
        "status_id": "TERDAFTAR",
        "sistem_elektronik_id": 4354
      }
    },
    {
      "type": "tdpseTerbit",
      "id": 4127,
      "attributes": {
        "nomor_pb_umku": "027201000151300030001",
        "nama": "HEAD HUNTER",
        "website": "-",
        "sektor": "Sektor Perdagangan",
        "nama_perusahaan": "WIDDY FERDIANSYAH",
        "tanggal_daftar": "2022-05-25",
        "nomor_tanda_daftar": "002830.01/DJAI.PSE/05/2022",
        "qr_code": "https://pse.kominfo.go.id/storage/images/qr_code/f1be01352cdebcc340608adfd188ca9c.png",
        "status_id": "TERDAFTAR",
        "sistem_elektronik_id": 4129
      }
    },
    {
      "type": "tdpseTerbit",
      "id": 4165,
      "attributes": {
        "nomor_pb_umku": "230322005918300000001",
        "nama": "SAHABATBISNIS.ID",
        "website": "sahabatbisnis.id",
        "sektor": "Sektor Perdagangan",
        "nama_perusahaan": "SAHABAT BISNIS INOVASI",
        "tanggal_daftar": "2022-05-29",
        "nomor_tanda_daftar": "002829.01/DJAI.PSE/05/2022",
        "qr_code": "https://pse.kominfo.go.id/storage/images/qr_code/c2d1f9b5e795dc6012e8ca1c468d7f50.png",
        "status_id": "TERDAFTAR",
        "sistem_elektronik_id": 4171
      }
    },
    {
      "type": "tdpseTerbit",
      "id": 4181,
      "attributes": {
        "nomor_pb_umku": "190522005282400000001",
        "nama": "GLOBAL CAREER",
        "website": "globalcareer.id",
        "sektor": "Sektor Teknologi Informasi dan Komunikasi",
        "nama_perusahaan": "GLOBAL KARIR MANAJEMEN",
        "tanggal_daftar": "2022-05-30",
        "nomor_tanda_daftar": "002827.01/DJAI.PSE/05/2022",
        "qr_code": "https://pse.kominfo.go.id/storage/images/qr_code/81572cf90205163966cec1287cdd8edf.png",
        "status_id": "TERDAFTAR",
        "sistem_elektronik_id": 4182
      }
    }
  ]
}