{
  "meta": {
    "page": {
      "currentPage": 547,
      "from": 5461,
      "lastPage": 1053,
      "perPage": 10,
      "to": 5470,
      "total": 10528
    }
  },
  "data": [
    {
      "type": "tdpseTerbit",
      "id": 6789,
      "attributes": {
        "nomor_pb_umku": "022020063190900040006",
        "nama": "PAYKALTIMTARA",
        "website": "-",
        "sektor": "Sektor Perdagangan, Sektor Keuangan",
        "nama_perusahaan": "BIMASAKTI MULTI SINERGI",
        "tanggal_daftar": "2022-07-19",
        "nomor_tanda_daftar": "002933.07/DJAI.PSE/07/2022",
        "qr_code": "https://pse.kominfo.go.id/storage/images/qr_code/b4cd0b909a4402a7dc7ec64f630c6d31.png",
        "status_id": "TERDAFTAR",
        "sistem_elektronik_id": 6636
      }
    },
    {
      "type": "tdpseTerbit",
      "id": 6779,
      "attributes": {
        "nomor_pb_umku": "022020063190900040005",
        "nama": "CIJPAY",
        "website": "-",
        "sektor": "Sektor Perdagangan, Sektor Keuangan",
        "nama_perusahaan": "BIMASAKTI MULTI SINERGI",
        "tanggal_daftar": "2022-07-19",
        "nomor_tanda_daftar": "002933.06/DJAI.PSE/07/2022",
        "qr_code": "https://pse.kominfo.go.id/storage/images/qr_code/831a5ef4c73cf3f0d8ad178cbaa06455.png",
        "status_id": "TERDAFTAR",
        "sistem_elektronik_id": 6627
      }
    },
    {
      "type": "tdpseTerbit",
      "id": 5978,
      "attributes": {
        "nomor_pb_umku": "022020063190900040004",
        "nama": "BINA PAYMENT",
        "website": "binapayment.com",
        "sektor": "Sektor Perdagangan, Sektor Keuangan",
        "nama_perusahaan": "BIMASAKTI MULTI SINERGI",
        "tanggal_daftar": "2022-07-17",
        "nomor_tanda_daftar": "002933.05/DJAI.PSE/07/2022",
        "qr_code": "https://pse.kominfo.go.id/storage/images/qr_code/ca7d6268b37ba3aa606faa117578c10f.png",
        "status_id": "TERDAFTAR",
        "sistem_elektronik_id": 5839
      }
    },
    {
      "type": "tdpseTerbit",
      "id": 5393,
      "attributes": {
        "nomor_pb_umku": "022020063190900030005",
        "nama": "RAJA BILLER",
        "website": "rajabiller.com",
        "sektor": "Sektor Keuangan, Sektor Teknologi Informasi dan Komunikasi",
        "nama_perusahaan": "BIMASAKTI MULTI SINERGI",
        "tanggal_daftar": "2022-07-12",
        "nomor_tanda_daftar": "002933.04/DJAI.PSE/07/2022",
        "qr_code": "https://pse.kominfo.go.id/storage/images/qr_code/b581139f89dca09c6443ef836390c576.png",
        "status_id": "TERDAFTAR",
        "sistem_elektronik_id": 5262
      }
    },
    {
      "type": "tdpseTerbit",
      "id": 5382,
      "attributes": {
        "nomor_pb_umku": "022020063190900030004",
        "nama": "PLASAMALL",
        "website": "plasamall.com",
        "sektor": "Sektor Perdagangan",
        "nama_perusahaan": "BIMASAKTI MULTI SINERGI",
        "tanggal_daftar": "2022-07-12",
        "nomor_tanda_daftar": "002933.03/DJAI.PSE/07/2022",
        "qr_code": "https://pse.kominfo.go.id/storage/images/qr_code/87d13ad2dd743e0f1844eb708169ee03.png",
        "status_id": "TERDAFTAR",
        "sistem_elektronik_id": 5254
      }
    },
    {
      "type": "tdpseTerbit",
      "id": 5066,
      "attributes": {
        "nomor_pb_umku": "022020063190900030003",
        "nama": "SPEEDCASH",
        "website": "speedcash.co.id",
        "sektor": "Sektor Perdagangan, Sektor Keuangan",
        "nama_perusahaan": "BIMASAKTI MULTI SINERGI",
        "tanggal_daftar": "2022-07-04",
        "nomor_tanda_daftar": "002933.02/DJAI.PSE/07/2022",
        "qr_code": "https://pse.kominfo.go.id/storage/images/qr_code/e4bc06ab0ad2a9cae471693c54ecfec9.png",
        "status_id": "TERDAFTAR",
        "sistem_elektronik_id": 4933
      }
    },
    {
      "type": "tdpseTerbit",
      "id": 4193,
      "attributes": {
        "nomor_pb_umku": "022020063190900030002",
        "nama": "WINPAY",
        "website": "winpay.id",
        "sektor": "Sektor Keuangan",
        "nama_perusahaan": "BIMASAKTI MULTI SINERGI",
        "tanggal_daftar": "2022-05-31",
        "nomor_tanda_daftar": "002933.01/DJAI.PSE/05/2022",
        "qr_code": "https://pse.kominfo.go.id/storage/images/qr_code/f67bcae78e03f0ce137ca71b11fe92d3.png",
        "status_id": "TERDAFTAR",
        "sistem_elektronik_id": 4195
      }
    },
    {
      "type": "tdpseTerbit",
      "id": 4192,
      "attributes": {
        "nomor_pb_umku": "022000030241700000001",
        "nama": "IDOGO",
        "website": "ido-go.com",
        "sektor": "Sektor Teknologi Informasi dan Komunikasi",
        "nama_perusahaan": "MOBILE DATA INDONESIA",
        "tanggal_daftar": "2022-05-31",
        "nomor_tanda_daftar": "002932.01/DJAI.PSE/05/2022",
        "qr_code": "https://pse.kominfo.go.id/storage/images/qr_code/635153bf16901bf317943306d58596e4.png",
        "status_id": "TERDAFTAR",
        "sistem_elektronik_id": 4194
      }
    },
    {
      "type": "tdpseTerbit",
      "id": 4186,
      "attributes": {
        "nomor_pb_umku": "220522000055700000001",
        "nama": "PT ALGAN SOLUSI KARSA",
        "website": "stratifin.com",
        "sektor": "Sektor Teknologi Informasi dan Komunikasi",
        "nama_perusahaan": "ELANG PRASETYA ALFAREZ",
        "tanggal_daftar": "2022-05-30",
        "nomor_tanda_daftar": "002924.01/DJAI.PSE/05/2022",
        "qr_code": "https://pse.kominfo.go.id/storage/images/qr_code/380d24f998d533a11bdc4279a2f7b456.png",
        "status_id": "TERDAFTAR",
        "sistem_elektronik_id": 4187
      }
    },
    {
      "type": "tdpseTerbit",
      "id": 9782,
      "attributes": {
        "nomor_pb_umku": "120422003372300000001",
        "nama": "FRDAY",
        "website": "frday.id",
        "sektor": "Sektor Perdagangan",
        "nama_perusahaan": "TIGRIS NUSANTARA TEKNO",
        "tanggal_daftar": "2022-08-03",
        "nomor_tanda_daftar": "002923.01/DJAI.PSE/08/2022",
        "qr_code": "https://pse.kominfo.go.id/storage/images/qr_code/ec55dfa6fb9de054fe91c7eb25a1fd04.png",
        "status_id": "TERDAFTAR",
        "sistem_elektronik_id": 9656
      }
    }
  ]
}