{
  "meta": {
    "page": {
      "currentPage": 548,
      "from": 5471,
      "lastPage": 1061,
      "perPage": 10,
      "to": 5480,
      "total": 10601
    }
  },
  "data": [
    {
      "type": "tdpseTerbit",
      "id": 5012,
      "attributes": {
        "nomor_pb_umku": "912030225282400070001",
        "nama": "CITIGOV",
        "website": "demo.smartgov.teknolab.id",
        "sektor": "Sektor Teknologi Informasi dan Komunikasi",
        "nama_perusahaan": "CARTENZ TECHNOLOGY INDONESIA",
        "tanggal_daftar": "2022-07-01",
        "nomor_tanda_daftar": "002974.01/DJAI.PSE/07/2022",
        "qr_code": "https://pse.kominfo.go.id/storage/images/qr_code/6de5c744bf11e57ec685bc7ae5ef21f8.png",
        "status_id": "TERDAFTAR",
        "sistem_elektronik_id": 4884
      }
    },
    {
      "type": "tdpseTerbit",
      "id": 4213,
      "attributes": {
        "nomor_pb_umku": "101121001369900050001",
        "nama": "WOW KONSULTAN",
        "website": "WOWKONSULTAN.COM",
        "sektor": "Sektor Keuangan",
        "nama_perusahaan": "WOW INDONESIA BERSATU",
        "tanggal_daftar": "2022-06-02",
        "nomor_tanda_daftar": "002973.01/DJAI.PSE/06/2022",
        "qr_code": "https://pse.kominfo.go.id/storage/images/qr_code/514e2123a8993ec98512a6d99d2e73c5.png",
        "status_id": "TERDAFTAR",
        "sistem_elektronik_id": 4212
      }
    },
    {
      "type": "tdpseTerbit",
      "id": 4330,
      "attributes": {
        "nomor_pb_umku": "022010822221600000005",
        "nama": "INMOBI AFFILIATE PLATFORM",
        "website": "iap.gowadogo.com",
        "sektor": "Sektor Teknologi Informasi dan Komunikasi",
        "nama_perusahaan": "INMOBI INDONESIA TECHNOLOGIES",
        "tanggal_daftar": "2022-06-10",
        "nomor_tanda_daftar": "002972.03/DJAI.PSE/06/2022",
        "qr_code": "https://pse.kominfo.go.id/storage/images/qr_code/02f4ccfc64fea8f6ef23289ace8b8f16.png",
        "status_id": "TERDAFTAR",
        "sistem_elektronik_id": 4317
      }
    },
    {
      "type": "tdpseTerbit",
      "id": 4327,
      "attributes": {
        "nomor_pb_umku": "022010822221600000004",
        "nama": "INMOBI PULSE",
        "website": "pulse.inmobi.com",
        "sektor": "Sektor Perdagangan",
        "nama_perusahaan": "INMOBI INDONESIA TECHNOLOGIES",
        "tanggal_daftar": "2022-06-10",
        "nomor_tanda_daftar": "002972.02/DJAI.PSE/06/2022",
        "qr_code": "https://pse.kominfo.go.id/storage/images/qr_code/6a68395488e4757107ac6033c98d2a4c.png",
        "status_id": "TERDAFTAR",
        "sistem_elektronik_id": 4312
      }
    },
    {
      "type": "tdpseTerbit",
      "id": 4325,
      "attributes": {
        "nomor_pb_umku": "022010822221600000003",
        "nama": "INMOBI EXCHANGE",
        "website": "exchange.inmobi.com",
        "sektor": "Sektor Perdagangan",
        "nama_perusahaan": "INMOBI INDONESIA TECHNOLOGIES",
        "tanggal_daftar": "2022-06-10",
        "nomor_tanda_daftar": "002972.01/DJAI.PSE/06/2022",
        "qr_code": "https://pse.kominfo.go.id/storage/images/qr_code/de5cfa510754773a0aaf0fec87f2e99e.png",
        "status_id": "TERDAFTAR",
        "sistem_elektronik_id": 4276
      }
    },
    {
      "type": "tdpseTerbit",
      "id": 4662,
      "attributes": {
        "nomor_pb_umku": "912021915158500010001",
        "nama": "IMMIGRATION CONTROL SYSTEM",
        "website": "-",
        "sektor": "Sektor Teknologi Informasi dan Komunikasi, Sektor Pertahanan dan Keamanan",
        "nama_perusahaan": "SECURIPORT INTERNATIONAL INDONESIA",
        "tanggal_daftar": "2022-06-22",
        "nomor_tanda_daftar": "002970.01/DJAI.PSE/06/2022",
        "qr_code": "https://pse.kominfo.go.id/storage/images/qr_code/6a291fd6ce3bcbc3695b1a8180405bb1.png",
        "status_id": "TERDAFTAR",
        "sistem_elektronik_id": 4622
      }
    },
    {
      "type": "tdpseTerbit",
      "id": 4211,
      "attributes": {
        "nomor_pb_umku": "240122006692200010001",
        "nama": "SEJASA.COM",
        "website": "sejasa.com",
        "sektor": "Sektor Teknologi Informasi dan Komunikasi",
        "nama_perusahaan": "RECOMN TECHNOLOGY SERVICES",
        "tanggal_daftar": "2022-06-02",
        "nomor_tanda_daftar": "002968.01/DJAI.PSE/06/2022",
        "qr_code": "https://pse.kominfo.go.id/storage/images/qr_code/4ab220f8e96024cc2ed4ae892f0dc3b8.png",
        "status_id": "TERDAFTAR",
        "sistem_elektronik_id": 4211
      }
    },
    {
      "type": "tdpseTerbit",
      "id": 4228,
      "attributes": {
        "nomor_pb_umku": "912040480017400100001",
        "nama": "USP MOBILE",
        "website": "induk.uspminatani.id",
        "sektor": "Sektor Keuangan, Sektor Teknologi Informasi dan Komunikasi",
        "nama_perusahaan": "KOP UNIT DESA MINATANI",
        "tanggal_daftar": "2022-06-04",
        "nomor_tanda_daftar": "002966.01/DJAI.PSE/06/2022",
        "qr_code": "https://pse.kominfo.go.id/storage/images/qr_code/f059f1b8776ec79baed9954cfb7f9e8a.png",
        "status_id": "TERDAFTAR",
        "sistem_elektronik_id": 4225
      }
    },
    {
      "type": "tdpseTerbit",
      "id": 5367,
      "attributes": {
        "nomor_pb_umku": "912040628257700000001",
        "nama": "VIA.ID INDONESIA",
        "website": "via.id",
        "sektor": "Sektor Perdagangan",
        "nama_perusahaan": "ADYA TOURS",
        "tanggal_daftar": "2022-07-12",
        "nomor_tanda_daftar": "002964.01/DJAI.PSE/07/2022",
        "qr_code": "https://pse.kominfo.go.id/storage/images/qr_code/89c7fb0f33eb761821c59ee4e113f555.png",
        "status_id": "TERDAFTAR",
        "sistem_elektronik_id": 5238
      }
    },
    {
      "type": "tdpseTerbit",
      "id": 4237,
      "attributes": {
        "nomor_pb_umku": "912001321370600000002",
        "nama": "WEBSITE (KLEANER INDONESIA)",
        "website": "kleaner.co.id",
        "sektor": "Sektor Perdagangan",
        "nama_perusahaan": "INTERNUSA TERUS JAYA",
        "tanggal_daftar": "2022-06-06",
        "nomor_tanda_daftar": "002962.03/DJAI.PSE/06/2022",
        "qr_code": "https://pse.kominfo.go.id/storage/images/qr_code/6ac10d4b25a4b849962a7f0623dba5bc.png",
        "status_id": "TERDAFTAR",
        "sistem_elektronik_id": 4233
      }
    }
  ]
}