{
  "meta": {
    "page": {
      "currentPage": 549,
      "from": 5481,
      "lastPage": 1055,
      "perPage": 10,
      "to": 5490,
      "total": 10545
    }
  },
  "data": [
    {
      "type": "tdpseTerbit",
      "id": 4193,
      "attributes": {
        "nomor_pb_umku": "022020063190900030002",
        "nama": "WINPAY",
        "website": "winpay.id",
        "sektor": "Sektor Keuangan",
        "nama_perusahaan": "BIMASAKTI MULTI SINERGI",
        "tanggal_daftar": "2022-05-31",
        "nomor_tanda_daftar": "002933.01/DJAI.PSE/05/2022",
        "qr_code": "https://pse.kominfo.go.id/storage/images/qr_code/f67bcae78e03f0ce137ca71b11fe92d3.png",
        "status_id": "TERDAFTAR",
        "sistem_elektronik_id": 4195
      }
    },
    {
      "type": "tdpseTerbit",
      "id": 4192,
      "attributes": {
        "nomor_pb_umku": "022000030241700000001",
        "nama": "IDOGO",
        "website": "ido-go.com",
        "sektor": "Sektor Teknologi Informasi dan Komunikasi",
        "nama_perusahaan": "MOBILE DATA INDONESIA",
        "tanggal_daftar": "2022-05-31",
        "nomor_tanda_daftar": "002932.01/DJAI.PSE/05/2022",
        "qr_code": "https://pse.kominfo.go.id/storage/images/qr_code/635153bf16901bf317943306d58596e4.png",
        "status_id": "TERDAFTAR",
        "sistem_elektronik_id": 4194
      }
    },
    {
      "type": "tdpseTerbit",
      "id": 4186,
      "attributes": {
        "nomor_pb_umku": "220522000055700000001",
        "nama": "PT ALGAN SOLUSI KARSA",
        "website": "stratifin.com",
        "sektor": "Sektor Teknologi Informasi dan Komunikasi",
        "nama_perusahaan": "ELANG PRASETYA ALFAREZ",
        "tanggal_daftar": "2022-05-30",
        "nomor_tanda_daftar": "002924.01/DJAI.PSE/05/2022",
        "qr_code": "https://pse.kominfo.go.id/storage/images/qr_code/380d24f998d533a11bdc4279a2f7b456.png",
        "status_id": "TERDAFTAR",
        "sistem_elektronik_id": 4187
      }
    },
    {
      "type": "tdpseTerbit",
      "id": 9782,
      "attributes": {
        "nomor_pb_umku": "120422003372300000001",
        "nama": "FRDAY",
        "website": "frday.id",
        "sektor": "Sektor Perdagangan",
        "nama_perusahaan": "TIGRIS NUSANTARA TEKNO",
        "tanggal_daftar": "2022-08-03",
        "nomor_tanda_daftar": "002923.01/DJAI.PSE/08/2022",
        "qr_code": "https://pse.kominfo.go.id/storage/images/qr_code/ec55dfa6fb9de054fe91c7eb25a1fd04.png",
        "status_id": "TERDAFTAR",
        "sistem_elektronik_id": 9656
      }
    },
    {
      "type": "tdpseTerbit",
      "id": 4185,
      "attributes": {
        "nomor_pb_umku": "022020676165500000001",
        "nama": "BAJOJO.ID",
        "website": "-",
        "sektor": "Sektor Perdagangan",
        "nama_perusahaan": "BAJOJO MINANG DIGITAL",
        "tanggal_daftar": "2022-05-30",
        "nomor_tanda_daftar": "002922.01/DJAI.PSE/05/2022",
        "qr_code": "https://pse.kominfo.go.id/storage/images/qr_code/facbe6dd35cd68060b38912577ca66ca.png",
        "status_id": "TERDAFTAR",
        "sistem_elektronik_id": 4186
      }
    },
    {
      "type": "tdpseTerbit",
      "id": 4187,
      "attributes": {
        "nomor_pb_umku": "070222006642800050001",
        "nama": "ONEPETS",
        "website": "onepets.id",
        "sektor": "Sektor Perdagangan",
        "nama_perusahaan": "ONEPETS GROUP INDONESIA",
        "tanggal_daftar": "2022-05-30",
        "nomor_tanda_daftar": "002919.01/DJAI.PSE/05/2022",
        "qr_code": "https://pse.kominfo.go.id/storage/images/qr_code/e0fa86407bb00c52cfdca39c414ac334.png",
        "status_id": "TERDAFTAR",
        "sistem_elektronik_id": 4188
      }
    },
    {
      "type": "tdpseTerbit",
      "id": 4371,
      "attributes": {
        "nomor_pb_umku": "812020091167500000002",
        "nama": "FOX LOGGER",
        "website": "tracker.foxlogger.info",
        "sektor": "Sektor Teknologi Informasi dan Komunikasi",
        "nama_perusahaan": "SUMBER SINERGI MAKMUR",
        "tanggal_daftar": "2022-06-14",
        "nomor_tanda_daftar": "002918.01/DJAI.PSE/06/2022",
        "qr_code": "https://pse.kominfo.go.id/storage/images/qr_code/63159cf99b3775c242300b880d98c31e.png",
        "status_id": "TERDAFTAR",
        "sistem_elektronik_id": 4357
      }
    },
    {
      "type": "tdpseTerbit",
      "id": 4257,
      "attributes": {
        "nomor_pb_umku": "120522003981100000001",
        "nama": "BMONEY APPLICATION & WM BACK OFFICE SYSTEM",
        "website": "bmoney.id",
        "sektor": "Sektor Teknologi Informasi dan Komunikasi",
        "nama_perusahaan": "BUKA INVESTASI DIGITAL",
        "tanggal_daftar": "2022-06-07",
        "nomor_tanda_daftar": "002917.01/DJAI.PSE/06/2022",
        "qr_code": "https://pse.kominfo.go.id/storage/images/qr_code/2ed2895730be13695d5160e1e75befc4.png",
        "status_id": "TERDAFTAR",
        "sistem_elektronik_id": 4252
      }
    },
    {
      "type": "tdpseTerbit",
      "id": 4294,
      "attributes": {
        "nomor_pb_umku": "190522006674300000002",
        "nama": "UI CONNECT ILUNI UI",
        "website": "-",
        "sektor": "Sektor Teknologi Informasi dan Komunikasi",
        "nama_perusahaan": "IKATAN ALUMNI UNIVERSITAS INDONESIA (ILUNI UI)",
        "tanggal_daftar": "2022-06-08",
        "nomor_tanda_daftar": "002916.02/DJAI.PSE/06/2022",
        "qr_code": "https://pse.kominfo.go.id/storage/images/qr_code/f2c1fffd2a80e71871cda721be37a4b2.png",
        "status_id": "TERDAFTAR",
        "sistem_elektronik_id": 4288
      }
    },
    {
      "type": "tdpseTerbit",
      "id": 4293,
      "attributes": {
        "nomor_pb_umku": "190522006674300000001",
        "nama": "UI CONNECT",
        "website": "-",
        "sektor": "Sektor Teknologi Informasi dan Komunikasi",
        "nama_perusahaan": "IKATAN ALUMNI UNIVERSITAS INDONESIA (ILUNI UI)",
        "tanggal_daftar": "2022-06-08",
        "nomor_tanda_daftar": "002916.01/DJAI.PSE/06/2022",
        "qr_code": "https://pse.kominfo.go.id/storage/images/qr_code/fa81c3b355576c6a1dbebbcea277cb72.png",
        "status_id": "TERDAFTAR",
        "sistem_elektronik_id": 4287
      }
    }
  ]
}