{
  "meta": {
    "page": {
      "currentPage": 550,
      "from": 5491,
      "lastPage": 1052,
      "perPage": 10,
      "to": 5500,
      "total": 10513
    }
  },
  "data": [
    {
      "type": "tdpseTerbit",
      "id": 4229,
      "attributes": {
        "nomor_pb_umku": "912001617105100000001",
        "nama": "FASILITATOR VIRTUAL ACCOUNT",
        "website": "msodc.co.id",
        "sektor": "Sektor Teknologi Informasi dan Komunikasi",
        "nama_perusahaan": "MITRANET SOFTWARE ONLINE",
        "tanggal_daftar": "2022-06-04",
        "nomor_tanda_daftar": "002883.01/DJAI.PSE/06/2022",
        "qr_code": "https://pse.kominfo.go.id/storage/images/qr_code/725d6fe9f6a6a19be3b72b3987a53cb2.png",
        "status_id": "TERDAFTAR",
        "sistem_elektronik_id": 4226
      }
    },
    {
      "type": "tdpseTerbit",
      "id": 4160,
      "attributes": {
        "nomor_pb_umku": "123900033222400020001",
        "nama": "FAST CHECKOUT",
        "website": "tara.app",
        "sektor": "Sektor Teknologi Informasi dan Komunikasi",
        "nama_perusahaan": "JASA SETARA DIGITAL",
        "tanggal_daftar": "2022-05-28",
        "nomor_tanda_daftar": "002881.01/DJAI.PSE/05/2022",
        "qr_code": "https://pse.kominfo.go.id/storage/images/qr_code/daa6bad7a8135f21a301dc22f3ba7d23.png",
        "status_id": "TERDAFTAR",
        "sistem_elektronik_id": 4166
      }
    },
    {
      "type": "tdpseTerbit",
      "id": 4159,
      "attributes": {
        "nomor_pb_umku": "912000064238300000003",
        "nama": "NUSAHOST",
        "website": "nusahost.net",
        "sektor": "Sektor Teknologi Informasi dan Komunikasi",
        "nama_perusahaan": "MAGNA NETWORK",
        "tanggal_daftar": "2022-05-27",
        "nomor_tanda_daftar": "002879.01/DJAI.PSE/05/2022",
        "qr_code": "https://pse.kominfo.go.id/storage/images/qr_code/90c6ba9413527b2a616232f567f40d56.png",
        "status_id": "TERDAFTAR",
        "sistem_elektronik_id": 4165
      }
    },
    {
      "type": "tdpseTerbit",
      "id": 4226,
      "attributes": {
        "nomor_pb_umku": "812021506234200010001",
        "nama": "CHOPE",
        "website": "chope.co",
        "sektor": "Sektor Perdagangan",
        "nama_perusahaan": "KUHI SOLUTIONS",
        "tanggal_daftar": "2022-06-03",
        "nomor_tanda_daftar": "002872.01/DJAI.PSE/06/2022",
        "qr_code": "https://pse.kominfo.go.id/storage/images/qr_code/cabcf3fdb6a66d80c19ca560de81fef2.png",
        "status_id": "TERDAFTAR",
        "sistem_elektronik_id": 4223
      }
    },
    {
      "type": "tdpseTerbit",
      "id": 4156,
      "attributes": {
        "nomor_pb_umku": "912030138015100090001",
        "nama": "SIPLAH MITRA MEDIA",
        "website": "-",
        "sektor": "Sektor Perdagangan, Sektor Teknologi Informasi dan Komunikasi",
        "nama_perusahaan": "MITRA MEDIA",
        "tanggal_daftar": "2022-05-27",
        "nomor_tanda_daftar": "002871.01/DJAI.PSE/05/2022",
        "qr_code": "https://pse.kominfo.go.id/storage/images/qr_code/63a3196c8d6b94ce7655a88e18cc2ee6.png",
        "status_id": "TERDAFTAR",
        "sistem_elektronik_id": 4162
      }
    },
    {
      "type": "tdpseTerbit",
      "id": 10441,
      "attributes": {
        "nomor_pb_umku": "812011321073600340021",
        "nama": "SITUS RESMI PT PELAYARAN NASIONAL INDONESIA (PERSERO)",
        "website": "pelni.co.id",
        "sektor": "Sektor Transportasi",
        "nama_perusahaan": "PERUSAHAAN PERSEROAN (PERSERO) PT. PELAYARAN NASIONAL INDONESIA",
        "tanggal_daftar": "2022-08-18",
        "nomor_tanda_daftar": "002870.03/DJAI.PSE/08/2022",
        "qr_code": "https://pse.kominfo.go.id/storage/images/qr_code/a020316d71e4ce850d7516322ebd6102.png",
        "status_id": "TERDAFTAR",
        "sistem_elektronik_id": 10298
      }
    },
    {
      "type": "tdpseTerbit",
      "id": 9977,
      "attributes": {
        "nomor_pb_umku": "812011321073600340020",
        "nama": "MYCARGOO!",
        "website": "mycargoo.pelni.co.id",
        "sektor": "Sektor Transportasi",
        "nama_perusahaan": "PERUSAHAAN PERSEROAN (PERSERO) PT. PELAYARAN NASIONAL INDONESIA",
        "tanggal_daftar": "2022-08-05",
        "nomor_tanda_daftar": "002870.02/DJAI.PSE/08/2022",
        "qr_code": "https://pse.kominfo.go.id/storage/images/qr_code/c73abc59f825554e403c33b20751b172.png",
        "status_id": "TERDAFTAR",
        "sistem_elektronik_id": 9864
      }
    },
    {
      "type": "tdpseTerbit",
      "id": 4324,
      "attributes": {
        "nomor_pb_umku": "812011321073600330019",
        "nama": "PELNI PASSENGERS SERVICE SYSTEM",
        "website": "ticket.pelni.co.id",
        "sektor": "Sektor Transportasi",
        "nama_perusahaan": "PERUSAHAAN PERSEROAN (PERSERO) PT. PELAYARAN NASIONAL INDONESIA",
        "tanggal_daftar": "2022-06-10",
        "nomor_tanda_daftar": "002870.01/DJAI.PSE/05/2022",
        "qr_code": "https://pse.kominfo.go.id/storage/images/qr_code/f55a08220f0a6eacf6f359d3e29896b4.png",
        "status_id": "TERDAFTAR",
        "sistem_elektronik_id": 4191
      }
    },
    {
      "type": "tdpseTerbit",
      "id": 4154,
      "attributes": {
        "nomor_pb_umku": "270522002107500010001",
        "nama": "OXYMAS",
        "website": "oxymas.info",
        "sektor": "Sektor Perdagangan, Sektor Kesehatan",
        "nama_perusahaan": "IMAM SUBANDI",
        "tanggal_daftar": "2022-05-27",
        "nomor_tanda_daftar": "002869.01/DJAI.PSE/05/2022",
        "qr_code": "https://pse.kominfo.go.id/storage/images/qr_code/030dd4c2ca8af225a707035db46bec09.png",
        "status_id": "TERDAFTAR",
        "sistem_elektronik_id": 4160
      }
    },
    {
      "type": "tdpseTerbit",
      "id": 10533,
      "attributes": {
        "nomor_pb_umku": "912030519120100010015",
        "nama": "TRIBUNSHOPPING.COM",
        "website": "tribunshopping.com",
        "sektor": "Sektor Teknologi Informasi dan Komunikasi",
        "nama_perusahaan": "TRIBUN BERITA ONLINE",
        "tanggal_daftar": "2022-08-18",
        "nomor_tanda_daftar": "002867.16/DJAI.PSE/08/2022",
        "qr_code": "https://pse.kominfo.go.id/storage/images/qr_code/371e7d7193397bf25f49fd0f4ab00f6b.png",
        "status_id": "TERDAFTAR",
        "sistem_elektronik_id": 10392
      }
    }
  ]
}