{
  "meta": {
    "page": {
      "currentPage": 554,
      "from": 5531,
      "lastPage": 1053,
      "perPage": 10,
      "to": 5540,
      "total": 10528
    }
  },
  "data": [
    {
      "type": "tdpseTerbit",
      "id": 4991,
      "attributes": {
        "nomor_pb_umku": "912000117206600140012",
        "nama": "SNAP CAREERS",
        "website": "snap.careers",
        "sektor": "Sektor Teknologi Informasi dan Komunikasi",
        "nama_perusahaan": "SNAP INNOVATIONS INDONESIA",
        "tanggal_daftar": "2022-07-01",
        "nomor_tanda_daftar": "002861.01/DJAI.PSE/07/2022",
        "qr_code": "https://pse.kominfo.go.id/storage/images/qr_code/0521cfad60bdf5a57b75a38dc5728007.png",
        "status_id": "TERDAFTAR",
        "sistem_elektronik_id": 4859
      }
    },
    {
      "type": "tdpseTerbit",
      "id": 4150,
      "attributes": {
        "nomor_pb_umku": "026801013221300020001",
        "nama": "ALKAMIL",
        "website": "-",
        "sektor": "Sektor Perdagangan",
        "nama_perusahaan": "ALKAMIL GROUP",
        "tanggal_daftar": "2022-05-26",
        "nomor_tanda_daftar": "002853.01/DJAI.PSE/05/2022",
        "qr_code": "https://pse.kominfo.go.id/storage/images/qr_code/5e99b0872eb22456ac97e0a1402340e8.png",
        "status_id": "TERDAFTAR",
        "sistem_elektronik_id": 4155
      }
    },
    {
      "type": "tdpseTerbit",
      "id": 8360,
      "attributes": {
        "nomor_pb_umku": "912031619290400050007",
        "nama": "SATRIACORP - COMMUNICATIONS",
        "website": "satriacorp.id",
        "sektor": "Sektor Perdagangan",
        "nama_perusahaan": "SATRIA MEDIA TEKNOLOGI",
        "tanggal_daftar": "2022-07-20",
        "nomor_tanda_daftar": "002851.07/DJAI.PSE/07/2022",
        "qr_code": "https://pse.kominfo.go.id/storage/images/qr_code/78253494ad8b87cfb45c0de52e9ad701.png",
        "status_id": "TERDAFTAR",
        "sistem_elektronik_id": 8280
      }
    },
    {
      "type": "tdpseTerbit",
      "id": 8356,
      "attributes": {
        "nomor_pb_umku": "912031619290400050006",
        "nama": "SATRIACORP",
        "website": "satriacorp.id",
        "sektor": "Sektor Perdagangan, Sektor Teknologi Informasi dan Komunikasi",
        "nama_perusahaan": "SATRIA MEDIA TEKNOLOGI",
        "tanggal_daftar": "2022-07-20",
        "nomor_tanda_daftar": "002851.06/DJAI.PSE/07/2022",
        "qr_code": "https://pse.kominfo.go.id/storage/images/qr_code/60af21e1aecfd1c2c260ab4baaaa90ab.png",
        "status_id": "TERDAFTAR",
        "sistem_elektronik_id": 8276
      }
    },
    {
      "type": "tdpseTerbit",
      "id": 8351,
      "attributes": {
        "nomor_pb_umku": "912031619290400050005",
        "nama": "SATRIATECH",
        "website": "satriacorp.id",
        "sektor": "Sektor Perdagangan",
        "nama_perusahaan": "SATRIA MEDIA TEKNOLOGI",
        "tanggal_daftar": "2022-07-20",
        "nomor_tanda_daftar": "002851.05/DJAI.PSE/07/2022",
        "qr_code": "https://pse.kominfo.go.id/storage/images/qr_code/7db5475da844783d8b9e7ebfa5f368bd.png",
        "status_id": "TERDAFTAR",
        "sistem_elektronik_id": 8271
      }
    },
    {
      "type": "tdpseTerbit",
      "id": 5526,
      "attributes": {
        "nomor_pb_umku": "912031619290400050004",
        "nama": "SATRIACORP.ID",
        "website": "satriacorp.id",
        "sektor": "Sektor Teknologi Informasi dan Komunikasi",
        "nama_perusahaan": "SATRIA MEDIA TEKNOLOGI",
        "tanggal_daftar": "2022-07-13",
        "nomor_tanda_daftar": "002851.04/DJAI.PSE/07/2022",
        "qr_code": "https://pse.kominfo.go.id/storage/images/qr_code/0c36dd712a3fb8e253731f219d0b2b37.png",
        "status_id": "TERDAFTAR",
        "sistem_elektronik_id": 5391
      }
    },
    {
      "type": "tdpseTerbit",
      "id": 5525,
      "attributes": {
        "nomor_pb_umku": "912031619290400050003",
        "nama": "SATRIA MEDIA TEKNOLOGI",
        "website": "satriacorp.id",
        "sektor": "Sektor Perdagangan, Sektor Teknologi Informasi dan Komunikasi",
        "nama_perusahaan": "SATRIA MEDIA TEKNOLOGI",
        "tanggal_daftar": "2022-07-13",
        "nomor_tanda_daftar": "002851.03/DJAI.PSE/07/2022",
        "qr_code": "https://pse.kominfo.go.id/storage/images/qr_code/98c476659d8d746bf997230ac110425a.png",
        "status_id": "TERDAFTAR",
        "sistem_elektronik_id": 5390
      }
    },
    {
      "type": "tdpseTerbit",
      "id": 4151,
      "attributes": {
        "nomor_pb_umku": "912031619290400050002",
        "nama": "DOCULIVE",
        "website": "-",
        "sektor": "Sektor Teknologi Informasi dan Komunikasi",
        "nama_perusahaan": "SATRIA MEDIA TEKNOLOGI",
        "tanggal_daftar": "2022-05-26",
        "nomor_tanda_daftar": "002851.02/DJAI.PSE/05/2022",
        "qr_code": "https://pse.kominfo.go.id/storage/images/qr_code/733c777caf4462792edc42f3239b8d02.png",
        "status_id": "TERDAFTAR",
        "sistem_elektronik_id": 4156
      }
    },
    {
      "type": "tdpseTerbit",
      "id": 5489,
      "attributes": {
        "nomor_pb_umku": "912031619290400050001",
        "nama": "WECOPOS",
        "website": "-",
        "sektor": "Sektor Perdagangan, Sektor Teknologi Informasi dan Komunikasi",
        "nama_perusahaan": "SATRIA MEDIA TEKNOLOGI",
        "tanggal_daftar": "2022-05-25",
        "nomor_tanda_daftar": "002851.01/DJAI.PSE/05/2022",
        "qr_code": "https://pse.kominfo.go.id/storage/images/qr_code/8c90035747ca8d574643462a09ab6a04.png",
        "status_id": "TERDAFTAR",
        "sistem_elektronik_id": 4152
      }
    },
    {
      "type": "tdpseTerbit",
      "id": 4369,
      "attributes": {
        "nomor_pb_umku": "912021126128300010004",
        "nama": "TILAKA",
        "website": "tilaka.id",
        "sektor": "Sektor Teknologi Informasi dan Komunikasi",
        "nama_perusahaan": "TILAKA NUSA TEKNOLOGI",
        "tanggal_daftar": "2022-06-14",
        "nomor_tanda_daftar": "002849.01/DJAI.PSE/06/2022",
        "qr_code": "https://pse.kominfo.go.id/storage/images/qr_code/5337308bb2422480a0bec956635a343f.png",
        "status_id": "TERDAFTAR",
        "sistem_elektronik_id": 4355
      }
    }
  ]
}