{
  "meta": {
    "page": {
      "currentPage": 555,
      "from": 5541,
      "lastPage": 1080,
      "perPage": 10,
      "to": 5550,
      "total": 10793
    }
  },
  "data": [
    {
      "type": "tdpseTerbit",
      "id": 4625,
      "attributes": {
        "nomor_pb_umku": "123100068067200000001",
        "nama": "FARMACARE",
        "website": "app.farmacare.id",
        "sektor": "Sektor Perdagangan, Sektor Kesehatan",
        "nama_perusahaan": "JENDELA AKSES SEHAT",
        "tanggal_daftar": "2022-06-20",
        "nomor_tanda_daftar": "003156.01/DJAI.PSE/06/2022",
        "qr_code": "https://pse.kominfo.go.id/storage/images/qr_code/bd4bb49f322dcf31703c71c4fec6d24d.png",
        "status_id": "TERDAFTAR",
        "sistem_elektronik_id": 4586
      }
    },
    {
      "type": "tdpseTerbit",
      "id": 4339,
      "attributes": {
        "nomor_pb_umku": "070622005218100000001",
        "nama": "LILI STYLE",
        "website": "lili.style",
        "sektor": "Sektor Perdagangan",
        "nama_perusahaan": "LILI STYLE INDONESIA",
        "tanggal_daftar": "2022-06-13",
        "nomor_tanda_daftar": "003155.01/DJAI.PSE/06/2022",
        "qr_code": "https://pse.kominfo.go.id/storage/images/qr_code/e8fe38e976cdf223b2669dcbffc3f8a4.png",
        "status_id": "TERDAFTAR",
        "sistem_elektronik_id": 4325
      }
    },
    {
      "type": "tdpseTerbit",
      "id": 4340,
      "attributes": {
        "nomor_pb_umku": "912010556233500020001",
        "nama": "SRIBU.COM",
        "website": "sribu.com",
        "sektor": "Sektor Perdagangan",
        "nama_perusahaan": "SRIBU DIGITAL KREATIF",
        "tanggal_daftar": "2022-06-13",
        "nomor_tanda_daftar": "003150.01/DJAI.PSE/06/2022",
        "qr_code": "https://pse.kominfo.go.id/storage/images/qr_code/d8f99ec95b1a8044f09348e93ff50c4d.png",
        "status_id": "TERDAFTAR",
        "sistem_elektronik_id": 4326
      }
    },
    {
      "type": "tdpseTerbit",
      "id": 6861,
      "attributes": {
        "nomor_pb_umku": "812011222157900020003",
        "nama": "WEBSITE FIFGROUP",
        "website": "fifgroup.co.id",
        "sektor": "Sektor Keuangan",
        "nama_perusahaan": "FEDERAL INTERNATIONAL FINANCE",
        "tanggal_daftar": "2022-07-19",
        "nomor_tanda_daftar": "003148.03/DJAI.PSE/07/2022",
        "qr_code": "https://pse.kominfo.go.id/storage/images/qr_code/d782a24bb0f0f2263d8bb80060719001.png",
        "status_id": "TERDAFTAR",
        "sistem_elektronik_id": 6709
      }
    },
    {
      "type": "tdpseTerbit",
      "id": 6702,
      "attributes": {
        "nomor_pb_umku": "812011222157900020002",
        "nama": "FIFGROUP MOBILE CUSTOMER (FMC)",
        "website": "-",
        "sektor": "Sektor Keuangan",
        "nama_perusahaan": "FEDERAL INTERNATIONAL FINANCE",
        "tanggal_daftar": "2022-07-19",
        "nomor_tanda_daftar": "003148.02/DJAI.PSE/07/2022",
        "qr_code": "https://pse.kominfo.go.id/storage/images/qr_code/71bf50b654079457a27004e336b730e5.png",
        "status_id": "TERDAFTAR",
        "sistem_elektronik_id": 6556
      }
    },
    {
      "type": "tdpseTerbit",
      "id": 4341,
      "attributes": {
        "nomor_pb_umku": "812011222157900020001",
        "nama": "FIFGROUP INTELLIGENT PERSONAL ASSISTANT ATAU FIONA",
        "website": "fifgroup.co.id",
        "sektor": "Sektor Keuangan",
        "nama_perusahaan": "FEDERAL INTERNATIONAL FINANCE",
        "tanggal_daftar": "2022-06-13",
        "nomor_tanda_daftar": "003148.01/DJAI.PSE/06/2022",
        "qr_code": "https://pse.kominfo.go.id/storage/images/qr_code/d374100e4e1f2a28d5e7da90829ab3af.png",
        "status_id": "TERDAFTAR",
        "sistem_elektronik_id": 4327
      }
    },
    {
      "type": "tdpseTerbit",
      "id": 11815,
      "attributes": {
        "nomor_pb_umku": "023200091134900170003",
        "nama": "JASA INSTALASI & TROUBLESHOOTING SISTEM",
        "website": "-",
        "sektor": "Sektor Teknologi Informasi dan Komunikasi",
        "nama_perusahaan": "BIG DEAL CREATIVE",
        "tanggal_daftar": "2022-10-16",
        "nomor_tanda_daftar": "003147.03/DJAI.PSE/10/2022",
        "qr_code": "https://pse.kominfo.go.id/storage/images/qr_code/f19d94080270220005722559b3c041f6.png",
        "status_id": "TERDAFTAR",
        "sistem_elektronik_id": 11617
      }
    },
    {
      "type": "tdpseTerbit",
      "id": 10741,
      "attributes": {
        "nomor_pb_umku": "023200091134900170002",
        "nama": "PENERBITAN PIRANTI LUNAK ATAU SOFTWARE",
        "website": "-",
        "sektor": "Sektor Teknologi Informasi dan Komunikasi",
        "nama_perusahaan": "BIG DEAL CREATIVE",
        "tanggal_daftar": "2022-08-23",
        "nomor_tanda_daftar": "003147.02/DJAI.PSE/08/2022",
        "qr_code": "https://pse.kominfo.go.id/storage/images/qr_code/1872d7b7fca3b9824d79e7391c816320.png",
        "status_id": "TERDAFTAR",
        "sistem_elektronik_id": 10573
      }
    },
    {
      "type": "tdpseTerbit",
      "id": 10642,
      "attributes": {
        "nomor_pb_umku": "023200091134900170001",
        "nama": "AKTIVITAS PEMROGRAMAN KOMPUTER LAINNYA",
        "website": "-",
        "sektor": "Sektor Teknologi Informasi dan Komunikasi",
        "nama_perusahaan": "BIG DEAL CREATIVE",
        "tanggal_daftar": "2022-08-21",
        "nomor_tanda_daftar": "003147.01/DJAI.PSE/08/2022",
        "qr_code": "https://pse.kominfo.go.id/storage/images/qr_code/1f2f92c16bcbdf1832280e8570a4ee46.png",
        "status_id": "TERDAFTAR",
        "sistem_elektronik_id": 10477
      }
    },
    {
      "type": "tdpseTerbit",
      "id": 11842,
      "attributes": {
        "nomor_pb_umku": "812011416095600000002",
        "nama": "HAKUHODO ID",
        "website": "hakuhodo.id",
        "sektor": "Sektor Perdagangan, Sektor Teknologi Informasi dan Komunikasi",
        "nama_perusahaan": "HAKUHODO INDONESIA",
        "tanggal_daftar": "2022-10-18",
        "nomor_tanda_daftar": "003145.02/DJAI.PSE/10/2022",
        "qr_code": "https://pse.kominfo.go.id/storage/images/qr_code/ead1cb86c3c42057f48b16ad36aae6c5.png",
        "status_id": "TERDAFTAR",
        "sistem_elektronik_id": 11645
      }
    }
  ]
}