{
  "meta": {
    "page": {
      "currentPage": 556,
      "from": 5551,
      "lastPage": 1052,
      "perPage": 10,
      "to": 5560,
      "total": 10513
    }
  },
  "data": [
    {
      "type": "tdpseTerbit",
      "id": 4125,
      "attributes": {
        "nomor_pb_umku": "091121004964500000003",
        "nama": "SUMUL STORE",
        "website": "bukaolshop.com",
        "sektor": "Sektor Perdagangan",
        "nama_perusahaan": "DENURATO SUMUL GROUP",
        "tanggal_daftar": "2022-05-24",
        "nomor_tanda_daftar": "002817.01/DJAI.PSE/05/2022",
        "qr_code": "https://pse.kominfo.go.id/storage/images/qr_code/5af813d5b6e15c5291c4014953da3e72.png",
        "status_id": "TERDAFTAR",
        "sistem_elektronik_id": 4126
      }
    },
    {
      "type": "tdpseTerbit",
      "id": 4124,
      "attributes": {
        "nomor_pb_umku": "090422001119600000001",
        "nama": "BINALOKA",
        "website": "binaloka.id",
        "sektor": "Sektor Teknologi Informasi dan Komunikasi",
        "nama_perusahaan": "BINA LOKA INDONESIA",
        "tanggal_daftar": "2022-05-24",
        "nomor_tanda_daftar": "002816.01/DJAI.PSE/05/2022",
        "qr_code": "https://pse.kominfo.go.id/storage/images/qr_code/85374937d42c44644cf266b651e5e424.png",
        "status_id": "TERDAFTAR",
        "sistem_elektronik_id": 4125
      }
    },
    {
      "type": "tdpseTerbit",
      "id": 4123,
      "attributes": {
        "nomor_pb_umku": "240522004491100000001",
        "nama": "TEKNOGRIS.COM",
        "website": "teknogris.com",
        "sektor": "Sektor Teknologi Informasi dan Komunikasi",
        "nama_perusahaan": "INDRA WATI",
        "tanggal_daftar": "2022-05-24",
        "nomor_tanda_daftar": "002815.01/DJAI.PSE/05/2022",
        "qr_code": "https://pse.kominfo.go.id/storage/images/qr_code/d91b0654ee2aa5cf254ffc068be04031.png",
        "status_id": "TERDAFTAR",
        "sistem_elektronik_id": 4124
      }
    },
    {
      "type": "tdpseTerbit",
      "id": 10110,
      "attributes": {
        "nomor_pb_umku": "912030838199700010002",
        "nama": "TSMEDIA.ID",
        "website": "tsmedia.id",
        "sektor": "Sektor Perdagangan",
        "nama_perusahaan": "GLOBAL LOYAL SEJAHTERA",
        "tanggal_daftar": "2022-08-09",
        "nomor_tanda_daftar": "002813.02/DJAI.PSE/08/2022",
        "qr_code": "https://pse.kominfo.go.id/storage/images/qr_code/02952437281d62df4677c9cfc2bee110.png",
        "status_id": "TERDAFTAR",
        "sistem_elektronik_id": 9992
      }
    },
    {
      "type": "tdpseTerbit",
      "id": 4637,
      "attributes": {
        "nomor_pb_umku": "912030838199700010001",
        "nama": "MEMBER.ID",
        "website": "member.id",
        "sektor": "Sektor Perdagangan",
        "nama_perusahaan": "GLOBAL LOYAL SEJAHTERA",
        "tanggal_daftar": "2022-06-21",
        "nomor_tanda_daftar": "002813.01/DJAI.PSE/06/2022",
        "qr_code": "https://pse.kominfo.go.id/storage/images/qr_code/f2c8e264e7ea742b246c7150ef0b9e6b.png",
        "status_id": "TERDAFTAR",
        "sistem_elektronik_id": 4591
      }
    },
    {
      "type": "tdpseTerbit",
      "id": 4246,
      "attributes": {
        "nomor_pb_umku": "090921009845800050002",
        "nama": "CAHAYA ALBAROKAH SUKSES (CAS)",
        "website": "cahayaalbarokahsukses.web.indotrading.com",
        "sektor": "Sektor Perdagangan",
        "nama_perusahaan": "CAHAYA ALBAROKAH SUKSES",
        "tanggal_daftar": "2022-06-06",
        "nomor_tanda_daftar": "002812.02/DJAI.PSE/06/2022",
        "qr_code": "https://pse.kominfo.go.id/storage/images/qr_code/570a8bb7a1d13cc499e9c892e0aabce1.png",
        "status_id": "TERDAFTAR",
        "sistem_elektronik_id": 4241
      }
    },
    {
      "type": "tdpseTerbit",
      "id": 4385,
      "attributes": {
        "nomor_pb_umku": "110122003815800000001",
        "nama": "CARIBARANG.ID",
        "website": "caribarang.id",
        "sektor": "Sektor Perdagangan, Sektor Transportasi",
        "nama_perusahaan": "DIGITAL TRADING SOLUSINDO",
        "tanggal_daftar": "2022-06-14",
        "nomor_tanda_daftar": "002809.01/DJAI.PSE/06/2022",
        "qr_code": "https://pse.kominfo.go.id/storage/images/qr_code/597fd420649e5c3c0b1d02071a4bc7f3.png",
        "status_id": "TERDAFTAR",
        "sistem_elektronik_id": 4369
      }
    },
    {
      "type": "tdpseTerbit",
      "id": 4210,
      "attributes": {
        "nomor_pb_umku": "022020573214500040002",
        "nama": "TDC DIGITAL",
        "website": "tdcdigital.id",
        "sektor": "Sektor Teknologi Informasi dan Komunikasi",
        "nama_perusahaan": "TRANS DIGITAL CEMERLANG",
        "tanggal_daftar": "2022-06-02",
        "nomor_tanda_daftar": "002808.01/DJAI.PSE/06/2022",
        "qr_code": "https://pse.kominfo.go.id/storage/images/qr_code/990a05ae127fed5a9336b65f06b4386b.png",
        "status_id": "TERDAFTAR",
        "sistem_elektronik_id": 4209
      }
    },
    {
      "type": "tdpseTerbit",
      "id": 6493,
      "attributes": {
        "nomor_pb_umku": "9120100870365000000003",
        "nama": "INSPIRASIBIZ",
        "website": "inspirasi.biz",
        "sektor": "Sektor Perdagangan, Sektor Teknologi Informasi dan Komunikasi",
        "nama_perusahaan": "INSPIRASI MEDIA KREATIF",
        "tanggal_daftar": "2022-07-18",
        "nomor_tanda_daftar": "002807.03/DJAI.PSE/07/2022",
        "qr_code": "https://pse.kominfo.go.id/storage/images/qr_code/0e14432360608408318aa27d6c756c63.png",
        "status_id": "TERDAFTAR",
        "sistem_elektronik_id": 6359
      }
    },
    {
      "type": "tdpseTerbit",
      "id": 4121,
      "attributes": {
        "nomor_pb_umku": "912010087036500000002",
        "nama": "KETOKO.STORE",
        "website": "ketoko.store",
        "sektor": "Sektor Perdagangan, Sektor Teknologi Informasi dan Komunikasi",
        "nama_perusahaan": "INSPIRASI MEDIA KREATIF",
        "tanggal_daftar": "2022-05-24",
        "nomor_tanda_daftar": "002807.02/DJAI.PSE/05/2022",
        "qr_code": "https://pse.kominfo.go.id/storage/images/qr_code/3ccd276b624c4144dd9bfd76194837cd.png",
        "status_id": "TERDAFTAR",
        "sistem_elektronik_id": 4122
      }
    }
  ]
}