{
  "meta": {
    "page": {
      "currentPage": 557,
      "from": 5561,
      "lastPage": 1052,
      "perPage": 10,
      "to": 5570,
      "total": 10513
    }
  },
  "data": [
    {
      "type": "tdpseTerbit",
      "id": 4120,
      "attributes": {
        "nomor_pb_umku": "912010087036500000001",
        "nama": "KETOKO.CO.ID",
        "website": "pos.ketoko.co.id",
        "sektor": "Sektor Teknologi Informasi dan Komunikasi",
        "nama_perusahaan": "INSPIRASI MEDIA KREATIF",
        "tanggal_daftar": "2022-05-24",
        "nomor_tanda_daftar": "002807.01/DJAI.PSE/05/2022",
        "qr_code": "https://pse.kominfo.go.id/storage/images/qr_code/d6166324742e163ebff23474c914d181.png",
        "status_id": "TERDAFTAR",
        "sistem_elektronik_id": 4121
      }
    },
    {
      "type": "tdpseTerbit",
      "id": 9978,
      "attributes": {
        "nomor_pb_umku": "230522003035900000001",
        "nama": "FAZMO",
        "website": "fazmo.id",
        "sektor": "Sektor Teknologi Informasi dan Komunikasi",
        "nama_perusahaan": "FAZMO DANA SEJAHTERA",
        "tanggal_daftar": "2022-08-05",
        "nomor_tanda_daftar": "002806.01/DJAI.PSE/08/2022",
        "qr_code": "https://pse.kominfo.go.id/storage/images/qr_code/001745b2b039212d034876248069806b.png",
        "status_id": "TERDAFTAR",
        "sistem_elektronik_id": 9866
      }
    },
    {
      "type": "tdpseTerbit",
      "id": 4146,
      "attributes": {
        "nomor_pb_umku": "128700020064700000002",
        "nama": "JEMPOL KIOS",
        "website": "jempolkios.co.id",
        "sektor": "Sektor Teknologi Informasi dan Komunikasi",
        "nama_perusahaan": "MITRA DISTRIBUSI UTAMA",
        "tanggal_daftar": "2022-05-25",
        "nomor_tanda_daftar": "002805.01/DJAI.PSE/05/2022",
        "qr_code": "https://pse.kominfo.go.id/storage/images/qr_code/4d9742ed49211eda63ae59a58792d403.png",
        "status_id": "TERDAFTAR",
        "sistem_elektronik_id": 4149
      }
    },
    {
      "type": "tdpseTerbit",
      "id": 4119,
      "attributes": {
        "nomor_pb_umku": "280322001551600010001",
        "nama": "DATA ANALIS",
        "website": "-",
        "sektor": "Sektor Teknologi Informasi dan Komunikasi",
        "nama_perusahaan": "KUKUK SETYO PRAYOGI,S.KOM",
        "tanggal_daftar": "2022-05-24",
        "nomor_tanda_daftar": "002798.01/DJAI.PSE/05/2022",
        "qr_code": "https://pse.kominfo.go.id/storage/images/qr_code/068f0e5875f91b05198ae6f1e08a5da6.png",
        "status_id": "TERDAFTAR",
        "sistem_elektronik_id": 4120
      }
    },
    {
      "type": "tdpseTerbit",
      "id": 4673,
      "attributes": {
        "nomor_pb_umku": "912050372245100000001",
        "nama": "AIYO",
        "website": "aiyo.id",
        "sektor": "Sektor Teknologi Informasi dan Komunikasi",
        "nama_perusahaan": "DUNIA BAYAR INDONESIA",
        "tanggal_daftar": "2022-06-23",
        "nomor_tanda_daftar": "002796.02/DJAI.PSE/06/2022",
        "qr_code": "https://pse.kominfo.go.id/storage/images/qr_code/ae80bf3f718bd272bed1eef9b9b4ddfd.png",
        "status_id": "TERDAFTAR",
        "sistem_elektronik_id": 4632
      }
    },
    {
      "type": "tdpseTerbit",
      "id": 4175,
      "attributes": {
        "nomor_pb_umku": "022000165069800000002",
        "nama": "LINOVHR CLOUD",
        "website": "linovhr.com",
        "sektor": "Sektor Teknologi Informasi dan Komunikasi",
        "nama_perusahaan": "LINOV ROKET PRESTASI",
        "tanggal_daftar": "2022-05-30",
        "nomor_tanda_daftar": "002795.02/DJAI.PSE/05/2022",
        "qr_code": "https://pse.kominfo.go.id/storage/images/qr_code/675dd0e8e8a70f61bdfd4b063c62cc3d.png",
        "status_id": "TERDAFTAR",
        "sistem_elektronik_id": 4177
      }
    },
    {
      "type": "tdpseTerbit",
      "id": 4172,
      "attributes": {
        "nomor_pb_umku": "022000165069800000001",
        "nama": "LINOVHR",
        "website": "linovhr.com",
        "sektor": "Sektor Teknologi Informasi dan Komunikasi",
        "nama_perusahaan": "LINOV ROKET PRESTASI",
        "tanggal_daftar": "2022-05-30",
        "nomor_tanda_daftar": "002795.01/DJAI.PSE/05/2022",
        "qr_code": "https://pse.kominfo.go.id/storage/images/qr_code/abf1031c2b559be6f13c66658eb9f6ea.png",
        "status_id": "TERDAFTAR",
        "sistem_elektronik_id": 4175
      }
    },
    {
      "type": "tdpseTerbit",
      "id": 4217,
      "attributes": {
        "nomor_pb_umku": "081021003106600040001",
        "nama": "FASSET ID",
        "website": "fasset.id",
        "sektor": "Sektor Perdagangan, Sektor Keuangan",
        "nama_perusahaan": "GERBANG ASET DIGITAL",
        "tanggal_daftar": "2022-06-03",
        "nomor_tanda_daftar": "002794.01/DJAI.PSE/06/2022",
        "qr_code": "https://pse.kominfo.go.id/storage/images/qr_code/82546e48e07e8c6d3b8c68eb67e96bc5.png",
        "status_id": "TERDAFTAR",
        "sistem_elektronik_id": 4215
      }
    },
    {
      "type": "tdpseTerbit",
      "id": 4932,
      "attributes": {
        "nomor_pb_umku": "912010533026900030001",
        "nama": "TRAVEL EXPENSES MANAGEMENT SYSTEM (TEMS)",
        "website": "syb-online.com",
        "sektor": "Sektor Teknologi Informasi dan Komunikasi",
        "nama_perusahaan": "SARANA YUKTI BANDHANA",
        "tanggal_daftar": "2022-06-29",
        "nomor_tanda_daftar": "002792.02/DJAI.PSE/06/2022",
        "qr_code": "https://pse.kominfo.go.id/storage/images/qr_code/4dd97b431af277a2443859753fb00a96.png",
        "status_id": "TERDAFTAR",
        "sistem_elektronik_id": 4800
      }
    },
    {
      "type": "tdpseTerbit",
      "id": 4572,
      "attributes": {
        "nomor_pb_umku": "912010533026900030001",
        "nama": "JARINGAN MESIN LAYANAN PUBLIK OTOMATIS (JARINGAN MLPO)",
        "website": "syb-online.com",
        "sektor": "Sektor Teknologi Informasi dan Komunikasi",
        "nama_perusahaan": "SARANA YUKTI BANDHANA",
        "tanggal_daftar": "2022-06-17",
        "nomor_tanda_daftar": "002792.01/DJAI.PSE/06/2022",
        "qr_code": "https://pse.kominfo.go.id/storage/images/qr_code/170dc1f58af426068ce2c2596dfb9d43.png",
        "status_id": "TERDAFTAR",
        "sistem_elektronik_id": 4536
      }
    }
  ]
}