{
  "meta": {
    "page": {
      "currentPage": 558,
      "from": 5571,
      "lastPage": 1063,
      "perPage": 10,
      "to": 5580,
      "total": 10630
    }
  },
  "data": [
    {
      "type": "tdpseTerbit",
      "id": 4176,
      "attributes": {
        "nomor_pb_umku": "231021002078300000001",
        "nama": "SWOOP MOVE",
        "website": "swoopmove.com",
        "sektor": "Sektor Transportasi",
        "nama_perusahaan": "TEKNOLOGI MOBILITAS INDONESIA",
        "tanggal_daftar": "2022-05-30",
        "nomor_tanda_daftar": "002906.01/DJAI.PSE/05/2022",
        "qr_code": "https://pse.kominfo.go.id/storage/images/qr_code/3021b2aaa26f151961c87793df2557ff.png",
        "status_id": "TERDAFTAR",
        "sistem_elektronik_id": 4179
      }
    },
    {
      "type": "tdpseTerbit",
      "id": 4173,
      "attributes": {
        "nomor_pb_umku": "270522004261800000001",
        "nama": "ANDROID OS",
        "website": "-",
        "sektor": "Sektor Teknologi Informasi dan Komunikasi",
        "nama_perusahaan": "HERU WIDODO",
        "tanggal_daftar": "2022-05-30",
        "nomor_tanda_daftar": "002904.01/DJAI.PSE/05/2022",
        "qr_code": "https://pse.kominfo.go.id/storage/images/qr_code/c0d146c2c8ee1e47241343f1815f9faf.png",
        "status_id": "TERDAFTAR",
        "sistem_elektronik_id": 4176
      }
    },
    {
      "type": "tdpseTerbit",
      "id": 4264,
      "attributes": {
        "nomor_pb_umku": "250522005371900000001",
        "nama": "PT APLIKASI PINTAR SEJAHTERA (APS)",
        "website": "Pintarplus.com",
        "sektor": "Sektor Keuangan",
        "nama_perusahaan": "APLIKASI PINTAR SEJAHTERA",
        "tanggal_daftar": "2022-06-07",
        "nomor_tanda_daftar": "002901.01/DJAI.PSE/06/2022",
        "qr_code": "https://pse.kominfo.go.id/storage/images/qr_code/1d408a8fd6cf11866abc85aa23982caa.png",
        "status_id": "TERDAFTAR",
        "sistem_elektronik_id": 4264
      }
    },
    {
      "type": "tdpseTerbit",
      "id": 9543,
      "attributes": {
        "nomor_pb_umku": "912010032310600050001",
        "nama": "INFINITE DIGITAL SECURITY",
        "website": "infinids.id",
        "sektor": "Sektor Teknologi Informasi dan Komunikasi",
        "nama_perusahaan": "INFINITE BUSINESS SYNERGY",
        "tanggal_daftar": "2022-08-01",
        "nomor_tanda_daftar": "002900.01/DJAI.PSE/07/2022",
        "qr_code": "https://pse.kominfo.go.id/storage/images/qr_code/1664aacade05c5720cf618398d4b0a76.png",
        "status_id": "TERDAFTAR",
        "sistem_elektronik_id": 7002
      }
    },
    {
      "type": "tdpseTerbit",
      "id": 4170,
      "attributes": {
        "nomor_pb_umku": "151121003312400000001",
        "nama": "CITRUST",
        "website": "-",
        "sektor": "Sektor Perdagangan",
        "nama_perusahaan": "CITRUST SARI INDONESIA",
        "tanggal_daftar": "2022-05-30",
        "nomor_tanda_daftar": "002898.01/DJAI.PSE/05/2022",
        "qr_code": "https://pse.kominfo.go.id/storage/images/qr_code/bfbd64936e630243c549a4e94b50a110.png",
        "status_id": "TERDAFTAR",
        "sistem_elektronik_id": 4173
      }
    },
    {
      "type": "tdpseTerbit",
      "id": 4372,
      "attributes": {
        "nomor_pb_umku": "912021326117300000001",
        "nama": "TURU HOTELS",
        "website": "-",
        "sektor": "Sektor Perdagangan",
        "nama_perusahaan": "HOTELIO TEKNOVASI UTAMA",
        "tanggal_daftar": "2022-06-14",
        "nomor_tanda_daftar": "002897.01/DJAI.PSE/06/2022",
        "qr_code": "https://pse.kominfo.go.id/storage/images/qr_code/79bdb0cb0fc9d4314c196694d938febd.png",
        "status_id": "TERDAFTAR",
        "sistem_elektronik_id": 4358
      }
    },
    {
      "type": "tdpseTerbit",
      "id": 4188,
      "attributes": {
        "nomor_pb_umku": "101121001708600020001",
        "nama": "SINERGI INDOMEDIA PERKASA",
        "website": "-",
        "sektor": "Sektor Teknologi Informasi dan Komunikasi",
        "nama_perusahaan": "SINERGI INDOMEDIA PERKASA",
        "tanggal_daftar": "2022-05-30",
        "nomor_tanda_daftar": "002896.01/DJAI.PSE/05/2022",
        "qr_code": "https://pse.kominfo.go.id/storage/images/qr_code/ebc8e9329bdcc136079a7e2b9b053406.png",
        "status_id": "TERDAFTAR",
        "sistem_elektronik_id": 4189
      }
    },
    {
      "type": "tdpseTerbit",
      "id": 4794,
      "attributes": {
        "nomor_pb_umku": "022010449258500020001",
        "nama": "TADA",
        "website": "usetada.com",
        "sektor": "Sektor Teknologi Informasi dan Komunikasi",
        "nama_perusahaan": "AKSI VISITAMA",
        "tanggal_daftar": "2022-06-27",
        "nomor_tanda_daftar": "002894.01/DJAI.PSE/06/2022",
        "qr_code": "https://pse.kominfo.go.id/storage/images/qr_code/4511f17cd8c2bdbc2d4b14619d32d4e1.png",
        "status_id": "TERDAFTAR",
        "sistem_elektronik_id": 4736
      }
    },
    {
      "type": "tdpseTerbit",
      "id": 4166,
      "attributes": {
        "nomor_pb_umku": "122100071380900000001",
        "nama": "HOUMI",
        "website": "houmi.co.id",
        "sektor": "Sektor Perdagangan, Sektor Teknologi Informasi dan Komunikasi",
        "nama_perusahaan": "HOUMI DIGITAL PROPERTINDO",
        "tanggal_daftar": "2022-05-29",
        "nomor_tanda_daftar": "002893.01/DJAI.PSE/05/2022",
        "qr_code": "https://pse.kominfo.go.id/storage/images/qr_code/5631af55223ff55e30e25d65ae6ec8a6.png",
        "status_id": "TERDAFTAR",
        "sistem_elektronik_id": 4172
      }
    },
    {
      "type": "tdpseTerbit",
      "id": 6037,
      "attributes": {
        "nomor_pb_umku": "240422001057400000003",
        "nama": "DAENGPAY INDONESIA",
        "website": "-",
        "sektor": "Sektor Keuangan, Sektor Teknologi Informasi dan Komunikasi",
        "nama_perusahaan": "YEYEP GUSTIAN",
        "tanggal_daftar": "2022-07-18",
        "nomor_tanda_daftar": "002891.03/DJAI.PSE/07/2022",
        "qr_code": "https://pse.kominfo.go.id/storage/images/qr_code/5fcff5e7232e10df3e39c201d12fb085.png",
        "status_id": "TERDAFTAR",
        "sistem_elektronik_id": 5907
      }
    }
  ]
}