{
  "meta": {
    "page": {
      "currentPage": 560,
      "from": 5591,
      "lastPage": 1020,
      "perPage": 10,
      "to": 5600,
      "total": 10192
    }
  },
  "data": [
    {
      "type": "tdpseTerbit",
      "id": 4682,
      "attributes": {
        "nomor_pb_umku": "812011413226800980024",
        "nama": "SBN ONLINE BRI",
        "website": "sbn.bri.co.id",
        "sektor": "Sektor Keuangan",
        "nama_perusahaan": "PERUSAHAAN PERSEROAN (PERSERO) PT. BANK RAKYAT INDONESIA",
        "tanggal_daftar": "2022-06-23",
        "nomor_tanda_daftar": "002468.20/DJAI.PSE/06/2022",
        "qr_code": "https://pse.kominfo.go.id/storage/images/qr_code/2d66569e71c34c85e108b8caa86adaf3.png",
        "status_id": "TERDAFTAR",
        "sistem_elektronik_id": 4641
      }
    },
    {
      "type": "tdpseTerbit",
      "id": 4573,
      "attributes": {
        "nomor_pb_umku": "812011413226800940023",
        "nama": "DASHBOARD VIRTUAL ACCOUNT",
        "website": "brivirtualdebit.id",
        "sektor": "Sektor Keuangan",
        "nama_perusahaan": "PERUSAHAAN PERSEROAN (PERSERO) PT. BANK RAKYAT INDONESIA",
        "tanggal_daftar": "2022-06-17",
        "nomor_tanda_daftar": "002468.19/DJAI.PSE/06/2022",
        "qr_code": "https://pse.kominfo.go.id/storage/images/qr_code/efda4d3f72e592316455be1ee8726e2c.png",
        "status_id": "TERDAFTAR",
        "sistem_elektronik_id": 4537
      }
    },
    {
      "type": "tdpseTerbit",
      "id": 4567,
      "attributes": {
        "nomor_pb_umku": "812011413226800940022",
        "nama": "STROBERI TAGIHAN",
        "website": "tagihan.stroberi.id",
        "sektor": "Sektor Keuangan",
        "nama_perusahaan": "PERUSAHAAN PERSEROAN (PERSERO) PT. BANK RAKYAT INDONESIA",
        "tanggal_daftar": "2022-06-16",
        "nomor_tanda_daftar": "002468.18/DJAI.PSE/06/2022",
        "qr_code": "https://pse.kominfo.go.id/storage/images/qr_code/e666087c141281ea1398cb893a699ca4.png",
        "status_id": "TERDAFTAR",
        "sistem_elektronik_id": 4530
      }
    },
    {
      "type": "tdpseTerbit",
      "id": 4566,
      "attributes": {
        "nomor_pb_umku": "812011413226800940021",
        "nama": "STROBERI KASIR",
        "website": "-",
        "sektor": "Sektor Keuangan",
        "nama_perusahaan": "PERUSAHAAN PERSEROAN (PERSERO) PT. BANK RAKYAT INDONESIA",
        "tanggal_daftar": "2022-06-16",
        "nomor_tanda_daftar": "002468.17/DJAI.PSE/06/2022",
        "qr_code": "https://pse.kominfo.go.id/storage/images/qr_code/a17c92b92f4afa41f35e07acda343643.png",
        "status_id": "TERDAFTAR",
        "sistem_elektronik_id": 4529
      }
    },
    {
      "type": "tdpseTerbit",
      "id": 4565,
      "attributes": {
        "nomor_pb_umku": "812011413226800940020",
        "nama": "KREDIT EKSTRA CEPAT KUPEDES (KECEKU",
        "website": "app.keceku.bri.co.id",
        "sektor": "Sektor Keuangan",
        "nama_perusahaan": "PERUSAHAAN PERSEROAN (PERSERO) PT. BANK RAKYAT INDONESIA",
        "tanggal_daftar": "2022-06-16",
        "nomor_tanda_daftar": "002468.16/DJAI.PSE/06/2022",
        "qr_code": "https://pse.kominfo.go.id/storage/images/qr_code/816dc33e90fe2d22f6385e253cfda5e3.png",
        "status_id": "TERDAFTAR",
        "sistem_elektronik_id": 4528
      }
    },
    {
      "type": "tdpseTerbit",
      "id": 4537,
      "attributes": {
        "nomor_pb_umku": "812011413226800930019",
        "nama": "BRI CORPORATE BILLING MANAGEMENT",
        "website": "cbm.bri.co.id",
        "sektor": "Sektor Keuangan",
        "nama_perusahaan": "PERUSAHAAN PERSEROAN (PERSERO) PT. BANK RAKYAT INDONESIA",
        "tanggal_daftar": "2022-06-16",
        "nomor_tanda_daftar": "002468.15/DJAI.PSE/06/2022",
        "qr_code": "https://pse.kominfo.go.id/storage/images/qr_code/2f77ba912260d5aeeb0f9338c615cb33.png",
        "status_id": "TERDAFTAR",
        "sistem_elektronik_id": 4517
      }
    },
    {
      "type": "tdpseTerbit",
      "id": 4522,
      "attributes": {
        "nomor_pb_umku": "812011413226800930018",
        "nama": "SISTEM CHATBOT SABRINA BRI",
        "website": "-",
        "sektor": "Sektor Keuangan, Sektor Teknologi Informasi dan Komunikasi",
        "nama_perusahaan": "PERUSAHAAN PERSEROAN (PERSERO) PT. BANK RAKYAT INDONESIA",
        "tanggal_daftar": "2022-06-15",
        "nomor_tanda_daftar": "002468.14/DJAI.PSE/06/2022",
        "qr_code": "https://pse.kominfo.go.id/storage/images/qr_code/2230134f93b717af7d2b3bbcd31a6fca.png",
        "status_id": "TERDAFTAR",
        "sistem_elektronik_id": 4505
      }
    },
    {
      "type": "tdpseTerbit",
      "id": 4519,
      "attributes": {
        "nomor_pb_umku": "812011413226800930017",
        "nama": "BRI LOYALTY POIN (BRIPOIN)",
        "website": "bripoin.bri.co.id",
        "sektor": "Sektor Keuangan",
        "nama_perusahaan": "PERUSAHAAN PERSEROAN (PERSERO) PT. BANK RAKYAT INDONESIA",
        "tanggal_daftar": "2022-06-15",
        "nomor_tanda_daftar": "002468.13/DJAI.PSE/06/2022",
        "qr_code": "https://pse.kominfo.go.id/storage/images/qr_code/08318684aa590e88bc23498a7c0808b1.png",
        "status_id": "TERDAFTAR",
        "sistem_elektronik_id": 4502
      }
    },
    {
      "type": "tdpseTerbit",
      "id": 4517,
      "attributes": {
        "nomor_pb_umku": "812011413226800930016",
        "nama": "BRISPOT KONSUMER",
        "website": "Brispotkonsumer.bri.co.id",
        "sektor": "Sektor Keuangan",
        "nama_perusahaan": "PERUSAHAAN PERSEROAN (PERSERO) PT. BANK RAKYAT INDONESIA",
        "tanggal_daftar": "2022-06-15",
        "nomor_tanda_daftar": "002468.12/DJAI.PSE/06/2022",
        "qr_code": "https://pse.kominfo.go.id/storage/images/qr_code/6ef8a793a592c1c62b2004aa4d1188e6.png",
        "status_id": "TERDAFTAR",
        "sistem_elektronik_id": 4500
      }
    },
    {
      "type": "tdpseTerbit",
      "id": 4516,
      "attributes": {
        "nomor_pb_umku": "812011413226800930015",
        "nama": "BRISPOT EKSTERNAL",
        "website": "-",
        "sektor": "Sektor Keuangan",
        "nama_perusahaan": "PERUSAHAAN PERSEROAN (PERSERO) PT. BANK RAKYAT INDONESIA",
        "tanggal_daftar": "2022-06-15",
        "nomor_tanda_daftar": "002468.11/DJAI.PSE/06/2022",
        "qr_code": "https://pse.kominfo.go.id/storage/images/qr_code/de992f43932a6bb1f52b6ed09855b407.png",
        "status_id": "TERDAFTAR",
        "sistem_elektronik_id": 4499
      }
    }
  ]
}