{
  "meta": {
    "page": {
      "currentPage": 561,
      "from": 5601,
      "lastPage": 1089,
      "perPage": 10,
      "to": 5610,
      "total": 10885
    }
  },
  "data": [
    {
      "type": "tdpseTerbit",
      "id": 4546,
      "attributes": {
        "nomor_pb_umku": "912000554229900020001",
        "nama": "SANDANGJAKARTA.COM",
        "website": "sandangjakarta.com",
        "sektor": "Sektor Perdagangan",
        "nama_perusahaan": "BUANA MAS SANJAYA",
        "tanggal_daftar": "2022-06-16",
        "nomor_tanda_daftar": "003206.01/DJAI.PSE/06/2022",
        "qr_code": "https://pse.kominfo.go.id/storage/images/qr_code/ca2b9e08193155e5c5568b2216730245.png",
        "status_id": "TERDAFTAR",
        "sistem_elektronik_id": 4520
      }
    },
    {
      "type": "tdpseTerbit",
      "id": 4523,
      "attributes": {
        "nomor_pb_umku": "010622000260300050001",
        "nama": "MEDIA PUBLIKASI BERBASIS ELEKTRONIK",
        "website": "idisionline.com",
        "sektor": "Sektor Teknologi Informasi dan Komunikasi",
        "nama_perusahaan": "IDISI MULTI MANDIRI",
        "tanggal_daftar": "2022-06-15",
        "nomor_tanda_daftar": "003200.01/DJAI.PSE/06/2022",
        "qr_code": "https://pse.kominfo.go.id/storage/images/qr_code/92de3ffe00e65ea1a06994ad63e6fb87.png",
        "status_id": "TERDAFTAR",
        "sistem_elektronik_id": 4506
      }
    },
    {
      "type": "tdpseTerbit",
      "id": 4524,
      "attributes": {
        "nomor_pb_umku": "123500037239300000001",
        "nama": "RANGKAI.ID",
        "website": "rangkai.id",
        "sektor": "Sektor Teknologi Informasi dan Komunikasi",
        "nama_perusahaan": "RANGKAI KREATIVITAS INDONESIA",
        "tanggal_daftar": "2022-06-15",
        "nomor_tanda_daftar": "003199.01/DJAI.PSE/06/2022",
        "qr_code": "https://pse.kominfo.go.id/storage/images/qr_code/dc2fdf3318dcd3f3a2ebd86d788ad8e8.png",
        "status_id": "TERDAFTAR",
        "sistem_elektronik_id": 4507
      }
    },
    {
      "type": "tdpseTerbit",
      "id": 4518,
      "attributes": {
        "nomor_pb_umku": "260522001232900010001",
        "nama": "SHOPIFY",
        "website": "atelierpadmala.com",
        "sektor": "Sektor Perdagangan",
        "nama_perusahaan": "PABRIK SARI SENI",
        "tanggal_daftar": "2022-06-15",
        "nomor_tanda_daftar": "003196.01/DJAI.PSE/06/2022",
        "qr_code": "https://pse.kominfo.go.id/storage/images/qr_code/ae53d548295a6e4b6e260cc376587295.png",
        "status_id": "TERDAFTAR",
        "sistem_elektronik_id": 4501
      }
    },
    {
      "type": "tdpseTerbit",
      "id": 4580,
      "attributes": {
        "nomor_pb_umku": "310522005608900000001",
        "nama": "BANG JAMIN",
        "website": "-",
        "sektor": "Sektor Perdagangan",
        "nama_perusahaan": "ARKANA ADVANCE TECHNOLOGY",
        "tanggal_daftar": "2022-06-17",
        "nomor_tanda_daftar": "003195.01/DJAI.PSE/06/2022",
        "qr_code": "https://pse.kominfo.go.id/storage/images/qr_code/0fe66f0c00fcdce1139137dd09243ca4.png",
        "status_id": "TERDAFTAR",
        "sistem_elektronik_id": 4543
      }
    },
    {
      "type": "tdpseTerbit",
      "id": 4514,
      "attributes": {
        "nomor_pb_umku": "128800060143100000001",
        "nama": "ALESHAPUTRISHOP",
        "website": "-",
        "sektor": "Sektor Perdagangan",
        "nama_perusahaan": "EMA NUR LUTHFIYANI",
        "tanggal_daftar": "2022-06-15",
        "nomor_tanda_daftar": "003194.01/DJAI.PSE/06/2022",
        "qr_code": "https://pse.kominfo.go.id/storage/images/qr_code/902baf8212b9e2fff653f6d191b346cb.png",
        "status_id": "TERDAFTAR",
        "sistem_elektronik_id": 4497
      }
    },
    {
      "type": "tdpseTerbit",
      "id": 12152,
      "attributes": {
        "nomor_pb_umku": "812011904198500040044",
        "nama": "MENNCONNECT.COM",
        "website": "mennconnect.com",
        "sektor": "Sektor Teknologi Informasi dan Komunikasi",
        "nama_perusahaan": "MENN TEKNOLOGI INDONESIA",
        "tanggal_daftar": "2022-11-07",
        "nomor_tanda_daftar": "003193.02/DJAI.PSE/11/2022",
        "qr_code": "https://pse.kominfo.go.id/storage/images/qr_code/757add1048d48b81d20010a56acee0a7.png",
        "status_id": "TERDAFTAR",
        "sistem_elektronik_id": 11947
      }
    },
    {
      "type": "tdpseTerbit",
      "id": 4520,
      "attributes": {
        "nomor_pb_umku": "812011904198500040043",
        "nama": "GPS TRACKER",
        "website": "menngroup.id",
        "sektor": "Sektor Transportasi, Sektor Teknologi Informasi dan Komunikasi",
        "nama_perusahaan": "MENN TEKNOLOGI INDONESIA",
        "tanggal_daftar": "2022-06-15",
        "nomor_tanda_daftar": "003193.01/DJAI.PSE/06/2022",
        "qr_code": "https://pse.kominfo.go.id/storage/images/qr_code/9e813ef265bcaec42d87e76564d8405e.png",
        "status_id": "TERDAFTAR",
        "sistem_elektronik_id": 4503
      }
    },
    {
      "type": "tdpseTerbit",
      "id": 8490,
      "attributes": {
        "nomor_pb_umku": "812000073159400020008",
        "nama": "WWW.PROVEN.KALBE.CO.ID",
        "website": "proven.kalbe.co.id",
        "sektor": "Sektor Kesehatan",
        "nama_perusahaan": "KALBE FARMA",
        "tanggal_daftar": "2022-07-21",
        "nomor_tanda_daftar": "003191.03/DJAI.PSE/07/2022",
        "qr_code": "https://pse.kominfo.go.id/storage/images/qr_code/f597a3f10bdd1b9babd8eb7309700e13.png",
        "status_id": "TERDAFTAR",
        "sistem_elektronik_id": 8407
      }
    },
    {
      "type": "tdpseTerbit",
      "id": 5431,
      "attributes": {
        "nomor_pb_umku": "812000073159400020007",
        "nama": "WWW.CDKJOURNAL.COM ATAU CDKJOURNAL",
        "website": "cdkjournal.com",
        "sektor": "Sektor Kesehatan",
        "nama_perusahaan": "KALBE FARMA",
        "tanggal_daftar": "2022-07-13",
        "nomor_tanda_daftar": "003191.02/DJAI.PSE/07/2022",
        "qr_code": "https://pse.kominfo.go.id/storage/images/qr_code/3d5b4507078fb74d50e7eee4254cd659.png",
        "status_id": "TERDAFTAR",
        "sistem_elektronik_id": 5300
      }
    }
  ]
}