{
  "meta": {
    "page": {
      "currentPage": 563,
      "from": 5621,
      "lastPage": 1061,
      "perPage": 10,
      "to": 5630,
      "total": 10601
    }
  },
  "data": [
    {
      "type": "tdpseTerbit",
      "id": 4368,
      "attributes": {
        "nomor_pb_umku": "812000176280300000001",
        "nama": "HELO-BABE",
        "website": "babe.co.id",
        "sektor": "Sektor Teknologi Informasi dan Komunikasi",
        "nama_perusahaan": "MP GAMES",
        "tanggal_daftar": "2022-06-14",
        "nomor_tanda_daftar": "002831.01/DJAI.PSE/06/2022",
        "qr_code": "https://pse.kominfo.go.id/storage/images/qr_code/b97a812185de42ab3d91b6d2cd6b56e3.png",
        "status_id": "TERDAFTAR",
        "sistem_elektronik_id": 4354
      }
    },
    {
      "type": "tdpseTerbit",
      "id": 4127,
      "attributes": {
        "nomor_pb_umku": "027201000151300030001",
        "nama": "HEAD HUNTER",
        "website": "-",
        "sektor": "Sektor Perdagangan",
        "nama_perusahaan": "WIDDY FERDIANSYAH",
        "tanggal_daftar": "2022-05-25",
        "nomor_tanda_daftar": "002830.01/DJAI.PSE/05/2022",
        "qr_code": "https://pse.kominfo.go.id/storage/images/qr_code/f1be01352cdebcc340608adfd188ca9c.png",
        "status_id": "TERDAFTAR",
        "sistem_elektronik_id": 4129
      }
    },
    {
      "type": "tdpseTerbit",
      "id": 4165,
      "attributes": {
        "nomor_pb_umku": "230322005918300000001",
        "nama": "SAHABATBISNIS.ID",
        "website": "sahabatbisnis.id",
        "sektor": "Sektor Perdagangan",
        "nama_perusahaan": "SAHABAT BISNIS INOVASI",
        "tanggal_daftar": "2022-05-29",
        "nomor_tanda_daftar": "002829.01/DJAI.PSE/05/2022",
        "qr_code": "https://pse.kominfo.go.id/storage/images/qr_code/c2d1f9b5e795dc6012e8ca1c468d7f50.png",
        "status_id": "TERDAFTAR",
        "sistem_elektronik_id": 4171
      }
    },
    {
      "type": "tdpseTerbit",
      "id": 4181,
      "attributes": {
        "nomor_pb_umku": "190522005282400000001",
        "nama": "GLOBAL CAREER",
        "website": "globalcareer.id",
        "sektor": "Sektor Teknologi Informasi dan Komunikasi",
        "nama_perusahaan": "GLOBAL KARIR MANAJEMEN",
        "tanggal_daftar": "2022-05-30",
        "nomor_tanda_daftar": "002827.01/DJAI.PSE/05/2022",
        "qr_code": "https://pse.kominfo.go.id/storage/images/qr_code/81572cf90205163966cec1287cdd8edf.png",
        "status_id": "TERDAFTAR",
        "sistem_elektronik_id": 4182
      }
    },
    {
      "type": "tdpseTerbit",
      "id": 8945,
      "attributes": {
        "nomor_pb_umku": "251021001164700130005",
        "nama": "ALAMBAMAKMUR.COM",
        "website": "alambamakmur.com",
        "sektor": "Sektor Perdagangan",
        "nama_perusahaan": "ALAMBA MAKMUR BERSAMA",
        "tanggal_daftar": "2022-07-25",
        "nomor_tanda_daftar": "002824.01/DJAI.PSE/07/2022",
        "qr_code": "https://pse.kominfo.go.id/storage/images/qr_code/b9f2816e8f69e7b4f9c989cc12c742e3.png",
        "status_id": "TERDAFTAR",
        "sistem_elektronik_id": 8854
      }
    },
    {
      "type": "tdpseTerbit",
      "id": 5439,
      "attributes": {
        "nomor_pb_umku": "812011403137800010002",
        "nama": "WAHYOO",
        "website": "-",
        "sektor": "Sektor Perdagangan",
        "nama_perusahaan": "ALIRAN SUMBER BERKAT",
        "tanggal_daftar": "2022-07-13",
        "nomor_tanda_daftar": "002823.02/DJAI.PSE/07/2022",
        "qr_code": "https://pse.kominfo.go.id/storage/images/qr_code/b7f253c776395669555089113f9a912a.png",
        "status_id": "TERDAFTAR",
        "sistem_elektronik_id": 5309
      }
    },
    {
      "type": "tdpseTerbit",
      "id": 4171,
      "attributes": {
        "nomor_pb_umku": "129000023055400090003",
        "nama": "LEARNINGX",
        "website": "learningx.com",
        "sektor": "Sektor Teknologi Informasi dan Komunikasi",
        "nama_perusahaan": "GLOBAL INVESTMENT INSTITUSI",
        "tanggal_daftar": "2022-05-30",
        "nomor_tanda_daftar": "002822.01/DJAI.PSE/05/2022",
        "qr_code": "https://pse.kominfo.go.id/storage/images/qr_code/0ed38a7a325e42eab3a43a350d3a9eab.png",
        "status_id": "TERDAFTAR",
        "sistem_elektronik_id": 4174
      }
    },
    {
      "type": "tdpseTerbit",
      "id": 4125,
      "attributes": {
        "nomor_pb_umku": "091121004964500000003",
        "nama": "SUMUL STORE",
        "website": "bukaolshop.com",
        "sektor": "Sektor Perdagangan",
        "nama_perusahaan": "DENURATO SUMUL GROUP",
        "tanggal_daftar": "2022-05-24",
        "nomor_tanda_daftar": "002817.01/DJAI.PSE/05/2022",
        "qr_code": "https://pse.kominfo.go.id/storage/images/qr_code/5af813d5b6e15c5291c4014953da3e72.png",
        "status_id": "TERDAFTAR",
        "sistem_elektronik_id": 4126
      }
    },
    {
      "type": "tdpseTerbit",
      "id": 4124,
      "attributes": {
        "nomor_pb_umku": "090422001119600000001",
        "nama": "BINALOKA",
        "website": "binaloka.id",
        "sektor": "Sektor Teknologi Informasi dan Komunikasi",
        "nama_perusahaan": "BINA LOKA INDONESIA",
        "tanggal_daftar": "2022-05-24",
        "nomor_tanda_daftar": "002816.01/DJAI.PSE/05/2022",
        "qr_code": "https://pse.kominfo.go.id/storage/images/qr_code/85374937d42c44644cf266b651e5e424.png",
        "status_id": "TERDAFTAR",
        "sistem_elektronik_id": 4125
      }
    },
    {
      "type": "tdpseTerbit",
      "id": 4123,
      "attributes": {
        "nomor_pb_umku": "240522004491100000001",
        "nama": "TEKNOGRIS.COM",
        "website": "teknogris.com",
        "sektor": "Sektor Teknologi Informasi dan Komunikasi",
        "nama_perusahaan": "INDRA WATI",
        "tanggal_daftar": "2022-05-24",
        "nomor_tanda_daftar": "002815.01/DJAI.PSE/05/2022",
        "qr_code": "https://pse.kominfo.go.id/storage/images/qr_code/d91b0654ee2aa5cf254ffc068be04031.png",
        "status_id": "TERDAFTAR",
        "sistem_elektronik_id": 4124
      }
    }
  ]
}