{
  "meta": {
    "page": {
      "currentPage": 565,
      "from": 5641,
      "lastPage": 1061,
      "perPage": 10,
      "to": 5650,
      "total": 10601
    }
  },
  "data": [
    {
      "type": "tdpseTerbit",
      "id": 4119,
      "attributes": {
        "nomor_pb_umku": "280322001551600010001",
        "nama": "DATA ANALIS",
        "website": "-",
        "sektor": "Sektor Teknologi Informasi dan Komunikasi",
        "nama_perusahaan": "KUKUK SETYO PRAYOGI,S.KOM",
        "tanggal_daftar": "2022-05-24",
        "nomor_tanda_daftar": "002798.01/DJAI.PSE/05/2022",
        "qr_code": "https://pse.kominfo.go.id/storage/images/qr_code/068f0e5875f91b05198ae6f1e08a5da6.png",
        "status_id": "TERDAFTAR",
        "sistem_elektronik_id": 4120
      }
    },
    {
      "type": "tdpseTerbit",
      "id": 4673,
      "attributes": {
        "nomor_pb_umku": "912050372245100000001",
        "nama": "AIYO",
        "website": "aiyo.id",
        "sektor": "Sektor Teknologi Informasi dan Komunikasi",
        "nama_perusahaan": "DUNIA BAYAR INDONESIA",
        "tanggal_daftar": "2022-06-23",
        "nomor_tanda_daftar": "002796.02/DJAI.PSE/06/2022",
        "qr_code": "https://pse.kominfo.go.id/storage/images/qr_code/ae80bf3f718bd272bed1eef9b9b4ddfd.png",
        "status_id": "TERDAFTAR",
        "sistem_elektronik_id": 4632
      }
    },
    {
      "type": "tdpseTerbit",
      "id": 4175,
      "attributes": {
        "nomor_pb_umku": "022000165069800000002",
        "nama": "LINOVHR CLOUD",
        "website": "linovhr.com",
        "sektor": "Sektor Teknologi Informasi dan Komunikasi",
        "nama_perusahaan": "LINOV ROKET PRESTASI",
        "tanggal_daftar": "2022-05-30",
        "nomor_tanda_daftar": "002795.02/DJAI.PSE/05/2022",
        "qr_code": "https://pse.kominfo.go.id/storage/images/qr_code/675dd0e8e8a70f61bdfd4b063c62cc3d.png",
        "status_id": "TERDAFTAR",
        "sistem_elektronik_id": 4177
      }
    },
    {
      "type": "tdpseTerbit",
      "id": 4172,
      "attributes": {
        "nomor_pb_umku": "022000165069800000001",
        "nama": "LINOVHR",
        "website": "linovhr.com",
        "sektor": "Sektor Teknologi Informasi dan Komunikasi",
        "nama_perusahaan": "LINOV ROKET PRESTASI",
        "tanggal_daftar": "2022-05-30",
        "nomor_tanda_daftar": "002795.01/DJAI.PSE/05/2022",
        "qr_code": "https://pse.kominfo.go.id/storage/images/qr_code/abf1031c2b559be6f13c66658eb9f6ea.png",
        "status_id": "TERDAFTAR",
        "sistem_elektronik_id": 4175
      }
    },
    {
      "type": "tdpseTerbit",
      "id": 4217,
      "attributes": {
        "nomor_pb_umku": "081021003106600040001",
        "nama": "FASSET ID",
        "website": "fasset.id",
        "sektor": "Sektor Perdagangan, Sektor Keuangan",
        "nama_perusahaan": "GERBANG ASET DIGITAL",
        "tanggal_daftar": "2022-06-03",
        "nomor_tanda_daftar": "002794.01/DJAI.PSE/06/2022",
        "qr_code": "https://pse.kominfo.go.id/storage/images/qr_code/82546e48e07e8c6d3b8c68eb67e96bc5.png",
        "status_id": "TERDAFTAR",
        "sistem_elektronik_id": 4215
      }
    },
    {
      "type": "tdpseTerbit",
      "id": 4932,
      "attributes": {
        "nomor_pb_umku": "912010533026900030001",
        "nama": "TRAVEL EXPENSES MANAGEMENT SYSTEM (TEMS)",
        "website": "syb-online.com",
        "sektor": "Sektor Teknologi Informasi dan Komunikasi",
        "nama_perusahaan": "SARANA YUKTI BANDHANA",
        "tanggal_daftar": "2022-06-29",
        "nomor_tanda_daftar": "002792.02/DJAI.PSE/06/2022",
        "qr_code": "https://pse.kominfo.go.id/storage/images/qr_code/4dd97b431af277a2443859753fb00a96.png",
        "status_id": "TERDAFTAR",
        "sistem_elektronik_id": 4800
      }
    },
    {
      "type": "tdpseTerbit",
      "id": 4572,
      "attributes": {
        "nomor_pb_umku": "912010533026900030001",
        "nama": "JARINGAN MESIN LAYANAN PUBLIK OTOMATIS (JARINGAN MLPO)",
        "website": "syb-online.com",
        "sektor": "Sektor Teknologi Informasi dan Komunikasi",
        "nama_perusahaan": "SARANA YUKTI BANDHANA",
        "tanggal_daftar": "2022-06-17",
        "nomor_tanda_daftar": "002792.01/DJAI.PSE/06/2022",
        "qr_code": "https://pse.kominfo.go.id/storage/images/qr_code/170dc1f58af426068ce2c2596dfb9d43.png",
        "status_id": "TERDAFTAR",
        "sistem_elektronik_id": 4536
      }
    },
    {
      "type": "tdpseTerbit",
      "id": 4622,
      "attributes": {
        "nomor_pb_umku": "190322000454700000001",
        "nama": "GOWISATA",
        "website": "gagataplikasiwisata.com",
        "sektor": "Sektor Perdagangan",
        "nama_perusahaan": "GAGAT APLIKASI WISATA",
        "tanggal_daftar": "2022-06-20",
        "nomor_tanda_daftar": "002790.01/DJAI.PSE/06/2022",
        "qr_code": "https://pse.kominfo.go.id/storage/images/qr_code/7ce286081a338b4913885c2d2b0df8cd.png",
        "status_id": "TERDAFTAR",
        "sistem_elektronik_id": 4583
      }
    },
    {
      "type": "tdpseTerbit",
      "id": 4205,
      "attributes": {
        "nomor_pb_umku": "120422003898900000001",
        "nama": "WARKUM.COM",
        "website": "warkum.com",
        "sektor": "Sektor Perdagangan",
        "nama_perusahaan": "WARUNG GRUP DISTRIBUSI",
        "tanggal_daftar": "2022-06-02",
        "nomor_tanda_daftar": "002785.02/DJAI.PSE/06/2022",
        "qr_code": "https://pse.kominfo.go.id/storage/images/qr_code/62b610dc660fe0ddf1278f3dd622c1e4.png",
        "status_id": "TERDAFTAR",
        "sistem_elektronik_id": 4204
      }
    },
    {
      "type": "tdpseTerbit",
      "id": 4691,
      "attributes": {
        "nomor_pb_umku": "241221002636600000001",
        "nama": "TWOBABOX",
        "website": "-",
        "sektor": "Sektor Perdagangan",
        "nama_perusahaan": "TWOBA BOX INDONESIA",
        "tanggal_daftar": "2022-06-23",
        "nomor_tanda_daftar": "002782.01/DJAI.PSE/06/2022",
        "qr_code": "https://pse.kominfo.go.id/storage/images/qr_code/d1efcb88c6870bd44fdbd2f04cf7ce13.png",
        "status_id": "TERDAFTAR",
        "sistem_elektronik_id": 4646
      }
    }
  ]
}