{
  "meta": {
    "page": {
      "currentPage": 566,
      "from": 5651,
      "lastPage": 1016,
      "perPage": 10,
      "to": 5660,
      "total": 10156
    }
  },
  "data": [
    {
      "type": "tdpseTerbit",
      "id": 3713,
      "attributes": {
        "nomor_pb_umku": null,
        "nama": "Piro.id",
        "website": "Piro.id",
        "sektor": "Sektor Teknologi Informasi dan Komunikasi",
        "nama_perusahaan": "TOLONG TRANSFER PAMAN RYAN",
        "tanggal_daftar": "2022-03-31",
        "nomor_tanda_daftar": "002415.01/DJAI.PSE/03/2022",
        "qr_code": "https://pse.kominfo.go.id/storage/images/qr_code/5a278bc2fec6b5b7cd5cf9432f882d8f.png",
        "status_id": "TERDAFTAR",
        "sistem_elektronik_id": 3602
      }
    },
    {
      "type": "tdpseTerbit",
      "id": 5196,
      "attributes": {
        "nomor_pb_umku": "024501024203700000002",
        "nama": "JAGOSELEB.COM",
        "website": "jagoseleb.com",
        "sektor": "Sektor Teknologi Informasi dan Komunikasi",
        "nama_perusahaan": "ALFIE RENALDY",
        "tanggal_daftar": "2022-07-07",
        "nomor_tanda_daftar": "002414.02/DJAI.PSE/07/2022",
        "qr_code": "https://pse.kominfo.go.id/storage/images/qr_code/171b5680231ba1a731ed7a3990d7efd2.png",
        "status_id": "TERDAFTAR",
        "sistem_elektronik_id": 5068
      }
    },
    {
      "type": "tdpseTerbit",
      "id": 3712,
      "attributes": {
        "nomor_pb_umku": null,
        "nama": "Apayments",
        "website": "apayments.id",
        "sektor": "Sektor Perdagangan, Sektor Teknologi Informasi dan Komunikasi",
        "nama_perusahaan": "ALFIE RENALDY",
        "tanggal_daftar": "2022-03-31",
        "nomor_tanda_daftar": "002414.01/DJAI.PSE/03/2022",
        "qr_code": "https://pse.kominfo.go.id/storage/images/qr_code/d46c8591cb248eef2a355c926515dfd6.png",
        "status_id": "TERDAFTAR",
        "sistem_elektronik_id": 3576
      }
    },
    {
      "type": "tdpseTerbit",
      "id": 3748,
      "attributes": {
        "nomor_pb_umku": null,
        "nama": "WEB DAN/ATAU PLATFORM DIGITAL DENGAN TUJUAN KOMERSIAL",
        "website": "asatechnovasindo.com",
        "sektor": "Sektor Teknologi Informasi dan Komunikasi",
        "nama_perusahaan": "ASA TECHNOVASINDO",
        "tanggal_daftar": "2022-04-01",
        "nomor_tanda_daftar": "002413.11/DJAI.PSE/04/2022",
        "qr_code": "https://pse.kominfo.go.id/storage/images/qr_code/c8837c9d34700e4a615a85479b30d7fc.png",
        "status_id": "TERDAFTAR",
        "sistem_elektronik_id": 3501
      }
    },
    {
      "type": "tdpseTerbit",
      "id": 3747,
      "attributes": {
        "nomor_pb_umku": null,
        "nama": "DATA PROCESS",
        "website": "asatechnovasindo.com",
        "sektor": "Sektor Teknologi Informasi dan Komunikasi",
        "nama_perusahaan": "ASA TECHNOVASINDO",
        "tanggal_daftar": "2022-04-01",
        "nomor_tanda_daftar": "002413.10/DJAI.PSE/04/2022",
        "qr_code": "https://pse.kominfo.go.id/storage/images/qr_code/1d975ffd0a321f3138ef085cb96d2106.png",
        "status_id": "TERDAFTAR",
        "sistem_elektronik_id": 3500
      }
    },
    {
      "type": "tdpseTerbit",
      "id": 3746,
      "attributes": {
        "nomor_pb_umku": null,
        "nama": "AKTIVITAS PEMROGRAMAN KOMPUTER",
        "website": "asatechnovasindo.com",
        "sektor": "Sektor Teknologi Informasi dan Komunikasi",
        "nama_perusahaan": "ASA TECHNOVASINDO",
        "tanggal_daftar": "2022-04-01",
        "nomor_tanda_daftar": "002413.09/DJAI.PSE/04/2022",
        "qr_code": "https://pse.kominfo.go.id/storage/images/qr_code/a99de30ac3814052bbd9a745e9d77ad7.png",
        "status_id": "TERDAFTAR",
        "sistem_elektronik_id": 3499
      }
    },
    {
      "type": "tdpseTerbit",
      "id": 3745,
      "attributes": {
        "nomor_pb_umku": null,
        "nama": "aplikasi perdagangan melalui internet (e-commerce)",
        "website": "asatechnovasindo.com",
        "sektor": "Sektor Teknologi Informasi dan Komunikasi",
        "nama_perusahaan": "ASA TECHNOVASINDO",
        "tanggal_daftar": "2022-04-01",
        "nomor_tanda_daftar": "002413.08/DJAI.PSE/04/2022",
        "qr_code": "https://pse.kominfo.go.id/storage/images/qr_code/1b981b144bb4bbceb322f7227086c590.png",
        "status_id": "TERDAFTAR",
        "sistem_elektronik_id": 3498
      }
    },
    {
      "type": "tdpseTerbit",
      "id": 3744,
      "attributes": {
        "nomor_pb_umku": null,
        "nama": "KONSULTASI KOMPUTER DAN MANAJEMEN FASILITAS KOMPUTER",
        "website": "asatechnovasindo.com",
        "sektor": "Sektor Teknologi Informasi dan Komunikasi",
        "nama_perusahaan": "ASA TECHNOVASINDO",
        "tanggal_daftar": "2022-04-01",
        "nomor_tanda_daftar": "002413.07/DJAI.PSE/04/2022",
        "qr_code": "https://pse.kominfo.go.id/storage/images/qr_code/26b4fbbaa2ad357c74e542ed2fab30d0.png",
        "status_id": "TERDAFTAR",
        "sistem_elektronik_id": 3497
      }
    },
    {
      "type": "tdpseTerbit",
      "id": 3743,
      "attributes": {
        "nomor_pb_umku": null,
        "nama": "IT Consultant",
        "website": "asatechnovasindo.com",
        "sektor": "Sektor Teknologi Informasi dan Komunikasi",
        "nama_perusahaan": "ASA TECHNOVASINDO",
        "tanggal_daftar": "2022-04-01",
        "nomor_tanda_daftar": "002413.06/DJAI.PSE/04/2022",
        "qr_code": "https://pse.kominfo.go.id/storage/images/qr_code/d2ff67e954d559ce92df48b04c364273.png",
        "status_id": "TERDAFTAR",
        "sistem_elektronik_id": 3496
      }
    },
    {
      "type": "tdpseTerbit",
      "id": 3741,
      "attributes": {
        "nomor_pb_umku": null,
        "nama": "Software Distributions",
        "website": "asatechnovasindo.com",
        "sektor": "Sektor Teknologi Informasi dan Komunikasi",
        "nama_perusahaan": "ASA TECHNOVASINDO",
        "tanggal_daftar": "2022-04-01",
        "nomor_tanda_daftar": "002413.05/DJAI.PSE/04/2022",
        "qr_code": "https://pse.kominfo.go.id/storage/images/qr_code/38b0e87f183e42bec8023a0bed5cae03.png",
        "status_id": "TERDAFTAR",
        "sistem_elektronik_id": 3495
      }
    }
  ]
}