{
  "meta": {
    "page": {
      "currentPage": 567,
      "from": 5661,
      "lastPage": 925,
      "perPage": 10,
      "to": 5670,
      "total": 9244
    }
  },
  "data": [
    {
      "type": "tdpseTerbit",
      "id": 2841,
      "attributes": {
        "nomor_pb_umku": null,
        "nama": "BTN Smart Residence",
        "website": "-",
        "sektor": "Sektor Keuangan",
        "nama_perusahaan": "PERUSAHAAN PERSEROAN (PERSERO) PT. BANK TABUNGAN NEGARA",
        "tanggal_daftar": "2021-12-22",
        "nomor_tanda_daftar": "001813.11/DJAI.PSE/12/2021",
        "qr_code": "https://pse.kominfo.go.id/storage/images/qr_code/6a5a7d3ca4cdcf8035ae4b2414124122.png",
        "status_id": "TERDAFTAR",
        "sistem_elektronik_id": 1930
      }
    },
    {
      "type": "tdpseTerbit",
      "id": 2839,
      "attributes": {
        "nomor_pb_umku": null,
        "nama": "BTN Properti Mobile",
        "website": "-",
        "sektor": "Sektor Keuangan",
        "nama_perusahaan": "PERUSAHAAN PERSEROAN (PERSERO) PT. BANK TABUNGAN NEGARA",
        "tanggal_daftar": "2021-12-22",
        "nomor_tanda_daftar": "001813.10/DJAI.PSE/12/2021",
        "qr_code": "https://pse.kominfo.go.id/storage/images/qr_code/d212dc5c74b59dc8cd05dc854417919c.png",
        "status_id": "TERDAFTAR",
        "sistem_elektronik_id": 1929
      }
    },
    {
      "type": "tdpseTerbit",
      "id": 2838,
      "attributes": {
        "nomor_pb_umku": null,
        "nama": "BTN Credit Card Mobile",
        "website": "-",
        "sektor": "Sektor Keuangan",
        "nama_perusahaan": "PERUSAHAAN PERSEROAN (PERSERO) PT. BANK TABUNGAN NEGARA",
        "tanggal_daftar": "2021-12-22",
        "nomor_tanda_daftar": "001813.09/DJAI.PSE/12/2021",
        "qr_code": "https://pse.kominfo.go.id/storage/images/qr_code/dcd08b66ed85de28f497aa3774c33195.png",
        "status_id": "TERDAFTAR",
        "sistem_elektronik_id": 1928
      }
    },
    {
      "type": "tdpseTerbit",
      "id": 2837,
      "attributes": {
        "nomor_pb_umku": null,
        "nama": "Website Poin Specta BTN",
        "website": "https://poinspekta.btn.co.id/",
        "sektor": "Sektor Keuangan",
        "nama_perusahaan": "PERUSAHAAN PERSEROAN (PERSERO) PT. BANK TABUNGAN NEGARA",
        "tanggal_daftar": "2021-12-22",
        "nomor_tanda_daftar": "001813.08/DJAI.PSE/12/2021",
        "qr_code": "https://pse.kominfo.go.id/storage/images/qr_code/6cdb0085cc97a2dd619db8f718f69fc9.png",
        "status_id": "TERDAFTAR",
        "sistem_elektronik_id": 1927
      }
    },
    {
      "type": "tdpseTerbit",
      "id": 2836,
      "attributes": {
        "nomor_pb_umku": null,
        "nama": "Website Kartu Suka Suka BTN",
        "website": "www.kartusukasuka.btn.co.id",
        "sektor": "Sektor Keuangan",
        "nama_perusahaan": "PERUSAHAAN PERSEROAN (PERSERO) PT. BANK TABUNGAN NEGARA",
        "tanggal_daftar": "2021-12-22",
        "nomor_tanda_daftar": "001813.07/DJAI.PSE/12/2021",
        "qr_code": "https://pse.kominfo.go.id/storage/images/qr_code/2328b7d3f6dfd15336c5a917d919f26d.png",
        "status_id": "TERDAFTAR",
        "sistem_elektronik_id": 1926
      }
    },
    {
      "type": "tdpseTerbit",
      "id": 2826,
      "attributes": {
        "nomor_pb_umku": null,
        "nama": "Mobile Banking BTN",
        "website": "-",
        "sektor": "Sektor Keuangan",
        "nama_perusahaan": "PERUSAHAAN PERSEROAN (PERSERO) PT. BANK TABUNGAN NEGARA",
        "tanggal_daftar": "2021-12-21",
        "nomor_tanda_daftar": "001813.06/DJAI.PSE/12/2021",
        "qr_code": "https://pse.kominfo.go.id/storage/images/qr_code/e4156a219fc53c8fed7162c25c690a45.png",
        "status_id": "TERDAFTAR",
        "sistem_elektronik_id": 1925
      }
    },
    {
      "type": "tdpseTerbit",
      "id": 2825,
      "attributes": {
        "nomor_pb_umku": null,
        "nama": "BTN Properti",
        "website": "www.btnproperti.co.id",
        "sektor": "Sektor Keuangan",
        "nama_perusahaan": "PERUSAHAAN PERSEROAN (PERSERO) PT. BANK TABUNGAN NEGARA",
        "tanggal_daftar": "2021-12-21",
        "nomor_tanda_daftar": "001813.05/DJAI.PSE/12/2021",
        "qr_code": "https://pse.kominfo.go.id/storage/images/qr_code/1bd07808042aa0b02ac7d69344e12cb9.png",
        "status_id": "TERDAFTAR",
        "sistem_elektronik_id": 1924
      }
    },
    {
      "type": "tdpseTerbit",
      "id": 2824,
      "attributes": {
        "nomor_pb_umku": null,
        "nama": "Internet Banking Bisnis BTN",
        "website": "cashmanagement.btn.co.id",
        "sektor": "Sektor Keuangan",
        "nama_perusahaan": "PERUSAHAAN PERSEROAN (PERSERO) PT. BANK TABUNGAN NEGARA",
        "tanggal_daftar": "2021-12-21",
        "nomor_tanda_daftar": "001813.04/DJAI.PSE/12/2021",
        "qr_code": "https://pse.kominfo.go.id/storage/images/qr_code/5e6c8010e524e93d2f18abd5eb87477f.png",
        "status_id": "TERDAFTAR",
        "sistem_elektronik_id": 1923
      }
    },
    {
      "type": "tdpseTerbit",
      "id": 2823,
      "attributes": {
        "nomor_pb_umku": null,
        "nama": "Internet Banking BTN",
        "website": "internetbanking.btn.co.id",
        "sektor": "Sektor Keuangan",
        "nama_perusahaan": "PERUSAHAAN PERSEROAN (PERSERO) PT. BANK TABUNGAN NEGARA",
        "tanggal_daftar": "2021-12-21",
        "nomor_tanda_daftar": "001813.03/DJAI.PSE/12/2021",
        "qr_code": "https://pse.kominfo.go.id/storage/images/qr_code/c30ff08413e61a61019366107f34ad9e.png",
        "status_id": "TERDAFTAR",
        "sistem_elektronik_id": 1922
      }
    },
    {
      "type": "tdpseTerbit",
      "id": 2819,
      "attributes": {
        "nomor_pb_umku": null,
        "nama": "Website e-Mitra BTN",
        "website": "https://emitra.btn.co.id",
        "sektor": "Sektor Keuangan",
        "nama_perusahaan": "PERUSAHAAN PERSEROAN (PERSERO) PT. BANK TABUNGAN NEGARA",
        "tanggal_daftar": "2021-12-21",
        "nomor_tanda_daftar": "001813.02/DJAI.PSE/12/2021",
        "qr_code": "https://pse.kominfo.go.id/storage/images/qr_code/b3a276c36f35602271fc7b1fde237980.png",
        "status_id": "TERDAFTAR",
        "sistem_elektronik_id": 1921
      }
    }
  ]
}