{
  "meta": {
    "page": {
      "currentPage": 568,
      "from": 5671,
      "lastPage": 1080,
      "perPage": 10,
      "to": 5680,
      "total": 10793
    }
  },
  "data": [
    {
      "type": "tdpseTerbit",
      "id": 5699,
      "attributes": {
        "nomor_pb_umku": "022010061265900000004",
        "nama": "MRIMPORTIR.COM",
        "website": "mrimportir.com",
        "sektor": "Sektor Perdagangan",
        "nama_perusahaan": "PRIMA SYIRKAH INTERNATIONAL",
        "tanggal_daftar": "2022-07-15",
        "nomor_tanda_daftar": "002941.04/DJAI.PSE/07/2022",
        "qr_code": "https://pse.kominfo.go.id/storage/images/qr_code/aa53fab3c9a973d8d0e5a5be7b40b961.png",
        "status_id": "TERDAFTAR",
        "sistem_elektronik_id": 5563
      }
    },
    {
      "type": "tdpseTerbit",
      "id": 5608,
      "attributes": {
        "nomor_pb_umku": "022010061265900000003",
        "nama": "TITIPKIRIM.COM",
        "website": "titipkirim.com",
        "sektor": "Sektor Perdagangan",
        "nama_perusahaan": "PRIMA SYIRKAH INTERNATIONAL",
        "tanggal_daftar": "2022-07-14",
        "nomor_tanda_daftar": "002941.03/DJAI.PSE/07/2022",
        "qr_code": "https://pse.kominfo.go.id/storage/images/qr_code/e1b994454801c6f72386ad8c11de480e.png",
        "status_id": "TERDAFTAR",
        "sistem_elektronik_id": 5476
      }
    },
    {
      "type": "tdpseTerbit",
      "id": 4560,
      "attributes": {
        "nomor_pb_umku": "022010061265900000002",
        "nama": "TITIPORDER.COM",
        "website": "titiporder.com",
        "sektor": "Sektor Perdagangan",
        "nama_perusahaan": "PRIMA SYIRKAH INTERNATIONAL",
        "tanggal_daftar": "2022-06-16",
        "nomor_tanda_daftar": "002941.02/DJAI.PSE/06/2022",
        "qr_code": "https://pse.kominfo.go.id/storage/images/qr_code/469d1007297476a725d9387cd8fb08bd.png",
        "status_id": "TERDAFTAR",
        "sistem_elektronik_id": 4523
      }
    },
    {
      "type": "tdpseTerbit",
      "id": 4553,
      "attributes": {
        "nomor_pb_umku": "022010061265900000001",
        "nama": "IMPORTIR.CO.ID",
        "website": "importir.co.id",
        "sektor": "Sektor Perdagangan",
        "nama_perusahaan": "PRIMA SYIRKAH INTERNATIONAL",
        "tanggal_daftar": "2022-06-16",
        "nomor_tanda_daftar": "002941.01/DJAI.PSE/06/2022",
        "qr_code": "https://pse.kominfo.go.id/storage/images/qr_code/1471f15df0939d5f5b5c7c67a489f4f3.png",
        "status_id": "TERDAFTAR",
        "sistem_elektronik_id": 4521
      }
    },
    {
      "type": "tdpseTerbit",
      "id": 7983,
      "attributes": {
        "nomor_pb_umku": "812010791224500050190",
        "nama": "MOBILE APP INFORMA",
        "website": "informa.co.id",
        "sektor": "Sektor Perdagangan, Sektor Teknologi Informasi dan Komunikasi",
        "nama_perusahaan": "HOME CENTER INDONESIA",
        "tanggal_daftar": "2022-07-20",
        "nomor_tanda_daftar": "002939.02/DJAI.PSE/07/2022",
        "qr_code": "https://pse.kominfo.go.id/storage/images/qr_code/b1c1ce427ef5019478d8a5adc873b786.png",
        "status_id": "TERDAFTAR",
        "sistem_elektronik_id": 7901
      }
    },
    {
      "type": "tdpseTerbit",
      "id": 4190,
      "attributes": {
        "nomor_pb_umku": "812010791224500050179",
        "nama": "HOME CENTER INDONESIA - COMPANY PROFILE",
        "website": "informa.co.id",
        "sektor": "Sektor Perdagangan",
        "nama_perusahaan": "HOME CENTER INDONESIA",
        "tanggal_daftar": "2022-05-31",
        "nomor_tanda_daftar": "002939.01/DJAI.PSE/05/2022",
        "qr_code": "https://pse.kominfo.go.id/storage/images/qr_code/8daf27b74a4084a2b69871b6a8ab1fa7.png",
        "status_id": "TERDAFTAR",
        "sistem_elektronik_id": 4192
      }
    },
    {
      "type": "tdpseTerbit",
      "id": 4563,
      "attributes": {
        "nomor_pb_umku": "123300024013300000001",
        "nama": "RUANGNYAMAN",
        "website": "ruangnyaman.id",
        "sektor": "Sektor Teknologi Informasi dan Komunikasi",
        "nama_perusahaan": "RUANG NYAMAN ABADI",
        "tanggal_daftar": "2022-06-16",
        "nomor_tanda_daftar": "002938.01/DJAI.PSE/06/2022",
        "qr_code": "https://pse.kominfo.go.id/storage/images/qr_code/9fd9aea09f82c96d71378948797c9933.png",
        "status_id": "TERDAFTAR",
        "sistem_elektronik_id": 4526
      }
    },
    {
      "type": "tdpseTerbit",
      "id": 4191,
      "attributes": {
        "nomor_pb_umku": "040422002988900000001",
        "nama": "PAKETINDO",
        "website": "paketindo.id",
        "sektor": "Sektor Teknologi Informasi dan Komunikasi",
        "nama_perusahaan": "TECHINDO SENTOSA RAYA",
        "tanggal_daftar": "2022-05-31",
        "nomor_tanda_daftar": "002937.01/DJAI.PSE/05/2022",
        "qr_code": "https://pse.kominfo.go.id/storage/images/qr_code/e8b3cde75d6c731717cd1353f3c77178.png",
        "status_id": "TERDAFTAR",
        "sistem_elektronik_id": 4193
      }
    },
    {
      "type": "tdpseTerbit",
      "id": 4198,
      "attributes": {
        "nomor_pb_umku": "010422002678900000001",
        "nama": "BEBAS",
        "website": "bebasinvestasi.com",
        "sektor": "Sektor Teknologi Informasi dan Komunikasi",
        "nama_perusahaan": "BEBAS INVESTAMA GLOBAL",
        "tanggal_daftar": "2022-05-31",
        "nomor_tanda_daftar": "002936.01/DJAI.PSE/05/2022",
        "qr_code": "https://pse.kominfo.go.id/storage/images/qr_code/4b12cbb5132ba943f2b4509fc633bac1.png",
        "status_id": "TERDAFTAR",
        "sistem_elektronik_id": 4196
      }
    },
    {
      "type": "tdpseTerbit",
      "id": 4576,
      "attributes": {
        "nomor_pb_umku": "912040122198900000001",
        "nama": "PAWOON POS",
        "website": "pawoon.com",
        "sektor": "Sektor Teknologi Informasi dan Komunikasi",
        "nama_perusahaan": "ALPHANOVATION DIGITAL TEKNINDO",
        "tanggal_daftar": "2022-06-17",
        "nomor_tanda_daftar": "002935.01/DJAI.PSE/06/2022",
        "qr_code": "https://pse.kominfo.go.id/storage/images/qr_code/d812ee975e81accf40b6206788cb5c94.png",
        "status_id": "TERDAFTAR",
        "sistem_elektronik_id": 4540
      }
    }
  ]
}