{
  "meta": {
    "page": {
      "currentPage": 570,
      "from": 5691,
      "lastPage": 1068,
      "perPage": 10,
      "to": 5700,
      "total": 10675
    }
  },
  "data": [
    {
      "type": "tdpseTerbit",
      "id": 8945,
      "attributes": {
        "nomor_pb_umku": "251021001164700130005",
        "nama": "ALAMBAMAKMUR.COM",
        "website": "alambamakmur.com",
        "sektor": "Sektor Perdagangan",
        "nama_perusahaan": "ALAMBA MAKMUR BERSAMA",
        "tanggal_daftar": "2022-07-25",
        "nomor_tanda_daftar": "002824.01/DJAI.PSE/07/2022",
        "qr_code": "https://pse.kominfo.go.id/storage/images/qr_code/b9f2816e8f69e7b4f9c989cc12c742e3.png",
        "status_id": "TERDAFTAR",
        "sistem_elektronik_id": 8854
      }
    },
    {
      "type": "tdpseTerbit",
      "id": 5439,
      "attributes": {
        "nomor_pb_umku": "812011403137800010002",
        "nama": "WAHYOO",
        "website": "-",
        "sektor": "Sektor Perdagangan",
        "nama_perusahaan": "ALIRAN SUMBER BERKAT",
        "tanggal_daftar": "2022-07-13",
        "nomor_tanda_daftar": "002823.02/DJAI.PSE/07/2022",
        "qr_code": "https://pse.kominfo.go.id/storage/images/qr_code/b7f253c776395669555089113f9a912a.png",
        "status_id": "TERDAFTAR",
        "sistem_elektronik_id": 5309
      }
    },
    {
      "type": "tdpseTerbit",
      "id": 4171,
      "attributes": {
        "nomor_pb_umku": "129000023055400090003",
        "nama": "LEARNINGX",
        "website": "learningx.com",
        "sektor": "Sektor Teknologi Informasi dan Komunikasi",
        "nama_perusahaan": "GLOBAL INVESTMENT INSTITUSI",
        "tanggal_daftar": "2022-05-30",
        "nomor_tanda_daftar": "002822.01/DJAI.PSE/05/2022",
        "qr_code": "https://pse.kominfo.go.id/storage/images/qr_code/0ed38a7a325e42eab3a43a350d3a9eab.png",
        "status_id": "TERDAFTAR",
        "sistem_elektronik_id": 4174
      }
    },
    {
      "type": "tdpseTerbit",
      "id": 4125,
      "attributes": {
        "nomor_pb_umku": "091121004964500000003",
        "nama": "SUMUL STORE",
        "website": "bukaolshop.com",
        "sektor": "Sektor Perdagangan",
        "nama_perusahaan": "DENURATO SUMUL GROUP",
        "tanggal_daftar": "2022-05-24",
        "nomor_tanda_daftar": "002817.01/DJAI.PSE/05/2022",
        "qr_code": "https://pse.kominfo.go.id/storage/images/qr_code/5af813d5b6e15c5291c4014953da3e72.png",
        "status_id": "TERDAFTAR",
        "sistem_elektronik_id": 4126
      }
    },
    {
      "type": "tdpseTerbit",
      "id": 4124,
      "attributes": {
        "nomor_pb_umku": "090422001119600000001",
        "nama": "BINALOKA",
        "website": "binaloka.id",
        "sektor": "Sektor Teknologi Informasi dan Komunikasi",
        "nama_perusahaan": "BINA LOKA INDONESIA",
        "tanggal_daftar": "2022-05-24",
        "nomor_tanda_daftar": "002816.01/DJAI.PSE/05/2022",
        "qr_code": "https://pse.kominfo.go.id/storage/images/qr_code/85374937d42c44644cf266b651e5e424.png",
        "status_id": "TERDAFTAR",
        "sistem_elektronik_id": 4125
      }
    },
    {
      "type": "tdpseTerbit",
      "id": 4123,
      "attributes": {
        "nomor_pb_umku": "240522004491100000001",
        "nama": "TEKNOGRIS.COM",
        "website": "teknogris.com",
        "sektor": "Sektor Teknologi Informasi dan Komunikasi",
        "nama_perusahaan": "INDRA WATI",
        "tanggal_daftar": "2022-05-24",
        "nomor_tanda_daftar": "002815.01/DJAI.PSE/05/2022",
        "qr_code": "https://pse.kominfo.go.id/storage/images/qr_code/d91b0654ee2aa5cf254ffc068be04031.png",
        "status_id": "TERDAFTAR",
        "sistem_elektronik_id": 4124
      }
    },
    {
      "type": "tdpseTerbit",
      "id": 10110,
      "attributes": {
        "nomor_pb_umku": "912030838199700010002",
        "nama": "TSMEDIA.ID",
        "website": "tsmedia.id",
        "sektor": "Sektor Perdagangan",
        "nama_perusahaan": "GLOBAL LOYAL SEJAHTERA",
        "tanggal_daftar": "2022-08-09",
        "nomor_tanda_daftar": "002813.02/DJAI.PSE/08/2022",
        "qr_code": "https://pse.kominfo.go.id/storage/images/qr_code/02952437281d62df4677c9cfc2bee110.png",
        "status_id": "TERDAFTAR",
        "sistem_elektronik_id": 9992
      }
    },
    {
      "type": "tdpseTerbit",
      "id": 4637,
      "attributes": {
        "nomor_pb_umku": "912030838199700010001",
        "nama": "MEMBER.ID",
        "website": "member.id",
        "sektor": "Sektor Perdagangan",
        "nama_perusahaan": "GLOBAL LOYAL SEJAHTERA",
        "tanggal_daftar": "2022-06-21",
        "nomor_tanda_daftar": "002813.01/DJAI.PSE/06/2022",
        "qr_code": "https://pse.kominfo.go.id/storage/images/qr_code/f2c8e264e7ea742b246c7150ef0b9e6b.png",
        "status_id": "TERDAFTAR",
        "sistem_elektronik_id": 4591
      }
    },
    {
      "type": "tdpseTerbit",
      "id": 4246,
      "attributes": {
        "nomor_pb_umku": "090921009845800050002",
        "nama": "CAHAYA ALBAROKAH SUKSES (CAS)",
        "website": "cahayaalbarokahsukses.web.indotrading.com",
        "sektor": "Sektor Perdagangan",
        "nama_perusahaan": "CAHAYA ALBAROKAH SUKSES",
        "tanggal_daftar": "2022-06-06",
        "nomor_tanda_daftar": "002812.02/DJAI.PSE/06/2022",
        "qr_code": "https://pse.kominfo.go.id/storage/images/qr_code/570a8bb7a1d13cc499e9c892e0aabce1.png",
        "status_id": "TERDAFTAR",
        "sistem_elektronik_id": 4241
      }
    },
    {
      "type": "tdpseTerbit",
      "id": 4385,
      "attributes": {
        "nomor_pb_umku": "110122003815800000001",
        "nama": "CARIBARANG.ID",
        "website": "caribarang.id",
        "sektor": "Sektor Perdagangan, Sektor Transportasi",
        "nama_perusahaan": "DIGITAL TRADING SOLUSINDO",
        "tanggal_daftar": "2022-06-14",
        "nomor_tanda_daftar": "002809.01/DJAI.PSE/06/2022",
        "qr_code": "https://pse.kominfo.go.id/storage/images/qr_code/597fd420649e5c3c0b1d02071a4bc7f3.png",
        "status_id": "TERDAFTAR",
        "sistem_elektronik_id": 4369
      }
    }
  ]
}