{
  "meta": {
    "page": {
      "currentPage": 572,
      "from": 5711,
      "lastPage": 945,
      "perPage": 10,
      "to": 5720,
      "total": 9449
    }
  },
  "data": [
    {
      "type": "tdpseTerbit",
      "id": 3114,
      "attributes": {
        "nomor_pb_umku": null,
        "nama": "new",
        "website": "www.newnational.co.id",
        "sektor": "Sektor Perdagangan",
        "nama_perusahaan": "DAB INDONESIA",
        "tanggal_daftar": "2022-01-25",
        "nomor_tanda_daftar": "001896.02/DJAI.PSE/01/2022",
        "qr_code": "https://pse.kominfo.go.id/storage/images/qr_code/42771e0c5edd739a47db73cdd6ee189b.png",
        "status_id": "TERDAFTAR",
        "sistem_elektronik_id": 2017
      }
    },
    {
      "type": "tdpseTerbit",
      "id": 2956,
      "attributes": {
        "nomor_pb_umku": null,
        "nama": "distributor pompa air dan led",
        "website": "dabindonesia.co.id",
        "sektor": "Sektor Energi dan Sumber Daya Mineral, Sektor Perdagangan, Sektor Pertahanan dan Keamanan",
        "nama_perusahaan": "DAB INDONESIA",
        "tanggal_daftar": "2022-01-06",
        "nomor_tanda_daftar": "001896.01/DJAI.PSE/01/2022",
        "qr_code": "https://pse.kominfo.go.id/storage/images/qr_code/343e83400a3064668dc249501ec43e56.png",
        "status_id": "TERDAFTAR",
        "sistem_elektronik_id": 2016
      }
    },
    {
      "type": "tdpseTerbit",
      "id": 2955,
      "attributes": {
        "nomor_pb_umku": null,
        "nama": "Sistem Elektronik Titipku",
        "website": "https://titipku.com/",
        "sektor": "Sektor Perdagangan, Sektor Teknologi Informasi dan Komunikasi",
        "nama_perusahaan": "TERANG BAGI BANGSA",
        "tanggal_daftar": "2022-01-06",
        "nomor_tanda_daftar": "001895.01/DJAI.PSE/01/2022",
        "qr_code": "https://pse.kominfo.go.id/storage/images/qr_code/10d0c6e3b947f68f4065dcd536321c2a.png",
        "status_id": "TERDAFTAR",
        "sistem_elektronik_id": 2051
      }
    },
    {
      "type": "tdpseTerbit",
      "id": 2953,
      "attributes": {
        "nomor_pb_umku": null,
        "nama": "GHinshop",
        "website": "gh-orthoindonesia.com",
        "sektor": "Sektor Kesehatan, Sektor Perdagangan",
        "nama_perusahaan": "LANCAR REKA SAMPURNA",
        "tanggal_daftar": "2022-01-05",
        "nomor_tanda_daftar": "001894.01/DJAI.PSE/01/2022",
        "qr_code": "https://pse.kominfo.go.id/storage/images/qr_code/d7f4f1b80168c70c0d20dd56a142a4c1.png",
        "status_id": "TERDAFTAR",
        "sistem_elektronik_id": 1606
      }
    },
    {
      "type": "tdpseTerbit",
      "id": 2952,
      "attributes": {
        "nomor_pb_umku": null,
        "nama": "eFishery Feeder",
        "website": "http://api.efishery.com/",
        "sektor": "Sektor Pangan, Sektor Perdagangan",
        "nama_perusahaan": "MULTIDAYA TEKNOLOGI NUSANTARA",
        "tanggal_daftar": "2022-01-05",
        "nomor_tanda_daftar": "001893.01/DJAI.PSE/01/2022",
        "qr_code": "https://pse.kominfo.go.id/storage/images/qr_code/45fd7ee1bedcf8112ad5ec52cf7e5ec0.png",
        "status_id": "TERDAFTAR",
        "sistem_elektronik_id": 343
      }
    },
    {
      "type": "tdpseTerbit",
      "id": 2948,
      "attributes": {
        "nomor_pb_umku": null,
        "nama": "Portal Berita Online www.sakanews.com",
        "website": "sakanews.com",
        "sektor": "Sektor Perdagangan, Sektor Teknologi Informasi dan Komunikasi",
        "nama_perusahaan": "SAKA NEWS BRILLIANT",
        "tanggal_daftar": "2022-01-04",
        "nomor_tanda_daftar": "001892.01/DJAI.PSE/01/2022",
        "qr_code": "https://pse.kominfo.go.id/storage/images/qr_code/b06608ff1033e646d30bea73cf03e922.png",
        "status_id": "TERDAFTAR",
        "sistem_elektronik_id": 2010
      }
    },
    {
      "type": "tdpseTerbit",
      "id": 2947,
      "attributes": {
        "nomor_pb_umku": null,
        "nama": "Kinobi Z",
        "website": "https://app.kinobi.asia",
        "sektor": "Sektor Teknologi Informasi dan Komunikasi",
        "nama_perusahaan": "KINOBI TECHNOLOGIES INDONESIA",
        "tanggal_daftar": "2022-01-04",
        "nomor_tanda_daftar": "001891.01/DJAI.PSE/01/2022",
        "qr_code": "https://pse.kominfo.go.id/storage/images/qr_code/4c87962504517221ae92644397c1e259.png",
        "status_id": "TERDAFTAR",
        "sistem_elektronik_id": 1873
      }
    },
    {
      "type": "tdpseTerbit",
      "id": 2946,
      "attributes": {
        "nomor_pb_umku": null,
        "nama": "Belinjo.id",
        "website": "belinjo.id",
        "sektor": "Sektor Perdagangan",
        "nama_perusahaan": "UMKM NIAGA INTERNATIONAL",
        "tanggal_daftar": "2022-01-04",
        "nomor_tanda_daftar": "001890.01/DJAI.PSE/01/2022",
        "qr_code": "https://pse.kominfo.go.id/storage/images/qr_code/7defdee2dbf79799b189994ba7f30b6a.png",
        "status_id": "TERDAFTAR",
        "sistem_elektronik_id": 1994
      }
    },
    {
      "type": "tdpseTerbit",
      "id": 2945,
      "attributes": {
        "nomor_pb_umku": null,
        "nama": "Redigan",
        "website": "Redigan.id",
        "sektor": "Sektor Teknologi Informasi dan Komunikasi",
        "nama_perusahaan": "SIAP PESAN SEKARANG",
        "tanggal_daftar": "2022-01-04",
        "nomor_tanda_daftar": "001889.01/DJAI.PSE/01/2022",
        "qr_code": "https://pse.kominfo.go.id/storage/images/qr_code/63d8ba6c3389eeafc9c3927cf63c1219.png",
        "status_id": "TERDAFTAR",
        "sistem_elektronik_id": 1892
      }
    },
    {
      "type": "tdpseTerbit",
      "id": 8754,
      "attributes": {
        "nomor_pb_umku": "912010880039200030004",
        "nama": "WON MOBILE (WANTEG MOBILE TRADING) -  IOS & ANDROID",
        "website": "WANTEG.COM",
        "sektor": "Sektor Keuangan",
        "nama_perusahaan": "WANTEG SEKURITAS",
        "tanggal_daftar": "2022-07-22",
        "nomor_tanda_daftar": "001888.04/DJAI.PSE/07/2022",
        "qr_code": "https://pse.kominfo.go.id/storage/images/qr_code/25fb62f1e92bc0f7166353c8c6583e96.png",
        "status_id": "TERDAFTAR",
        "sistem_elektronik_id": 8671
      }
    }
  ]
}