{
  "meta": {
    "page": {
      "currentPage": 573,
      "from": 5721,
      "lastPage": 1063,
      "perPage": 10,
      "to": 5730,
      "total": 10630
    }
  },
  "data": [
    {
      "type": "tdpseTerbit",
      "id": 7948,
      "attributes": {
        "nomor_pb_umku": "812020280021300010009",
        "nama": "CALL OF DUTY MOBILE",
        "website": "-",
        "sektor": "Sektor Teknologi Informasi dan Komunikasi",
        "nama_perusahaan": "GARENA INDONESIA",
        "tanggal_daftar": "2022-07-20",
        "nomor_tanda_daftar": "002712.10/DJAI.PSE/07/2022",
        "qr_code": "https://pse.kominfo.go.id/storage/images/qr_code/34e8c9b4b6e40658115e939562f6e59e.png",
        "status_id": "TERDAFTAR",
        "sistem_elektronik_id": 7844
      }
    },
    {
      "type": "tdpseTerbit",
      "id": 7903,
      "attributes": {
        "nomor_pb_umku": "812020280021300010008",
        "nama": "FREE FIRE",
        "website": "-",
        "sektor": "Sektor Teknologi Informasi dan Komunikasi",
        "nama_perusahaan": "GARENA INDONESIA",
        "tanggal_daftar": "2022-07-20",
        "nomor_tanda_daftar": "002712.09/DJAI.PSE/07/2022",
        "qr_code": "https://pse.kominfo.go.id/storage/images/qr_code/fecc5248fdb26c060324f64d4d7bd955.png",
        "status_id": "TERDAFTAR",
        "sistem_elektronik_id": 7796
      }
    },
    {
      "type": "tdpseTerbit",
      "id": 7755,
      "attributes": {
        "nomor_pb_umku": "812020280021300010007",
        "nama": "SPEED DRIFTERS",
        "website": "-",
        "sektor": "Sektor Teknologi Informasi dan Komunikasi",
        "nama_perusahaan": "GARENA INDONESIA",
        "tanggal_daftar": "2022-07-20",
        "nomor_tanda_daftar": "002712.07/DJAI.PSE/07/2022",
        "qr_code": "https://pse.kominfo.go.id/storage/images/qr_code/52ca6eb0a3dfd9a120d465f2fbcebbc8.png",
        "status_id": "TERDAFTAR",
        "sistem_elektronik_id": 7632
      }
    },
    {
      "type": "tdpseTerbit",
      "id": 7435,
      "attributes": {
        "nomor_pb_umku": "812020280021300010006",
        "nama": "FAIRY TAIL (APPS.APPLE.COM/ID/APP/FAIRY-TAIL-FORCES-UNITE/ID1517989205; PLAY.GOOGLE.COM/STORE/APPS/DETAILS?ID=COM.GARENA.GAME.FTMID&HL=EN&GL=US)",
        "website": "ftm.garena.co.id",
        "sektor": "Sektor Teknologi Informasi dan Komunikasi",
        "nama_perusahaan": "GARENA INDONESIA",
        "tanggal_daftar": "2022-07-20",
        "nomor_tanda_daftar": "002712.06/DJAI.PSE/07/2022",
        "qr_code": "https://pse.kominfo.go.id/storage/images/qr_code/79c4e0dba8bc454fac64e45a4596ed40.png",
        "status_id": "TERDAFTAR",
        "sistem_elektronik_id": 7330
      }
    },
    {
      "type": "tdpseTerbit",
      "id": 7389,
      "attributes": {
        "nomor_pb_umku": "812020280021300010005",
        "nama": "ARENA OF VALOR",
        "website": "aov.garena.co.id",
        "sektor": "Sektor Teknologi Informasi dan Komunikasi",
        "nama_perusahaan": "GARENA INDONESIA",
        "tanggal_daftar": "2022-07-20",
        "nomor_tanda_daftar": "002712.05/DJAI.PSE/07/2022",
        "qr_code": "https://pse.kominfo.go.id/storage/images/qr_code/2f003c30bf092491bee4c733437c8b7c.png",
        "status_id": "TERDAFTAR",
        "sistem_elektronik_id": 7125
      }
    },
    {
      "type": "tdpseTerbit",
      "id": 7388,
      "attributes": {
        "nomor_pb_umku": "812020280021300010004",
        "nama": "LEAGUE OF LEGENDS PC",
        "website": "lol.garena.co.id",
        "sektor": "Sektor Teknologi Informasi dan Komunikasi",
        "nama_perusahaan": "GARENA INDONESIA",
        "tanggal_daftar": "2022-07-20",
        "nomor_tanda_daftar": "002712.04/DJAI.PSE/07/2022",
        "qr_code": "https://pse.kominfo.go.id/storage/images/qr_code/10632dbc71312b9bb77e075a14ee5051.png",
        "status_id": "TERDAFTAR",
        "sistem_elektronik_id": 7099
      }
    },
    {
      "type": "tdpseTerbit",
      "id": 5794,
      "attributes": {
        "nomor_pb_umku": "812020280021300010003",
        "nama": "BOOYAH LIVE",
        "website": "booyah.live",
        "sektor": "Sektor Teknologi Informasi dan Komunikasi",
        "nama_perusahaan": "GARENA INDONESIA",
        "tanggal_daftar": "2022-07-15",
        "nomor_tanda_daftar": "002712.03/DJAI.PSE/07/2022",
        "qr_code": "https://pse.kominfo.go.id/storage/images/qr_code/e7bcac7ce9f3e8f6955c2dfd2cb92ed0.png",
        "status_id": "TERDAFTAR",
        "sistem_elektronik_id": 5655
      }
    },
    {
      "type": "tdpseTerbit",
      "id": 5361,
      "attributes": {
        "nomor_pb_umku": "812020280021300010002",
        "nama": "INFORMATION PAGE APLIKASI GAMES (BLOCKMAN GO, CONTRA RETURNS, SPEED DRIFTERS, FAIRY TAIL)",
        "website": "garena.co.id",
        "sektor": "Sektor Teknologi Informasi dan Komunikasi",
        "nama_perusahaan": "GARENA INDONESIA",
        "tanggal_daftar": "2022-07-12",
        "nomor_tanda_daftar": "002712.02/DJAI.PSE/07/2022",
        "qr_code": "https://pse.kominfo.go.id/storage/images/qr_code/72c6b568ccd77439600fbb3063171252.png",
        "status_id": "TERDAFTAR",
        "sistem_elektronik_id": 5229
      }
    },
    {
      "type": "tdpseTerbit",
      "id": 4490,
      "attributes": {
        "nomor_pb_umku": null,
        "nama": "Information Page Aplikasi Games (Free Fire, Arena of Valor, Call of Duty Mobile)",
        "website": "garena.co.id",
        "sektor": "Sektor Teknologi Informasi dan Komunikasi",
        "nama_perusahaan": "GARENA INDONESIA",
        "tanggal_daftar": "2022-05-18",
        "nomor_tanda_daftar": "002712.01/DJAI.PSE/05/2022",
        "qr_code": "https://pse.kominfo.go.id/storage/images/qr_code/7593fdcd146681e6abb0227acfa22d6f.png",
        "status_id": "TERDAFTAR",
        "sistem_elektronik_id": 4474
      }
    },
    {
      "type": "tdpseTerbit",
      "id": 4489,
      "attributes": {
        "nomor_pb_umku": null,
        "nama": "RMW Center",
        "website": "rmw-pulsa.com",
        "sektor": "Sektor Perdagangan",
        "nama_perusahaan": "RELASI MAHAKARYA WIJAYA",
        "tanggal_daftar": "2022-05-18",
        "nomor_tanda_daftar": "002711.01/DJAI.PSE/05/2022",
        "qr_code": "https://pse.kominfo.go.id/storage/images/qr_code/b3384512df7bcb6dfbd9969f94db0794.png",
        "status_id": "TERDAFTAR",
        "sistem_elektronik_id": 4473
      }
    }
  ]
}