{
  "meta": {
    "page": {
      "currentPage": 575,
      "from": 5741,
      "lastPage": 925,
      "perPage": 10,
      "to": 5750,
      "total": 9244
    }
  },
  "data": [
    {
      "type": "tdpseTerbit",
      "id": 2754,
      "attributes": {
        "nomor_pb_umku": null,
        "nama": "SunFish HR",
        "website": "sf.dataon.com/sf6/index.cfm",
        "sektor": "Sektor Perdagangan, Sektor Teknologi Informasi dan Komunikasi",
        "nama_perusahaan": "INDODEV NIAGA INTERNET",
        "tanggal_daftar": "2021-12-14",
        "nomor_tanda_daftar": "001767.02/DJAI.PSE/12/2021",
        "qr_code": "https://pse.kominfo.go.id/storage/images/qr_code/9522c512e3179b4a3c9fbeaf53ef7c57.png",
        "status_id": "TERDAFTAR",
        "sistem_elektronik_id": 2829
      }
    },
    {
      "type": "tdpseTerbit",
      "id": 2748,
      "attributes": {
        "nomor_pb_umku": null,
        "nama": "DataOn",
        "website": "dataon.com",
        "sektor": "Sektor Teknologi Informasi dan Komunikasi",
        "nama_perusahaan": "INDODEV NIAGA INTERNET",
        "tanggal_daftar": "2021-12-14",
        "nomor_tanda_daftar": "001767.01/DJAI.PSE/12/2021",
        "qr_code": "https://pse.kominfo.go.id/storage/images/qr_code/abef914f02f76b1b418302aa0557d57d.png",
        "status_id": "TERDAFTAR",
        "sistem_elektronik_id": 2828
      }
    },
    {
      "type": "tdpseTerbit",
      "id": 2747,
      "attributes": {
        "nomor_pb_umku": null,
        "nama": "WEBDIGITAL ASIA",
        "website": "webdigital.asia",
        "sektor": "Sektor Teknologi Informasi dan Komunikasi",
        "nama_perusahaan": "ERWIN HIDAYATULLAH",
        "tanggal_daftar": "2021-12-14",
        "nomor_tanda_daftar": "001766.01/DJAI.PSE/12/2021",
        "qr_code": "https://pse.kominfo.go.id/storage/images/qr_code/94d573ab97b96b761e5d6a9b2a394e65.png",
        "status_id": "TERDAFTAR",
        "sistem_elektronik_id": 1875
      }
    },
    {
      "type": "tdpseTerbit",
      "id": 2746,
      "attributes": {
        "nomor_pb_umku": null,
        "nama": "Bahran Store",
        "website": "bahranstore.co.id",
        "sektor": "Sektor Perdagangan",
        "nama_perusahaan": "BAHRAN MITRA SOLUSINDO",
        "tanggal_daftar": "2021-12-13",
        "nomor_tanda_daftar": "001765.01/DJAI.PSE/12/2021",
        "qr_code": "https://pse.kominfo.go.id/storage/images/qr_code/b45eab85fdb9fef7238ff210a76db309.png",
        "status_id": "TERDAFTAR",
        "sistem_elektronik_id": 1649
      }
    },
    {
      "type": "tdpseTerbit",
      "id": 2745,
      "attributes": {
        "nomor_pb_umku": null,
        "nama": "Magic Official",
        "website": "magicofficial.co.id",
        "sektor": "Sektor Perdagangan, Sektor Teknologi Informasi dan Komunikasi",
        "nama_perusahaan": "HIT INTERNATIONAL",
        "tanggal_daftar": "2021-12-13",
        "nomor_tanda_daftar": "001764.01/DJAI.PSE/12/2021",
        "qr_code": "https://pse.kominfo.go.id/storage/images/qr_code/06ec7c341e7e9e96ebfcce9183b53b37.png",
        "status_id": "TERDAFTAR",
        "sistem_elektronik_id": 1827
      }
    },
    {
      "type": "tdpseTerbit",
      "id": 2744,
      "attributes": {
        "nomor_pb_umku": null,
        "nama": "Anteraja",
        "website": "www.anteraja.id",
        "sektor": "Sektor Perdagangan",
        "nama_perusahaan": "TRI ADI BERSAMA",
        "tanggal_daftar": "2021-12-13",
        "nomor_tanda_daftar": "001763.01/DJAI.PSE/12/2021",
        "qr_code": "https://pse.kominfo.go.id/storage/images/qr_code/b95ca7d847f6e32a0b8e029ad282e8d1.png",
        "status_id": "TERDAFTAR",
        "sistem_elektronik_id": 1871
      }
    },
    {
      "type": "tdpseTerbit",
      "id": 2742,
      "attributes": {
        "nomor_pb_umku": null,
        "nama": "Rasya Computer Palembang",
        "website": "rasyacomputer.co.id",
        "sektor": "Sektor Teknologi Informasi dan Komunikasi",
        "nama_perusahaan": "DARMAWAN",
        "tanggal_daftar": "2021-12-13",
        "nomor_tanda_daftar": "001762.01/DJAI.PSE/12/2021",
        "qr_code": "https://pse.kominfo.go.id/storage/images/qr_code/62ba2d457f54f4bbec0ed1ea2de20232.png",
        "status_id": "TERDAFTAR",
        "sistem_elektronik_id": 1870
      }
    },
    {
      "type": "tdpseTerbit",
      "id": 2753,
      "attributes": {
        "nomor_pb_umku": null,
        "nama": "WWW.TOKOSABUN.ONLINE",
        "website": "https://www.tokosabun.online",
        "sektor": "Sektor Perdagangan",
        "nama_perusahaan": "YUSA KARYA INDONESIA",
        "tanggal_daftar": "2021-12-14",
        "nomor_tanda_daftar": "001761.03/DJAI.PSE/12/2021",
        "qr_code": "https://pse.kominfo.go.id/storage/images/qr_code/1a413b7e0c0f65b7bdd829378ddf71cb.png",
        "status_id": "TERDAFTAR",
        "sistem_elektronik_id": 1869
      }
    },
    {
      "type": "tdpseTerbit",
      "id": 2743,
      "attributes": {
        "nomor_pb_umku": null,
        "nama": "TOKOSABUN",
        "website": "https://www.tokosabun.online",
        "sektor": "Sektor Perdagangan",
        "nama_perusahaan": "YUSA KARYA INDONESIA",
        "tanggal_daftar": "2021-12-13",
        "nomor_tanda_daftar": "001761.02/DJAI.PSE/12/2021",
        "qr_code": "https://pse.kominfo.go.id/storage/images/qr_code/05dad07a1b4c98dbf898cc66b578fbfa.png",
        "status_id": "TERDAFTAR",
        "sistem_elektronik_id": 1868
      }
    },
    {
      "type": "tdpseTerbit",
      "id": 2741,
      "attributes": {
        "nomor_pb_umku": null,
        "nama": "TOKOYUSA",
        "website": "https://www.tokoyusa.com",
        "sektor": "Sektor Perdagangan",
        "nama_perusahaan": "YUSA KARYA INDONESIA",
        "tanggal_daftar": "2021-12-13",
        "nomor_tanda_daftar": "001761.01/DJAI.PSE/12/2021",
        "qr_code": "https://pse.kominfo.go.id/storage/images/qr_code/72b7ddaf35986285a41805a6e64007a3.png",
        "status_id": "TERDAFTAR",
        "sistem_elektronik_id": 1867
      }
    }
  ]
}