{
  "meta": {
    "page": {
      "currentPage": 576,
      "from": 5751,
      "lastPage": 873,
      "perPage": 10,
      "to": 5760,
      "total": 8721
    }
  },
  "data": [
    {
      "type": "tdpseTerbit",
      "id": 6732,
      "attributes": {
        "nomor_pb_umku": "912020910141700010002",
        "nama": "RINTIZ BY WOOBIZ",
        "website": "rintiz.id",
        "sektor": "Sektor Teknologi Informasi dan Komunikasi",
        "nama_perusahaan": "TJS USAHA DIGITAL",
        "tanggal_daftar": "2022-07-19",
        "nomor_tanda_daftar": "001508.03/DJAI.PSE/07/2022",
        "qr_code": "https://pse.kominfo.go.id/storage/images/qr_code/88bf63d7e835345c3b8920b77925609d.png",
        "status_id": "TERDAFTAR",
        "sistem_elektronik_id": 5248
      }
    },
    {
      "type": "tdpseTerbit",
      "id": 6709,
      "attributes": {
        "nomor_pb_umku": "912020910141700010001",
        "nama": "MITRA KELILING",
        "website": "mitrakeliling.id",
        "sektor": "Sektor Perdagangan",
        "nama_perusahaan": "TJS USAHA DIGITAL",
        "tanggal_daftar": "2022-07-19",
        "nomor_tanda_daftar": "001508.02/DJAI.PSE/07/2022",
        "qr_code": "https://pse.kominfo.go.id/storage/images/qr_code/eb511ae32ec3e30b9bc032e84b0347b4.png",
        "status_id": "TERDAFTAR",
        "sistem_elektronik_id": 5828
      }
    },
    {
      "type": "tdpseTerbit",
      "id": 2280,
      "attributes": {
        "nomor_pb_umku": null,
        "nama": "Woobiz",
        "website": "https://woobiz.id/",
        "sektor": "Sektor Perdagangan",
        "nama_perusahaan": "PT TJS Usaha Digital Tbk.",
        "tanggal_daftar": "2021-11-08",
        "nomor_tanda_daftar": "001508.01/DJAI.PSE/11/2021",
        "qr_code": "https://pse.kominfo.go.id/storage/images/qr_code/c7239bc7e501b6358fe9945dced7f64d.png",
        "status_id": "TERDAFTAR",
        "sistem_elektronik_id": 3112
      }
    },
    {
      "type": "tdpseTerbit",
      "id": 2818,
      "attributes": {
        "nomor_pb_umku": null,
        "nama": "M-Bintang",
        "website": "-",
        "sektor": "Sektor Keuangan",
        "nama_perusahaan": "ASURANSI BINTANG",
        "tanggal_daftar": "2021-12-21",
        "nomor_tanda_daftar": "001507.02/DJAI.PSE/12/2021",
        "qr_code": "https://pse.kominfo.go.id/storage/images/qr_code/4af0a7e68ebf5f641cb9fb8668048915.png",
        "status_id": "TERDAFTAR",
        "sistem_elektronik_id": 3379
      }
    },
    {
      "type": "tdpseTerbit",
      "id": 2277,
      "attributes": {
        "nomor_pb_umku": null,
        "nama": "website www.asuransibintang.com",
        "website": "https://www.asuransibintang.com",
        "sektor": "Sektor Keuangan, Sektor Teknologi Informasi dan Komunikasi",
        "nama_perusahaan": "ASURANSI BINTANG",
        "tanggal_daftar": "2021-11-08",
        "nomor_tanda_daftar": "001507.01/DJAI.PSE/11/2021",
        "qr_code": "https://pse.kominfo.go.id/storage/images/qr_code/cb8451ba4824fd389be85bc65fdb89b6.png",
        "status_id": "TERDAFTAR",
        "sistem_elektronik_id": 3378
      }
    },
    {
      "type": "tdpseTerbit",
      "id": 2276,
      "attributes": {
        "nomor_pb_umku": null,
        "nama": "Layanan Cloud Communication - Voxnet",
        "website": "www.voxnet.id",
        "sektor": "Sektor Teknologi Informasi dan Komunikasi",
        "nama_perusahaan": "LIMA SATU TIGA GLOBAL TEL-ACCESS",
        "tanggal_daftar": "2021-11-08",
        "nomor_tanda_daftar": "001506.01/DJAI.PSE/11/2021",
        "qr_code": "https://pse.kominfo.go.id/storage/images/qr_code/a7b761411924f847a6900e9810dd61c2.png",
        "status_id": "TERDAFTAR",
        "sistem_elektronik_id": 1534
      }
    },
    {
      "type": "tdpseTerbit",
      "id": 2275,
      "attributes": {
        "nomor_pb_umku": null,
        "nama": "Lajual",
        "website": "lajual.com",
        "sektor": "Sektor Keuangan, Sektor Perdagangan, Sektor Teknologi Informasi dan Komunikasi",
        "nama_perusahaan": "Lajual Membangun Indonesia",
        "tanggal_daftar": "2021-11-08",
        "nomor_tanda_daftar": "001505.01/DJAI.PSE/11/2021",
        "qr_code": "https://pse.kominfo.go.id/storage/images/qr_code/0af40dfa96e6ed0f9ef0234ee1220d7b.png",
        "status_id": "TERDAFTAR",
        "sistem_elektronik_id": 3111
      }
    },
    {
      "type": "tdpseTerbit",
      "id": 2274,
      "attributes": {
        "nomor_pb_umku": null,
        "nama": "shafwahholidays.id",
        "website": "www.shafwahholidays.com",
        "sektor": "Sektor Perdagangan, Sektor Teknologi Informasi dan Komunikasi",
        "nama_perusahaan": "BIRO PERJALANAN WISATA APRILYA DARMA WISATA",
        "tanggal_daftar": "2021-11-08",
        "nomor_tanda_daftar": "001504.01/DJAI.PSE/11/2021",
        "qr_code": "https://pse.kominfo.go.id/storage/images/qr_code/58250308d20860386e6c3358b9647a0c.png",
        "status_id": "TERDAFTAR",
        "sistem_elektronik_id": 3110
      }
    },
    {
      "type": "tdpseTerbit",
      "id": 2272,
      "attributes": {
        "nomor_pb_umku": null,
        "nama": "AdminCerdas Indonesia",
        "website": "https://admincerdas.com",
        "sektor": "Sektor Perdagangan, Sektor Teknologi Informasi dan Komunikasi",
        "nama_perusahaan": "PT Admin Cerdas Indonesia",
        "tanggal_daftar": "2021-11-08",
        "nomor_tanda_daftar": "001503.01/DJAI.PSE/11/2021",
        "qr_code": "https://pse.kominfo.go.id/storage/images/qr_code/75c0b115f91aa5db78b4c893cc91aecc.png",
        "status_id": "TERDAFTAR",
        "sistem_elektronik_id": 3109
      }
    },
    {
      "type": "tdpseTerbit",
      "id": 2271,
      "attributes": {
        "nomor_pb_umku": null,
        "nama": "Sinar12",
        "website": "sinar12.co.id",
        "sektor": "Sektor Perdagangan",
        "nama_perusahaan": "SINAR12 BUKIT BARISAN",
        "tanggal_daftar": "2021-11-08",
        "nomor_tanda_daftar": "001502.01/DJAI.PSE/11/2021",
        "qr_code": "https://pse.kominfo.go.id/storage/images/qr_code/451edaa60200c203e872e533dd454935.png",
        "status_id": "TERDAFTAR",
        "sistem_elektronik_id": 1552
      }
    }
  ]
}