{
  "meta": {
    "page": {
      "currentPage": 578,
      "from": 5771,
      "lastPage": 1111,
      "perPage": 10,
      "to": 5780,
      "total": 11105
    }
  },
  "data": [
    {
      "type": "tdpseTerbit",
      "id": 5090,
      "attributes": {
        "nomor_pb_umku": "160422000197900020001",
        "nama": "WNRSTORE",
        "website": "wnrstore.com",
        "sektor": "Sektor Perdagangan, Sektor Teknologi Informasi dan Komunikasi",
        "nama_perusahaan": "SETIYA JAYA KOMUNIKASI",
        "tanggal_daftar": "2022-07-05",
        "nomor_tanda_daftar": "003266.01/DJAI.PSE/07/2022",
        "qr_code": "https://pse.kominfo.go.id/storage/images/qr_code/c3d0c18392b7b2ff6deca0e54e646466.png",
        "status_id": "TERDAFTAR",
        "sistem_elektronik_id": 4955
      }
    },
    {
      "type": "tdpseTerbit",
      "id": 12060,
      "attributes": {
        "nomor_pb_umku": "160622000115800020003",
        "nama": "DIGITALMU.ID",
        "website": "digitalmu.id",
        "sektor": "Sektor Perdagangan, Sektor Teknologi Informasi dan Komunikasi",
        "nama_perusahaan": "WINDOW INDONESIA GROUP",
        "tanggal_daftar": "2022-11-01",
        "nomor_tanda_daftar": "003262.03/DJAI.PSE/11/2022",
        "qr_code": "https://pse.kominfo.go.id/storage/images/qr_code/7e3ac759f9242667eaecd95ec43c451b.png",
        "status_id": "TERDAFTAR",
        "sistem_elektronik_id": 11863
      }
    },
    {
      "type": "tdpseTerbit",
      "id": 12059,
      "attributes": {
        "nomor_pb_umku": "160622000115800020002",
        "nama": "2045.CO.ID",
        "website": "2045.co.id",
        "sektor": "Sektor Teknologi Informasi dan Komunikasi",
        "nama_perusahaan": "WINDOW INDONESIA GROUP",
        "tanggal_daftar": "2022-11-01",
        "nomor_tanda_daftar": "003262.02/DJAI.PSE/11/2022",
        "qr_code": "https://pse.kominfo.go.id/storage/images/qr_code/02220ce965c950c5eb1edefd5b7cade7.png",
        "status_id": "TERDAFTAR",
        "sistem_elektronik_id": 11862
      }
    },
    {
      "type": "tdpseTerbit",
      "id": 4611,
      "attributes": {
        "nomor_pb_umku": "160622000115800000001",
        "nama": "WINDOW OF INDONESIA",
        "website": "windowofindonesia.com",
        "sektor": "Sektor Perdagangan, Sektor Teknologi Informasi dan Komunikasi",
        "nama_perusahaan": "WINDOW INDONESIA GROUP",
        "tanggal_daftar": "2022-06-19",
        "nomor_tanda_daftar": "003262.01/DJAI.PSE/06/2022",
        "qr_code": "https://pse.kominfo.go.id/storage/images/qr_code/00e4e17a17185dc5af15dcb0037bb42b.png",
        "status_id": "TERDAFTAR",
        "sistem_elektronik_id": 4573
      }
    },
    {
      "type": "tdpseTerbit",
      "id": 4610,
      "attributes": {
        "nomor_pb_umku": "060622000300300000001",
        "nama": "KAWANUADIGITAL.COM",
        "website": "kawanuadigital.com",
        "sektor": "Sektor Teknologi Informasi dan Komunikasi",
        "nama_perusahaan": "KAWANUA DIGITAL MULTIVERSE",
        "tanggal_daftar": "2022-06-19",
        "nomor_tanda_daftar": "003261.01/DJAI.PSE/06/2022",
        "qr_code": "https://pse.kominfo.go.id/storage/images/qr_code/370d80bb4100ab25d3544978803c5952.png",
        "status_id": "TERDAFTAR",
        "sistem_elektronik_id": 4572
      }
    },
    {
      "type": "tdpseTerbit",
      "id": 4608,
      "attributes": {
        "nomor_pb_umku": "190622001349500000001",
        "nama": "LAVIN TECHNOLOGIES",
        "website": "-",
        "sektor": "Sektor Teknologi Informasi dan Komunikasi",
        "nama_perusahaan": "LEONARDO ARFREN TANAYA",
        "tanggal_daftar": "2022-06-19",
        "nomor_tanda_daftar": "003257.01/DJAI.PSE/06/2022",
        "qr_code": "https://pse.kominfo.go.id/storage/images/qr_code/44fa0d480340fb229cb0566a0d8766d8.png",
        "status_id": "TERDAFTAR",
        "sistem_elektronik_id": 4571
      }
    },
    {
      "type": "tdpseTerbit",
      "id": 4606,
      "attributes": {
        "nomor_pb_umku": "020801024350900040001",
        "nama": "PT ARTHA KENCANA TRANS",
        "website": "arthakencanatrans.co.id",
        "sektor": "Sektor Transportasi",
        "nama_perusahaan": "ARTHA KENCANA TRANS",
        "tanggal_daftar": "2022-06-19",
        "nomor_tanda_daftar": "003255.01/DJAI.PSE/06/2022",
        "qr_code": "https://pse.kominfo.go.id/storage/images/qr_code/6e439338735e922365386134c05b6664.png",
        "status_id": "TERDAFTAR",
        "sistem_elektronik_id": 4569
      }
    },
    {
      "type": "tdpseTerbit",
      "id": 4605,
      "attributes": {
        "nomor_pb_umku": "150622000220400020001",
        "nama": "PT.PUTRA MARITIM BERKAH",
        "website": "-",
        "sektor": "Sektor Perdagangan, Sektor Energi dan Sumber Daya Mineral, Sektor Transportasi, Sektor Teknologi Informasi dan Komunikasi",
        "nama_perusahaan": "PUTRA MARITIM BERKAH",
        "tanggal_daftar": "2022-06-18",
        "nomor_tanda_daftar": "003254.01/DJAI.PSE/06/2022",
        "qr_code": "https://pse.kominfo.go.id/storage/images/qr_code/c4bed8f90d027d6c0dbe2f57451aaa4c.png",
        "status_id": "TERDAFTAR",
        "sistem_elektronik_id": 4568
      }
    },
    {
      "type": "tdpseTerbit",
      "id": 7088,
      "attributes": {
        "nomor_pb_umku": "150622001846300010002",
        "nama": "TYXMA.COM",
        "website": "tyxma.com",
        "sektor": "Sektor Perdagangan",
        "nama_perusahaan": "KALIMASADA SAKTI TEKNOLOGI",
        "tanggal_daftar": "2022-07-19",
        "nomor_tanda_daftar": "003253.02/DJAI.PSE/07/2022",
        "qr_code": "https://pse.kominfo.go.id/storage/images/qr_code/63fb952b0890024423d4a835f6b1d431.png",
        "status_id": "TERDAFTAR",
        "sistem_elektronik_id": 6959
      }
    },
    {
      "type": "tdpseTerbit",
      "id": 7057,
      "attributes": {
        "nomor_pb_umku": "150622001846300010001",
        "nama": "TYXMA",
        "website": "tyxma.co.id",
        "sektor": "Sektor Perdagangan",
        "nama_perusahaan": "KALIMASADA SAKTI TEKNOLOGI",
        "tanggal_daftar": "2022-07-19",
        "nomor_tanda_daftar": "003253.01/DJAI.PSE/07/2022",
        "qr_code": "https://pse.kominfo.go.id/storage/images/qr_code/d3dd1a37d85bebf0c699ab6b11350051.png",
        "status_id": "TERDAFTAR",
        "sistem_elektronik_id": 6919
      }
    }
  ]
}