{
  "meta": {
    "page": {
      "currentPage": 580,
      "from": 5791,
      "lastPage": 1044,
      "perPage": 10,
      "to": 5800,
      "total": 10437
    }
  },
  "data": [
    {
      "type": "tdpseTerbit",
      "id": 3913,
      "attributes": {
        "nomor_pb_umku": null,
        "nama": "YUDHA ADVERTISING",
        "website": "YUDHAMAR.COM",
        "sektor": "Sektor Teknologi Informasi dan Komunikasi, Sektor Transportasi",
        "nama_perusahaan": "YUDHAMAR DOT COM",
        "tanggal_daftar": "2022-04-19",
        "nomor_tanda_daftar": "002543.04/DJAI.PSE/04/2022",
        "qr_code": "https://pse.kominfo.go.id/storage/images/qr_code/0343d3ec267e304dd2c3f27caee3ba90.png",
        "status_id": "TERDAFTAR",
        "sistem_elektronik_id": 3845
      }
    },
    {
      "type": "tdpseTerbit",
      "id": 3911,
      "attributes": {
        "nomor_pb_umku": null,
        "nama": "PORTAL YUDHA MAR",
        "website": "YUDHAMAR.COM",
        "sektor": "Sektor Perdagangan, Sektor Teknologi Informasi dan Komunikasi",
        "nama_perusahaan": "YUDHAMAR DOT COM",
        "tanggal_daftar": "2022-04-19",
        "nomor_tanda_daftar": "002543.03/DJAI.PSE/04/2022",
        "qr_code": "https://pse.kominfo.go.id/storage/images/qr_code/57f308edd8d18c2f149a4b2d6eee546f.png",
        "status_id": "TERDAFTAR",
        "sistem_elektronik_id": 3844
      }
    },
    {
      "type": "tdpseTerbit",
      "id": 3910,
      "attributes": {
        "nomor_pb_umku": null,
        "nama": "YUDHA COMMERCE",
        "website": "-",
        "sektor": "Sektor Perdagangan, Sektor Pertahanan dan Keamanan, Sektor Teknologi Informasi dan Komunikasi",
        "nama_perusahaan": "YUDHAMAR DOT COM",
        "tanggal_daftar": "2022-04-19",
        "nomor_tanda_daftar": "002543.02/DJAI.PSE/04/2022",
        "qr_code": "https://pse.kominfo.go.id/storage/images/qr_code/48e9f27cf735a3a141af89eab3c16664.png",
        "status_id": "TERDAFTAR",
        "sistem_elektronik_id": 3843
      }
    },
    {
      "type": "tdpseTerbit",
      "id": 3909,
      "attributes": {
        "nomor_pb_umku": null,
        "nama": "YUDHA MARKET",
        "website": "YUDHAMAR.COM",
        "sektor": "Sektor Perdagangan, Sektor Teknologi Informasi dan Komunikasi",
        "nama_perusahaan": "YUDHAMAR DOT COM",
        "tanggal_daftar": "2022-04-19",
        "nomor_tanda_daftar": "002543.01/DJAI.PSE/04/2022",
        "qr_code": "https://pse.kominfo.go.id/storage/images/qr_code/71eae8c8d67cade954ce333ca1834781.png",
        "status_id": "TERDAFTAR",
        "sistem_elektronik_id": 3842
      }
    },
    {
      "type": "tdpseTerbit",
      "id": 3908,
      "attributes": {
        "nomor_pb_umku": null,
        "nama": "SOLUTAMA SINERGI DATA",
        "website": "www.thama.co.id",
        "sektor": "Sektor Teknologi Informasi dan Komunikasi",
        "nama_perusahaan": "WAHYU YOGA TAMA",
        "tanggal_daftar": "2022-04-18",
        "nomor_tanda_daftar": "002542.01/DJAI.PSE/04/2022",
        "qr_code": "https://pse.kominfo.go.id/storage/images/qr_code/66b40b9b06ff19a5ec5188caa8cc12a3.png",
        "status_id": "TERDAFTAR",
        "sistem_elektronik_id": 3848
      }
    },
    {
      "type": "tdpseTerbit",
      "id": 3952,
      "attributes": {
        "nomor_pb_umku": null,
        "nama": "NHIS WEB",
        "website": "https://www.nhis.co.id/",
        "sektor": "Sektor Keuangan, Sektor Perdagangan",
        "nama_perusahaan": "NONGHYUP KORINDO SEKURITAS INDONESIA",
        "tanggal_daftar": "2022-04-20",
        "nomor_tanda_daftar": "002541.04/DJAI.PSE/04/2022",
        "qr_code": "https://pse.kominfo.go.id/storage/images/qr_code/36ae76f2b594f2ab5fd5aa306f18656f.png",
        "status_id": "TERDAFTAR",
        "sistem_elektronik_id": 3996
      }
    },
    {
      "type": "tdpseTerbit",
      "id": 3951,
      "attributes": {
        "nomor_pb_umku": null,
        "nama": "NAIKMOBILE",
        "website": "-",
        "sektor": "Sektor Keuangan, Sektor Perdagangan",
        "nama_perusahaan": "NONGHYUP KORINDO SEKURITAS INDONESIA",
        "tanggal_daftar": "2022-04-20",
        "nomor_tanda_daftar": "002541.03/DJAI.PSE/04/2022",
        "qr_code": "https://pse.kominfo.go.id/storage/images/qr_code/af20596334b0ea05897252225cd9d7cd.png",
        "status_id": "TERDAFTAR",
        "sistem_elektronik_id": 3995
      }
    },
    {
      "type": "tdpseTerbit",
      "id": 3906,
      "attributes": {
        "nomor_pb_umku": null,
        "nama": "NAIK",
        "website": "-",
        "sektor": "Sektor Keuangan, Sektor Perdagangan",
        "nama_perusahaan": "NONGHYUP KORINDO SEKURITAS INDONESIA",
        "tanggal_daftar": "2022-04-18",
        "nomor_tanda_daftar": "002541.02/DJAI.PSE/04/2022",
        "qr_code": "https://pse.kominfo.go.id/storage/images/qr_code/adc8ddc103aadf5f432048ed6fb385d1.png",
        "status_id": "TERDAFTAR",
        "sistem_elektronik_id": 3994
      }
    },
    {
      "type": "tdpseTerbit",
      "id": 3905,
      "attributes": {
        "nomor_pb_umku": null,
        "nama": "OPENACCOUNT WEB APP",
        "website": "https://openaccount.nhsec.co.id/",
        "sektor": "Sektor Keuangan, Sektor Perdagangan",
        "nama_perusahaan": "NONGHYUP KORINDO SEKURITAS INDONESIA",
        "tanggal_daftar": "2022-04-18",
        "nomor_tanda_daftar": "002541.01/DJAI.PSE/04/2022",
        "qr_code": "https://pse.kominfo.go.id/storage/images/qr_code/f233b6ef5eebbc7bbdd78c94992b7f26.png",
        "status_id": "TERDAFTAR",
        "sistem_elektronik_id": 3993
      }
    },
    {
      "type": "tdpseTerbit",
      "id": 4596,
      "attributes": {
        "nomor_pb_umku": null,
        "nama": "PERURI DIGITAL",
        "website": "-",
        "sektor": "Sektor Teknologi Informasi dan Komunikasi",
        "nama_perusahaan": "PERURI DIGITAL SECURITY",
        "tanggal_daftar": "2022-04-18",
        "nomor_tanda_daftar": "002540.01/DJAI.PSE/04/2022",
        "qr_code": "https://pse.kominfo.go.id/storage/images/qr_code/8ff052b23ed03a861dd760f7eb963b0e.png",
        "status_id": "TERDAFTAR",
        "sistem_elektronik_id": 4559
      }
    }
  ]
}