{
  "meta": {
    "page": {
      "currentPage": 59,
      "from": 581,
      "lastPage": 952,
      "perPage": 10,
      "to": 590,
      "total": 9517
    }
  },
  "data": [
    {
      "type": "tdpseTerbit",
      "id": 9292,
      "attributes": {
        "nomor_pb_umku": "140722003502300010001",
        "nama": "DEKLIK.ID",
        "website": "deklik.id",
        "sektor": "Sektor Perdagangan",
        "nama_perusahaan": "DIGITAL ASET KREATIF",
        "tanggal_daftar": "2022-07-28",
        "nomor_tanda_daftar": "006507.01/DJAI.PSE/07/2022",
        "qr_code": "https://pse.kominfo.go.id/storage/images/qr_code/33c1bebf54130e9068b3f5e4d4ca0cf9.png",
        "status_id": "TERDAFTAR",
        "sistem_elektronik_id": 9205
      }
    },
    {
      "type": "tdpseTerbit",
      "id": 9770,
      "attributes": {
        "nomor_pb_umku": "200722003081900010001",
        "nama": "WEBSITE PT.BPR SARI DINARKENCANA",
        "website": "bprsdk.co.id",
        "sektor": "Sektor Keuangan",
        "nama_perusahaan": "BANK PERKREDITAN RAKYAT SARI DINARKENCANA",
        "tanggal_daftar": "2022-08-03",
        "nomor_tanda_daftar": "006506.01/DJAI.PSE/08/2022",
        "qr_code": "https://pse.kominfo.go.id/storage/images/qr_code/7734558f8a88a20ccb817404558ae0ff.png",
        "status_id": "TERDAFTAR",
        "sistem_elektronik_id": 9645
      }
    },
    {
      "type": "tdpseTerbit",
      "id": 9302,
      "attributes": {
        "nomor_pb_umku": "129000024212700000001",
        "nama": "TIME FOR LIGHT",
        "website": "timeforlightconsultancy.com",
        "sektor": "Sektor Perdagangan",
        "nama_perusahaan": "TIME FOR LIGHT",
        "tanggal_daftar": "2022-07-28",
        "nomor_tanda_daftar": "006503.01/DJAI.PSE/07/2022",
        "qr_code": "https://pse.kominfo.go.id/storage/images/qr_code/d6c1fdb5ca20fcb21b85a0e68055954a.png",
        "status_id": "TERDAFTAR",
        "sistem_elektronik_id": 9215
      }
    },
    {
      "type": "tdpseTerbit",
      "id": 9280,
      "attributes": {
        "nomor_pb_umku": "912050978311700010001",
        "nama": "PT BPR NUSAMBA RAMBIPUJI",
        "website": "bprnusamba-rambipuji.com",
        "sektor": "Sektor Keuangan",
        "nama_perusahaan": "BANK PERKREDITAN RAKYAT NUSAMBA RAMBIPUJI",
        "tanggal_daftar": "2022-07-28",
        "nomor_tanda_daftar": "006502.01/DJAI.PSE/07/2022",
        "qr_code": "https://pse.kominfo.go.id/storage/images/qr_code/4f69a7a9fd481b828d835c8b93ecbb62.png",
        "status_id": "TERDAFTAR",
        "sistem_elektronik_id": 9193
      }
    },
    {
      "type": "tdpseTerbit",
      "id": 9289,
      "attributes": {
        "nomor_pb_umku": "250722005561300010001",
        "nama": "IKLIK.ID",
        "website": "Iklik.id",
        "sektor": "Sektor Perdagangan",
        "nama_perusahaan": "DIGITAL HUTAMA TEKNOLOGI",
        "tanggal_daftar": "2022-07-28",
        "nomor_tanda_daftar": "006501.01/DJAI.PSE/07/2022",
        "qr_code": "https://pse.kominfo.go.id/storage/images/qr_code/88bd06068651361cbe6aebeda9a4a648.png",
        "status_id": "TERDAFTAR",
        "sistem_elektronik_id": 9202
      }
    },
    {
      "type": "tdpseTerbit",
      "id": 9273,
      "attributes": {
        "nomor_pb_umku": "022030385162900010001",
        "nama": "BANK PERKREDITAN RAKYAT PRIMA TATA PATUMBAK",
        "website": "bpr-ptp.com",
        "sektor": "Sektor Keuangan",
        "nama_perusahaan": "BANK PERKREDITAN RAKYAT PRIMA TATA PATUMBAK",
        "tanggal_daftar": "2022-07-28",
        "nomor_tanda_daftar": "006493.01/DJAI.PSE/07/2022",
        "qr_code": "https://pse.kominfo.go.id/storage/images/qr_code/b43844278928a9caa3c1f3075759d52f.png",
        "status_id": "TERDAFTAR",
        "sistem_elektronik_id": 9185
      }
    },
    {
      "type": "tdpseTerbit",
      "id": 9362,
      "attributes": {
        "nomor_pb_umku": "912040892171500020005",
        "nama": "BASE OFFICIAL",
        "website": "base.co.id",
        "sektor": "Sektor Perdagangan",
        "nama_perusahaan": "BASIS INOVASI GLOBAL",
        "tanggal_daftar": "2022-07-29",
        "nomor_tanda_daftar": "006480.01/DJAI.PSE/07/2022",
        "qr_code": "https://pse.kominfo.go.id/storage/images/qr_code/75e5f89e284364c903a029de6f21816f.png",
        "status_id": "TERDAFTAR",
        "sistem_elektronik_id": 9273
      }
    },
    {
      "type": "tdpseTerbit",
      "id": 9234,
      "attributes": {
        "nomor_pb_umku": "912030983241300010001",
        "nama": "PT BANK PERKREDITAN RAKYAT ARTA TAMAN DAYU",
        "website": "-",
        "sektor": "Sektor Keuangan",
        "nama_perusahaan": "BANK PERKREDITAN RAKYAT ARTA TAMAN DAYU",
        "tanggal_daftar": "2022-07-28",
        "nomor_tanda_daftar": "006476.01/DJAI.PSE/07/2022",
        "qr_code": "https://pse.kominfo.go.id/storage/images/qr_code/05ae8f7cb777b18ecae171afa2234c81.png",
        "status_id": "TERDAFTAR",
        "sistem_elektronik_id": 9146
      }
    },
    {
      "type": "tdpseTerbit",
      "id": 9230,
      "attributes": {
        "nomor_pb_umku": "140722007012300010001",
        "nama": "ANSKLIK.ID",
        "website": "ansklik.id",
        "sektor": "Sektor Perdagangan",
        "nama_perusahaan": "ANS SOLUSI BERKAH",
        "tanggal_daftar": "2022-07-28",
        "nomor_tanda_daftar": "006475.01/DJAI.PSE/07/2022",
        "qr_code": "https://pse.kominfo.go.id/storage/images/qr_code/1b13afb768b041beeef55d1c035f0ab4.png",
        "status_id": "TERDAFTAR",
        "sistem_elektronik_id": 9143
      }
    },
    {
      "type": "tdpseTerbit",
      "id": 9294,
      "attributes": {
        "nomor_pb_umku": "022010488013600010001",
        "nama": "PT. BPR BAHTERA MASYARAKAT",
        "website": "bankbahtera.co.id",
        "sektor": "Sektor Keuangan",
        "nama_perusahaan": "BANK PERKREDITAN RAKYAT BAHTERA MASYARAKAT",
        "tanggal_daftar": "2022-07-28",
        "nomor_tanda_daftar": "006473.01/DJAI.PSE/07/2022",
        "qr_code": "https://pse.kominfo.go.id/storage/images/qr_code/b7f5c95bcf0a5ea90ec8ab077d0f1556.png",
        "status_id": "TERDAFTAR",
        "sistem_elektronik_id": 9187
      }
    }
  ]
}