{
  "meta": {
    "page": {
      "currentPage": 582,
      "from": 5811,
      "lastPage": 1085,
      "perPage": 10,
      "to": 5820,
      "total": 10842
    }
  },
  "data": [
    {
      "type": "tdpseTerbit",
      "id": 4152,
      "attributes": {
        "nomor_pb_umku": "912000861124200000001",
        "nama": "HTTPS://GROSIR.ONE/",
        "website": "grosir.one",
        "sektor": "Sektor Perdagangan",
        "nama_perusahaan": "GROSIRONE PRIMA NUSANTARA",
        "tanggal_daftar": "2022-05-27",
        "nomor_tanda_daftar": "002865.01/DJAI.PSE/05/2022",
        "qr_code": "https://pse.kominfo.go.id/storage/images/qr_code/c3b96f8fd542b3deb87233f81920b936.png",
        "status_id": "TERDAFTAR",
        "sistem_elektronik_id": 4157
      }
    },
    {
      "type": "tdpseTerbit",
      "id": 4279,
      "attributes": {
        "nomor_pb_umku": "812000189253900020001",
        "nama": "APLIKASI REGISTRASI ONLINE",
        "website": "didimax.co.id",
        "sektor": "Sektor Perdagangan, Sektor Keuangan",
        "nama_perusahaan": "DIDI MAX BERJANGKA",
        "tanggal_daftar": "2022-06-08",
        "nomor_tanda_daftar": "002864.01/DJAI.PSE/06/2022",
        "qr_code": "https://pse.kominfo.go.id/storage/images/qr_code/e553eeb847400b483477e7655d91447f.png",
        "status_id": "TERDAFTAR",
        "sistem_elektronik_id": 4272
      }
    },
    {
      "type": "tdpseTerbit",
      "id": 4657,
      "attributes": {
        "nomor_pb_umku": "912020693005500010002",
        "nama": "360KREDI",
        "website": "360kredi.id",
        "sektor": "Sektor Keuangan",
        "nama_perusahaan": "INOVASI TERDEPAN NUSANTARA",
        "tanggal_daftar": "2022-06-22",
        "nomor_tanda_daftar": "002862.01/DJAI.PSE/06/2022",
        "qr_code": "https://pse.kominfo.go.id/storage/images/qr_code/893fd3ea89482687c94dab85aecb6cbd.png",
        "status_id": "TERDAFTAR",
        "sistem_elektronik_id": 4260
      }
    },
    {
      "type": "tdpseTerbit",
      "id": 4991,
      "attributes": {
        "nomor_pb_umku": "912000117206600140012",
        "nama": "SNAP CAREERS",
        "website": "snap.careers",
        "sektor": "Sektor Teknologi Informasi dan Komunikasi",
        "nama_perusahaan": "SNAP INNOVATIONS INDONESIA",
        "tanggal_daftar": "2022-07-01",
        "nomor_tanda_daftar": "002861.01/DJAI.PSE/07/2022",
        "qr_code": "https://pse.kominfo.go.id/storage/images/qr_code/0521cfad60bdf5a57b75a38dc5728007.png",
        "status_id": "TERDAFTAR",
        "sistem_elektronik_id": 4859
      }
    },
    {
      "type": "tdpseTerbit",
      "id": 4150,
      "attributes": {
        "nomor_pb_umku": "026801013221300020001",
        "nama": "ALKAMIL",
        "website": "-",
        "sektor": "Sektor Perdagangan",
        "nama_perusahaan": "ALKAMIL GROUP",
        "tanggal_daftar": "2022-05-26",
        "nomor_tanda_daftar": "002853.01/DJAI.PSE/05/2022",
        "qr_code": "https://pse.kominfo.go.id/storage/images/qr_code/5e99b0872eb22456ac97e0a1402340e8.png",
        "status_id": "TERDAFTAR",
        "sistem_elektronik_id": 4155
      }
    },
    {
      "type": "tdpseTerbit",
      "id": 8360,
      "attributes": {
        "nomor_pb_umku": "912031619290400050007",
        "nama": "SATRIACORP - COMMUNICATIONS",
        "website": "satriacorp.id",
        "sektor": "Sektor Perdagangan",
        "nama_perusahaan": "SATRIA MEDIA TEKNOLOGI",
        "tanggal_daftar": "2022-07-20",
        "nomor_tanda_daftar": "002851.07/DJAI.PSE/07/2022",
        "qr_code": "https://pse.kominfo.go.id/storage/images/qr_code/78253494ad8b87cfb45c0de52e9ad701.png",
        "status_id": "TERDAFTAR",
        "sistem_elektronik_id": 8280
      }
    },
    {
      "type": "tdpseTerbit",
      "id": 8356,
      "attributes": {
        "nomor_pb_umku": "912031619290400050006",
        "nama": "SATRIACORP",
        "website": "satriacorp.id",
        "sektor": "Sektor Perdagangan, Sektor Teknologi Informasi dan Komunikasi",
        "nama_perusahaan": "SATRIA MEDIA TEKNOLOGI",
        "tanggal_daftar": "2022-07-20",
        "nomor_tanda_daftar": "002851.06/DJAI.PSE/07/2022",
        "qr_code": "https://pse.kominfo.go.id/storage/images/qr_code/60af21e1aecfd1c2c260ab4baaaa90ab.png",
        "status_id": "TERDAFTAR",
        "sistem_elektronik_id": 8276
      }
    },
    {
      "type": "tdpseTerbit",
      "id": 8351,
      "attributes": {
        "nomor_pb_umku": "912031619290400050005",
        "nama": "SATRIATECH",
        "website": "satriacorp.id",
        "sektor": "Sektor Perdagangan",
        "nama_perusahaan": "SATRIA MEDIA TEKNOLOGI",
        "tanggal_daftar": "2022-07-20",
        "nomor_tanda_daftar": "002851.05/DJAI.PSE/07/2022",
        "qr_code": "https://pse.kominfo.go.id/storage/images/qr_code/7db5475da844783d8b9e7ebfa5f368bd.png",
        "status_id": "TERDAFTAR",
        "sistem_elektronik_id": 8271
      }
    },
    {
      "type": "tdpseTerbit",
      "id": 5526,
      "attributes": {
        "nomor_pb_umku": "912031619290400050004",
        "nama": "SATRIACORP.ID",
        "website": "satriacorp.id",
        "sektor": "Sektor Teknologi Informasi dan Komunikasi",
        "nama_perusahaan": "SATRIA MEDIA TEKNOLOGI",
        "tanggal_daftar": "2022-07-13",
        "nomor_tanda_daftar": "002851.04/DJAI.PSE/07/2022",
        "qr_code": "https://pse.kominfo.go.id/storage/images/qr_code/0c36dd712a3fb8e253731f219d0b2b37.png",
        "status_id": "TERDAFTAR",
        "sistem_elektronik_id": 5391
      }
    },
    {
      "type": "tdpseTerbit",
      "id": 5525,
      "attributes": {
        "nomor_pb_umku": "912031619290400050003",
        "nama": "SATRIA MEDIA TEKNOLOGI",
        "website": "satriacorp.id",
        "sektor": "Sektor Perdagangan, Sektor Teknologi Informasi dan Komunikasi",
        "nama_perusahaan": "SATRIA MEDIA TEKNOLOGI",
        "tanggal_daftar": "2022-07-13",
        "nomor_tanda_daftar": "002851.03/DJAI.PSE/07/2022",
        "qr_code": "https://pse.kominfo.go.id/storage/images/qr_code/98c476659d8d746bf997230ac110425a.png",
        "status_id": "TERDAFTAR",
        "sistem_elektronik_id": 5390
      }
    }
  ]
}