{
  "meta": {
    "page": {
      "currentPage": 583,
      "from": 5821,
      "lastPage": 1080,
      "perPage": 10,
      "to": 5830,
      "total": 10793
    }
  },
  "data": [
    {
      "type": "tdpseTerbit",
      "id": 4622,
      "attributes": {
        "nomor_pb_umku": "190322000454700000001",
        "nama": "GOWISATA",
        "website": "gagataplikasiwisata.com",
        "sektor": "Sektor Perdagangan",
        "nama_perusahaan": "GAGAT APLIKASI WISATA",
        "tanggal_daftar": "2022-06-20",
        "nomor_tanda_daftar": "002790.01/DJAI.PSE/06/2022",
        "qr_code": "https://pse.kominfo.go.id/storage/images/qr_code/7ce286081a338b4913885c2d2b0df8cd.png",
        "status_id": "TERDAFTAR",
        "sistem_elektronik_id": 4583
      }
    },
    {
      "type": "tdpseTerbit",
      "id": 4205,
      "attributes": {
        "nomor_pb_umku": "120422003898900000001",
        "nama": "WARKUM.COM",
        "website": "warkum.com",
        "sektor": "Sektor Perdagangan",
        "nama_perusahaan": "WARUNG GRUP DISTRIBUSI",
        "tanggal_daftar": "2022-06-02",
        "nomor_tanda_daftar": "002785.02/DJAI.PSE/06/2022",
        "qr_code": "https://pse.kominfo.go.id/storage/images/qr_code/62b610dc660fe0ddf1278f3dd622c1e4.png",
        "status_id": "TERDAFTAR",
        "sistem_elektronik_id": 4204
      }
    },
    {
      "type": "tdpseTerbit",
      "id": 4691,
      "attributes": {
        "nomor_pb_umku": "241221002636600000001",
        "nama": "TWOBABOX",
        "website": "-",
        "sektor": "Sektor Perdagangan",
        "nama_perusahaan": "TWOBA BOX INDONESIA",
        "tanggal_daftar": "2022-06-23",
        "nomor_tanda_daftar": "002782.01/DJAI.PSE/06/2022",
        "qr_code": "https://pse.kominfo.go.id/storage/images/qr_code/d1efcb88c6870bd44fdbd2f04cf7ce13.png",
        "status_id": "TERDAFTAR",
        "sistem_elektronik_id": 4646
      }
    },
    {
      "type": "tdpseTerbit",
      "id": 4174,
      "attributes": {
        "nomor_pb_umku": "080422003082600000001",
        "nama": "HARMONIZ",
        "website": "harmoniz.id",
        "sektor": "Sektor Keuangan, Sektor Teknologi Informasi dan Komunikasi",
        "nama_perusahaan": "CIPTA KELUARGA HARMONIS",
        "tanggal_daftar": "2022-05-30",
        "nomor_tanda_daftar": "002781.01/DJAI.PSE/05/2022",
        "qr_code": "https://pse.kominfo.go.id/storage/images/qr_code/62a3d893f90a7d73c3197a0be92a6f49.png",
        "status_id": "TERDAFTAR",
        "sistem_elektronik_id": 4178
      }
    },
    {
      "type": "tdpseTerbit",
      "id": 4197,
      "attributes": {
        "nomor_pb_umku": "250821002492300020001",
        "nama": "BEERU",
        "website": "beeru.co.id",
        "sektor": "Sektor Perdagangan, Sektor Teknologi Informasi dan Komunikasi",
        "nama_perusahaan": "BERKAT REZEKI UTAMA",
        "tanggal_daftar": "2022-05-31",
        "nomor_tanda_daftar": "002780.01/DJAI.PSE/05/2022",
        "qr_code": "https://pse.kominfo.go.id/storage/images/qr_code/094cc931a2c89623870154a060ef0e03.png",
        "status_id": "TERDAFTAR",
        "sistem_elektronik_id": 4199
      }
    },
    {
      "type": "tdpseTerbit",
      "id": 4194,
      "attributes": {
        "nomor_pb_umku": "125700042247200000001",
        "nama": "WISBAYAR",
        "website": "wisbayar.id",
        "sektor": "Sektor Perdagangan",
        "nama_perusahaan": "SOLUSI DIGITAL CEPAT",
        "tanggal_daftar": "2022-05-31",
        "nomor_tanda_daftar": "002779.01/DJAI.PSE/05/2022",
        "qr_code": "https://pse.kominfo.go.id/storage/images/qr_code/ec4bfc23b97011b415fea8199237fd37.png",
        "status_id": "TERDAFTAR",
        "sistem_elektronik_id": 4197
      }
    },
    {
      "type": "tdpseTerbit",
      "id": 9764,
      "attributes": {
        "nomor_pb_umku": "912050370214200000003",
        "nama": "MOMSMONEY.ID",
        "website": "momsmoney.id",
        "sektor": "Sektor Teknologi Informasi dan Komunikasi",
        "nama_perusahaan": "GRAHANUSA MEDIATAMA",
        "tanggal_daftar": "2022-08-03",
        "nomor_tanda_daftar": "002778.03/DJAI.PSE/08/2022",
        "qr_code": "https://pse.kominfo.go.id/storage/images/qr_code/65b40ecaf2f650265d180fb7cd0748e8.png",
        "status_id": "TERDAFTAR",
        "sistem_elektronik_id": 9637
      }
    },
    {
      "type": "tdpseTerbit",
      "id": 9763,
      "attributes": {
        "nomor_pb_umku": "912050370214200000002",
        "nama": "KONTANACADEMY.COM",
        "website": "kontanacademy.com",
        "sektor": "Sektor Teknologi Informasi dan Komunikasi",
        "nama_perusahaan": "GRAHANUSA MEDIATAMA",
        "tanggal_daftar": "2022-08-03",
        "nomor_tanda_daftar": "002778.02/DJAI.PSE/08/2022",
        "qr_code": "https://pse.kominfo.go.id/storage/images/qr_code/b6b673db6c81302d90378a2af30913c1.png",
        "status_id": "TERDAFTAR",
        "sistem_elektronik_id": 9635
      }
    },
    {
      "type": "tdpseTerbit",
      "id": 4107,
      "attributes": {
        "nomor_pb_umku": "912050370214200000001",
        "nama": "KONTAN",
        "website": "kontan.co.id",
        "sektor": "Sektor Perdagangan, Sektor Teknologi Informasi dan Komunikasi",
        "nama_perusahaan": "GRAHANUSA MEDIATAMA",
        "tanggal_daftar": "2022-05-23",
        "nomor_tanda_daftar": "002778.01/DJAI.PSE/05/2022",
        "qr_code": "https://pse.kominfo.go.id/storage/images/qr_code/08e2cb4ed5f4e1e509767fbdcc226379.png",
        "status_id": "TERDAFTAR",
        "sistem_elektronik_id": 4106
      }
    },
    {
      "type": "tdpseTerbit",
      "id": 4105,
      "attributes": {
        "nomor_pb_umku": "022010178146900010001",
        "nama": "PERQARA",
        "website": "perqara.com",
        "sektor": "Sektor Perdagangan, Sektor Teknologi Informasi dan Komunikasi",
        "nama_perusahaan": "LIMA VENTURA INDONESIA",
        "tanggal_daftar": "2022-05-23",
        "nomor_tanda_daftar": "002774.01/DJAI.PSE/05/2022",
        "qr_code": "https://pse.kominfo.go.id/storage/images/qr_code/98e5c7f9998faf28f15dadcbf3737a9b.png",
        "status_id": "TERDAFTAR",
        "sistem_elektronik_id": 4104
      }
    }
  ]
}