{
  "meta": {
    "page": {
      "currentPage": 585,
      "from": 5841,
      "lastPage": 1111,
      "perPage": 10,
      "to": 5850,
      "total": 11105
    }
  },
  "data": [
    {
      "type": "tdpseTerbit",
      "id": 6465,
      "attributes": {
        "nomor_pb_umku": "040122001284800000001",
        "nama": "LAPORHUKUM",
        "website": "laporhukum.com",
        "sektor": "Sektor Perdagangan, Sektor Teknologi Informasi dan Komunikasi",
        "nama_perusahaan": "BERTIGA BANYAK BERKAT",
        "tanggal_daftar": "2022-07-18",
        "nomor_tanda_daftar": "003136.01/DJAI.PSE/07/2022",
        "qr_code": "https://pse.kominfo.go.id/storage/images/qr_code/412ee794c09866d0c5bfed3e82de3341.png",
        "status_id": "TERDAFTAR",
        "sistem_elektronik_id": 6328
      }
    },
    {
      "type": "tdpseTerbit",
      "id": 4272,
      "attributes": {
        "nomor_pb_umku": "120122003037500000001",
        "nama": "HTTP://DIGITALBARU.COM/",
        "website": "digitalbaru.com",
        "sektor": "Sektor Teknologi Informasi dan Komunikasi",
        "nama_perusahaan": "DIGITAL BARU BERJAYA",
        "tanggal_daftar": "2022-06-08",
        "nomor_tanda_daftar": "003135.01/DJAI.PSE/06/2022",
        "qr_code": "https://pse.kominfo.go.id/storage/images/qr_code/e273658ea385214d9859b34cdefb6f9c.png",
        "status_id": "TERDAFTAR",
        "sistem_elektronik_id": 4259
      }
    },
    {
      "type": "tdpseTerbit",
      "id": 10829,
      "attributes": {
        "nomor_pb_umku": "912000969184100010004",
        "nama": "BENEFITS ACCESS",
        "website": "-",
        "sektor": "Sektor Keuangan",
        "nama_perusahaan": "WILLIS TOWERS WATSON INSURANCE BROKER INDONESIA",
        "tanggal_daftar": "2022-08-26",
        "nomor_tanda_daftar": "003127.03/DJAI.PSE/08/2022",
        "qr_code": "https://pse.kominfo.go.id/storage/images/qr_code/9c92f2b9b7335c14d97f3c4855e04687.png",
        "status_id": "TERDAFTAR",
        "sistem_elektronik_id": 10639
      }
    },
    {
      "type": "tdpseTerbit",
      "id": 10826,
      "attributes": {
        "nomor_pb_umku": "912000969184100010003",
        "nama": "EMBARK",
        "website": "ehr.com",
        "sektor": "Sektor Keuangan",
        "nama_perusahaan": "WILLIS TOWERS WATSON INSURANCE BROKER INDONESIA",
        "tanggal_daftar": "2022-08-26",
        "nomor_tanda_daftar": "003127.02/DJAI.PSE/08/2022",
        "qr_code": "https://pse.kominfo.go.id/storage/images/qr_code/76fcb1215549d52f63304b4cb3a0cbe3.png",
        "status_id": "TERDAFTAR",
        "sistem_elektronik_id": 10634
      }
    },
    {
      "type": "tdpseTerbit",
      "id": 8576,
      "attributes": {
        "nomor_pb_umku": "912000969184100010002",
        "nama": "AFFINITY TECHNOLOGY PLATFORM (ATP)",
        "website": "-",
        "sektor": "Sektor Keuangan",
        "nama_perusahaan": "WILLIS TOWERS WATSON INSURANCE BROKER INDONESIA",
        "tanggal_daftar": "2022-07-21",
        "nomor_tanda_daftar": "003127.01/DJAI.PSE/07/2022",
        "qr_code": "https://pse.kominfo.go.id/storage/images/qr_code/17f203ae2a95ee46841511a5111c9951.png",
        "status_id": "TERDAFTAR",
        "sistem_elektronik_id": 8488
      }
    },
    {
      "type": "tdpseTerbit",
      "id": 11156,
      "attributes": {
        "nomor_pb_umku": "812000290008700000002",
        "nama": "C-ACCESS",
        "website": "krl.co.id",
        "sektor": "Sektor Transportasi",
        "nama_perusahaan": "KERETA COMMUTER INDONESIA",
        "tanggal_daftar": "2022-09-13",
        "nomor_tanda_daftar": "003126.02/DJAI.PSE/09/2022",
        "qr_code": "https://pse.kominfo.go.id/storage/images/qr_code/8ee004374b1c86cc4d08b31f8b07dc63.png",
        "status_id": "TERDAFTAR",
        "sistem_elektronik_id": 10957
      }
    },
    {
      "type": "tdpseTerbit",
      "id": 4521,
      "attributes": {
        "nomor_pb_umku": "812000290008700000001",
        "nama": "COMMUTER.ID",
        "website": "krl.co.id",
        "sektor": "Sektor Transportasi",
        "nama_perusahaan": "KERETA COMMUTER INDONESIA",
        "tanggal_daftar": "2022-06-15",
        "nomor_tanda_daftar": "003126.01/DJAI.PSE/06/2022",
        "qr_code": "https://pse.kominfo.go.id/storage/images/qr_code/1f8dc880dc2f6a014f13682156898712.png",
        "status_id": "TERDAFTAR",
        "sistem_elektronik_id": 4504
      }
    },
    {
      "type": "tdpseTerbit",
      "id": 4603,
      "attributes": {
        "nomor_pb_umku": "022020176193100010001",
        "nama": "SF INDONESIA",
        "website": "sf-international.id",
        "sektor": "Sektor Perdagangan, Sektor Transportasi",
        "nama_perusahaan": "SURYA FAJAR INDONESIA",
        "tanggal_daftar": "2022-06-18",
        "nomor_tanda_daftar": "003121.01/DJAI.PSE/06/2022",
        "qr_code": "https://pse.kominfo.go.id/storage/images/qr_code/3461a7b7854b6374bc0e50404822326e.png",
        "status_id": "TERDAFTAR",
        "sistem_elektronik_id": 4566
      }
    },
    {
      "type": "tdpseTerbit",
      "id": 4333,
      "attributes": {
        "nomor_pb_umku": "912040779110200020001",
        "nama": "LAKUEMAS",
        "website": "lakuemas.com",
        "sektor": "Sektor Perdagangan",
        "nama_perusahaan": "LAKU EMAS INDONESIA",
        "tanggal_daftar": "2022-06-13",
        "nomor_tanda_daftar": "003118.01/DJAI.PSE/06/2022",
        "qr_code": "https://pse.kominfo.go.id/storage/images/qr_code/5ceef130f524012db3a2b3ddd760c289.png",
        "status_id": "TERDAFTAR",
        "sistem_elektronik_id": 4320
      }
    },
    {
      "type": "tdpseTerbit",
      "id": 4743,
      "attributes": {
        "nomor_pb_umku": "125500246216200080001",
        "nama": "PT REKA CIPTA DIGITAL",
        "website": "myarchery.id",
        "sektor": "Sektor Perdagangan",
        "nama_perusahaan": "REKA CIPTA DIGITAL",
        "tanggal_daftar": "2022-06-24",
        "nomor_tanda_daftar": "003117.01/DJAI.PSE/06/2022",
        "qr_code": "https://pse.kominfo.go.id/storage/images/qr_code/27c7bfe3e3c5e7e77c61241ebceb1900.png",
        "status_id": "TERDAFTAR",
        "sistem_elektronik_id": 4686
      }
    }
  ]
}