{
  "meta": {
    "page": {
      "currentPage": 587,
      "from": 5861,
      "lastPage": 1046,
      "perPage": 10,
      "to": 5870,
      "total": 10457
    }
  },
  "data": [
    {
      "type": "tdpseTerbit",
      "id": 3861,
      "attributes": {
        "nomor_pb_umku": null,
        "nama": "THOSIBA",
        "website": "-",
        "sektor": "Sektor Keuangan, Sektor Perdagangan, Sektor Teknologi Informasi dan Komunikasi",
        "nama_perusahaan": "TELAGA BENING",
        "tanggal_daftar": "2022-04-13",
        "nomor_tanda_daftar": "002513.01/DJAI.PSE/04/2022",
        "qr_code": "https://pse.kominfo.go.id/storage/images/qr_code/43269077c01c85f2a7b3bc32c4adbaeb.png",
        "status_id": "TERDAFTAR",
        "sistem_elektronik_id": 3751
      }
    },
    {
      "type": "tdpseTerbit",
      "id": 3859,
      "attributes": {
        "nomor_pb_umku": null,
        "nama": "BISA Network Academy",
        "website": "academy.bisa.network",
        "sektor": "Sektor Teknologi Informasi dan Komunikasi",
        "nama_perusahaan": "PENGGIAT EKOSISTEM KECERDASAN ARTIFISIAL DAN BLOCKCHAIN",
        "tanggal_daftar": "2022-04-13",
        "nomor_tanda_daftar": "002512.01/DJAI.PSE/04/2022",
        "qr_code": "https://pse.kominfo.go.id/storage/images/qr_code/f7058a9e684478cdee5bf5d64b1eba9c.png",
        "status_id": "TERDAFTAR",
        "sistem_elektronik_id": 3828
      }
    },
    {
      "type": "tdpseTerbit",
      "id": 3858,
      "attributes": {
        "nomor_pb_umku": null,
        "nama": "Kohai Gamer Kohai Partner",
        "website": "https://kohai.gg/",
        "sektor": "Sektor Teknologi Informasi dan Komunikasi",
        "nama_perusahaan": "INFINITE WORLD ESPORTS",
        "tanggal_daftar": "2022-04-13",
        "nomor_tanda_daftar": "002511.01/DJAI.PSE/04/2022",
        "qr_code": "https://pse.kominfo.go.id/storage/images/qr_code/7aa27d4c1a4d05b42f83bd31ebbaf4f9.png",
        "status_id": "TERDAFTAR",
        "sistem_elektronik_id": 3875
      }
    },
    {
      "type": "tdpseTerbit",
      "id": 3857,
      "attributes": {
        "nomor_pb_umku": null,
        "nama": "Legal Care",
        "website": "legalcare.my.id",
        "sektor": "Sektor Perdagangan",
        "nama_perusahaan": "PATRIA INDOTECH",
        "tanggal_daftar": "2022-04-13",
        "nomor_tanda_daftar": "002510.01/DJAI.PSE/04/2022",
        "qr_code": "https://pse.kominfo.go.id/storage/images/qr_code/1375af1987c8d31e3fa0c9e7407bd1d4.png",
        "status_id": "TERDAFTAR",
        "sistem_elektronik_id": 3997
      }
    },
    {
      "type": "tdpseTerbit",
      "id": 3856,
      "attributes": {
        "nomor_pb_umku": null,
        "nama": "BK JEK",
        "website": "-",
        "sektor": "Sektor Keuangan, Sektor Perdagangan, Sektor Teknologi Informasi dan Komunikasi, Sektor Transportasi",
        "nama_perusahaan": "BATU KAJANG DELIVERY",
        "tanggal_daftar": "2022-04-13",
        "nomor_tanda_daftar": "002509.01/DJAI.PSE/04/2022",
        "qr_code": "https://pse.kominfo.go.id/storage/images/qr_code/045aa3539e0ce57d25953bdc9c0a4a19.png",
        "status_id": "TERDAFTAR",
        "sistem_elektronik_id": 3823
      }
    },
    {
      "type": "tdpseTerbit",
      "id": 3855,
      "attributes": {
        "nomor_pb_umku": null,
        "nama": "mbai.co.id",
        "website": "mbai.co.id",
        "sektor": "Sektor Perdagangan",
        "nama_perusahaan": "MAP BOGA ADIPERKASA",
        "tanggal_daftar": "2022-04-13",
        "nomor_tanda_daftar": "002508.01/DJAI.PSE/04/2022",
        "qr_code": "https://pse.kominfo.go.id/storage/images/qr_code/7fb8b11469109f7a311e666f5734d2a5.png",
        "status_id": "TERDAFTAR",
        "sistem_elektronik_id": 3948
      }
    },
    {
      "type": "tdpseTerbit",
      "id": 3854,
      "attributes": {
        "nomor_pb_umku": null,
        "nama": "www.kompinews.my.id",
        "website": "www.kompinews.my.id",
        "sektor": "Sektor Teknologi Informasi dan Komunikasi",
        "nama_perusahaan": "LEMBAGA LINGKUNGAN HIDUP DAN PEJUANG IKLIM INDONESIA",
        "tanggal_daftar": "2022-04-13",
        "nomor_tanda_daftar": "002507.01/DJAI.PSE/04/2022",
        "qr_code": "https://pse.kominfo.go.id/storage/images/qr_code/b0d48650091dee3c34c4f74b72a7f874.png",
        "status_id": "TERDAFTAR",
        "sistem_elektronik_id": 3855
      }
    },
    {
      "type": "tdpseTerbit",
      "id": 3868,
      "attributes": {
        "nomor_pb_umku": null,
        "nama": "Email - Bank SBI Indonesia",
        "website": "https://mail.sbiindo.com",
        "sektor": "Sektor Keuangan",
        "nama_perusahaan": "BANK SBI INDONESIA",
        "tanggal_daftar": "2022-04-13",
        "nomor_tanda_daftar": "002506.03/DJAI.PSE/04/2022",
        "qr_code": "https://pse.kominfo.go.id/storage/images/qr_code/824ec2e4741f0c015c0bd7978d15ef09.png",
        "status_id": "TERDAFTAR",
        "sistem_elektronik_id": 3793
      }
    },
    {
      "type": "tdpseTerbit",
      "id": 3866,
      "attributes": {
        "nomor_pb_umku": null,
        "nama": "Website Bank SBI Indonesia",
        "website": "https://www.sbiindo.com/",
        "sektor": "Sektor Keuangan",
        "nama_perusahaan": "BANK SBI INDONESIA",
        "tanggal_daftar": "2022-04-13",
        "nomor_tanda_daftar": "002506.02/DJAI.PSE/04/2022",
        "qr_code": "https://pse.kominfo.go.id/storage/images/qr_code/fc0428c1bfbfd3649af5918fe271b710.png",
        "status_id": "TERDAFTAR",
        "sistem_elektronik_id": 3792
      }
    },
    {
      "type": "tdpseTerbit",
      "id": 3852,
      "attributes": {
        "nomor_pb_umku": null,
        "nama": "INTERNET BANKING RETAIL DAN CORPORATE",
        "website": "https://onlinesbii.sbiindo.com",
        "sektor": "Sektor Keuangan",
        "nama_perusahaan": "BANK SBI INDONESIA",
        "tanggal_daftar": "2022-04-12",
        "nomor_tanda_daftar": "002506.01/DJAI.PSE/04/2022",
        "qr_code": "https://pse.kominfo.go.id/storage/images/qr_code/0760497da99b7e12413a434f5c04c7dd.png",
        "status_id": "TERDAFTAR",
        "sistem_elektronik_id": 3791
      }
    }
  ]
}