{
  "meta": {
    "page": {
      "currentPage": 589,
      "from": 5881,
      "lastPage": 1070,
      "perPage": 10,
      "to": 5890,
      "total": 10698
    }
  },
  "data": [
    {
      "type": "tdpseTerbit",
      "id": 4413,
      "attributes": {
        "nomor_pb_umku": null,
        "nama": "www.zhmhotels.com",
        "website": "zhmhotels.com",
        "sektor": "Sektor Perdagangan, Sektor Teknologi Informasi dan Komunikasi",
        "nama_perusahaan": "ZURI HOTEL MANAJEMEN",
        "tanggal_daftar": "2022-05-06",
        "nomor_tanda_daftar": "002648.01/DJAI.PSE/05/2022",
        "qr_code": "https://pse.kominfo.go.id/storage/images/qr_code/9551cda722c90cbcea5032d9a2534b40.png",
        "status_id": "TERDAFTAR",
        "sistem_elektronik_id": 4397
      }
    },
    {
      "type": "tdpseTerbit",
      "id": 4411,
      "attributes": {
        "nomor_pb_umku": null,
        "nama": "Victoria Global Realty",
        "website": "-",
        "sektor": "Sektor Perdagangan",
        "nama_perusahaan": "VICTORIA GLOBAL REALTY",
        "tanggal_daftar": "2022-05-05",
        "nomor_tanda_daftar": "002646.01/DJAI.PSE/05/2022",
        "qr_code": "https://pse.kominfo.go.id/storage/images/qr_code/2267bdfd74ee0a99aab00eaa635251c8.png",
        "status_id": "TERDAFTAR",
        "sistem_elektronik_id": 4395
      }
    },
    {
      "type": "tdpseTerbit",
      "id": 4410,
      "attributes": {
        "nomor_pb_umku": null,
        "nama": "PordasiHub",
        "website": "-",
        "sektor": "Sektor Teknologi Informasi dan Komunikasi",
        "nama_perusahaan": "TURANGGA ARENA PERSADA",
        "tanggal_daftar": "2022-05-04",
        "nomor_tanda_daftar": "002645.01/DJAI.PSE/05/2022",
        "qr_code": "https://pse.kominfo.go.id/storage/images/qr_code/41ee96d8978c624ec63182796435f366.png",
        "status_id": "TERDAFTAR",
        "sistem_elektronik_id": 4394
      }
    },
    {
      "type": "tdpseTerbit",
      "id": 4990,
      "attributes": {
        "nomor_pb_umku": "030522000003800080004",
        "nama": "MARKET INDONESIA IPTV",
        "website": "-",
        "sektor": "Sektor Teknologi Informasi dan Komunikasi, Sektor Pertahanan dan Keamanan",
        "nama_perusahaan": "MARKET INDONESIA STARTUP",
        "tanggal_daftar": "2022-07-01",
        "nomor_tanda_daftar": "002644.04/DJAI.PSE/07/2022",
        "qr_code": "https://pse.kominfo.go.id/storage/images/qr_code/291a90e0f89c8fc0fbb0336d9b016412.png",
        "status_id": "TERDAFTAR",
        "sistem_elektronik_id": 4858
      }
    },
    {
      "type": "tdpseTerbit",
      "id": 4409,
      "attributes": {
        "nomor_pb_umku": null,
        "nama": "Market Indonesia Startup",
        "website": "marketindonesia.co.id",
        "sektor": "Sektor Perdagangan, Sektor Pertahanan dan Keamanan, Sektor Teknologi Informasi dan Komunikasi",
        "nama_perusahaan": "MARKET INDONESIA STARTUP",
        "tanggal_daftar": "2022-05-03",
        "nomor_tanda_daftar": "002644.03/DJAI.PSE/05/2022",
        "qr_code": "https://pse.kominfo.go.id/storage/images/qr_code/355d6dd17932a343731e7b0873555df9.png",
        "status_id": "TERDAFTAR",
        "sistem_elektronik_id": 4393
      }
    },
    {
      "type": "tdpseTerbit",
      "id": 4408,
      "attributes": {
        "nomor_pb_umku": null,
        "nama": "Cyber Space Market Indonesia Startup",
        "website": "cyberspace.marketindonesia.co.id",
        "sektor": "Sektor Pangan, Sektor Perdagangan, Sektor Pertahanan dan Keamanan, Sektor Teknologi Informasi dan Komunikasi",
        "nama_perusahaan": "MARKET INDONESIA STARTUP",
        "tanggal_daftar": "2022-05-03",
        "nomor_tanda_daftar": "002644.02/DJAI.PSE/05/2022",
        "qr_code": "https://pse.kominfo.go.id/storage/images/qr_code/b4d53a7b07890639a5ab608206d07ee1.png",
        "status_id": "TERDAFTAR",
        "sistem_elektronik_id": 4392
      }
    },
    {
      "type": "tdpseTerbit",
      "id": 4407,
      "attributes": {
        "nomor_pb_umku": null,
        "nama": "Pt.Market Indonesia startup",
        "website": "marketindonesia.co.id",
        "sektor": "Sektor Perdagangan, Sektor Teknologi Informasi dan Komunikasi",
        "nama_perusahaan": "MARKET INDONESIA STARTUP",
        "tanggal_daftar": "2022-05-03",
        "nomor_tanda_daftar": "002644.01/DJAI.PSE/05/2022",
        "qr_code": "https://pse.kominfo.go.id/storage/images/qr_code/c23345dc66f6c82e90fd475de314fae0.png",
        "status_id": "TERDAFTAR",
        "sistem_elektronik_id": 4391
      }
    },
    {
      "type": "tdpseTerbit",
      "id": 4406,
      "attributes": {
        "nomor_pb_umku": null,
        "nama": "PT Akar Inti Data",
        "website": "www.akarintidata.ai",
        "sektor": "Sektor Keuangan, Sektor Perdagangan, Sektor Teknologi Informasi dan Komunikasi",
        "nama_perusahaan": "AKAR INTI DATA",
        "tanggal_daftar": "2022-04-29",
        "nomor_tanda_daftar": "002643.01/DJAI.PSE/04/2022",
        "qr_code": "https://pse.kominfo.go.id/storage/images/qr_code/0fdb9b8443ad8039670e0e23c85588a8.png",
        "status_id": "TERDAFTAR",
        "sistem_elektronik_id": 4390
      }
    },
    {
      "type": "tdpseTerbit",
      "id": 11749,
      "attributes": {
        "nomor_pb_umku": "201021001744600030002",
        "nama": "CV. DUTA EDUKASI BOALEMO",
        "website": "dutaedukasiboalemo.id",
        "sektor": "Sektor Perdagangan",
        "nama_perusahaan": "DUTA EDUKASI BOALEMO",
        "tanggal_daftar": "2022-10-11",
        "nomor_tanda_daftar": "002642.02/DJAI.PSE/10/2022",
        "qr_code": "https://pse.kominfo.go.id/storage/images/qr_code/6434b3b35869798f8690085fdf2a52ca.png",
        "status_id": "TERDAFTAR",
        "sistem_elektronik_id": 11549
      }
    },
    {
      "type": "tdpseTerbit",
      "id": 4405,
      "attributes": {
        "nomor_pb_umku": null,
        "nama": "CV DUTA EDUKASI BOALEMO",
        "website": "-",
        "sektor": "Sektor Perdagangan",
        "nama_perusahaan": "DUTA EDUKASI BOALEMO",
        "tanggal_daftar": "2022-04-29",
        "nomor_tanda_daftar": "002642.01/DJAI.PSE/04/2022",
        "qr_code": "https://pse.kominfo.go.id/storage/images/qr_code/f065f71756600ff795e92ae6d81dffbe.png",
        "status_id": "TERDAFTAR",
        "sistem_elektronik_id": 4389
      }
    }
  ]
}