{
  "meta": {
    "page": {
      "currentPage": 590,
      "from": 5891,
      "lastPage": 1063,
      "perPage": 10,
      "to": 5900,
      "total": 10630
    }
  },
  "data": [
    {
      "type": "tdpseTerbit",
      "id": 3984,
      "attributes": {
        "nomor_pb_umku": null,
        "nama": "Qoin Crypto",
        "website": "qoincrypto.id",
        "sektor": "Sektor Teknologi Informasi dan Komunikasi",
        "nama_perusahaan": "LOYALTY PROGRAM INDONESIA",
        "tanggal_daftar": "2022-04-21",
        "nomor_tanda_daftar": "002587.01/DJAI.PSE/04/2022",
        "qr_code": "https://pse.kominfo.go.id/storage/images/qr_code/56007bc4d4cac6230b254f6c578261fe.png",
        "status_id": "TERDAFTAR",
        "sistem_elektronik_id": 3986
      }
    },
    {
      "type": "tdpseTerbit",
      "id": 4042,
      "attributes": {
        "nomor_pb_umku": null,
        "nama": "PanenBersama",
        "website": "panenbersama.com",
        "sektor": "Sektor Perdagangan, Sektor Teknologi Informasi dan Komunikasi",
        "nama_perusahaan": "CARMEL ANUGERAH CEMERLANG",
        "tanggal_daftar": "2022-04-26",
        "nomor_tanda_daftar": "002586.03/DJAI.PSE/04/2022",
        "qr_code": "https://pse.kominfo.go.id/storage/images/qr_code/c56dd0f04b2c92200a2db1baad2e42d3.png",
        "status_id": "TERDAFTAR",
        "sistem_elektronik_id": 3978
      }
    },
    {
      "type": "tdpseTerbit",
      "id": 3981,
      "attributes": {
        "nomor_pb_umku": null,
        "nama": "Aplikasi PanenSaham",
        "website": "panensaham.com",
        "sektor": "Sektor Perdagangan, Sektor Teknologi Informasi dan Komunikasi",
        "nama_perusahaan": "CARMEL ANUGERAH CEMERLANG",
        "tanggal_daftar": "2022-04-21",
        "nomor_tanda_daftar": "002586.02/DJAI.PSE/04/2022",
        "qr_code": "https://pse.kominfo.go.id/storage/images/qr_code/2bba8101c59a21d0f4d189e759196ad1.png",
        "status_id": "TERDAFTAR",
        "sistem_elektronik_id": 3977
      }
    },
    {
      "type": "tdpseTerbit",
      "id": 3979,
      "attributes": {
        "nomor_pb_umku": null,
        "nama": "PanenSaham",
        "website": "panensaham.com",
        "sektor": "Sektor Perdagangan, Sektor Teknologi Informasi dan Komunikasi",
        "nama_perusahaan": "CARMEL ANUGERAH CEMERLANG",
        "tanggal_daftar": "2022-04-21",
        "nomor_tanda_daftar": "002586.01/DJAI.PSE/04/2022",
        "qr_code": "https://pse.kominfo.go.id/storage/images/qr_code/0e7534d712f4acd122a15128d2e57cb3.png",
        "status_id": "TERDAFTAR",
        "sistem_elektronik_id": 3976
      }
    },
    {
      "type": "tdpseTerbit",
      "id": 4536,
      "attributes": {
        "nomor_pb_umku": null,
        "nama": "Maha Nagari Nusantara",
        "website": "Torch.id",
        "sektor": "Sektor Perdagangan",
        "nama_perusahaan": "MAHA NAGARI NUSANTARA",
        "tanggal_daftar": "2022-04-21",
        "nomor_tanda_daftar": "002585.01/DJAI.PSE/04/2022",
        "qr_code": "https://pse.kominfo.go.id/storage/images/qr_code/f43160a77c6b172fb83d079f5d23df82.png",
        "status_id": "TERDAFTAR",
        "sistem_elektronik_id": 4516
      }
    },
    {
      "type": "tdpseTerbit",
      "id": 4019,
      "attributes": {
        "nomor_pb_umku": null,
        "nama": "Digiserve Professional Service – IT Services",
        "website": "bi.digiserve.co.id",
        "sektor": "Sektor Teknologi Informasi dan Komunikasi",
        "nama_perusahaan": "DIGITAL APLIKASI SOLUSI",
        "tanggal_daftar": "2022-04-25",
        "nomor_tanda_daftar": "002584.08/DJAI.PSE/04/2022",
        "qr_code": "https://pse.kominfo.go.id/storage/images/qr_code/03808a4ec5160b483a251cd7fc109f6e.png",
        "status_id": "TERDAFTAR",
        "sistem_elektronik_id": 3919
      }
    },
    {
      "type": "tdpseTerbit",
      "id": 4018,
      "attributes": {
        "nomor_pb_umku": null,
        "nama": "Digiserve Professional Service - IT",
        "website": "Digiserve.co.id",
        "sektor": "Sektor Teknologi Informasi dan Komunikasi",
        "nama_perusahaan": "DIGITAL APLIKASI SOLUSI",
        "tanggal_daftar": "2022-04-25",
        "nomor_tanda_daftar": "002584.07/DJAI.PSE/04/2022",
        "qr_code": "https://pse.kominfo.go.id/storage/images/qr_code/8c18c9a2b5d67d5c65feb342bca0ed02.png",
        "status_id": "TERDAFTAR",
        "sistem_elektronik_id": 3918
      }
    },
    {
      "type": "tdpseTerbit",
      "id": 3982,
      "attributes": {
        "nomor_pb_umku": null,
        "nama": "Digiserve Managed Cloud Service - IaaS",
        "website": "Digiserve.co.id",
        "sektor": "Sektor Teknologi Informasi dan Komunikasi",
        "nama_perusahaan": "DIGITAL APLIKASI SOLUSI",
        "tanggal_daftar": "2022-04-21",
        "nomor_tanda_daftar": "002584.06/DJAI.PSE/04/2022",
        "qr_code": "https://pse.kominfo.go.id/storage/images/qr_code/5c26a21082d3f95fd6a94bf4fc1c9abf.png",
        "status_id": "TERDAFTAR",
        "sistem_elektronik_id": 3917
      }
    },
    {
      "type": "tdpseTerbit",
      "id": 3980,
      "attributes": {
        "nomor_pb_umku": null,
        "nama": "Digiserve Professional Service - Cloud",
        "website": "Digiserve.co.id",
        "sektor": "Sektor Teknologi Informasi dan Komunikasi",
        "nama_perusahaan": "DIGITAL APLIKASI SOLUSI",
        "tanggal_daftar": "2022-04-21",
        "nomor_tanda_daftar": "002584.05/DJAI.PSE/04/2022",
        "qr_code": "https://pse.kominfo.go.id/storage/images/qr_code/0c3c248650c3154016551ccb32bc5f47.png",
        "status_id": "TERDAFTAR",
        "sistem_elektronik_id": 3916
      }
    },
    {
      "type": "tdpseTerbit",
      "id": 3978,
      "attributes": {
        "nomor_pb_umku": null,
        "nama": "Digiserve Managed Cloud Service – SaaS PaaS",
        "website": "Digiserve.co.id",
        "sektor": "Sektor Teknologi Informasi dan Komunikasi",
        "nama_perusahaan": "DIGITAL APLIKASI SOLUSI",
        "tanggal_daftar": "2022-04-21",
        "nomor_tanda_daftar": "002584.04/DJAI.PSE/04/2022",
        "qr_code": "https://pse.kominfo.go.id/storage/images/qr_code/9ad8e4f15171270d1bfde2c92ce272af.png",
        "status_id": "TERDAFTAR",
        "sistem_elektronik_id": 3915
      }
    }
  ]
}