{
  "meta": {
    "page": {
      "currentPage": 591,
      "from": 5901,
      "lastPage": 1047,
      "perPage": 10,
      "to": 5910,
      "total": 10470
    }
  },
  "data": [
    {
      "type": "tdpseTerbit",
      "id": 3833,
      "attributes": {
        "nomor_pb_umku": null,
        "nama": "OTAQU",
        "website": "otaqu.id",
        "sektor": "Sektor Transportasi",
        "nama_perusahaan": "ORBIT TANAH AIRKU",
        "tanggal_daftar": "2022-04-11",
        "nomor_tanda_daftar": "002490.01/DJAI.PSE/04/2022",
        "qr_code": "https://pse.kominfo.go.id/storage/images/qr_code/d7b75f0c88f6e4d8157bf7028f017a7f.png",
        "status_id": "TERDAFTAR",
        "sistem_elektronik_id": 3784
      }
    },
    {
      "type": "tdpseTerbit",
      "id": 3831,
      "attributes": {
        "nomor_pb_umku": null,
        "nama": "Mama’s Choice",
        "website": "www.mamaschoice.id",
        "sektor": "Sektor Kesehatan, Sektor Perdagangan",
        "nama_perusahaan": "MAMAS CHOICE MERCHANDISING",
        "tanggal_daftar": "2022-04-11",
        "nomor_tanda_daftar": "002489.01/DJAI.PSE/04/2022",
        "qr_code": "https://pse.kominfo.go.id/storage/images/qr_code/441057ed7f202f62965bdc05899a9b71.png",
        "status_id": "TERDAFTAR",
        "sistem_elektronik_id": 3703
      }
    },
    {
      "type": "tdpseTerbit",
      "id": 3830,
      "attributes": {
        "nomor_pb_umku": null,
        "nama": "KoinReksa",
        "website": "koinreksa.com",
        "sektor": "Sektor Perdagangan",
        "nama_perusahaan": "MITRA INVESTASI ANDA",
        "tanggal_daftar": "2022-04-11",
        "nomor_tanda_daftar": "002488.01/DJAI.PSE/04/2022",
        "qr_code": "https://pse.kominfo.go.id/storage/images/qr_code/3d5a933677bc667a12d2f6508ea5d214.png",
        "status_id": "TERDAFTAR",
        "sistem_elektronik_id": 3759
      }
    },
    {
      "type": "tdpseTerbit",
      "id": 3829,
      "attributes": {
        "nomor_pb_umku": null,
        "nama": "www.shopmeindo.id",
        "website": "www.shopmeindo.id",
        "sektor": "Sektor Perdagangan, Sektor Teknologi Informasi dan Komunikasi",
        "nama_perusahaan": "GLOBAL KARYA WISESA",
        "tanggal_daftar": "2022-04-11",
        "nomor_tanda_daftar": "002487.01/DJAI.PSE/04/2022",
        "qr_code": "https://pse.kominfo.go.id/storage/images/qr_code/8c27d9df6804a1ba7bd88818b3737db4.png",
        "status_id": "TERDAFTAR",
        "sistem_elektronik_id": 3849
      }
    },
    {
      "type": "tdpseTerbit",
      "id": 3828,
      "attributes": {
        "nomor_pb_umku": null,
        "nama": "PT Epayu Digital Kreatif",
        "website": "epayu.co.id",
        "sektor": "Sektor Perdagangan, Sektor Teknologi Informasi dan Komunikasi",
        "nama_perusahaan": "EPAYU DIGITAL KREATIF",
        "tanggal_daftar": "2022-04-11",
        "nomor_tanda_daftar": "002486.02/DJAI.PSE/04/2022",
        "qr_code": "https://pse.kominfo.go.id/storage/images/qr_code/5a76c26cf811457a9f84f6d3f066f2ae.png",
        "status_id": "TERDAFTAR",
        "sistem_elektronik_id": 3826
      }
    },
    {
      "type": "tdpseTerbit",
      "id": 3827,
      "attributes": {
        "nomor_pb_umku": null,
        "nama": "Epayu Digital Kreatif",
        "website": "www.pulsaseluler.com",
        "sektor": "Sektor Perdagangan, Sektor Teknologi Informasi dan Komunikasi",
        "nama_perusahaan": "EPAYU DIGITAL KREATIF",
        "tanggal_daftar": "2022-04-11",
        "nomor_tanda_daftar": "002486.01/DJAI.PSE/04/2022",
        "qr_code": "https://pse.kominfo.go.id/storage/images/qr_code/9612e229b62e69a63472436267df1ee0.png",
        "status_id": "TERDAFTAR",
        "sistem_elektronik_id": 3825
      }
    },
    {
      "type": "tdpseTerbit",
      "id": 3826,
      "attributes": {
        "nomor_pb_umku": null,
        "nama": "Glober Job",
        "website": "globerjob.co.id",
        "sektor": "Sektor Teknologi Informasi dan Komunikasi",
        "nama_perusahaan": "GLOBAL ORBIT BERSAMA",
        "tanggal_daftar": "2022-04-10",
        "nomor_tanda_daftar": "002485.03/DJAI.PSE/04/2022",
        "qr_code": "https://pse.kominfo.go.id/storage/images/qr_code/a977e44b426416dc27e5f19f1a12cc53.png",
        "status_id": "TERDAFTAR",
        "sistem_elektronik_id": 3726
      }
    },
    {
      "type": "tdpseTerbit",
      "id": 3825,
      "attributes": {
        "nomor_pb_umku": null,
        "nama": "Glober Food",
        "website": "globerfood.co.id",
        "sektor": "Sektor Pangan, Sektor Perdagangan, Sektor Transportasi",
        "nama_perusahaan": "GLOBAL ORBIT BERSAMA",
        "tanggal_daftar": "2022-04-10",
        "nomor_tanda_daftar": "002485.02/DJAI.PSE/04/2022",
        "qr_code": "https://pse.kominfo.go.id/storage/images/qr_code/0f858d6a6cf34227b35f50665a4ff13a.png",
        "status_id": "TERDAFTAR",
        "sistem_elektronik_id": 3725
      }
    },
    {
      "type": "tdpseTerbit",
      "id": 3824,
      "attributes": {
        "nomor_pb_umku": null,
        "nama": "Glober Mart",
        "website": "globermart.co.id",
        "sektor": "Sektor Perdagangan, Sektor Transportasi",
        "nama_perusahaan": "GLOBAL ORBIT BERSAMA",
        "tanggal_daftar": "2022-04-10",
        "nomor_tanda_daftar": "002485.01/DJAI.PSE/04/2022",
        "qr_code": "https://pse.kominfo.go.id/storage/images/qr_code/b714ae27b9f6bea06a54e0fc32f16596.png",
        "status_id": "TERDAFTAR",
        "sistem_elektronik_id": 3724
      }
    },
    {
      "type": "tdpseTerbit",
      "id": 3823,
      "attributes": {
        "nomor_pb_umku": null,
        "nama": "Caratani",
        "website": "caratani.id",
        "sektor": "Sektor Perdagangan, Sektor Teknologi Informasi dan Komunikasi",
        "nama_perusahaan": "CARA TANI DIGITAL",
        "tanggal_daftar": "2022-04-10",
        "nomor_tanda_daftar": "002484.01/DJAI.PSE/04/2022",
        "qr_code": "https://pse.kominfo.go.id/storage/images/qr_code/8897af962c66984f1b3c8410194558f5.png",
        "status_id": "TERDAFTAR",
        "sistem_elektronik_id": 3778
      }
    }
  ]
}