{
  "meta": {
    "page": {
      "currentPage": 592,
      "from": 5911,
      "lastPage": 1072,
      "perPage": 10,
      "to": 5920,
      "total": 10718
    }
  },
  "data": [
    {
      "type": "tdpseTerbit",
      "id": 4404,
      "attributes": {
        "nomor_pb_umku": null,
        "nama": "SAHABAT INSURANCE MOBILE APPS",
        "website": "sahabatinsurance.id",
        "sektor": "Sektor Keuangan",
        "nama_perusahaan": "ASURANSI SAHABAT ARTHA PROTEKSI",
        "tanggal_daftar": "2022-04-29",
        "nomor_tanda_daftar": "002641.02/DJAI.PSE/04/2022",
        "qr_code": "https://pse.kominfo.go.id/storage/images/qr_code/78d4b9330d79714c8687531176c6972b.png",
        "status_id": "TERDAFTAR",
        "sistem_elektronik_id": 4388
      }
    },
    {
      "type": "tdpseTerbit",
      "id": 4403,
      "attributes": {
        "nomor_pb_umku": null,
        "nama": "sahabatinsurance.id",
        "website": "sahabatinsurance.id",
        "sektor": "Sektor Keuangan",
        "nama_perusahaan": "ASURANSI SAHABAT ARTHA PROTEKSI",
        "tanggal_daftar": "2022-04-29",
        "nomor_tanda_daftar": "002641.01/DJAI.PSE/04/2022",
        "qr_code": "https://pse.kominfo.go.id/storage/images/qr_code/03dc4fa301b25e31783a9dde82b668ce.png",
        "status_id": "TERDAFTAR",
        "sistem_elektronik_id": 4387
      }
    },
    {
      "type": "tdpseTerbit",
      "id": 4402,
      "attributes": {
        "nomor_pb_umku": null,
        "nama": "1000saudara.com",
        "website": "1000saudara.com",
        "sektor": "Sektor Perdagangan, Sektor Teknologi Informasi dan Komunikasi",
        "nama_perusahaan": "MITRA SERIBU SAUDARA",
        "tanggal_daftar": "2022-04-29",
        "nomor_tanda_daftar": "002640.01/DJAI.PSE/04/2022",
        "qr_code": "https://pse.kominfo.go.id/storage/images/qr_code/ac2395135ac45098c3752989ff6743d3.png",
        "status_id": "TERDAFTAR",
        "sistem_elektronik_id": 4386
      }
    },
    {
      "type": "tdpseTerbit",
      "id": 4401,
      "attributes": {
        "nomor_pb_umku": null,
        "nama": "OKEPAY INDONESIA",
        "website": "-",
        "sektor": "Sektor Keuangan, Sektor Perdagangan",
        "nama_perusahaan": "YEYEP GUSTIAN",
        "tanggal_daftar": "2022-05-02",
        "nomor_tanda_daftar": "002639.02/DJAI.PSE/05/2022",
        "qr_code": "https://pse.kominfo.go.id/storage/images/qr_code/ce46e679bfd4806bb055d75d450208de.png",
        "status_id": "TERDAFTAR",
        "sistem_elektronik_id": 4385
      }
    },
    {
      "type": "tdpseTerbit",
      "id": 4400,
      "attributes": {
        "nomor_pb_umku": null,
        "nama": "OkePay",
        "website": "-",
        "sektor": "Sektor Keuangan",
        "nama_perusahaan": "YEYEP GUSTIAN",
        "tanggal_daftar": "2022-04-28",
        "nomor_tanda_daftar": "002639.01/DJAI.PSE/04/2022",
        "qr_code": "https://pse.kominfo.go.id/storage/images/qr_code/2223ab7f32587ffa3c33a257d3a6330f.png",
        "status_id": "TERDAFTAR",
        "sistem_elektronik_id": 4384
      }
    },
    {
      "type": "tdpseTerbit",
      "id": 4399,
      "attributes": {
        "nomor_pb_umku": null,
        "nama": "IJIN KU",
        "website": "ijinku.com",
        "sektor": "Sektor Perdagangan, Sektor Teknologi Informasi dan Komunikasi, Sektor Transportasi",
        "nama_perusahaan": "BIRO PATNER ABADI",
        "tanggal_daftar": "2022-04-28",
        "nomor_tanda_daftar": "002638.01/DJAI.PSE/04/2022",
        "qr_code": "https://pse.kominfo.go.id/storage/images/qr_code/9de134c34880b2f0d27274b83425822a.png",
        "status_id": "TERDAFTAR",
        "sistem_elektronik_id": 4383
      }
    },
    {
      "type": "tdpseTerbit",
      "id": 4398,
      "attributes": {
        "nomor_pb_umku": null,
        "nama": "andeskabpdotnet",
        "website": "-",
        "sektor": "Sektor Perdagangan, Sektor Teknologi Informasi dan Komunikasi",
        "nama_perusahaan": "ANDESKA BINA PERSADA",
        "tanggal_daftar": "2022-04-28",
        "nomor_tanda_daftar": "002637.02/DJAI.PSE/04/2022",
        "qr_code": "https://pse.kominfo.go.id/storage/images/qr_code/adbb7436748d1bcf1769f695edd78e48.png",
        "status_id": "TERDAFTAR",
        "sistem_elektronik_id": 4382
      }
    },
    {
      "type": "tdpseTerbit",
      "id": 4397,
      "attributes": {
        "nomor_pb_umku": null,
        "nama": "ANDESKABP",
        "website": "andeskabp.net",
        "sektor": "Sektor Perdagangan, Sektor Teknologi Informasi dan Komunikasi",
        "nama_perusahaan": "ANDESKA BINA PERSADA",
        "tanggal_daftar": "2022-04-28",
        "nomor_tanda_daftar": "002637.01/DJAI.PSE/04/2022",
        "qr_code": "https://pse.kominfo.go.id/storage/images/qr_code/7b98a54d27d04c52e91d0da816b51154.png",
        "status_id": "TERDAFTAR",
        "sistem_elektronik_id": 4381
      }
    },
    {
      "type": "tdpseTerbit",
      "id": 4396,
      "attributes": {
        "nomor_pb_umku": null,
        "nama": "PT JAYA BAYA SEJAHTERA",
        "website": "-",
        "sektor": "Sektor Perdagangan",
        "nama_perusahaan": "JAYADI",
        "tanggal_daftar": "2022-04-28",
        "nomor_tanda_daftar": "002636.01/DJAI.PSE/04/2022",
        "qr_code": "https://pse.kominfo.go.id/storage/images/qr_code/34b1621fd44e47b316177dc4943e919b.png",
        "status_id": "TERDAFTAR",
        "sistem_elektronik_id": 4380
      }
    },
    {
      "type": "tdpseTerbit",
      "id": 4395,
      "attributes": {
        "nomor_pb_umku": null,
        "nama": "Nuumi Pulsa",
        "website": "mpulsa.net",
        "sektor": "Sektor Perdagangan",
        "nama_perusahaan": "NUUMI HZM",
        "tanggal_daftar": "2022-04-28",
        "nomor_tanda_daftar": "002635.01/DJAI.PSE/04/2022",
        "qr_code": "https://pse.kominfo.go.id/storage/images/qr_code/1ae96b2e87d31d27c7114dc61dee4ba9.png",
        "status_id": "TERDAFTAR",
        "sistem_elektronik_id": 4379
      }
    }
  ]
}