{
  "meta": {
    "page": {
      "currentPage": 593,
      "from": 5921,
      "lastPage": 1041,
      "perPage": 10,
      "to": 5930,
      "total": 10407
    }
  },
  "data": [
    {
      "type": "tdpseTerbit",
      "id": 4337,
      "attributes": {
        "nomor_pb_umku": "812011413226800920013",
        "nama": "BRILINKERS",
        "website": "Brilinkers-admin.bri.co.id",
        "sektor": "Sektor Teknologi Informasi dan Komunikasi",
        "nama_perusahaan": "PERUSAHAAN PERSEROAN (PERSERO) PT. BANK RAKYAT INDONESIA",
        "tanggal_daftar": "2022-06-13",
        "nomor_tanda_daftar": "002468.09/DJAI.PSE/06/2022",
        "qr_code": "https://pse.kominfo.go.id/storage/images/qr_code/be36df7f77ec4dd149f19c133b3e2fc6.png",
        "status_id": "TERDAFTAR",
        "sistem_elektronik_id": 4324
      }
    },
    {
      "type": "tdpseTerbit",
      "id": 4366,
      "attributes": {
        "nomor_pb_umku": null,
        "nama": "BRI Digital Saving",
        "website": "Bukarekening.bri.co.id",
        "sektor": "Sektor Keuangan",
        "nama_perusahaan": "PERUSAHAAN PERSEROAN (PERSERO) PT. BANK RAKYAT INDONESIA",
        "tanggal_daftar": "2022-05-20",
        "nomor_tanda_daftar": "002468.09/DJAI.PSE/05/2022",
        "qr_code": "https://pse.kominfo.go.id/storage/images/qr_code/0d9da09552dee0449b39efca9906b9d7.png",
        "status_id": "TERDAFTAR",
        "sistem_elektronik_id": 4352
      }
    },
    {
      "type": "tdpseTerbit",
      "id": 4336,
      "attributes": {
        "nomor_pb_umku": "812011413226800920012",
        "nama": "BRILINK MOBILE",
        "website": "-",
        "sektor": "Sektor Keuangan",
        "nama_perusahaan": "PERUSAHAAN PERSEROAN (PERSERO) PT. BANK RAKYAT INDONESIA",
        "tanggal_daftar": "2022-06-13",
        "nomor_tanda_daftar": "002468.08/DJAI.PSE/06/2022",
        "qr_code": "https://pse.kominfo.go.id/storage/images/qr_code/d44859ffdd00f3b90a874619fb37b01f.png",
        "status_id": "TERDAFTAR",
        "sistem_elektronik_id": 4322
      }
    },
    {
      "type": "tdpseTerbit",
      "id": 4365,
      "attributes": {
        "nomor_pb_umku": null,
        "nama": "Internet Banking Bisnis (iBBIZ)",
        "website": "https://biz.bri.co.id",
        "sektor": "Sektor Keuangan",
        "nama_perusahaan": "PERUSAHAAN PERSEROAN (PERSERO) PT. BANK RAKYAT INDONESIA",
        "tanggal_daftar": "2022-05-20",
        "nomor_tanda_daftar": "002468.08/DJAI.PSE/05/2022",
        "qr_code": "https://pse.kominfo.go.id/storage/images/qr_code/4a048072b48aae52f27b14393aa6360d.png",
        "status_id": "TERDAFTAR",
        "sistem_elektronik_id": 4351
      }
    },
    {
      "type": "tdpseTerbit",
      "id": 4158,
      "attributes": {
        "nomor_pb_umku": "812011413226800720011",
        "nama": "COMMODITY CHAIN (TEBUCHAIN)",
        "website": "tebu.id",
        "sektor": "Sektor Pangan",
        "nama_perusahaan": "PERUSAHAAN PERSEROAN (PERSERO) PT. BANK RAKYAT INDONESIA",
        "tanggal_daftar": "2022-05-27",
        "nomor_tanda_daftar": "002468.07/DJAI.PSE/06/2022",
        "qr_code": "https://pse.kominfo.go.id/storage/images/qr_code/e07fa38e3374fcdfdd7251a658c45afe.png",
        "status_id": "TERDAFTAR",
        "sistem_elektronik_id": 4164
      }
    },
    {
      "type": "tdpseTerbit",
      "id": 4364,
      "attributes": {
        "nomor_pb_umku": null,
        "nama": "SenyuM Mobile",
        "website": "https://umi.bri.co.id",
        "sektor": "Sektor Keuangan",
        "nama_perusahaan": "PERUSAHAAN PERSEROAN (PERSERO) PT. BANK RAKYAT INDONESIA",
        "tanggal_daftar": "2022-05-17",
        "nomor_tanda_daftar": "002468.07/DJAI.PSE/05/2022",
        "qr_code": "https://pse.kominfo.go.id/storage/images/qr_code/11802c43b121a9577337e6e99b2a3a1a.png",
        "status_id": "TERDAFTAR",
        "sistem_elektronik_id": 4350
      }
    },
    {
      "type": "tdpseTerbit",
      "id": 4157,
      "attributes": {
        "nomor_pb_umku": "812011413226800720010",
        "nama": "DELIMA BRI",
        "website": "BRIDelima.id",
        "sektor": "Sektor Perdagangan, Sektor Pangan",
        "nama_perusahaan": "PERUSAHAAN PERSEROAN (PERSERO) PT. BANK RAKYAT INDONESIA",
        "tanggal_daftar": "2022-05-27",
        "nomor_tanda_daftar": "002468.06/DJAI.PSE/06/2022",
        "qr_code": "https://pse.kominfo.go.id/storage/images/qr_code/1b5afb9219e9f4d0809be6ea67baaa38.png",
        "status_id": "TERDAFTAR",
        "sistem_elektronik_id": 4163
      }
    },
    {
      "type": "tdpseTerbit",
      "id": 4363,
      "attributes": {
        "nomor_pb_umku": null,
        "nama": "BRIMO (Mobile Banking App.Bank BRI)",
        "website": "-",
        "sektor": "Sektor Keuangan, Sektor Teknologi Informasi dan Komunikasi",
        "nama_perusahaan": "PERUSAHAAN PERSEROAN (PERSERO) PT. BANK RAKYAT INDONESIA",
        "tanggal_daftar": "2022-04-28",
        "nomor_tanda_daftar": "002468.06/DJAI.PSE/04/2022",
        "qr_code": "https://pse.kominfo.go.id/storage/images/qr_code/75e577794ddf4492db6b54d92c128901.png",
        "status_id": "TERDAFTAR",
        "sistem_elektronik_id": 4349
      }
    },
    {
      "type": "tdpseTerbit",
      "id": 4049,
      "attributes": {
        "nomor_pb_umku": null,
        "nama": "BRIAPI",
        "website": "developers.bri.co.id",
        "sektor": "Sektor Keuangan, Sektor Teknologi Informasi dan Komunikasi",
        "nama_perusahaan": "PERUSAHAAN PERSEROAN (PERSERO) PT. BANK RAKYAT INDONESIA",
        "tanggal_daftar": "2022-04-27",
        "nomor_tanda_daftar": "002468.05/DJAI.PSE/04/2022",
        "qr_code": "https://pse.kominfo.go.id/storage/images/qr_code/64d344bd73c233b0a21220fc9579a282.png",
        "status_id": "TERDAFTAR",
        "sistem_elektronik_id": 3937
      }
    },
    {
      "type": "tdpseTerbit",
      "id": 4041,
      "attributes": {
        "nomor_pb_umku": null,
        "nama": "BRISPOT",
        "website": "Brispot.bri.co.id",
        "sektor": "Sektor Keuangan, Sektor Teknologi Informasi dan Komunikasi",
        "nama_perusahaan": "PERUSAHAAN PERSEROAN (PERSERO) PT. BANK RAKYAT INDONESIA",
        "tanggal_daftar": "2022-04-26",
        "nomor_tanda_daftar": "002468.04/DJAI.PSE/04/2022",
        "qr_code": "https://pse.kominfo.go.id/storage/images/qr_code/94b0aea5c27b4fb4b2b6fb4453fef30d.png",
        "status_id": "TERDAFTAR",
        "sistem_elektronik_id": 3936
      }
    }
  ]
}