{
  "meta": {
    "page": {
      "currentPage": 594,
      "from": 5931,
      "lastPage": 1097,
      "perPage": 10,
      "to": 5940,
      "total": 10962
    }
  },
  "data": [
    {
      "type": "tdpseTerbit",
      "id": 5489,
      "attributes": {
        "nomor_pb_umku": "912031619290400050001",
        "nama": "WECOPOS",
        "website": "-",
        "sektor": "Sektor Perdagangan, Sektor Teknologi Informasi dan Komunikasi",
        "nama_perusahaan": "SATRIA MEDIA TEKNOLOGI",
        "tanggal_daftar": "2022-05-25",
        "nomor_tanda_daftar": "002851.01/DJAI.PSE/05/2022",
        "qr_code": "https://pse.kominfo.go.id/storage/images/qr_code/8c90035747ca8d574643462a09ab6a04.png",
        "status_id": "TERDAFTAR",
        "sistem_elektronik_id": 4152
      }
    },
    {
      "type": "tdpseTerbit",
      "id": 4369,
      "attributes": {
        "nomor_pb_umku": "912021126128300010004",
        "nama": "TILAKA",
        "website": "tilaka.id",
        "sektor": "Sektor Teknologi Informasi dan Komunikasi",
        "nama_perusahaan": "TILAKA NUSA TEKNOLOGI",
        "tanggal_daftar": "2022-06-14",
        "nomor_tanda_daftar": "002849.01/DJAI.PSE/06/2022",
        "qr_code": "https://pse.kominfo.go.id/storage/images/qr_code/5337308bb2422480a0bec956635a343f.png",
        "status_id": "TERDAFTAR",
        "sistem_elektronik_id": 4355
      }
    },
    {
      "type": "tdpseTerbit",
      "id": 4202,
      "attributes": {
        "nomor_pb_umku": "050122002955800010001",
        "nama": "PUMA  SHOES  AND  APPAREL",
        "website": "id.puma.com",
        "sektor": "Sektor Perdagangan",
        "nama_perusahaan": "PUMA SPORTS INDONESIA",
        "tanggal_daftar": "2022-11-02",
        "nomor_tanda_daftar": "002848.02/DJAI.PSE/05/2022",
        "qr_code": "https://pse.kominfo.go.id/storage/images/qr_code/8eb00314267bf35ce76dd91cb31d8882.png",
        "status_id": "TERDAFTAR",
        "sistem_elektronik_id": 4185
      }
    },
    {
      "type": "tdpseTerbit",
      "id": 4223,
      "attributes": {
        "nomor_pb_umku": "022010166246700000001",
        "nama": "GOORITA",
        "website": "goorita.com",
        "sektor": "Sektor Perdagangan",
        "nama_perusahaan": "SEMERU INDONESIA MAJU",
        "tanggal_daftar": "2022-06-03",
        "nomor_tanda_daftar": "002845.01/DJAI.PSE/06/2022",
        "qr_code": "https://pse.kominfo.go.id/storage/images/qr_code/b30053e2718307ad8275c9c59c0fe525.png",
        "status_id": "TERDAFTAR",
        "sistem_elektronik_id": 4220
      }
    },
    {
      "type": "tdpseTerbit",
      "id": 11337,
      "attributes": {
        "nomor_pb_umku": "129900048018300380009",
        "nama": "K-WEATHER POLLUTANT CONTROL",
        "website": "-",
        "sektor": "Sektor Kesehatan, Sektor Teknologi Informasi dan Komunikasi, Sektor Pertahanan dan Keamanan",
        "nama_perusahaan": "ANNORA MULTI INTECH",
        "tanggal_daftar": "2022-09-23",
        "nomor_tanda_daftar": "002842.09/DJAI.PSE/09/2022",
        "qr_code": "https://pse.kominfo.go.id/storage/images/qr_code/245772e247d6cfbb8ca930292ecb879b.png",
        "status_id": "TERDAFTAR",
        "sistem_elektronik_id": 11151
      }
    },
    {
      "type": "tdpseTerbit",
      "id": 11319,
      "attributes": {
        "nomor_pb_umku": "129900048018300380008",
        "nama": "PUSTAKA DIGITAL (NAME OF CITY)",
        "website": "-",
        "sektor": "Sektor Teknologi Informasi dan Komunikasi",
        "nama_perusahaan": "ANNORA MULTI INTECH",
        "tanggal_daftar": "2022-09-22",
        "nomor_tanda_daftar": "002842.08/DJAI.PSE/09/2022",
        "qr_code": "https://pse.kominfo.go.id/storage/images/qr_code/4cd023dbe6f5f5d6225fa544ad85fcaa.png",
        "status_id": "TERDAFTAR",
        "sistem_elektronik_id": 11130
      }
    },
    {
      "type": "tdpseTerbit",
      "id": 11293,
      "attributes": {
        "nomor_pb_umku": "129900048018300380007",
        "nama": "OJEK ONLINE",
        "website": "-",
        "sektor": "Sektor Perdagangan, Sektor Transportasi, Sektor Teknologi Informasi dan Komunikasi",
        "nama_perusahaan": "ANNORA MULTI INTECH",
        "tanggal_daftar": "2022-09-22",
        "nomor_tanda_daftar": "002842.07/DJAI.PSE/09/2022",
        "qr_code": "https://pse.kominfo.go.id/storage/images/qr_code/6cfc0c01bd95dcd4ce0c4b3d17e7d5d4.png",
        "status_id": "TERDAFTAR",
        "sistem_elektronik_id": 11104
      }
    },
    {
      "type": "tdpseTerbit",
      "id": 11229,
      "attributes": {
        "nomor_pb_umku": "129900048018300380006",
        "nama": "NEUBAUER SMART ENERGY MANAGEMENT SYSTEM V 0.1",
        "website": "-",
        "sektor": "Sektor Teknologi Informasi dan Komunikasi, Sektor Pertahanan dan Keamanan",
        "nama_perusahaan": "ANNORA MULTI INTECH",
        "tanggal_daftar": "2022-09-16",
        "nomor_tanda_daftar": "002842.06/DJAI.PSE/09/2022",
        "qr_code": "https://pse.kominfo.go.id/storage/images/qr_code/2ac4d14a2387ebf1b4eafa75da477e8d.png",
        "status_id": "TERDAFTAR",
        "sistem_elektronik_id": 11037
      }
    },
    {
      "type": "tdpseTerbit",
      "id": 8921,
      "attributes": {
        "nomor_pb_umku": "129900048018300380005",
        "nama": "ANNORA AIR QUALITY MONITORING SYSTEM",
        "website": "-",
        "sektor": "Sektor Teknologi Informasi dan Komunikasi, Sektor Pertahanan dan Keamanan",
        "nama_perusahaan": "ANNORA MULTI INTECH",
        "tanggal_daftar": "2022-07-23",
        "nomor_tanda_daftar": "002842.05/DJAI.PSE/07/2022",
        "qr_code": "https://pse.kominfo.go.id/storage/images/qr_code/21c899b6b7ec6441d8c10759f7b7593f.png",
        "status_id": "TERDAFTAR",
        "sistem_elektronik_id": 8827
      }
    },
    {
      "type": "tdpseTerbit",
      "id": 8920,
      "attributes": {
        "nomor_pb_umku": "129900048018300380004",
        "nama": "KATALOG HEMATECH",
        "website": "-",
        "sektor": "Sektor Perdagangan",
        "nama_perusahaan": "ANNORA MULTI INTECH",
        "tanggal_daftar": "2022-07-23",
        "nomor_tanda_daftar": "002842.04/DJAI.PSE/07/2022",
        "qr_code": "https://pse.kominfo.go.id/storage/images/qr_code/5f308b85fc2a4d7f10b156c419e86559.png",
        "status_id": "TERDAFTAR",
        "sistem_elektronik_id": 8826
      }
    }
  ]
}