{
  "meta": {
    "page": {
      "currentPage": 596,
      "from": 5951,
      "lastPage": 1038,
      "perPage": 10,
      "to": 5960,
      "total": 10380
    }
  },
  "data": [
    {
      "type": "tdpseTerbit",
      "id": 3742,
      "attributes": {
        "nomor_pb_umku": null,
        "nama": "RN Studio",
        "website": "reeztro.com",
        "sektor": "Sektor Teknologi Informasi dan Komunikasi",
        "nama_perusahaan": "RISMAWAN",
        "tanggal_daftar": "2022-04-01",
        "nomor_tanda_daftar": "002430.01/DJAI.PSE/04/2022",
        "qr_code": "https://pse.kominfo.go.id/storage/images/qr_code/4e7ddc9dabb8d32360ee946cd7a93401.png",
        "status_id": "TERDAFTAR",
        "sistem_elektronik_id": 3490
      }
    },
    {
      "type": "tdpseTerbit",
      "id": 3738,
      "attributes": {
        "nomor_pb_umku": null,
        "nama": "GUDANG FURNITURE",
        "website": "gudangfurniture.com",
        "sektor": "Sektor Perdagangan",
        "nama_perusahaan": "SAPTAKARSA PRIMA",
        "tanggal_daftar": "2022-04-01",
        "nomor_tanda_daftar": "002429.01/DJAI.PSE/04/2022",
        "qr_code": "https://pse.kominfo.go.id/storage/images/qr_code/8777aff4655aaab7678cdc16bd811b51.png",
        "status_id": "TERDAFTAR",
        "sistem_elektronik_id": 3569
      }
    },
    {
      "type": "tdpseTerbit",
      "id": 3736,
      "attributes": {
        "nomor_pb_umku": null,
        "nama": "HUNGRYY",
        "website": "hungryy.id",
        "sektor": "Sektor Pangan, Sektor Teknologi Informasi dan Komunikasi",
        "nama_perusahaan": "HUNGRYY SERVICES INDONESIA",
        "tanggal_daftar": "2022-04-01",
        "nomor_tanda_daftar": "002428.01/DJAI.PSE/04/2022",
        "qr_code": "https://pse.kominfo.go.id/storage/images/qr_code/20b9c6fe57702640e461aa25c1eed5e9.png",
        "status_id": "TERDAFTAR",
        "sistem_elektronik_id": 3637
      }
    },
    {
      "type": "tdpseTerbit",
      "id": 3735,
      "attributes": {
        "nomor_pb_umku": null,
        "nama": "juraganmaterial.id",
        "website": "juraganmaterial.id",
        "sektor": "Sektor Perdagangan, Sektor Teknologi Informasi dan Komunikasi, Sektor Transportasi",
        "nama_perusahaan": "ANEKA JURAGAN MATERIAL",
        "tanggal_daftar": "2022-04-01",
        "nomor_tanda_daftar": "002427.01/DJAI.PSE/04/2022",
        "qr_code": "https://pse.kominfo.go.id/storage/images/qr_code/a68e2020264f6013601444e3a7082e23.png",
        "status_id": "TERDAFTAR",
        "sistem_elektronik_id": 3599
      }
    },
    {
      "type": "tdpseTerbit",
      "id": 3733,
      "attributes": {
        "nomor_pb_umku": null,
        "nama": "Payment Aggregator IND",
        "website": "https://www.pay2u.co.id/",
        "sektor": "Sektor Keuangan",
        "nama_perusahaan": "INDO NUSA DANA",
        "tanggal_daftar": "2022-04-01",
        "nomor_tanda_daftar": "002426.01/DJAI.PSE/04/2022",
        "qr_code": "https://pse.kominfo.go.id/storage/images/qr_code/71e8fb6e8dd256d361ecc1a102b6c6f6.png",
        "status_id": "TERDAFTAR",
        "sistem_elektronik_id": 3568
      }
    },
    {
      "type": "tdpseTerbit",
      "id": 3732,
      "attributes": {
        "nomor_pb_umku": null,
        "nama": "Lotte Grosir",
        "website": "-",
        "sektor": "Sektor Perdagangan",
        "nama_perusahaan": "LOTTE SHOPPING INDONESIA",
        "tanggal_daftar": "2022-04-01",
        "nomor_tanda_daftar": "002425.01/DJAI.PSE/04/2022",
        "qr_code": "https://pse.kominfo.go.id/storage/images/qr_code/0038e24ff034c9a834766d672404c699.png",
        "status_id": "TERDAFTAR",
        "sistem_elektronik_id": 3646
      }
    },
    {
      "type": "tdpseTerbit",
      "id": 3731,
      "attributes": {
        "nomor_pb_umku": null,
        "nama": "Wolacom Commercial",
        "website": "wolacom.com",
        "sektor": "Sektor Perdagangan",
        "nama_perusahaan": "LIM, ANTON YUWONO",
        "tanggal_daftar": "2022-03-31",
        "nomor_tanda_daftar": "002424.02/DJAI.PSE/03/2022",
        "qr_code": "https://pse.kominfo.go.id/storage/images/qr_code/3e0bfca48189a136171f4a19cdc77ba0.png",
        "status_id": "TERDAFTAR",
        "sistem_elektronik_id": 3573
      }
    },
    {
      "type": "tdpseTerbit",
      "id": 3730,
      "attributes": {
        "nomor_pb_umku": null,
        "nama": "wolacom",
        "website": "wolacom.com",
        "sektor": "Sektor Perdagangan, Sektor Teknologi Informasi dan Komunikasi",
        "nama_perusahaan": "LIM, ANTON YUWONO",
        "tanggal_daftar": "2022-03-31",
        "nomor_tanda_daftar": "002424.01/DJAI.PSE/03/2022",
        "qr_code": "https://pse.kominfo.go.id/storage/images/qr_code/98c171ea4b6ecf34a6f46a3914f8132e.png",
        "status_id": "TERDAFTAR",
        "sistem_elektronik_id": 3572
      }
    },
    {
      "type": "tdpseTerbit",
      "id": 5209,
      "attributes": {
        "nomor_pb_umku": "912040688017700010009",
        "nama": "MY LIFE SYARIAH",
        "website": "-",
        "sektor": "Sektor Keuangan",
        "nama_perusahaan": "ASURANSI BRI LIFE",
        "tanggal_daftar": "2022-07-08",
        "nomor_tanda_daftar": "002423.09/DJAI.PSE/07/2022",
        "qr_code": "https://pse.kominfo.go.id/storage/images/qr_code/c1ace02ecfc6ed0dcd927bd319b93487.png",
        "status_id": "TERDAFTAR",
        "sistem_elektronik_id": 5080
      }
    },
    {
      "type": "tdpseTerbit",
      "id": 5206,
      "attributes": {
        "nomor_pb_umku": "912040688017700010008",
        "nama": "MY CUSTOMER SYARIAH",
        "website": "-",
        "sektor": "Sektor Keuangan",
        "nama_perusahaan": "ASURANSI BRI LIFE",
        "tanggal_daftar": "2022-07-08",
        "nomor_tanda_daftar": "002423.08/DJAI.PSE/07/2022",
        "qr_code": "https://pse.kominfo.go.id/storage/images/qr_code/9d1e72d02fa32f727f1b55b3e1ec6477.png",
        "status_id": "TERDAFTAR",
        "sistem_elektronik_id": 5077
      }
    }
  ]
}