{
  "meta": {
    "page": {
      "currentPage": 597,
      "from": 5961,
      "lastPage": 1097,
      "perPage": 10,
      "to": 5970,
      "total": 10962
    }
  },
  "data": [
    {
      "type": "tdpseTerbit",
      "id": 4385,
      "attributes": {
        "nomor_pb_umku": "110122003815800000001",
        "nama": "CARIBARANG.ID",
        "website": "caribarang.id",
        "sektor": "Sektor Perdagangan, Sektor Transportasi",
        "nama_perusahaan": "DIGITAL TRADING SOLUSINDO",
        "tanggal_daftar": "2022-06-14",
        "nomor_tanda_daftar": "002809.01/DJAI.PSE/06/2022",
        "qr_code": "https://pse.kominfo.go.id/storage/images/qr_code/597fd420649e5c3c0b1d02071a4bc7f3.png",
        "status_id": "TERDAFTAR",
        "sistem_elektronik_id": 4369
      }
    },
    {
      "type": "tdpseTerbit",
      "id": 4210,
      "attributes": {
        "nomor_pb_umku": "022020573214500040002",
        "nama": "TDC DIGITAL",
        "website": "tdcdigital.id",
        "sektor": "Sektor Teknologi Informasi dan Komunikasi",
        "nama_perusahaan": "TRANS DIGITAL CEMERLANG",
        "tanggal_daftar": "2022-06-02",
        "nomor_tanda_daftar": "002808.01/DJAI.PSE/06/2022",
        "qr_code": "https://pse.kominfo.go.id/storage/images/qr_code/990a05ae127fed5a9336b65f06b4386b.png",
        "status_id": "TERDAFTAR",
        "sistem_elektronik_id": 4209
      }
    },
    {
      "type": "tdpseTerbit",
      "id": 6493,
      "attributes": {
        "nomor_pb_umku": "9120100870365000000003",
        "nama": "INSPIRASIBIZ",
        "website": "inspirasi.biz",
        "sektor": "Sektor Perdagangan, Sektor Teknologi Informasi dan Komunikasi",
        "nama_perusahaan": "INSPIRASI MEDIA KREATIF",
        "tanggal_daftar": "2022-07-18",
        "nomor_tanda_daftar": "002807.03/DJAI.PSE/07/2022",
        "qr_code": "https://pse.kominfo.go.id/storage/images/qr_code/0e14432360608408318aa27d6c756c63.png",
        "status_id": "TERDAFTAR",
        "sistem_elektronik_id": 6359
      }
    },
    {
      "type": "tdpseTerbit",
      "id": 4121,
      "attributes": {
        "nomor_pb_umku": "912010087036500000002",
        "nama": "KETOKO.STORE",
        "website": "ketoko.store",
        "sektor": "Sektor Perdagangan, Sektor Teknologi Informasi dan Komunikasi",
        "nama_perusahaan": "INSPIRASI MEDIA KREATIF",
        "tanggal_daftar": "2022-05-24",
        "nomor_tanda_daftar": "002807.02/DJAI.PSE/05/2022",
        "qr_code": "https://pse.kominfo.go.id/storage/images/qr_code/3ccd276b624c4144dd9bfd76194837cd.png",
        "status_id": "TERDAFTAR",
        "sistem_elektronik_id": 4122
      }
    },
    {
      "type": "tdpseTerbit",
      "id": 4120,
      "attributes": {
        "nomor_pb_umku": "912010087036500000001",
        "nama": "KETOKO.CO.ID",
        "website": "pos.ketoko.co.id",
        "sektor": "Sektor Teknologi Informasi dan Komunikasi",
        "nama_perusahaan": "INSPIRASI MEDIA KREATIF",
        "tanggal_daftar": "2022-05-24",
        "nomor_tanda_daftar": "002807.01/DJAI.PSE/05/2022",
        "qr_code": "https://pse.kominfo.go.id/storage/images/qr_code/d6166324742e163ebff23474c914d181.png",
        "status_id": "TERDAFTAR",
        "sistem_elektronik_id": 4121
      }
    },
    {
      "type": "tdpseTerbit",
      "id": 9978,
      "attributes": {
        "nomor_pb_umku": "230522003035900000001",
        "nama": "FAZMO",
        "website": "fazmo.id",
        "sektor": "Sektor Teknologi Informasi dan Komunikasi",
        "nama_perusahaan": "FAZMO DANA SEJAHTERA",
        "tanggal_daftar": "2022-08-05",
        "nomor_tanda_daftar": "002806.01/DJAI.PSE/08/2022",
        "qr_code": "https://pse.kominfo.go.id/storage/images/qr_code/001745b2b039212d034876248069806b.png",
        "status_id": "TERDAFTAR",
        "sistem_elektronik_id": 9866
      }
    },
    {
      "type": "tdpseTerbit",
      "id": 4146,
      "attributes": {
        "nomor_pb_umku": "128700020064700000002",
        "nama": "JEMPOL KIOS",
        "website": "jempolkios.co.id",
        "sektor": "Sektor Teknologi Informasi dan Komunikasi",
        "nama_perusahaan": "MITRA DISTRIBUSI UTAMA",
        "tanggal_daftar": "2022-05-25",
        "nomor_tanda_daftar": "002805.01/DJAI.PSE/05/2022",
        "qr_code": "https://pse.kominfo.go.id/storage/images/qr_code/4d9742ed49211eda63ae59a58792d403.png",
        "status_id": "TERDAFTAR",
        "sistem_elektronik_id": 4149
      }
    },
    {
      "type": "tdpseTerbit",
      "id": 4119,
      "attributes": {
        "nomor_pb_umku": "280322001551600010001",
        "nama": "DATA ANALIS",
        "website": "-",
        "sektor": "Sektor Teknologi Informasi dan Komunikasi",
        "nama_perusahaan": "KUKUK SETYO PRAYOGI,S.KOM",
        "tanggal_daftar": "2022-05-24",
        "nomor_tanda_daftar": "002798.01/DJAI.PSE/05/2022",
        "qr_code": "https://pse.kominfo.go.id/storage/images/qr_code/068f0e5875f91b05198ae6f1e08a5da6.png",
        "status_id": "TERDAFTAR",
        "sistem_elektronik_id": 4120
      }
    },
    {
      "type": "tdpseTerbit",
      "id": 4673,
      "attributes": {
        "nomor_pb_umku": "912050372245100000001",
        "nama": "AIYO",
        "website": "aiyo.id",
        "sektor": "Sektor Teknologi Informasi dan Komunikasi",
        "nama_perusahaan": "DUNIA BAYAR INDONESIA",
        "tanggal_daftar": "2022-06-23",
        "nomor_tanda_daftar": "002796.02/DJAI.PSE/06/2022",
        "qr_code": "https://pse.kominfo.go.id/storage/images/qr_code/ae80bf3f718bd272bed1eef9b9b4ddfd.png",
        "status_id": "TERDAFTAR",
        "sistem_elektronik_id": 4632
      }
    },
    {
      "type": "tdpseTerbit",
      "id": 4175,
      "attributes": {
        "nomor_pb_umku": "022000165069800000002",
        "nama": "LINOVHR CLOUD",
        "website": "linovhr.com",
        "sektor": "Sektor Teknologi Informasi dan Komunikasi",
        "nama_perusahaan": "LINOV ROKET PRESTASI",
        "tanggal_daftar": "2022-05-30",
        "nomor_tanda_daftar": "002795.02/DJAI.PSE/05/2022",
        "qr_code": "https://pse.kominfo.go.id/storage/images/qr_code/675dd0e8e8a70f61bdfd4b063c62cc3d.png",
        "status_id": "TERDAFTAR",
        "sistem_elektronik_id": 4177
      }
    }
  ]
}