{
  "meta": {
    "page": {
      "currentPage": 600,
      "from": 5991,
      "lastPage": 923,
      "perPage": 10,
      "to": 6000,
      "total": 9227
    }
  },
  "data": [
    {
      "type": "tdpseTerbit",
      "id": 2496,
      "attributes": {
        "nomor_pb_umku": null,
        "nama": "KMICloud",
        "website": "telecoindo.com",
        "sektor": "Sektor Teknologi Informasi dan Komunikasi",
        "nama_perusahaan": "KMI CIOUD INDONESIA",
        "tanggal_daftar": "2021-11-29",
        "nomor_tanda_daftar": "001649.01/DJAI.PSE/11/2021",
        "qr_code": "https://pse.kominfo.go.id/storage/images/qr_code/347af8e26f58582ffa18c5bfa0eaea43.png",
        "status_id": "TERDAFTAR",
        "sistem_elektronik_id": 1373
      }
    },
    {
      "type": "tdpseTerbit",
      "id": 2495,
      "attributes": {
        "nomor_pb_umku": null,
        "nama": "Motorola Solutions",
        "website": "www.nexcom.co.id",
        "sektor": "Sektor Perdagangan",
        "nama_perusahaan": "NEXCOM INDONESIA",
        "tanggal_daftar": "2021-11-29",
        "nomor_tanda_daftar": "001648.01/DJAI.PSE/11/2021",
        "qr_code": "https://pse.kominfo.go.id/storage/images/qr_code/b3b147b13b25459638e6490fd19bd8b2.png",
        "status_id": "TERDAFTAR",
        "sistem_elektronik_id": 1726
      }
    },
    {
      "type": "tdpseTerbit",
      "id": 2493,
      "attributes": {
        "nomor_pb_umku": null,
        "nama": "PT. ASET DIGITAL INDONESIA",
        "website": "www.incrypto.co.id",
        "sektor": "Sektor Perdagangan",
        "nama_perusahaan": "ASET DIGITAL INDONESIA",
        "tanggal_daftar": "2021-11-29",
        "nomor_tanda_daftar": "001647.01/DJAI.PSE/11/2021",
        "qr_code": "https://pse.kominfo.go.id/storage/images/qr_code/aee1fe314a8306845a5c17e39b6d9b1c.png",
        "status_id": "TERDAFTAR",
        "sistem_elektronik_id": 1599
      }
    },
    {
      "type": "tdpseTerbit",
      "id": 2491,
      "attributes": {
        "nomor_pb_umku": null,
        "nama": "JASA LAYANAN PENJUALAN TRANSAKSI",
        "website": "https://agampayment.id",
        "sektor": "Sektor Perdagangan",
        "nama_perusahaan": "AGAM MEDIA TEKNOLOGI",
        "tanggal_daftar": "2021-11-29",
        "nomor_tanda_daftar": "001646.01/DJAI.PSE/11/2021",
        "qr_code": "https://pse.kominfo.go.id/storage/images/qr_code/ce29d939e6216cd0636bdb77c55799a7.png",
        "status_id": "TERDAFTAR",
        "sistem_elektronik_id": 1729
      }
    },
    {
      "type": "tdpseTerbit",
      "id": 2488,
      "attributes": {
        "nomor_pb_umku": null,
        "nama": "NEXAA KONTEN INDONESIA",
        "website": "www.nexaa.co.id",
        "sektor": "Sektor Teknologi Informasi dan Komunikasi",
        "nama_perusahaan": "NEXAA KONTEN INDONESIA",
        "tanggal_daftar": "2021-11-29",
        "nomor_tanda_daftar": "001645.01/DJAI.PSE/11/2021",
        "qr_code": "https://pse.kominfo.go.id/storage/images/qr_code/012e45a07df92f6a0b984a996163b843.png",
        "status_id": "TERDAFTAR",
        "sistem_elektronik_id": 2822
      }
    },
    {
      "type": "tdpseTerbit",
      "id": 2485,
      "attributes": {
        "nomor_pb_umku": null,
        "nama": "INISA",
        "website": "https://www.dpi.id/",
        "sektor": "Sektor Teknologi Informasi dan Komunikasi",
        "nama_perusahaan": "DIGITAL PEMERINTAHAN INDONESIA",
        "tanggal_daftar": "2021-11-29",
        "nomor_tanda_daftar": "001644.01/DJAI.PSE/11/2021",
        "qr_code": "https://pse.kominfo.go.id/storage/images/qr_code/343238649bb02a8c1006647cbe31e64b.png",
        "status_id": "TERDAFTAR",
        "sistem_elektronik_id": 1566
      }
    },
    {
      "type": "tdpseTerbit",
      "id": 2484,
      "attributes": {
        "nomor_pb_umku": null,
        "nama": "CV. Gudang Solusi",
        "website": "dekoku.com",
        "sektor": "Sektor Perdagangan, Sektor Teknologi Informasi dan Komunikasi",
        "nama_perusahaan": "GUDANG SOLUSI",
        "tanggal_daftar": "2021-11-29",
        "nomor_tanda_daftar": "001643.01/DJAI.PSE/11/2021",
        "qr_code": "https://pse.kominfo.go.id/storage/images/qr_code/901729e57ba20ba260781069396f26c8.png",
        "status_id": "TERDAFTAR",
        "sistem_elektronik_id": 1713
      }
    },
    {
      "type": "tdpseTerbit",
      "id": 2483,
      "attributes": {
        "nomor_pb_umku": null,
        "nama": "Mysave",
        "website": "www.mysave.id",
        "sektor": "Sektor Perdagangan, Sektor Teknologi Informasi dan Komunikasi",
        "nama_perusahaan": "MYSAVE GLOBAL INDONESIA",
        "tanggal_daftar": "2021-11-29",
        "nomor_tanda_daftar": "001642.01/DJAI.PSE/11/2021",
        "qr_code": "https://pse.kominfo.go.id/storage/images/qr_code/12068249b96d9731e5a3441c9c5cdd4c.png",
        "status_id": "TERDAFTAR",
        "sistem_elektronik_id": 1582
      }
    },
    {
      "type": "tdpseTerbit",
      "id": 2482,
      "attributes": {
        "nomor_pb_umku": null,
        "nama": "PT. Simplay Abyakta Mediatek",
        "website": "simplay.co.id",
        "sektor": "Sektor Perdagangan, Sektor Teknologi Informasi dan Komunikasi",
        "nama_perusahaan": "SIMPLAY ABYAKTA MEDIATEK",
        "tanggal_daftar": "2021-11-29",
        "nomor_tanda_daftar": "001641.01/DJAI.PSE/11/2021",
        "qr_code": "https://pse.kominfo.go.id/storage/images/qr_code/03fb96193125dddf4eba5df3257b20e7.png",
        "status_id": "TERDAFTAR",
        "sistem_elektronik_id": 1715
      }
    },
    {
      "type": "tdpseTerbit",
      "id": 3135,
      "attributes": {
        "nomor_pb_umku": null,
        "nama": "SEVIMA Edlink",
        "website": "edlink.id",
        "sektor": "Sektor Teknologi Informasi dan Komunikasi",
        "nama_perusahaan": "SENTRA VIDYA UTAMA",
        "tanggal_daftar": "2022-01-31",
        "nomor_tanda_daftar": "001640.04/DJAI.PSE/01/2022",
        "qr_code": "https://pse.kominfo.go.id/storage/images/qr_code/66061f047ff1a66a4f15340f827ce728.png",
        "status_id": "TERDAFTAR",
        "sistem_elektronik_id": 1719
      }
    }
  ]
}