{
  "meta": {
    "page": {
      "currentPage": 7,
      "from": 61,
      "lastPage": 1113,
      "perPage": 10,
      "to": 70,
      "total": 11124
    }
  },
  "data": [
    {
      "type": "tdpseTerbit",
      "id": 12341,
      "attributes": {
        "nomor_pb_umku": "081122003760700000001",
        "nama": "APLIKASI ABSENSI MOBILE APARATUR",
        "website": "-",
        "sektor": "Sektor Perdagangan, Sektor Teknologi Informasi dan Komunikasi",
        "nama_perusahaan": "GORONTALO INFORMATIKA",
        "tanggal_daftar": "2022-11-17",
        "nomor_tanda_daftar": "008503.01/DJAI.PSE/11/2022",
        "qr_code": "https://pse.kominfo.go.id/storage/images/qr_code/1f52140fdb45fee27bbd79c47a48b4cd.png",
        "status_id": "TERDAFTAR",
        "sistem_elektronik_id": 12135
      }
    },
    {
      "type": "tdpseTerbit",
      "id": 12342,
      "attributes": {
        "nomor_pb_umku": "161122008865100000002",
        "nama": "UBEEKA STARTUP,TEMANHAJI,ANTARSAJA,DEPOAIR ONLINE,SPP,SAMBILAN",
        "website": "ubk.web.id",
        "sektor": "Sektor Perdagangan, Sektor Teknologi Informasi dan Komunikasi, Sektor Pangan",
        "nama_perusahaan": "USAHA BERSAMA KOMUNITAS INTERNASIONAL",
        "tanggal_daftar": "2022-11-17",
        "nomor_tanda_daftar": "008502.02/DJAI.PSE/11/2022",
        "qr_code": "https://pse.kominfo.go.id/storage/images/qr_code/0c3d1ebe2d180f79c5f6dc82b482fbe7.png",
        "status_id": "TERDAFTAR",
        "sistem_elektronik_id": 12137
      }
    },
    {
      "type": "tdpseTerbit",
      "id": 12339,
      "attributes": {
        "nomor_pb_umku": "161122008865100000001",
        "nama": "MYCLNQ HEALTHY INDONESIA",
        "website": "myclnq.co",
        "sektor": "Sektor Kesehatan",
        "nama_perusahaan": "USAHA BERSAMA KOMUNITAS INTERNASIONAL",
        "tanggal_daftar": "2022-11-16",
        "nomor_tanda_daftar": "008502.01/DJAI.PSE/11/2022",
        "qr_code": "https://pse.kominfo.go.id/storage/images/qr_code/21697ff7429eb34455d47d965db76071.png",
        "status_id": "TERDAFTAR",
        "sistem_elektronik_id": 12133
      }
    },
    {
      "type": "tdpseTerbit",
      "id": 12340,
      "attributes": {
        "nomor_pb_umku": "141122007539300010001",
        "nama": "AKUN M.I.M",
        "website": "mim.my.id",
        "sektor": "Sektor Teknologi Informasi dan Komunikasi",
        "nama_perusahaan": "CITRA AKSARA UTAMA",
        "tanggal_daftar": "2022-11-16",
        "nomor_tanda_daftar": "008501.01/DJAI.PSE/11/2022",
        "qr_code": "https://pse.kominfo.go.id/storage/images/qr_code/3d0f1c92871d195c30e5e32c6e2a1fa7.png",
        "status_id": "TERDAFTAR",
        "sistem_elektronik_id": 12134
      }
    },
    {
      "type": "tdpseTerbit",
      "id": 12366,
      "attributes": {
        "nomor_pb_umku": "812010593006300020089",
        "nama": "PHILIPS ECOLINK",
        "website": "ecolink.lighting",
        "sektor": "Sektor Perdagangan, Sektor Teknologi Informasi dan Komunikasi",
        "nama_perusahaan": "SIGNIFY COMMERCIAL INDONESIA",
        "tanggal_daftar": "2022-11-17",
        "nomor_tanda_daftar": "008500.09/DJAI.PSE/11/2022",
        "qr_code": "https://pse.kominfo.go.id/storage/images/qr_code/b463bb29af2a3dc6f7d53cf7eda4ec67.png",
        "status_id": "TERDAFTAR",
        "sistem_elektronik_id": 12161
      }
    },
    {
      "type": "tdpseTerbit",
      "id": 12365,
      "attributes": {
        "nomor_pb_umku": "812010593006300020088",
        "nama": "PHILIPS ECLAIM",
        "website": "apacsmart.com",
        "sektor": "Sektor Perdagangan, Sektor Teknologi Informasi dan Komunikasi",
        "nama_perusahaan": "SIGNIFY COMMERCIAL INDONESIA",
        "tanggal_daftar": "2022-11-17",
        "nomor_tanda_daftar": "008500.08/DJAI.PSE/11/2022",
        "qr_code": "https://pse.kominfo.go.id/storage/images/qr_code/429ba5c5602841248e5811db29e18f3e.png",
        "status_id": "TERDAFTAR",
        "sistem_elektronik_id": 12160
      }
    },
    {
      "type": "tdpseTerbit",
      "id": 12364,
      "attributes": {
        "nomor_pb_umku": "812010593006300020087",
        "nama": "PHILIPS ARWEB",
        "website": "apacsmart.com",
        "sektor": "Sektor Teknologi Informasi dan Komunikasi",
        "nama_perusahaan": "SIGNIFY COMMERCIAL INDONESIA",
        "tanggal_daftar": "2022-11-17",
        "nomor_tanda_daftar": "008500.07/DJAI.PSE/11/2022",
        "qr_code": "https://pse.kominfo.go.id/storage/images/qr_code/35fe87914b1e70b80f54e4ead694b6a4.png",
        "status_id": "TERDAFTAR",
        "sistem_elektronik_id": 12159
      }
    },
    {
      "type": "tdpseTerbit",
      "id": 12363,
      "attributes": {
        "nomor_pb_umku": "812010593006300020086",
        "nama": "PHILIPS LIGHTING E-SHOP",
        "website": "eshop.lighting.philips.com",
        "sektor": "Sektor Perdagangan, Sektor Teknologi Informasi dan Komunikasi",
        "nama_perusahaan": "SIGNIFY COMMERCIAL INDONESIA",
        "tanggal_daftar": "2022-11-17",
        "nomor_tanda_daftar": "008500.06/DJAI.PSE/11/2022",
        "qr_code": "https://pse.kominfo.go.id/storage/images/qr_code/a372520733b55f908fbf6441fa87cd98.png",
        "status_id": "TERDAFTAR",
        "sistem_elektronik_id": 12158
      }
    },
    {
      "type": "tdpseTerbit",
      "id": 12362,
      "attributes": {
        "nomor_pb_umku": "812010593006300020085",
        "nama": "SIGNIFY FUNNEL MANAGEMENT (SFM)",
        "website": "specifierclub.signify.com",
        "sektor": "Sektor Perdagangan, Sektor Teknologi Informasi dan Komunikasi",
        "nama_perusahaan": "SIGNIFY COMMERCIAL INDONESIA",
        "tanggal_daftar": "2022-11-17",
        "nomor_tanda_daftar": "008500.05/DJAI.PSE/11/2022",
        "qr_code": "https://pse.kominfo.go.id/storage/images/qr_code/39e47e44d746b06ff175c8da34a5f5df.png",
        "status_id": "TERDAFTAR",
        "sistem_elektronik_id": 12157
      }
    },
    {
      "type": "tdpseTerbit",
      "id": 12347,
      "attributes": {
        "nomor_pb_umku": "812010593006300020084",
        "nama": "SIGNIFY SPECIFIER CLUB (SSC)",
        "website": "specifierclub.signify.com",
        "sektor": "Sektor Teknologi Informasi dan Komunikasi",
        "nama_perusahaan": "SIGNIFY COMMERCIAL INDONESIA",
        "tanggal_daftar": "2022-11-17",
        "nomor_tanda_daftar": "008500.04/DJAI.PSE/11/2022",
        "qr_code": "https://pse.kominfo.go.id/storage/images/qr_code/c2476f8f2b82ba0cc612443470b731ba.png",
        "status_id": "TERDAFTAR",
        "sistem_elektronik_id": 12142
      }
    }
  ]
}