{
  "meta": {
    "page": {
      "currentPage": 61,
      "from": 601,
      "lastPage": 903,
      "perPage": 10,
      "to": 610,
      "total": 9025
    }
  },
  "data": [
    {
      "type": "tdpseTerbit",
      "id": 8704,
      "attributes": {
        "nomor_pb_umku": "240921001659900030001",
        "nama": "LOGINUNIVERSE.ID",
        "website": "loginuniverse.id",
        "sektor": "Sektor Perdagangan, Sektor Kesehatan, Sektor Teknologi Informasi dan Komunikasi, Sektor Pangan",
        "nama_perusahaan": "UNIVERSAL HERBA TEKNOLOGI",
        "tanggal_daftar": "2022-07-21",
        "nomor_tanda_daftar": "006081.01/DJAI.PSE/07/2022",
        "qr_code": "https://pse.kominfo.go.id/storage/images/qr_code/90b6f94a9e5b99988f1a8e550c31c9b0.png",
        "status_id": "TERDAFTAR",
        "sistem_elektronik_id": 8623
      }
    },
    {
      "type": "tdpseTerbit",
      "id": 8702,
      "attributes": {
        "nomor_pb_umku": "912010383114100000001",
        "nama": "ONKLAS",
        "website": "ONKLAS.ID",
        "sektor": "Sektor Teknologi Informasi dan Komunikasi",
        "nama_perusahaan": "ONKLAS PRIMA INDONESIA",
        "tanggal_daftar": "2022-07-21",
        "nomor_tanda_daftar": "006080.01/DJAI.PSE/07/2022",
        "qr_code": "https://pse.kominfo.go.id/storage/images/qr_code/dc3fc07a091ebe9fe085ce0cb03d8083.png",
        "status_id": "TERDAFTAR",
        "sistem_elektronik_id": 8620
      }
    },
    {
      "type": "tdpseTerbit",
      "id": 8707,
      "attributes": {
        "nomor_pb_umku": "022010388097100010002",
        "nama": "MAKMUR INVESTMENT SYSTEM",
        "website": "makmur.id",
        "sektor": "Sektor Keuangan",
        "nama_perusahaan": "INOVASI FINANSIAL TEKNOLOGI",
        "tanggal_daftar": "2022-07-21",
        "nomor_tanda_daftar": "006079.01/DJAI.PSE/07/2022",
        "qr_code": "https://pse.kominfo.go.id/storage/images/qr_code/df2dc0d29d1ca8615db69eee3ada0a25.png",
        "status_id": "TERDAFTAR",
        "sistem_elektronik_id": 8625
      }
    },
    {
      "type": "tdpseTerbit",
      "id": 8705,
      "attributes": {
        "nomor_pb_umku": "210722008000600000001",
        "nama": "WEBPORTAL MARKETING MOTOR",
        "website": "marketing-motor.com",
        "sektor": "Sektor Teknologi Informasi dan Komunikasi",
        "nama_perusahaan": "HANTORO ADI UTOMO",
        "tanggal_daftar": "2022-07-21",
        "nomor_tanda_daftar": "006078.01/DJAI.PSE/07/2022",
        "qr_code": "https://pse.kominfo.go.id/storage/images/qr_code/48a53a5cb17c7a6f947826e1ac43d6df.png",
        "status_id": "TERDAFTAR",
        "sistem_elektronik_id": 8624
      }
    },
    {
      "type": "tdpseTerbit",
      "id": 8699,
      "attributes": {
        "nomor_pb_umku": "210722008117800010001",
        "nama": "BEAUTY BY LANS",
        "website": "beautybylans.com",
        "sektor": "Sektor Perdagangan",
        "nama_perusahaan": "BEAUTY LANS INDONESIA",
        "tanggal_daftar": "2022-07-21",
        "nomor_tanda_daftar": "006077.01/DJAI.PSE/07/2022",
        "qr_code": "https://pse.kominfo.go.id/storage/images/qr_code/8091fee4cd7b8109772293c3cc569330.png",
        "status_id": "TERDAFTAR",
        "sistem_elektronik_id": 8619
      }
    },
    {
      "type": "tdpseTerbit",
      "id": 8698,
      "attributes": {
        "nomor_pb_umku": "022010366276300010001",
        "nama": "ROPEL ID",
        "website": "ropel.id",
        "sektor": "Sektor Teknologi Informasi dan Komunikasi",
        "nama_perusahaan": "SETIA USAHA BERSAMA",
        "tanggal_daftar": "2022-07-21",
        "nomor_tanda_daftar": "006076.01/DJAI.PSE/07/2022",
        "qr_code": "https://pse.kominfo.go.id/storage/images/qr_code/87a032b9931f2fbe9b0125fe9fa365b8.png",
        "status_id": "TERDAFTAR",
        "sistem_elektronik_id": 8617
      }
    },
    {
      "type": "tdpseTerbit",
      "id": 8701,
      "attributes": {
        "nomor_pb_umku": "210722007842300000001",
        "nama": "BKIIOS",
        "website": "bkiios.com",
        "sektor": "Sektor Perdagangan",
        "nama_perusahaan": "NOVITA TANTRI ROB'BIATIN",
        "tanggal_daftar": "2022-07-21",
        "nomor_tanda_daftar": "006075.02/DJAI.PSE/07/2022",
        "qr_code": "https://pse.kominfo.go.id/storage/images/qr_code/9b3f120bc9774955666cc37ffe5afd04.png",
        "status_id": "TERDAFTAR",
        "sistem_elektronik_id": 8621
      }
    },
    {
      "type": "tdpseTerbit",
      "id": 8697,
      "attributes": {
        "nomor_pb_umku": "031121004258400050002",
        "nama": "MOBILE APP SELMA",
        "website": "selma.co.id",
        "sektor": "Sektor Perdagangan, Sektor Teknologi Informasi dan Komunikasi",
        "nama_perusahaan": "HOME CENTER INDONESIA RETAIL",
        "tanggal_daftar": "2022-07-21",
        "nomor_tanda_daftar": "006073.01/DJAI.PSE/07/2022",
        "qr_code": "https://pse.kominfo.go.id/storage/images/qr_code/32d43d5d288039ca5a99a46d5303ecb9.png",
        "status_id": "TERDAFTAR",
        "sistem_elektronik_id": 8615
      }
    },
    {
      "type": "tdpseTerbit",
      "id": 8712,
      "attributes": {
        "nomor_pb_umku": "200722007919900000001",
        "nama": "DESAPOLITAN",
        "website": "-",
        "sektor": "Sektor Perdagangan, Sektor Keuangan, Sektor Teknologi Informasi dan Komunikasi",
        "nama_perusahaan": "FAHRI EKA JAYA",
        "tanggal_daftar": "2022-07-21",
        "nomor_tanda_daftar": "006072.01/DJAI.PSE/07/2022",
        "qr_code": "https://pse.kominfo.go.id/storage/images/qr_code/672d862e2f2340e0be5b0dbc42565578.png",
        "status_id": "TERDAFTAR",
        "sistem_elektronik_id": 8630
      }
    },
    {
      "type": "tdpseTerbit",
      "id": 8691,
      "attributes": {
        "nomor_pb_umku": "022000477063800010002",
        "nama": "AP MOBILE TOPUP",
        "website": "-",
        "sektor": "Sektor Perdagangan",
        "nama_perusahaan": "ALFATRANS MULTI PAYMENT",
        "tanggal_daftar": "2022-07-21",
        "nomor_tanda_daftar": "006070.02/DJAI.PSE/07/2022",
        "qr_code": "https://pse.kominfo.go.id/storage/images/qr_code/89347e9ed8d79d14df9ea85e21df2bdd.png",
        "status_id": "TERDAFTAR",
        "sistem_elektronik_id": 8610
      }
    }
  ]
}