{
  "meta": {
    "page": {
      "currentPage": 602,
      "from": 6011,
      "lastPage": 1055,
      "perPage": 10,
      "to": 6020,
      "total": 10545
    }
  },
  "data": [
    {
      "type": "tdpseTerbit",
      "id": 5452,
      "attributes": {
        "nomor_pb_umku": "812011413226801160047",
        "nama": "MAKNA",
        "website": "bansos.bri.co.id",
        "sektor": "Sektor Teknologi Informasi dan Komunikasi",
        "nama_perusahaan": "PERUSAHAAN PERSEROAN (PERSERO) PT. BANK RAKYAT INDONESIA",
        "tanggal_daftar": "2022-07-13",
        "nomor_tanda_daftar": "002468.43/DJAI.PSE/07/2022",
        "qr_code": "https://pse.kominfo.go.id/storage/images/qr_code/706df083388875656e2d547bffa79532.png",
        "status_id": "TERDAFTAR",
        "sistem_elektronik_id": 5324
      }
    },
    {
      "type": "tdpseTerbit",
      "id": 5450,
      "attributes": {
        "nomor_pb_umku": "812011413226801160046",
        "nama": "APLIKASI PANEN",
        "website": "panen.bri.co.id",
        "sektor": "Sektor Pangan",
        "nama_perusahaan": "PERUSAHAAN PERSEROAN (PERSERO) PT. BANK RAKYAT INDONESIA",
        "tanggal_daftar": "2022-07-13",
        "nomor_tanda_daftar": "002468.42/DJAI.PSE/07/2022",
        "qr_code": "https://pse.kominfo.go.id/storage/images/qr_code/fe66e720e47145015fce75bb288ae78e.png",
        "status_id": "TERDAFTAR",
        "sistem_elektronik_id": 5322
      }
    },
    {
      "type": "tdpseTerbit",
      "id": 5449,
      "attributes": {
        "nomor_pb_umku": "812011413226801160045",
        "nama": "SIMPI (SISTEM INFORMASI MANAJEMEN PANGAN INDONESIA)",
        "website": "simpi.bri.co.id",
        "sektor": "Sektor Teknologi Informasi dan Komunikasi",
        "nama_perusahaan": "PERUSAHAAN PERSEROAN (PERSERO) PT. BANK RAKYAT INDONESIA",
        "tanggal_daftar": "2022-07-13",
        "nomor_tanda_daftar": "002468.41/DJAI.PSE/07/2022",
        "qr_code": "https://pse.kominfo.go.id/storage/images/qr_code/b60e003d2bc47dea67be793ac113185c.png",
        "status_id": "TERDAFTAR",
        "sistem_elektronik_id": 5321
      }
    },
    {
      "type": "tdpseTerbit",
      "id": 5445,
      "attributes": {
        "nomor_pb_umku": "812011413226801160044",
        "nama": "DASHBOARD BPUM",
        "website": "dashboard.bri.co.id",
        "sektor": "Sektor Teknologi Informasi dan Komunikasi",
        "nama_perusahaan": "PERUSAHAAN PERSEROAN (PERSERO) PT. BANK RAKYAT INDONESIA",
        "tanggal_daftar": "2022-07-13",
        "nomor_tanda_daftar": "002468.40/DJAI.PSE/07/2022",
        "qr_code": "https://pse.kominfo.go.id/storage/images/qr_code/c255d5868e31e0958ad4455bb3b78934.png",
        "status_id": "TERDAFTAR",
        "sistem_elektronik_id": 5317
      }
    },
    {
      "type": "tdpseTerbit",
      "id": 5443,
      "attributes": {
        "nomor_pb_umku": "812011413226801160043",
        "nama": "SINPI (SISTEM INFORMASI PERTANIAN INDONESIA)",
        "website": "sinpi.bri.co.id",
        "sektor": "Sektor Keuangan",
        "nama_perusahaan": "PERUSAHAAN PERSEROAN (PERSERO) PT. BANK RAKYAT INDONESIA",
        "tanggal_daftar": "2022-07-13",
        "nomor_tanda_daftar": "002468.39/DJAI.PSE/07/2022",
        "qr_code": "https://pse.kominfo.go.id/storage/images/qr_code/cc4451557d44652249626b6fc39d2ef2.png",
        "status_id": "TERDAFTAR",
        "sistem_elektronik_id": 5315
      }
    },
    {
      "type": "tdpseTerbit",
      "id": 5438,
      "attributes": {
        "nomor_pb_umku": "812011413226801160042",
        "nama": "NELAYAN SEJAHTERA",
        "website": "nelayansejahtera.bri.co.id",
        "sektor": "Sektor Teknologi Informasi dan Komunikasi",
        "nama_perusahaan": "PERUSAHAAN PERSEROAN (PERSERO) PT. BANK RAKYAT INDONESIA",
        "tanggal_daftar": "2022-07-13",
        "nomor_tanda_daftar": "002468.38/DJAI.PSE/07/2022",
        "qr_code": "https://pse.kominfo.go.id/storage/images/qr_code/f3258e960e275a65d997f2ac4c99d464.png",
        "status_id": "TERDAFTAR",
        "sistem_elektronik_id": 5310
      }
    },
    {
      "type": "tdpseTerbit",
      "id": 5435,
      "attributes": {
        "nomor_pb_umku": "812011413226801160041",
        "nama": "BRICARD",
        "website": "bricard.bri.co.id",
        "sektor": "Sektor Keuangan",
        "nama_perusahaan": "PERUSAHAAN PERSEROAN (PERSERO) PT. BANK RAKYAT INDONESIA",
        "tanggal_daftar": "2022-07-13",
        "nomor_tanda_daftar": "002468.37/DJAI.PSE/07/2022",
        "qr_code": "https://pse.kominfo.go.id/storage/images/qr_code/6d83581d77f3e062cbe3fcd6034b9143.png",
        "status_id": "TERDAFTAR",
        "sistem_elektronik_id": 5307
      }
    },
    {
      "type": "tdpseTerbit",
      "id": 5433,
      "attributes": {
        "nomor_pb_umku": "812011413226801160040",
        "nama": "LINKUMKM",
        "website": "linkumkm.id",
        "sektor": "Sektor Teknologi Informasi dan Komunikasi",
        "nama_perusahaan": "PERUSAHAAN PERSEROAN (PERSERO) PT. BANK RAKYAT INDONESIA",
        "tanggal_daftar": "2022-07-13",
        "nomor_tanda_daftar": "002468.36/DJAI.PSE/07/2022",
        "qr_code": "https://pse.kominfo.go.id/storage/images/qr_code/e5c164e5dd3165e4efc5e4353f12fab3.png",
        "status_id": "TERDAFTAR",
        "sistem_elektronik_id": 5304
      }
    },
    {
      "type": "tdpseTerbit",
      "id": 5326,
      "attributes": {
        "nomor_pb_umku": "812011413226801130039",
        "nama": "APLIKASI BRISIM",
        "website": "brisim.bri.co.id",
        "sektor": "Sektor Keuangan",
        "nama_perusahaan": "PERUSAHAAN PERSEROAN (PERSERO) PT. BANK RAKYAT INDONESIA",
        "tanggal_daftar": "2022-07-12",
        "nomor_tanda_daftar": "002468.35/DJAI.PSE/07/2022",
        "qr_code": "https://pse.kominfo.go.id/storage/images/qr_code/dd081db5540279a14aeefe7cd3c01636.png",
        "status_id": "TERDAFTAR",
        "sistem_elektronik_id": 5201
      }
    },
    {
      "type": "tdpseTerbit",
      "id": 5167,
      "attributes": {
        "nomor_pb_umku": "812011413226801110038",
        "nama": "BRI WHISTLEBLOWING SYSTEM",
        "website": "whistleblowing-system.bri.co.id",
        "sektor": "Sektor Teknologi Informasi dan Komunikasi",
        "nama_perusahaan": "PERUSAHAAN PERSEROAN (PERSERO) PT. BANK RAKYAT INDONESIA",
        "tanggal_daftar": "2022-07-07",
        "nomor_tanda_daftar": "002468.34/DJAI.PSE/07/2022",
        "qr_code": "https://pse.kominfo.go.id/storage/images/qr_code/af6e91fa222656c18b09c1ac85cf975e.png",
        "status_id": "TERDAFTAR",
        "sistem_elektronik_id": 5031
      }
    }
  ]
}