{
  "meta": {
    "page": {
      "currentPage": 603,
      "from": 6021,
      "lastPage": 1072,
      "perPage": 10,
      "to": 6030,
      "total": 10718
    }
  },
  "data": [
    {
      "type": "tdpseTerbit",
      "id": 4126,
      "attributes": {
        "nomor_pb_umku": "812011302055500020003",
        "nama": "CORPORATE WEB E-COMMERCE",
        "website": "asuransi.zurich.co.id",
        "sektor": "Sektor Keuangan",
        "nama_perusahaan": "ZURICH ASURANSI INDONESIA",
        "tanggal_daftar": "2022-05-25",
        "nomor_tanda_daftar": "002558.02/DJAI.PSE/06/2022",
        "qr_code": "https://pse.kominfo.go.id/storage/images/qr_code/c693a03e41807b9589f35942be3bfd58.png",
        "status_id": "TERDAFTAR",
        "sistem_elektronik_id": 4128
      }
    },
    {
      "type": "tdpseTerbit",
      "id": 4386,
      "attributes": {
        "nomor_pb_umku": null,
        "nama": "Travellin",
        "website": "travellin.co.id",
        "sektor": "Sektor Keuangan",
        "nama_perusahaan": "ZURICH ASURANSI INDONESIA",
        "tanggal_daftar": "2022-05-17",
        "nomor_tanda_daftar": "002558.02/DJAI.PSE/05/2022",
        "qr_code": "https://pse.kominfo.go.id/storage/images/qr_code/b4b688144b6239bbb90ac376c74e45b4.png",
        "status_id": "TERDAFTAR",
        "sistem_elektronik_id": 4370
      }
    },
    {
      "type": "tdpseTerbit",
      "id": 3936,
      "attributes": {
        "nomor_pb_umku": null,
        "nama": "MyLife App",
        "website": "-",
        "sektor": "Sektor Keuangan, Sektor Teknologi Informasi dan Komunikasi",
        "nama_perusahaan": "ZURICH ASURANSI INDONESIA",
        "tanggal_daftar": "2022-04-19",
        "nomor_tanda_daftar": "002558.01/DJAI.PSE/04/2022",
        "qr_code": "https://pse.kominfo.go.id/storage/images/qr_code/fb7ac905d36374dd4963f2064524602f.png",
        "status_id": "TERDAFTAR",
        "sistem_elektronik_id": 3932
      }
    },
    {
      "type": "tdpseTerbit",
      "id": 3933,
      "attributes": {
        "nomor_pb_umku": null,
        "nama": "bank pusaka alam nusantara",
        "website": "-",
        "sektor": "Sektor Energi dan Sumber Daya Mineral, Sektor Kesehatan, Sektor Keuangan, Sektor Pangan, Sektor Perdagangan, Sektor Pertahanan dan Keamanan, Sektor Teknologi Informasi dan Komunikasi, Sektor Transportasi",
        "nama_perusahaan": "HENDI RIAN MAULANA",
        "tanggal_daftar": "2022-04-19",
        "nomor_tanda_daftar": "002557.01/DJAI.PSE/04/2022",
        "qr_code": "https://pse.kominfo.go.id/storage/images/qr_code/2cc81129abfa06ce8d0a29cc3a2aaa3c.png",
        "status_id": "TERDAFTAR",
        "sistem_elektronik_id": 3834
      }
    },
    {
      "type": "tdpseTerbit",
      "id": 11118,
      "attributes": {
        "nomor_pb_umku": "912010334162900020002",
        "nama": "WWW.TRANSTV.CO.ID",
        "website": "transtv.co.id",
        "sektor": "Sektor Teknologi Informasi dan Komunikasi",
        "nama_perusahaan": "TELEVISI TRANSFORMASI INDONESIA",
        "tanggal_daftar": "2022-09-09",
        "nomor_tanda_daftar": "002556.02/DJAI.PSE/09/2022",
        "qr_code": "https://pse.kominfo.go.id/storage/images/qr_code/1556dfeadffe2a942e009e03e9fab8bf.png",
        "status_id": "TERDAFTAR",
        "sistem_elektronik_id": 10921
      }
    },
    {
      "type": "tdpseTerbit",
      "id": 3932,
      "attributes": {
        "nomor_pb_umku": null,
        "nama": "Insertlive.com",
        "website": "insertlive.com",
        "sektor": "Sektor Teknologi Informasi dan Komunikasi",
        "nama_perusahaan": "TELEVISI TRANSFORMASI INDONESIA",
        "tanggal_daftar": "2022-04-19",
        "nomor_tanda_daftar": "002556.01/DJAI.PSE/04/2022",
        "qr_code": "https://pse.kominfo.go.id/storage/images/qr_code/63dd24b028ce3b9bf20c52f0a9c534f8.png",
        "status_id": "TERDAFTAR",
        "sistem_elektronik_id": 3967
      }
    },
    {
      "type": "tdpseTerbit",
      "id": 3931,
      "attributes": {
        "nomor_pb_umku": null,
        "nama": "3SECOND Original Official Website",
        "website": "3second.co.id",
        "sektor": "Sektor Perdagangan",
        "nama_perusahaan": "BI ENSI FESYENINDO",
        "tanggal_daftar": "2022-04-19",
        "nomor_tanda_daftar": "002555.01/DJAI.PSE/04/2022",
        "qr_code": "https://pse.kominfo.go.id/storage/images/qr_code/51c81bfa5b3a16efc5ad3056b9641ce5.png",
        "status_id": "TERDAFTAR",
        "sistem_elektronik_id": 3990
      }
    },
    {
      "type": "tdpseTerbit",
      "id": 3929,
      "attributes": {
        "nomor_pb_umku": null,
        "nama": "BayarPlus",
        "website": "www.bayarplus.com",
        "sektor": "Sektor Keuangan",
        "nama_perusahaan": "TAYA BERKAT UTAMA",
        "tanggal_daftar": "2022-04-19",
        "nomor_tanda_daftar": "002554.01/DJAI.PSE/04/2022",
        "qr_code": "https://pse.kominfo.go.id/storage/images/qr_code/bcf18c782531fbda471763f21de8ba3c.png",
        "status_id": "TERDAFTAR",
        "sistem_elektronik_id": 3983
      }
    },
    {
      "type": "tdpseTerbit",
      "id": 3928,
      "attributes": {
        "nomor_pb_umku": null,
        "nama": "Klikbarang.id",
        "website": "Klikbarang.id",
        "sektor": "Sektor Perdagangan",
        "nama_perusahaan": "KLIK VISI INDONESIA",
        "tanggal_daftar": "2022-04-19",
        "nomor_tanda_daftar": "002553.01/DJAI.PSE/04/2022",
        "qr_code": "https://pse.kominfo.go.id/storage/images/qr_code/1838c4714aeeafb9a2000a37d107520a.png",
        "status_id": "TERDAFTAR",
        "sistem_elektronik_id": 3975
      }
    },
    {
      "type": "tdpseTerbit",
      "id": 10836,
      "attributes": {
        "nomor_pb_umku": "128100060300500030002",
        "nama": "FANAGO.NET",
        "website": "fanago.net",
        "sektor": "Sektor Perdagangan, Sektor Energi dan Sumber Daya Mineral, Sektor Transportasi, Sektor Keuangan, Sektor Teknologi Informasi dan Komunikasi",
        "nama_perusahaan": "FANAGO INTI PERKASA",
        "tanggal_daftar": "2022-08-26",
        "nomor_tanda_daftar": "002552.02/DJAI.PSE/08/2022",
        "qr_code": "https://pse.kominfo.go.id/storage/images/qr_code/6ef3e07715fcca3a2949335f81d0089c.png",
        "status_id": "TERDAFTAR",
        "sistem_elektronik_id": 10646
      }
    }
  ]
}