{
  "meta": {
    "page": {
      "currentPage": 604,
      "from": 6031,
      "lastPage": 896,
      "perPage": 10,
      "to": 6040,
      "total": 8957
    }
  },
  "data": [
    {
      "type": "tdpseTerbit",
      "id": 2288,
      "attributes": {
        "nomor_pb_umku": null,
        "nama": "Avrist Customer Portal",
        "website": "https://My.Avrist.com/",
        "sektor": "Sektor Keuangan",
        "nama_perusahaan": "AVRIST ASSURANCE",
        "tanggal_daftar": "2021-11-08",
        "nomor_tanda_daftar": "001473.03/DJAI.PSE/11/2021",
        "qr_code": "https://pse.kominfo.go.id/storage/images/qr_code/153579695fd9d26c316382b28801ff2b.png",
        "status_id": "TERDAFTAR",
        "sistem_elektronik_id": 3385
      }
    },
    {
      "type": "tdpseTerbit",
      "id": 2281,
      "attributes": {
        "nomor_pb_umku": null,
        "nama": "Avrist eCommerce",
        "website": "https://shop.avrist.com/",
        "sektor": "Sektor Keuangan",
        "nama_perusahaan": "AVRIST ASSURANCE",
        "tanggal_daftar": "2021-11-08",
        "nomor_tanda_daftar": "001473.02/DJAI.PSE/11/2021",
        "qr_code": "https://pse.kominfo.go.id/storage/images/qr_code/72ddd36862393d54f323c3a8d8256c7c.png",
        "status_id": "TERDAFTAR",
        "sistem_elektronik_id": 3384
      }
    },
    {
      "type": "tdpseTerbit",
      "id": 2204,
      "attributes": {
        "nomor_pb_umku": null,
        "nama": "Corporate Website",
        "website": "https://avrist.com",
        "sektor": "Sektor Keuangan",
        "nama_perusahaan": "AVRIST ASSURANCE",
        "tanggal_daftar": "2021-11-01",
        "nomor_tanda_daftar": "001473.01/DJAI.PSE/11/2021",
        "qr_code": "https://pse.kominfo.go.id/storage/images/qr_code/72e9693f03abc9bb57446d0e1d60ae5a.png",
        "status_id": "TERDAFTAR",
        "sistem_elektronik_id": 3383
      }
    },
    {
      "type": "tdpseTerbit",
      "id": 2356,
      "attributes": {
        "nomor_pb_umku": null,
        "nama": "Kerjasama.co.id",
        "website": "https://kerjasama.co.id",
        "sektor": "Sektor Keuangan",
        "nama_perusahaan": "PT. Kerjasama Untuk Negeri",
        "tanggal_daftar": "2021-11-08",
        "nomor_tanda_daftar": "001472.03/DJAI.PSE/11/2021",
        "qr_code": "https://pse.kominfo.go.id/storage/images/qr_code/ac1c387cd25381508a0836c99035691e.png",
        "status_id": "TERDAFTAR",
        "sistem_elektronik_id": 3087
      }
    },
    {
      "type": "tdpseTerbit",
      "id": 2203,
      "attributes": {
        "nomor_pb_umku": null,
        "nama": "Kerjasama.com",
        "website": "https://kerjasama.com",
        "sektor": "Sektor Keuangan",
        "nama_perusahaan": "PT. Kerjasama Untuk Negeri",
        "tanggal_daftar": "2021-11-01",
        "nomor_tanda_daftar": "001472.01/DJAI.PSE/11/2021",
        "qr_code": "https://pse.kominfo.go.id/storage/images/qr_code/6fd099728e34a7147a1cf39b04475e18.png",
        "status_id": "TERDAFTAR",
        "sistem_elektronik_id": 3086
      }
    },
    {
      "type": "tdpseTerbit",
      "id": 9213,
      "attributes": {
        "nomor_pb_umku": "812010893119400000001",
        "nama": "FOSSIL INDONESIA",
        "website": "fossil.co.id",
        "sektor": "Sektor Perdagangan",
        "nama_perusahaan": "SENTRALWATCH PERKASA INTERNASIONAL",
        "tanggal_daftar": "2022-07-27",
        "nomor_tanda_daftar": "001471.03/DJAI.PSE/07/2022",
        "qr_code": "https://pse.kominfo.go.id/storage/images/qr_code/b26e6ec7bbe642b78a820e85659a1401.png",
        "status_id": "TERDAFTAR",
        "sistem_elektronik_id": 9121
      }
    },
    {
      "type": "tdpseTerbit",
      "id": 2286,
      "attributes": {
        "nomor_pb_umku": null,
        "nama": "Urban Icon Indonesia",
        "website": "https:/www.urbanicon.co.id/",
        "sektor": "Sektor Perdagangan",
        "nama_perusahaan": "SENTRALWATCH PERKASA INTERNASIONAL",
        "tanggal_daftar": "2021-11-08",
        "nomor_tanda_daftar": "001471.02/DJAI.PSE/11/2021",
        "qr_code": "https://pse.kominfo.go.id/storage/images/qr_code/56d6381f8020d2cf5dc77a2701332cbf.png",
        "status_id": "TERDAFTAR",
        "sistem_elektronik_id": 1361
      }
    },
    {
      "type": "tdpseTerbit",
      "id": 2202,
      "attributes": {
        "nomor_pb_umku": null,
        "nama": "Urban Icon Indonesia",
        "website": "https:/www.urbanicon.co.id/",
        "sektor": "Sektor Perdagangan",
        "nama_perusahaan": "SENTRALWATCH PERKASA INTERNASIONAL",
        "tanggal_daftar": "2021-11-01",
        "nomor_tanda_daftar": "001471.01/DJAI.PSE/11/2021",
        "qr_code": "https://pse.kominfo.go.id/storage/images/qr_code/ce87393ce29e6bee85b5661ac47af077.png",
        "status_id": "TERDAFTAR",
        "sistem_elektronik_id": 1360
      }
    },
    {
      "type": "tdpseTerbit",
      "id": 2201,
      "attributes": {
        "nomor_pb_umku": null,
        "nama": "Radsoft System",
        "website": "www.jasacapital.co.id",
        "sektor": "Sektor Teknologi Informasi dan Komunikasi",
        "nama_perusahaan": "PT Jasa Capital Asset Management",
        "tanggal_daftar": "2021-11-01",
        "nomor_tanda_daftar": "001470.01/DJAI.PSE/11/2021",
        "qr_code": "https://pse.kominfo.go.id/storage/images/qr_code/13c768facfec3c9660bdc846764fbc44.png",
        "status_id": "TERDAFTAR",
        "sistem_elektronik_id": 3085
      }
    },
    {
      "type": "tdpseTerbit",
      "id": 2200,
      "attributes": {
        "nomor_pb_umku": null,
        "nama": "Riung",
        "website": "https://www.riung.id",
        "sektor": "Sektor Teknologi Informasi dan Komunikasi",
        "nama_perusahaan": "Satu Teknologi Bangsa",
        "tanggal_daftar": "2021-11-01",
        "nomor_tanda_daftar": "001469.01/DJAI.PSE/11/2021",
        "qr_code": "https://pse.kominfo.go.id/storage/images/qr_code/0f506606db5d29d47d7e90403b059a5f.png",
        "status_id": "TERDAFTAR",
        "sistem_elektronik_id": 3343
      }
    }
  ]
}