{
  "meta": {
    "page": {
      "currentPage": 605,
      "from": 6041,
      "lastPage": 1111,
      "perPage": 10,
      "to": 6050,
      "total": 11105
    }
  },
  "data": [
    {
      "type": "tdpseTerbit",
      "id": 10523,
      "attributes": {
        "nomor_pb_umku": "912030519120100010009",
        "nama": "TRIBUNJAKARTA.COM",
        "website": "tribunjakarta.com",
        "sektor": "Sektor Teknologi Informasi dan Komunikasi",
        "nama_perusahaan": "TRIBUN BERITA ONLINE",
        "tanggal_daftar": "2022-08-18",
        "nomor_tanda_daftar": "002867.10/DJAI.PSE/08/2022",
        "qr_code": "https://pse.kominfo.go.id/storage/images/qr_code/11dab50145cfbf3b7d495ff9935a38c8.png",
        "status_id": "TERDAFTAR",
        "sistem_elektronik_id": 10382
      }
    },
    {
      "type": "tdpseTerbit",
      "id": 10522,
      "attributes": {
        "nomor_pb_umku": "912030519120100010008",
        "nama": "TRIBUNJUALBELI.COM",
        "website": "tribunjualbeli.com",
        "sektor": "Sektor Teknologi Informasi dan Komunikasi",
        "nama_perusahaan": "TRIBUN BERITA ONLINE",
        "tanggal_daftar": "2022-08-18",
        "nomor_tanda_daftar": "002867.09/DJAI.PSE/08/2022",
        "qr_code": "https://pse.kominfo.go.id/storage/images/qr_code/f377d56776ce9b0a02ea686b42acca10.png",
        "status_id": "TERDAFTAR",
        "sistem_elektronik_id": 10381
      }
    },
    {
      "type": "tdpseTerbit",
      "id": 10521,
      "attributes": {
        "nomor_pb_umku": "912030519120100010007",
        "nama": "TRIBUN-VIDEO.COM",
        "website": "tribun-video.com",
        "sektor": "Sektor Teknologi Informasi dan Komunikasi",
        "nama_perusahaan": "TRIBUN BERITA ONLINE",
        "tanggal_daftar": "2022-08-18",
        "nomor_tanda_daftar": "002867.08/DJAI.PSE/08/2022",
        "qr_code": "https://pse.kominfo.go.id/storage/images/qr_code/23bc7f6ba693fee1ed4a1779beda7b73.png",
        "status_id": "TERDAFTAR",
        "sistem_elektronik_id": 10380
      }
    },
    {
      "type": "tdpseTerbit",
      "id": 10520,
      "attributes": {
        "nomor_pb_umku": "912030519120100010006",
        "nama": "TRIBUNNEWSMAKER.COM",
        "website": "tribunnewsmaker.com",
        "sektor": "Sektor Teknologi Informasi dan Komunikasi",
        "nama_perusahaan": "TRIBUN BERITA ONLINE",
        "tanggal_daftar": "2022-08-18",
        "nomor_tanda_daftar": "002867.07/DJAI.PSE/08/2022",
        "qr_code": "https://pse.kominfo.go.id/storage/images/qr_code/11aa054eeac72cda32b865cdb75a9ec5.png",
        "status_id": "TERDAFTAR",
        "sistem_elektronik_id": 10379
      }
    },
    {
      "type": "tdpseTerbit",
      "id": 10519,
      "attributes": {
        "nomor_pb_umku": "912030519120100010005",
        "nama": "TRIBUNWOW.COM",
        "website": "tribunwow.com",
        "sektor": "Sektor Teknologi Informasi dan Komunikasi",
        "nama_perusahaan": "TRIBUN BERITA ONLINE",
        "tanggal_daftar": "2022-08-18",
        "nomor_tanda_daftar": "002867.06/DJAI.PSE/08/2022",
        "qr_code": "https://pse.kominfo.go.id/storage/images/qr_code/34fff7f90c6f8f1dee9df3e63cbbf968.png",
        "status_id": "TERDAFTAR",
        "sistem_elektronik_id": 10378
      }
    },
    {
      "type": "tdpseTerbit",
      "id": 10515,
      "attributes": {
        "nomor_pb_umku": "912030519120100010004",
        "nama": "TRIBUNTRAVEL.COM",
        "website": "tribuntravel.com",
        "sektor": "Sektor Teknologi Informasi dan Komunikasi",
        "nama_perusahaan": "TRIBUN BERITA ONLINE",
        "tanggal_daftar": "2022-08-18",
        "nomor_tanda_daftar": "002867.05/DJAI.PSE/08/2022",
        "qr_code": "https://pse.kominfo.go.id/storage/images/qr_code/b749791d8fce182561c7a107a340c914.png",
        "status_id": "TERDAFTAR",
        "sistem_elektronik_id": 10374
      }
    },
    {
      "type": "tdpseTerbit",
      "id": 10513,
      "attributes": {
        "nomor_pb_umku": "912030519120100010003",
        "nama": "TRIBUNSTYLE.COM",
        "website": "tribunstyle.com",
        "sektor": "Sektor Teknologi Informasi dan Komunikasi",
        "nama_perusahaan": "TRIBUN BERITA ONLINE",
        "tanggal_daftar": "2022-08-18",
        "nomor_tanda_daftar": "002867.04/DJAI.PSE/08/2022",
        "qr_code": "https://pse.kominfo.go.id/storage/images/qr_code/5d9a7bd3d6914522fbd2c9f75ccd1bb4.png",
        "status_id": "TERDAFTAR",
        "sistem_elektronik_id": 10372
      }
    },
    {
      "type": "tdpseTerbit",
      "id": 10501,
      "attributes": {
        "nomor_pb_umku": "912030519120100010002",
        "nama": "TRIBUNNEWSWIKI.COM",
        "website": "tribunnewswiki.com",
        "sektor": "Sektor Teknologi Informasi dan Komunikasi",
        "nama_perusahaan": "TRIBUN BERITA ONLINE",
        "tanggal_daftar": "2022-08-18",
        "nomor_tanda_daftar": "002867.03/DJAI.PSE/08/2022",
        "qr_code": "https://pse.kominfo.go.id/storage/images/qr_code/7178ae790b904ef4b190b67e265878b1.png",
        "status_id": "TERDAFTAR",
        "sistem_elektronik_id": 10352
      }
    },
    {
      "type": "tdpseTerbit",
      "id": 4579,
      "attributes": {
        "nomor_pb_umku": "912030519120100010001",
        "nama": "TRIBUN DIGITAL ONLINE",
        "website": "Tribunnews.com",
        "sektor": "Sektor Perdagangan, Sektor Teknologi Informasi dan Komunikasi",
        "nama_perusahaan": "TRIBUN BERITA ONLINE",
        "tanggal_daftar": "2022-06-17",
        "nomor_tanda_daftar": "002867.02/DJAI.PSE/06/2022",
        "qr_code": "https://pse.kominfo.go.id/storage/images/qr_code/f4f38cd08094bd8c87128cf95041b0b9.png",
        "status_id": "TERDAFTAR",
        "sistem_elektronik_id": 4541
      }
    },
    {
      "type": "tdpseTerbit",
      "id": 4155,
      "attributes": {
        "nomor_pb_umku": "022401021283900010001",
        "nama": "WEBSITE BEST PROTEKSI",
        "website": "bestproteksi.co.id",
        "sektor": "Sektor Keuangan",
        "nama_perusahaan": "BEST PROTEKSI INDONESIA",
        "tanggal_daftar": "2022-05-27",
        "nomor_tanda_daftar": "002866.01/DJAI.PSE/05/2022",
        "qr_code": "https://pse.kominfo.go.id/storage/images/qr_code/932bdf5348dca7f6fa16cc87e970792b.png",
        "status_id": "TERDAFTAR",
        "sistem_elektronik_id": 4161
      }
    }
  ]
}