{
  "meta": {
    "page": {
      "currentPage": 606,
      "from": 6051,
      "lastPage": 873,
      "perPage": 10,
      "to": 6060,
      "total": 8721
    }
  },
  "data": [
    {
      "type": "tdpseTerbit",
      "id": 1995,
      "attributes": {
        "nomor_pb_umku": null,
        "nama": "BOS 2 BOS",
        "website": "www.bos2bos.com",
        "sektor": "Sektor Perdagangan, Sektor Teknologi Informasi dan Komunikasi",
        "nama_perusahaan": "BOS TOBOS INDONESIA",
        "tanggal_daftar": "2021-10-12",
        "nomor_tanda_daftar": "001335.01/DJAI.PSE/10/2021",
        "qr_code": "https://pse.kominfo.go.id/storage/images/qr_code/06cf2f8fab8194927902f6e33c67d4fc.png",
        "status_id": "TERDAFTAR",
        "sistem_elektronik_id": 1415
      }
    },
    {
      "type": "tdpseTerbit",
      "id": 1994,
      "attributes": {
        "nomor_pb_umku": null,
        "nama": "WWW.SHIMAJIRO.ID",
        "website": "WWW.SHIMAJIRO.ID",
        "sektor": "Sektor Perdagangan",
        "nama_perusahaan": "BENESSE INDONESIA",
        "tanggal_daftar": "2021-10-12",
        "nomor_tanda_daftar": "001334.01/DJAI.PSE/10/2021",
        "qr_code": "https://pse.kominfo.go.id/storage/images/qr_code/bc400269d18bb2a647efcc520bcc3804.png",
        "status_id": "TERDAFTAR",
        "sistem_elektronik_id": 2748
      }
    },
    {
      "type": "tdpseTerbit",
      "id": 2395,
      "attributes": {
        "nomor_pb_umku": null,
        "nama": "Cartalog.id",
        "website": "www.cartalog.id",
        "sektor": "Sektor Perdagangan",
        "nama_perusahaan": "AUTOPEDIA SUKSES LESTARI",
        "tanggal_daftar": "2021-11-17",
        "nomor_tanda_daftar": "001333.02/DJAI.PSE/11/2021",
        "qr_code": "https://pse.kominfo.go.id/storage/images/qr_code/3100877deddf69dfc39990486b160f3b.png",
        "status_id": "TERDAFTAR",
        "sistem_elektronik_id": 1419
      }
    },
    {
      "type": "tdpseTerbit",
      "id": 1993,
      "attributes": {
        "nomor_pb_umku": null,
        "nama": "Caroline.id",
        "website": "www.caroline.id",
        "sektor": "Sektor Perdagangan",
        "nama_perusahaan": "AUTOPEDIA SUKSES LESTARI",
        "tanggal_daftar": "2021-10-12",
        "nomor_tanda_daftar": "001333.01/DJAI.PSE/10/2021",
        "qr_code": "https://pse.kominfo.go.id/storage/images/qr_code/1e6c45a0ca4af0064db3474b7ebd53b6.png",
        "status_id": "TERDAFTAR",
        "sistem_elektronik_id": 1418
      }
    },
    {
      "type": "tdpseTerbit",
      "id": 1992,
      "attributes": {
        "nomor_pb_umku": null,
        "nama": "Goodpass App & Score",
        "website": "https://goodpass.id",
        "sektor": "Sektor Teknologi Informasi dan Komunikasi",
        "nama_perusahaan": "DIGITAL VENTURE INTERNATIONAL",
        "tanggal_daftar": "2021-10-12",
        "nomor_tanda_daftar": "001332.01/DJAI.PSE/10/2021",
        "qr_code": "https://pse.kominfo.go.id/storage/images/qr_code/708c14a5c796dc5c22de438fa3aca9f8.png",
        "status_id": "TERDAFTAR",
        "sistem_elektronik_id": 1429
      }
    },
    {
      "type": "tdpseTerbit",
      "id": 9161,
      "attributes": {
        "nomor_pb_umku": "912030449041501110062",
        "nama": "INRATE MEDIA RATING ANALYTICS",
        "website": "urbanrate.id",
        "sektor": "Sektor Teknologi Informasi dan Komunikasi",
        "nama_perusahaan": "PERUSAHAAN PERSEROAN (PERSERO) PT. TELEKOMUNIKASI INDONESIA",
        "tanggal_daftar": "2022-07-27",
        "nomor_tanda_daftar": "001331.57/DJAI.PSE/07/2022",
        "qr_code": "https://pse.kominfo.go.id/storage/images/qr_code/59b716a1ea0042728e9d31df99f9c835.png",
        "status_id": "TERDAFTAR",
        "sistem_elektronik_id": 9067
      }
    },
    {
      "type": "tdpseTerbit",
      "id": 9160,
      "attributes": {
        "nomor_pb_umku": "912030449041501110061",
        "nama": "LOGEE FULFILLMENT",
        "website": "logeefulfillment.id",
        "sektor": "Sektor Perdagangan, Sektor Teknologi Informasi dan Komunikasi",
        "nama_perusahaan": "PERUSAHAAN PERSEROAN (PERSERO) PT. TELEKOMUNIKASI INDONESIA",
        "tanggal_daftar": "2022-07-27",
        "nomor_tanda_daftar": "001331.56/DJAI.PSE/07/2022",
        "qr_code": "https://pse.kominfo.go.id/storage/images/qr_code/dc5f4dd4cb1d7d964b6b64e6e2d9f51e.png",
        "status_id": "TERDAFTAR",
        "sistem_elektronik_id": 9066
      }
    },
    {
      "type": "tdpseTerbit",
      "id": 9157,
      "attributes": {
        "nomor_pb_umku": "912030449041501110060",
        "nama": "AGREE MARKET",
        "website": "market.agreeculture.id",
        "sektor": "Sektor Perdagangan",
        "nama_perusahaan": "PERUSAHAAN PERSEROAN (PERSERO) PT. TELEKOMUNIKASI INDONESIA",
        "tanggal_daftar": "2022-07-27",
        "nomor_tanda_daftar": "001331.55/DJAI.PSE/07/2022",
        "qr_code": "https://pse.kominfo.go.id/storage/images/qr_code/50f0aa5372ad3a53b69a0e816f1380fb.png",
        "status_id": "TERDAFTAR",
        "sistem_elektronik_id": 9063
      }
    },
    {
      "type": "tdpseTerbit",
      "id": 9156,
      "attributes": {
        "nomor_pb_umku": "912030449041501110060",
        "nama": "PICASO E-KYC",
        "website": "picaso.id",
        "sektor": "Sektor Perdagangan, Sektor Teknologi Informasi dan Komunikasi",
        "nama_perusahaan": "PERUSAHAAN PERSEROAN (PERSERO) PT. TELEKOMUNIKASI INDONESIA",
        "tanggal_daftar": "2022-07-27",
        "nomor_tanda_daftar": "001331.54/DJAI.PSE/07/2022",
        "qr_code": "https://pse.kominfo.go.id/storage/images/qr_code/7d00105cd5e9243b3bc856174f8c1e88.png",
        "status_id": "TERDAFTAR",
        "sistem_elektronik_id": 9062
      }
    },
    {
      "type": "tdpseTerbit",
      "id": 9155,
      "attributes": {
        "nomor_pb_umku": "912030449041501110060",
        "nama": "AGREE MART",
        "website": "agreeculture.id",
        "sektor": "Sektor Perdagangan",
        "nama_perusahaan": "PERUSAHAAN PERSEROAN (PERSERO) PT. TELEKOMUNIKASI INDONESIA",
        "tanggal_daftar": "2022-07-27",
        "nomor_tanda_daftar": "001331.53/DJAI.PSE/07/2022",
        "qr_code": "https://pse.kominfo.go.id/storage/images/qr_code/a73a59a8bbd525b23c8323fb68e9165e.png",
        "status_id": "TERDAFTAR",
        "sistem_elektronik_id": 9061
      }
    }
  ]
}