{
  "meta": {
    "page": {
      "currentPage": 607,
      "from": 6061,
      "lastPage": 1012,
      "perPage": 10,
      "to": 6070,
      "total": 10114
    }
  },
  "data": [
    {
      "type": "tdpseTerbit",
      "id": 3250,
      "attributes": {
        "nomor_pb_umku": null,
        "nama": "e-Lawyer",
        "website": "officiumnobile.com",
        "sektor": "Sektor Teknologi Informasi dan Komunikasi",
        "nama_perusahaan": "OFFICIUM NOBILE INDOLAW",
        "tanggal_daftar": "2022-02-15",
        "nomor_tanda_daftar": "002107.01/DJAI.PSE/02/2022",
        "qr_code": "https://pse.kominfo.go.id/storage/images/qr_code/7fd0d5b555b3adaf190e8b69178ef1c3.png",
        "status_id": "TERDAFTAR",
        "sistem_elektronik_id": 2186
      }
    },
    {
      "type": "tdpseTerbit",
      "id": 3249,
      "attributes": {
        "nomor_pb_umku": null,
        "nama": "INVESTDATA",
        "website": "www.infovesta.com",
        "sektor": "Sektor Teknologi Informasi dan Komunikasi",
        "nama_perusahaan": "INFOVESTA UTAMA",
        "tanggal_daftar": "2022-02-14",
        "nomor_tanda_daftar": "002106.01/DJAI.PSE/02/2022",
        "qr_code": "https://pse.kominfo.go.id/storage/images/qr_code/693e01d9fd5c5e6c50ae26b2ca055cff.png",
        "status_id": "TERDAFTAR",
        "sistem_elektronik_id": 2184
      }
    },
    {
      "type": "tdpseTerbit",
      "id": 3248,
      "attributes": {
        "nomor_pb_umku": null,
        "nama": "Halokas.com",
        "website": "halokas.com",
        "sektor": "Sektor Teknologi Informasi dan Komunikasi",
        "nama_perusahaan": "FINACCEL TEKNOLOGI INDONESIA",
        "tanggal_daftar": "2022-02-14",
        "nomor_tanda_daftar": "002105.01/DJAI.PSE/02/2022",
        "qr_code": "https://pse.kominfo.go.id/storage/images/qr_code/8b8e5fa1711eaf8b9a9749b127bc67e0.png",
        "status_id": "TERDAFTAR",
        "sistem_elektronik_id": 3177
      }
    },
    {
      "type": "tdpseTerbit",
      "id": 3247,
      "attributes": {
        "nomor_pb_umku": null,
        "nama": "Maswindoku",
        "website": "maswindokupay.com",
        "sektor": "Sektor Perdagangan, Sektor Teknologi Informasi dan Komunikasi",
        "nama_perusahaan": "CITA TEKNOLOGI INDONESIA",
        "tanggal_daftar": "2022-02-14",
        "nomor_tanda_daftar": "002104.01/DJAI.PSE/02/2022",
        "qr_code": "https://pse.kominfo.go.id/storage/images/qr_code/85bc11bc44a311756f4ad2da8605733b.png",
        "status_id": "TERDAFTAR",
        "sistem_elektronik_id": 2853
      }
    },
    {
      "type": "tdpseTerbit",
      "id": 3246,
      "attributes": {
        "nomor_pb_umku": null,
        "nama": "Game Merchant Kalyanu Solusi Optima",
        "website": "-",
        "sektor": "Sektor Teknologi Informasi dan Komunikasi",
        "nama_perusahaan": "KALYANU SOLUSI OPTIMA",
        "tanggal_daftar": "2022-02-14",
        "nomor_tanda_daftar": "002103.01/DJAI.PSE/02/2022",
        "qr_code": "https://pse.kominfo.go.id/storage/images/qr_code/4c3cbd89b02dc676a783ca22b4def411.png",
        "status_id": "TERDAFTAR",
        "sistem_elektronik_id": 2201
      }
    },
    {
      "type": "tdpseTerbit",
      "id": 3245,
      "attributes": {
        "nomor_pb_umku": null,
        "nama": "9to9 Online",
        "website": "9to9.co.id",
        "sektor": "Sektor Perdagangan",
        "nama_perusahaan": "TRANSMARCO",
        "tanggal_daftar": "2022-02-14",
        "nomor_tanda_daftar": "002102.01/DJAI.PSE/02/2022",
        "qr_code": "https://pse.kominfo.go.id/storage/images/qr_code/cefeeb71e274c44bcdc6c1ccc5be864d.png",
        "status_id": "TERDAFTAR",
        "sistem_elektronik_id": 2121
      }
    },
    {
      "type": "tdpseTerbit",
      "id": 10888,
      "attributes": {
        "nomor_pb_umku": "812021125138200390019",
        "nama": "MEDBIZ",
        "website": "medbiz.id",
        "sektor": "Sektor Perdagangan, Sektor Kesehatan",
        "nama_perusahaan": "PERUSAHAAN PERSEROAN (PERSERO) PT. BIO FARMA DISINGKAT PT. BIO FARMA (PERSERO)",
        "tanggal_daftar": "2022-09-06",
        "nomor_tanda_daftar": "002101.04/DJAI.PSE/08/2022",
        "qr_code": "https://pse.kominfo.go.id/storage/images/qr_code/c127d55158b440138bfc947136da5b56.png",
        "status_id": "TERDAFTAR",
        "sistem_elektronik_id": 10699
      }
    },
    {
      "type": "tdpseTerbit",
      "id": 10574,
      "attributes": {
        "nomor_pb_umku": "812021125138200380018",
        "nama": "MEDIVERSE",
        "website": "mediverse.id",
        "sektor": "Sektor Kesehatan",
        "nama_perusahaan": "PERUSAHAAN PERSEROAN (PERSERO) PT. BIO FARMA DISINGKAT PT. BIO FARMA (PERSERO)",
        "tanggal_daftar": "2022-08-19",
        "nomor_tanda_daftar": "002101.03/DJAI.PSE/08/2022",
        "qr_code": "https://pse.kominfo.go.id/storage/images/qr_code/95e958ed15b4edb8b33a5c96c3b07fe0.png",
        "status_id": "TERDAFTAR",
        "sistem_elektronik_id": 10429
      }
    },
    {
      "type": "tdpseTerbit",
      "id": 10174,
      "attributes": {
        "nomor_pb_umku": "812021125138200330017",
        "nama": "MEDWELL",
        "website": "medwell.id",
        "sektor": "Sektor Kesehatan, Sektor Teknologi Informasi dan Komunikasi",
        "nama_perusahaan": "PERUSAHAAN PERSEROAN (PERSERO) PT. BIO FARMA DISINGKAT PT. BIO FARMA (PERSERO)",
        "tanggal_daftar": "2022-08-10",
        "nomor_tanda_daftar": "002101.02/DJAI.PSE/08/2022",
        "qr_code": "https://pse.kominfo.go.id/storage/images/qr_code/eb70837486e06001e4c2fba8b4b5c42a.png",
        "status_id": "TERDAFTAR",
        "sistem_elektronik_id": 10038
      }
    },
    {
      "type": "tdpseTerbit",
      "id": 3244,
      "attributes": {
        "nomor_pb_umku": null,
        "nama": "Medevo",
        "website": "http://www.medevo.id",
        "sektor": "Sektor Kesehatan",
        "nama_perusahaan": "PERUSAHAAN PERSEROAN (PERSERO) PT. BIO FARMA DISINGKAT PT. BIO FARMA (PERSERO)",
        "tanggal_daftar": "2022-02-14",
        "nomor_tanda_daftar": "002101.01/DJAI.PSE/02/2022",
        "qr_code": "https://pse.kominfo.go.id/storage/images/qr_code/e551cf4ad3b48174c9783b76dd846ea9.png",
        "status_id": "TERDAFTAR",
        "sistem_elektronik_id": 2194
      }
    }
  ]
}