{
  "meta": {
    "page": {
      "currentPage": 612,
      "from": 6111,
      "lastPage": 1085,
      "perPage": 10,
      "to": 6120,
      "total": 10842
    }
  },
  "data": [
    {
      "type": "tdpseTerbit",
      "id": 3959,
      "attributes": {
        "nomor_pb_umku": null,
        "nama": "Multi Pratama Indonesia",
        "website": "-",
        "sektor": "Sektor Perdagangan",
        "nama_perusahaan": "MULTI PRATAMA INDONESIA",
        "tanggal_daftar": "2022-04-20",
        "nomor_tanda_daftar": "002573.01/DJAI.PSE/04/2022",
        "qr_code": "https://pse.kominfo.go.id/storage/images/qr_code/e220fedd558f83d969d2b84e2c625a10.png",
        "status_id": "TERDAFTAR",
        "sistem_elektronik_id": 3999
      }
    },
    {
      "type": "tdpseTerbit",
      "id": 4623,
      "attributes": {
        "nomor_pb_umku": "090422001649500010002",
        "nama": "KENALINKED INDONESIA",
        "website": "kenalinked.com",
        "sektor": "Sektor Teknologi Informasi dan Komunikasi",
        "nama_perusahaan": "KENALINKED INDONESIA GRUP",
        "tanggal_daftar": "2022-06-20",
        "nomor_tanda_daftar": "002572.02/DJAI.PSE/06/2022",
        "qr_code": "https://pse.kominfo.go.id/storage/images/qr_code/221c420e21002bf34d6d2b6f611a64b8.png",
        "status_id": "TERDAFTAR",
        "sistem_elektronik_id": 4584
      }
    },
    {
      "type": "tdpseTerbit",
      "id": 3957,
      "attributes": {
        "nomor_pb_umku": null,
        "nama": "Kenalinked",
        "website": "kenalinked.com",
        "sektor": "Sektor Perdagangan, Sektor Teknologi Informasi dan Komunikasi",
        "nama_perusahaan": "KENALINKED INDONESIA GRUP",
        "tanggal_daftar": "2022-04-20",
        "nomor_tanda_daftar": "002572.01/DJAI.PSE/04/2022",
        "qr_code": "https://pse.kominfo.go.id/storage/images/qr_code/cef41b7cf25c5fbfcdd360c7b27aa3b7.png",
        "status_id": "TERDAFTAR",
        "sistem_elektronik_id": 3773
      }
    },
    {
      "type": "tdpseTerbit",
      "id": 3956,
      "attributes": {
        "nomor_pb_umku": null,
        "nama": "Ondelivery Smart Agent System",
        "website": "www.ondelivery.id",
        "sektor": "Sektor Transportasi",
        "nama_perusahaan": "ONDEL TEKNOLOGI INDONESIA",
        "tanggal_daftar": "2022-04-20",
        "nomor_tanda_daftar": "002571.01/DJAI.PSE/04/2022",
        "qr_code": "https://pse.kominfo.go.id/storage/images/qr_code/c0ab7c151e38902e5fabaeccf6836a99.png",
        "status_id": "TERDAFTAR",
        "sistem_elektronik_id": 3789
      }
    },
    {
      "type": "tdpseTerbit",
      "id": 3955,
      "attributes": {
        "nomor_pb_umku": null,
        "nama": "Peruri Digital",
        "website": "peruri.co.id",
        "sektor": "Sektor Teknologi Informasi dan Komunikasi",
        "nama_perusahaan": "PERUM PERCETAKAN UANG RI",
        "tanggal_daftar": "2022-04-20",
        "nomor_tanda_daftar": "002570.01/DJAI.PSE/04/2022",
        "qr_code": "https://pse.kominfo.go.id/storage/images/qr_code/9b02b9224599550802288d6680c333a2.png",
        "status_id": "TERDAFTAR",
        "sistem_elektronik_id": 3906
      }
    },
    {
      "type": "tdpseTerbit",
      "id": 3954,
      "attributes": {
        "nomor_pb_umku": null,
        "nama": "STARHITS",
        "website": "starhits.id",
        "sektor": "Sektor Teknologi Informasi dan Komunikasi",
        "nama_perusahaan": "SUARA MAS ABADI",
        "tanggal_daftar": "2022-04-20",
        "nomor_tanda_daftar": "002569.01/DJAI.PSE/04/2022",
        "qr_code": "https://pse.kominfo.go.id/storage/images/qr_code/568e0084cdf5451dba36c1b8a8f40ab9.png",
        "status_id": "TERDAFTAR",
        "sistem_elektronik_id": 3985
      }
    },
    {
      "type": "tdpseTerbit",
      "id": 3953,
      "attributes": {
        "nomor_pb_umku": null,
        "nama": "EMTRADE",
        "website": "emtrade.id",
        "sektor": "Sektor Teknologi Informasi dan Komunikasi",
        "nama_perusahaan": "EMTRADE TEKNOLOGI FINANSIAL",
        "tanggal_daftar": "2022-04-20",
        "nomor_tanda_daftar": "002568.01/DJAI.PSE/04/2022",
        "qr_code": "https://pse.kominfo.go.id/storage/images/qr_code/ab34faf756a4bf0b76dea10a860617f9.png",
        "status_id": "TERDAFTAR",
        "sistem_elektronik_id": 3729
      }
    },
    {
      "type": "tdpseTerbit",
      "id": 3950,
      "attributes": {
        "nomor_pb_umku": null,
        "nama": "CHECK DISINI",
        "website": "www.checkdisini.com",
        "sektor": "Sektor Perdagangan",
        "nama_perusahaan": "DIGITAL KOMPARASI SOLUSI",
        "tanggal_daftar": "2022-04-20",
        "nomor_tanda_daftar": "002567.01/DJAI.PSE/04/2022",
        "qr_code": "https://pse.kominfo.go.id/storage/images/qr_code/8cdc99d4dac845bad7c8745d0c593590.png",
        "status_id": "TERDAFTAR",
        "sistem_elektronik_id": 3886
      }
    },
    {
      "type": "tdpseTerbit",
      "id": 3949,
      "attributes": {
        "nomor_pb_umku": null,
        "nama": "Aplikasi Mr.Krip PanenSaham",
        "website": "-",
        "sektor": "Sektor Perdagangan, Sektor Teknologi Informasi dan Komunikasi",
        "nama_perusahaan": "CARMEL ANUGERAH MANDIRI",
        "tanggal_daftar": "2022-04-20",
        "nomor_tanda_daftar": "002566.03/DJAI.PSE/04/2022",
        "qr_code": "https://pse.kominfo.go.id/storage/images/qr_code/97e29be03c0fd9e1db512baf3493455d.png",
        "status_id": "TERDAFTAR",
        "sistem_elektronik_id": 3961
      }
    },
    {
      "type": "tdpseTerbit",
      "id": 3948,
      "attributes": {
        "nomor_pb_umku": null,
        "nama": "Aplikasi Monika PanenSaham",
        "website": "-",
        "sektor": "Sektor Perdagangan, Sektor Teknologi Informasi dan Komunikasi",
        "nama_perusahaan": "CARMEL ANUGERAH MANDIRI",
        "tanggal_daftar": "2022-04-20",
        "nomor_tanda_daftar": "002566.02/DJAI.PSE/04/2022",
        "qr_code": "https://pse.kominfo.go.id/storage/images/qr_code/dd50a8fa2b3b9cd54fb13ce51d13b68f.png",
        "status_id": "TERDAFTAR",
        "sistem_elektronik_id": 3960
      }
    }
  ]
}