{
  "meta": {
    "page": {
      "currentPage": 613,
      "from": 6121,
      "lastPage": 989,
      "perPage": 10,
      "to": 6130,
      "total": 9888
    }
  },
  "data": [
    {
      "type": "tdpseTerbit",
      "id": 2988,
      "attributes": {
        "nomor_pb_umku": null,
        "nama": "SLEEKR",
        "website": "www.sleekr.co",
        "sektor": "Sektor Teknologi Informasi dan Komunikasi",
        "nama_perusahaan": "MID SOLUSI NUSANTARA",
        "tanggal_daftar": "2022-01-07",
        "nomor_tanda_daftar": "001906.02/DJAI.PSE/01/2022",
        "qr_code": "https://pse.kominfo.go.id/storage/images/qr_code/4553235a1b6b9d42db5def3c0cfe40c7.png",
        "status_id": "TERDAFTAR",
        "sistem_elektronik_id": 472
      }
    },
    {
      "type": "tdpseTerbit",
      "id": 2976,
      "attributes": {
        "nomor_pb_umku": null,
        "nama": "TALENTA",
        "website": "https://hr.talenta.co/",
        "sektor": "Sektor Teknologi Informasi dan Komunikasi",
        "nama_perusahaan": "MID SOLUSI NUSANTARA",
        "tanggal_daftar": "2022-01-06",
        "nomor_tanda_daftar": "001906.01/DJAI.PSE/01/2022",
        "qr_code": "https://pse.kominfo.go.id/storage/images/qr_code/c8690d0f5cd1ca7d300c29c03a553f31.png",
        "status_id": "TERDAFTAR",
        "sistem_elektronik_id": 471
      }
    },
    {
      "type": "tdpseTerbit",
      "id": 2989,
      "attributes": {
        "nomor_pb_umku": null,
        "nama": "PT. NDH SUKSES PERKASA",
        "website": "-",
        "sektor": "Sektor Kesehatan, Sektor Perdagangan, Sektor Teknologi Informasi dan Komunikasi",
        "nama_perusahaan": "NDH SUKSES PERKASA",
        "tanggal_daftar": "2022-01-07",
        "nomor_tanda_daftar": "001905.02/DJAI.PSE/01/2022",
        "qr_code": "https://pse.kominfo.go.id/storage/images/qr_code/9f84acd49aed479eb98d148e41253f5c.png",
        "status_id": "TERDAFTAR",
        "sistem_elektronik_id": 2024
      }
    },
    {
      "type": "tdpseTerbit",
      "id": 2969,
      "attributes": {
        "nomor_pb_umku": null,
        "nama": "NDH Sukses Perkasa",
        "website": "-",
        "sektor": "Sektor Perdagangan, Sektor Teknologi Informasi dan Komunikasi",
        "nama_perusahaan": "NDH SUKSES PERKASA",
        "tanggal_daftar": "2022-01-06",
        "nomor_tanda_daftar": "001905.01/DJAI.PSE/01/2022",
        "qr_code": "https://pse.kominfo.go.id/storage/images/qr_code/3bf506f1dff5a221426787078c9b3a6b.png",
        "status_id": "TERDAFTAR",
        "sistem_elektronik_id": 2023
      }
    },
    {
      "type": "tdpseTerbit",
      "id": 2967,
      "attributes": {
        "nomor_pb_umku": null,
        "nama": "VSA",
        "website": "Vsaglobal.co.id",
        "sektor": "Sektor Perdagangan",
        "nama_perusahaan": "VAYYA SUKSES ABADI",
        "tanggal_daftar": "2022-01-06",
        "nomor_tanda_daftar": "001904.01/DJAI.PSE/01/2022",
        "qr_code": "https://pse.kominfo.go.id/storage/images/qr_code/7c3413790b321ad1a812b44adba8de4a.png",
        "status_id": "TERDAFTAR",
        "sistem_elektronik_id": 2025
      }
    },
    {
      "type": "tdpseTerbit",
      "id": 2968,
      "attributes": {
        "nomor_pb_umku": null,
        "nama": "Maintenance Information System",
        "website": "elisium.id",
        "sektor": "Sektor Teknologi Informasi dan Komunikasi",
        "nama_perusahaan": "ELISIUM DIGITAL TEKNOLOGI",
        "tanggal_daftar": "2022-01-06",
        "nomor_tanda_daftar": "001903.02/DJAI.PSE/01/2022",
        "qr_code": "https://pse.kominfo.go.id/storage/images/qr_code/186ef6050ad2829419ad2f4922268b5a.png",
        "status_id": "TERDAFTAR",
        "sistem_elektronik_id": 2005
      }
    },
    {
      "type": "tdpseTerbit",
      "id": 2966,
      "attributes": {
        "nomor_pb_umku": null,
        "nama": "HSSE Information System",
        "website": "elisium.id",
        "sektor": "Sektor Teknologi Informasi dan Komunikasi",
        "nama_perusahaan": "ELISIUM DIGITAL TEKNOLOGI",
        "tanggal_daftar": "2022-01-06",
        "nomor_tanda_daftar": "001903.01/DJAI.PSE/01/2022",
        "qr_code": "https://pse.kominfo.go.id/storage/images/qr_code/5b0c9b40c607adb13b725c86d5bb316f.png",
        "status_id": "TERDAFTAR",
        "sistem_elektronik_id": 2004
      }
    },
    {
      "type": "tdpseTerbit",
      "id": 3020,
      "attributes": {
        "nomor_pb_umku": null,
        "nama": "Top Legal ID",
        "website": "www.toplegal.id",
        "sektor": "Sektor Perdagangan, Sektor Teknologi Informasi dan Komunikasi",
        "nama_perusahaan": "TOP LEGAL GROUP",
        "tanggal_daftar": "2022-01-11",
        "nomor_tanda_daftar": "001902.02/DJAI.PSE/01/2022",
        "qr_code": "https://pse.kominfo.go.id/storage/images/qr_code/7b60ea6657fcaa4e7a65ae61111e4a7a.png",
        "status_id": "TERDAFTAR",
        "sistem_elektronik_id": 2027
      }
    },
    {
      "type": "tdpseTerbit",
      "id": 2965,
      "attributes": {
        "nomor_pb_umku": null,
        "nama": "Top Legal",
        "website": "www.toplegal.id",
        "sektor": "Sektor Perdagangan, Sektor Teknologi Informasi dan Komunikasi",
        "nama_perusahaan": "TOP LEGAL GROUP",
        "tanggal_daftar": "2022-01-06",
        "nomor_tanda_daftar": "001902.01/DJAI.PSE/01/2022",
        "qr_code": "https://pse.kominfo.go.id/storage/images/qr_code/d40c115e27ddb406f340615d3f539b95.png",
        "status_id": "TERDAFTAR",
        "sistem_elektronik_id": 2026
      }
    },
    {
      "type": "tdpseTerbit",
      "id": 2964,
      "attributes": {
        "nomor_pb_umku": null,
        "nama": "Kredibel",
        "website": "kredibel.co.id",
        "sektor": "Sektor Perdagangan, Sektor Teknologi Informasi dan Komunikasi",
        "nama_perusahaan": "KREDIBEL TEKNOLOGI INDONESIA",
        "tanggal_daftar": "2022-01-06",
        "nomor_tanda_daftar": "001901.01/DJAI.PSE/01/2022",
        "qr_code": "https://pse.kominfo.go.id/storage/images/qr_code/fdf1cfe40792086ed906f91e9419e773.png",
        "status_id": "TERDAFTAR",
        "sistem_elektronik_id": 587
      }
    }
  ]
}