{
  "meta": {
    "page": {
      "currentPage": 614,
      "from": 6131,
      "lastPage": 890,
      "perPage": 10,
      "to": 6140,
      "total": 8897
    }
  },
  "data": [
    {
      "type": "tdpseTerbit",
      "id": 2086,
      "attributes": {
        "nomor_pb_umku": null,
        "nama": "e-PROCUREMENT",
        "website": "eproc.banksumut.co.id",
        "sektor": "Sektor Keuangan",
        "nama_perusahaan": "PT BANK PEMBANGUNAN DAERAH SUMATERA UTARA",
        "tanggal_daftar": "2021-10-26",
        "nomor_tanda_daftar": "001396.04/DJAI.PSE/10/2021",
        "qr_code": "https://pse.kominfo.go.id/storage/images/qr_code/680285b694af7f6195cc646c74945cc4.png",
        "status_id": "TERDAFTAR",
        "sistem_elektronik_id": 3010
      }
    },
    {
      "type": "tdpseTerbit",
      "id": 2085,
      "attributes": {
        "nomor_pb_umku": null,
        "nama": "CMS KASDA",
        "website": "cmskasda.banksumut.com",
        "sektor": "Sektor Keuangan",
        "nama_perusahaan": "PT BANK PEMBANGUNAN DAERAH SUMATERA UTARA",
        "tanggal_daftar": "2021-10-26",
        "nomor_tanda_daftar": "001396.03/DJAI.PSE/10/2021",
        "qr_code": "https://pse.kominfo.go.id/storage/images/qr_code/e0f60f34668d5440d2f5c4de016588cf.png",
        "status_id": "TERDAFTAR",
        "sistem_elektronik_id": 3009
      }
    },
    {
      "type": "tdpseTerbit",
      "id": 2084,
      "attributes": {
        "nomor_pb_umku": null,
        "nama": "INTERNET BANKING",
        "website": "ib.banksumut.co.id",
        "sektor": "Sektor Keuangan",
        "nama_perusahaan": "PT BANK PEMBANGUNAN DAERAH SUMATERA UTARA",
        "tanggal_daftar": "2021-10-26",
        "nomor_tanda_daftar": "001396.02/DJAI.PSE/10/2021",
        "qr_code": "https://pse.kominfo.go.id/storage/images/qr_code/03fec63d024e581fe0b36e0685002d9e.png",
        "status_id": "TERDAFTAR",
        "sistem_elektronik_id": 3008
      }
    },
    {
      "type": "tdpseTerbit",
      "id": 2082,
      "attributes": {
        "nomor_pb_umku": null,
        "nama": "WEBSITE PERUSAHAAN",
        "website": "https://www.banksumut.co.id",
        "sektor": "Sektor Keuangan",
        "nama_perusahaan": "PT BANK PEMBANGUNAN DAERAH SUMATERA UTARA",
        "tanggal_daftar": "2021-10-26",
        "nomor_tanda_daftar": "001396.01/DJAI.PSE/10/2021",
        "qr_code": "https://pse.kominfo.go.id/storage/images/qr_code/0194fd2e5308cd9582f1ad7bbdd711c6.png",
        "status_id": "TERDAFTAR",
        "sistem_elektronik_id": 3007
      }
    },
    {
      "type": "tdpseTerbit",
      "id": 2081,
      "attributes": {
        "nomor_pb_umku": null,
        "nama": "Komodo powered by CTXG",
        "website": "www.komodoexchange.com",
        "sektor": "Sektor Perdagangan",
        "nama_perusahaan": "CTXG INDONESIA BERKARYA",
        "tanggal_daftar": "2021-10-26",
        "nomor_tanda_daftar": "001395.01/DJAI.PSE/10/2021",
        "qr_code": "https://pse.kominfo.go.id/storage/images/qr_code/2c2d90a6c1a77ee2e5edaa1c5b57e4a2.png",
        "status_id": "TERDAFTAR",
        "sistem_elektronik_id": 1517
      }
    },
    {
      "type": "tdpseTerbit",
      "id": 2080,
      "attributes": {
        "nomor_pb_umku": null,
        "nama": "hata.id",
        "website": "hata.id",
        "sektor": "Sektor Kesehatan",
        "nama_perusahaan": "PT. Hata Indonesia Sejahtera",
        "tanggal_daftar": "2021-10-26",
        "nomor_tanda_daftar": "001394.01/DJAI.PSE/10/2021",
        "qr_code": "https://pse.kominfo.go.id/storage/images/qr_code/668977f3288ebe50e7837442f31272e1.png",
        "status_id": "TERDAFTAR",
        "sistem_elektronik_id": 3005
      }
    },
    {
      "type": "tdpseTerbit",
      "id": 2079,
      "attributes": {
        "nomor_pb_umku": null,
        "nama": "TokoTalk",
        "website": "https://www.tokotalk.com/",
        "sektor": "Sektor Perdagangan, Sektor Teknologi Informasi dan Komunikasi",
        "nama_perusahaan": "CODEBRICK INDONESIA",
        "tanggal_daftar": "2021-10-26",
        "nomor_tanda_daftar": "001393.01/DJAI.PSE/10/2021",
        "qr_code": "https://pse.kominfo.go.id/storage/images/qr_code/116eedc543cc1d2d7e4f1edd966cec2d.png",
        "status_id": "TERDAFTAR",
        "sistem_elektronik_id": 561
      }
    },
    {
      "type": "tdpseTerbit",
      "id": 3497,
      "attributes": {
        "nomor_pb_umku": null,
        "nama": "www.soeasy.id",
        "website": "www.soeasy.id",
        "sektor": "Sektor Teknologi Informasi dan Komunikasi",
        "nama_perusahaan": "QUARK INTERNATIONAL INDONESIA",
        "tanggal_daftar": "2022-03-10",
        "nomor_tanda_daftar": "001392.02/DJAI.PSE/03/2022",
        "qr_code": "https://pse.kominfo.go.id/storage/images/qr_code/518599b3eb4211720b1a7a58394379a4.png",
        "status_id": "TERDAFTAR",
        "sistem_elektronik_id": 3202
      }
    },
    {
      "type": "tdpseTerbit",
      "id": 2078,
      "attributes": {
        "nomor_pb_umku": null,
        "nama": "So Easy",
        "website": "www.soeasy.id",
        "sektor": "Sektor Teknologi Informasi dan Komunikasi",
        "nama_perusahaan": "QUARK INTERNATIONAL INDONESIA",
        "tanggal_daftar": "2021-10-26",
        "nomor_tanda_daftar": "001392.01/DJAI.PSE/10/2021",
        "qr_code": "https://pse.kominfo.go.id/storage/images/qr_code/b359d6b9b16305db269309ecfc03de9e.png",
        "status_id": "TERDAFTAR",
        "sistem_elektronik_id": 2521
      }
    },
    {
      "type": "tdpseTerbit",
      "id": 2077,
      "attributes": {
        "nomor_pb_umku": null,
        "nama": "TERASLIS",
        "website": "https://demo2.terassekawanbersama.co.id",
        "sektor": "Sektor Kesehatan, Sektor Teknologi Informasi dan Komunikasi",
        "nama_perusahaan": "TERAS SEKAWAN BERSAMA",
        "tanggal_daftar": "2021-10-26",
        "nomor_tanda_daftar": "001391.01/DJAI.PSE/10/2021",
        "qr_code": "https://pse.kominfo.go.id/storage/images/qr_code/d452c53373172b9ed361dfedfa5bddfc.png",
        "status_id": "TERDAFTAR",
        "sistem_elektronik_id": 3412
      }
    }
  ]
}