{
  "meta": {
    "page": {
      "currentPage": 615,
      "from": 6141,
      "lastPage": 952,
      "perPage": 10,
      "to": 6150,
      "total": 9517
    }
  },
  "data": [
    {
      "type": "tdpseTerbit",
      "id": 2617,
      "attributes": {
        "nomor_pb_umku": null,
        "nama": "Segari",
        "website": "segari.id",
        "sektor": "Sektor Perdagangan",
        "nama_perusahaan": "SAYUR UNTUK SEMUA",
        "tanggal_daftar": "2021-12-02",
        "nomor_tanda_daftar": "001689.01/DJAI.PSE/12/2021",
        "qr_code": "https://pse.kominfo.go.id/storage/images/qr_code/263e812d194633236fdbc583339d08dd.png",
        "status_id": "TERDAFTAR",
        "sistem_elektronik_id": 2821
      }
    },
    {
      "type": "tdpseTerbit",
      "id": 2616,
      "attributes": {
        "nomor_pb_umku": null,
        "nama": "Interconnectdata",
        "website": "interconnectdata.com",
        "sektor": "Sektor Teknologi Informasi dan Komunikasi",
        "nama_perusahaan": "TEKNOLOGI CAKRA INTERNASIONAL",
        "tanggal_daftar": "2021-12-02",
        "nomor_tanda_daftar": "001688.01/DJAI.PSE/12/2021",
        "qr_code": "https://pse.kominfo.go.id/storage/images/qr_code/cb67c49c5ada74b39e5ae9984612cb75.png",
        "status_id": "TERDAFTAR",
        "sistem_elektronik_id": 1793
      }
    },
    {
      "type": "tdpseTerbit",
      "id": 2614,
      "attributes": {
        "nomor_pb_umku": null,
        "nama": "K1NG Universe",
        "website": "(cloud.)k1nguniverse.com",
        "sektor": "Sektor Teknologi Informasi dan Komunikasi",
        "nama_perusahaan": "RAJA SURYADARMA MULTIMEDIA",
        "tanggal_daftar": "2021-12-02",
        "nomor_tanda_daftar": "001687.01/DJAI.PSE/12/2021",
        "qr_code": "https://pse.kominfo.go.id/storage/images/qr_code/e102ad2a1fb9a9f560a65ba537f82ac1.png",
        "status_id": "TERDAFTAR",
        "sistem_elektronik_id": 1794
      }
    },
    {
      "type": "tdpseTerbit",
      "id": 2613,
      "attributes": {
        "nomor_pb_umku": null,
        "nama": "PT DUNIA BOGA INDONESIA",
        "website": "www.bakingworld.id",
        "sektor": "Sektor Perdagangan",
        "nama_perusahaan": "DUNIA BOGA INDONESIA",
        "tanggal_daftar": "2021-12-02",
        "nomor_tanda_daftar": "001686.01/DJAI.PSE/12/2021",
        "qr_code": "https://pse.kominfo.go.id/storage/images/qr_code/14520b72c010137c33f9e251599f1d62.png",
        "status_id": "TERDAFTAR",
        "sistem_elektronik_id": 1792
      }
    },
    {
      "type": "tdpseTerbit",
      "id": 2606,
      "attributes": {
        "nomor_pb_umku": null,
        "nama": "Situs Penjualan Produk Asuransi",
        "website": "www.tokiomarine.co.id",
        "sektor": "Sektor Keuangan",
        "nama_perusahaan": "ASURANSI TOKIO MARINE INDONESIA",
        "tanggal_daftar": "2021-12-02",
        "nomor_tanda_daftar": "001685.01/DJAI.PSE/12/2021",
        "qr_code": "https://pse.kominfo.go.id/storage/images/qr_code/7af09008a48e7419a8e85ee1a3fd15b1.png",
        "status_id": "TERDAFTAR",
        "sistem_elektronik_id": 1791
      }
    },
    {
      "type": "tdpseTerbit",
      "id": 2600,
      "attributes": {
        "nomor_pb_umku": null,
        "nama": "internet",
        "website": "jaretnews.com",
        "sektor": "Sektor Teknologi Informasi dan Komunikasi",
        "nama_perusahaan": "JARET NUSA KARYA",
        "tanggal_daftar": "2021-12-02",
        "nomor_tanda_daftar": "001684.01/DJAI.PSE/12/2021",
        "qr_code": "https://pse.kominfo.go.id/storage/images/qr_code/de2633d2cc419994aeb4b3e329ad1bcf.png",
        "status_id": "TERDAFTAR",
        "sistem_elektronik_id": 1790
      }
    },
    {
      "type": "tdpseTerbit",
      "id": 2597,
      "attributes": {
        "nomor_pb_umku": null,
        "nama": "Hamilku.id",
        "website": "hamilku.id",
        "sektor": "Sektor Kesehatan, Sektor Keuangan, Sektor Teknologi Informasi dan Komunikasi",
        "nama_perusahaan": "NALANIRA NUSWANTARA MEDIKA",
        "tanggal_daftar": "2021-12-02",
        "nomor_tanda_daftar": "001683.01/DJAI.PSE/12/2021",
        "qr_code": "https://pse.kominfo.go.id/storage/images/qr_code/056b51b5007c0c22218e184108ced4c2.png",
        "status_id": "TERDAFTAR",
        "sistem_elektronik_id": 1442
      }
    },
    {
      "type": "tdpseTerbit",
      "id": 4225,
      "attributes": {
        "nomor_pb_umku": "912010027129200010010",
        "nama": "JAKONE PAY",
        "website": "-",
        "sektor": "Sektor Keuangan",
        "nama_perusahaan": "BANK DKI",
        "tanggal_daftar": "2022-06-03",
        "nomor_tanda_daftar": "001682.10/DJAI.PSE/06/2022",
        "qr_code": "https://pse.kominfo.go.id/storage/images/qr_code/f6bf690f3e6597c9589ffe3a432ffcdc.png",
        "status_id": "TERDAFTAR",
        "sistem_elektronik_id": 4222
      }
    },
    {
      "type": "tdpseTerbit",
      "id": 2610,
      "attributes": {
        "nomor_pb_umku": null,
        "nama": "Laku Pandai",
        "website": "-",
        "sektor": "Sektor Keuangan",
        "nama_perusahaan": "BANK DKI",
        "tanggal_daftar": "2021-12-02",
        "nomor_tanda_daftar": "001682.09/DJAI.PSE/12/2021",
        "qr_code": "https://pse.kominfo.go.id/storage/images/qr_code/972b4f5b7fc2ea897e8df98381599ec1.png",
        "status_id": "TERDAFTAR",
        "sistem_elektronik_id": 1775
      }
    },
    {
      "type": "tdpseTerbit",
      "id": 2609,
      "attributes": {
        "nomor_pb_umku": null,
        "nama": "JakOne Bill",
        "website": "billingsystem.bankdki.co.id",
        "sektor": "Sektor Keuangan",
        "nama_perusahaan": "BANK DKI",
        "tanggal_daftar": "2021-12-02",
        "nomor_tanda_daftar": "001682.08/DJAI.PSE/12/2021",
        "qr_code": "https://pse.kominfo.go.id/storage/images/qr_code/7cb0a572c4b073ddbdf36a3df531888f.png",
        "status_id": "TERDAFTAR",
        "sistem_elektronik_id": 1774
      }
    }
  ]
}