{
  "meta": {
    "page": {
      "currentPage": 616,
      "from": 6151,
      "lastPage": 944,
      "perPage": 10,
      "to": 6160,
      "total": 9434
    }
  },
  "data": [
    {
      "type": "tdpseTerbit",
      "id": 2573,
      "attributes": {
        "nomor_pb_umku": null,
        "nama": "BCA KlikPay",
        "website": "klikbca.com",
        "sektor": "Sektor Keuangan",
        "nama_perusahaan": "BANK CENTRAL ASIA",
        "tanggal_daftar": "2021-12-01",
        "nomor_tanda_daftar": "001669.14/DJAI.PSE/12/2021",
        "qr_code": "https://pse.kominfo.go.id/storage/images/qr_code/67600c45201aa4ea47b00ce35597d997.png",
        "status_id": "TERDAFTAR",
        "sistem_elektronik_id": 631
      }
    },
    {
      "type": "tdpseTerbit",
      "id": 2572,
      "attributes": {
        "nomor_pb_umku": null,
        "nama": "Vindi (Financial Diary)",
        "website": "-",
        "sektor": "Sektor Keuangan",
        "nama_perusahaan": "BANK CENTRAL ASIA",
        "tanggal_daftar": "2021-12-01",
        "nomor_tanda_daftar": "001669.13/DJAI.PSE/12/2021",
        "qr_code": "https://pse.kominfo.go.id/storage/images/qr_code/71e46f5fbecd7562bde8f3faa29e8f67.png",
        "status_id": "TERDAFTAR",
        "sistem_elektronik_id": 630
      }
    },
    {
      "type": "tdpseTerbit",
      "id": 2571,
      "attributes": {
        "nomor_pb_umku": null,
        "nama": "Halo BCA",
        "website": "-",
        "sektor": "Sektor Keuangan",
        "nama_perusahaan": "BANK CENTRAL ASIA",
        "tanggal_daftar": "2021-12-01",
        "nomor_tanda_daftar": "001669.12/DJAI.PSE/12/2021",
        "qr_code": "https://pse.kominfo.go.id/storage/images/qr_code/ced2002a841d5953d3a713f555cf9df0.png",
        "status_id": "TERDAFTAR",
        "sistem_elektronik_id": 629
      }
    },
    {
      "type": "tdpseTerbit",
      "id": 2564,
      "attributes": {
        "nomor_pb_umku": null,
        "nama": "QR Merchant Service",
        "website": "klikbca.com",
        "sektor": "Sektor Keuangan",
        "nama_perusahaan": "BANK CENTRAL ASIA",
        "tanggal_daftar": "2021-12-01",
        "nomor_tanda_daftar": "001669.11/DJAI.PSE/12/2021",
        "qr_code": "https://pse.kominfo.go.id/storage/images/qr_code/c9bb0bbd27bd64ee8e4273e05f1df2ab.png",
        "status_id": "TERDAFTAR",
        "sistem_elektronik_id": 628
      }
    },
    {
      "type": "tdpseTerbit",
      "id": 2563,
      "attributes": {
        "nomor_pb_umku": null,
        "nama": "Merchant BCA",
        "website": "-",
        "sektor": "Sektor Keuangan",
        "nama_perusahaan": "BANK CENTRAL ASIA",
        "tanggal_daftar": "2021-12-01",
        "nomor_tanda_daftar": "001669.10/DJAI.PSE/12/2021",
        "qr_code": "https://pse.kominfo.go.id/storage/images/qr_code/155fcdb6e9b16fd56de78f301eeb57d4.png",
        "status_id": "TERDAFTAR",
        "sistem_elektronik_id": 627
      }
    },
    {
      "type": "tdpseTerbit",
      "id": 2562,
      "attributes": {
        "nomor_pb_umku": null,
        "nama": "APOS BCA",
        "website": "-",
        "sektor": "Sektor Keuangan",
        "nama_perusahaan": "BANK CENTRAL ASIA",
        "tanggal_daftar": "2021-12-01",
        "nomor_tanda_daftar": "001669.09/DJAI.PSE/12/2021",
        "qr_code": "https://pse.kominfo.go.id/storage/images/qr_code/1c8ca19914847e3d60b416d4b0829b12.png",
        "status_id": "TERDAFTAR",
        "sistem_elektronik_id": 626
      }
    },
    {
      "type": "tdpseTerbit",
      "id": 2561,
      "attributes": {
        "nomor_pb_umku": null,
        "nama": "API BCA",
        "website": "developer.bca.co.id",
        "sektor": "Sektor Keuangan",
        "nama_perusahaan": "BANK CENTRAL ASIA",
        "tanggal_daftar": "2021-12-01",
        "nomor_tanda_daftar": "001669.08/DJAI.PSE/12/2021",
        "qr_code": "https://pse.kominfo.go.id/storage/images/qr_code/18bb513e9b4161c2094eee6b860da722.png",
        "status_id": "TERDAFTAR",
        "sistem_elektronik_id": 625
      }
    },
    {
      "type": "tdpseTerbit",
      "id": 2560,
      "attributes": {
        "nomor_pb_umku": null,
        "nama": "OneKlik",
        "website": "klikbca.com",
        "sektor": "Sektor Keuangan",
        "nama_perusahaan": "BANK CENTRAL ASIA",
        "tanggal_daftar": "2021-12-01",
        "nomor_tanda_daftar": "001669.07/DJAI.PSE/12/2021",
        "qr_code": "https://pse.kominfo.go.id/storage/images/qr_code/b1410f2d6cac96a573428ad0288aacc5.png",
        "status_id": "TERDAFTAR",
        "sistem_elektronik_id": 624
      }
    },
    {
      "type": "tdpseTerbit",
      "id": 2559,
      "attributes": {
        "nomor_pb_umku": null,
        "nama": "KlikBCA Bisnis",
        "website": "klikbca.com",
        "sektor": "Sektor Keuangan",
        "nama_perusahaan": "BANK CENTRAL ASIA",
        "tanggal_daftar": "2021-12-01",
        "nomor_tanda_daftar": "001669.06/DJAI.PSE/12/2021",
        "qr_code": "https://pse.kominfo.go.id/storage/images/qr_code/746a2ca316700527bf195d8488eeb1a7.png",
        "status_id": "TERDAFTAR",
        "sistem_elektronik_id": 623
      }
    },
    {
      "type": "tdpseTerbit",
      "id": 2558,
      "attributes": {
        "nomor_pb_umku": null,
        "nama": "Sakuku",
        "website": "-",
        "sektor": "Sektor Keuangan",
        "nama_perusahaan": "BANK CENTRAL ASIA",
        "tanggal_daftar": "2021-12-01",
        "nomor_tanda_daftar": "001669.05/DJAI.PSE/12/2021",
        "qr_code": "https://pse.kominfo.go.id/storage/images/qr_code/2fa2a573631c99d5052ae61f94902b80.png",
        "status_id": "TERDAFTAR",
        "sistem_elektronik_id": 622
      }
    }
  ]
}