{
  "meta": {
    "page": {
      "currentPage": 617,
      "from": 6161,
      "lastPage": 1113,
      "perPage": 10,
      "to": 6170,
      "total": 11124
    }
  },
  "data": [
    {
      "type": "tdpseTerbit",
      "id": 12153,
      "attributes": {
        "nomor_pb_umku": "912030739162400020002",
        "nama": "SYNCARGO",
        "website": "syncargo.com",
        "sektor": "Sektor Transportasi, Sektor Teknologi Informasi dan Komunikasi",
        "nama_perusahaan": "EXIMKU TEKNOLOGI INDONESIA",
        "tanggal_daftar": "2022-11-07",
        "nomor_tanda_daftar": "002721.02/DJAI.PSE/11/2022",
        "qr_code": "https://pse.kominfo.go.id/storage/images/qr_code/feb311635ff543ee301e5921de8a3a9f.png",
        "status_id": "TERDAFTAR",
        "sistem_elektronik_id": 11948
      }
    },
    {
      "type": "tdpseTerbit",
      "id": 4498,
      "attributes": {
        "nomor_pb_umku": null,
        "nama": "Andalin Trade",
        "website": "trade.andalin.com",
        "sektor": "Sektor Perdagangan, Sektor Teknologi Informasi dan Komunikasi",
        "nama_perusahaan": "EXIMKU TEKNOLOGI INDONESIA",
        "tanggal_daftar": "2022-05-19",
        "nomor_tanda_daftar": "002721.01/DJAI.PSE/05/2022",
        "qr_code": "https://pse.kominfo.go.id/storage/images/qr_code/33dd4f92ae1755985967fb50b4d8b14b.png",
        "status_id": "TERDAFTAR",
        "sistem_elektronik_id": 4482
      }
    },
    {
      "type": "tdpseTerbit",
      "id": 4497,
      "attributes": {
        "nomor_pb_umku": null,
        "nama": "Punyabersama.id",
        "website": "beta2.punyabersama.id",
        "sektor": "Sektor Keuangan",
        "nama_perusahaan": "BERSAMA MILIK BANGSA",
        "tanggal_daftar": "2022-05-19",
        "nomor_tanda_daftar": "002720.01/DJAI.PSE/05/2022",
        "qr_code": "https://pse.kominfo.go.id/storage/images/qr_code/f79208f07480729333debca7384053da.png",
        "status_id": "TERDAFTAR",
        "sistem_elektronik_id": 4481
      }
    },
    {
      "type": "tdpseTerbit",
      "id": 4496,
      "attributes": {
        "nomor_pb_umku": null,
        "nama": "Hotel Swift Inn Aeropolis Jakarta",
        "website": "www.swiftinns.com",
        "sektor": "Sektor Perdagangan",
        "nama_perusahaan": "ESTRELLA DUABELAS INDONESIA",
        "tanggal_daftar": "2022-05-19",
        "nomor_tanda_daftar": "002719.01/DJAI.PSE/05/2022",
        "qr_code": "https://pse.kominfo.go.id/storage/images/qr_code/3ab98ea6760892d0c12886ee77157e98.png",
        "status_id": "TERDAFTAR",
        "sistem_elektronik_id": 4480
      }
    },
    {
      "type": "tdpseTerbit",
      "id": 4495,
      "attributes": {
        "nomor_pb_umku": null,
        "nama": "PT Kerinci Merangin Hidro",
        "website": "-",
        "sektor": "Sektor Energi dan Sumber Daya Mineral",
        "nama_perusahaan": "KERINCI MERANGIN HIDRO",
        "tanggal_daftar": "2022-05-19",
        "nomor_tanda_daftar": "002718.01/DJAI.PSE/05/2022",
        "qr_code": "https://pse.kominfo.go.id/storage/images/qr_code/d718395d31be611e0dcb8977a16e4f59.png",
        "status_id": "TERDAFTAR",
        "sistem_elektronik_id": 4479
      }
    },
    {
      "type": "tdpseTerbit",
      "id": 4466,
      "attributes": {
        "nomor_pb_umku": null,
        "nama": "Website Yakult",
        "website": "yakult.co.id",
        "sektor": "Sektor Perdagangan",
        "nama_perusahaan": "YAKULT INDONESIA PERSADA",
        "tanggal_daftar": "2022-05-19",
        "nomor_tanda_daftar": "002717.01/DJAI.PSE/05/2022",
        "qr_code": "https://pse.kominfo.go.id/storage/images/qr_code/e3ccc555cf50bf7dfe15440897b44d3a.png",
        "status_id": "TERDAFTAR",
        "sistem_elektronik_id": 4450
      }
    },
    {
      "type": "tdpseTerbit",
      "id": 4494,
      "attributes": {
        "nomor_pb_umku": null,
        "nama": "Formi",
        "website": "formi.id",
        "sektor": "Sektor Kesehatan",
        "nama_perusahaan": "FORMI UNTUNG BERSAMA",
        "tanggal_daftar": "2022-05-19",
        "nomor_tanda_daftar": "002716.01/DJAI.PSE/05/2022",
        "qr_code": "https://pse.kominfo.go.id/storage/images/qr_code/db7e4f36f23e95ba4a0af6dbb980eb96.png",
        "status_id": "TERDAFTAR",
        "sistem_elektronik_id": 4478
      }
    },
    {
      "type": "tdpseTerbit",
      "id": 4493,
      "attributes": {
        "nomor_pb_umku": null,
        "nama": "BrownMix Factory Indonesia",
        "website": "-",
        "sektor": "Sektor Perdagangan",
        "nama_perusahaan": "BROWNMIX FACTORY INDONESIA",
        "tanggal_daftar": "2022-05-19",
        "nomor_tanda_daftar": "002715.01/DJAI.PSE/05/2022",
        "qr_code": "https://pse.kominfo.go.id/storage/images/qr_code/608da059620b7ca6abd57c20435e4012.png",
        "status_id": "TERDAFTAR",
        "sistem_elektronik_id": 4477
      }
    },
    {
      "type": "tdpseTerbit",
      "id": 4492,
      "attributes": {
        "nomor_pb_umku": null,
        "nama": "Runchise",
        "website": "runchise.com",
        "sektor": "Sektor Teknologi Informasi dan Komunikasi",
        "nama_perusahaan": "TEKNOLOGI KULINER KEKINIAN",
        "tanggal_daftar": "2022-05-18",
        "nomor_tanda_daftar": "002714.01/DJAI.PSE/05/2022",
        "qr_code": "https://pse.kominfo.go.id/storage/images/qr_code/d2f0d641f918e3c54a4fa5f7acab7ab7.png",
        "status_id": "TERDAFTAR",
        "sistem_elektronik_id": 4476
      }
    },
    {
      "type": "tdpseTerbit",
      "id": 4491,
      "attributes": {
        "nomor_pb_umku": null,
        "nama": "EAGLE JEK",
        "website": "-",
        "sektor": "Sektor Teknologi Informasi dan Komunikasi, Sektor Transportasi",
        "nama_perusahaan": "EMILIANUS SAMSON",
        "tanggal_daftar": "2022-05-18",
        "nomor_tanda_daftar": "002713.01/DJAI.PSE/05/2022",
        "qr_code": "https://pse.kominfo.go.id/storage/images/qr_code/f99d407d4e9ade601d0ff2adf1e8a9df.png",
        "status_id": "TERDAFTAR",
        "sistem_elektronik_id": 4475
      }
    }
  ]
}