{
  "meta": {
    "page": {
      "currentPage": 619,
      "from": 6181,
      "lastPage": 981,
      "perPage": 10,
      "to": 6190,
      "total": 9802
    }
  },
  "data": [
    {
      "type": "tdpseTerbit",
      "id": 2821,
      "attributes": {
        "nomor_pb_umku": null,
        "nama": "PikApp",
        "website": "https.//pik.app.id",
        "sektor": "Sektor Perdagangan, Sektor Teknologi Informasi dan Komunikasi",
        "nama_perusahaan": "GERAI TEKNOLOGI CERDAS",
        "tanggal_daftar": "2021-12-21",
        "nomor_tanda_daftar": "001816.01/DJAI.PSE/12/2021",
        "qr_code": "https://pse.kominfo.go.id/storage/images/qr_code/0fbddb2712563e53dac58fff63bb8770.png",
        "status_id": "TERDAFTAR",
        "sistem_elektronik_id": 1946
      }
    },
    {
      "type": "tdpseTerbit",
      "id": 2814,
      "attributes": {
        "nomor_pb_umku": null,
        "nama": "PERDAGANGAN FISIK ASET KRIPTO",
        "website": "-",
        "sektor": "Sektor Perdagangan",
        "nama_perusahaan": "PROJECT ONE SOLUTION",
        "tanggal_daftar": "2021-12-21",
        "nomor_tanda_daftar": "001815.01/DJAI.PSE/12/2021",
        "qr_code": "https://pse.kominfo.go.id/storage/images/qr_code/a986d78c8b893237006829665631b3d8.png",
        "status_id": "TERDAFTAR",
        "sistem_elektronik_id": 1919
      }
    },
    {
      "type": "tdpseTerbit",
      "id": 10380,
      "attributes": {
        "nomor_pb_umku": "812020697207500000005",
        "nama": "SOCIOLLA",
        "website": "sociolla.com",
        "sektor": "Sektor Perdagangan",
        "nama_perusahaan": "SOCIOLLA RITEL INDONESIA",
        "tanggal_daftar": "2022-08-15",
        "nomor_tanda_daftar": "001814.05/DJAI.PSE/08/2022",
        "qr_code": "https://pse.kominfo.go.id/storage/images/qr_code/f0d4916eff7c2c2817a745ea77ce5e65.png",
        "status_id": "TERDAFTAR",
        "sistem_elektronik_id": 10236
      }
    },
    {
      "type": "tdpseTerbit",
      "id": 6727,
      "attributes": {
        "nomor_pb_umku": "812020697207500000004",
        "nama": "COSRX ID: SITUS RESMI PRODUK & INFORMASI COSRX INDONESIA",
        "website": "cosrx.id",
        "sektor": "Sektor Perdagangan",
        "nama_perusahaan": "SOCIOLLA RITEL INDONESIA",
        "tanggal_daftar": "2022-07-19",
        "nomor_tanda_daftar": "001814.04/DJAI.PSE/07/2022",
        "qr_code": "https://pse.kominfo.go.id/storage/images/qr_code/4ec5c86ffe437074a451782fec7aee32.png",
        "status_id": "TERDAFTAR",
        "sistem_elektronik_id": 6574
      }
    },
    {
      "type": "tdpseTerbit",
      "id": 6714,
      "attributes": {
        "nomor_pb_umku": "812020697207500000003",
        "nama": "CARASUN: TROPICAL SKIN EXPERT",
        "website": "carasunbeauty.com",
        "sektor": "Sektor Perdagangan",
        "nama_perusahaan": "SOCIOLLA RITEL INDONESIA",
        "tanggal_daftar": "2022-07-19",
        "nomor_tanda_daftar": "001814.03/DJAI.PSE/07/2022",
        "qr_code": "https://pse.kominfo.go.id/storage/images/qr_code/28850d9e2bdf02fb789ac898a4419be7.png",
        "status_id": "TERDAFTAR",
        "sistem_elektronik_id": 6566
      }
    },
    {
      "type": "tdpseTerbit",
      "id": 2813,
      "attributes": {
        "nomor_pb_umku": null,
        "nama": "Lilla",
        "website": "www.lilla.id",
        "sektor": "Sektor Perdagangan",
        "nama_perusahaan": "SOCIOLLA RITEL INDONESIA",
        "tanggal_daftar": "2021-12-21",
        "nomor_tanda_daftar": "001814.02/DJAI.PSE/12/2021",
        "qr_code": "https://pse.kominfo.go.id/storage/images/qr_code/1871b1a693c428a13910a21de0ee185a.png",
        "status_id": "TERDAFTAR",
        "sistem_elektronik_id": 1941
      }
    },
    {
      "type": "tdpseTerbit",
      "id": 2812,
      "attributes": {
        "nomor_pb_umku": null,
        "nama": "SOCO by Sociolla",
        "website": "www.sociolla.id",
        "sektor": "Sektor Perdagangan",
        "nama_perusahaan": "SOCIOLLA RITEL INDONESIA",
        "tanggal_daftar": "2021-12-21",
        "nomor_tanda_daftar": "001814.01/DJAI.PSE/12/2021",
        "qr_code": "https://pse.kominfo.go.id/storage/images/qr_code/d68ffd28847d56d6bdbcafc71ccd7e23.png",
        "status_id": "TERDAFTAR",
        "sistem_elektronik_id": 1940
      }
    },
    {
      "type": "tdpseTerbit",
      "id": 3443,
      "attributes": {
        "nomor_pb_umku": null,
        "nama": "Aplikasi e-WR (elektronik Workning Request)",
        "website": "https://ewr.btn.co.id",
        "sektor": "Sektor Keuangan",
        "nama_perusahaan": "PERUSAHAAN PERSEROAN (PERSERO) PT. BANK TABUNGAN NEGARA",
        "tanggal_daftar": "2022-03-07",
        "nomor_tanda_daftar": "001813.23/DJAI.PSE/03/2022",
        "qr_code": "https://pse.kominfo.go.id/storage/images/qr_code/3e37332c1486d358f83b64387c121d62.png",
        "status_id": "TERDAFTAR",
        "sistem_elektronik_id": 3189
      }
    },
    {
      "type": "tdpseTerbit",
      "id": 3442,
      "attributes": {
        "nomor_pb_umku": null,
        "nama": "Aplikasi e-Procurement",
        "website": "https://eproc.btn.co.id/webextranet/login.aspx",
        "sektor": "Sektor Keuangan",
        "nama_perusahaan": "PERUSAHAAN PERSEROAN (PERSERO) PT. BANK TABUNGAN NEGARA",
        "tanggal_daftar": "2022-03-07",
        "nomor_tanda_daftar": "001813.22/DJAI.PSE/03/2022",
        "qr_code": "https://pse.kominfo.go.id/storage/images/qr_code/b84d843a5e9f69968d9f2f391c678914.png",
        "status_id": "TERDAFTAR",
        "sistem_elektronik_id": 3188
      }
    },
    {
      "type": "tdpseTerbit",
      "id": 2954,
      "attributes": {
        "nomor_pb_umku": null,
        "nama": "Supply Chain Financing",
        "website": "scf.btn.co.id",
        "sektor": "Sektor Keuangan",
        "nama_perusahaan": "PERUSAHAAN PERSEROAN (PERSERO) PT. BANK TABUNGAN NEGARA",
        "tanggal_daftar": "2022-01-05",
        "nomor_tanda_daftar": "001813.21/DJAI.PSE/01/2022",
        "qr_code": "https://pse.kominfo.go.id/storage/images/qr_code/11feb43b6c706d60765b09fd4051f6e6.png",
        "status_id": "TERDAFTAR",
        "sistem_elektronik_id": 1939
      }
    }
  ]
}