{
  "meta": {
    "page": {
      "currentPage": 63,
      "from": 621,
      "lastPage": 1085,
      "perPage": 10,
      "to": 630,
      "total": 10842
    }
  },
  "data": [
    {
      "type": "tdpseTerbit",
      "id": 10902,
      "attributes": {
        "nomor_pb_umku": "022030592032500000004",
        "nama": "DOMAINER",
        "website": "domainer.co.id",
        "sektor": "Sektor Teknologi Informasi dan Komunikasi",
        "nama_perusahaan": "JOGJAHOST",
        "tanggal_daftar": "2022-08-30",
        "nomor_tanda_daftar": "007557.04/DJAI.PSE/08/2022",
        "qr_code": "https://pse.kominfo.go.id/storage/images/qr_code/564135d8a3f184d474473d7b87ff55a9.png",
        "status_id": "TERDAFTAR",
        "sistem_elektronik_id": 10714
      }
    },
    {
      "type": "tdpseTerbit",
      "id": 10900,
      "attributes": {
        "nomor_pb_umku": "022030592032500000003",
        "nama": "ZIEHOST",
        "website": "ziehost.com",
        "sektor": "Sektor Teknologi Informasi dan Komunikasi",
        "nama_perusahaan": "JOGJAHOST",
        "tanggal_daftar": "2022-08-30",
        "nomor_tanda_daftar": "007557.03/DJAI.PSE/08/2022",
        "qr_code": "https://pse.kominfo.go.id/storage/images/qr_code/c28abaad605f66ff5f89466cdffb1f28.png",
        "status_id": "TERDAFTAR",
        "sistem_elektronik_id": 10712
      }
    },
    {
      "type": "tdpseTerbit",
      "id": 10899,
      "attributes": {
        "nomor_pb_umku": "022030592032500000002",
        "nama": "JHPLATINUM",
        "website": "jhplatinum.com",
        "sektor": "Sektor Teknologi Informasi dan Komunikasi",
        "nama_perusahaan": "JOGJAHOST",
        "tanggal_daftar": "2022-08-30",
        "nomor_tanda_daftar": "007557.02/DJAI.PSE/08/2022",
        "qr_code": "https://pse.kominfo.go.id/storage/images/qr_code/142c6209f4a3c84a2b072a602b14edcc.png",
        "status_id": "TERDAFTAR",
        "sistem_elektronik_id": 10711
      }
    },
    {
      "type": "tdpseTerbit",
      "id": 10896,
      "attributes": {
        "nomor_pb_umku": "022030592032500000001",
        "nama": "JOGJAHOST",
        "website": "jogjahost.co.id",
        "sektor": "Sektor Teknologi Informasi dan Komunikasi",
        "nama_perusahaan": "JOGJAHOST",
        "tanggal_daftar": "2022-08-30",
        "nomor_tanda_daftar": "007557.01/DJAI.PSE/08/2022",
        "qr_code": "https://pse.kominfo.go.id/storage/images/qr_code/29f4a90aec78838fcc500213ddcf7b13.png",
        "status_id": "TERDAFTAR",
        "sistem_elektronik_id": 10708
      }
    },
    {
      "type": "tdpseTerbit",
      "id": 11223,
      "attributes": {
        "nomor_pb_umku": "912040786194300000001",
        "nama": "HEYSTETIK",
        "website": "heystetik.com",
        "sektor": "Sektor Kesehatan",
        "nama_perusahaan": "NEOSAINS MEDIKA TEKNOLOGI",
        "tanggal_daftar": "2022-09-16",
        "nomor_tanda_daftar": "007556.01/DJAI.PSE/09/2022",
        "qr_code": "https://pse.kominfo.go.id/storage/images/qr_code/182f3495d1fd13a9c0faaaff213400c0.png",
        "status_id": "TERDAFTAR",
        "sistem_elektronik_id": 11031
      }
    },
    {
      "type": "tdpseTerbit",
      "id": 10901,
      "attributes": {
        "nomor_pb_umku": "812011009119100000001",
        "nama": "RECHARGE",
        "website": "Recharge.id",
        "sektor": "Sektor Perdagangan",
        "nama_perusahaan": "JALAN TERUS SAJA",
        "tanggal_daftar": "2022-08-30",
        "nomor_tanda_daftar": "007555.01/DJAI.PSE/08/2022",
        "qr_code": "https://pse.kominfo.go.id/storage/images/qr_code/469b40c21899cef64e696b9e77ea2da6.png",
        "status_id": "TERDAFTAR",
        "sistem_elektronik_id": 10713
      }
    },
    {
      "type": "tdpseTerbit",
      "id": 12008,
      "attributes": {
        "nomor_pb_umku": "912010683069600010001",
        "nama": "TELEPERFORMANCE TP CLIENT",
        "website": "-",
        "sektor": "Sektor Perdagangan, Sektor Teknologi Informasi dan Komunikasi",
        "nama_perusahaan": "TELEMARKETING INDONESIA",
        "tanggal_daftar": "2022-10-28",
        "nomor_tanda_daftar": "007554.01/DJAI.PSE/10/2022",
        "qr_code": "https://pse.kominfo.go.id/storage/images/qr_code/5d97831411f289ac9a1a19737adceabf.png",
        "status_id": "TERDAFTAR",
        "sistem_elektronik_id": 11812
      }
    },
    {
      "type": "tdpseTerbit",
      "id": 10915,
      "attributes": {
        "nomor_pb_umku": "912030734251500000001",
        "nama": "WWW.ATLANTIS-BALI-DIVING.COM",
        "website": "atlantis-bali-diving.com",
        "sektor": "Sektor Perdagangan",
        "nama_perusahaan": "ATLANTIS INTERNATIONAL",
        "tanggal_daftar": "2022-09-05",
        "nomor_tanda_daftar": "007551.01/DJAI.PSE/08/2022",
        "qr_code": "https://pse.kominfo.go.id/storage/images/qr_code/b78a00a9a6d3092ee960fb6537e5c0d8.png",
        "status_id": "TERDAFTAR",
        "sistem_elektronik_id": 10722
      }
    },
    {
      "type": "tdpseTerbit",
      "id": 11750,
      "attributes": {
        "nomor_pb_umku": "040622000100800000001",
        "nama": "FIAJEK MEDIATAMA CENTER",
        "website": "-",
        "sektor": "Sektor Transportasi",
        "nama_perusahaan": "FIAJEK MEDIATAMA CENTER",
        "tanggal_daftar": "2022-10-11",
        "nomor_tanda_daftar": "007550.01/DJAI.PSE/10/2022",
        "qr_code": "https://pse.kominfo.go.id/storage/images/qr_code/de1aec2869c7d411da010df16da575b3.png",
        "status_id": "TERDAFTAR",
        "sistem_elektronik_id": 11550
      }
    },
    {
      "type": "tdpseTerbit",
      "id": 10879,
      "attributes": {
        "nomor_pb_umku": "290822006227100000001",
        "nama": "OC JEK",
        "website": "-",
        "sektor": "Sektor Transportasi",
        "nama_perusahaan": "HASTOMO DIGITAL MANAJEMEN INDONESIA",
        "tanggal_daftar": "2022-08-29",
        "nomor_tanda_daftar": "007549.01/DJAI.PSE/08/2022",
        "qr_code": "https://pse.kominfo.go.id/storage/images/qr_code/11aaa099c997f5bcd8b89edebd7211ed.png",
        "status_id": "TERDAFTAR",
        "sistem_elektronik_id": 10690
      }
    }
  ]
}