{
  "meta": {
    "page": {
      "currentPage": 622,
      "from": 6211,
      "lastPage": 1052,
      "perPage": 10,
      "to": 6220,
      "total": 10513
    }
  },
  "data": [
    {
      "type": "tdpseTerbit",
      "id": 3611,
      "attributes": {
        "nomor_pb_umku": null,
        "nama": "stradivarius.com",
        "website": "stradivarius.com",
        "sektor": "Sektor Perdagangan",
        "nama_perusahaan": "SUKSES DIVA MANDIRI RITEL",
        "tanggal_daftar": "2022-03-22",
        "nomor_tanda_daftar": "002354.01/DJAI.PSE/03/2022",
        "qr_code": "https://pse.kominfo.go.id/storage/images/qr_code/9efa9bb750c186e34bc946b9a1426fa8.png",
        "status_id": "TERDAFTAR",
        "sistem_elektronik_id": 3617
      }
    },
    {
      "type": "tdpseTerbit",
      "id": 3610,
      "attributes": {
        "nomor_pb_umku": null,
        "nama": "pullandbear.com",
        "website": "pullandbear.com",
        "sektor": "Sektor Perdagangan",
        "nama_perusahaan": "PRIMA BUANA PERKASA RITEL",
        "tanggal_daftar": "2022-03-22",
        "nomor_tanda_daftar": "002353.01/DJAI.PSE/03/2022",
        "qr_code": "https://pse.kominfo.go.id/storage/images/qr_code/81c730ddc31dbbcc00329de4062c21f0.png",
        "status_id": "TERDAFTAR",
        "sistem_elektronik_id": 3613
      }
    },
    {
      "type": "tdpseTerbit",
      "id": 3609,
      "attributes": {
        "nomor_pb_umku": null,
        "nama": "Syariah Saham",
        "website": "https://syariahsaham.id/",
        "sektor": "Sektor Keuangan, Sektor Teknologi Informasi dan Komunikasi",
        "nama_perusahaan": "SYARIAH SAHAM INDONESIA",
        "tanggal_daftar": "2022-03-22",
        "nomor_tanda_daftar": "002352.01/DJAI.PSE/03/2022",
        "qr_code": "https://pse.kominfo.go.id/storage/images/qr_code/751749aaab0ea013d2d0d84c2cb6da4a.png",
        "status_id": "TERDAFTAR",
        "sistem_elektronik_id": 3596
      }
    },
    {
      "type": "tdpseTerbit",
      "id": 3608,
      "attributes": {
        "nomor_pb_umku": null,
        "nama": "PT.Yasmin Mekar Mandiri",
        "website": "www.yasminmekarmandiri.com",
        "sektor": "Sektor Perdagangan, Sektor Pertahanan dan Keamanan",
        "nama_perusahaan": "HABIBI",
        "tanggal_daftar": "2022-03-22",
        "nomor_tanda_daftar": "002351.01/DJAI.PSE/03/2022",
        "qr_code": "https://pse.kominfo.go.id/storage/images/qr_code/46c67ca9268dfddbd9937dba54b2c0c9.png",
        "status_id": "TERDAFTAR",
        "sistem_elektronik_id": 3605
      }
    },
    {
      "type": "tdpseTerbit",
      "id": 3607,
      "attributes": {
        "nomor_pb_umku": null,
        "nama": "zara.com",
        "website": "zara.com",
        "sektor": "Sektor Perdagangan",
        "nama_perusahaan": "SARIMODE FASHINDO ADIPERKASA RITEL",
        "tanggal_daftar": "2022-03-22",
        "nomor_tanda_daftar": "002350.01/DJAI.PSE/03/2022",
        "qr_code": "https://pse.kominfo.go.id/storage/images/qr_code/757310cc2ad74869f0eca3ef770bdf92.png",
        "status_id": "TERDAFTAR",
        "sistem_elektronik_id": 3614
      }
    },
    {
      "type": "tdpseTerbit",
      "id": 3606,
      "attributes": {
        "nomor_pb_umku": null,
        "nama": "KOALA App",
        "website": "koalaapp.id",
        "sektor": "Sektor Teknologi Informasi dan Komunikasi",
        "nama_perusahaan": "KOKATTO TEKNOLOGI GLOBAL",
        "tanggal_daftar": "2022-03-22",
        "nomor_tanda_daftar": "002349.01/DJAI.PSE/03/2022",
        "qr_code": "https://pse.kominfo.go.id/storage/images/qr_code/3cad1f2ca8ab9b6545cce7322ad9f115.png",
        "status_id": "TERDAFTAR",
        "sistem_elektronik_id": 3658
      }
    },
    {
      "type": "tdpseTerbit",
      "id": 3604,
      "attributes": {
        "nomor_pb_umku": null,
        "nama": "SkorLife",
        "website": "skor.life",
        "sektor": "Sektor Teknologi Informasi dan Komunikasi",
        "nama_perusahaan": "SKORTECH KARYA INDONESIA",
        "tanggal_daftar": "2022-03-22",
        "nomor_tanda_daftar": "002348.01/DJAI.PSE/03/2022",
        "qr_code": "https://pse.kominfo.go.id/storage/images/qr_code/699d0bf1c63edf3f5064e6f57c0f8854.png",
        "status_id": "TERDAFTAR",
        "sistem_elektronik_id": 3588
      }
    },
    {
      "type": "tdpseTerbit",
      "id": 3603,
      "attributes": {
        "nomor_pb_umku": null,
        "nama": "Eduqat",
        "website": "eduqat.com",
        "sektor": "Sektor Teknologi Informasi dan Komunikasi",
        "nama_perusahaan": "EDUKASI GLOBAL TEKNOLOGI",
        "tanggal_daftar": "2022-03-21",
        "nomor_tanda_daftar": "002347.01/DJAI.PSE/03/2022",
        "qr_code": "https://pse.kominfo.go.id/storage/images/qr_code/2cf1fc6236b6e3c3acde9c4116ca2f90.png",
        "status_id": "TERDAFTAR",
        "sistem_elektronik_id": 3608
      }
    },
    {
      "type": "tdpseTerbit",
      "id": 3652,
      "attributes": {
        "nomor_pb_umku": null,
        "nama": "IndoChat Official",
        "website": "www.indochat.co.id",
        "sektor": "Sektor Teknologi Informasi dan Komunikasi",
        "nama_perusahaan": "ICE MESSENGER INDONESIA",
        "tanggal_daftar": "2022-03-25",
        "nomor_tanda_daftar": "002346.02/DJAI.PSE/03/2022",
        "qr_code": "https://pse.kominfo.go.id/storage/images/qr_code/85fc095aba63faa2e3ae012ad4fea780.png",
        "status_id": "TERDAFTAR",
        "sistem_elektronik_id": 3651
      }
    },
    {
      "type": "tdpseTerbit",
      "id": 3600,
      "attributes": {
        "nomor_pb_umku": null,
        "nama": "IndoChat",
        "website": "www.indochat.co.id",
        "sektor": "Sektor Teknologi Informasi dan Komunikasi",
        "nama_perusahaan": "ICE MESSENGER INDONESIA",
        "tanggal_daftar": "2022-03-21",
        "nomor_tanda_daftar": "002346.01/DJAI.PSE/03/2022",
        "qr_code": "https://pse.kominfo.go.id/storage/images/qr_code/d8c53ce44f7732f0baeb2d70480c21bc.png",
        "status_id": "TERDAFTAR",
        "sistem_elektronik_id": 3353
      }
    }
  ]
}