{
  "meta": {
    "page": {
      "currentPage": 624,
      "from": 6231,
      "lastPage": 1047,
      "perPage": 10,
      "to": 6240,
      "total": 10470
    }
  },
  "data": [
    {
      "type": "tdpseTerbit",
      "id": 10260,
      "attributes": {
        "nomor_pb_umku": "200921000169700060011",
        "nama": "SERVICE DESK AS A SERVICE",
        "website": "ddiopscenter.com",
        "sektor": "Sektor Teknologi Informasi dan Komunikasi",
        "nama_perusahaan": "NTT INDONESIA TECHNOLOGY",
        "tanggal_daftar": "2022-08-12",
        "nomor_tanda_daftar": "002304.03/DJAI.PSE/08/2022",
        "qr_code": "https://pse.kominfo.go.id/storage/images/qr_code/0482db0ec48360be0bc4373495f9f5de.png",
        "status_id": "TERDAFTAR",
        "sistem_elektronik_id": 10145
      }
    },
    {
      "type": "tdpseTerbit",
      "id": 10250,
      "attributes": {
        "nomor_pb_umku": "200921000169700060010",
        "nama": "SDAAS",
        "website": "ddiopscenter.com",
        "sektor": "Sektor Teknologi Informasi dan Komunikasi",
        "nama_perusahaan": "NTT INDONESIA TECHNOLOGY",
        "tanggal_daftar": "2022-08-12",
        "nomor_tanda_daftar": "002304.02/DJAI.PSE/08/2022",
        "qr_code": "https://pse.kominfo.go.id/storage/images/qr_code/67bc53ea914e176be829f538ccea0762.png",
        "status_id": "TERDAFTAR",
        "sistem_elektronik_id": 10131
      }
    },
    {
      "type": "tdpseTerbit",
      "id": 3537,
      "attributes": {
        "nomor_pb_umku": null,
        "nama": "Service Desk as a Service (SDaaS) dan Network Operation Center as A Service (NOCaaS)",
        "website": "www.ddiopscenter.com",
        "sektor": "Sektor Teknologi Informasi dan Komunikasi",
        "nama_perusahaan": "NTT INDONESIA TECHNOLOGY",
        "tanggal_daftar": "2022-03-15",
        "nomor_tanda_daftar": "002304.01/DJAI.PSE/03/2022",
        "qr_code": "https://pse.kominfo.go.id/storage/images/qr_code/05fdcf06df3d5a5905d8185e6eb0065a.png",
        "status_id": "TERDAFTAR",
        "sistem_elektronik_id": 2913
      }
    },
    {
      "type": "tdpseTerbit",
      "id": 3536,
      "attributes": {
        "nomor_pb_umku": null,
        "nama": "IZIN.CO.ID",
        "website": "izin.co.id",
        "sektor": "Sektor Perdagangan, Sektor Teknologi Informasi dan Komunikasi",
        "nama_perusahaan": "WAHANA RAHMAT NUSA",
        "tanggal_daftar": "2022-03-15",
        "nomor_tanda_daftar": "002303.01/DJAI.PSE/03/2022",
        "qr_code": "https://pse.kominfo.go.id/storage/images/qr_code/fa6cc662b11f69428b2a666995f0b835.png",
        "status_id": "TERDAFTAR",
        "sistem_elektronik_id": 2987
      }
    },
    {
      "type": "tdpseTerbit",
      "id": 3535,
      "attributes": {
        "nomor_pb_umku": null,
        "nama": "Mastroluxe",
        "website": "Mastroluxe.com",
        "sektor": "Sektor Perdagangan",
        "nama_perusahaan": "MASTRO LUXE INDONESIA",
        "tanggal_daftar": "2022-03-15",
        "nomor_tanda_daftar": "002302.01/DJAI.PSE/03/2022",
        "qr_code": "https://pse.kominfo.go.id/storage/images/qr_code/10ce277ff6b1bd665a13d00b1e276b82.png",
        "status_id": "TERDAFTAR",
        "sistem_elektronik_id": 3154
      }
    },
    {
      "type": "tdpseTerbit",
      "id": 3534,
      "attributes": {
        "nomor_pb_umku": null,
        "nama": "Microsoft Windows",
        "website": "-",
        "sektor": "Sektor Keuangan",
        "nama_perusahaan": "SOLUSI INFINITI PRIMA",
        "tanggal_daftar": "2022-03-15",
        "nomor_tanda_daftar": "002301.01/DJAI.PSE/03/2022",
        "qr_code": "https://pse.kominfo.go.id/storage/images/qr_code/866cd73391ca4b458b13b19eb81bc4b1.png",
        "status_id": "TERDAFTAR",
        "sistem_elektronik_id": 2986
      }
    },
    {
      "type": "tdpseTerbit",
      "id": 5061,
      "attributes": {
        "nomor_pb_umku": "912010841161200030004",
        "nama": "WEB PORTAL WWW.EQUITY.CO.ID",
        "website": "equity.co.id",
        "sektor": "Sektor Keuangan",
        "nama_perusahaan": "EQUITY LIFE INDONESIA",
        "tanggal_daftar": "2022-07-04",
        "nomor_tanda_daftar": "002300.04/DJAI.PSE/07/2022",
        "qr_code": "https://pse.kominfo.go.id/storage/images/qr_code/85aaa9208d37ab06fdc5c5897595e722.png",
        "status_id": "TERDAFTAR",
        "sistem_elektronik_id": 4928
      }
    },
    {
      "type": "tdpseTerbit",
      "id": 5054,
      "attributes": {
        "nomor_pb_umku": "912010841161200030003",
        "nama": "MYEBENEFIT (MOBILE APP)",
        "website": "-",
        "sektor": "Sektor Keuangan",
        "nama_perusahaan": "EQUITY LIFE INDONESIA",
        "tanggal_daftar": "2022-07-04",
        "nomor_tanda_daftar": "002300.03/DJAI.PSE/07/2022",
        "qr_code": "https://pse.kominfo.go.id/storage/images/qr_code/95dd5c6b4b0267e5c45d636edf14e6db.png",
        "status_id": "TERDAFTAR",
        "sistem_elektronik_id": 4924
      }
    },
    {
      "type": "tdpseTerbit",
      "id": 5052,
      "attributes": {
        "nomor_pb_umku": "912010841161200030002",
        "nama": "MYELIFE (MOBILE APP)",
        "website": "-",
        "sektor": "Sektor Keuangan",
        "nama_perusahaan": "EQUITY LIFE INDONESIA",
        "tanggal_daftar": "2022-07-04",
        "nomor_tanda_daftar": "002300.02/DJAI.PSE/07/2022",
        "qr_code": "https://pse.kominfo.go.id/storage/images/qr_code/af7cadc27dac968e61895d0c967aa71a.png",
        "status_id": "TERDAFTAR",
        "sistem_elektronik_id": 4921
      }
    },
    {
      "type": "tdpseTerbit",
      "id": 3533,
      "attributes": {
        "nomor_pb_umku": null,
        "nama": "Microsite Equity Life Indonesia",
        "website": "-",
        "sektor": "Sektor Keuangan",
        "nama_perusahaan": "EQUITY LIFE INDONESIA",
        "tanggal_daftar": "2022-03-14",
        "nomor_tanda_daftar": "002300.01/DJAI.PSE/03/2022",
        "qr_code": "https://pse.kominfo.go.id/storage/images/qr_code/10b284ab28161e0bcbbcd4a3bbae71b1.png",
        "status_id": "TERDAFTAR",
        "sistem_elektronik_id": 2921
      }
    }
  ]
}