{
  "meta": {
    "page": {
      "currentPage": 625,
      "from": 6241,
      "lastPage": 1055,
      "perPage": 10,
      "to": 6250,
      "total": 10545
    }
  },
  "data": [
    {
      "type": "tdpseTerbit",
      "id": 3607,
      "attributes": {
        "nomor_pb_umku": null,
        "nama": "zara.com",
        "website": "zara.com",
        "sektor": "Sektor Perdagangan",
        "nama_perusahaan": "SARIMODE FASHINDO ADIPERKASA RITEL",
        "tanggal_daftar": "2022-03-22",
        "nomor_tanda_daftar": "002350.01/DJAI.PSE/03/2022",
        "qr_code": "https://pse.kominfo.go.id/storage/images/qr_code/757310cc2ad74869f0eca3ef770bdf92.png",
        "status_id": "TERDAFTAR",
        "sistem_elektronik_id": 3614
      }
    },
    {
      "type": "tdpseTerbit",
      "id": 3606,
      "attributes": {
        "nomor_pb_umku": null,
        "nama": "KOALA App",
        "website": "koalaapp.id",
        "sektor": "Sektor Teknologi Informasi dan Komunikasi",
        "nama_perusahaan": "KOKATTO TEKNOLOGI GLOBAL",
        "tanggal_daftar": "2022-03-22",
        "nomor_tanda_daftar": "002349.01/DJAI.PSE/03/2022",
        "qr_code": "https://pse.kominfo.go.id/storage/images/qr_code/3cad1f2ca8ab9b6545cce7322ad9f115.png",
        "status_id": "TERDAFTAR",
        "sistem_elektronik_id": 3658
      }
    },
    {
      "type": "tdpseTerbit",
      "id": 3604,
      "attributes": {
        "nomor_pb_umku": null,
        "nama": "SkorLife",
        "website": "skor.life",
        "sektor": "Sektor Teknologi Informasi dan Komunikasi",
        "nama_perusahaan": "SKORTECH KARYA INDONESIA",
        "tanggal_daftar": "2022-03-22",
        "nomor_tanda_daftar": "002348.01/DJAI.PSE/03/2022",
        "qr_code": "https://pse.kominfo.go.id/storage/images/qr_code/699d0bf1c63edf3f5064e6f57c0f8854.png",
        "status_id": "TERDAFTAR",
        "sistem_elektronik_id": 3588
      }
    },
    {
      "type": "tdpseTerbit",
      "id": 3603,
      "attributes": {
        "nomor_pb_umku": null,
        "nama": "Eduqat",
        "website": "eduqat.com",
        "sektor": "Sektor Teknologi Informasi dan Komunikasi",
        "nama_perusahaan": "EDUKASI GLOBAL TEKNOLOGI",
        "tanggal_daftar": "2022-03-21",
        "nomor_tanda_daftar": "002347.01/DJAI.PSE/03/2022",
        "qr_code": "https://pse.kominfo.go.id/storage/images/qr_code/2cf1fc6236b6e3c3acde9c4116ca2f90.png",
        "status_id": "TERDAFTAR",
        "sistem_elektronik_id": 3608
      }
    },
    {
      "type": "tdpseTerbit",
      "id": 3652,
      "attributes": {
        "nomor_pb_umku": null,
        "nama": "IndoChat Official",
        "website": "www.indochat.co.id",
        "sektor": "Sektor Teknologi Informasi dan Komunikasi",
        "nama_perusahaan": "ICE MESSENGER INDONESIA",
        "tanggal_daftar": "2022-03-25",
        "nomor_tanda_daftar": "002346.02/DJAI.PSE/03/2022",
        "qr_code": "https://pse.kominfo.go.id/storage/images/qr_code/85fc095aba63faa2e3ae012ad4fea780.png",
        "status_id": "TERDAFTAR",
        "sistem_elektronik_id": 3651
      }
    },
    {
      "type": "tdpseTerbit",
      "id": 3600,
      "attributes": {
        "nomor_pb_umku": null,
        "nama": "IndoChat",
        "website": "www.indochat.co.id",
        "sektor": "Sektor Teknologi Informasi dan Komunikasi",
        "nama_perusahaan": "ICE MESSENGER INDONESIA",
        "tanggal_daftar": "2022-03-21",
        "nomor_tanda_daftar": "002346.01/DJAI.PSE/03/2022",
        "qr_code": "https://pse.kominfo.go.id/storage/images/qr_code/d8c53ce44f7732f0baeb2d70480c21bc.png",
        "status_id": "TERDAFTAR",
        "sistem_elektronik_id": 3353
      }
    },
    {
      "type": "tdpseTerbit",
      "id": 3596,
      "attributes": {
        "nomor_pb_umku": null,
        "nama": "SIKOPDIT CS KOPDIT ANEKA KARYA",
        "website": "kspkopditankara.id",
        "sektor": "Sektor Keuangan",
        "nama_perusahaan": "KREDIT ANEKA KARYA",
        "tanggal_daftar": "2022-03-21",
        "nomor_tanda_daftar": "002345.01/DJAI.PSE/03/2022",
        "qr_code": "https://pse.kominfo.go.id/storage/images/qr_code/5853325d34fcc5eccdd79d8bde468eb4.png",
        "status_id": "TERDAFTAR",
        "sistem_elektronik_id": 3239
      }
    },
    {
      "type": "tdpseTerbit",
      "id": 4703,
      "attributes": {
        "nomor_pb_umku": "160322002587400050003",
        "nama": "YUKLIK",
        "website": "yuklik.id",
        "sektor": "Sektor Perdagangan, Sektor Teknologi Informasi dan Komunikasi",
        "nama_perusahaan": "SMART MULTI TRADE",
        "tanggal_daftar": "2022-06-23",
        "nomor_tanda_daftar": "002344.02/DJAI.PSE/06/2022",
        "qr_code": "https://pse.kominfo.go.id/storage/images/qr_code/c2952e1dfb11d9ef7a607421ac3ff7fe.png",
        "status_id": "TERDAFTAR",
        "sistem_elektronik_id": 4658
      }
    },
    {
      "type": "tdpseTerbit",
      "id": 3595,
      "attributes": {
        "nomor_pb_umku": null,
        "nama": "yu klik",
        "website": "yuklik.id",
        "sektor": "Sektor Perdagangan",
        "nama_perusahaan": "SMART MULTI TRADE",
        "tanggal_daftar": "2022-03-21",
        "nomor_tanda_daftar": "002344.01/DJAI.PSE/03/2022",
        "qr_code": "https://pse.kominfo.go.id/storage/images/qr_code/74911bf0e00efa9a8f7710496f55a8db.png",
        "status_id": "TERDAFTAR",
        "sistem_elektronik_id": 3238
      }
    },
    {
      "type": "tdpseTerbit",
      "id": 3593,
      "attributes": {
        "nomor_pb_umku": null,
        "nama": "Scafol.com",
        "website": "scafol.com",
        "sektor": "Sektor Teknologi Informasi dan Komunikasi",
        "nama_perusahaan": "APLIKASI KONSTRUKSI GLOBAL",
        "tanggal_daftar": "2022-03-21",
        "nomor_tanda_daftar": "002343.01/DJAI.PSE/03/2022",
        "qr_code": "https://pse.kominfo.go.id/storage/images/qr_code/76c3002d179c47c1476449a510f53550.png",
        "status_id": "TERDAFTAR",
        "sistem_elektronik_id": 3237
      }
    }
  ]
}