{
  "meta": {
    "page": {
      "currentPage": 627,
      "from": 6261,
      "lastPage": 1001,
      "perPage": 10,
      "to": 6270,
      "total": 10002
    }
  },
  "data": [
    {
      "type": "tdpseTerbit",
      "id": 2937,
      "attributes": {
        "nomor_pb_umku": null,
        "nama": "Fotoyu",
        "website": "fotoyu.com",
        "sektor": "Sektor Perdagangan",
        "nama_perusahaan": "SUPER GIGA GENERASI",
        "tanggal_daftar": "2021-12-31",
        "nomor_tanda_daftar": "001883.01/DJAI.PSE/12/2021",
        "qr_code": "https://pse.kominfo.go.id/storage/images/qr_code/20341ba6496ebc8808cef7873cbdf5b5.png",
        "status_id": "TERDAFTAR",
        "sistem_elektronik_id": 1464
      }
    },
    {
      "type": "tdpseTerbit",
      "id": 2936,
      "attributes": {
        "nomor_pb_umku": null,
        "nama": "Moinves",
        "website": "moinves.co.id",
        "sektor": "Sektor Keuangan",
        "nama_perusahaan": "MANDIRI MANAJEMEN INVESTASI",
        "tanggal_daftar": "2021-12-31",
        "nomor_tanda_daftar": "001882.01/DJAI.PSE/12/2021",
        "qr_code": "https://pse.kominfo.go.id/storage/images/qr_code/d0050549a37470c29cd41001588ad604.png",
        "status_id": "TERDAFTAR",
        "sistem_elektronik_id": 2851
      }
    },
    {
      "type": "tdpseTerbit",
      "id": 2935,
      "attributes": {
        "nomor_pb_umku": null,
        "nama": "SindoPay",
        "website": "datasolusindo.id",
        "sektor": "Sektor Keuangan, Sektor Teknologi Informasi dan Komunikasi",
        "nama_perusahaan": "DATA SOLUSINDO PERKASA",
        "tanggal_daftar": "2021-12-31",
        "nomor_tanda_daftar": "001881.01/DJAI.PSE/12/2021",
        "qr_code": "https://pse.kominfo.go.id/storage/images/qr_code/ed9df5eb0cf15c7b9a90419c8d08e3b5.png",
        "status_id": "TERDAFTAR",
        "sistem_elektronik_id": 1967
      }
    },
    {
      "type": "tdpseTerbit",
      "id": 3627,
      "attributes": {
        "nomor_pb_umku": null,
        "nama": "Aplikasi Kimia Farma Mobile",
        "website": "www.kimiafarmaapotek.co.id",
        "sektor": "Sektor Kesehatan",
        "nama_perusahaan": "KIMIA FARMA APOTEK",
        "tanggal_daftar": "2022-03-23",
        "nomor_tanda_daftar": "001880.02/DJAI.PSE/03/2022",
        "qr_code": "https://pse.kominfo.go.id/storage/images/qr_code/424803f5c89296628d1580ef8a08f7ee.png",
        "status_id": "TERDAFTAR",
        "sistem_elektronik_id": 3552
      }
    },
    {
      "type": "tdpseTerbit",
      "id": 2934,
      "attributes": {
        "nomor_pb_umku": null,
        "nama": "Kimia Farma Mobile",
        "website": "www.kimiafarmaapotek.co.id",
        "sektor": "Sektor Kesehatan",
        "nama_perusahaan": "KIMIA FARMA APOTEK",
        "tanggal_daftar": "2021-12-31",
        "nomor_tanda_daftar": "001880.01/DJAI.PSE/12/2021",
        "qr_code": "https://pse.kominfo.go.id/storage/images/qr_code/0c521887d2e8d90830e23021b61c90a4.png",
        "status_id": "TERDAFTAR",
        "sistem_elektronik_id": 1993
      }
    },
    {
      "type": "tdpseTerbit",
      "id": 5420,
      "attributes": {
        "nomor_pb_umku": "022010417140600020004",
        "nama": "WAKAF IKHLAS",
        "website": "wakaf.bjbsyariah.co.id",
        "sektor": "Sektor Keuangan",
        "nama_perusahaan": "BANK JABAR BANTEN SYARIAH",
        "tanggal_daftar": "2022-07-12",
        "nomor_tanda_daftar": "001879.07/DJAI.PSE/07/2022",
        "qr_code": "https://pse.kominfo.go.id/storage/images/qr_code/5c4756ee7d42f9eb182567f90e63d7c5.png",
        "status_id": "TERDAFTAR",
        "sistem_elektronik_id": 5292
      }
    },
    {
      "type": "tdpseTerbit",
      "id": 5418,
      "attributes": {
        "nomor_pb_umku": "022010417140600020004",
        "nama": "VA WEB BANK BJB SYARIAH",
        "website": "vaweb.bjbs.co.id",
        "sektor": "Sektor Keuangan",
        "nama_perusahaan": "BANK JABAR BANTEN SYARIAH",
        "tanggal_daftar": "2022-07-12",
        "nomor_tanda_daftar": "001879.05/DJAI.PSE/07/2022",
        "qr_code": "https://pse.kominfo.go.id/storage/images/qr_code/d38013b533b0ca4611a6fa3d27505680.png",
        "status_id": "TERDAFTAR",
        "sistem_elektronik_id": 5289
      }
    },
    {
      "type": "tdpseTerbit",
      "id": 5416,
      "attributes": {
        "nomor_pb_umku": "022010417140600020003",
        "nama": "IB CASH MASALAHAN - ADMIN (CASH MANAGEMENT SYSTEM)",
        "website": "ibcash-admin.bjbsyariah.co.id",
        "sektor": "Sektor Keuangan",
        "nama_perusahaan": "BANK JABAR BANTEN SYARIAH",
        "tanggal_daftar": "2022-07-12",
        "nomor_tanda_daftar": "001879.04/DJAI.PSE/07/2022",
        "qr_code": "https://pse.kominfo.go.id/storage/images/qr_code/02e0b63979f206b55ba751f7be29b08d.png",
        "status_id": "TERDAFTAR",
        "sistem_elektronik_id": 5116
      }
    },
    {
      "type": "tdpseTerbit",
      "id": 5415,
      "attributes": {
        "nomor_pb_umku": "022010417140600020003",
        "nama": "IB CASH MASLAHAH (CASH MANAGEMENT SYSTEM)",
        "website": "ibcash.bjbsyariah.co.id",
        "sektor": "Sektor Keuangan",
        "nama_perusahaan": "BANK JABAR BANTEN SYARIAH",
        "tanggal_daftar": "2022-07-12",
        "nomor_tanda_daftar": "001879.03/DJAI.PSE/07/2022",
        "qr_code": "https://pse.kominfo.go.id/storage/images/qr_code/1fd3fea93dddb447935db3c0ca41ffed.png",
        "status_id": "TERDAFTAR",
        "sistem_elektronik_id": 5114
      }
    },
    {
      "type": "tdpseTerbit",
      "id": 4984,
      "attributes": {
        "nomor_pb_umku": "022010417140600020002",
        "nama": "WEBSITE BANK BJB SYARIAH",
        "website": "bjbsyariah.co.id",
        "sektor": "Sektor Keuangan",
        "nama_perusahaan": "BANK JABAR BANTEN SYARIAH",
        "tanggal_daftar": "2022-06-30",
        "nomor_tanda_daftar": "001879.02/DJAI.PSE/06/2022",
        "qr_code": "https://pse.kominfo.go.id/storage/images/qr_code/2aa1840e77bcb5eabe248c3ad63ae846.png",
        "status_id": "TERDAFTAR",
        "sistem_elektronik_id": 4853
      }
    }
  ]
}