{
  "meta": {
    "page": {
      "currentPage": 628,
      "from": 6271,
      "lastPage": 994,
      "perPage": 10,
      "to": 6280,
      "total": 9936
    }
  },
  "data": [
    {
      "type": "tdpseTerbit",
      "id": 2876,
      "attributes": {
        "nomor_pb_umku": null,
        "nama": "www.ptpanacea.id",
        "website": "www.ptpanacea.id",
        "sektor": "Sektor Teknologi Informasi dan Komunikasi",
        "nama_perusahaan": "PANACEA TECHNOLOGY INDONESIA",
        "tanggal_daftar": "2021-12-25",
        "nomor_tanda_daftar": "001841.01/DJAI.PSE/12/2021",
        "qr_code": "https://pse.kominfo.go.id/storage/images/qr_code/8877a84bbc9579f5df9dd6ba3f989b0b.png",
        "status_id": "TERDAFTAR",
        "sistem_elektronik_id": 1960
      }
    },
    {
      "type": "tdpseTerbit",
      "id": 2874,
      "attributes": {
        "nomor_pb_umku": null,
        "nama": "MY VENUS",
        "website": "myvenus.co.id",
        "sektor": "Sektor Kesehatan",
        "nama_perusahaan": "MYVENUS NETWORK INDONESIA",
        "tanggal_daftar": "2021-12-24",
        "nomor_tanda_daftar": "001840.01/DJAI.PSE/12/2021",
        "qr_code": "https://pse.kominfo.go.id/storage/images/qr_code/5e54e99cdc5fae5e38d8e0862e3dd2f7.png",
        "status_id": "TERDAFTAR",
        "sistem_elektronik_id": 1872
      }
    },
    {
      "type": "tdpseTerbit",
      "id": 2871,
      "attributes": {
        "nomor_pb_umku": null,
        "nama": "BATGAME",
        "website": "batgame.id",
        "sektor": "Sektor Teknologi Informasi dan Komunikasi",
        "nama_perusahaan": "GLOBAL GAME INTERNUSA",
        "tanggal_daftar": "2021-12-24",
        "nomor_tanda_daftar": "001839.01/DJAI.PSE/12/2021",
        "qr_code": "https://pse.kominfo.go.id/storage/images/qr_code/426b6101f47093e579bfa2d21b644d84.png",
        "status_id": "TERDAFTAR",
        "sistem_elektronik_id": 1964
      }
    },
    {
      "type": "tdpseTerbit",
      "id": 10149,
      "attributes": {
        "nomor_pb_umku": "912040095233600000002",
        "nama": "PROHACE BY EKSAD",
        "website": "prohace.com",
        "sektor": "Sektor Teknologi Informasi dan Komunikasi",
        "nama_perusahaan": "TIGA DAYA DIGITAL INDONESIA",
        "tanggal_daftar": "2022-08-09",
        "nomor_tanda_daftar": "001838.02/DJAI.PSE/08/2022",
        "qr_code": "https://pse.kominfo.go.id/storage/images/qr_code/33e30ce14a0b77bb0039802aac5fbc30.png",
        "status_id": "TERDAFTAR",
        "sistem_elektronik_id": 9954
      }
    },
    {
      "type": "tdpseTerbit",
      "id": 2866,
      "attributes": {
        "nomor_pb_umku": null,
        "nama": "MedApp (Medical Appointment)",
        "website": "-",
        "sektor": "Sektor Kesehatan, Sektor Teknologi Informasi dan Komunikasi",
        "nama_perusahaan": "TIGA DAYA DIGITAL INDONESIA",
        "tanggal_daftar": "2021-12-23",
        "nomor_tanda_daftar": "001838.01/DJAI.PSE/12/2021",
        "qr_code": "https://pse.kominfo.go.id/storage/images/qr_code/b684fc8f22c8fee4e76adf2e6adfb2c1.png",
        "status_id": "TERDAFTAR",
        "sistem_elektronik_id": 1955
      }
    },
    {
      "type": "tdpseTerbit",
      "id": 2864,
      "attributes": {
        "nomor_pb_umku": null,
        "nama": "PlazaBanten",
        "website": "https://plazabanten.com",
        "sektor": "Sektor Perdagangan",
        "nama_perusahaan": "AGROBISNIS BANTEN MANDIRI",
        "tanggal_daftar": "2021-12-23",
        "nomor_tanda_daftar": "001837.01/DJAI.PSE/12/2021",
        "qr_code": "https://pse.kominfo.go.id/storage/images/qr_code/432de9a505f082bae5950123e2675fc7.png",
        "status_id": "TERDAFTAR",
        "sistem_elektronik_id": 1587
      }
    },
    {
      "type": "tdpseTerbit",
      "id": 2863,
      "attributes": {
        "nomor_pb_umku": null,
        "nama": "MILI",
        "website": "-",
        "sektor": "Sektor Perdagangan",
        "nama_perusahaan": "JENDELA PULSA INDONESIA",
        "tanggal_daftar": "2021-12-23",
        "nomor_tanda_daftar": "001836.01/DJAI.PSE/12/2021",
        "qr_code": "https://pse.kominfo.go.id/storage/images/qr_code/d2b7c2d77b63a84a4051f3d19d91b14e.png",
        "status_id": "TERDAFTAR",
        "sistem_elektronik_id": 1963
      }
    },
    {
      "type": "tdpseTerbit",
      "id": 6450,
      "attributes": {
        "nomor_pb_umku": "912030077198800040007",
        "nama": "E-PAPERLESS",
        "website": "paperless.suryayudha.id",
        "sektor": "Sektor Keuangan",
        "nama_perusahaan": "BANK PERKREDITAN RAKYAT SURYA YUDHAKENCANA",
        "tanggal_daftar": "2022-07-18",
        "nomor_tanda_daftar": "001835.06/DJAI.PSE/07/2022",
        "qr_code": "https://pse.kominfo.go.id/storage/images/qr_code/e4a1519049ce5f58a6426f800ddd62ec.png",
        "status_id": "TERDAFTAR",
        "sistem_elektronik_id": 6318
      }
    },
    {
      "type": "tdpseTerbit",
      "id": 6440,
      "attributes": {
        "nomor_pb_umku": "912030077198800040006",
        "nama": "I-BSY",
        "website": "ibsy.suryayudha.id",
        "sektor": "Sektor Keuangan",
        "nama_perusahaan": "BANK PERKREDITAN RAKYAT SURYA YUDHAKENCANA",
        "tanggal_daftar": "2022-07-18",
        "nomor_tanda_daftar": "001835.05/DJAI.PSE/07/2022",
        "qr_code": "https://pse.kominfo.go.id/storage/images/qr_code/5c252cee94835aa25eae505eff5f4def.png",
        "status_id": "TERDAFTAR",
        "sistem_elektronik_id": 6308
      }
    },
    {
      "type": "tdpseTerbit",
      "id": 6413,
      "attributes": {
        "nomor_pb_umku": "912030077198800040005",
        "nama": "EMAIL PERUSAHAAN",
        "website": "suryayudha.id",
        "sektor": "Sektor Keuangan",
        "nama_perusahaan": "BANK PERKREDITAN RAKYAT SURYA YUDHAKENCANA",
        "tanggal_daftar": "2022-07-18",
        "nomor_tanda_daftar": "001835.04/DJAI.PSE/07/2022",
        "qr_code": "https://pse.kominfo.go.id/storage/images/qr_code/d616579a479b10dc9b26b72c7a2c70dc.png",
        "status_id": "TERDAFTAR",
        "sistem_elektronik_id": 6274
      }
    }
  ]
}