{
  "meta": {
    "page": {
      "currentPage": 630,
      "from": 6291,
      "lastPage": 949,
      "perPage": 10,
      "to": 6300,
      "total": 9482
    }
  },
  "data": [
    {
      "type": "tdpseTerbit",
      "id": 2469,
      "attributes": {
        "nomor_pb_umku": null,
        "nama": "Kittyshopgirls",
        "website": "https://toko.ly/kittyshopgirls/home",
        "sektor": "Sektor Perdagangan",
        "nama_perusahaan": "ALFI ROSDIANA",
        "tanggal_daftar": "2021-11-26",
        "nomor_tanda_daftar": "001629.01/DJAI.PSE/11/2021",
        "qr_code": "https://pse.kominfo.go.id/storage/images/qr_code/19248c1e3a9d76d03c372e041d55f8ae.png",
        "status_id": "TERDAFTAR",
        "sistem_elektronik_id": 1638
      }
    },
    {
      "type": "tdpseTerbit",
      "id": 2468,
      "attributes": {
        "nomor_pb_umku": null,
        "nama": "RITASE",
        "website": "ritase.com",
        "sektor": "Sektor Teknologi Informasi dan Komunikasi, Sektor Transportasi",
        "nama_perusahaan": "JAGOAN ANTAR INDONESIA",
        "tanggal_daftar": "2021-11-26",
        "nomor_tanda_daftar": "001628.01/DJAI.PSE/11/2021",
        "qr_code": "https://pse.kominfo.go.id/storage/images/qr_code/be00025978de3cada35cfc059ec24040.png",
        "status_id": "TERDAFTAR",
        "sistem_elektronik_id": 1644
      }
    },
    {
      "type": "tdpseTerbit",
      "id": 2466,
      "attributes": {
        "nomor_pb_umku": null,
        "nama": "IMAS",
        "website": "-",
        "sektor": "Sektor Perdagangan, Sektor Teknologi Informasi dan Komunikasi",
        "nama_perusahaan": "INDONESIA MADANI AMANAH SINERGI",
        "tanggal_daftar": "2021-11-26",
        "nomor_tanda_daftar": "001627.01/DJAI.PSE/11/2021",
        "qr_code": "https://pse.kominfo.go.id/storage/images/qr_code/0ce0bcabbb042e2bd25db8b4b5839559.png",
        "status_id": "TERDAFTAR",
        "sistem_elektronik_id": 1711
      }
    },
    {
      "type": "tdpseTerbit",
      "id": 2494,
      "attributes": {
        "nomor_pb_umku": null,
        "nama": "Senada 88 Lampung",
        "website": "-",
        "sektor": "Sektor Perdagangan",
        "nama_perusahaan": "ESKA ANISA NUR FAHDANI AWWAL",
        "tanggal_daftar": "2021-11-29",
        "nomor_tanda_daftar": "001626.02/DJAI.PSE/11/2021",
        "qr_code": "https://pse.kominfo.go.id/storage/images/qr_code/486095d18a159f55864a9ad0a5136c11.png",
        "status_id": "TERDAFTAR",
        "sistem_elektronik_id": 1710
      }
    },
    {
      "type": "tdpseTerbit",
      "id": 2465,
      "attributes": {
        "nomor_pb_umku": null,
        "nama": "Senada 88",
        "website": "-",
        "sektor": "Sektor Perdagangan",
        "nama_perusahaan": "ESKA ANISA NUR FAHDANI AWWAL",
        "tanggal_daftar": "2021-11-26",
        "nomor_tanda_daftar": "001626.01/DJAI.PSE/11/2021",
        "qr_code": "https://pse.kominfo.go.id/storage/images/qr_code/da310c404e0883606fe973030d1b0286.png",
        "status_id": "TERDAFTAR",
        "sistem_elektronik_id": 1709
      }
    },
    {
      "type": "tdpseTerbit",
      "id": 2464,
      "attributes": {
        "nomor_pb_umku": null,
        "nama": "Revenue Trade",
        "website": "https://www.solusidigitalincome.com/market",
        "sektor": "Sektor Keuangan, Sektor Perdagangan, Sektor Teknologi Informasi dan Komunikasi",
        "nama_perusahaan": "REVENUE TRADE INDONESIA",
        "tanggal_daftar": "2021-11-26",
        "nomor_tanda_daftar": "001625.01/DJAI.PSE/11/2021",
        "qr_code": "https://pse.kominfo.go.id/storage/images/qr_code/e00d0fb360d8eb06d30c02d7dcb8ef5d.png",
        "status_id": "TERDAFTAR",
        "sistem_elektronik_id": 1708
      }
    },
    {
      "type": "tdpseTerbit",
      "id": 2463,
      "attributes": {
        "nomor_pb_umku": null,
        "nama": "stockin.co.id",
        "website": "www.stockin.co.id",
        "sektor": "Sektor Teknologi Informasi dan Komunikasi",
        "nama_perusahaan": "MODEL DIGITAL INDONESIA",
        "tanggal_daftar": "2021-11-26",
        "nomor_tanda_daftar": "001624.01/DJAI.PSE/11/2021",
        "qr_code": "https://pse.kominfo.go.id/storage/images/qr_code/3851ee30a8f2389b679b4e10e1aa6511.png",
        "status_id": "TERDAFTAR",
        "sistem_elektronik_id": 1707
      }
    },
    {
      "type": "tdpseTerbit",
      "id": 2776,
      "attributes": {
        "nomor_pb_umku": null,
        "nama": "PANDU DIGITAL BERDAYA",
        "website": "WWW.DIGITALBERDAYA.ID",
        "sektor": "Sektor Teknologi Informasi dan Komunikasi",
        "nama_perusahaan": "PANDU DIGITAL BERDAYA",
        "tanggal_daftar": "2021-12-16",
        "nomor_tanda_daftar": "001623.02/DJAI.PSE/12/2021",
        "qr_code": "https://pse.kominfo.go.id/storage/images/qr_code/9f7eaefb10fb4b1793d87fd2b5631359.png",
        "status_id": "TERDAFTAR",
        "sistem_elektronik_id": 1706
      }
    },
    {
      "type": "tdpseTerbit",
      "id": 2462,
      "attributes": {
        "nomor_pb_umku": null,
        "nama": "Pandu Digital Berdaya Host",
        "website": "-",
        "sektor": "Sektor Teknologi Informasi dan Komunikasi",
        "nama_perusahaan": "PANDU DIGITAL BERDAYA",
        "tanggal_daftar": "2021-11-26",
        "nomor_tanda_daftar": "001623.01/DJAI.PSE/11/2021",
        "qr_code": "https://pse.kominfo.go.id/storage/images/qr_code/30fb50cab796fd88330c22941c4eba53.png",
        "status_id": "TERDAFTAR",
        "sistem_elektronik_id": 1705
      }
    },
    {
      "type": "tdpseTerbit",
      "id": 3303,
      "attributes": {
        "nomor_pb_umku": null,
        "nama": "Atoor.com",
        "website": "atoor.com",
        "sektor": "Sektor Perdagangan",
        "nama_perusahaan": "SHIPPINDO TEKNOLOGI LOGISTIK",
        "tanggal_daftar": "2022-02-18",
        "nomor_tanda_daftar": "001622.02/DJAI.PSE/02/2022",
        "qr_code": "https://pse.kominfo.go.id/storage/images/qr_code/6c0c4f7d3e84a750c890da9b920818d6.png",
        "status_id": "TERDAFTAR",
        "sistem_elektronik_id": 3370
      }
    }
  ]
}