{
  "meta": {
    "page": {
      "currentPage": 632,
      "from": 6311,
      "lastPage": 997,
      "perPage": 10,
      "to": 6320,
      "total": 9961
    }
  },
  "data": [
    {
      "type": "tdpseTerbit",
      "id": 2858,
      "attributes": {
        "nomor_pb_umku": null,
        "nama": "TOKO AWADAH",
        "website": "-",
        "sektor": "Sektor Perdagangan",
        "nama_perusahaan": "AWADAH AKAR MIMPI",
        "tanggal_daftar": "2021-12-22",
        "nomor_tanda_daftar": "001832.01/DJAI.PSE/12/2021",
        "qr_code": "https://pse.kominfo.go.id/storage/images/qr_code/91ef795fd601151ca3b6106d317f88b2.png",
        "status_id": "TERDAFTAR",
        "sistem_elektronik_id": 1952
      }
    },
    {
      "type": "tdpseTerbit",
      "id": 2856,
      "attributes": {
        "nomor_pb_umku": null,
        "nama": "MBJB Mobile",
        "website": "www.mitrabjb.id",
        "sektor": "Sektor Keuangan",
        "nama_perusahaan": "KONSUMEN MITRA BINA JAYA BERDIKARI",
        "tanggal_daftar": "2021-12-22",
        "nomor_tanda_daftar": "001831.01/DJAI.PSE/12/2021",
        "qr_code": "https://pse.kominfo.go.id/storage/images/qr_code/a0a22cc9100cd9af2978ce982a416654.png",
        "status_id": "TERDAFTAR",
        "sistem_elektronik_id": 1957
      }
    },
    {
      "type": "tdpseTerbit",
      "id": 2855,
      "attributes": {
        "nomor_pb_umku": null,
        "nama": "Bulungan TV",
        "website": "bulungantv.id",
        "sektor": "Sektor Teknologi Informasi dan Komunikasi",
        "nama_perusahaan": "BUMI TENGUYUN SEJAHTERA",
        "tanggal_daftar": "2021-12-22",
        "nomor_tanda_daftar": "001830.01/DJAI.PSE/12/2021",
        "qr_code": "https://pse.kominfo.go.id/storage/images/qr_code/d4f380cfcdcc362c33c47e811d1b1cb3.png",
        "status_id": "TERDAFTAR",
        "sistem_elektronik_id": 1879
      }
    },
    {
      "type": "tdpseTerbit",
      "id": 2851,
      "attributes": {
        "nomor_pb_umku": null,
        "nama": "Nusantara",
        "website": "tokokasur.com",
        "sektor": "Sektor Perdagangan",
        "nama_perusahaan": "SIMPATI",
        "tanggal_daftar": "2021-12-22",
        "nomor_tanda_daftar": "001829.01/DJAI.PSE/12/2021",
        "qr_code": "https://pse.kominfo.go.id/storage/images/qr_code/3a9e953f12aa5bf459f40482cb026c1f.png",
        "status_id": "TERDAFTAR",
        "sistem_elektronik_id": 1956
      }
    },
    {
      "type": "tdpseTerbit",
      "id": 2846,
      "attributes": {
        "nomor_pb_umku": null,
        "nama": "Marurah",
        "website": "-",
        "sektor": "Sektor Perdagangan, Sektor Teknologi Informasi dan Komunikasi",
        "nama_perusahaan": "APLIKASI TRISNA SEJATI",
        "tanggal_daftar": "2021-12-22",
        "nomor_tanda_daftar": "001828.01/DJAI.PSE/12/2021",
        "qr_code": "https://pse.kominfo.go.id/storage/images/qr_code/01856c9ec266d446026dd7693843b7b2.png",
        "status_id": "TERDAFTAR",
        "sistem_elektronik_id": 1954
      }
    },
    {
      "type": "tdpseTerbit",
      "id": 2845,
      "attributes": {
        "nomor_pb_umku": null,
        "nama": "www.nusatrip.com",
        "website": "https://www.nusatrip.com/",
        "sektor": "Sektor Perdagangan",
        "nama_perusahaan": "TUNAS SUKSES MANDIRI",
        "tanggal_daftar": "2021-12-22",
        "nomor_tanda_daftar": "001827.01/DJAI.PSE/12/2021",
        "qr_code": "https://pse.kominfo.go.id/storage/images/qr_code/3121da7344081b1cbaba70ef3963e792.png",
        "status_id": "TERDAFTAR",
        "sistem_elektronik_id": 1013
      }
    },
    {
      "type": "tdpseTerbit",
      "id": 9163,
      "attributes": {
        "nomor_pb_umku": "121500035196100010002",
        "nama": "PT SAEBO TECHNOLOGY",
        "website": "saebo.technology",
        "sektor": "Sektor Teknologi Informasi dan Komunikasi",
        "nama_perusahaan": "SAEBO TECH NOLOGY",
        "tanggal_daftar": "2022-07-27",
        "nomor_tanda_daftar": "001826.02/DJAI.PSE/07/2022",
        "qr_code": "https://pse.kominfo.go.id/storage/images/qr_code/d60e04b7d9821723f20bfb616cdd5e8c.png",
        "status_id": "TERDAFTAR",
        "sistem_elektronik_id": 9069
      }
    },
    {
      "type": "tdpseTerbit",
      "id": 2843,
      "attributes": {
        "nomor_pb_umku": null,
        "nama": "Saebo Technology",
        "website": "https://saebo.technology/",
        "sektor": "Sektor Teknologi Informasi dan Komunikasi",
        "nama_perusahaan": "SAEBO TECH NOLOGY",
        "tanggal_daftar": "2021-12-22",
        "nomor_tanda_daftar": "001826.01/DJAI.PSE/12/2021",
        "qr_code": "https://pse.kominfo.go.id/storage/images/qr_code/a8a739803a7e2431823ac7ca7c18e985.png",
        "status_id": "TERDAFTAR",
        "sistem_elektronik_id": 1953
      }
    },
    {
      "type": "tdpseTerbit",
      "id": 2842,
      "attributes": {
        "nomor_pb_umku": null,
        "nama": "PT SOLUSI ANDALAN KREASI TEKNOLOGI INDONESIA",
        "website": "-",
        "sektor": "Sektor Teknologi Informasi dan Komunikasi",
        "nama_perusahaan": "SOLUSI ANDALAN KREASI TEKNOLOGI INDONESIA",
        "tanggal_daftar": "2021-12-22",
        "nomor_tanda_daftar": "001825.01/DJAI.PSE/12/2021",
        "qr_code": "https://pse.kominfo.go.id/storage/images/qr_code/1401d884f68d6114d5c4e6c23c8bfdfd.png",
        "status_id": "TERDAFTAR",
        "sistem_elektronik_id": 1877
      }
    },
    {
      "type": "tdpseTerbit",
      "id": 2840,
      "attributes": {
        "nomor_pb_umku": null,
        "nama": "WEBSTORE / WEBSITE",
        "website": "ns1.niagahoster.com",
        "sektor": "Sektor Perdagangan",
        "nama_perusahaan": "HEMA MEDHAJAYA",
        "tanggal_daftar": "2021-12-22",
        "nomor_tanda_daftar": "001824.01/DJAI.PSE/12/2021",
        "qr_code": "https://pse.kominfo.go.id/storage/images/qr_code/525ae9afbe7a6501064aef32fcb5025e.png",
        "status_id": "TERDAFTAR",
        "sistem_elektronik_id": 1902
      }
    }
  ]
}