{
  "meta": {
    "page": {
      "currentPage": 633,
      "from": 6321,
      "lastPage": 1111,
      "perPage": 10,
      "to": 6330,
      "total": 11105
    }
  },
  "data": [
    {
      "type": "tdpseTerbit",
      "id": 3997,
      "attributes": {
        "nomor_pb_umku": null,
        "nama": "FH Indonesia",
        "website": "www.fullertonhealth.co.id",
        "sektor": "Sektor Kesehatan, Sektor Teknologi Informasi dan Komunikasi",
        "nama_perusahaan": "GLOBAL ASSISTANCE AND HEALTHCARE",
        "tanggal_daftar": "2022-04-22",
        "nomor_tanda_daftar": "002594.01/DJAI.PSE/04/2022",
        "qr_code": "https://pse.kominfo.go.id/storage/images/qr_code/0d34486da0643b5410fce585907e768d.png",
        "status_id": "TERDAFTAR",
        "sistem_elektronik_id": 3938
      }
    },
    {
      "type": "tdpseTerbit",
      "id": 3996,
      "attributes": {
        "nomor_pb_umku": null,
        "nama": "Asturi Project",
        "website": "https://asturiproject.com/",
        "sektor": "Sektor Teknologi Informasi dan Komunikasi",
        "nama_perusahaan": "GEDE APGANDHI PRANATA",
        "tanggal_daftar": "2022-04-22",
        "nomor_tanda_daftar": "002593.01/DJAI.PSE/04/2022",
        "qr_code": "https://pse.kominfo.go.id/storage/images/qr_code/be5d25d2e789b8ac21b529b877c0ab2a.png",
        "status_id": "TERDAFTAR",
        "sistem_elektronik_id": 3861
      }
    },
    {
      "type": "tdpseTerbit",
      "id": 3995,
      "attributes": {
        "nomor_pb_umku": null,
        "nama": "ONPAYS",
        "website": "www.onpays.id",
        "sektor": "Sektor Perdagangan, Sektor Teknologi Informasi dan Komunikasi",
        "nama_perusahaan": "VALUESTREAM INTERNATIONAL",
        "tanggal_daftar": "2022-04-22",
        "nomor_tanda_daftar": "002592.01/DJAI.PSE/04/2022",
        "qr_code": "https://pse.kominfo.go.id/storage/images/qr_code/9f158b975807f879a56a19a4bc303c2d.png",
        "status_id": "TERDAFTAR",
        "sistem_elektronik_id": 3820
      }
    },
    {
      "type": "tdpseTerbit",
      "id": 3994,
      "attributes": {
        "nomor_pb_umku": null,
        "nama": "FH Indonesia",
        "website": "www.fullertonhealth.co.id",
        "sektor": "Sektor Kesehatan, Sektor Teknologi Informasi dan Komunikasi",
        "nama_perusahaan": "FULLERTON HEALTH INDONESIA",
        "tanggal_daftar": "2022-04-22",
        "nomor_tanda_daftar": "002591.01/DJAI.PSE/04/2022",
        "qr_code": "https://pse.kominfo.go.id/storage/images/qr_code/9a2233d8ca1b770a356252baab1ab286.png",
        "status_id": "TERDAFTAR",
        "sistem_elektronik_id": 3920
      }
    },
    {
      "type": "tdpseTerbit",
      "id": 3993,
      "attributes": {
        "nomor_pb_umku": null,
        "nama": "Octopus Ubah Jadi Sampah Berharga",
        "website": "octopus.co.id",
        "sektor": "Sektor Perdagangan, Sektor Teknologi Informasi dan Komunikasi, Sektor Transportasi",
        "nama_perusahaan": "CERITA UNTUK ANAK NEGERI",
        "tanggal_daftar": "2022-04-22",
        "nomor_tanda_daftar": "002590.01/DJAI.PSE/04/2022",
        "qr_code": "https://pse.kominfo.go.id/storage/images/qr_code/c2c8cbe17657384b77ccaf3645359608.png",
        "status_id": "TERDAFTAR",
        "sistem_elektronik_id": 3974
      }
    },
    {
      "type": "tdpseTerbit",
      "id": 3992,
      "attributes": {
        "nomor_pb_umku": null,
        "nama": "BLUEMOON MEDIA PLATFORM",
        "website": "-",
        "sektor": "Sektor Perdagangan, Sektor Teknologi Informasi dan Komunikasi",
        "nama_perusahaan": "BLUEMOON MEDIA PARTNER INDONESIA",
        "tanggal_daftar": "2022-04-22",
        "nomor_tanda_daftar": "002589.01/DJAI.PSE/04/2022",
        "qr_code": "https://pse.kominfo.go.id/storage/images/qr_code/8687ac6bc26a85c8b2ac3d374d732096.png",
        "status_id": "TERDAFTAR",
        "sistem_elektronik_id": 3854
      }
    },
    {
      "type": "tdpseTerbit",
      "id": 3991,
      "attributes": {
        "nomor_pb_umku": null,
        "nama": "Hanamel Anatoth Brata Mulia",
        "website": "hanamelanatoth.com",
        "sektor": "Sektor Perdagangan",
        "nama_perusahaan": "HANAMEL ANATOTH BRATA MULIA",
        "tanggal_daftar": "2022-04-22",
        "nomor_tanda_daftar": "002588.01/DJAI.PSE/04/2022",
        "qr_code": "https://pse.kominfo.go.id/storage/images/qr_code/2bbfa29f1605a541e1d0667b69867d69.png",
        "status_id": "TERDAFTAR",
        "sistem_elektronik_id": 3856
      }
    },
    {
      "type": "tdpseTerbit",
      "id": 8955,
      "attributes": {
        "nomor_pb_umku": "912030279331100010002",
        "nama": "QOINPAY",
        "website": "-",
        "sektor": "Sektor Teknologi Informasi dan Komunikasi",
        "nama_perusahaan": "LOYALTY PROGRAM INDONESIA",
        "tanggal_daftar": "2022-07-25",
        "nomor_tanda_daftar": "002587.02/DJAI.PSE/07/2022",
        "qr_code": "https://pse.kominfo.go.id/storage/images/qr_code/9fe3cee6214428cd9c04e359008b72ef.png",
        "status_id": "TERDAFTAR",
        "sistem_elektronik_id": 8865
      }
    },
    {
      "type": "tdpseTerbit",
      "id": 3984,
      "attributes": {
        "nomor_pb_umku": null,
        "nama": "Qoin Crypto",
        "website": "qoincrypto.id",
        "sektor": "Sektor Teknologi Informasi dan Komunikasi",
        "nama_perusahaan": "LOYALTY PROGRAM INDONESIA",
        "tanggal_daftar": "2022-04-21",
        "nomor_tanda_daftar": "002587.01/DJAI.PSE/04/2022",
        "qr_code": "https://pse.kominfo.go.id/storage/images/qr_code/56007bc4d4cac6230b254f6c578261fe.png",
        "status_id": "TERDAFTAR",
        "sistem_elektronik_id": 3986
      }
    },
    {
      "type": "tdpseTerbit",
      "id": 4042,
      "attributes": {
        "nomor_pb_umku": null,
        "nama": "PanenBersama",
        "website": "panenbersama.com",
        "sektor": "Sektor Perdagangan, Sektor Teknologi Informasi dan Komunikasi",
        "nama_perusahaan": "CARMEL ANUGERAH CEMERLANG",
        "tanggal_daftar": "2022-04-26",
        "nomor_tanda_daftar": "002586.03/DJAI.PSE/04/2022",
        "qr_code": "https://pse.kominfo.go.id/storage/images/qr_code/c56dd0f04b2c92200a2db1baad2e42d3.png",
        "status_id": "TERDAFTAR",
        "sistem_elektronik_id": 3978
      }
    }
  ]
}