{
  "meta": {
    "page": {
      "currentPage": 634,
      "from": 6331,
      "lastPage": 1085,
      "perPage": 10,
      "to": 6340,
      "total": 10842
    }
  },
  "data": [
    {
      "type": "tdpseTerbit",
      "id": 11965,
      "attributes": {
        "nomor_pb_umku": "812010087164600020005",
        "nama": "HERBALIFE.CO.ID",
        "website": "herbalife.co.id",
        "sektor": "Sektor Teknologi Informasi dan Komunikasi",
        "nama_perusahaan": "HERBALIFE INDONESIA",
        "tanggal_daftar": "2022-10-26",
        "nomor_tanda_daftar": "002466.05/DJAI.PSE/10/2022",
        "qr_code": "https://pse.kominfo.go.id/storage/images/qr_code/e1dc64de9d93f26b71faa194d7c5a1a8.png",
        "status_id": "TERDAFTAR",
        "sistem_elektronik_id": 11770
      }
    },
    {
      "type": "tdpseTerbit",
      "id": 3807,
      "attributes": {
        "nomor_pb_umku": null,
        "nama": "Herbalife Nutrition Point Of Sales",
        "website": "-",
        "sektor": "Sektor Perdagangan",
        "nama_perusahaan": "HERBALIFE INDONESIA",
        "tanggal_daftar": "2022-04-07",
        "nomor_tanda_daftar": "002466.04/DJAI.PSE/04/2022",
        "qr_code": "https://pse.kominfo.go.id/storage/images/qr_code/8acfbeb0223a8f3e6026d7af003ed027.png",
        "status_id": "TERDAFTAR",
        "sistem_elektronik_id": 3924
      }
    },
    {
      "type": "tdpseTerbit",
      "id": 3801,
      "attributes": {
        "nomor_pb_umku": null,
        "nama": "Herbalife Distributor Order",
        "website": "-",
        "sektor": "Sektor Perdagangan",
        "nama_perusahaan": "HERBALIFE INDONESIA",
        "tanggal_daftar": "2022-04-07",
        "nomor_tanda_daftar": "002466.03/DJAI.PSE/04/2022",
        "qr_code": "https://pse.kominfo.go.id/storage/images/qr_code/ed8476a02cefa9ebb85e1f4b87894709.png",
        "status_id": "TERDAFTAR",
        "sistem_elektronik_id": 3923
      }
    },
    {
      "type": "tdpseTerbit",
      "id": 3797,
      "attributes": {
        "nomor_pb_umku": null,
        "nama": "myHerbalife.com",
        "website": "myHerbalife.com",
        "sektor": "Sektor Perdagangan",
        "nama_perusahaan": "HERBALIFE INDONESIA",
        "tanggal_daftar": "2022-04-07",
        "nomor_tanda_daftar": "002466.02/DJAI.PSE/04/2022",
        "qr_code": "https://pse.kominfo.go.id/storage/images/qr_code/3f96817607e3607dcc9e6f8c8f0296c6.png",
        "status_id": "TERDAFTAR",
        "sistem_elektronik_id": 3922
      }
    },
    {
      "type": "tdpseTerbit",
      "id": 3796,
      "attributes": {
        "nomor_pb_umku": null,
        "nama": "goherbalife.com",
        "website": "goherbalife.com",
        "sektor": "Sektor Perdagangan",
        "nama_perusahaan": "HERBALIFE INDONESIA",
        "tanggal_daftar": "2022-04-07",
        "nomor_tanda_daftar": "002466.01/DJAI.PSE/04/2022",
        "qr_code": "https://pse.kominfo.go.id/storage/images/qr_code/3b54ba1247f0ac0c5460f1d3a678c9f1.png",
        "status_id": "TERDAFTAR",
        "sistem_elektronik_id": 3921
      }
    },
    {
      "type": "tdpseTerbit",
      "id": 3795,
      "attributes": {
        "nomor_pb_umku": null,
        "nama": "Coinx",
        "website": "coinx.id",
        "sektor": "Sektor Perdagangan",
        "nama_perusahaan": "KRIPTO INOVASI NUSANTARA",
        "tanggal_daftar": "2022-04-07",
        "nomor_tanda_daftar": "002465.01/DJAI.PSE/04/2022",
        "qr_code": "https://pse.kominfo.go.id/storage/images/qr_code/c24edeb4831e2e59b4fa6733c2738733.png",
        "status_id": "TERDAFTAR",
        "sistem_elektronik_id": 3770
      }
    },
    {
      "type": "tdpseTerbit",
      "id": 3792,
      "attributes": {
        "nomor_pb_umku": null,
        "nama": "PT. NEXTCOOL TEKNOLOGY INDONESIA",
        "website": "http://nextcool.id/",
        "sektor": "Sektor Perdagangan, Sektor Teknologi Informasi dan Komunikasi",
        "nama_perusahaan": "NEXTCOOL TEKNOLOGY INDONESIA",
        "tanggal_daftar": "2022-04-06",
        "nomor_tanda_daftar": "002463.01/DJAI.PSE/04/2022",
        "qr_code": "https://pse.kominfo.go.id/storage/images/qr_code/04ec50713e54444589428b6b33392d60.png",
        "status_id": "TERDAFTAR",
        "sistem_elektronik_id": 3891
      }
    },
    {
      "type": "tdpseTerbit",
      "id": 3791,
      "attributes": {
        "nomor_pb_umku": null,
        "nama": "Warung Kita Merchant",
        "website": "www.warungkita.info",
        "sektor": "Sektor Perdagangan",
        "nama_perusahaan": "TEKNO DAYA BERSAMA",
        "tanggal_daftar": "2022-04-06",
        "nomor_tanda_daftar": "002462.01/DJAI.PSE/04/2022",
        "qr_code": "https://pse.kominfo.go.id/storage/images/qr_code/66e1cf5984f15060ed648f5596c1b82a.png",
        "status_id": "TERDAFTAR",
        "sistem_elektronik_id": 3756
      }
    },
    {
      "type": "tdpseTerbit",
      "id": 3790,
      "attributes": {
        "nomor_pb_umku": null,
        "nama": "KriptoSemesta",
        "website": "kriptosemesta.com",
        "sektor": "Sektor Keuangan",
        "nama_perusahaan": "INDOKRIPTO KOIN SEMESTA",
        "tanggal_daftar": "2022-04-06",
        "nomor_tanda_daftar": "002461.01/DJAI.PSE/04/2022",
        "qr_code": "https://pse.kominfo.go.id/storage/images/qr_code/067becf5a46a0251f676679ddc62f1d2.png",
        "status_id": "TERDAFTAR",
        "sistem_elektronik_id": 3760
      }
    },
    {
      "type": "tdpseTerbit",
      "id": 3789,
      "attributes": {
        "nomor_pb_umku": null,
        "nama": "Fast Markt",
        "website": "-",
        "sektor": "Sektor Perdagangan",
        "nama_perusahaan": "FAST MARKT INDONESIA",
        "tanggal_daftar": "2022-04-06",
        "nomor_tanda_daftar": "002460.01/DJAI.PSE/04/2022",
        "qr_code": "https://pse.kominfo.go.id/storage/images/qr_code/c5e2d8aa3fd54f17b6b7ffec52bb33ea.png",
        "status_id": "TERDAFTAR",
        "sistem_elektronik_id": 3930
      }
    }
  ]
}