{
  "meta": {
    "page": {
      "currentPage": 637,
      "from": 6361,
      "lastPage": 985,
      "perPage": 10,
      "to": 6370,
      "total": 9842
    }
  },
  "data": [
    {
      "type": "tdpseTerbit",
      "id": 4965,
      "attributes": {
        "nomor_pb_umku": "023301001274700020007",
        "nama": "LIFESPACE",
        "website": "space.life.id",
        "sektor": "Sektor Keuangan",
        "nama_perusahaan": "ASURANSI JIWA IFG",
        "tanggal_daftar": "2022-06-30",
        "nomor_tanda_daftar": "001739.08/DJAI.PSE/06/2022",
        "qr_code": "https://pse.kominfo.go.id/storage/images/qr_code/2c1c2a43306ae300fcb8b814d4cbe9eb.png",
        "status_id": "TERDAFTAR",
        "sistem_elektronik_id": 4833
      }
    },
    {
      "type": "tdpseTerbit",
      "id": 4383,
      "attributes": {
        "nomor_pb_umku": "023301001274700020006",
        "nama": "LIFE.ID",
        "website": "life.id",
        "sektor": "Sektor Keuangan",
        "nama_perusahaan": "ASURANSI JIWA IFG",
        "tanggal_daftar": "2022-06-14",
        "nomor_tanda_daftar": "001739.07/DJAI.PSE/06/2022",
        "qr_code": "https://pse.kominfo.go.id/storage/images/qr_code/da64cb21723d6fdf914d836530b4c8b4.png",
        "status_id": "TERDAFTAR",
        "sistem_elektronik_id": 4367
      }
    },
    {
      "type": "tdpseTerbit",
      "id": 4382,
      "attributes": {
        "nomor_pb_umku": "023301001274700020006",
        "nama": "AMAN BERSAMA IFG LIFE",
        "website": "aman.ifg-life.id",
        "sektor": "Sektor Keuangan",
        "nama_perusahaan": "ASURANSI JIWA IFG",
        "tanggal_daftar": "2022-06-14",
        "nomor_tanda_daftar": "001739.06/DJAI.PSE/06/2022",
        "qr_code": "https://pse.kominfo.go.id/storage/images/qr_code/93597d6f3a5a6762776f7d86d08e9087.png",
        "status_id": "TERDAFTAR",
        "sistem_elektronik_id": 4366
      }
    },
    {
      "type": "tdpseTerbit",
      "id": 2723,
      "attributes": {
        "nomor_pb_umku": null,
        "nama": "MIFG (MI-IFG) (Mandiri Inhealth - Indonesia Financial Group)",
        "website": "registration.ifg-life.id",
        "sektor": "Sektor Keuangan",
        "nama_perusahaan": "ASURANSI JIWA IFG",
        "tanggal_daftar": "2021-12-10",
        "nomor_tanda_daftar": "001739.05/DJAI.PSE/12/2021",
        "qr_code": "https://pse.kominfo.go.id/storage/images/qr_code/c973e67425abb67166246ff73928154f.png",
        "status_id": "TERDAFTAR",
        "sistem_elektronik_id": 1836
      }
    },
    {
      "type": "tdpseTerbit",
      "id": 2720,
      "attributes": {
        "nomor_pb_umku": null,
        "nama": "MIFG (MI-IFG) Mandiri Inheath - Indonesia Financial Group)",
        "website": "registration.ifg-life.id",
        "sektor": "Sektor Keuangan",
        "nama_perusahaan": "ASURANSI JIWA IFG",
        "tanggal_daftar": "2021-12-10",
        "nomor_tanda_daftar": "001739.04/DJAI.PSE/12/2021",
        "qr_code": "https://pse.kominfo.go.id/storage/images/qr_code/9e8b4e6d01568858ec22591603ac2954.png",
        "status_id": "TERDAFTAR",
        "sistem_elektronik_id": 1835
      }
    },
    {
      "type": "tdpseTerbit",
      "id": 2712,
      "attributes": {
        "nomor_pb_umku": null,
        "nama": "Portal Penjualan  Asuransi Mikro IFG Life(Microsite IFG Life)",
        "website": "asuransi.ifg-life.id/mikro/",
        "sektor": "Sektor Keuangan",
        "nama_perusahaan": "ASURANSI JIWA IFG",
        "tanggal_daftar": "2021-12-10",
        "nomor_tanda_daftar": "001739.03/DJAI.PSE/12/2021",
        "qr_code": "https://pse.kominfo.go.id/storage/images/qr_code/149f2bc91d60c347185048b43683163d.png",
        "status_id": "TERDAFTAR",
        "sistem_elektronik_id": 1834
      }
    },
    {
      "type": "tdpseTerbit",
      "id": 2711,
      "attributes": {
        "nomor_pb_umku": null,
        "nama": "Corporate Website IFG Life",
        "website": "ifg-life.id",
        "sektor": "Sektor Keuangan",
        "nama_perusahaan": "ASURANSI JIWA IFG",
        "tanggal_daftar": "2021-12-10",
        "nomor_tanda_daftar": "001739.02/DJAI.PSE/12/2021",
        "qr_code": "https://pse.kominfo.go.id/storage/images/qr_code/d0c081c43de5789743a148a0276de4ef.png",
        "status_id": "TERDAFTAR",
        "sistem_elektronik_id": 1833
      }
    },
    {
      "type": "tdpseTerbit",
      "id": 2708,
      "attributes": {
        "nomor_pb_umku": null,
        "nama": "Agency Information Management System",
        "website": "aims.ifg-life.id",
        "sektor": "Sektor Keuangan",
        "nama_perusahaan": "ASURANSI JIWA IFG",
        "tanggal_daftar": "2021-12-10",
        "nomor_tanda_daftar": "001739.01/DJAI.PSE/12/2021",
        "qr_code": "https://pse.kominfo.go.id/storage/images/qr_code/25a2c1ad03b7cbc1cd1140a82c2d097a.png",
        "status_id": "TERDAFTAR",
        "sistem_elektronik_id": 1832
      }
    },
    {
      "type": "tdpseTerbit",
      "id": 2707,
      "attributes": {
        "nomor_pb_umku": null,
        "nama": "Iluma",
        "website": "www.iluma.ai",
        "sektor": "Sektor Teknologi Informasi dan Komunikasi",
        "nama_perusahaan": "SUMBER DIGITAL TEKNOLOGI",
        "tanggal_daftar": "2021-12-10",
        "nomor_tanda_daftar": "001738.01/DJAI.PSE/12/2021",
        "qr_code": "https://pse.kominfo.go.id/storage/images/qr_code/9067d25624cce4dcafdbcce10981cd97.png",
        "status_id": "TERDAFTAR",
        "sistem_elektronik_id": 3421
      }
    },
    {
      "type": "tdpseTerbit",
      "id": 9903,
      "attributes": {
        "nomor_pb_umku": "812011802002900170008",
        "nama": "RUANGKERJA APP",
        "website": "-",
        "sektor": "Sektor Perdagangan, Sektor Teknologi Informasi dan Komunikasi",
        "nama_perusahaan": "RUANG RAYA INDONESIA",
        "tanggal_daftar": "2022-08-04",
        "nomor_tanda_daftar": "001737.08/DJAI.PSE/08/2022",
        "qr_code": "https://pse.kominfo.go.id/storage/images/qr_code/83e5c8bfce5be46fac992afd1cb8133c.png",
        "status_id": "TERDAFTAR",
        "sistem_elektronik_id": 9790
      }
    }
  ]
}