{
  "meta": {
    "page": {
      "currentPage": 638,
      "from": 6371,
      "lastPage": 1059,
      "perPage": 10,
      "to": 6380,
      "total": 10586
    }
  },
  "data": [
    {
      "type": "tdpseTerbit",
      "id": 3506,
      "attributes": {
        "nomor_pb_umku": null,
        "nama": "Digital Media Marketing",
        "website": "ibgsolutions2u.com",
        "sektor": "Sektor Perdagangan, Sektor Teknologi Informasi dan Komunikasi",
        "nama_perusahaan": "IBG SOLUSI INDONESIA",
        "tanggal_daftar": "2022-03-11",
        "nomor_tanda_daftar": "002282.01/DJAI.PSE/03/2022",
        "qr_code": "https://pse.kominfo.go.id/storage/images/qr_code/eca9c5b183a03d0bcfac388f69e43076.png",
        "status_id": "TERDAFTAR",
        "sistem_elektronik_id": 2974
      }
    },
    {
      "type": "tdpseTerbit",
      "id": 3505,
      "attributes": {
        "nomor_pb_umku": null,
        "nama": "TRE N",
        "website": "buanacapital.com",
        "sektor": "Sektor Keuangan",
        "nama_perusahaan": "BUANA CAPITAL SEKURITAS",
        "tanggal_daftar": "2022-03-10",
        "nomor_tanda_daftar": "002281.02/DJAI.PSE/03/2022",
        "qr_code": "https://pse.kominfo.go.id/storage/images/qr_code/55179aeb52c380a55d832b1e911f9342.png",
        "status_id": "TERDAFTAR",
        "sistem_elektronik_id": 2973
      }
    },
    {
      "type": "tdpseTerbit",
      "id": 3504,
      "attributes": {
        "nomor_pb_umku": null,
        "nama": "TREN",
        "website": "buanacapital.com",
        "sektor": "Sektor Keuangan",
        "nama_perusahaan": "BUANA CAPITAL SEKURITAS",
        "tanggal_daftar": "2022-03-10",
        "nomor_tanda_daftar": "002281.01/DJAI.PSE/03/2022",
        "qr_code": "https://pse.kominfo.go.id/storage/images/qr_code/e3ae0bb4c74f8fd71202a019c1847da7.png",
        "status_id": "TERDAFTAR",
        "sistem_elektronik_id": 2972
      }
    },
    {
      "type": "tdpseTerbit",
      "id": 3503,
      "attributes": {
        "nomor_pb_umku": null,
        "nama": "KampusKita",
        "website": "www.kampuskita.co",
        "sektor": "Sektor Teknologi Informasi dan Komunikasi",
        "nama_perusahaan": "ARTHA TEKNOLOGI MAHAKARYA",
        "tanggal_daftar": "2022-03-10",
        "nomor_tanda_daftar": "002280.01/DJAI.PSE/03/2022",
        "qr_code": "https://pse.kominfo.go.id/storage/images/qr_code/741e4b31c2d8039447e7f033c3602416.png",
        "status_id": "TERDAFTAR",
        "sistem_elektronik_id": 2968
      }
    },
    {
      "type": "tdpseTerbit",
      "id": 3502,
      "attributes": {
        "nomor_pb_umku": null,
        "nama": "OfficeBee",
        "website": "Officebee.co",
        "sektor": "Sektor Perdagangan, Sektor Teknologi Informasi dan Komunikasi",
        "nama_perusahaan": "TEES PRATAMA INDONESIA",
        "tanggal_daftar": "2022-03-10",
        "nomor_tanda_daftar": "002279.01/DJAI.PSE/03/2022",
        "qr_code": "https://pse.kominfo.go.id/storage/images/qr_code/b39d8beb89bc0764b07fe018f2bc8264.png",
        "status_id": "TERDAFTAR",
        "sistem_elektronik_id": 2964
      }
    },
    {
      "type": "tdpseTerbit",
      "id": 3501,
      "attributes": {
        "nomor_pb_umku": null,
        "nama": "Tokenize Xchange",
        "website": "tokenize.id",
        "sektor": "Sektor Keuangan",
        "nama_perusahaan": "TOKENIZE INDO UTAMA",
        "tanggal_daftar": "2022-03-10",
        "nomor_tanda_daftar": "002278.01/DJAI.PSE/03/2022",
        "qr_code": "https://pse.kominfo.go.id/storage/images/qr_code/ff965e8ae0eaa673abac230dee157f0a.png",
        "status_id": "TERDAFTAR",
        "sistem_elektronik_id": 2963
      }
    },
    {
      "type": "tdpseTerbit",
      "id": 3500,
      "attributes": {
        "nomor_pb_umku": null,
        "nama": "Beetu",
        "website": "beetu.id",
        "sektor": "Sektor Transportasi",
        "nama_perusahaan": "DELAPAN BERUANG MADU",
        "tanggal_daftar": "2022-03-10",
        "nomor_tanda_daftar": "002277.01/DJAI.PSE/03/2022",
        "qr_code": "https://pse.kominfo.go.id/storage/images/qr_code/a333273b13f5e6069ac364f1eed275ee.png",
        "status_id": "TERDAFTAR",
        "sistem_elektronik_id": 2970
      }
    },
    {
      "type": "tdpseTerbit",
      "id": 3499,
      "attributes": {
        "nomor_pb_umku": null,
        "nama": "Codehouse Teknologi Oase",
        "website": "codehouse.id",
        "sektor": "Sektor Teknologi Informasi dan Komunikasi",
        "nama_perusahaan": "CODEHOUSE TEKNOLOGI OASE",
        "tanggal_daftar": "2022-03-10",
        "nomor_tanda_daftar": "002276.01/DJAI.PSE/03/2022",
        "qr_code": "https://pse.kominfo.go.id/storage/images/qr_code/f763141e3bc739e36f1fb3fc252380a7.png",
        "status_id": "TERDAFTAR",
        "sistem_elektronik_id": 2971
      }
    },
    {
      "type": "tdpseTerbit",
      "id": 4357,
      "attributes": {
        "nomor_pb_umku": null,
        "nama": "Doctor Anywhere Indonesia",
        "website": "doctoranywhere.co.id",
        "sektor": "Sektor Kesehatan, Sektor Teknologi Informasi dan Komunikasi",
        "nama_perusahaan": "DOCTOR ANYWHERE INDONESIA",
        "tanggal_daftar": "2022-05-17",
        "nomor_tanda_daftar": "002275.02/DJAI.PSE/05/2022",
        "qr_code": "https://pse.kominfo.go.id/storage/images/qr_code/d6859b0c5a7f8c2243aa3db2a6fb15bc.png",
        "status_id": "TERDAFTAR",
        "sistem_elektronik_id": 4343
      }
    },
    {
      "type": "tdpseTerbit",
      "id": 3498,
      "attributes": {
        "nomor_pb_umku": null,
        "nama": "Doctor Anywhere",
        "website": "doctoranywhere.com",
        "sektor": "Sektor Kesehatan, Sektor Teknologi Informasi dan Komunikasi",
        "nama_perusahaan": "DOCTOR ANYWHERE INDONESIA",
        "tanggal_daftar": "2022-03-10",
        "nomor_tanda_daftar": "002275.01/DJAI.PSE/03/2022",
        "qr_code": "https://pse.kominfo.go.id/storage/images/qr_code/3572602378aa156f79755c69725ecc05.png",
        "status_id": "TERDAFTAR",
        "sistem_elektronik_id": 2932
      }
    }
  ]
}