{
  "meta": {
    "page": {
      "currentPage": 639,
      "from": 6381,
      "lastPage": 1041,
      "perPage": 10,
      "to": 6390,
      "total": 10407
    }
  },
  "data": [
    {
      "type": "tdpseTerbit",
      "id": 3333,
      "attributes": {
        "nomor_pb_umku": null,
        "nama": "Klik Indomaret",
        "website": "www.klikindomaret.com",
        "sektor": "Sektor Perdagangan",
        "nama_perusahaan": "KLIK INDOMARET PERKASA",
        "tanggal_daftar": "2022-02-22",
        "nomor_tanda_daftar": "002159.01/DJAI.PSE/02/2022",
        "qr_code": "https://pse.kominfo.go.id/storage/images/qr_code/efda8c6757174b11d3738b9c8d9accab.png",
        "status_id": "TERDAFTAR",
        "sistem_elektronik_id": 1704
      }
    },
    {
      "type": "tdpseTerbit",
      "id": 3332,
      "attributes": {
        "nomor_pb_umku": null,
        "nama": "INVESTAMA DANA INDONESIA",
        "website": "-",
        "sektor": "Sektor Teknologi Informasi dan Komunikasi",
        "nama_perusahaan": "INVESTAMA DANA INDONESIA",
        "tanggal_daftar": "2022-02-22",
        "nomor_tanda_daftar": "002158.01/DJAI.PSE/02/2022",
        "qr_code": "https://pse.kominfo.go.id/storage/images/qr_code/d056069da820ce53a67210a19a286c81.png",
        "status_id": "TERDAFTAR",
        "sistem_elektronik_id": 2250
      }
    },
    {
      "type": "tdpseTerbit",
      "id": 3331,
      "attributes": {
        "nomor_pb_umku": null,
        "nama": "Website",
        "website": "www.ice.id",
        "sektor": "Sektor Teknologi Informasi dan Komunikasi",
        "nama_perusahaan": "INDONESIA CREATORS ECONOMY",
        "tanggal_daftar": "2022-02-22",
        "nomor_tanda_daftar": "002157.01/DJAI.PSE/02/2022",
        "qr_code": "https://pse.kominfo.go.id/storage/images/qr_code/3aa0ce72ef4f3e8f59b3a5b4e1abd468.png",
        "status_id": "TERDAFTAR",
        "sistem_elektronik_id": 2248
      }
    },
    {
      "type": "tdpseTerbit",
      "id": 4356,
      "attributes": {
        "nomor_pb_umku": null,
        "nama": "www.pawlyclinic.co.id",
        "website": "www.pawlyclinic.co.id",
        "sektor": "Sektor Teknologi Informasi dan Komunikasi",
        "nama_perusahaan": "KESEHATAN HEWAN PELIHARAAN PAWLYCLINIC",
        "tanggal_daftar": "2022-04-28",
        "nomor_tanda_daftar": "002156.02/DJAI.PSE/04/2022",
        "qr_code": "https://pse.kominfo.go.id/storage/images/qr_code/160e0a26245a97fc765da3d036cbc5a0.png",
        "status_id": "TERDAFTAR",
        "sistem_elektronik_id": 4342
      }
    },
    {
      "type": "tdpseTerbit",
      "id": 3330,
      "attributes": {
        "nomor_pb_umku": null,
        "nama": "Pawlyclinic",
        "website": "www.pawlyclinic.co.id",
        "sektor": "Sektor Teknologi Informasi dan Komunikasi",
        "nama_perusahaan": "KESEHATAN HEWAN PELIHARAAN PAWLYCLINIC",
        "tanggal_daftar": "2022-02-22",
        "nomor_tanda_daftar": "002156.01/DJAI.PSE/02/2022",
        "qr_code": "https://pse.kominfo.go.id/storage/images/qr_code/eda52594c95837909685e2770ece970b.png",
        "status_id": "TERDAFTAR",
        "sistem_elektronik_id": 2158
      }
    },
    {
      "type": "tdpseTerbit",
      "id": 3329,
      "attributes": {
        "nomor_pb_umku": null,
        "nama": "easycrypto.com",
        "website": "https://easycrypto.com",
        "sektor": "Sektor Perdagangan, Sektor Teknologi Informasi dan Komunikasi",
        "nama_perusahaan": "EASY CRYPTO INDONESIA",
        "tanggal_daftar": "2022-02-22",
        "nomor_tanda_daftar": "002155.01/DJAI.PSE/02/2022",
        "qr_code": "https://pse.kominfo.go.id/storage/images/qr_code/e6888f02a51b3035dd1d9e8957dd8277.png",
        "status_id": "TERDAFTAR",
        "sistem_elektronik_id": 2230
      }
    },
    {
      "type": "tdpseTerbit",
      "id": 3327,
      "attributes": {
        "nomor_pb_umku": null,
        "nama": "NABILA (Narindo Billing Assistance)",
        "website": "narindo.com",
        "sektor": "Sektor Keuangan, Sektor Perdagangan, Sektor Teknologi Informasi dan Komunikasi",
        "nama_perusahaan": "NARINDO SOLUSI TELEKOMUNIKASI",
        "tanggal_daftar": "2022-02-21",
        "nomor_tanda_daftar": "002154.02/DJAI.PSE/02/2022",
        "qr_code": "https://pse.kominfo.go.id/storage/images/qr_code/f3595ee401ab5b7bbaf812d83acaf281.png",
        "status_id": "TERDAFTAR",
        "sistem_elektronik_id": 2227
      }
    },
    {
      "type": "tdpseTerbit",
      "id": 3326,
      "attributes": {
        "nomor_pb_umku": null,
        "nama": "Narindo Biller (Nabila)",
        "website": "narindo.com",
        "sektor": "Sektor Keuangan, Sektor Perdagangan, Sektor Teknologi Informasi dan Komunikasi",
        "nama_perusahaan": "NARINDO SOLUSI TELEKOMUNIKASI",
        "tanggal_daftar": "2022-02-21",
        "nomor_tanda_daftar": "002154.01/DJAI.PSE/02/2022",
        "qr_code": "https://pse.kominfo.go.id/storage/images/qr_code/ad5465be6fd8c1b9092e53906b57f10b.png",
        "status_id": "TERDAFTAR",
        "sistem_elektronik_id": 2226
      }
    },
    {
      "type": "tdpseTerbit",
      "id": 3325,
      "attributes": {
        "nomor_pb_umku": null,
        "nama": "Digital Mall Indonesia",
        "website": "www.dimall.id",
        "sektor": "Sektor Perdagangan",
        "nama_perusahaan": "DIGITAL MALL INDONESIA",
        "tanggal_daftar": "2022-02-21",
        "nomor_tanda_daftar": "002153.01/DJAI.PSE/02/2022",
        "qr_code": "https://pse.kominfo.go.id/storage/images/qr_code/b9050ba347568f76c24377d39211f951.png",
        "status_id": "TERDAFTAR",
        "sistem_elektronik_id": 2148
      }
    },
    {
      "type": "tdpseTerbit",
      "id": 3323,
      "attributes": {
        "nomor_pb_umku": null,
        "nama": "Serbada",
        "website": "serbada.id",
        "sektor": "Sektor Perdagangan",
        "nama_perusahaan": "SAKALAGUNA SEMESTA",
        "tanggal_daftar": "2022-02-21",
        "nomor_tanda_daftar": "002152.01/DJAI.PSE/02/2022",
        "qr_code": "https://pse.kominfo.go.id/storage/images/qr_code/78a5b941f09cedac7738965a41f1c7f8.png",
        "status_id": "TERDAFTAR",
        "sistem_elektronik_id": 2247
      }
    }
  ]
}