{
  "meta": {
    "page": {
      "currentPage": 640,
      "from": 6391,
      "lastPage": 925,
      "perPage": 10,
      "to": 6400,
      "total": 9244
    }
  },
  "data": [
    {
      "type": "tdpseTerbit",
      "id": 4589,
      "attributes": {
        "nomor_pb_umku": null,
        "nama": "Internet Banking Bank  Sahabat Sampoerna",
        "website": "ibank.banksampoerna.co.id",
        "sektor": "Sektor Keuangan",
        "nama_perusahaan": "BANK SAHABAT SAMPOERNA",
        "tanggal_daftar": "2022-04-08",
        "nomor_tanda_daftar": "001422.04/DJAI.PSE/04/2022",
        "qr_code": "https://pse.kominfo.go.id/storage/images/qr_code/d052553929d9aa679c7851f73522a1d9.png",
        "status_id": "TERDAFTAR",
        "sistem_elektronik_id": 4552
      }
    },
    {
      "type": "tdpseTerbit",
      "id": 3787,
      "attributes": {
        "nomor_pb_umku": null,
        "nama": "Sampoerna Mobile Banking",
        "website": "https://sampoernamobile.banksampoerna.com",
        "sektor": "Sektor Keuangan",
        "nama_perusahaan": "BANK SAHABAT SAMPOERNA",
        "tanggal_daftar": "2022-04-06",
        "nomor_tanda_daftar": "001422.03/DJAI.PSE/04/2022",
        "qr_code": "https://pse.kominfo.go.id/storage/images/qr_code/3bb73a71b428e1cd6040d0910ff289c5.png",
        "status_id": "TERDAFTAR",
        "sistem_elektronik_id": 3690
      }
    },
    {
      "type": "tdpseTerbit",
      "id": 2127,
      "attributes": {
        "nomor_pb_umku": null,
        "nama": "PDaja.com",
        "website": "https://pdaja.com/",
        "sektor": "Sektor Keuangan",
        "nama_perusahaan": "BANK SAHABAT SAMPOERNA",
        "tanggal_daftar": "2021-10-26",
        "nomor_tanda_daftar": "001422.02/DJAI.PSE/10/2021",
        "qr_code": "https://pse.kominfo.go.id/storage/images/qr_code/4daa0e971863d7d840c073994d877c1f.png",
        "status_id": "TERDAFTAR",
        "sistem_elektronik_id": 3414
      }
    },
    {
      "type": "tdpseTerbit",
      "id": 2126,
      "attributes": {
        "nomor_pb_umku": null,
        "nama": "PDaja.com",
        "website": "https://pdaja.com/",
        "sektor": "Sektor Keuangan",
        "nama_perusahaan": "BANK SAHABAT SAMPOERNA",
        "tanggal_daftar": "2021-10-26",
        "nomor_tanda_daftar": "001422.01/DJAI.PSE/10/2021",
        "qr_code": "https://pse.kominfo.go.id/storage/images/qr_code/aaeb262b268c94d20842a26c9ec84162.png",
        "status_id": "TERDAFTAR",
        "sistem_elektronik_id": 3413
      }
    },
    {
      "type": "tdpseTerbit",
      "id": 7677,
      "attributes": {
        "nomor_pb_umku": "912020929138700100006",
        "nama": "APLIKASI AGENT BTPN SYARIAH",
        "website": "-",
        "sektor": "Sektor Keuangan",
        "nama_perusahaan": "BANK BTPN SYARIAH",
        "tanggal_daftar": "2022-07-20",
        "nomor_tanda_daftar": "001421.08/DJAI.PSE/07/2022",
        "qr_code": "https://pse.kominfo.go.id/storage/images/qr_code/9ea65a71279e7a66c441f755c22fa4ec.png",
        "status_id": "TERDAFTAR",
        "sistem_elektronik_id": 7584
      }
    },
    {
      "type": "tdpseTerbit",
      "id": 7643,
      "attributes": {
        "nomor_pb_umku": "912020929138700100005",
        "nama": "WARUNG TEPAT BTPN SYARIAH",
        "website": "-",
        "sektor": "Sektor Keuangan",
        "nama_perusahaan": "BANK BTPN SYARIAH",
        "tanggal_daftar": "2022-07-20",
        "nomor_tanda_daftar": "001421.07/DJAI.PSE/07/2022",
        "qr_code": "https://pse.kominfo.go.id/storage/images/qr_code/f4d71e61f57d391bc2ebc1e6ee6deee4.png",
        "status_id": "TERDAFTAR",
        "sistem_elektronik_id": 7542
      }
    },
    {
      "type": "tdpseTerbit",
      "id": 7586,
      "attributes": {
        "nomor_pb_umku": "912020929138700100004",
        "nama": "TEPAT MOBILE",
        "website": "btpnsyariah.com",
        "sektor": "Sektor Keuangan",
        "nama_perusahaan": "BANK BTPN SYARIAH",
        "tanggal_daftar": "2022-07-20",
        "nomor_tanda_daftar": "001421.06/DJAI.PSE/07/2022",
        "qr_code": "https://pse.kominfo.go.id/storage/images/qr_code/278c0390ebea756233c22543e9225bfa.png",
        "status_id": "TERDAFTAR",
        "sistem_elektronik_id": 7481
      }
    },
    {
      "type": "tdpseTerbit",
      "id": 6837,
      "attributes": {
        "nomor_pb_umku": "912020929138700100003",
        "nama": "TEPAT INTERNET BANKING BISNIS",
        "website": "btpnsyariah.com",
        "sektor": "Sektor Keuangan",
        "nama_perusahaan": "BANK BTPN SYARIAH",
        "tanggal_daftar": "2022-07-19",
        "nomor_tanda_daftar": "001421.05/DJAI.PSE/07/2022",
        "qr_code": "https://pse.kominfo.go.id/storage/images/qr_code/ec778c7b9b4b889de23697d15eaf7ea2.png",
        "status_id": "TERDAFTAR",
        "sistem_elektronik_id": 6681
      }
    },
    {
      "type": "tdpseTerbit",
      "id": 5560,
      "attributes": {
        "nomor_pb_umku": "",
        "nama": "TEPAT INTERNET BANKING",
        "website": "btpnsyariah.com",
        "sektor": "Sektor Keuangan",
        "nama_perusahaan": "BANK BTPN SYARIAH",
        "tanggal_daftar": "2022-07-14",
        "nomor_tanda_daftar": "001421.04/DJAI.PSE/07/2022",
        "qr_code": "https://pse.kominfo.go.id/storage/images/qr_code/d90c82399f5fa3e364323ba5b847a431.png",
        "status_id": "TERDAFTAR",
        "sistem_elektronik_id": 4998
      }
    },
    {
      "type": "tdpseTerbit",
      "id": 4350,
      "attributes": {
        "nomor_pb_umku": null,
        "nama": "TEPAT DAYA",
        "website": "tepatdaya.btpnsyariah.com",
        "sektor": "Sektor Keuangan",
        "nama_perusahaan": "BANK BTPN SYARIAH",
        "tanggal_daftar": "2022-05-19",
        "nomor_tanda_daftar": "001421.03/DJAI.PSE/05/2022",
        "qr_code": "https://pse.kominfo.go.id/storage/images/qr_code/e02ff1dcbb6c258eeab6a8d5022aa570.png",
        "status_id": "TERDAFTAR",
        "sistem_elektronik_id": 4336
      }
    }
  ]
}