{
  "meta": {
    "page": {
      "currentPage": 641,
      "from": 6401,
      "lastPage": 923,
      "perPage": 10,
      "to": 6410,
      "total": 9227
    }
  },
  "data": [
    {
      "type": "tdpseTerbit",
      "id": 2296,
      "attributes": {
        "nomor_pb_umku": null,
        "nama": "WEBSITE",
        "website": "WWW.MANDIRIINHEALTH.CO.ID",
        "sektor": "Sektor Kesehatan",
        "nama_perusahaan": "ASURANSI JIWA INHEALTH INDONESIA",
        "tanggal_daftar": "2021-11-08",
        "nomor_tanda_daftar": "001411.06/DJAI.PSE/11/2021",
        "qr_code": "https://pse.kominfo.go.id/storage/images/qr_code/104a2cdce72d57e70861269104e726f7.png",
        "status_id": "TERDAFTAR",
        "sistem_elektronik_id": 1531
      }
    },
    {
      "type": "tdpseTerbit",
      "id": 2267,
      "attributes": {
        "nomor_pb_umku": null,
        "nama": "MARKIS",
        "website": "WWW.MANDIRIINHEALTH.CO.ID",
        "sektor": "Sektor Kesehatan",
        "nama_perusahaan": "ASURANSI JIWA INHEALTH INDONESIA",
        "tanggal_daftar": "2021-11-01",
        "nomor_tanda_daftar": "001411.05/DJAI.PSE/11/2021",
        "qr_code": "https://pse.kominfo.go.id/storage/images/qr_code/ee679b90778c4949d0969064b6b01247.png",
        "status_id": "TERDAFTAR",
        "sistem_elektronik_id": 1530
      }
    },
    {
      "type": "tdpseTerbit",
      "id": 2266,
      "attributes": {
        "nomor_pb_umku": null,
        "nama": "FIS",
        "website": "WWW.MANDIRIINHEALTH.CO.ID",
        "sektor": "Sektor Kesehatan",
        "nama_perusahaan": "ASURANSI JIWA INHEALTH INDONESIA",
        "tanggal_daftar": "2021-11-01",
        "nomor_tanda_daftar": "001411.04/DJAI.PSE/11/2021",
        "qr_code": "https://pse.kominfo.go.id/storage/images/qr_code/24ad15f922730a8563b94092d5aee7e5.png",
        "status_id": "TERDAFTAR",
        "sistem_elektronik_id": 1529
      }
    },
    {
      "type": "tdpseTerbit",
      "id": 2264,
      "attributes": {
        "nomor_pb_umku": null,
        "nama": "Pelkes Online",
        "website": "WWW.MANDIRIINHEALTH.CO.ID",
        "sektor": "Sektor Kesehatan",
        "nama_perusahaan": "ASURANSI JIWA INHEALTH INDONESIA",
        "tanggal_daftar": "2021-11-01",
        "nomor_tanda_daftar": "001411.03/DJAI.PSE/11/2021",
        "qr_code": "https://pse.kominfo.go.id/storage/images/qr_code/8fe0d6694eea273d5ec8ef27cc9517b4.png",
        "status_id": "TERDAFTAR",
        "sistem_elektronik_id": 1528
      }
    },
    {
      "type": "tdpseTerbit",
      "id": 2263,
      "attributes": {
        "nomor_pb_umku": null,
        "nama": "MI CARE",
        "website": "WWW.MANDIRIINHEALTH.CO.ID",
        "sektor": "Sektor Kesehatan",
        "nama_perusahaan": "ASURANSI JIWA INHEALTH INDONESIA",
        "tanggal_daftar": "2021-11-01",
        "nomor_tanda_daftar": "001411.02/DJAI.PSE/11/2021",
        "qr_code": "https://pse.kominfo.go.id/storage/images/qr_code/e0a1ff2dc4e64fd06eb82c4f31d981a1.png",
        "status_id": "TERDAFTAR",
        "sistem_elektronik_id": 1527
      }
    },
    {
      "type": "tdpseTerbit",
      "id": 2113,
      "attributes": {
        "nomor_pb_umku": null,
        "nama": "FITAja!",
        "website": "WWW.MANDIRIINHEALTH.CO.ID",
        "sektor": "Sektor Kesehatan, Sektor Perdagangan",
        "nama_perusahaan": "ASURANSI JIWA INHEALTH INDONESIA",
        "tanggal_daftar": "2021-10-26",
        "nomor_tanda_daftar": "001411.01/DJAI.PSE/10/2021",
        "qr_code": "https://pse.kominfo.go.id/storage/images/qr_code/baf0774e8ac441a99944870d477fab26.png",
        "status_id": "TERDAFTAR",
        "sistem_elektronik_id": 1526
      }
    },
    {
      "type": "tdpseTerbit",
      "id": 2112,
      "attributes": {
        "nomor_pb_umku": null,
        "nama": "Able Remittance",
        "website": "http://ablegroup.co.id",
        "sektor": "Sektor Keuangan",
        "nama_perusahaan": "PT ABLE REMITTANCE",
        "tanggal_daftar": "2021-10-26",
        "nomor_tanda_daftar": "001410.01/DJAI.PSE/10/2021",
        "qr_code": "https://pse.kominfo.go.id/storage/images/qr_code/803e82fb22e055aa180eef66dbc2e411.png",
        "status_id": "TERDAFTAR",
        "sistem_elektronik_id": 3031
      }
    },
    {
      "type": "tdpseTerbit",
      "id": 2111,
      "attributes": {
        "nomor_pb_umku": null,
        "nama": "BINTANGO",
        "website": "https://www.bintango.com",
        "sektor": "Sektor Perdagangan",
        "nama_perusahaan": "PT STARGO DIGITAL INDONESIA",
        "tanggal_daftar": "2021-10-26",
        "nomor_tanda_daftar": "001409.01/DJAI.PSE/10/2021",
        "qr_code": "https://pse.kominfo.go.id/storage/images/qr_code/b42e97a0ce53a83f5a6ebc4bafcdf376.png",
        "status_id": "TERDAFTAR",
        "sistem_elektronik_id": 3030
      }
    },
    {
      "type": "tdpseTerbit",
      "id": 2137,
      "attributes": {
        "nomor_pb_umku": null,
        "nama": "Platform Digital Logistik",
        "website": "icargo.id",
        "sektor": "Sektor Teknologi Informasi dan Komunikasi, Sektor Transportasi",
        "nama_perusahaan": "PT.Icargo Digital Logistic",
        "tanggal_daftar": "2021-10-26",
        "nomor_tanda_daftar": "001408.02/DJAI.PSE/10/2021",
        "qr_code": "https://pse.kominfo.go.id/storage/images/qr_code/6851800f648e9ead3277791e523aff0b.png",
        "status_id": "TERDAFTAR",
        "sistem_elektronik_id": 3029
      }
    },
    {
      "type": "tdpseTerbit",
      "id": 2110,
      "attributes": {
        "nomor_pb_umku": null,
        "nama": "Platform Digital Logistik",
        "website": "icargo.id",
        "sektor": "Sektor Teknologi Informasi dan Komunikasi, Sektor Transportasi",
        "nama_perusahaan": "PT.Icargo Digital Logistic",
        "tanggal_daftar": "2021-10-26",
        "nomor_tanda_daftar": "001408.01/DJAI.PSE/10/2021",
        "qr_code": "https://pse.kominfo.go.id/storage/images/qr_code/93ca3130e5764d2db69f303e9f1909e9.png",
        "status_id": "TERDAFTAR",
        "sistem_elektronik_id": 3028
      }
    }
  ]
}