{
  "meta": {
    "page": {
      "currentPage": 642,
      "from": 6411,
      "lastPage": 1047,
      "perPage": 10,
      "to": 6420,
      "total": 10470
    }
  },
  "data": [
    {
      "type": "tdpseTerbit",
      "id": 3360,
      "attributes": {
        "nomor_pb_umku": null,
        "nama": "BERNIAGA BERKAH CEMERLANG",
        "website": "berniagaberkahcemerlang.com",
        "sektor": "Sektor Perdagangan",
        "nama_perusahaan": "BERNIAGA BERKAH CEMERLANG",
        "tanggal_daftar": "2022-02-23",
        "nomor_tanda_daftar": "002178.01/DJAI.PSE/02/2022",
        "qr_code": "https://pse.kominfo.go.id/storage/images/qr_code/2846b8aa4eb045340cd6b81cc5d46dd4.png",
        "status_id": "TERDAFTAR",
        "sistem_elektronik_id": 3150
      }
    },
    {
      "type": "tdpseTerbit",
      "id": 3358,
      "attributes": {
        "nomor_pb_umku": null,
        "nama": "Triperwira Multi Pamenang.",
        "website": "https://www.pc-master.biz",
        "sektor": "Sektor Perdagangan, Sektor Teknologi Informasi dan Komunikasi",
        "nama_perusahaan": "TRIPERWIRA MULTI PAMENANG",
        "tanggal_daftar": "2022-02-23",
        "nomor_tanda_daftar": "002177.02/DJAI.PSE/02/2022",
        "qr_code": "https://pse.kominfo.go.id/storage/images/qr_code/b10e6b26be131f5bd04d138274e2452a.png",
        "status_id": "TERDAFTAR",
        "sistem_elektronik_id": 2268
      }
    },
    {
      "type": "tdpseTerbit",
      "id": 3357,
      "attributes": {
        "nomor_pb_umku": null,
        "nama": "PT. Triperwira Multi Pamenang",
        "website": "https://www.pc-master.biz",
        "sektor": "Sektor Perdagangan, Sektor Teknologi Informasi dan Komunikasi",
        "nama_perusahaan": "TRIPERWIRA MULTI PAMENANG",
        "tanggal_daftar": "2022-02-23",
        "nomor_tanda_daftar": "002177.01/DJAI.PSE/02/2022",
        "qr_code": "https://pse.kominfo.go.id/storage/images/qr_code/3cdd5968ee62fe5897b17d16aa779f74.png",
        "status_id": "TERDAFTAR",
        "sistem_elektronik_id": 2267
      }
    },
    {
      "type": "tdpseTerbit",
      "id": 3355,
      "attributes": {
        "nomor_pb_umku": null,
        "nama": "Pilarmedia Indonesia",
        "website": "pilarmedia.com",
        "sektor": "Sektor Perdagangan, Sektor Teknologi Informasi dan Komunikasi, Sektor Transportasi",
        "nama_perusahaan": "PILARMEDIA INDONESIA",
        "tanggal_daftar": "2022-02-23",
        "nomor_tanda_daftar": "002176.01/DJAI.PSE/02/2022",
        "qr_code": "https://pse.kominfo.go.id/storage/images/qr_code/edfebfb6811cb740c50ea7441a033f55.png",
        "status_id": "TERDAFTAR",
        "sistem_elektronik_id": 2265
      }
    },
    {
      "type": "tdpseTerbit",
      "id": 3354,
      "attributes": {
        "nomor_pb_umku": null,
        "nama": "KURSUSMART",
        "website": "kursusmart.com",
        "sektor": "Sektor Teknologi Informasi dan Komunikasi",
        "nama_perusahaan": "DIAN SORAYA SAPUTRA",
        "tanggal_daftar": "2022-02-23",
        "nomor_tanda_daftar": "002175.01/DJAI.PSE/02/2022",
        "qr_code": "https://pse.kominfo.go.id/storage/images/qr_code/90fd5446612170f7d810a500cc827da1.png",
        "status_id": "TERDAFTAR",
        "sistem_elektronik_id": 2264
      }
    },
    {
      "type": "tdpseTerbit",
      "id": 3353,
      "attributes": {
        "nomor_pb_umku": null,
        "nama": "Cairin",
        "website": "www.cairin.id",
        "sektor": "Sektor Keuangan",
        "nama_perusahaan": "IDANA SOLUSI SEJAHTERA",
        "tanggal_daftar": "2022-02-23",
        "nomor_tanda_daftar": "002174.01/DJAI.PSE/02/2022",
        "qr_code": "https://pse.kominfo.go.id/storage/images/qr_code/b609625cdc2eec783132967d45788190.png",
        "status_id": "TERDAFTAR",
        "sistem_elektronik_id": 461
      }
    },
    {
      "type": "tdpseTerbit",
      "id": 3373,
      "attributes": {
        "nomor_pb_umku": null,
        "nama": "Durianmoney (Transfer Dana Durianpay)",
        "website": "durianpay.id",
        "sektor": "Sektor Keuangan",
        "nama_perusahaan": "DURIAN PAY INDONESIA",
        "tanggal_daftar": "2022-02-24",
        "nomor_tanda_daftar": "002173.02/DJAI.PSE/02/2022",
        "qr_code": "https://pse.kominfo.go.id/storage/images/qr_code/d726cd7e453b13b87a22b460fc634100.png",
        "status_id": "TERDAFTAR",
        "sistem_elektronik_id": 2262
      }
    },
    {
      "type": "tdpseTerbit",
      "id": 3352,
      "attributes": {
        "nomor_pb_umku": null,
        "nama": "Durianpay",
        "website": "durianpay.id",
        "sektor": "Sektor Keuangan",
        "nama_perusahaan": "DURIAN PAY INDONESIA",
        "tanggal_daftar": "2022-02-23",
        "nomor_tanda_daftar": "002173.01/DJAI.PSE/02/2022",
        "qr_code": "https://pse.kominfo.go.id/storage/images/qr_code/a42aad95e73857f8d3d042d9a1cf0ea8.png",
        "status_id": "TERDAFTAR",
        "sistem_elektronik_id": 2261
      }
    },
    {
      "type": "tdpseTerbit",
      "id": 3351,
      "attributes": {
        "nomor_pb_umku": null,
        "nama": "CV. FURNIX TATA MANDIRI",
        "website": "http://furnixfurniture.co.id/",
        "sektor": "Sektor Perdagangan",
        "nama_perusahaan": "FURNIX TATA MANDIRI",
        "tanggal_daftar": "2022-02-23",
        "nomor_tanda_daftar": "002172.01/DJAI.PSE/02/2022",
        "qr_code": "https://pse.kominfo.go.id/storage/images/qr_code/7143b10238ca4fd9eeaec33907da9566.png",
        "status_id": "TERDAFTAR",
        "sistem_elektronik_id": 2254
      }
    },
    {
      "type": "tdpseTerbit",
      "id": 3350,
      "attributes": {
        "nomor_pb_umku": null,
        "nama": "www.fixbee.com",
        "website": "www.fixbee.com",
        "sektor": "Sektor Teknologi Informasi dan Komunikasi, Sektor Transportasi",
        "nama_perusahaan": "DIGITAL SERVICE SARI UTAMA",
        "tanggal_daftar": "2022-02-23",
        "nomor_tanda_daftar": "002171.01/DJAI.PSE/02/2022",
        "qr_code": "https://pse.kominfo.go.id/storage/images/qr_code/f2e86c5c75cdfd74307b8af844a61e29.png",
        "status_id": "TERDAFTAR",
        "sistem_elektronik_id": 2221
      }
    }
  ]
}