{
  "meta": {
    "page": {
      "currentPage": 643,
      "from": 6421,
      "lastPage": 975,
      "perPage": 10,
      "to": 6430,
      "total": 9746
    }
  },
  "data": [
    {
      "type": "tdpseTerbit",
      "id": 6912,
      "attributes": {
        "nomor_pb_umku": "",
        "nama": "ACS 3DS DEBIT",
        "website": "3dsecuredebit.klikbca.com",
        "sektor": "Sektor Keuangan",
        "nama_perusahaan": "BANK CENTRAL ASIA",
        "tanggal_daftar": "2022-07-19",
        "nomor_tanda_daftar": "001669.46/DJAI.PSE/07/2022",
        "qr_code": "https://pse.kominfo.go.id/storage/images/qr_code/32a5498b3cc2c8501129820bdd0ffcec.png",
        "status_id": "TERDAFTAR",
        "sistem_elektronik_id": 6741
      }
    },
    {
      "type": "tdpseTerbit",
      "id": 6853,
      "attributes": {
        "nomor_pb_umku": "812000289391400640042",
        "nama": "3DS CREDIT CARD-DR SECONDARY",
        "website": "-",
        "sektor": "Sektor Keuangan",
        "nama_perusahaan": "BANK CENTRAL ASIA",
        "tanggal_daftar": "2022-07-19",
        "nomor_tanda_daftar": "001669.45/DJAI.PSE/07/2022",
        "qr_code": "https://pse.kominfo.go.id/storage/images/qr_code/1e783d1791e2cde9ac85f27a5e189036.png",
        "status_id": "TERDAFTAR",
        "sistem_elektronik_id": 6699
      }
    },
    {
      "type": "tdpseTerbit",
      "id": 6854,
      "attributes": {
        "nomor_pb_umku": "812000289391400640043",
        "nama": "3DS CREDIT CARD-DR",
        "website": "-",
        "sektor": "Sektor Keuangan",
        "nama_perusahaan": "BANK CENTRAL ASIA",
        "tanggal_daftar": "2022-07-19",
        "nomor_tanda_daftar": "001669.44/DJAI.PSE/07/2022",
        "qr_code": "https://pse.kominfo.go.id/storage/images/qr_code/818382f6f0bf7041453be64ee62306c6.png",
        "status_id": "TERDAFTAR",
        "sistem_elektronik_id": 6695
      }
    },
    {
      "type": "tdpseTerbit",
      "id": 6850,
      "attributes": {
        "nomor_pb_umku": "812000289391400640041",
        "nama": "3DS CREDIT CARD-SECONDARY",
        "website": "-",
        "sektor": "Sektor Keuangan",
        "nama_perusahaan": "BANK CENTRAL ASIA",
        "tanggal_daftar": "2022-07-19",
        "nomor_tanda_daftar": "001669.43/DJAI.PSE/07/2022",
        "qr_code": "https://pse.kominfo.go.id/storage/images/qr_code/7791e90a2f5ec7d427d11def56b1dbb1.png",
        "status_id": "TERDAFTAR",
        "sistem_elektronik_id": 6686
      }
    },
    {
      "type": "tdpseTerbit",
      "id": 6614,
      "attributes": {
        "nomor_pb_umku": "812000289391400640040",
        "nama": "APLIKASI BCA YOUNG COMMUNITY",
        "website": "-",
        "sektor": "Sektor Keuangan",
        "nama_perusahaan": "BANK CENTRAL ASIA",
        "tanggal_daftar": "2022-07-19",
        "nomor_tanda_daftar": "001669.42/DJAI.PSE/07/2022",
        "qr_code": "https://pse.kominfo.go.id/storage/images/qr_code/0c093919fb752b567345d93c53011f9c.png",
        "status_id": "TERDAFTAR",
        "sistem_elektronik_id": 6467
      }
    },
    {
      "type": "tdpseTerbit",
      "id": 6602,
      "attributes": {
        "nomor_pb_umku": "812000289391400640039",
        "nama": "WEBSITE REGISTRASI BYC",
        "website": "byc.bca.co.id",
        "sektor": "Sektor Keuangan",
        "nama_perusahaan": "BANK CENTRAL ASIA",
        "tanggal_daftar": "2022-07-19",
        "nomor_tanda_daftar": "001669.41/DJAI.PSE/07/2022",
        "qr_code": "https://pse.kominfo.go.id/storage/images/qr_code/e981fb4390bdcf558ff5f149be3b0169.png",
        "status_id": "TERDAFTAR",
        "sistem_elektronik_id": 6455
      }
    },
    {
      "type": "tdpseTerbit",
      "id": 6550,
      "attributes": {
        "nomor_pb_umku": "812000289391400640038",
        "nama": "WEBSITE KARIR BCA 2",
        "website": "karir.bca.co.id",
        "sektor": "Sektor Keuangan",
        "nama_perusahaan": "BANK CENTRAL ASIA",
        "tanggal_daftar": "2022-07-19",
        "nomor_tanda_daftar": "001669.40/DJAI.PSE/07/2022",
        "qr_code": "https://pse.kominfo.go.id/storage/images/qr_code/3bbd89cb88e1a2ac6472dc081a1dc4f1.png",
        "status_id": "TERDAFTAR",
        "sistem_elektronik_id": 6285
      }
    },
    {
      "type": "tdpseTerbit",
      "id": 6543,
      "attributes": {
        "nomor_pb_umku": "812000289391400640036",
        "nama": "WEBSITE KARIR BCA",
        "website": "karir.bca.co.id",
        "sektor": "Sektor Keuangan",
        "nama_perusahaan": "BANK CENTRAL ASIA",
        "tanggal_daftar": "2022-07-19",
        "nomor_tanda_daftar": "001669.39/DJAI.PSE/07/2022",
        "qr_code": "https://pse.kominfo.go.id/storage/images/qr_code/df30a2bb69874c313f043ee63fdb44c0.png",
        "status_id": "TERDAFTAR",
        "sistem_elektronik_id": 6277
      }
    },
    {
      "type": "tdpseTerbit",
      "id": 6549,
      "attributes": {
        "nomor_pb_umku": "812000289391400640037",
        "nama": "SYNRGY",
        "website": "synrgy.id",
        "sektor": "Sektor Keuangan",
        "nama_perusahaan": "BANK CENTRAL ASIA",
        "tanggal_daftar": "2022-07-19",
        "nomor_tanda_daftar": "001669.38/DJAI.PSE/07/2022",
        "qr_code": "https://pse.kominfo.go.id/storage/images/qr_code/50e37f8cd36316641b67e2e2bafda31d.png",
        "status_id": "TERDAFTAR",
        "sistem_elektronik_id": 6267
      }
    },
    {
      "type": "tdpseTerbit",
      "id": 6259,
      "attributes": {
        "nomor_pb_umku": "812000289391400640035",
        "nama": "E-BCA TRADE",
        "website": "tradebca.klikbca.com",
        "sektor": "Sektor Keuangan",
        "nama_perusahaan": "BANK CENTRAL ASIA",
        "tanggal_daftar": "2022-07-18",
        "nomor_tanda_daftar": "001669.37/DJAI.PSE/07/2022",
        "qr_code": "https://pse.kominfo.go.id/storage/images/qr_code/53b564f48912e7147b18dec9ae10af64.png",
        "status_id": "TERDAFTAR",
        "sistem_elektronik_id": 6119
      }
    }
  ]
}