{
  "meta": {
    "page": {
      "currentPage": 645,
      "from": 6441,
      "lastPage": 1014,
      "perPage": 10,
      "to": 6450,
      "total": 10138
    }
  },
  "data": [
    {
      "type": "tdpseTerbit",
      "id": 2893,
      "attributes": {
        "nomor_pb_umku": null,
        "nama": "TOB Mobile",
        "website": "tob-ins.com",
        "sektor": "Sektor Keuangan",
        "nama_perusahaan": "ASURANSI TOTAL BERSAMA",
        "tanggal_daftar": "2021-12-27",
        "nomor_tanda_daftar": "001850.01/DJAI.PSE/12/2021",
        "qr_code": "https://pse.kominfo.go.id/storage/images/qr_code/e274f299538c32b1d3f349468555f5c3.png",
        "status_id": "TERDAFTAR",
        "sistem_elektronik_id": 1983
      }
    },
    {
      "type": "tdpseTerbit",
      "id": 2888,
      "attributes": {
        "nomor_pb_umku": null,
        "nama": "SIWA WEALTH",
        "website": "-",
        "sektor": "Sektor Keuangan, Sektor Teknologi Informasi dan Komunikasi",
        "nama_perusahaan": "SIWA DIGITAL SOLUTIONS",
        "tanggal_daftar": "2021-12-27",
        "nomor_tanda_daftar": "001849.01/DJAI.PSE/12/2021",
        "qr_code": "https://pse.kominfo.go.id/storage/images/qr_code/d83dfb383241245d2ec9eda8c992acc1.png",
        "status_id": "TERDAFTAR",
        "sistem_elektronik_id": 1889
      }
    },
    {
      "type": "tdpseTerbit",
      "id": 2887,
      "attributes": {
        "nomor_pb_umku": null,
        "nama": "Instamoney",
        "website": "www.instamoney.co",
        "sektor": "Sektor Keuangan",
        "nama_perusahaan": "SYAFTRACO",
        "tanggal_daftar": "2021-12-27",
        "nomor_tanda_daftar": "001848.01/DJAI.PSE/12/2021",
        "qr_code": "https://pse.kominfo.go.id/storage/images/qr_code/a82adaf7b514a6147d3e6c3a0f56ea6f.png",
        "status_id": "TERDAFTAR",
        "sistem_elektronik_id": 2852
      }
    },
    {
      "type": "tdpseTerbit",
      "id": 2886,
      "attributes": {
        "nomor_pb_umku": null,
        "nama": "www.adapanen.com",
        "website": "adapanen.com",
        "sektor": "Sektor Perdagangan",
        "nama_perusahaan": "ADAPANEN TANI INDONESIA",
        "tanggal_daftar": "2021-12-27",
        "nomor_tanda_daftar": "001847.01/DJAI.PSE/12/2021",
        "qr_code": "https://pse.kominfo.go.id/storage/images/qr_code/b58ff4609806d85a4fec24cb3f7df3d8.png",
        "status_id": "TERDAFTAR",
        "sistem_elektronik_id": 1968
      }
    },
    {
      "type": "tdpseTerbit",
      "id": 2885,
      "attributes": {
        "nomor_pb_umku": null,
        "nama": "Portal Tokowebpedia",
        "website": "tokowebpedia.com",
        "sektor": "Sektor Teknologi Informasi dan Komunikasi",
        "nama_perusahaan": "JUMADIL AWAL",
        "tanggal_daftar": "2021-12-27",
        "nomor_tanda_daftar": "001846.01/DJAI.PSE/12/2021",
        "qr_code": "https://pse.kominfo.go.id/storage/images/qr_code/95307c18d5282297e9d9ba491fb413d9.png",
        "status_id": "TERDAFTAR",
        "sistem_elektronik_id": 1977
      }
    },
    {
      "type": "tdpseTerbit",
      "id": 2940,
      "attributes": {
        "nomor_pb_umku": null,
        "nama": "Teknologi Informasi Dan Jasa Komputer",
        "website": "-",
        "sektor": "Sektor Teknologi Informasi dan Komunikasi",
        "nama_perusahaan": "D' FAMILY TECHNOLOGY",
        "tanggal_daftar": "2021-12-31",
        "nomor_tanda_daftar": "001845.06/DJAI.PSE/12/2021",
        "qr_code": "https://pse.kominfo.go.id/storage/images/qr_code/eb01d91aedb550844bf20a036872df0f.png",
        "status_id": "TERDAFTAR",
        "sistem_elektronik_id": 1976
      }
    },
    {
      "type": "tdpseTerbit",
      "id": 2884,
      "attributes": {
        "nomor_pb_umku": null,
        "nama": "Aktivitas Konsultasi Komputer",
        "website": "-",
        "sektor": "Sektor Teknologi Informasi dan Komunikasi",
        "nama_perusahaan": "D' FAMILY TECHNOLOGY",
        "tanggal_daftar": "2021-12-26",
        "nomor_tanda_daftar": "001845.05/DJAI.PSE/12/2021",
        "qr_code": "https://pse.kominfo.go.id/storage/images/qr_code/b61fa26e2be48341b65f1a893f684baf.png",
        "status_id": "TERDAFTAR",
        "sistem_elektronik_id": 1975
      }
    },
    {
      "type": "tdpseTerbit",
      "id": 2883,
      "attributes": {
        "nomor_pb_umku": null,
        "nama": "Jasa Konten SMS Premium CV DFAMILY TECHNOLOGY",
        "website": "-",
        "sektor": "Sektor Teknologi Informasi dan Komunikasi",
        "nama_perusahaan": "D' FAMILY TECHNOLOGY",
        "tanggal_daftar": "2021-12-26",
        "nomor_tanda_daftar": "001845.04/DJAI.PSE/12/2021",
        "qr_code": "https://pse.kominfo.go.id/storage/images/qr_code/1db6d51094b4314078d83cb6ab312879.png",
        "status_id": "TERDAFTAR",
        "sistem_elektronik_id": 1974
      }
    },
    {
      "type": "tdpseTerbit",
      "id": 2882,
      "attributes": {
        "nomor_pb_umku": null,
        "nama": "Aktivitas Pengolahan Data CV DFAMILY TECHNOLOGY",
        "website": "-",
        "sektor": "Sektor Teknologi Informasi dan Komunikasi",
        "nama_perusahaan": "D' FAMILY TECHNOLOGY",
        "tanggal_daftar": "2021-12-26",
        "nomor_tanda_daftar": "001845.03/DJAI.PSE/12/2021",
        "qr_code": "https://pse.kominfo.go.id/storage/images/qr_code/26b9968876f5767159a6f8ff9347b0a5.png",
        "status_id": "TERDAFTAR",
        "sistem_elektronik_id": 1973
      }
    },
    {
      "type": "tdpseTerbit",
      "id": 2881,
      "attributes": {
        "nomor_pb_umku": null,
        "nama": "CV DFAMILY TECHNOLOGY",
        "website": "-",
        "sektor": "Sektor Teknologi Informasi dan Komunikasi",
        "nama_perusahaan": "D' FAMILY TECHNOLOGY",
        "tanggal_daftar": "2021-12-26",
        "nomor_tanda_daftar": "001845.02/DJAI.PSE/12/2021",
        "qr_code": "https://pse.kominfo.go.id/storage/images/qr_code/889590a2b43623c92dd8ba4ea79e8379.png",
        "status_id": "TERDAFTAR",
        "sistem_elektronik_id": 1972
      }
    }
  ]
}