{
  "meta": {
    "page": {
      "currentPage": 646,
      "from": 6451,
      "lastPage": 1063,
      "perPage": 10,
      "to": 6460,
      "total": 10630
    }
  },
  "data": [
    {
      "type": "tdpseTerbit",
      "id": 3452,
      "attributes": {
        "nomor_pb_umku": null,
        "nama": "ZAFIYYA UTAMA INDONESIA",
        "website": "www.tokodaring.lkpp.go.id",
        "sektor": "Sektor Kesehatan, Sektor Pangan, Sektor Perdagangan, Sektor Pertahanan dan Keamanan",
        "nama_perusahaan": "ZAFIYYA UTAMA INDONESIA",
        "tanggal_daftar": "2022-03-08",
        "nomor_tanda_daftar": "002249.01/DJAI.PSE/03/2022",
        "qr_code": "https://pse.kominfo.go.id/storage/images/qr_code/fa0bcecf7558c42e6a3a5ddd3b4ee160.png",
        "status_id": "TERDAFTAR",
        "sistem_elektronik_id": 2891
      }
    },
    {
      "type": "tdpseTerbit",
      "id": 3451,
      "attributes": {
        "nomor_pb_umku": null,
        "nama": "Saturdays Lifestyle",
        "website": "-",
        "sektor": "Sektor Perdagangan",
        "nama_perusahaan": "ARTHA PERSADA KREATIF",
        "tanggal_daftar": "2022-03-07",
        "nomor_tanda_daftar": "002248.01/DJAI.PSE/03/2022",
        "qr_code": "https://pse.kominfo.go.id/storage/images/qr_code/a22451d5c1c8a813899be892f152a7db.png",
        "status_id": "TERDAFTAR",
        "sistem_elektronik_id": 2890
      }
    },
    {
      "type": "tdpseTerbit",
      "id": 3449,
      "attributes": {
        "nomor_pb_umku": null,
        "nama": "Tanda Tangan Digital",
        "website": "www.xignature.co.id",
        "sektor": "Sektor Teknologi Informasi dan Komunikasi",
        "nama_perusahaan": "DIGITAL TANDATANGAN ASLI",
        "tanggal_daftar": "2022-03-07",
        "nomor_tanda_daftar": "002247.01/DJAI.PSE/03/2022",
        "qr_code": "https://pse.kominfo.go.id/storage/images/qr_code/e831f32562b45475fb740ee17f244ab6.png",
        "status_id": "TERDAFTAR",
        "sistem_elektronik_id": 2930
      }
    },
    {
      "type": "tdpseTerbit",
      "id": 3448,
      "attributes": {
        "nomor_pb_umku": null,
        "nama": "iglo.co.id",
        "website": "iglo.co.id",
        "sektor": "Sektor Teknologi Informasi dan Komunikasi",
        "nama_perusahaan": "IMAJI GLOBAL MEDIA",
        "tanggal_daftar": "2022-03-07",
        "nomor_tanda_daftar": "002246.02/DJAI.PSE/03/2022",
        "qr_code": "https://pse.kominfo.go.id/storage/images/qr_code/5f8e09d9c28d94756c3d7673edcbd038.png",
        "status_id": "TERDAFTAR",
        "sistem_elektronik_id": 2941
      }
    },
    {
      "type": "tdpseTerbit",
      "id": 3447,
      "attributes": {
        "nomor_pb_umku": null,
        "nama": "IGLO",
        "website": "iglo.co.id",
        "sektor": "Sektor Teknologi Informasi dan Komunikasi",
        "nama_perusahaan": "IMAJI GLOBAL MEDIA",
        "tanggal_daftar": "2022-03-07",
        "nomor_tanda_daftar": "002246.01/DJAI.PSE/03/2022",
        "qr_code": "https://pse.kominfo.go.id/storage/images/qr_code/d9ee3aa57ea84f319fae8e516453e0a0.png",
        "status_id": "TERDAFTAR",
        "sistem_elektronik_id": 2940
      }
    },
    {
      "type": "tdpseTerbit",
      "id": 3478,
      "attributes": {
        "nomor_pb_umku": null,
        "nama": "www.mauahotel.com",
        "website": "mauahotel.com",
        "sektor": "Sektor Perdagangan",
        "nama_perusahaan": "SWISS-BELHOTEL INTERNATIONAL INDONESIA",
        "tanggal_daftar": "2022-03-08",
        "nomor_tanda_daftar": "002245.09/DJAI.PSE/03/2022",
        "qr_code": "https://pse.kominfo.go.id/storage/images/qr_code/d4624a863983653c724ed14c1d4e08a2.png",
        "status_id": "TERDAFTAR",
        "sistem_elektronik_id": 2950
      }
    },
    {
      "type": "tdpseTerbit",
      "id": 3477,
      "attributes": {
        "nomor_pb_umku": null,
        "nama": "www.swiss-belinnmanyar.com",
        "website": "swiss-belinnmanyar.com",
        "sektor": "Sektor Perdagangan",
        "nama_perusahaan": "SWISS-BELHOTEL INTERNATIONAL INDONESIA",
        "tanggal_daftar": "2022-03-08",
        "nomor_tanda_daftar": "002245.08/DJAI.PSE/03/2022",
        "qr_code": "https://pse.kominfo.go.id/storage/images/qr_code/ba36393648974afb895aca7ada073d51.png",
        "status_id": "TERDAFTAR",
        "sistem_elektronik_id": 2949
      }
    },
    {
      "type": "tdpseTerbit",
      "id": 3476,
      "attributes": {
        "nomor_pb_umku": null,
        "nama": "www.hotelciputraworld.com",
        "website": "hotelciputraworld.com",
        "sektor": "Sektor Perdagangan",
        "nama_perusahaan": "SWISS-BELHOTEL INTERNATIONAL INDONESIA",
        "tanggal_daftar": "2022-03-08",
        "nomor_tanda_daftar": "002245.07/DJAI.PSE/03/2022",
        "qr_code": "https://pse.kominfo.go.id/storage/images/qr_code/192e2ee55091e5eae45797cf915176c8.png",
        "status_id": "TERDAFTAR",
        "sistem_elektronik_id": 2948
      }
    },
    {
      "type": "tdpseTerbit",
      "id": 3475,
      "attributes": {
        "nomor_pb_umku": null,
        "nama": "swiss-belboutiqueyogyakarta.com",
        "website": "swiss-belboutiqueyogyakarta.com",
        "sektor": "Sektor Perdagangan",
        "nama_perusahaan": "SWISS-BELHOTEL INTERNATIONAL INDONESIA",
        "tanggal_daftar": "2022-03-08",
        "nomor_tanda_daftar": "002245.06/DJAI.PSE/03/2022",
        "qr_code": "https://pse.kominfo.go.id/storage/images/qr_code/3124ab2d679d5340bca3908ca90c5734.png",
        "status_id": "TERDAFTAR",
        "sistem_elektronik_id": 2947
      }
    },
    {
      "type": "tdpseTerbit",
      "id": 3474,
      "attributes": {
        "nomor_pb_umku": null,
        "nama": "www.swiss-belresortwatujimbar.com",
        "website": "swiss-belresortwatujimbar.com",
        "sektor": "Sektor Perdagangan",
        "nama_perusahaan": "SWISS-BELHOTEL INTERNATIONAL INDONESIA",
        "tanggal_daftar": "2022-03-08",
        "nomor_tanda_daftar": "002245.05/DJAI.PSE/03/2022",
        "qr_code": "https://pse.kominfo.go.id/storage/images/qr_code/8f35f144585d62363e8f45c06dcb5301.png",
        "status_id": "TERDAFTAR",
        "sistem_elektronik_id": 2946
      }
    }
  ]
}