{
  "meta": {
    "page": {
      "currentPage": 649,
      "from": 6481,
      "lastPage": 1089,
      "perPage": 10,
      "to": 6490,
      "total": 10885
    }
  },
  "data": [
    {
      "type": "tdpseTerbit",
      "id": 11771,
      "attributes": {
        "nomor_pb_umku": "022000531277600010008",
        "nama": "GLOBAL MOBILE APPLICATION",
        "website": "-",
        "sektor": "Sektor Keuangan",
        "nama_perusahaan": "HOME CREDIT INDONESIA",
        "tanggal_daftar": "2022-10-12",
        "nomor_tanda_daftar": "002393.08/DJAI.PSE/10/2022",
        "qr_code": "https://pse.kominfo.go.id/storage/images/qr_code/1935537ba9e0b8252c9547dbbd0ea4f0.png",
        "status_id": "TERDAFTAR",
        "sistem_elektronik_id": 11571
      }
    },
    {
      "type": "tdpseTerbit",
      "id": 4361,
      "attributes": {
        "nomor_pb_umku": null,
        "nama": "E-Recruitment",
        "website": "recruitment.homecredit.co.id",
        "sektor": "Sektor Keuangan",
        "nama_perusahaan": "HOME CREDIT INDONESIA",
        "tanggal_daftar": "2022-05-09",
        "nomor_tanda_daftar": "002393.07/DJAI.PSE/05/2022",
        "qr_code": "https://pse.kominfo.go.id/storage/images/qr_code/39112363e36dba8a6905a7764cea09ce.png",
        "status_id": "TERDAFTAR",
        "sistem_elektronik_id": 4347
      }
    },
    {
      "type": "tdpseTerbit",
      "id": 4360,
      "attributes": {
        "nomor_pb_umku": null,
        "nama": "Candidate Mobile Application (CMA)",
        "website": "cma.homecredit.co.id",
        "sektor": "Sektor Keuangan",
        "nama_perusahaan": "HOME CREDIT INDONESIA",
        "tanggal_daftar": "2022-05-09",
        "nomor_tanda_daftar": "002393.06/DJAI.PSE/05/2022",
        "qr_code": "https://pse.kominfo.go.id/storage/images/qr_code/3c65abdc471a3bb2909027f8a010f220.png",
        "status_id": "TERDAFTAR",
        "sistem_elektronik_id": 4346
      }
    },
    {
      "type": "tdpseTerbit",
      "id": 3679,
      "attributes": {
        "nomor_pb_umku": null,
        "nama": "Home Credit Mitra",
        "website": "Mitra.homecredit.co.id",
        "sektor": "Sektor Keuangan",
        "nama_perusahaan": "HOME CREDIT INDONESIA",
        "tanggal_daftar": "2022-03-28",
        "nomor_tanda_daftar": "002393.05/DJAI.PSE/03/2022",
        "qr_code": "https://pse.kominfo.go.id/storage/images/qr_code/7c62fb9eb61479260e0635f454c28e7c.png",
        "status_id": "TERDAFTAR",
        "sistem_elektronik_id": 3564
      }
    },
    {
      "type": "tdpseTerbit",
      "id": 3678,
      "attributes": {
        "nomor_pb_umku": null,
        "nama": "Home Credit GO!",
        "website": "-",
        "sektor": "Sektor Keuangan",
        "nama_perusahaan": "HOME CREDIT INDONESIA",
        "tanggal_daftar": "2022-03-28",
        "nomor_tanda_daftar": "002393.04/DJAI.PSE/03/2022",
        "qr_code": "https://pse.kominfo.go.id/storage/images/qr_code/7f714adead3524ab323a23925c33aac1.png",
        "status_id": "TERDAFTAR",
        "sistem_elektronik_id": 3563
      }
    },
    {
      "type": "tdpseTerbit",
      "id": 3676,
      "attributes": {
        "nomor_pb_umku": null,
        "nama": "Home Credit OASys",
        "website": "oasys.homecredit.co.id",
        "sektor": "Sektor Keuangan",
        "nama_perusahaan": "HOME CREDIT INDONESIA",
        "tanggal_daftar": "2022-03-28",
        "nomor_tanda_daftar": "002393.03/DJAI.PSE/03/2022",
        "qr_code": "https://pse.kominfo.go.id/storage/images/qr_code/cbdfb96e9f0f4c64dd09639c9c5f89a8.png",
        "status_id": "TERDAFTAR",
        "sistem_elektronik_id": 3562
      }
    },
    {
      "type": "tdpseTerbit",
      "id": 3675,
      "attributes": {
        "nomor_pb_umku": null,
        "nama": "My Home Credit Indonesia",
        "website": "-",
        "sektor": "Sektor Keuangan",
        "nama_perusahaan": "HOME CREDIT INDONESIA",
        "tanggal_daftar": "2022-03-28",
        "nomor_tanda_daftar": "002393.02/DJAI.PSE/03/2022",
        "qr_code": "https://pse.kominfo.go.id/storage/images/qr_code/82ecc5a835d3aec01e367fb5011875d0.png",
        "status_id": "TERDAFTAR",
        "sistem_elektronik_id": 3561
      }
    },
    {
      "type": "tdpseTerbit",
      "id": 3674,
      "attributes": {
        "nomor_pb_umku": null,
        "nama": "Home Credit Indonesia Website",
        "website": "www.homecredit.co.id",
        "sektor": "Sektor Keuangan",
        "nama_perusahaan": "HOME CREDIT INDONESIA",
        "tanggal_daftar": "2022-03-28",
        "nomor_tanda_daftar": "002393.01/DJAI.PSE/03/2022",
        "qr_code": "https://pse.kominfo.go.id/storage/images/qr_code/d9a5f1dee562d11ecece66b75494d038.png",
        "status_id": "TERDAFTAR",
        "sistem_elektronik_id": 3560
      }
    },
    {
      "type": "tdpseTerbit",
      "id": 3673,
      "attributes": {
        "nomor_pb_umku": null,
        "nama": "numpang",
        "website": "www.numpang.my.id",
        "sektor": "Sektor Transportasi",
        "nama_perusahaan": "NUMPANG TRANS INOVASI NUSANTARA",
        "tanggal_daftar": "2022-03-28",
        "nomor_tanda_daftar": "002392.01/DJAI.PSE/03/2022",
        "qr_code": "https://pse.kominfo.go.id/storage/images/qr_code/dd7d9ea70f68206268d719e61e587c24.png",
        "status_id": "TERDAFTAR",
        "sistem_elektronik_id": 3612
      }
    },
    {
      "type": "tdpseTerbit",
      "id": 3983,
      "attributes": {
        "nomor_pb_umku": null,
        "nama": "Token VCGamers",
        "website": "https://token.vcgamers.com",
        "sektor": "Sektor Perdagangan",
        "nama_perusahaan": "SOTTA TEKNOLOGI INDONESIA",
        "tanggal_daftar": "2022-04-21",
        "nomor_tanda_daftar": "002391.02/DJAI.PSE/04/2022",
        "qr_code": "https://pse.kominfo.go.id/storage/images/qr_code/dc93238324ea8aaeab858fb36a9167d9.png",
        "status_id": "TERDAFTAR",
        "sistem_elektronik_id": 3991
      }
    }
  ]
}