{
  "meta": {
    "page": {
      "currentPage": 650,
      "from": 6491,
      "lastPage": 906,
      "perPage": 10,
      "to": 6500,
      "total": 9060
    }
  },
  "data": [
    {
      "type": "tdpseTerbit",
      "id": 1933,
      "attributes": {
        "nomor_pb_umku": null,
        "nama": "E-Banking IBK",
        "website": "www.ibk.co.id",
        "sektor": "Sektor Teknologi Informasi dan Komunikasi",
        "nama_perusahaan": "BANK IBK INDONESIA",
        "tanggal_daftar": "2021-10-04",
        "nomor_tanda_daftar": "001288.01/DJAI.PSE/10/2021",
        "qr_code": "https://pse.kominfo.go.id/storage/images/qr_code/b4ce6f9806fb9e21487688fbfaadd333.png",
        "status_id": "TERDAFTAR",
        "sistem_elektronik_id": 922
      }
    },
    {
      "type": "tdpseTerbit",
      "id": 1932,
      "attributes": {
        "nomor_pb_umku": null,
        "nama": "True Digital Indonesia (Portal)",
        "website": "https://trueid.id/",
        "sektor": "Sektor Teknologi Informasi dan Komunikasi",
        "nama_perusahaan": "TRUE DIGITAL INDONESIA",
        "tanggal_daftar": "2021-09-29",
        "nomor_tanda_daftar": "001287.02/DJAI.PSE/09/2021",
        "qr_code": "https://pse.kominfo.go.id/storage/images/qr_code/2f06846bda8298448ece19e3594ba829.png",
        "status_id": "TERDAFTAR",
        "sistem_elektronik_id": 2482
      }
    },
    {
      "type": "tdpseTerbit",
      "id": 1931,
      "attributes": {
        "nomor_pb_umku": null,
        "nama": "True Digital Indonesia (Pemrosesan Data)",
        "website": "-",
        "sektor": "Sektor Teknologi Informasi dan Komunikasi",
        "nama_perusahaan": "TRUE DIGITAL INDONESIA",
        "tanggal_daftar": "2021-09-29",
        "nomor_tanda_daftar": "001287.01/DJAI.PSE/09/2021",
        "qr_code": "https://pse.kominfo.go.id/storage/images/qr_code/f1427e06d459c626ce27ba3893a8a050.png",
        "status_id": "TERDAFTAR",
        "sistem_elektronik_id": 2481
      }
    },
    {
      "type": "tdpseTerbit",
      "id": 1930,
      "attributes": {
        "nomor_pb_umku": null,
        "nama": "berbuatbaik.id",
        "website": "https://berbuatbaik.id",
        "sektor": "Sektor Teknologi Informasi dan Komunikasi",
        "nama_perusahaan": "TRANS DIGITAL MEDIA",
        "tanggal_daftar": "2021-09-29",
        "nomor_tanda_daftar": "001286.01/DJAI.PSE/09/2021",
        "qr_code": "https://pse.kominfo.go.id/storage/images/qr_code/b345bda243bfcc5aa3c1486096d71238.png",
        "status_id": "TERDAFTAR",
        "sistem_elektronik_id": 1114
      }
    },
    {
      "type": "tdpseTerbit",
      "id": 1928,
      "attributes": {
        "nomor_pb_umku": null,
        "nama": "YESSINDO",
        "website": "www.yessindo.com",
        "sektor": "Sektor Perdagangan",
        "nama_perusahaan": "YAKIN SUKSES INDONESIA",
        "tanggal_daftar": "2021-09-29",
        "nomor_tanda_daftar": "001285.01/DJAI.PSE/09/2021",
        "qr_code": "https://pse.kominfo.go.id/storage/images/qr_code/3721ca5813a7eda8bf2d5cf94d30a19a.png",
        "status_id": "TERDAFTAR",
        "sistem_elektronik_id": 392
      }
    },
    {
      "type": "tdpseTerbit",
      "id": 1927,
      "attributes": {
        "nomor_pb_umku": null,
        "nama": "Digigarda",
        "website": "https://digigarda.id",
        "sektor": "Sektor Perdagangan",
        "nama_perusahaan": "DIGIGARDA SOLUSI ASIA",
        "tanggal_daftar": "2021-09-29",
        "nomor_tanda_daftar": "001284.01/DJAI.PSE/09/2021",
        "qr_code": "https://pse.kominfo.go.id/storage/images/qr_code/ca962a17ff7384f521db0f024b0f2ce4.png",
        "status_id": "TERDAFTAR",
        "sistem_elektronik_id": 1410
      }
    },
    {
      "type": "tdpseTerbit",
      "id": 1926,
      "attributes": {
        "nomor_pb_umku": null,
        "nama": "Pinjam Gampang",
        "website": "www.kreditplusteknologi.id",
        "sektor": "Sektor Teknologi Informasi dan Komunikasi",
        "nama_perusahaan": "KREDIT PLUS TEKNOLOGI",
        "tanggal_daftar": "2021-09-29",
        "nomor_tanda_daftar": "001283.01/DJAI.PSE/09/2021",
        "qr_code": "https://pse.kominfo.go.id/storage/images/qr_code/d93c1215cb71ce907af113ce07b97d7c.png",
        "status_id": "TERDAFTAR",
        "sistem_elektronik_id": 1413
      }
    },
    {
      "type": "tdpseTerbit",
      "id": 1925,
      "attributes": {
        "nomor_pb_umku": null,
        "nama": "Pharmanet",
        "website": "-",
        "sektor": "Sektor Perdagangan",
        "nama_perusahaan": "CENTURY FRANCHISINDO UTAMA",
        "tanggal_daftar": "2021-09-29",
        "nomor_tanda_daftar": "001282.01/DJAI.PSE/09/2021",
        "qr_code": "https://pse.kominfo.go.id/storage/images/qr_code/f9ae3fa3538c852cd880b50e6e70b5a2.png",
        "status_id": "TERDAFTAR",
        "sistem_elektronik_id": 150
      }
    },
    {
      "type": "tdpseTerbit",
      "id": 1924,
      "attributes": {
        "nomor_pb_umku": null,
        "nama": "Century",
        "website": "-",
        "sektor": "Sektor Perdagangan",
        "nama_perusahaan": "PERINTIS PELAYANAN PARIPURNA",
        "tanggal_daftar": "2021-09-29",
        "nomor_tanda_daftar": "001281.01/DJAI.PSE/09/2021",
        "qr_code": "https://pse.kominfo.go.id/storage/images/qr_code/4eb39e4efe666e1c16a95557ebedd742.png",
        "status_id": "TERDAFTAR",
        "sistem_elektronik_id": 2638
      }
    },
    {
      "type": "tdpseTerbit",
      "id": 1923,
      "attributes": {
        "nomor_pb_umku": null,
        "nama": "Active Barn Go",
        "website": "www.activebarn.com",
        "sektor": "Sektor Perdagangan, Sektor Teknologi Informasi dan Komunikasi",
        "nama_perusahaan": "AKTIF BUGAR INDONESIA",
        "tanggal_daftar": "2021-09-29",
        "nomor_tanda_daftar": "001280.01/DJAI.PSE/09/2021",
        "qr_code": "https://pse.kominfo.go.id/storage/images/qr_code/b5888141a2821d1c9c3b3ba9b0f322a9.png",
        "status_id": "TERDAFTAR",
        "sistem_elektronik_id": 1211
      }
    }
  ]
}