{
  "meta": {
    "page": {
      "currentPage": 651,
      "from": 6501,
      "lastPage": 1047,
      "perPage": 10,
      "to": 6510,
      "total": 10470
    }
  },
  "data": [
    {
      "type": "tdpseTerbit",
      "id": 3261,
      "attributes": {
        "nomor_pb_umku": null,
        "nama": "tempatjualan",
        "website": "tempatjualan.com",
        "sektor": "Sektor Perdagangan, Sektor Teknologi Informasi dan Komunikasi",
        "nama_perusahaan": "ZONA MAKMUR",
        "tanggal_daftar": "2022-02-16",
        "nomor_tanda_daftar": "002114.01/DJAI.PSE/02/2022",
        "qr_code": "https://pse.kominfo.go.id/storage/images/qr_code/7f64e9ebbd171f8f0d79b777d62d5888.png",
        "status_id": "TERDAFTAR",
        "sistem_elektronik_id": 2214
      }
    },
    {
      "type": "tdpseTerbit",
      "id": 3260,
      "attributes": {
        "nomor_pb_umku": null,
        "nama": "TAJAGA",
        "website": "tajaga.com",
        "sektor": "Sektor Keuangan, Sektor Teknologi Informasi dan Komunikasi",
        "nama_perusahaan": "TALI KAMULAYANE JAGAD",
        "tanggal_daftar": "2022-02-16",
        "nomor_tanda_daftar": "002113.01/DJAI.PSE/02/2022",
        "qr_code": "https://pse.kominfo.go.id/storage/images/qr_code/a23e4dfe868f6f98cb3340edf0ec2491.png",
        "status_id": "TERDAFTAR",
        "sistem_elektronik_id": 2212
      }
    },
    {
      "type": "tdpseTerbit",
      "id": 3259,
      "attributes": {
        "nomor_pb_umku": null,
        "nama": "agampayment",
        "website": "https://agampayment.id",
        "sektor": "Sektor Perdagangan, Sektor Teknologi Informasi dan Komunikasi",
        "nama_perusahaan": "AGAM MEDIA TEKNOLOGI",
        "tanggal_daftar": "2022-02-15",
        "nomor_tanda_daftar": "002112.01/DJAI.PSE/02/2022",
        "qr_code": "https://pse.kominfo.go.id/storage/images/qr_code/c43d7b60430b4c77f770ab1610cafc41.png",
        "status_id": "TERDAFTAR",
        "sistem_elektronik_id": 2205
      }
    },
    {
      "type": "tdpseTerbit",
      "id": 3258,
      "attributes": {
        "nomor_pb_umku": null,
        "nama": "Kunci Sistem Manajemen Mutu Pendidikan",
        "website": "demosmk.sekolah.kunci.co.id",
        "sektor": "Sektor Teknologi Informasi dan Komunikasi",
        "nama_perusahaan": "KUNCI TRANSFORMASI DIGITAL",
        "tanggal_daftar": "2022-02-15",
        "nomor_tanda_daftar": "002111.01/DJAI.PSE/02/2022",
        "qr_code": "https://pse.kominfo.go.id/storage/images/qr_code/98ce980ae9c074898821e4bea3a2f3aa.png",
        "status_id": "TERDAFTAR",
        "sistem_elektronik_id": 2202
      }
    },
    {
      "type": "tdpseTerbit",
      "id": 3257,
      "attributes": {
        "nomor_pb_umku": null,
        "nama": "SRUPA",
        "website": "www.srupa.io",
        "sektor": "Sektor Keuangan, Sektor Perdagangan, Sektor Teknologi Informasi dan Komunikasi",
        "nama_perusahaan": "ANARGYARUPA KARYA DIGITAL",
        "tanggal_daftar": "2022-02-15",
        "nomor_tanda_daftar": "002110.01/DJAI.PSE/02/2022",
        "qr_code": "https://pse.kominfo.go.id/storage/images/qr_code/b490feb19bc9c124b6fe772a0c26be51.png",
        "status_id": "TERDAFTAR",
        "sistem_elektronik_id": 2064
      }
    },
    {
      "type": "tdpseTerbit",
      "id": 3254,
      "attributes": {
        "nomor_pb_umku": null,
        "nama": "Website Perusahaan",
        "website": "perserobatam.com",
        "sektor": "Sektor Teknologi Informasi dan Komunikasi",
        "nama_perusahaan": "PERUSAHAAN PERSEROAN (PERSERO) PT. PENGUSAHAAN DAERAH INDUSTRI PULAU BATAM",
        "tanggal_daftar": "2022-02-15",
        "nomor_tanda_daftar": "002109.03/DJAI.PSE/02/2022",
        "qr_code": "https://pse.kominfo.go.id/storage/images/qr_code/668bb505802e0cb386d5034864b4ed90.png",
        "status_id": "TERDAFTAR",
        "sistem_elektronik_id": 2170
      }
    },
    {
      "type": "tdpseTerbit",
      "id": 3253,
      "attributes": {
        "nomor_pb_umku": null,
        "nama": "Logistik Batam",
        "website": "logistikbatam.com",
        "sektor": "Sektor Teknologi Informasi dan Komunikasi, Sektor Transportasi",
        "nama_perusahaan": "PERUSAHAAN PERSEROAN (PERSERO) PT. PENGUSAHAAN DAERAH INDUSTRI PULAU BATAM",
        "tanggal_daftar": "2022-02-15",
        "nomor_tanda_daftar": "002109.02/DJAI.PSE/02/2022",
        "qr_code": "https://pse.kominfo.go.id/storage/images/qr_code/77e4f7cb644f94db8304194d06449b65.png",
        "status_id": "TERDAFTAR",
        "sistem_elektronik_id": 2169
      }
    },
    {
      "type": "tdpseTerbit",
      "id": 3252,
      "attributes": {
        "nomor_pb_umku": null,
        "nama": "Aplikasi Pelanggan (Akapela)",
        "website": "akapela.perserobatam.id",
        "sektor": "Sektor Teknologi Informasi dan Komunikasi, Sektor Transportasi",
        "nama_perusahaan": "PERUSAHAAN PERSEROAN (PERSERO) PT. PENGUSAHAAN DAERAH INDUSTRI PULAU BATAM",
        "tanggal_daftar": "2022-02-15",
        "nomor_tanda_daftar": "002109.01/DJAI.PSE/02/2022",
        "qr_code": "https://pse.kominfo.go.id/storage/images/qr_code/4c404b5691f3fbdd8786dfa2f546aa22.png",
        "status_id": "TERDAFTAR",
        "sistem_elektronik_id": 2168
      }
    },
    {
      "type": "tdpseTerbit",
      "id": 11173,
      "attributes": {
        "nomor_pb_umku": "912010184147600060009",
        "nama": "FUNKIE",
        "website": "-",
        "sektor": "Sektor Teknologi Informasi dan Komunikasi",
        "nama_perusahaan": "BIGO INFORMATION INDONESIA",
        "tanggal_daftar": "2022-09-13",
        "nomor_tanda_daftar": "002108.06/DJAI.PSE/09/2022",
        "qr_code": "https://pse.kominfo.go.id/storage/images/qr_code/57ade8e9ff20801c33273901e62a86c6.png",
        "status_id": "TERDAFTAR",
        "sistem_elektronik_id": 10971
      }
    },
    {
      "type": "tdpseTerbit",
      "id": 9671,
      "attributes": {
        "nomor_pb_umku": "912010184147600060008",
        "nama": "IMO",
        "website": "imo.im",
        "sektor": "Sektor Teknologi Informasi dan Komunikasi",
        "nama_perusahaan": "BIGO INFORMATION INDONESIA",
        "tanggal_daftar": "2022-08-10",
        "nomor_tanda_daftar": "002108.05/DJAI.PSE/08/2022",
        "qr_code": "https://pse.kominfo.go.id/storage/images/qr_code/c7c797f63ffc91a50b53240cb523e22d.png",
        "status_id": "TERDAFTAR",
        "sistem_elektronik_id": 9543
      }
    }
  ]
}