{
  "meta": {
    "page": {
      "currentPage": 653,
      "from": 6521,
      "lastPage": 1040,
      "perPage": 10,
      "to": 6530,
      "total": 10398
    }
  },
  "data": [
    {
      "type": "tdpseTerbit",
      "id": 3184,
      "attributes": {
        "nomor_pb_umku": null,
        "nama": "MokaPos",
        "website": "mokapos.com",
        "sektor": "Sektor Perdagangan",
        "nama_perusahaan": "MOKA TEKNOLOGI INDONESIA",
        "tanggal_daftar": "2022-02-07",
        "nomor_tanda_daftar": "002052.03/DJAI.PSE/02/2022",
        "qr_code": "https://pse.kominfo.go.id/storage/images/qr_code/32c691af34a07cd75f010b6cfc56e554.png",
        "status_id": "TERDAFTAR",
        "sistem_elektronik_id": 1030
      }
    },
    {
      "type": "tdpseTerbit",
      "id": 3172,
      "attributes": {
        "nomor_pb_umku": null,
        "nama": "GoStore (Layanan marketplace)",
        "website": "mygostore.id",
        "sektor": "Sektor Perdagangan",
        "nama_perusahaan": "MOKA TEKNOLOGI INDONESIA",
        "tanggal_daftar": "2022-02-05",
        "nomor_tanda_daftar": "002052.01/DJAI.PSE/02/2022",
        "qr_code": "https://pse.kominfo.go.id/storage/images/qr_code/9595ca1a31c37be4b19c2e55576bedb0.png",
        "status_id": "TERDAFTAR",
        "sistem_elektronik_id": 1029
      }
    },
    {
      "type": "tdpseTerbit",
      "id": 3170,
      "attributes": {
        "nomor_pb_umku": null,
        "nama": "Digital Solution",
        "website": "mmi.co.id",
        "sektor": "Sektor Kesehatan, Sektor Pangan, Sektor Perdagangan, Sektor Teknologi Informasi dan Komunikasi, Sektor Transportasi",
        "nama_perusahaan": "MULTIFILING MITRA INDONESIA",
        "tanggal_daftar": "2022-02-04",
        "nomor_tanda_daftar": "002051.01/DJAI.PSE/02/2022",
        "qr_code": "https://pse.kominfo.go.id/storage/images/qr_code/4402f64f60622db24aa753916b194b77.png",
        "status_id": "TERDAFTAR",
        "sistem_elektronik_id": 2157
      }
    },
    {
      "type": "tdpseTerbit",
      "id": 3168,
      "attributes": {
        "nomor_pb_umku": null,
        "nama": "Cahayaduaoptik.com",
        "website": "http://www.cahayaduaoptik.com",
        "sektor": "Sektor Teknologi Informasi dan Komunikasi",
        "nama_perusahaan": "CAHAYA DUA OFTIC",
        "tanggal_daftar": "2022-02-04",
        "nomor_tanda_daftar": "002050.01/DJAI.PSE/02/2022",
        "qr_code": "https://pse.kominfo.go.id/storage/images/qr_code/8684c5ecc3847559ada8dcdfe28dfed5.png",
        "status_id": "TERDAFTAR",
        "sistem_elektronik_id": 2154
      }
    },
    {
      "type": "tdpseTerbit",
      "id": 3167,
      "attributes": {
        "nomor_pb_umku": null,
        "nama": "Vision Eagle",
        "website": "vision88.id",
        "sektor": "Sektor Perdagangan",
        "nama_perusahaan": "VISIONEA TEKNOLOGI PERKASA",
        "tanggal_daftar": "2022-02-04",
        "nomor_tanda_daftar": "002049.01/DJAI.PSE/02/2022",
        "qr_code": "https://pse.kominfo.go.id/storage/images/qr_code/955176f09ecb56b3bd87d91efbca95e4.png",
        "status_id": "TERDAFTAR",
        "sistem_elektronik_id": 1077
      }
    },
    {
      "type": "tdpseTerbit",
      "id": 3166,
      "attributes": {
        "nomor_pb_umku": null,
        "nama": "LINTAS DATA TEKNOLOGI",
        "website": "ldt.co.id",
        "sektor": "Sektor Teknologi Informasi dan Komunikasi",
        "nama_perusahaan": "LINTAS DATA TEKNOLOGI",
        "tanggal_daftar": "2022-02-03",
        "nomor_tanda_daftar": "002048.01/DJAI.PSE/02/2022",
        "qr_code": "https://pse.kominfo.go.id/storage/images/qr_code/1a89270eeb83250c715a7ed69ba49f76.png",
        "status_id": "TERDAFTAR",
        "sistem_elektronik_id": 2153
      }
    },
    {
      "type": "tdpseTerbit",
      "id": 3164,
      "attributes": {
        "nomor_pb_umku": null,
        "nama": "Ayuk Tegar Indonesia",
        "website": "-",
        "sektor": "Sektor Perdagangan, Sektor Teknologi Informasi dan Komunikasi, Sektor Transportasi",
        "nama_perusahaan": "AYUK TEGAR INDONESIA",
        "tanggal_daftar": "2022-02-03",
        "nomor_tanda_daftar": "002047.01/DJAI.PSE/02/2022",
        "qr_code": "https://pse.kominfo.go.id/storage/images/qr_code/6c9871e14637562d158c0f775bd7c7b4.png",
        "status_id": "TERDAFTAR",
        "sistem_elektronik_id": 2152
      }
    },
    {
      "type": "tdpseTerbit",
      "id": 5477,
      "attributes": {
        "nomor_pb_umku": "121600012038800020001",
        "nama": "WEBSITE REKSA DANA ONLINE DANADIPA",
        "website": "danadipa-finansial.co.id",
        "sektor": "Sektor Keuangan",
        "nama_perusahaan": "DANADIPA SEJAHTERA FINANSIAL",
        "tanggal_daftar": "2022-07-13",
        "nomor_tanda_daftar": "002046.02/DJAI.PSE/07/2022",
        "qr_code": "https://pse.kominfo.go.id/storage/images/qr_code/3a2971b38f162e48d745769907978796.png",
        "status_id": "TERDAFTAR",
        "sistem_elektronik_id": 5347
      }
    },
    {
      "type": "tdpseTerbit",
      "id": 6446,
      "attributes": {
        "nomor_pb_umku": null,
        "nama": "Website Danadipa",
        "website": "danadipa-finansial.co.id",
        "sektor": "Sektor Keuangan",
        "nama_perusahaan": "DANADIPA SEJAHTERA FINANSIAL",
        "tanggal_daftar": "2022-02-03",
        "nomor_tanda_daftar": "002046.01/DJAI.PSE/02/2022",
        "qr_code": "https://pse.kominfo.go.id/storage/images/qr_code/74843a955be46c3657bb03f0c4bd108d.png",
        "status_id": "TERDAFTAR",
        "sistem_elektronik_id": 3169
      }
    },
    {
      "type": "tdpseTerbit",
      "id": 3165,
      "attributes": {
        "nomor_pb_umku": null,
        "nama": "Rizkanna",
        "website": "rizkanna.com",
        "sektor": "Sektor Teknologi Informasi dan Komunikasi",
        "nama_perusahaan": "APLIKASI PALING BERGUNA",
        "tanggal_daftar": "2022-02-03",
        "nomor_tanda_daftar": "002045.02/DJAI.PSE/02/2022",
        "qr_code": "https://pse.kominfo.go.id/storage/images/qr_code/6e66481589a0c95eec7e88ca709e32a6.png",
        "status_id": "TERDAFTAR",
        "sistem_elektronik_id": 2151
      }
    }
  ]
}