{
  "meta": {
    "page": {
      "currentPage": 654,
      "from": 6531,
      "lastPage": 1012,
      "perPage": 10,
      "to": 6540,
      "total": 10114
    }
  },
  "data": [
    {
      "type": "tdpseTerbit",
      "id": 2792,
      "attributes": {
        "nomor_pb_umku": null,
        "nama": "Wafaa Studio",
        "website": "wafaastudio.com",
        "sektor": "Sektor Perdagangan",
        "nama_perusahaan": "ELSA AURORA PERMATA DEWI",
        "tanggal_daftar": "2021-12-18",
        "nomor_tanda_daftar": "001798.01/DJAI.PSE/12/2021",
        "qr_code": "https://pse.kominfo.go.id/storage/images/qr_code/db3e5288012c316b71595e69b07ff32e.png",
        "status_id": "TERDAFTAR",
        "sistem_elektronik_id": 1907
      }
    },
    {
      "type": "tdpseTerbit",
      "id": 2791,
      "attributes": {
        "nomor_pb_umku": null,
        "nama": "PT. PANTHERAS TEKNOLOGI INTERNASIONAL",
        "website": "www.pantheras.com",
        "sektor": "Sektor Perdagangan",
        "nama_perusahaan": "PANTHERAS TEKNOLOGI INTERNASIONAL",
        "tanggal_daftar": "2021-12-17",
        "nomor_tanda_daftar": "001797.01/DJAI.PSE/12/2021",
        "qr_code": "https://pse.kominfo.go.id/storage/images/qr_code/5b74fc55b6e42d443d8f495824f07a21.png",
        "status_id": "TERDAFTAR",
        "sistem_elektronik_id": 1905
      }
    },
    {
      "type": "tdpseTerbit",
      "id": 2789,
      "attributes": {
        "nomor_pb_umku": null,
        "nama": "Smartcoop",
        "website": "www.smartcoop.id",
        "sektor": "Sektor Keuangan, Sektor Teknologi Informasi dan Komunikasi",
        "nama_perusahaan": "FOUR VISION MEDIA",
        "tanggal_daftar": "2021-12-17",
        "nomor_tanda_daftar": "001796.01/DJAI.PSE/12/2021",
        "qr_code": "https://pse.kominfo.go.id/storage/images/qr_code/2ff878ad3d6caf0f08373aab9ea36202.png",
        "status_id": "TERDAFTAR",
        "sistem_elektronik_id": 1903
      }
    },
    {
      "type": "tdpseTerbit",
      "id": 2788,
      "attributes": {
        "nomor_pb_umku": null,
        "nama": "Initukang.com",
        "website": "initukang.com",
        "sektor": "Sektor Perdagangan, Sektor Teknologi Informasi dan Komunikasi",
        "nama_perusahaan": "GEOANFIELD SOLUSI INDONESIA",
        "tanggal_daftar": "2021-12-17",
        "nomor_tanda_daftar": "001795.01/DJAI.PSE/12/2021",
        "qr_code": "https://pse.kominfo.go.id/storage/images/qr_code/460d1454aaa6ca6f03b8da247f5c813b.png",
        "status_id": "TERDAFTAR",
        "sistem_elektronik_id": 1904
      }
    },
    {
      "type": "tdpseTerbit",
      "id": 2786,
      "attributes": {
        "nomor_pb_umku": null,
        "nama": "Nodeflux IdentifAI",
        "website": "https://www.identifai.id/",
        "sektor": "Sektor Teknologi Informasi dan Komunikasi",
        "nama_perusahaan": "NODEFLUX TEKNOLOGI INDONESIA",
        "tanggal_daftar": "2021-12-17",
        "nomor_tanda_daftar": "001794.01/DJAI.PSE/12/2021",
        "qr_code": "https://pse.kominfo.go.id/storage/images/qr_code/061328403dfb676a886d376ea22c9e0f.png",
        "status_id": "TERDAFTAR",
        "sistem_elektronik_id": 3404
      }
    },
    {
      "type": "tdpseTerbit",
      "id": 2785,
      "attributes": {
        "nomor_pb_umku": null,
        "nama": "Ensefalon (Sistim Informasi & Manajemen Klinik & Apotik)",
        "website": "darmatari.com",
        "sektor": "Sektor Teknologi Informasi dan Komunikasi",
        "nama_perusahaan": "DARMATARI INTEGRASI DATASOFT",
        "tanggal_daftar": "2021-12-17",
        "nomor_tanda_daftar": "001793.01/DJAI.PSE/12/2021",
        "qr_code": "https://pse.kominfo.go.id/storage/images/qr_code/8f18cd0d991112f36feaef8dbf14a08a.png",
        "status_id": "TERDAFTAR",
        "sistem_elektronik_id": 1899
      }
    },
    {
      "type": "tdpseTerbit",
      "id": 2784,
      "attributes": {
        "nomor_pb_umku": null,
        "nama": "Mentorkerja.com",
        "website": "mentorkerja.com",
        "sektor": "Sektor Teknologi Informasi dan Komunikasi",
        "nama_perusahaan": "LIFTA KAYA SENTOSA",
        "tanggal_daftar": "2021-12-17",
        "nomor_tanda_daftar": "001792.01/DJAI.PSE/12/2021",
        "qr_code": "https://pse.kominfo.go.id/storage/images/qr_code/f46d7a87a0b26b598f2c5850374850db.png",
        "status_id": "TERDAFTAR",
        "sistem_elektronik_id": 1900
      }
    },
    {
      "type": "tdpseTerbit",
      "id": 2783,
      "attributes": {
        "nomor_pb_umku": null,
        "nama": "MAG Product Digital Marketing",
        "website": "www.mag.co.id",
        "sektor": "Sektor Keuangan",
        "nama_perusahaan": "ASURANSI MULTI ARTHA GUNA",
        "tanggal_daftar": "2021-12-17",
        "nomor_tanda_daftar": "001791.01/DJAI.PSE/12/2021",
        "qr_code": "https://pse.kominfo.go.id/storage/images/qr_code/9f335c884c1e81928107e17d033bca4d.png",
        "status_id": "TERDAFTAR",
        "sistem_elektronik_id": 1612
      }
    },
    {
      "type": "tdpseTerbit",
      "id": 2781,
      "attributes": {
        "nomor_pb_umku": null,
        "nama": "emiten.com",
        "website": "emiten.com",
        "sektor": "Sektor Keuangan, Sektor Teknologi Informasi dan Komunikasi",
        "nama_perusahaan": "APLIKASI EMITEN INDONESIA",
        "tanggal_daftar": "2021-12-17",
        "nomor_tanda_daftar": "001790.01/DJAI.PSE/12/2021",
        "qr_code": "https://pse.kominfo.go.id/storage/images/qr_code/fd9480c10c84b12ca93d1e02c0dbb085.png",
        "status_id": "TERDAFTAR",
        "sistem_elektronik_id": 2701
      }
    },
    {
      "type": "tdpseTerbit",
      "id": 2780,
      "attributes": {
        "nomor_pb_umku": null,
        "nama": "SISTEM INFORMASI RUMAH SAKIT (SIMRS)",
        "website": "www.bvk.co.id",
        "sektor": "Sektor Teknologi Informasi dan Komunikasi",
        "nama_perusahaan": "BUANA VARIAKOMPUTAMA",
        "tanggal_daftar": "2021-12-17",
        "nomor_tanda_daftar": "001789.01/DJAI.PSE/12/2021",
        "qr_code": "https://pse.kominfo.go.id/storage/images/qr_code/287c09b8104fc64cca94e9e2363c1c3c.png",
        "status_id": "TERDAFTAR",
        "sistem_elektronik_id": 1898
      }
    }
  ]
}