{
  "meta": {
    "page": {
      "currentPage": 655,
      "from": 6541,
      "lastPage": 1005,
      "perPage": 10,
      "to": 6550,
      "total": 10048
    }
  },
  "data": [
    {
      "type": "tdpseTerbit",
      "id": 9276,
      "attributes": {
        "nomor_pb_umku": "120500011098400020002",
        "nama": "BURSAREIT.",
        "website": "bursareit.id",
        "sektor": "Sektor Keuangan",
        "nama_perusahaan": "DIRE TEKNOLOGI BERSAMA",
        "tanggal_daftar": "2022-07-28",
        "nomor_tanda_daftar": "001746.02/DJAI.PSE/07/2022",
        "qr_code": "https://pse.kominfo.go.id/storage/images/qr_code/a525bf16a02d4e275ad51c4b592ca1b5.png",
        "status_id": "TERDAFTAR",
        "sistem_elektronik_id": 9189
      }
    },
    {
      "type": "tdpseTerbit",
      "id": 2722,
      "attributes": {
        "nomor_pb_umku": null,
        "nama": "BursaREIT",
        "website": "www.bursareit.id",
        "sektor": "Sektor Keuangan",
        "nama_perusahaan": "DIRE TEKNOLOGI BERSAMA",
        "tanggal_daftar": "2021-12-10",
        "nomor_tanda_daftar": "001746.01/DJAI.PSE/12/2021",
        "qr_code": "https://pse.kominfo.go.id/storage/images/qr_code/1eb9195984ded85998ee79c477fd38ef.png",
        "status_id": "TERDAFTAR",
        "sistem_elektronik_id": 1822
      }
    },
    {
      "type": "tdpseTerbit",
      "id": 2719,
      "attributes": {
        "nomor_pb_umku": null,
        "nama": "IQOS",
        "website": "IQOS.COM",
        "sektor": "Sektor Perdagangan",
        "nama_perusahaan": "PERSADA MAKMUR INDONESIA",
        "tanggal_daftar": "2021-12-10",
        "nomor_tanda_daftar": "001745.01/DJAI.PSE/12/2021",
        "qr_code": "https://pse.kominfo.go.id/storage/images/qr_code/6e824c62c1ad89af7b15e259711f1100.png",
        "status_id": "TERDAFTAR",
        "sistem_elektronik_id": 668
      }
    },
    {
      "type": "tdpseTerbit",
      "id": 2718,
      "attributes": {
        "nomor_pb_umku": null,
        "nama": "PEMASANGAN JARINGAN INTERNET",
        "website": "-",
        "sektor": "Sektor Perdagangan, Sektor Teknologi Informasi dan Komunikasi",
        "nama_perusahaan": "REZA AMANDA GILBY",
        "tanggal_daftar": "2021-12-10",
        "nomor_tanda_daftar": "001744.01/DJAI.PSE/12/2021",
        "qr_code": "https://pse.kominfo.go.id/storage/images/qr_code/45e465aca790e26da003773308ca5f48.png",
        "status_id": "TERDAFTAR",
        "sistem_elektronik_id": 1850
      }
    },
    {
      "type": "tdpseTerbit",
      "id": 2721,
      "attributes": {
        "nomor_pb_umku": null,
        "nama": "IT Service Management",
        "website": "unitek.tech",
        "sektor": "Sektor Teknologi Informasi dan Komunikasi",
        "nama_perusahaan": "UNITEK MITRA SOLUSI",
        "tanggal_daftar": "2021-12-10",
        "nomor_tanda_daftar": "001743.02/DJAI.PSE/12/2021",
        "qr_code": "https://pse.kominfo.go.id/storage/images/qr_code/1b10540fc6f37a7df3c04ebb72dd621e.png",
        "status_id": "TERDAFTAR",
        "sistem_elektronik_id": 1852
      }
    },
    {
      "type": "tdpseTerbit",
      "id": 2717,
      "attributes": {
        "nomor_pb_umku": null,
        "nama": "Untek",
        "website": "umis.co.id",
        "sektor": "Sektor Teknologi Informasi dan Komunikasi",
        "nama_perusahaan": "UNITEK MITRA SOLUSI",
        "tanggal_daftar": "2021-12-10",
        "nomor_tanda_daftar": "001743.01/DJAI.PSE/12/2021",
        "qr_code": "https://pse.kominfo.go.id/storage/images/qr_code/71496cc31e4a9d43fadcee68bec0745f.png",
        "status_id": "TERDAFTAR",
        "sistem_elektronik_id": 1851
      }
    },
    {
      "type": "tdpseTerbit",
      "id": 2716,
      "attributes": {
        "nomor_pb_umku": null,
        "nama": "Sigma Aldrich ID",
        "website": "www.sigmaaldrich.id",
        "sektor": "Sektor Perdagangan",
        "nama_perusahaan": "MERCK CHEMICALS AND LIFE SCIENCES",
        "tanggal_daftar": "2021-12-10",
        "nomor_tanda_daftar": "001742.01/DJAI.PSE/12/2021",
        "qr_code": "https://pse.kominfo.go.id/storage/images/qr_code/6e65445d435de590db49e76f743777e4.png",
        "status_id": "TERDAFTAR",
        "sistem_elektronik_id": 1849
      }
    },
    {
      "type": "tdpseTerbit",
      "id": 2713,
      "attributes": {
        "nomor_pb_umku": null,
        "nama": "EDGE DC",
        "website": "edge.id",
        "sektor": "Sektor Teknologi Informasi dan Komunikasi",
        "nama_perusahaan": "EKAGRATA DATA GEMILANG",
        "tanggal_daftar": "2021-12-10",
        "nomor_tanda_daftar": "001741.01/DJAI.PSE/12/2021",
        "qr_code": "https://pse.kominfo.go.id/storage/images/qr_code/ce1294121dfc4dfcafe2ce7dc81cc4cc.png",
        "status_id": "TERDAFTAR",
        "sistem_elektronik_id": 1589
      }
    },
    {
      "type": "tdpseTerbit",
      "id": 2710,
      "attributes": {
        "nomor_pb_umku": null,
        "nama": "Zoomcar",
        "website": "www.zoomcar.com",
        "sektor": "Sektor Transportasi",
        "nama_perusahaan": "ZOOMCAR INDONESIA MOBILITY SERVICES",
        "tanggal_daftar": "2021-12-10",
        "nomor_tanda_daftar": "001740.01/DJAI.PSE/12/2021",
        "qr_code": "https://pse.kominfo.go.id/storage/images/qr_code/3ac110619e2fcb1bf66bd47ea61b4056.png",
        "status_id": "TERDAFTAR",
        "sistem_elektronik_id": 1549
      }
    },
    {
      "type": "tdpseTerbit",
      "id": 6237,
      "attributes": {
        "nomor_pb_umku": "023301001274700020011",
        "nama": "IFG PAY",
        "website": "pay.life.id",
        "sektor": "Sektor Keuangan",
        "nama_perusahaan": "ASURANSI JIWA IFG",
        "tanggal_daftar": "2022-07-18",
        "nomor_tanda_daftar": "001739.12/DJAI.PSE/07/2022",
        "qr_code": "https://pse.kominfo.go.id/storage/images/qr_code/0799e9360fb156b8c3fa7cc4efb1a998.png",
        "status_id": "TERDAFTAR",
        "sistem_elektronik_id": 6098
      }
    }
  ]
}