{
  "meta": {
    "page": {
      "currentPage": 656,
      "from": 6551,
      "lastPage": 1038,
      "perPage": 10,
      "to": 6560,
      "total": 10380
    }
  },
  "data": [
    {
      "type": "tdpseTerbit",
      "id": 3127,
      "attributes": {
        "nomor_pb_umku": null,
        "nama": "MIDTRANS",
        "website": "midtrans.com",
        "sektor": "Sektor Keuangan",
        "nama_perusahaan": "MIDTRANS",
        "tanggal_daftar": "2022-01-27",
        "nomor_tanda_daftar": "002016.01/DJAI.PSE/01/2022",
        "qr_code": "https://pse.kominfo.go.id/storage/images/qr_code/b1aab97c52c6217343065672388e8dde.png",
        "status_id": "TERDAFTAR",
        "sistem_elektronik_id": 2081
      }
    },
    {
      "type": "tdpseTerbit",
      "id": 3126,
      "attributes": {
        "nomor_pb_umku": null,
        "nama": "Mysenlan Indonesia",
        "website": "mysenlan.co.id",
        "sektor": "Sektor Perdagangan",
        "nama_perusahaan": "MYSENLAN INDONESIA",
        "tanggal_daftar": "2022-01-26",
        "nomor_tanda_daftar": "002015.01/DJAI.PSE/01/2022",
        "qr_code": "https://pse.kominfo.go.id/storage/images/qr_code/f0c5431bfc50716ddce05fc47bbed12b.png",
        "status_id": "TERDAFTAR",
        "sistem_elektronik_id": 2120
      }
    },
    {
      "type": "tdpseTerbit",
      "id": 3124,
      "attributes": {
        "nomor_pb_umku": null,
        "nama": "CV MANESOFT TEKNOLOGI INDONESIA",
        "website": "-",
        "sektor": "Sektor Perdagangan",
        "nama_perusahaan": "MANESOFT TEKNOLOGI INDONESIA",
        "tanggal_daftar": "2022-01-26",
        "nomor_tanda_daftar": "002014.01/DJAI.PSE/01/2022",
        "qr_code": "https://pse.kominfo.go.id/storage/images/qr_code/ee982fc62665d544be060de7a2be92fd.png",
        "status_id": "TERDAFTAR",
        "sistem_elektronik_id": 2119
      }
    },
    {
      "type": "tdpseTerbit",
      "id": 3123,
      "attributes": {
        "nomor_pb_umku": null,
        "nama": "Agregator Jasa Pengiriman SEPAKET",
        "website": "www.sepaket.co.id",
        "sektor": "Sektor Transportasi",
        "nama_perusahaan": "MADANI SOLUSI KREATIF",
        "tanggal_daftar": "2022-01-26",
        "nomor_tanda_daftar": "002013.01/DJAI.PSE/01/2022",
        "qr_code": "https://pse.kominfo.go.id/storage/images/qr_code/ae0ca2e06b63ab64ce0c132030c2f659.png",
        "status_id": "TERDAFTAR",
        "sistem_elektronik_id": 1942
      }
    },
    {
      "type": "tdpseTerbit",
      "id": 6984,
      "attributes": {
        "nomor_pb_umku": "812001303166800780007",
        "nama": "MUAMALAT DIGITAL INTEGRATED ACCESS (MADINA)",
        "website": "bankmuamalat.co.id",
        "sektor": "Sektor Keuangan",
        "nama_perusahaan": "BANK MUAMALAT INDONESIA",
        "tanggal_daftar": "2022-07-19",
        "nomor_tanda_daftar": "002012.07/DJAI.PSE/07/2022",
        "qr_code": "https://pse.kominfo.go.id/storage/images/qr_code/0e9e336d39ccf6db8651cc2589f38ae0.png",
        "status_id": "TERDAFTAR",
        "sistem_elektronik_id": 6819
      }
    },
    {
      "type": "tdpseTerbit",
      "id": 3312,
      "attributes": {
        "nomor_pb_umku": null,
        "nama": "Internet Banking Muamalat",
        "website": "www.bankmuamalat.co.id",
        "sektor": "Sektor Keuangan",
        "nama_perusahaan": "BANK MUAMALAT INDONESIA",
        "tanggal_daftar": "2022-02-18",
        "nomor_tanda_daftar": "002012.06/DJAI.PSE/02/2022",
        "qr_code": "https://pse.kominfo.go.id/storage/images/qr_code/9edac13234163b4f79fde7d4a34f117d.png",
        "status_id": "TERDAFTAR",
        "sistem_elektronik_id": 1783
      }
    },
    {
      "type": "tdpseTerbit",
      "id": 3311,
      "attributes": {
        "nomor_pb_umku": null,
        "nama": "Muamalat DIN",
        "website": "www.bankmuamalat.co.id",
        "sektor": "Sektor Keuangan",
        "nama_perusahaan": "BANK MUAMALAT INDONESIA",
        "tanggal_daftar": "2022-02-18",
        "nomor_tanda_daftar": "002012.05/DJAI.PSE/02/2022",
        "qr_code": "https://pse.kominfo.go.id/storage/images/qr_code/3bf623f71d30eeaa12c5b145fe90ec72.png",
        "status_id": "TERDAFTAR",
        "sistem_elektronik_id": 1782
      }
    },
    {
      "type": "tdpseTerbit",
      "id": 3310,
      "attributes": {
        "nomor_pb_umku": null,
        "nama": "QRIS Acquiring",
        "website": "www.bankmuamalat.co.id",
        "sektor": "Sektor Keuangan",
        "nama_perusahaan": "BANK MUAMALAT INDONESIA",
        "tanggal_daftar": "2022-02-18",
        "nomor_tanda_daftar": "002012.04/DJAI.PSE/02/2022",
        "qr_code": "https://pse.kominfo.go.id/storage/images/qr_code/3ce861f8951c3cc0ddc27fee415da30f.png",
        "status_id": "TERDAFTAR",
        "sistem_elektronik_id": 1781
      }
    },
    {
      "type": "tdpseTerbit",
      "id": 3307,
      "attributes": {
        "nomor_pb_umku": null,
        "nama": "Layanan Host to Host Web Service",
        "website": "www.bankmuamalat.co.id",
        "sektor": "Sektor Keuangan",
        "nama_perusahaan": "BANK MUAMALAT INDONESIA",
        "tanggal_daftar": "2022-02-18",
        "nomor_tanda_daftar": "002012.03/DJAI.PSE/02/2022",
        "qr_code": "https://pse.kominfo.go.id/storage/images/qr_code/ca7f62fdde333c8327e2bbd002e75696.png",
        "status_id": "TERDAFTAR",
        "sistem_elektronik_id": 1780
      }
    },
    {
      "type": "tdpseTerbit",
      "id": 3305,
      "attributes": {
        "nomor_pb_umku": null,
        "nama": "Automatic Teller Machine (ATM)",
        "website": "www.bankmuamalat.co.id",
        "sektor": "Sektor Keuangan",
        "nama_perusahaan": "BANK MUAMALAT INDONESIA",
        "tanggal_daftar": "2022-02-18",
        "nomor_tanda_daftar": "002012.02/DJAI.PSE/02/2022",
        "qr_code": "https://pse.kominfo.go.id/storage/images/qr_code/e353c3bafd09d671c209c2b2a05b064d.png",
        "status_id": "TERDAFTAR",
        "sistem_elektronik_id": 1779
      }
    }
  ]
}