{
  "meta": {
    "page": {
      "currentPage": 657,
      "from": 6561,
      "lastPage": 1044,
      "perPage": 10,
      "to": 6570,
      "total": 10437
    }
  },
  "data": [
    {
      "type": "tdpseTerbit",
      "id": 3167,
      "attributes": {
        "nomor_pb_umku": null,
        "nama": "Vision Eagle",
        "website": "vision88.id",
        "sektor": "Sektor Perdagangan",
        "nama_perusahaan": "VISIONEA TEKNOLOGI PERKASA",
        "tanggal_daftar": "2022-02-04",
        "nomor_tanda_daftar": "002049.01/DJAI.PSE/02/2022",
        "qr_code": "https://pse.kominfo.go.id/storage/images/qr_code/955176f09ecb56b3bd87d91efbca95e4.png",
        "status_id": "TERDAFTAR",
        "sistem_elektronik_id": 1077
      }
    },
    {
      "type": "tdpseTerbit",
      "id": 3166,
      "attributes": {
        "nomor_pb_umku": null,
        "nama": "LINTAS DATA TEKNOLOGI",
        "website": "ldt.co.id",
        "sektor": "Sektor Teknologi Informasi dan Komunikasi",
        "nama_perusahaan": "LINTAS DATA TEKNOLOGI",
        "tanggal_daftar": "2022-02-03",
        "nomor_tanda_daftar": "002048.01/DJAI.PSE/02/2022",
        "qr_code": "https://pse.kominfo.go.id/storage/images/qr_code/1a89270eeb83250c715a7ed69ba49f76.png",
        "status_id": "TERDAFTAR",
        "sistem_elektronik_id": 2153
      }
    },
    {
      "type": "tdpseTerbit",
      "id": 3164,
      "attributes": {
        "nomor_pb_umku": null,
        "nama": "Ayuk Tegar Indonesia",
        "website": "-",
        "sektor": "Sektor Perdagangan, Sektor Teknologi Informasi dan Komunikasi, Sektor Transportasi",
        "nama_perusahaan": "AYUK TEGAR INDONESIA",
        "tanggal_daftar": "2022-02-03",
        "nomor_tanda_daftar": "002047.01/DJAI.PSE/02/2022",
        "qr_code": "https://pse.kominfo.go.id/storage/images/qr_code/6c9871e14637562d158c0f775bd7c7b4.png",
        "status_id": "TERDAFTAR",
        "sistem_elektronik_id": 2152
      }
    },
    {
      "type": "tdpseTerbit",
      "id": 5477,
      "attributes": {
        "nomor_pb_umku": "121600012038800020001",
        "nama": "WEBSITE REKSA DANA ONLINE DANADIPA",
        "website": "danadipa-finansial.co.id",
        "sektor": "Sektor Keuangan",
        "nama_perusahaan": "DANADIPA SEJAHTERA FINANSIAL",
        "tanggal_daftar": "2022-07-13",
        "nomor_tanda_daftar": "002046.02/DJAI.PSE/07/2022",
        "qr_code": "https://pse.kominfo.go.id/storage/images/qr_code/3a2971b38f162e48d745769907978796.png",
        "status_id": "TERDAFTAR",
        "sistem_elektronik_id": 5347
      }
    },
    {
      "type": "tdpseTerbit",
      "id": 6446,
      "attributes": {
        "nomor_pb_umku": null,
        "nama": "Website Danadipa",
        "website": "danadipa-finansial.co.id",
        "sektor": "Sektor Keuangan",
        "nama_perusahaan": "DANADIPA SEJAHTERA FINANSIAL",
        "tanggal_daftar": "2022-02-03",
        "nomor_tanda_daftar": "002046.01/DJAI.PSE/02/2022",
        "qr_code": "https://pse.kominfo.go.id/storage/images/qr_code/74843a955be46c3657bb03f0c4bd108d.png",
        "status_id": "TERDAFTAR",
        "sistem_elektronik_id": 3169
      }
    },
    {
      "type": "tdpseTerbit",
      "id": 3165,
      "attributes": {
        "nomor_pb_umku": null,
        "nama": "Rizkanna",
        "website": "rizkanna.com",
        "sektor": "Sektor Teknologi Informasi dan Komunikasi",
        "nama_perusahaan": "APLIKASI PALING BERGUNA",
        "tanggal_daftar": "2022-02-03",
        "nomor_tanda_daftar": "002045.02/DJAI.PSE/02/2022",
        "qr_code": "https://pse.kominfo.go.id/storage/images/qr_code/6e66481589a0c95eec7e88ca709e32a6.png",
        "status_id": "TERDAFTAR",
        "sistem_elektronik_id": 2151
      }
    },
    {
      "type": "tdpseTerbit",
      "id": 3162,
      "attributes": {
        "nomor_pb_umku": null,
        "nama": "Moneesa",
        "website": "moneesa.com",
        "sektor": "Sektor Teknologi Informasi dan Komunikasi",
        "nama_perusahaan": "APLIKASI PALING BERGUNA",
        "tanggal_daftar": "2022-02-03",
        "nomor_tanda_daftar": "002045.01/DJAI.PSE/02/2022",
        "qr_code": "https://pse.kominfo.go.id/storage/images/qr_code/e17c463adc6c1536d3068aaf0ffc786f.png",
        "status_id": "TERDAFTAR",
        "sistem_elektronik_id": 2150
      }
    },
    {
      "type": "tdpseTerbit",
      "id": 3161,
      "attributes": {
        "nomor_pb_umku": null,
        "nama": "DBO",
        "website": "dbo.id",
        "sektor": "Sektor Teknologi Informasi dan Komunikasi",
        "nama_perusahaan": "DEPOGUNA BANGUNAN ONLINE",
        "tanggal_daftar": "2022-02-03",
        "nomor_tanda_daftar": "002044.01/DJAI.PSE/02/2022",
        "qr_code": "https://pse.kominfo.go.id/storage/images/qr_code/1ca12330146c6464438d5c17cf3fd92c.png",
        "status_id": "TERDAFTAR",
        "sistem_elektronik_id": 1259
      }
    },
    {
      "type": "tdpseTerbit",
      "id": 3160,
      "attributes": {
        "nomor_pb_umku": null,
        "nama": "AutoGP (Expert Analyze Software for Trading)",
        "website": "goldenpro.id",
        "sektor": "Sektor Perdagangan, Sektor Teknologi Informasi dan Komunikasi",
        "nama_perusahaan": "GEMILANG PRO INDONESIA",
        "tanggal_daftar": "2022-02-03",
        "nomor_tanda_daftar": "002043.01/DJAI.PSE/02/2022",
        "qr_code": "https://pse.kominfo.go.id/storage/images/qr_code/e6ad7d025147c0c63884bbd1fe0cd5d5.png",
        "status_id": "TERDAFTAR",
        "sistem_elektronik_id": 2149
      }
    },
    {
      "type": "tdpseTerbit",
      "id": 3159,
      "attributes": {
        "nomor_pb_umku": null,
        "nama": "www.buccheri.com",
        "website": "buccheri.com",
        "sektor": "Sektor Perdagangan",
        "nama_perusahaan": "BUCCHERI INDONESIA",
        "tanggal_daftar": "2022-02-03",
        "nomor_tanda_daftar": "002042.01/DJAI.PSE/02/2022",
        "qr_code": "https://pse.kominfo.go.id/storage/images/qr_code/4409d0d9c7be1f4e9d0b6d27b80c3746.png",
        "status_id": "TERDAFTAR",
        "sistem_elektronik_id": 2147
      }
    }
  ]
}