{
  "meta": {
    "page": {
      "currentPage": 658,
      "from": 6571,
      "lastPage": 1020,
      "perPage": 10,
      "to": 6580,
      "total": 10192
    }
  },
  "data": [
    {
      "type": "tdpseTerbit",
      "id": 2826,
      "attributes": {
        "nomor_pb_umku": null,
        "nama": "Mobile Banking BTN",
        "website": "-",
        "sektor": "Sektor Keuangan",
        "nama_perusahaan": "PERUSAHAAN PERSEROAN (PERSERO) PT. BANK TABUNGAN NEGARA",
        "tanggal_daftar": "2021-12-21",
        "nomor_tanda_daftar": "001813.06/DJAI.PSE/12/2021",
        "qr_code": "https://pse.kominfo.go.id/storage/images/qr_code/e4156a219fc53c8fed7162c25c690a45.png",
        "status_id": "TERDAFTAR",
        "sistem_elektronik_id": 1925
      }
    },
    {
      "type": "tdpseTerbit",
      "id": 2825,
      "attributes": {
        "nomor_pb_umku": null,
        "nama": "BTN Properti",
        "website": "www.btnproperti.co.id",
        "sektor": "Sektor Keuangan",
        "nama_perusahaan": "PERUSAHAAN PERSEROAN (PERSERO) PT. BANK TABUNGAN NEGARA",
        "tanggal_daftar": "2021-12-21",
        "nomor_tanda_daftar": "001813.05/DJAI.PSE/12/2021",
        "qr_code": "https://pse.kominfo.go.id/storage/images/qr_code/1bd07808042aa0b02ac7d69344e12cb9.png",
        "status_id": "TERDAFTAR",
        "sistem_elektronik_id": 1924
      }
    },
    {
      "type": "tdpseTerbit",
      "id": 2824,
      "attributes": {
        "nomor_pb_umku": null,
        "nama": "Internet Banking Bisnis BTN",
        "website": "cashmanagement.btn.co.id",
        "sektor": "Sektor Keuangan",
        "nama_perusahaan": "PERUSAHAAN PERSEROAN (PERSERO) PT. BANK TABUNGAN NEGARA",
        "tanggal_daftar": "2021-12-21",
        "nomor_tanda_daftar": "001813.04/DJAI.PSE/12/2021",
        "qr_code": "https://pse.kominfo.go.id/storage/images/qr_code/5e6c8010e524e93d2f18abd5eb87477f.png",
        "status_id": "TERDAFTAR",
        "sistem_elektronik_id": 1923
      }
    },
    {
      "type": "tdpseTerbit",
      "id": 2823,
      "attributes": {
        "nomor_pb_umku": null,
        "nama": "Internet Banking BTN",
        "website": "internetbanking.btn.co.id",
        "sektor": "Sektor Keuangan",
        "nama_perusahaan": "PERUSAHAAN PERSEROAN (PERSERO) PT. BANK TABUNGAN NEGARA",
        "tanggal_daftar": "2021-12-21",
        "nomor_tanda_daftar": "001813.03/DJAI.PSE/12/2021",
        "qr_code": "https://pse.kominfo.go.id/storage/images/qr_code/c30ff08413e61a61019366107f34ad9e.png",
        "status_id": "TERDAFTAR",
        "sistem_elektronik_id": 1922
      }
    },
    {
      "type": "tdpseTerbit",
      "id": 2819,
      "attributes": {
        "nomor_pb_umku": null,
        "nama": "Website e-Mitra BTN",
        "website": "https://emitra.btn.co.id",
        "sektor": "Sektor Keuangan",
        "nama_perusahaan": "PERUSAHAAN PERSEROAN (PERSERO) PT. BANK TABUNGAN NEGARA",
        "tanggal_daftar": "2021-12-21",
        "nomor_tanda_daftar": "001813.02/DJAI.PSE/12/2021",
        "qr_code": "https://pse.kominfo.go.id/storage/images/qr_code/b3a276c36f35602271fc7b1fde237980.png",
        "status_id": "TERDAFTAR",
        "sistem_elektronik_id": 1921
      }
    },
    {
      "type": "tdpseTerbit",
      "id": 2811,
      "attributes": {
        "nomor_pb_umku": null,
        "nama": "BTN Corporate Website",
        "website": "www.btn.co.id",
        "sektor": "Sektor Keuangan",
        "nama_perusahaan": "PERUSAHAAN PERSEROAN (PERSERO) PT. BANK TABUNGAN NEGARA",
        "tanggal_daftar": "2021-12-21",
        "nomor_tanda_daftar": "001813.01/DJAI.PSE/12/2021",
        "qr_code": "https://pse.kominfo.go.id/storage/images/qr_code/ec3e899041e85be132676785da73cd07.png",
        "status_id": "TERDAFTAR",
        "sistem_elektronik_id": 1920
      }
    },
    {
      "type": "tdpseTerbit",
      "id": 2810,
      "attributes": {
        "nomor_pb_umku": null,
        "nama": "Olsera",
        "website": "www.olsera.com",
        "sektor": "Sektor Teknologi Informasi dan Komunikasi",
        "nama_perusahaan": "OLSERA INDONESIA PRATAMA",
        "tanggal_daftar": "2021-12-21",
        "nomor_tanda_daftar": "001812.01/DJAI.PSE/12/2021",
        "qr_code": "https://pse.kominfo.go.id/storage/images/qr_code/0efe325730141552a90835463836a102.png",
        "status_id": "TERDAFTAR",
        "sistem_elektronik_id": 3487
      }
    },
    {
      "type": "tdpseTerbit",
      "id": 2809,
      "attributes": {
        "nomor_pb_umku": null,
        "nama": "1 (one) Medix",
        "website": "-",
        "sektor": "Sektor Teknologi Informasi dan Komunikasi",
        "nama_perusahaan": "ANARYA TEKNOLOGI INDONESIA",
        "tanggal_daftar": "2021-12-20",
        "nomor_tanda_daftar": "001811.01/DJAI.PSE/12/2021",
        "qr_code": "https://pse.kominfo.go.id/storage/images/qr_code/db62c0a3e2353f56a49014afb550038c.png",
        "status_id": "TERDAFTAR",
        "sistem_elektronik_id": 1270
      }
    },
    {
      "type": "tdpseTerbit",
      "id": 2808,
      "attributes": {
        "nomor_pb_umku": null,
        "nama": "Situs PT Wanteg Asset Management",
        "website": "wantegasset.com",
        "sektor": "Sektor Keuangan",
        "nama_perusahaan": "WANTEG ASSET MANAGEMENT",
        "tanggal_daftar": "2021-12-20",
        "nomor_tanda_daftar": "001810.01/DJAI.PSE/12/2021",
        "qr_code": "https://pse.kominfo.go.id/storage/images/qr_code/4f65c82136a1567b6664d715c8678357.png",
        "status_id": "TERDAFTAR",
        "sistem_elektronik_id": 2850
      }
    },
    {
      "type": "tdpseTerbit",
      "id": 2807,
      "attributes": {
        "nomor_pb_umku": null,
        "nama": "PT BioKissed Naturals Indonesia",
        "website": "biokissed.com",
        "sektor": "Sektor Kesehatan, Sektor Perdagangan, Sektor Teknologi Informasi dan Komunikasi",
        "nama_perusahaan": "BIOKISSED NATURALS INDONESIA",
        "tanggal_daftar": "2021-12-20",
        "nomor_tanda_daftar": "001809.01/DJAI.PSE/12/2021",
        "qr_code": "https://pse.kominfo.go.id/storage/images/qr_code/b29f16c45c1eeb74c945020146025c9c.png",
        "status_id": "TERDAFTAR",
        "sistem_elektronik_id": 1272
      }
    }
  ]
}