{
  "meta": {
    "page": {
      "currentPage": 659,
      "from": 6581,
      "lastPage": 944,
      "perPage": 10,
      "to": 6590,
      "total": 9434
    }
  },
  "data": [
    {
      "type": "tdpseTerbit",
      "id": 5560,
      "attributes": {
        "nomor_pb_umku": "",
        "nama": "TEPAT INTERNET BANKING",
        "website": "btpnsyariah.com",
        "sektor": "Sektor Keuangan",
        "nama_perusahaan": "BANK BTPN SYARIAH",
        "tanggal_daftar": "2022-07-14",
        "nomor_tanda_daftar": "001421.04/DJAI.PSE/07/2022",
        "qr_code": "https://pse.kominfo.go.id/storage/images/qr_code/d90c82399f5fa3e364323ba5b847a431.png",
        "status_id": "TERDAFTAR",
        "sistem_elektronik_id": 4998
      }
    },
    {
      "type": "tdpseTerbit",
      "id": 4350,
      "attributes": {
        "nomor_pb_umku": null,
        "nama": "TEPAT DAYA",
        "website": "tepatdaya.btpnsyariah.com",
        "sektor": "Sektor Keuangan",
        "nama_perusahaan": "BANK BTPN SYARIAH",
        "tanggal_daftar": "2022-05-19",
        "nomor_tanda_daftar": "001421.03/DJAI.PSE/05/2022",
        "qr_code": "https://pse.kominfo.go.id/storage/images/qr_code/e02ff1dcbb6c258eeab6a8d5022aa570.png",
        "status_id": "TERDAFTAR",
        "sistem_elektronik_id": 4336
      }
    },
    {
      "type": "tdpseTerbit",
      "id": 2125,
      "attributes": {
        "nomor_pb_umku": null,
        "nama": "company portal BTPN Syariah",
        "website": "https://www.btpnsyariah.com/",
        "sektor": "Sektor Keuangan",
        "nama_perusahaan": "BANK BTPN SYARIAH",
        "tanggal_daftar": "2021-10-26",
        "nomor_tanda_daftar": "001421.02/DJAI.PSE/10/2021",
        "qr_code": "https://pse.kominfo.go.id/storage/images/qr_code/82ac47407cc3fe5f12ff9baeaa02c0c7.png",
        "status_id": "TERDAFTAR",
        "sistem_elektronik_id": 1480
      }
    },
    {
      "type": "tdpseTerbit",
      "id": 2124,
      "attributes": {
        "nomor_pb_umku": null,
        "nama": "Mobile Banking BTPN Syariah",
        "website": "btpnsyariahmobile(appstrore/playstoreinstaller); https://webadmin-mbank.corp.btpns.com/ebanking-web/login; https://dashboard.btpnsyariah.com",
        "sektor": "Sektor Keuangan",
        "nama_perusahaan": "BANK BTPN SYARIAH",
        "tanggal_daftar": "2021-10-26",
        "nomor_tanda_daftar": "001421.01/DJAI.PSE/10/2021",
        "qr_code": "https://pse.kominfo.go.id/storage/images/qr_code/60270421eb0743ce353b32ba0517b58e.png",
        "status_id": "TERDAFTAR",
        "sistem_elektronik_id": 1479
      }
    },
    {
      "type": "tdpseTerbit",
      "id": 2123,
      "attributes": {
        "nomor_pb_umku": null,
        "nama": "Handyman Smart Home",
        "website": "www.handyman-id.com",
        "sektor": "Sektor Perdagangan",
        "nama_perusahaan": "PT Handyman Smarttech Indonesia",
        "tanggal_daftar": "2021-10-26",
        "nomor_tanda_daftar": "001420.01/DJAI.PSE/10/2021",
        "qr_code": "https://pse.kominfo.go.id/storage/images/qr_code/d1ec7a9f960a06084ea9123908d3effe.png",
        "status_id": "TERDAFTAR",
        "sistem_elektronik_id": 3036
      }
    },
    {
      "type": "tdpseTerbit",
      "id": 3761,
      "attributes": {
        "nomor_pb_umku": null,
        "nama": "Pluang",
        "website": "pluang.com",
        "sektor": "Sektor Perdagangan",
        "nama_perusahaan": "PLUANG EMAS SEJAHTERA",
        "tanggal_daftar": "2022-04-04",
        "nomor_tanda_daftar": "001419.02/DJAI.PSE/04/2022",
        "qr_code": "https://pse.kominfo.go.id/storage/images/qr_code/e828042cbe2f0f0c0e65c0267f935680.png",
        "status_id": "TERDAFTAR",
        "sistem_elektronik_id": 3803
      }
    },
    {
      "type": "tdpseTerbit",
      "id": 2122,
      "attributes": {
        "nomor_pb_umku": null,
        "nama": "Pluang Emas",
        "website": "pluang-emas.com",
        "sektor": "Sektor Perdagangan",
        "nama_perusahaan": "PLUANG EMAS SEJAHTERA",
        "tanggal_daftar": "2021-10-26",
        "nomor_tanda_daftar": "001419.01/DJAI.PSE/10/2021",
        "qr_code": "https://pse.kominfo.go.id/storage/images/qr_code/6628dafc3b5a9d304528cf658ffbdb4e.png",
        "status_id": "TERDAFTAR",
        "sistem_elektronik_id": 1536
      }
    },
    {
      "type": "tdpseTerbit",
      "id": 2121,
      "attributes": {
        "nomor_pb_umku": null,
        "nama": "Krasmart",
        "website": "www.krasmart.com",
        "sektor": "Sektor Perdagangan",
        "nama_perusahaan": "Krakatau Information Techonolgy",
        "tanggal_daftar": "2021-10-26",
        "nomor_tanda_daftar": "001418.01/DJAI.PSE/10/2021",
        "qr_code": "https://pse.kominfo.go.id/storage/images/qr_code/48d12e021647f0633d698194db6eeca8.png",
        "status_id": "TERDAFTAR",
        "sistem_elektronik_id": 3035
      }
    },
    {
      "type": "tdpseTerbit",
      "id": 3636,
      "attributes": {
        "nomor_pb_umku": null,
        "nama": "Aladinku",
        "website": "Aladinku.co.id",
        "sektor": "Sektor Keuangan",
        "nama_perusahaan": "INTEKNO RAYA",
        "tanggal_daftar": "2022-03-24",
        "nomor_tanda_daftar": "001417.03/DJAI.PSE/03/2022",
        "qr_code": "https://pse.kominfo.go.id/storage/images/qr_code/2c750e2bc92de583ee9ac28791e20a4e.png",
        "status_id": "TERDAFTAR",
        "sistem_elektronik_id": 3689
      }
    },
    {
      "type": "tdpseTerbit",
      "id": 3067,
      "attributes": {
        "nomor_pb_umku": null,
        "nama": "BOOSTER",
        "website": "boosterku.co.id",
        "sektor": "Sektor Keuangan",
        "nama_perusahaan": "INTEKNO RAYA",
        "tanggal_daftar": "2022-01-19",
        "nomor_tanda_daftar": "001417.02/DJAI.PSE/01/2022",
        "qr_code": "https://pse.kominfo.go.id/storage/images/qr_code/988e47a6c4945fe09ba2efd9b45d854f.png",
        "status_id": "TERDAFTAR",
        "sistem_elektronik_id": 3400
      }
    }
  ]
}