{
  "meta": {
    "page": {
      "currentPage": 661,
      "from": 6601,
      "lastPage": 1016,
      "perPage": 10,
      "to": 6610,
      "total": 10156
    }
  },
  "data": [
    {
      "type": "tdpseTerbit",
      "id": 2757,
      "attributes": {
        "nomor_pb_umku": null,
        "nama": "Marketplace",
        "website": "salon.co.id",
        "sektor": "Sektor Perdagangan, Sektor Teknologi Informasi dan Komunikasi",
        "nama_perusahaan": "HOUZCALL TEKNOLOGI INDONESIA",
        "tanggal_daftar": "2021-12-15",
        "nomor_tanda_daftar": "001773.01/DJAI.PSE/12/2021",
        "qr_code": "https://pse.kominfo.go.id/storage/images/qr_code/57a841e99d0a475090c89902ffa7dca7.png",
        "status_id": "TERDAFTAR",
        "sistem_elektronik_id": 1838
      }
    },
    {
      "type": "tdpseTerbit",
      "id": 2756,
      "attributes": {
        "nomor_pb_umku": null,
        "nama": "Marketplace",
        "website": "houzcall.co.id",
        "sektor": "Sektor Perdagangan, Sektor Teknologi Informasi dan Komunikasi",
        "nama_perusahaan": "LAYANAN MITRA TEKNOLOGI",
        "tanggal_daftar": "2021-12-15",
        "nomor_tanda_daftar": "001772.01/DJAI.PSE/12/2021",
        "qr_code": "https://pse.kominfo.go.id/storage/images/qr_code/50d3e827d121f7c5f67269fdbf65eeac.png",
        "status_id": "TERDAFTAR",
        "sistem_elektronik_id": 1839
      }
    },
    {
      "type": "tdpseTerbit",
      "id": 5120,
      "attributes": {
        "nomor_pb_umku": "241121002649900000003",
        "nama": "MOMOFINGO",
        "website": "momofingo.com",
        "sektor": "Sektor Teknologi Informasi dan Komunikasi",
        "nama_perusahaan": "MITRA ERA TEKNOLOGI",
        "tanggal_daftar": "2022-07-06",
        "nomor_tanda_daftar": "001771.03/DJAI.PSE/07/2022",
        "qr_code": "https://pse.kominfo.go.id/storage/images/qr_code/6d5ada492de2966df0e2ae65c681f9e2.png",
        "status_id": "TERDAFTAR",
        "sistem_elektronik_id": 4982
      }
    },
    {
      "type": "tdpseTerbit",
      "id": 2820,
      "attributes": {
        "nomor_pb_umku": null,
        "nama": "eMET",
        "website": "emet.id",
        "sektor": "Sektor Teknologi Informasi dan Komunikasi",
        "nama_perusahaan": "MITRA ERA TEKNOLOGI",
        "tanggal_daftar": "2021-12-21",
        "nomor_tanda_daftar": "001771.02/DJAI.PSE/12/2021",
        "qr_code": "https://pse.kominfo.go.id/storage/images/qr_code/11159dc437994afa7e766ed479e8f0e3.png",
        "status_id": "TERDAFTAR",
        "sistem_elektronik_id": 1865
      }
    },
    {
      "type": "tdpseTerbit",
      "id": 2755,
      "attributes": {
        "nomor_pb_umku": null,
        "nama": "Momofin",
        "website": "momofin.com",
        "sektor": "Sektor Teknologi Informasi dan Komunikasi",
        "nama_perusahaan": "MITRA ERA TEKNOLOGI",
        "tanggal_daftar": "2021-12-15",
        "nomor_tanda_daftar": "001771.01/DJAI.PSE/12/2021",
        "qr_code": "https://pse.kominfo.go.id/storage/images/qr_code/dbd060c15042049657a96c6eb267034d.png",
        "status_id": "TERDAFTAR",
        "sistem_elektronik_id": 1864
      }
    },
    {
      "type": "tdpseTerbit",
      "id": 2752,
      "attributes": {
        "nomor_pb_umku": null,
        "nama": "ReksadanaSAM",
        "website": "www.reksadanasam.co.id",
        "sektor": "Sektor Keuangan",
        "nama_perusahaan": "SAMUEL ASET MANAJEMEN",
        "tanggal_daftar": "2021-12-14",
        "nomor_tanda_daftar": "001770.01/DJAI.PSE/12/2021",
        "qr_code": "https://pse.kominfo.go.id/storage/images/qr_code/72499023b2928a40dd86265966f5c0f6.png",
        "status_id": "TERDAFTAR",
        "sistem_elektronik_id": 1863
      }
    },
    {
      "type": "tdpseTerbit",
      "id": 2751,
      "attributes": {
        "nomor_pb_umku": null,
        "nama": "Kopdit Karya Jasa",
        "website": "ns3.sriwijayahost.com",
        "sektor": "Sektor Kesehatan",
        "nama_perusahaan": "KOPDIT KARYA JASA",
        "tanggal_daftar": "2021-12-14",
        "nomor_tanda_daftar": "001769.01/DJAI.PSE/12/2021",
        "qr_code": "https://pse.kominfo.go.id/storage/images/qr_code/978e109da09a6de70fb30f4b0e54ab1c.png",
        "status_id": "TERDAFTAR",
        "sistem_elektronik_id": 1874
      }
    },
    {
      "type": "tdpseTerbit",
      "id": 2775,
      "attributes": {
        "nomor_pb_umku": null,
        "nama": "China Unicom Global",
        "website": "chinaunicomglobal.com",
        "sektor": "Sektor Teknologi Informasi dan Komunikasi",
        "nama_perusahaan": "CHINA UNICOM INDONESIA OPERATIONS",
        "tanggal_daftar": "2021-12-16",
        "nomor_tanda_daftar": "001768.02/DJAI.PSE/12/2021",
        "qr_code": "https://pse.kominfo.go.id/storage/images/qr_code/ff58cfe46d117ca6cbe07a442a2a0040.png",
        "status_id": "TERDAFTAR",
        "sistem_elektronik_id": 1797
      }
    },
    {
      "type": "tdpseTerbit",
      "id": 2749,
      "attributes": {
        "nomor_pb_umku": null,
        "nama": "Unicom Cloud",
        "website": "www.cucloud.cn",
        "sektor": "Sektor Teknologi Informasi dan Komunikasi",
        "nama_perusahaan": "CHINA UNICOM INDONESIA OPERATIONS",
        "tanggal_daftar": "2021-12-14",
        "nomor_tanda_daftar": "001768.01/DJAI.PSE/12/2021",
        "qr_code": "https://pse.kominfo.go.id/storage/images/qr_code/168a59b7126156bef74ba41605266787.png",
        "status_id": "TERDAFTAR",
        "sistem_elektronik_id": 1796
      }
    },
    {
      "type": "tdpseTerbit",
      "id": 8788,
      "attributes": {
        "nomor_pb_umku": "812021609351600020005",
        "nama": "SFASIA.DATAON.COM",
        "website": "sfasia.dataon.com",
        "sektor": "Sektor Teknologi Informasi dan Komunikasi",
        "nama_perusahaan": "INDODEV NIAGA INTERNET",
        "tanggal_daftar": "2022-07-22",
        "nomor_tanda_daftar": "001767.06/DJAI.PSE/07/2022",
        "qr_code": "https://pse.kominfo.go.id/storage/images/qr_code/b96dc0d7743d51583c3fcbf3226e5f63.png",
        "status_id": "TERDAFTAR",
        "sistem_elektronik_id": 8506
      }
    }
  ]
}