{
  "meta": {
    "page": {
      "currentPage": 662,
      "from": 6611,
      "lastPage": 925,
      "perPage": 10,
      "to": 6620,
      "total": 9244
    }
  },
  "data": [
    {
      "type": "tdpseTerbit",
      "id": 1989,
      "attributes": {
        "nomor_pb_umku": null,
        "nama": "Mobil123",
        "website": "https://www.mobil123.com/",
        "sektor": "Sektor Perdagangan",
        "nama_perusahaan": "MOBIL SATU ASIA",
        "tanggal_daftar": "2021-10-12",
        "nomor_tanda_daftar": "001330.01/DJAI.PSE/10/2021",
        "qr_code": "https://pse.kominfo.go.id/storage/images/qr_code/d87a248461d9ba5d3e84914db6c9d1b1.png",
        "status_id": "TERDAFTAR",
        "sistem_elektronik_id": 1452
      }
    },
    {
      "type": "tdpseTerbit",
      "id": 1988,
      "attributes": {
        "nomor_pb_umku": null,
        "nama": "PEMMZ",
        "website": "www.pemmz.id",
        "sektor": "Sektor Perdagangan, Sektor Teknologi Informasi dan Komunikasi",
        "nama_perusahaan": "PEMINDO MITRA SINERGI",
        "tanggal_daftar": "2021-10-12",
        "nomor_tanda_daftar": "001329.01/DJAI.PSE/10/2021",
        "qr_code": "https://pse.kominfo.go.id/storage/images/qr_code/e6fc973dd0c7c157cf84c9732f4ed7bc.png",
        "status_id": "TERDAFTAR",
        "sistem_elektronik_id": 1422
      }
    },
    {
      "type": "tdpseTerbit",
      "id": 1986,
      "attributes": {
        "nomor_pb_umku": null,
        "nama": "MASAGO",
        "website": "https://masago.id",
        "sektor": "Sektor Teknologi Informasi dan Komunikasi",
        "nama_perusahaan": "VALUE STREAM INDONESIA",
        "tanggal_daftar": "2021-10-12",
        "nomor_tanda_daftar": "001328.01/DJAI.PSE/10/2021",
        "qr_code": "https://pse.kominfo.go.id/storage/images/qr_code/b80138fb7ef052c526c974d2737c3ac7.png",
        "status_id": "TERDAFTAR",
        "sistem_elektronik_id": 1476
      }
    },
    {
      "type": "tdpseTerbit",
      "id": 4885,
      "attributes": {
        "nomor_pb_umku": "912031826095700060007",
        "nama": "SEKOLAH.MU",
        "website": "sekolah.mu",
        "sektor": "Sektor Teknologi Informasi dan Komunikasi",
        "nama_perusahaan": "SEMESTA INTEGRASI DIGITAL",
        "tanggal_daftar": "2022-06-28",
        "nomor_tanda_daftar": "001327.03/DJAI.PSE/06/2022",
        "qr_code": "https://pse.kominfo.go.id/storage/images/qr_code/f12fcce89ba50e7fcaaa363af5c2bf8b.png",
        "status_id": "TERDAFTAR",
        "sistem_elektronik_id": 4754
      }
    },
    {
      "type": "tdpseTerbit",
      "id": 4038,
      "attributes": {
        "nomor_pb_umku": null,
        "nama": "Talentics",
        "website": "www.talentics.id",
        "sektor": "Sektor Teknologi Informasi dan Komunikasi",
        "nama_perusahaan": "SEMESTA INTEGRASI DIGITAL",
        "tanggal_daftar": "2022-04-26",
        "nomor_tanda_daftar": "001327.02/DJAI.PSE/04/2022",
        "qr_code": "https://pse.kominfo.go.id/storage/images/qr_code/1c7123ac56f5f65c50302a99bee7833a.png",
        "status_id": "TERDAFTAR",
        "sistem_elektronik_id": 3992
      }
    },
    {
      "type": "tdpseTerbit",
      "id": 1985,
      "attributes": {
        "nomor_pb_umku": null,
        "nama": "Karier.mu",
        "website": "www.karier.mu",
        "sektor": "Sektor Teknologi Informasi dan Komunikasi",
        "nama_perusahaan": "SEMESTA INTEGRASI DIGITAL",
        "tanggal_daftar": "2021-10-12",
        "nomor_tanda_daftar": "001327.01/DJAI.PSE/10/2021",
        "qr_code": "https://pse.kominfo.go.id/storage/images/qr_code/42bb6b37d9d29ced3418877fc33847ea.png",
        "status_id": "TERDAFTAR",
        "sistem_elektronik_id": 1436
      }
    },
    {
      "type": "tdpseTerbit",
      "id": 1984,
      "attributes": {
        "nomor_pb_umku": null,
        "nama": "Cek Polaris",
        "website": "https://cekpolaris.com",
        "sektor": "Sektor Perdagangan, Sektor Teknologi Informasi dan Komunikasi",
        "nama_perusahaan": "CEK DATA DIGITAL",
        "tanggal_daftar": "2021-10-12",
        "nomor_tanda_daftar": "001326.01/DJAI.PSE/10/2021",
        "qr_code": "https://pse.kominfo.go.id/storage/images/qr_code/f267b9125920c53ff46be55fc55822b1.png",
        "status_id": "TERDAFTAR",
        "sistem_elektronik_id": 1433
      }
    },
    {
      "type": "tdpseTerbit",
      "id": 1983,
      "attributes": {
        "nomor_pb_umku": null,
        "nama": "PT BAREKSA MARKETPLACE INDONESIA",
        "website": "https://www.bareksa.com",
        "sektor": "Sektor Keuangan",
        "nama_perusahaan": "BAREKSA MARKETPLACE INDONESIA",
        "tanggal_daftar": "2021-10-12",
        "nomor_tanda_daftar": "001325.01/DJAI.PSE/10/2021",
        "qr_code": "https://pse.kominfo.go.id/storage/images/qr_code/d6c94207356da299737072f823036745.png",
        "status_id": "TERDAFTAR",
        "sistem_elektronik_id": 1132
      }
    },
    {
      "type": "tdpseTerbit",
      "id": 6172,
      "attributes": {
        "nomor_pb_umku": "912010874321600040001",
        "nama": "BAREKSA",
        "website": "bareksa.com",
        "sektor": "Sektor Keuangan",
        "nama_perusahaan": "BAREKSA PORTAL INVESTASI",
        "tanggal_daftar": "2022-07-18",
        "nomor_tanda_daftar": "001324.02/DJAI.PSE/07/2022",
        "qr_code": "https://pse.kominfo.go.id/storage/images/qr_code/8d9e9572d51b9eb81edfe49d7e7dfebf.png",
        "status_id": "TERDAFTAR",
        "sistem_elektronik_id": 6025
      }
    },
    {
      "type": "tdpseTerbit",
      "id": 1982,
      "attributes": {
        "nomor_pb_umku": null,
        "nama": "PT BAREKSA PORTAL INVESTASI",
        "website": "https://www.bareksa.com",
        "sektor": "Sektor Keuangan",
        "nama_perusahaan": "BAREKSA PORTAL INVESTASI",
        "tanggal_daftar": "2021-10-12",
        "nomor_tanda_daftar": "001324.01/DJAI.PSE/10/2021",
        "qr_code": "https://pse.kominfo.go.id/storage/images/qr_code/12148ad9bd1cdb2238064c7dc841888a.png",
        "status_id": "TERDAFTAR",
        "sistem_elektronik_id": 1461
      }
    }
  ]
}