{
  "meta": {
    "page": {
      "currentPage": 663,
      "from": 6621,
      "lastPage": 1085,
      "perPage": 10,
      "to": 6630,
      "total": 10842
    }
  },
  "data": [
    {
      "type": "tdpseTerbit",
      "id": 3487,
      "attributes": {
        "nomor_pb_umku": null,
        "nama": "coldstonecreamery.co.id",
        "website": "coldstonecreamery.co.id",
        "sektor": "Sektor Perdagangan",
        "nama_perusahaan": "SARI ICECREAM INDONESIA",
        "tanggal_daftar": "2022-03-09",
        "nomor_tanda_daftar": "002270.01/DJAI.PSE/03/2022",
        "qr_code": "https://pse.kominfo.go.id/storage/images/qr_code/a787516366d80dd7e11049efa0da3469.png",
        "status_id": "TERDAFTAR",
        "sistem_elektronik_id": 2895
      }
    },
    {
      "type": "tdpseTerbit",
      "id": 3486,
      "attributes": {
        "nomor_pb_umku": null,
        "nama": "CeXup",
        "website": "https://cexup.com",
        "sektor": "Sektor Kesehatan",
        "nama_perusahaan": "TELE CEXUP INDONESIA",
        "tanggal_daftar": "2022-03-09",
        "nomor_tanda_daftar": "002269.01/DJAI.PSE/03/2022",
        "qr_code": "https://pse.kominfo.go.id/storage/images/qr_code/2bd240005eee886f5584a39d5b2debd8.png",
        "status_id": "TERDAFTAR",
        "sistem_elektronik_id": 2904
      }
    },
    {
      "type": "tdpseTerbit",
      "id": 3485,
      "attributes": {
        "nomor_pb_umku": null,
        "nama": "ngantre.com",
        "website": "ngantre.com",
        "sektor": "Sektor Teknologi Informasi dan Komunikasi",
        "nama_perusahaan": "NGANTRE INDONESIA PERSADA",
        "tanggal_daftar": "2022-03-09",
        "nomor_tanda_daftar": "002268.01/DJAI.PSE/03/2022",
        "qr_code": "https://pse.kominfo.go.id/storage/images/qr_code/4b20feccf9de0ff1cf1c7796b1081910.png",
        "status_id": "TERDAFTAR",
        "sistem_elektronik_id": 2962
      }
    },
    {
      "type": "tdpseTerbit",
      "id": 3484,
      "attributes": {
        "nomor_pb_umku": null,
        "nama": "SESPRI",
        "website": "www.sespri.id",
        "sektor": "Sektor Teknologi Informasi dan Komunikasi",
        "nama_perusahaan": "ALEGO DIGITAL INDONESIA",
        "tanggal_daftar": "2022-03-09",
        "nomor_tanda_daftar": "002267.01/DJAI.PSE/03/2022",
        "qr_code": "https://pse.kominfo.go.id/storage/images/qr_code/4d2b3b677ff36d93c7914c9c78f7b2bf.png",
        "status_id": "TERDAFTAR",
        "sistem_elektronik_id": 2961
      }
    },
    {
      "type": "tdpseTerbit",
      "id": 3482,
      "attributes": {
        "nomor_pb_umku": null,
        "nama": "tokolapak.com",
        "website": "tokolapak.com",
        "sektor": "Sektor Perdagangan",
        "nama_perusahaan": "IDE KREATIF ASIA",
        "tanggal_daftar": "2022-03-09",
        "nomor_tanda_daftar": "002266.01/DJAI.PSE/03/2022",
        "qr_code": "https://pse.kominfo.go.id/storage/images/qr_code/28bac1500e36d87b3fe873eafbe1094e.png",
        "status_id": "TERDAFTAR",
        "sistem_elektronik_id": 2954
      }
    },
    {
      "type": "tdpseTerbit",
      "id": 3481,
      "attributes": {
        "nomor_pb_umku": null,
        "nama": "MedCheck",
        "website": "www.medcheck.id",
        "sektor": "Sektor Kesehatan",
        "nama_perusahaan": "ARIANDA MITRA SEJAHTERA",
        "tanggal_daftar": "2022-03-09",
        "nomor_tanda_daftar": "002265.01/DJAI.PSE/03/2022",
        "qr_code": "https://pse.kominfo.go.id/storage/images/qr_code/e9aa1b237dd9dd01bcc61a518acdf1ee.png",
        "status_id": "TERDAFTAR",
        "sistem_elektronik_id": 2918
      }
    },
    {
      "type": "tdpseTerbit",
      "id": 10375,
      "attributes": {
        "nomor_pb_umku": "812011313136700140005",
        "nama": "CHARGE.IN",
        "website": "-",
        "sektor": "Sektor Transportasi, Sektor Teknologi Informasi dan Komunikasi",
        "nama_perusahaan": "INDONESIA COMNETS PLUS",
        "tanggal_daftar": "2022-08-15",
        "nomor_tanda_daftar": "002264.02/DJAI.PSE/08/2022",
        "qr_code": "https://pse.kominfo.go.id/storage/images/qr_code/e22b2d72bf616567ee7683aafc9f678c.png",
        "status_id": "TERDAFTAR",
        "sistem_elektronik_id": 10230
      }
    },
    {
      "type": "tdpseTerbit",
      "id": 3480,
      "attributes": {
        "nomor_pb_umku": null,
        "nama": "PLN Mobile Marketplace",
        "website": "-",
        "sektor": "Sektor Perdagangan, Sektor Teknologi Informasi dan Komunikasi",
        "nama_perusahaan": "INDONESIA COMNETS PLUS",
        "tanggal_daftar": "2022-03-09",
        "nomor_tanda_daftar": "002264.01/DJAI.PSE/03/2022",
        "qr_code": "https://pse.kominfo.go.id/storage/images/qr_code/c087439832d2b9092bb16d51fb6326d5.png",
        "status_id": "TERDAFTAR",
        "sistem_elektronik_id": 2928
      }
    },
    {
      "type": "tdpseTerbit",
      "id": 3479,
      "attributes": {
        "nomor_pb_umku": null,
        "nama": "Luwjistik",
        "website": "luwjistik.com",
        "sektor": "Sektor Teknologi Informasi dan Komunikasi",
        "nama_perusahaan": "ALLY LOGISTICS INTEGRATORS",
        "tanggal_daftar": "2022-03-09",
        "nomor_tanda_daftar": "002263.01/DJAI.PSE/03/2022",
        "qr_code": "https://pse.kominfo.go.id/storage/images/qr_code/2408c78111c05603f3b22626b7e9d775.png",
        "status_id": "TERDAFTAR",
        "sistem_elektronik_id": 2926
      }
    },
    {
      "type": "tdpseTerbit",
      "id": 3471,
      "attributes": {
        "nomor_pb_umku": null,
        "nama": "SEBAYA MEDIA KREASI",
        "website": "https://tokodaring.lkpp.go.id/",
        "sektor": "Sektor Kesehatan, Sektor Pangan, Sektor Perdagangan, Sektor Pertahanan dan Keamanan, Sektor Teknologi Informasi dan Komunikasi, Sektor Transportasi",
        "nama_perusahaan": "SEBAYA MEDIA KREASI",
        "tanggal_daftar": "2022-03-08",
        "nomor_tanda_daftar": "002262.01/DJAI.PSE/03/2022",
        "qr_code": "https://pse.kominfo.go.id/storage/images/qr_code/c89461ccbfbf54ee97de39afdb308289.png",
        "status_id": "TERDAFTAR",
        "sistem_elektronik_id": 2894
      }
    }
  ]
}