{
  "meta": {
    "page": {
      "currentPage": 666,
      "from": 6651,
      "lastPage": 875,
      "perPage": 10,
      "to": 6660,
      "total": 8749
    }
  },
  "data": [
    {
      "type": "tdpseTerbit",
      "id": 1523,
      "attributes": {
        "nomor_pb_umku": null,
        "nama": "KUDO",
        "website": "https://www.grab.com/id/kios/",
        "sektor": "Sektor Perdagangan, Sektor Teknologi Informasi dan Komunikasi",
        "nama_perusahaan": "KUDO TEKNOLOGI INDONESIA",
        "tanggal_daftar": "2021-06-24",
        "nomor_tanda_daftar": "000999.01/DJAI.PSE/06/2021",
        "qr_code": "https://pse.kominfo.go.id/storage/images/qr_code/7966117008a2e5bdda53bf93fabc42f2.png",
        "status_id": "TERDAFTAR",
        "sistem_elektronik_id": 1116
      }
    },
    {
      "type": "tdpseTerbit",
      "id": 3935,
      "attributes": {
        "nomor_pb_umku": null,
        "nama": "Website tira-sf.id",
        "website": "tira-sf.id",
        "sektor": "Sektor Perdagangan",
        "nama_perusahaan": "TIRA SATRIA NIAGA",
        "tanggal_daftar": "2022-04-19",
        "nomor_tanda_daftar": "000998.04/DJAI.PSE/04/2022",
        "qr_code": "https://pse.kominfo.go.id/storage/images/qr_code/9fdd6a814cef9d84377bc0e9299865d0.png",
        "status_id": "TERDAFTAR",
        "sistem_elektronik_id": 3802
      }
    },
    {
      "type": "tdpseTerbit",
      "id": 3836,
      "attributes": {
        "nomor_pb_umku": null,
        "nama": "Tira Smart Family Apps",
        "website": "tira-sf.id",
        "sektor": "Sektor Perdagangan",
        "nama_perusahaan": "TIRA SATRIA NIAGA",
        "tanggal_daftar": "2022-04-11",
        "nomor_tanda_daftar": "000998.03/DJAI.PSE/04/2022",
        "qr_code": "https://pse.kominfo.go.id/storage/images/qr_code/e8cc115cc954479283469d3804e9d9a1.png",
        "status_id": "TERDAFTAR",
        "sistem_elektronik_id": 3801
      }
    },
    {
      "type": "tdpseTerbit",
      "id": 3690,
      "attributes": {
        "nomor_pb_umku": null,
        "nama": "Tiramart",
        "website": "tiramart.id",
        "sektor": "Sektor Perdagangan",
        "nama_perusahaan": "TIRA SATRIA NIAGA",
        "tanggal_daftar": "2022-03-29",
        "nomor_tanda_daftar": "000998.02/DJAI.PSE/03/2022",
        "qr_code": "https://pse.kominfo.go.id/storage/images/qr_code/dd863928d0661c0b3082db340cc67243.png",
        "status_id": "TERDAFTAR",
        "sistem_elektronik_id": 3542
      }
    },
    {
      "type": "tdpseTerbit",
      "id": 1522,
      "attributes": {
        "nomor_pb_umku": null,
        "nama": "Tira Commerce",
        "website": "https://tira-commerce.com",
        "sektor": "Sektor Perdagangan",
        "nama_perusahaan": "TIRA SATRIA NIAGA",
        "tanggal_daftar": "2021-06-24",
        "nomor_tanda_daftar": "000998.01/DJAI.PSE/06/2021",
        "qr_code": "https://pse.kominfo.go.id/storage/images/qr_code/a1d008ec71f9be86ef59299b832bdecf.png",
        "status_id": "TERDAFTAR",
        "sistem_elektronik_id": 1097
      }
    },
    {
      "type": "tdpseTerbit",
      "id": 1521,
      "attributes": {
        "nomor_pb_umku": null,
        "nama": "Insistpro Danasakti - Remote Trading",
        "website": "danasaktisekuritas.com",
        "sektor": "Sektor Keuangan",
        "nama_perusahaan": "DANASAKTI SEKURITAS INDONESIA",
        "tanggal_daftar": "2021-06-24",
        "nomor_tanda_daftar": "000997.01/DJAI.PSE/06/2021",
        "qr_code": "https://pse.kominfo.go.id/storage/images/qr_code/fbaeadf77f02acdfb0ce8dac1cefb7bb.png",
        "status_id": "TERDAFTAR",
        "sistem_elektronik_id": 1113
      }
    },
    {
      "type": "tdpseTerbit",
      "id": 1520,
      "attributes": {
        "nomor_pb_umku": null,
        "nama": "Papabli.com",
        "website": "https://www.papabli.com/",
        "sektor": "Sektor Perdagangan, Sektor Teknologi Informasi dan Komunikasi",
        "nama_perusahaan": "PAPABLI BISNIS SEMESTA",
        "tanggal_daftar": "2021-06-24",
        "nomor_tanda_daftar": "000996.01/DJAI.PSE/06/2021",
        "qr_code": "https://pse.kominfo.go.id/storage/images/qr_code/56260511225a9402616116d02cc01f9e.png",
        "status_id": "TERDAFTAR",
        "sistem_elektronik_id": 1115
      }
    },
    {
      "type": "tdpseTerbit",
      "id": 1518,
      "attributes": {
        "nomor_pb_umku": null,
        "nama": "IDCloudHost",
        "website": "https://idcloudhost.com/",
        "sektor": "Sektor Teknologi Informasi dan Komunikasi",
        "nama_perusahaan": "CLOUD HOSTING INDONESIA",
        "tanggal_daftar": "2021-06-24",
        "nomor_tanda_daftar": "000995.01/DJAI.PSE/06/2021",
        "qr_code": "https://pse.kominfo.go.id/storage/images/qr_code/8a965d36c315bdfe28761a2bac7cab01.png",
        "status_id": "TERDAFTAR",
        "sistem_elektronik_id": 1088
      }
    },
    {
      "type": "tdpseTerbit",
      "id": 5446,
      "attributes": {
        "nomor_pb_umku": "912010619174200010001",
        "nama": "PLUANG - GROW",
        "website": "pluang-grow.com",
        "sektor": "Sektor Keuangan",
        "nama_perusahaan": "SARANA SANTOSA SEJATI",
        "tanggal_daftar": "2022-07-13",
        "nomor_tanda_daftar": "000994.02/DJAI.PSE/07/2022",
        "qr_code": "https://pse.kominfo.go.id/storage/images/qr_code/cdf1b0b47ce62e4a98e6f99dc74f566d.png",
        "status_id": "TERDAFTAR",
        "sistem_elektronik_id": 5318
      }
    },
    {
      "type": "tdpseTerbit",
      "id": 1517,
      "attributes": {
        "nomor_pb_umku": null,
        "nama": "Pluang-Grow",
        "website": "www.pluang-grow.com",
        "sektor": "Sektor Keuangan",
        "nama_perusahaan": "SARANA SANTOSA SEJATI",
        "tanggal_daftar": "2021-06-24",
        "nomor_tanda_daftar": "000994.01/DJAI.PSE/06/2021",
        "qr_code": "https://pse.kominfo.go.id/storage/images/qr_code/8f115baca8f5c8304c3b9a83cfdf1049.png",
        "status_id": "TERDAFTAR",
        "sistem_elektronik_id": 2712
      }
    }
  ]
}