{
  "meta": {
    "page": {
      "currentPage": 667,
      "from": 6661,
      "lastPage": 1047,
      "perPage": 10,
      "to": 6670,
      "total": 10470
    }
  },
  "data": [
    {
      "type": "tdpseTerbit",
      "id": 9994,
      "attributes": {
        "nomor_pb_umku": "091221000226900010002",
        "nama": "SMAL PLATFOM",
        "website": "simasrim.com",
        "sektor": "Sektor Perdagangan",
        "nama_perusahaan": "SOLUSI MITRA APLIKASI",
        "tanggal_daftar": "2022-08-06",
        "nomor_tanda_daftar": "002000.02/DJAI.PSE/08/2022",
        "qr_code": "https://pse.kominfo.go.id/storage/images/qr_code/f87408e182717a7949b254b8443f5706.png",
        "status_id": "TERDAFTAR",
        "sistem_elektronik_id": 9880
      }
    },
    {
      "type": "tdpseTerbit",
      "id": 3108,
      "attributes": {
        "nomor_pb_umku": null,
        "nama": "SMAL Platform",
        "website": "app.bukakurir.com",
        "sektor": "Sektor Perdagangan",
        "nama_perusahaan": "SOLUSI MITRA APLIKASI",
        "tanggal_daftar": "2022-01-25",
        "nomor_tanda_daftar": "002000.01/DJAI.PSE/01/2022",
        "qr_code": "https://pse.kominfo.go.id/storage/images/qr_code/87b0520287694d5fb1d83e518cada199.png",
        "status_id": "TERDAFTAR",
        "sistem_elektronik_id": 2112
      }
    },
    {
      "type": "tdpseTerbit",
      "id": 3207,
      "attributes": {
        "nomor_pb_umku": null,
        "nama": "RupiahMart",
        "website": "rupiahmart.com",
        "sektor": "Sektor Keuangan, Sektor Teknologi Informasi dan Komunikasi",
        "nama_perusahaan": "MITRA SOLUSI PINJAMAN",
        "tanggal_daftar": "2022-02-09",
        "nomor_tanda_daftar": "001999.02/DJAI.PSE/02/2022",
        "qr_code": "https://pse.kominfo.go.id/storage/images/qr_code/47c4ac05b3076021d43d203258416eeb.png",
        "status_id": "TERDAFTAR",
        "sistem_elektronik_id": 3171
      }
    },
    {
      "type": "tdpseTerbit",
      "id": 3107,
      "attributes": {
        "nomor_pb_umku": null,
        "nama": "RupiahMart",
        "website": "rupiahmart.com",
        "sektor": "Sektor Keuangan, Sektor Teknologi Informasi dan Komunikasi",
        "nama_perusahaan": "MITRA SOLUSI PINJAMAN",
        "tanggal_daftar": "2022-01-25",
        "nomor_tanda_daftar": "001999.01/DJAI.PSE/01/2022",
        "qr_code": "https://pse.kominfo.go.id/storage/images/qr_code/50474eaafdcad7b556678587ce19adc4.png",
        "status_id": "TERDAFTAR",
        "sistem_elektronik_id": 3695
      }
    },
    {
      "type": "tdpseTerbit",
      "id": 4354,
      "attributes": {
        "nomor_pb_umku": null,
        "nama": "Farmazi",
        "website": "Farmazi.id",
        "sektor": "Sektor Kesehatan, Sektor Teknologi Informasi dan Komunikasi",
        "nama_perusahaan": "MEDLINX ASIA TEKNOLOGI",
        "tanggal_daftar": "2022-05-13",
        "nomor_tanda_daftar": "001998.03/DJAI.PSE/05/2022",
        "qr_code": "https://pse.kominfo.go.id/storage/images/qr_code/89006d17189e59b5d8b737d4966dbd32.png",
        "status_id": "TERDAFTAR",
        "sistem_elektronik_id": 4340
      }
    },
    {
      "type": "tdpseTerbit",
      "id": 3106,
      "attributes": {
        "nomor_pb_umku": null,
        "nama": "Izidok",
        "website": "www.izidok.id",
        "sektor": "Sektor Kesehatan, Sektor Teknologi Informasi dan Komunikasi",
        "nama_perusahaan": "MEDLINX ASIA TEKNOLOGI",
        "tanggal_daftar": "2022-01-25",
        "nomor_tanda_daftar": "001998.02/DJAI.PSE/01/2022",
        "qr_code": "https://pse.kominfo.go.id/storage/images/qr_code/d004e370d520d08e8eefe7a112e58b57.png",
        "status_id": "TERDAFTAR",
        "sistem_elektronik_id": 1748
      }
    },
    {
      "type": "tdpseTerbit",
      "id": 3104,
      "attributes": {
        "nomor_pb_umku": null,
        "nama": "Iziklaim",
        "website": "www.iziklaim.com",
        "sektor": "Sektor Kesehatan, Sektor Teknologi Informasi dan Komunikasi",
        "nama_perusahaan": "MEDLINX ASIA TEKNOLOGI",
        "tanggal_daftar": "2022-01-25",
        "nomor_tanda_daftar": "001998.01/DJAI.PSE/01/2022",
        "qr_code": "https://pse.kominfo.go.id/storage/images/qr_code/67d46f5128153946cc9b3a81c5a7fd90.png",
        "status_id": "TERDAFTAR",
        "sistem_elektronik_id": 1747
      }
    },
    {
      "type": "tdpseTerbit",
      "id": 7835,
      "attributes": {
        "nomor_pb_umku": "091221004288500000003",
        "nama": "PLATFORM PRE-O",
        "website": "pre-o.co.id",
        "sektor": "Sektor Perdagangan",
        "nama_perusahaan": "BIZTECH JAYA MAKMUR",
        "tanggal_daftar": "2022-07-20",
        "nomor_tanda_daftar": "001997.03/DJAI.PSE/07/2022",
        "qr_code": "https://pse.kominfo.go.id/storage/images/qr_code/0a67b03760e9f0137682f6ff947a8310.png",
        "status_id": "TERDAFTAR",
        "sistem_elektronik_id": 7762
      }
    },
    {
      "type": "tdpseTerbit",
      "id": 3105,
      "attributes": {
        "nomor_pb_umku": null,
        "nama": "Aplikasi Pre-O",
        "website": "pre-o.co.id",
        "sektor": "Sektor Perdagangan",
        "nama_perusahaan": "BIZTECH JAYA MAKMUR",
        "tanggal_daftar": "2022-01-25",
        "nomor_tanda_daftar": "001997.02/DJAI.PSE/01/2022",
        "qr_code": "https://pse.kominfo.go.id/storage/images/qr_code/6bec53056098b60359d3efc5a95f6863.png",
        "status_id": "TERDAFTAR",
        "sistem_elektronik_id": 2079
      }
    },
    {
      "type": "tdpseTerbit",
      "id": 3103,
      "attributes": {
        "nomor_pb_umku": null,
        "nama": "Pre-O",
        "website": "pre-o.co.id",
        "sektor": "Sektor Perdagangan",
        "nama_perusahaan": "BIZTECH JAYA MAKMUR",
        "tanggal_daftar": "2022-01-25",
        "nomor_tanda_daftar": "001997.01/DJAI.PSE/01/2022",
        "qr_code": "https://pse.kominfo.go.id/storage/images/qr_code/c987864efb28adc3dc96b19a63219cf4.png",
        "status_id": "TERDAFTAR",
        "sistem_elektronik_id": 2078
      }
    }
  ]
}