{
  "meta": {
    "page": {
      "currentPage": 668,
      "from": 6671,
      "lastPage": 1111,
      "perPage": 10,
      "to": 6680,
      "total": 11105
    }
  },
  "data": [
    {
      "type": "tdpseTerbit",
      "id": 3695,
      "attributes": {
        "nomor_pb_umku": null,
        "nama": "ebsti.com",
        "website": "ebsti.com",
        "sektor": "Sektor Kesehatan, Sektor Perdagangan",
        "nama_perusahaan": "BANDUNG SCIENTIFIC TECHNICAL INDONESIA",
        "tanggal_daftar": "2022-03-29",
        "nomor_tanda_daftar": "002405.01/DJAI.PSE/03/2022",
        "qr_code": "https://pse.kominfo.go.id/storage/images/qr_code/604c77e83d1b4699dd80174dcae441e3.png",
        "status_id": "TERDAFTAR",
        "sistem_elektronik_id": 3648
      }
    },
    {
      "type": "tdpseTerbit",
      "id": 3694,
      "attributes": {
        "nomor_pb_umku": null,
        "nama": "Getix",
        "website": "getix.id",
        "sektor": "Sektor Perdagangan, Sektor Teknologi Informasi dan Komunikasi",
        "nama_perusahaan": "GETIX KARYA INDONESIA",
        "tanggal_daftar": "2022-03-29",
        "nomor_tanda_daftar": "002404.01/DJAI.PSE/03/2022",
        "qr_code": "https://pse.kominfo.go.id/storage/images/qr_code/367005d0d644c6b0436cc9095e6f4c44.png",
        "status_id": "TERDAFTAR",
        "sistem_elektronik_id": 3591
      }
    },
    {
      "type": "tdpseTerbit",
      "id": 3693,
      "attributes": {
        "nomor_pb_umku": null,
        "nama": "DIREKU",
        "website": "www.direku.co.id",
        "sektor": "Sektor Keuangan, Sektor Teknologi Informasi dan Komunikasi",
        "nama_perusahaan": "CUAN AMAN SAMBIL REBAHAN",
        "tanggal_daftar": "2022-03-29",
        "nomor_tanda_daftar": "002403.01/DJAI.PSE/03/2022",
        "qr_code": "https://pse.kominfo.go.id/storage/images/qr_code/549b1eabf80cb66208413d92afa54541.png",
        "status_id": "TERDAFTAR",
        "sistem_elektronik_id": 3582
      }
    },
    {
      "type": "tdpseTerbit",
      "id": 3688,
      "attributes": {
        "nomor_pb_umku": null,
        "nama": "Teras Pendopo",
        "website": "teraspendopo.id",
        "sektor": "Sektor Perdagangan, Sektor Teknologi Informasi dan Komunikasi",
        "nama_perusahaan": "DATA DIGITAL INOVASI",
        "tanggal_daftar": "2022-03-29",
        "nomor_tanda_daftar": "002402.01/DJAI.PSE/03/2022",
        "qr_code": "https://pse.kominfo.go.id/storage/images/qr_code/1167e2fa24cbc2c1bb0674eb2b4014bf.png",
        "status_id": "TERDAFTAR",
        "sistem_elektronik_id": 3601
      }
    },
    {
      "type": "tdpseTerbit",
      "id": 3687,
      "attributes": {
        "nomor_pb_umku": null,
        "nama": "WARKUM",
        "website": "warkum.com",
        "sektor": "Sektor Perdagangan",
        "nama_perusahaan": "WARUNG GRUP INDONESIA",
        "tanggal_daftar": "2022-03-29",
        "nomor_tanda_daftar": "002401.01/DJAI.PSE/03/2022",
        "qr_code": "https://pse.kominfo.go.id/storage/images/qr_code/763251e3ac9c56b217806dbcf8f4f1d5.png",
        "status_id": "TERDAFTAR",
        "sistem_elektronik_id": 3611
      }
    },
    {
      "type": "tdpseTerbit",
      "id": 3685,
      "attributes": {
        "nomor_pb_umku": null,
        "nama": "GercepTa",
        "website": "-",
        "sektor": "Sektor Perdagangan, Sektor Transportasi",
        "nama_perusahaan": "GERCEPTA MULTIMEDIA NUSANTARA",
        "tanggal_daftar": "2022-03-29",
        "nomor_tanda_daftar": "002400.01/DJAI.PSE/03/2022",
        "qr_code": "https://pse.kominfo.go.id/storage/images/qr_code/71e09b96a18ead6a02792d9956bc959a.png",
        "status_id": "TERDAFTAR",
        "sistem_elektronik_id": 3578
      }
    },
    {
      "type": "tdpseTerbit",
      "id": 3684,
      "attributes": {
        "nomor_pb_umku": null,
        "nama": "KURIRBAGUS",
        "website": "kurirbagus.com",
        "sektor": "Sektor Keuangan, Sektor Perdagangan, Sektor Teknologi Informasi dan Komunikasi, Sektor Transportasi",
        "nama_perusahaan": "KURIR BAGUS INDONESIA",
        "tanggal_daftar": "2022-03-29",
        "nomor_tanda_daftar": "002399.01/DJAI.PSE/03/2022",
        "qr_code": "https://pse.kominfo.go.id/storage/images/qr_code/a8439693498ad3ad1c9b7a208936a7fd.png",
        "status_id": "TERDAFTAR",
        "sistem_elektronik_id": 3628
      }
    },
    {
      "type": "tdpseTerbit",
      "id": 3683,
      "attributes": {
        "nomor_pb_umku": null,
        "nama": "Hukma",
        "website": "hukma.id",
        "sektor": "Sektor Teknologi Informasi dan Komunikasi",
        "nama_perusahaan": "BEDA SINEMA PICTURES",
        "tanggal_daftar": "2022-03-28",
        "nomor_tanda_daftar": "002398.01/DJAI.PSE/03/2022",
        "qr_code": "https://pse.kominfo.go.id/storage/images/qr_code/ebfbc52310c71bef238c0771f9872be2.png",
        "status_id": "TERDAFTAR",
        "sistem_elektronik_id": 3656
      }
    },
    {
      "type": "tdpseTerbit",
      "id": 3682,
      "attributes": {
        "nomor_pb_umku": null,
        "nama": "Liputan Kaltim",
        "website": "liputankaltim.com",
        "sektor": "Sektor Teknologi Informasi dan Komunikasi",
        "nama_perusahaan": "SANGATTA MUDA BERKARYA",
        "tanggal_daftar": "2022-03-28",
        "nomor_tanda_daftar": "002397.01/DJAI.PSE/03/2022",
        "qr_code": "https://pse.kominfo.go.id/storage/images/qr_code/30563b969b66a10a97312a5b4fa5bc01.png",
        "status_id": "TERDAFTAR",
        "sistem_elektronik_id": 3600
      }
    },
    {
      "type": "tdpseTerbit",
      "id": 9593,
      "attributes": {
        "nomor_pb_umku": "912000048294900110004",
        "nama": "ISGROUP_CONSULTING",
        "website": "isgroupconsulting.com",
        "sektor": "Sektor Perdagangan",
        "nama_perusahaan": "INDONESIA SEJAHTERA GRUP",
        "tanggal_daftar": "2022-08-02",
        "nomor_tanda_daftar": "002396.04/DJAI.PSE/08/2022",
        "qr_code": "https://pse.kominfo.go.id/storage/images/qr_code/e80409f06e950e61aab9692e16aa5c62.png",
        "status_id": "TERDAFTAR",
        "sistem_elektronik_id": 9485
      }
    }
  ]
}