{
  "meta": {
    "page": {
      "currentPage": 670,
      "from": 6691,
      "lastPage": 991,
      "perPage": 10,
      "to": 6700,
      "total": 9907
    }
  },
  "data": [
    {
      "type": "tdpseTerbit",
      "id": 2527,
      "attributes": {
        "nomor_pb_umku": null,
        "nama": "KiosMikro - Pegadaian",
        "website": "https://kiosmikro.pegadaian.co.id/",
        "sektor": "Sektor Keuangan",
        "nama_perusahaan": "PEGADAIAN",
        "tanggal_daftar": "2021-11-30",
        "nomor_tanda_daftar": "001631.13/DJAI.PSE/11/2021",
        "qr_code": "https://pse.kominfo.go.id/storage/images/qr_code/82196b439053a41c758637ab894edbc5.png",
        "status_id": "TERDAFTAR",
        "sistem_elektronik_id": 1674
      }
    },
    {
      "type": "tdpseTerbit",
      "id": 2526,
      "attributes": {
        "nomor_pb_umku": null,
        "nama": "Pegadaian Application Collecting System",
        "website": "https://pacs.pegadaian.co.id/pacs/",
        "sektor": "Sektor Keuangan",
        "nama_perusahaan": "PEGADAIAN",
        "tanggal_daftar": "2021-11-30",
        "nomor_tanda_daftar": "001631.12/DJAI.PSE/11/2021",
        "qr_code": "https://pse.kominfo.go.id/storage/images/qr_code/0314db2a1f03f6c414421786ab2f7953.png",
        "status_id": "TERDAFTAR",
        "sistem_elektronik_id": 1673
      }
    },
    {
      "type": "tdpseTerbit",
      "id": 2525,
      "attributes": {
        "nomor_pb_umku": null,
        "nama": "Pegadaian Transformasi Digital (P4D)",
        "website": "https://pad.pegadaian.co.id/",
        "sektor": "Sektor Keuangan",
        "nama_perusahaan": "PEGADAIAN",
        "tanggal_daftar": "2021-11-30",
        "nomor_tanda_daftar": "001631.11/DJAI.PSE/11/2021",
        "qr_code": "https://pse.kominfo.go.id/storage/images/qr_code/f1586233627aef326626f20af913fc16.png",
        "status_id": "TERDAFTAR",
        "sistem_elektronik_id": 1672
      }
    },
    {
      "type": "tdpseTerbit",
      "id": 2524,
      "attributes": {
        "nomor_pb_umku": null,
        "nama": "Selena Pegadaian",
        "website": "https://selena.pegadaian.co.id/",
        "sektor": "Sektor Keuangan",
        "nama_perusahaan": "PEGADAIAN",
        "tanggal_daftar": "2021-11-30",
        "nomor_tanda_daftar": "001631.10/DJAI.PSE/11/2021",
        "qr_code": "https://pse.kominfo.go.id/storage/images/qr_code/131092ee71555f57393b7bd77d721e09.png",
        "status_id": "TERDAFTAR",
        "sistem_elektronik_id": 1671
      }
    },
    {
      "type": "tdpseTerbit",
      "id": 2523,
      "attributes": {
        "nomor_pb_umku": null,
        "nama": "PEGADAIAN Helpdesk App. System",
        "website": "\"https://ariana.pegadaian.co.id/ atau https://jira.pegadaian.co.id/customer \"",
        "sektor": "Sektor Keuangan",
        "nama_perusahaan": "PEGADAIAN",
        "tanggal_daftar": "2021-11-30",
        "nomor_tanda_daftar": "001631.09/DJAI.PSE/11/2021",
        "qr_code": "https://pse.kominfo.go.id/storage/images/qr_code/9639adbc84a364fd637422389f72fac8.png",
        "status_id": "TERDAFTAR",
        "sistem_elektronik_id": 1670
      }
    },
    {
      "type": "tdpseTerbit",
      "id": 2522,
      "attributes": {
        "nomor_pb_umku": null,
        "nama": "GALERI 24",
        "website": "http://emas.pegadaian.co.id/",
        "sektor": "Sektor Keuangan",
        "nama_perusahaan": "PEGADAIAN",
        "tanggal_daftar": "2021-11-30",
        "nomor_tanda_daftar": "001631.08/DJAI.PSE/11/2021",
        "qr_code": "https://pse.kominfo.go.id/storage/images/qr_code/28e2de189dcdb4e5233734a2d1f412c0.png",
        "status_id": "TERDAFTAR",
        "sistem_elektronik_id": 1669
      }
    },
    {
      "type": "tdpseTerbit",
      "id": 2521,
      "attributes": {
        "nomor_pb_umku": null,
        "nama": "KEILA",
        "website": "https://keila.pegadaian.co.id/",
        "sektor": "Sektor Keuangan",
        "nama_perusahaan": "PEGADAIAN",
        "tanggal_daftar": "2021-11-30",
        "nomor_tanda_daftar": "001631.07/DJAI.PSE/11/2021",
        "qr_code": "https://pse.kominfo.go.id/storage/images/qr_code/7b9c357d8e624612d629d0e5cb42eac9.png",
        "status_id": "TERDAFTAR",
        "sistem_elektronik_id": 1668
      }
    },
    {
      "type": "tdpseTerbit",
      "id": 2520,
      "attributes": {
        "nomor_pb_umku": null,
        "nama": "DANISA",
        "website": "https://danisa.pegadaian.co.id/",
        "sektor": "Sektor Keuangan",
        "nama_perusahaan": "PEGADAIAN",
        "tanggal_daftar": "2021-11-30",
        "nomor_tanda_daftar": "001631.06/DJAI.PSE/11/2021",
        "qr_code": "https://pse.kominfo.go.id/storage/images/qr_code/b987a48bf07c9a5351f75bcdf79bbf63.png",
        "status_id": "TERDAFTAR",
        "sistem_elektronik_id": 1667
      }
    },
    {
      "type": "tdpseTerbit",
      "id": 2519,
      "attributes": {
        "nomor_pb_umku": null,
        "nama": "PASSION - Syariah",
        "website": "http://syariah.pegadaian.co.id/",
        "sektor": "Sektor Keuangan",
        "nama_perusahaan": "PEGADAIAN",
        "tanggal_daftar": "2021-11-30",
        "nomor_tanda_daftar": "001631.05/DJAI.PSE/11/2021",
        "qr_code": "https://pse.kominfo.go.id/storage/images/qr_code/bcdb351a67ded45814f983fd38b4435c.png",
        "status_id": "TERDAFTAR",
        "sistem_elektronik_id": 1666
      }
    },
    {
      "type": "tdpseTerbit",
      "id": 2518,
      "attributes": {
        "nomor_pb_umku": null,
        "nama": "PASSION - Konvensional",
        "website": "http://passion.pegadaian.co.id/",
        "sektor": "Sektor Keuangan",
        "nama_perusahaan": "PEGADAIAN",
        "tanggal_daftar": "2021-11-30",
        "nomor_tanda_daftar": "001631.04/DJAI.PSE/11/2021",
        "qr_code": "https://pse.kominfo.go.id/storage/images/qr_code/20f395ca1f1abb70ca149cc795cc4af3.png",
        "status_id": "TERDAFTAR",
        "sistem_elektronik_id": 1665
      }
    }
  ]
}