{
  "meta": {
    "page": {
      "currentPage": 671,
      "from": 6701,
      "lastPage": 1041,
      "perPage": 10,
      "to": 6710,
      "total": 10407
    }
  },
  "data": [
    {
      "type": "tdpseTerbit",
      "id": 3001,
      "attributes": {
        "nomor_pb_umku": null,
        "nama": "autodigital",
        "website": "-",
        "sektor": "Sektor Teknologi Informasi dan Komunikasi",
        "nama_perusahaan": "AUTO TEKNOLOGI DIGITAL",
        "tanggal_daftar": "2022-01-09",
        "nomor_tanda_daftar": "001917.01/DJAI.PSE/01/2022",
        "qr_code": "https://pse.kominfo.go.id/storage/images/qr_code/2a8644ef30ef8a6eb2972db90c2aaa4d.png",
        "status_id": "TERDAFTAR",
        "sistem_elektronik_id": 2015
      }
    },
    {
      "type": "tdpseTerbit",
      "id": 3000,
      "attributes": {
        "nomor_pb_umku": null,
        "nama": "Samsung Galaxy A52s 5G",
        "website": "-",
        "sektor": "Sektor Teknologi Informasi dan Komunikasi",
        "nama_perusahaan": "ADDE SETYA HANASTA",
        "tanggal_daftar": "2022-01-09",
        "nomor_tanda_daftar": "001916.01/DJAI.PSE/01/2022",
        "qr_code": "https://pse.kominfo.go.id/storage/images/qr_code/4e5204f9cdb2406eeff398b57bc60c59.png",
        "status_id": "TERDAFTAR",
        "sistem_elektronik_id": 2040
      }
    },
    {
      "type": "tdpseTerbit",
      "id": 2999,
      "attributes": {
        "nomor_pb_umku": null,
        "nama": "vKios",
        "website": "vkios.com",
        "sektor": "Sektor Teknologi Informasi dan Komunikasi",
        "nama_perusahaan": "DENNY HARIANTO, S.KOM",
        "tanggal_daftar": "2022-01-08",
        "nomor_tanda_daftar": "001915.01/DJAI.PSE/01/2022",
        "qr_code": "https://pse.kominfo.go.id/storage/images/qr_code/69503723f90a88e31670aee61b155afa.png",
        "status_id": "TERDAFTAR",
        "sistem_elektronik_id": 2039
      }
    },
    {
      "type": "tdpseTerbit",
      "id": 2998,
      "attributes": {
        "nomor_pb_umku": null,
        "nama": "studiocyclingid",
        "website": "studiocyclingid.com",
        "sektor": "Sektor Perdagangan",
        "nama_perusahaan": "STUDIO CYCLING INDONESIA",
        "tanggal_daftar": "2022-01-08",
        "nomor_tanda_daftar": "001914.01/DJAI.PSE/01/2022",
        "qr_code": "https://pse.kominfo.go.id/storage/images/qr_code/144b03479ed315d0e7cb2ebb58fbea2f.png",
        "status_id": "TERDAFTAR",
        "sistem_elektronik_id": 2038
      }
    },
    {
      "type": "tdpseTerbit",
      "id": 3008,
      "attributes": {
        "nomor_pb_umku": null,
        "nama": "Data Security Center Payung Agung",
        "website": "-",
        "sektor": "Sektor Perdagangan, Sektor Teknologi Informasi dan Komunikasi",
        "nama_perusahaan": "PAYUNG AGUNG",
        "tanggal_daftar": "2022-01-10",
        "nomor_tanda_daftar": "001913.03/DJAI.PSE/01/2022",
        "qr_code": "https://pse.kominfo.go.id/storage/images/qr_code/3061ef58c81556cf5e22ce0b8979aa8a.png",
        "status_id": "TERDAFTAR",
        "sistem_elektronik_id": 2037
      }
    },
    {
      "type": "tdpseTerbit",
      "id": 3006,
      "attributes": {
        "nomor_pb_umku": null,
        "nama": "Payung Agung",
        "website": "-",
        "sektor": "Sektor Perdagangan, Sektor Teknologi Informasi dan Komunikasi",
        "nama_perusahaan": "PAYUNG AGUNG",
        "tanggal_daftar": "2022-01-10",
        "nomor_tanda_daftar": "001913.02/DJAI.PSE/01/2022",
        "qr_code": "https://pse.kominfo.go.id/storage/images/qr_code/f436d2f34e74509b640b9a5faaf7b205.png",
        "status_id": "TERDAFTAR",
        "sistem_elektronik_id": 2036
      }
    },
    {
      "type": "tdpseTerbit",
      "id": 2997,
      "attributes": {
        "nomor_pb_umku": null,
        "nama": "Aktivitas Pemrograman, Konsultasi Komputer dan Kebutuhan Lainnya",
        "website": "-",
        "sektor": "Sektor Teknologi Informasi dan Komunikasi",
        "nama_perusahaan": "PAYUNG AGUNG",
        "tanggal_daftar": "2022-01-08",
        "nomor_tanda_daftar": "001913.01/DJAI.PSE/01/2022",
        "qr_code": "https://pse.kominfo.go.id/storage/images/qr_code/6b1a2a374c63d6908e09c48f0b02fc41.png",
        "status_id": "TERDAFTAR",
        "sistem_elektronik_id": 2035
      }
    },
    {
      "type": "tdpseTerbit",
      "id": 2996,
      "attributes": {
        "nomor_pb_umku": null,
        "nama": "Snapvybes",
        "website": "snapvybes.com",
        "sektor": "Sektor Perdagangan, Sektor Teknologi Informasi dan Komunikasi",
        "nama_perusahaan": "HERLAMBANG DIAH SETIAWAN",
        "tanggal_daftar": "2022-01-07",
        "nomor_tanda_daftar": "001912.01/DJAI.PSE/01/2022",
        "qr_code": "https://pse.kominfo.go.id/storage/images/qr_code/ad4f755dc738b5c19156eb82e54d12d6.png",
        "status_id": "TERDAFTAR",
        "sistem_elektronik_id": 2034
      }
    },
    {
      "type": "tdpseTerbit",
      "id": 3299,
      "attributes": {
        "nomor_pb_umku": null,
        "nama": "Asik Aplikasi Pelaku Usaha Mikro Kota Bandung",
        "website": "asik.official.id",
        "sektor": "Sektor Perdagangan, Sektor Teknologi Informasi dan Komunikasi",
        "nama_perusahaan": "GLOBAL INOVASI STRATEGIS",
        "tanggal_daftar": "2022-02-18",
        "nomor_tanda_daftar": "001911.02/DJAI.PSE/02/2022",
        "qr_code": "https://pse.kominfo.go.id/storage/images/qr_code/6df5a652dd9b81c314ca3d46c379181c.png",
        "status_id": "TERDAFTAR",
        "sistem_elektronik_id": 3423
      }
    },
    {
      "type": "tdpseTerbit",
      "id": 2994,
      "attributes": {
        "nomor_pb_umku": null,
        "nama": "Official.id",
        "website": "official.id",
        "sektor": "Sektor Teknologi Informasi dan Komunikasi",
        "nama_perusahaan": "GLOBAL INOVASI STRATEGIS",
        "tanggal_daftar": "2022-01-07",
        "nomor_tanda_daftar": "001911.01/DJAI.PSE/01/2022",
        "qr_code": "https://pse.kominfo.go.id/storage/images/qr_code/b9f03100d12b5f9a5c0e32152b23216f.png",
        "status_id": "TERDAFTAR",
        "sistem_elektronik_id": 3422
      }
    }
  ]
}