{
  "meta": {
    "page": {
      "currentPage": 673,
      "from": 6721,
      "lastPage": 1068,
      "perPage": 10,
      "to": 6730,
      "total": 10675
    }
  },
  "data": [
    {
      "type": "tdpseTerbit",
      "id": 3226,
      "attributes": {
        "nomor_pb_umku": null,
        "nama": "NANOBIRU INTERNATIONAL INDONESIA",
        "website": "http://www.nanobiru.id/",
        "sektor": "Sektor Perdagangan",
        "nama_perusahaan": "NANOBIRU INTERNATIONAL INDONESIA",
        "tanggal_daftar": "2022-02-11",
        "nomor_tanda_daftar": "002089.02/DJAI.PSE/02/2022",
        "qr_code": "https://pse.kominfo.go.id/storage/images/qr_code/965be1b4ec56de329da1d061b7c1dbf0.png",
        "status_id": "TERDAFTAR",
        "sistem_elektronik_id": 2191
      }
    },
    {
      "type": "tdpseTerbit",
      "id": 3225,
      "attributes": {
        "nomor_pb_umku": null,
        "nama": "-\tPT. NANOBIRU INTERNATIONAL INDONESIA",
        "website": "http://www.nanobiru.id/",
        "sektor": "Sektor Keuangan, Sektor Perdagangan, Sektor Teknologi Informasi dan Komunikasi",
        "nama_perusahaan": "NANOBIRU INTERNATIONAL INDONESIA",
        "tanggal_daftar": "2022-02-11",
        "nomor_tanda_daftar": "002089.01/DJAI.PSE/02/2022",
        "qr_code": "https://pse.kominfo.go.id/storage/images/qr_code/a70934ca027ef085492e43ba88d74b59.png",
        "status_id": "TERDAFTAR",
        "sistem_elektronik_id": 2190
      }
    },
    {
      "type": "tdpseTerbit",
      "id": 3224,
      "attributes": {
        "nomor_pb_umku": null,
        "nama": "Dokat.id",
        "website": "dokat.id",
        "sektor": "Sektor Perdagangan, Sektor Teknologi Informasi dan Komunikasi",
        "nama_perusahaan": "DOKAT BERSAMA TEKNOLOGI",
        "tanggal_daftar": "2022-02-10",
        "nomor_tanda_daftar": "002088.01/DJAI.PSE/02/2022",
        "qr_code": "https://pse.kominfo.go.id/storage/images/qr_code/f464fc8ce69c5156331da25b67e21915.png",
        "status_id": "TERDAFTAR",
        "sistem_elektronik_id": 3176
      }
    },
    {
      "type": "tdpseTerbit",
      "id": 3223,
      "attributes": {
        "nomor_pb_umku": null,
        "nama": "Beujek",
        "website": "www.beujek.id",
        "sektor": "Sektor Keuangan, Sektor Perdagangan, Sektor Teknologi Informasi dan Komunikasi, Sektor Transportasi",
        "nama_perusahaan": "BEU ABADI NUSANTARA",
        "tanggal_daftar": "2022-02-10",
        "nomor_tanda_daftar": "002087.01/DJAI.PSE/02/2022",
        "qr_code": "https://pse.kominfo.go.id/storage/images/qr_code/988258f716f2db72760c8ce6d87534aa.png",
        "status_id": "TERDAFTAR",
        "sistem_elektronik_id": 2187
      }
    },
    {
      "type": "tdpseTerbit",
      "id": 3222,
      "attributes": {
        "nomor_pb_umku": null,
        "nama": "MMC MINERS",
        "website": "MMCTI.COM",
        "sektor": "Sektor Teknologi Informasi dan Komunikasi",
        "nama_perusahaan": "MMC TEKNOLOGI INDONESIA",
        "tanggal_daftar": "2022-02-10",
        "nomor_tanda_daftar": "002086.01/DJAI.PSE/02/2022",
        "qr_code": "https://pse.kominfo.go.id/storage/images/qr_code/d4074504a335f57a7d8870bd16e29519.png",
        "status_id": "TERDAFTAR",
        "sistem_elektronik_id": 2065
      }
    },
    {
      "type": "tdpseTerbit",
      "id": 3221,
      "attributes": {
        "nomor_pb_umku": null,
        "nama": "pelitapedia.com",
        "website": "pelitapedia.com",
        "sektor": "Sektor Perdagangan",
        "nama_perusahaan": "PELITA MEDIA NUSANTARA",
        "tanggal_daftar": "2022-02-10",
        "nomor_tanda_daftar": "002085.01/DJAI.PSE/02/2022",
        "qr_code": "https://pse.kominfo.go.id/storage/images/qr_code/3b0dfe43ad63c32a94eeb3d599a9155d.png",
        "status_id": "TERDAFTAR",
        "sistem_elektronik_id": 2185
      }
    },
    {
      "type": "tdpseTerbit",
      "id": 11322,
      "attributes": {
        "nomor_pb_umku": "912010762183100010004",
        "nama": "PENAWARAN EFEK MELALUI LAYANAN URUN DANA BERBASIS TEKNOLOGI INFORMASI (SECURITIES CROWDFUNDING) - APLIKASI MOBILE",
        "website": "-",
        "sektor": "Sektor Keuangan, Sektor Teknologi Informasi dan Komunikasi",
        "nama_perusahaan": "LIKUID JAYA PRATAMA",
        "tanggal_daftar": "2022-09-22",
        "nomor_tanda_daftar": "002084.04/DJAI.PSE/09/2022",
        "qr_code": "https://pse.kominfo.go.id/storage/images/qr_code/0006d9a7a6b25f00c7456968e559080c.png",
        "status_id": "TERDAFTAR",
        "sistem_elektronik_id": 11127
      }
    },
    {
      "type": "tdpseTerbit",
      "id": 10083,
      "attributes": {
        "nomor_pb_umku": "912010762183100010003",
        "nama": "PENAWARAN EFEK MELALUI LAYANAN URUN DANA BERBASIS TEKNOLOGI INFORMASI (SECURITIES CROWDFUNDING) - APLIKASI",
        "website": "-",
        "sektor": "Sektor Keuangan, Sektor Teknologi Informasi dan Komunikasi",
        "nama_perusahaan": "LIKUID JAYA PRATAMA",
        "tanggal_daftar": "2022-08-09",
        "nomor_tanda_daftar": "002084.03/DJAI.PSE/08/2022",
        "qr_code": "https://pse.kominfo.go.id/storage/images/qr_code/1208b55779175b2b49aca632285051f9.png",
        "status_id": "TERDAFTAR",
        "sistem_elektronik_id": 9972
      }
    },
    {
      "type": "tdpseTerbit",
      "id": 10082,
      "attributes": {
        "nomor_pb_umku": "912010762183100010002",
        "nama": "PENAWARAN EFEK MELALUI LAYANAN URUN DANA BERBASIS TEKNOLOGI INFORMASI (APLIKASI SECURITIES CROWDFUNDING)",
        "website": "-",
        "sektor": "Sektor Keuangan, Sektor Teknologi Informasi dan Komunikasi",
        "nama_perusahaan": "LIKUID JAYA PRATAMA",
        "tanggal_daftar": "2022-08-09",
        "nomor_tanda_daftar": "002084.02/DJAI.PSE/08/2022",
        "qr_code": "https://pse.kominfo.go.id/storage/images/qr_code/a522bfa3f30edf49aca029d0db8a8841.png",
        "status_id": "TERDAFTAR",
        "sistem_elektronik_id": 9970
      }
    },
    {
      "type": "tdpseTerbit",
      "id": 3220,
      "attributes": {
        "nomor_pb_umku": null,
        "nama": "Penawaran Efek Melalui Layanan Urun Dana Berbasis Teknologi Informasi (Securities Crowdfunding)",
        "website": "eku.id",
        "sektor": "Sektor Keuangan, Sektor Teknologi Informasi dan Komunikasi",
        "nama_perusahaan": "LIKUID JAYA PRATAMA",
        "tanggal_daftar": "2022-02-10",
        "nomor_tanda_daftar": "002084.01/DJAI.PSE/02/2022",
        "qr_code": "https://pse.kominfo.go.id/storage/images/qr_code/50cbd8ccc84d56053bb80744d04fa80a.png",
        "status_id": "TERDAFTAR",
        "sistem_elektronik_id": 130
      }
    }
  ]
}