{
  "meta": {
    "page": {
      "currentPage": 674,
      "from": 6731,
      "lastPage": 1089,
      "perPage": 10,
      "to": 6740,
      "total": 10885
    }
  },
  "data": [
    {
      "type": "tdpseTerbit",
      "id": 3416,
      "attributes": {
        "nomor_pb_umku": null,
        "nama": "MEGA_RIANA",
        "website": "-",
        "sektor": "Sektor Kesehatan, Sektor Keuangan, Sektor Pangan, Sektor Perdagangan",
        "nama_perusahaan": "MEGA RIANA",
        "tanggal_daftar": "2022-03-02",
        "nomor_tanda_daftar": "002221.01/DJAI.PSE/03/2022",
        "qr_code": "https://pse.kominfo.go.id/storage/images/qr_code/fb836b681c844fd5dd99763dbe3ae3f1.png",
        "status_id": "TERDAFTAR",
        "sistem_elektronik_id": 2834
      }
    },
    {
      "type": "tdpseTerbit",
      "id": 9925,
      "attributes": {
        "nomor_pb_umku": "281221002470600000002",
        "nama": "MASJED",
        "website": "ziswaf.masjed.id",
        "sektor": "Sektor Teknologi Informasi dan Komunikasi",
        "nama_perusahaan": "MASJED INDONESIA DIGITAL",
        "tanggal_daftar": "2022-08-05",
        "nomor_tanda_daftar": "002220.02/DJAI.PSE/08/2022",
        "qr_code": "https://pse.kominfo.go.id/storage/images/qr_code/110e4aeece0d0f84c8a65978cdafc352.png",
        "status_id": "TERDAFTAR",
        "sistem_elektronik_id": 9811
      }
    },
    {
      "type": "tdpseTerbit",
      "id": 3415,
      "attributes": {
        "nomor_pb_umku": null,
        "nama": "Usaha Serambi",
        "website": "admin.masjed.id",
        "sektor": "Sektor Teknologi Informasi dan Komunikasi",
        "nama_perusahaan": "MASJED INDONESIA DIGITAL",
        "tanggal_daftar": "2022-03-02",
        "nomor_tanda_daftar": "002220.01/DJAI.PSE/03/2022",
        "qr_code": "https://pse.kominfo.go.id/storage/images/qr_code/ce83a2050cf2c425eafac0d5c1e43121.png",
        "status_id": "TERDAFTAR",
        "sistem_elektronik_id": 2835
      }
    },
    {
      "type": "tdpseTerbit",
      "id": 3414,
      "attributes": {
        "nomor_pb_umku": null,
        "nama": "digimap.co.id",
        "website": "digimap.co.id",
        "sektor": "Sektor Perdagangan",
        "nama_perusahaan": "MAP ZONA ADIPERKASA",
        "tanggal_daftar": "2022-03-02",
        "nomor_tanda_daftar": "002219.01/DJAI.PSE/03/2022",
        "qr_code": "https://pse.kominfo.go.id/storage/images/qr_code/b54f309d72f55440b7481894166b4402.png",
        "status_id": "TERDAFTAR",
        "sistem_elektronik_id": 2296
      }
    },
    {
      "type": "tdpseTerbit",
      "id": 3413,
      "attributes": {
        "nomor_pb_umku": null,
        "nama": "cakra.com",
        "website": "biskori.com",
        "sektor": "Sektor Perdagangan, Sektor Teknologi Informasi dan Komunikasi",
        "nama_perusahaan": "CAKRA SINAR GEMILANG",
        "tanggal_daftar": "2022-03-02",
        "nomor_tanda_daftar": "002218.01/DJAI.PSE/03/2022",
        "qr_code": "https://pse.kominfo.go.id/storage/images/qr_code/4df0a9cd4263a44f97b045cfb9282978.png",
        "status_id": "TERDAFTAR",
        "sistem_elektronik_id": 2222
      }
    },
    {
      "type": "tdpseTerbit",
      "id": 3412,
      "attributes": {
        "nomor_pb_umku": null,
        "nama": "GFonline",
        "website": "www.gfonline.id",
        "sektor": "Sektor Teknologi Informasi dan Komunikasi",
        "nama_perusahaan": "TEKNOLOGI BERTEMAN INDONESIA",
        "tanggal_daftar": "2022-03-02",
        "nomor_tanda_daftar": "002217.01/DJAI.PSE/03/2022",
        "qr_code": "https://pse.kominfo.go.id/storage/images/qr_code/8db327d06d8789c8f13288dc00747d61.png",
        "status_id": "TERDAFTAR",
        "sistem_elektronik_id": 2294
      }
    },
    {
      "type": "tdpseTerbit",
      "id": 3411,
      "attributes": {
        "nomor_pb_umku": null,
        "nama": "partojambe",
        "website": "www.partojambe.com",
        "sektor": "Sektor Perdagangan",
        "nama_perusahaan": "AFFAN TECHNOLOGY",
        "tanggal_daftar": "2022-03-01",
        "nomor_tanda_daftar": "002216.01/DJAI.PSE/03/2022",
        "qr_code": "https://pse.kominfo.go.id/storage/images/qr_code/b7df24a16675f57717163577f8713fd9.png",
        "status_id": "TERDAFTAR",
        "sistem_elektronik_id": 2295
      }
    },
    {
      "type": "tdpseTerbit",
      "id": 3410,
      "attributes": {
        "nomor_pb_umku": null,
        "nama": "Oss",
        "website": "http://oss.go.id/oss/.",
        "sektor": "Sektor Pangan",
        "nama_perusahaan": "HARUN H. EKSAN",
        "tanggal_daftar": "2022-03-01",
        "nomor_tanda_daftar": "002215.01/DJAI.PSE/03/2022",
        "qr_code": "https://pse.kominfo.go.id/storage/images/qr_code/85f040dd1d71ac2fdab560e4aac3b0fe.png",
        "status_id": "TERDAFTAR",
        "sistem_elektronik_id": 2231
      }
    },
    {
      "type": "tdpseTerbit",
      "id": 3409,
      "attributes": {
        "nomor_pb_umku": null,
        "nama": "LUXEHOUZE",
        "website": "luxehouze.com",
        "sektor": "Sektor Perdagangan, Sektor Teknologi Informasi dan Komunikasi",
        "nama_perusahaan": "LUXEHOUZE GROUP INDONESIA",
        "tanggal_daftar": "2022-03-01",
        "nomor_tanda_daftar": "002214.01/DJAI.PSE/03/2022",
        "qr_code": "https://pse.kominfo.go.id/storage/images/qr_code/6deef265ab82142876a7d3234db0a85d.png",
        "status_id": "TERDAFTAR",
        "sistem_elektronik_id": 2276
      }
    },
    {
      "type": "tdpseTerbit",
      "id": 3429,
      "attributes": {
        "nomor_pb_umku": null,
        "nama": "KLIKOO",
        "website": "www.klikoo.co.id",
        "sektor": "Sektor Perdagangan",
        "nama_perusahaan": "PINTAR VENTURA PERTAMA",
        "tanggal_daftar": "2022-03-04",
        "nomor_tanda_daftar": "002213.02/DJAI.PSE/03/2022",
        "qr_code": "https://pse.kominfo.go.id/storage/images/qr_code/f52318a8bbfc93714b5fbe077500ed3c.png",
        "status_id": "TERDAFTAR",
        "sistem_elektronik_id": 3187
      }
    }
  ]
}