{
  "meta": {
    "page": {
      "currentPage": 675,
      "from": 6741,
      "lastPage": 1056,
      "perPage": 10,
      "to": 6750,
      "total": 10553
    }
  },
  "data": [
    {
      "type": "tdpseTerbit",
      "id": 7835,
      "attributes": {
        "nomor_pb_umku": "091221004288500000003",
        "nama": "PLATFORM PRE-O",
        "website": "pre-o.co.id",
        "sektor": "Sektor Perdagangan",
        "nama_perusahaan": "BIZTECH JAYA MAKMUR",
        "tanggal_daftar": "2022-07-20",
        "nomor_tanda_daftar": "001997.03/DJAI.PSE/07/2022",
        "qr_code": "https://pse.kominfo.go.id/storage/images/qr_code/0a67b03760e9f0137682f6ff947a8310.png",
        "status_id": "TERDAFTAR",
        "sistem_elektronik_id": 7762
      }
    },
    {
      "type": "tdpseTerbit",
      "id": 3105,
      "attributes": {
        "nomor_pb_umku": null,
        "nama": "Aplikasi Pre-O",
        "website": "pre-o.co.id",
        "sektor": "Sektor Perdagangan",
        "nama_perusahaan": "BIZTECH JAYA MAKMUR",
        "tanggal_daftar": "2022-01-25",
        "nomor_tanda_daftar": "001997.02/DJAI.PSE/01/2022",
        "qr_code": "https://pse.kominfo.go.id/storage/images/qr_code/6bec53056098b60359d3efc5a95f6863.png",
        "status_id": "TERDAFTAR",
        "sistem_elektronik_id": 2079
      }
    },
    {
      "type": "tdpseTerbit",
      "id": 3103,
      "attributes": {
        "nomor_pb_umku": null,
        "nama": "Pre-O",
        "website": "pre-o.co.id",
        "sektor": "Sektor Perdagangan",
        "nama_perusahaan": "BIZTECH JAYA MAKMUR",
        "tanggal_daftar": "2022-01-25",
        "nomor_tanda_daftar": "001997.01/DJAI.PSE/01/2022",
        "qr_code": "https://pse.kominfo.go.id/storage/images/qr_code/c987864efb28adc3dc96b19a63219cf4.png",
        "status_id": "TERDAFTAR",
        "sistem_elektronik_id": 2078
      }
    },
    {
      "type": "tdpseTerbit",
      "id": 3102,
      "attributes": {
        "nomor_pb_umku": null,
        "nama": "SIPLah Blibli",
        "website": "https://siplah.blibli.com/",
        "sektor": "Sektor Perdagangan",
        "nama_perusahaan": "SULUNG PRATAMA ESENSI DIGITAL",
        "tanggal_daftar": "2022-01-25",
        "nomor_tanda_daftar": "001996.01/DJAI.PSE/01/2022",
        "qr_code": "https://pse.kominfo.go.id/storage/images/qr_code/4a560d2492ae80a8abd1b738070bf461.png",
        "status_id": "TERDAFTAR",
        "sistem_elektronik_id": 2115
      }
    },
    {
      "type": "tdpseTerbit",
      "id": 3101,
      "attributes": {
        "nomor_pb_umku": null,
        "nama": "Warung Pintar",
        "website": "www.warungpintar.co.id",
        "sektor": "Sektor Perdagangan",
        "nama_perusahaan": "WARUNG PINTAR SEKALI",
        "tanggal_daftar": "2022-01-24",
        "nomor_tanda_daftar": "001995.01/DJAI.PSE/01/2022",
        "qr_code": "https://pse.kominfo.go.id/storage/images/qr_code/ffac259eedcfb32a123fc25912c809cc.png",
        "status_id": "TERDAFTAR",
        "sistem_elektronik_id": 3362
      }
    },
    {
      "type": "tdpseTerbit",
      "id": 3100,
      "attributes": {
        "nomor_pb_umku": null,
        "nama": "Globaltix",
        "website": "Globaltix.com",
        "sektor": "Sektor Perdagangan, Sektor Teknologi Informasi dan Komunikasi, Sektor Transportasi",
        "nama_perusahaan": "GLOBALTIX TEKNOLOGI INDONESIA",
        "tanggal_daftar": "2022-01-24",
        "nomor_tanda_daftar": "001994.01/DJAI.PSE/01/2022",
        "qr_code": "https://pse.kominfo.go.id/storage/images/qr_code/9a2dadb1c02bc379754596bf3d746765.png",
        "status_id": "TERDAFTAR",
        "sistem_elektronik_id": 1949
      }
    },
    {
      "type": "tdpseTerbit",
      "id": 3705,
      "attributes": {
        "nomor_pb_umku": null,
        "nama": "www.dapursolo.com",
        "website": "dapursolo.com",
        "sektor": "Sektor Perdagangan",
        "nama_perusahaan": "DAPUR SOLO MUSTIKA NUSANTARA",
        "tanggal_daftar": "2022-03-30",
        "nomor_tanda_daftar": "001993.03/DJAI.PSE/03/2022",
        "qr_code": "https://pse.kominfo.go.id/storage/images/qr_code/ef292d9e4476f19c486915859c90bc80.png",
        "status_id": "TERDAFTAR",
        "sistem_elektronik_id": 3555
      }
    },
    {
      "type": "tdpseTerbit",
      "id": 3661,
      "attributes": {
        "nomor_pb_umku": null,
        "nama": "Dapur Solo",
        "website": "dapursolo.com",
        "sektor": "Sektor Perdagangan",
        "nama_perusahaan": "DAPUR SOLO MUSTIKA NUSANTARA",
        "tanggal_daftar": "2022-03-26",
        "nomor_tanda_daftar": "001993.02/DJAI.PSE/03/2022",
        "qr_code": "https://pse.kominfo.go.id/storage/images/qr_code/eb6add934d25bab2b6a64fc5e3a91280.png",
        "status_id": "TERDAFTAR",
        "sistem_elektronik_id": 3554
      }
    },
    {
      "type": "tdpseTerbit",
      "id": 3099,
      "attributes": {
        "nomor_pb_umku": null,
        "nama": "Dapur solo web order",
        "website": "www.dapursolo.com",
        "sektor": "Sektor Perdagangan",
        "nama_perusahaan": "DAPUR SOLO MUSTIKA NUSANTARA",
        "tanggal_daftar": "2022-01-24",
        "nomor_tanda_daftar": "001993.01/DJAI.PSE/01/2022",
        "qr_code": "https://pse.kominfo.go.id/storage/images/qr_code/6342e26164b233768ab5752eebc64cbd.png",
        "status_id": "TERDAFTAR",
        "sistem_elektronik_id": 2914
      }
    },
    {
      "type": "tdpseTerbit",
      "id": 3097,
      "attributes": {
        "nomor_pb_umku": null,
        "nama": "PT BINTANG MULYA SELATAN",
        "website": "domain",
        "sektor": "Sektor Pangan, Sektor Perdagangan, Sektor Teknologi Informasi dan Komunikasi",
        "nama_perusahaan": "BINTANG MULYA SELATAN",
        "tanggal_daftar": "2022-01-24",
        "nomor_tanda_daftar": "001992.01/DJAI.PSE/01/2022",
        "qr_code": "https://pse.kominfo.go.id/storage/images/qr_code/286e8f76e51198c77132194060c531c7.png",
        "status_id": "TERDAFTAR",
        "sistem_elektronik_id": 2107
      }
    }
  ]
}