{
  "meta": {
    "page": {
      "currentPage": 676,
      "from": 6751,
      "lastPage": 945,
      "perPage": 10,
      "to": 6760,
      "total": 9449
    }
  },
  "data": [
    {
      "type": "tdpseTerbit",
      "id": 9792,
      "attributes": {
        "nomor_pb_umku": "912030449041501120064",
        "nama": "MYTENS",
        "website": "mytens.co.id",
        "sektor": "Sektor Teknologi Informasi dan Komunikasi",
        "nama_perusahaan": "PERUSAHAAN PERSEROAN (PERSERO) PT. TELEKOMUNIKASI INDONESIA",
        "tanggal_daftar": "2022-08-03",
        "nomor_tanda_daftar": "001331.59/DJAI.PSE/08/2022",
        "qr_code": "https://pse.kominfo.go.id/storage/images/qr_code/8b5ce3441e7381069b48910af2e4253e.png",
        "status_id": "TERDAFTAR",
        "sistem_elektronik_id": 9668
      }
    },
    {
      "type": "tdpseTerbit",
      "id": 9791,
      "attributes": {
        "nomor_pb_umku": "912030449041501120063",
        "nama": "LEAP",
        "website": "leap.digitalbisa.id",
        "sektor": "Sektor Teknologi Informasi dan Komunikasi",
        "nama_perusahaan": "PERUSAHAAN PERSEROAN (PERSERO) PT. TELEKOMUNIKASI INDONESIA",
        "tanggal_daftar": "2022-08-03",
        "nomor_tanda_daftar": "001331.58/DJAI.PSE/08/2022",
        "qr_code": "https://pse.kominfo.go.id/storage/images/qr_code/361b7313712173bcdf8cbf4a3b33efdd.png",
        "status_id": "TERDAFTAR",
        "sistem_elektronik_id": 9664
      }
    },
    {
      "type": "tdpseTerbit",
      "id": 9161,
      "attributes": {
        "nomor_pb_umku": "912030449041501110062",
        "nama": "INRATE MEDIA RATING ANALYTICS",
        "website": "urbanrate.id",
        "sektor": "Sektor Teknologi Informasi dan Komunikasi",
        "nama_perusahaan": "PERUSAHAAN PERSEROAN (PERSERO) PT. TELEKOMUNIKASI INDONESIA",
        "tanggal_daftar": "2022-07-27",
        "nomor_tanda_daftar": "001331.57/DJAI.PSE/07/2022",
        "qr_code": "https://pse.kominfo.go.id/storage/images/qr_code/59b716a1ea0042728e9d31df99f9c835.png",
        "status_id": "TERDAFTAR",
        "sistem_elektronik_id": 9067
      }
    },
    {
      "type": "tdpseTerbit",
      "id": 9160,
      "attributes": {
        "nomor_pb_umku": "912030449041501110061",
        "nama": "LOGEE FULFILLMENT",
        "website": "logeefulfillment.id",
        "sektor": "Sektor Perdagangan, Sektor Teknologi Informasi dan Komunikasi",
        "nama_perusahaan": "PERUSAHAAN PERSEROAN (PERSERO) PT. TELEKOMUNIKASI INDONESIA",
        "tanggal_daftar": "2022-07-27",
        "nomor_tanda_daftar": "001331.56/DJAI.PSE/07/2022",
        "qr_code": "https://pse.kominfo.go.id/storage/images/qr_code/dc5f4dd4cb1d7d964b6b64e6e2d9f51e.png",
        "status_id": "TERDAFTAR",
        "sistem_elektronik_id": 9066
      }
    },
    {
      "type": "tdpseTerbit",
      "id": 9157,
      "attributes": {
        "nomor_pb_umku": "912030449041501110060",
        "nama": "AGREE MARKET",
        "website": "market.agreeculture.id",
        "sektor": "Sektor Perdagangan",
        "nama_perusahaan": "PERUSAHAAN PERSEROAN (PERSERO) PT. TELEKOMUNIKASI INDONESIA",
        "tanggal_daftar": "2022-07-27",
        "nomor_tanda_daftar": "001331.55/DJAI.PSE/07/2022",
        "qr_code": "https://pse.kominfo.go.id/storage/images/qr_code/50f0aa5372ad3a53b69a0e816f1380fb.png",
        "status_id": "TERDAFTAR",
        "sistem_elektronik_id": 9063
      }
    },
    {
      "type": "tdpseTerbit",
      "id": 9156,
      "attributes": {
        "nomor_pb_umku": "912030449041501110060",
        "nama": "PICASO E-KYC",
        "website": "picaso.id",
        "sektor": "Sektor Perdagangan, Sektor Teknologi Informasi dan Komunikasi",
        "nama_perusahaan": "PERUSAHAAN PERSEROAN (PERSERO) PT. TELEKOMUNIKASI INDONESIA",
        "tanggal_daftar": "2022-07-27",
        "nomor_tanda_daftar": "001331.54/DJAI.PSE/07/2022",
        "qr_code": "https://pse.kominfo.go.id/storage/images/qr_code/7d00105cd5e9243b3bc856174f8c1e88.png",
        "status_id": "TERDAFTAR",
        "sistem_elektronik_id": 9062
      }
    },
    {
      "type": "tdpseTerbit",
      "id": 9155,
      "attributes": {
        "nomor_pb_umku": "912030449041501110060",
        "nama": "AGREE MART",
        "website": "agreeculture.id",
        "sektor": "Sektor Perdagangan",
        "nama_perusahaan": "PERUSAHAAN PERSEROAN (PERSERO) PT. TELEKOMUNIKASI INDONESIA",
        "tanggal_daftar": "2022-07-27",
        "nomor_tanda_daftar": "001331.53/DJAI.PSE/07/2022",
        "qr_code": "https://pse.kominfo.go.id/storage/images/qr_code/a73a59a8bbd525b23c8323fb68e9165e.png",
        "status_id": "TERDAFTAR",
        "sistem_elektronik_id": 9061
      }
    },
    {
      "type": "tdpseTerbit",
      "id": 9151,
      "attributes": {
        "nomor_pb_umku": "912030449041501110059",
        "nama": "WORKI",
        "website": "worki.id",
        "sektor": "Sektor Teknologi Informasi dan Komunikasi",
        "nama_perusahaan": "PERUSAHAAN PERSEROAN (PERSERO) PT. TELEKOMUNIKASI INDONESIA",
        "tanggal_daftar": "2022-07-27",
        "nomor_tanda_daftar": "001331.52/DJAI.PSE/07/2022",
        "qr_code": "https://pse.kominfo.go.id/storage/images/qr_code/827c8dd24e58b68fc8fcd8516b267f73.png",
        "status_id": "TERDAFTAR",
        "sistem_elektronik_id": 9055
      }
    },
    {
      "type": "tdpseTerbit",
      "id": 9145,
      "attributes": {
        "nomor_pb_umku": "912030449041501110059",
        "nama": "SCN-HUB",
        "website": "smartcitynusantara.id",
        "sektor": "Sektor Teknologi Informasi dan Komunikasi",
        "nama_perusahaan": "PERUSAHAAN PERSEROAN (PERSERO) PT. TELEKOMUNIKASI INDONESIA",
        "tanggal_daftar": "2022-07-27",
        "nomor_tanda_daftar": "001331.51/DJAI.PSE/07/2022",
        "qr_code": "https://pse.kominfo.go.id/storage/images/qr_code/4f50e96c19c6c092f57bca0f3ff5e974.png",
        "status_id": "TERDAFTAR",
        "sistem_elektronik_id": 9053
      }
    },
    {
      "type": "tdpseTerbit",
      "id": 9144,
      "attributes": {
        "nomor_pb_umku": "912030449041501110058",
        "nama": "LEGAL ANALYTICS",
        "website": "legalanalytics.id",
        "sektor": "Sektor Teknologi Informasi dan Komunikasi",
        "nama_perusahaan": "PERUSAHAAN PERSEROAN (PERSERO) PT. TELEKOMUNIKASI INDONESIA",
        "tanggal_daftar": "2022-07-27",
        "nomor_tanda_daftar": "001331.50/DJAI.PSE/07/2022",
        "qr_code": "https://pse.kominfo.go.id/storage/images/qr_code/4b1bfcaf78b9c4fd7a9684d083b1f96c.png",
        "status_id": "TERDAFTAR",
        "sistem_elektronik_id": 9052
      }
    }
  ]
}