{
  "meta": {
    "page": {
      "currentPage": 677,
      "from": 6761,
      "lastPage": 875,
      "perPage": 10,
      "to": 6770,
      "total": 8749
    }
  },
  "data": [
    {
      "type": "tdpseTerbit",
      "id": 1394,
      "attributes": {
        "nomor_pb_umku": null,
        "nama": "Dashboard DomaiNesia",
        "website": "www.domainesia.com",
        "sektor": "Sektor Teknologi Informasi dan Komunikasi",
        "nama_perusahaan": "DELTA NEVA ANGKASA",
        "tanggal_daftar": "2021-06-09",
        "nomor_tanda_daftar": "000927.01/DJAI.PSE/06/2021",
        "qr_code": "https://pse.kominfo.go.id/storage/images/qr_code/3b895f571f94587a3da8912d125b6fa2.png",
        "status_id": "TERDAFTAR",
        "sistem_elektronik_id": 3481
      }
    },
    {
      "type": "tdpseTerbit",
      "id": 1393,
      "attributes": {
        "nomor_pb_umku": null,
        "nama": "Turbo.co.id",
        "website": "https://turbo.co.id/",
        "sektor": "Sektor Perdagangan",
        "nama_perusahaan": "TURBO MITRA PERKASA",
        "tanggal_daftar": "2021-06-09",
        "nomor_tanda_daftar": "000926.01/DJAI.PSE/06/2021",
        "qr_code": "https://pse.kominfo.go.id/storage/images/qr_code/feadb6ec3bb486b059dcf72c78ca23e4.png",
        "status_id": "TERDAFTAR",
        "sistem_elektronik_id": 3334
      }
    },
    {
      "type": "tdpseTerbit",
      "id": 1545,
      "attributes": {
        "nomor_pb_umku": null,
        "nama": "Kerjaan",
        "website": "https://kerjaan.co.id/",
        "sektor": "Sektor Teknologi Informasi dan Komunikasi",
        "nama_perusahaan": "SAMPINGAN MITRA INDONESIA",
        "tanggal_daftar": "2021-06-24",
        "nomor_tanda_daftar": "000925.02/DJAI.PSE/06/2021",
        "qr_code": "https://pse.kominfo.go.id/storage/images/qr_code/0cb1e400f8781bb64b7d7ad203865497.png",
        "status_id": "TERDAFTAR",
        "sistem_elektronik_id": 3333
      }
    },
    {
      "type": "tdpseTerbit",
      "id": 1389,
      "attributes": {
        "nomor_pb_umku": null,
        "nama": "Sampingan",
        "website": "https://sampingan.co.id",
        "sektor": "Sektor Teknologi Informasi dan Komunikasi",
        "nama_perusahaan": "SAMPINGAN MITRA INDONESIA",
        "tanggal_daftar": "2021-06-02",
        "nomor_tanda_daftar": "000925.01/DJAI.PSE/06/2021",
        "qr_code": "https://pse.kominfo.go.id/storage/images/qr_code/83769a140294d1f9ce03347335104168.png",
        "status_id": "TERDAFTAR",
        "sistem_elektronik_id": 3332
      }
    },
    {
      "type": "tdpseTerbit",
      "id": 1388,
      "attributes": {
        "nomor_pb_umku": null,
        "nama": "SiMotor",
        "website": "https://simotor.id/",
        "sektor": "Sektor Perdagangan",
        "nama_perusahaan": "DIGITAL NAYAKA ABHINAYA",
        "tanggal_daftar": "2021-06-02",
        "nomor_tanda_daftar": "000924.01/DJAI.PSE/06/2021",
        "qr_code": "https://pse.kominfo.go.id/storage/images/qr_code/60c05be05e954860e1ced6309456bde3.png",
        "status_id": "TERDAFTAR",
        "sistem_elektronik_id": 1002
      }
    },
    {
      "type": "tdpseTerbit",
      "id": 1385,
      "attributes": {
        "nomor_pb_umku": null,
        "nama": "VCGENSET",
        "website": "https://www.vcgenset.co.id/",
        "sektor": "Sektor Perdagangan",
        "nama_perusahaan": "BERKAT JAYA MAKMUR",
        "tanggal_daftar": "2021-06-02",
        "nomor_tanda_daftar": "000923.01/DJAI.PSE/06/2021",
        "qr_code": "https://pse.kominfo.go.id/storage/images/qr_code/0edefb139c6326d36f471e31ad9625ae.png",
        "status_id": "TERDAFTAR",
        "sistem_elektronik_id": 995
      }
    },
    {
      "type": "tdpseTerbit",
      "id": 1384,
      "attributes": {
        "nomor_pb_umku": null,
        "nama": "Elinking Indonesia",
        "website": "http://caih.co.id/",
        "sektor": "Sektor Perdagangan",
        "nama_perusahaan": "CAIH INFOTECH INDONESIA",
        "tanggal_daftar": "2021-06-02",
        "nomor_tanda_daftar": "000922.01/DJAI.PSE/06/2021",
        "qr_code": "https://pse.kominfo.go.id/storage/images/qr_code/54f024ea2363a010c9905a75fc0b53b8.png",
        "status_id": "TERDAFTAR",
        "sistem_elektronik_id": 1014
      }
    },
    {
      "type": "tdpseTerbit",
      "id": 1991,
      "attributes": {
        "nomor_pb_umku": null,
        "nama": "SMART-GT",
        "website": "ASIASMARTDIGITAL.CO.ID",
        "sektor": "Sektor Perdagangan",
        "nama_perusahaan": "ASIA SMART DIGITAL",
        "tanggal_daftar": "2021-10-12",
        "nomor_tanda_daftar": "000921.02/DJAI.PSE/10/2021",
        "qr_code": "https://pse.kominfo.go.id/storage/images/qr_code/b62903737a3f169dab2627abe958d64d.png",
        "status_id": "TERDAFTAR",
        "sistem_elektronik_id": 1004
      }
    },
    {
      "type": "tdpseTerbit",
      "id": 1383,
      "attributes": {
        "nomor_pb_umku": null,
        "nama": "SMARTAVATAR",
        "website": "http://www.asiasmartdigital.co.id/",
        "sektor": "Sektor Teknologi Informasi dan Komunikasi",
        "nama_perusahaan": "ASIA SMART DIGITAL",
        "tanggal_daftar": "2021-06-02",
        "nomor_tanda_daftar": "000921.01/DJAI.PSE/06/2021",
        "qr_code": "https://pse.kominfo.go.id/storage/images/qr_code/e98b925c469a5cb071725b5d90482091.png",
        "status_id": "TERDAFTAR",
        "sistem_elektronik_id": 1003
      }
    },
    {
      "type": "tdpseTerbit",
      "id": 1382,
      "attributes": {
        "nomor_pb_umku": null,
        "nama": "Docquity Clinic",
        "website": "id.docquityclinic.com",
        "sektor": "Sektor Perdagangan",
        "nama_perusahaan": "DOCQUITY CONSULTING INDONESIA",
        "tanggal_daftar": "2021-06-02",
        "nomor_tanda_daftar": "000920.01/DJAI.PSE/06/2021",
        "qr_code": "https://pse.kominfo.go.id/storage/images/qr_code/0329593133ee69229e3dd73e283052dd.png",
        "status_id": "TERDAFTAR",
        "sistem_elektronik_id": 744
      }
    }
  ]
}