{
  "meta": {
    "page": {
      "currentPage": 680,
      "from": 6791,
      "lastPage": 962,
      "perPage": 10,
      "to": 6800,
      "total": 9612
    }
  },
  "data": [
    {
      "type": "tdpseTerbit",
      "id": 2100,
      "attributes": {
        "nomor_pb_umku": null,
        "nama": "TAC - Tap & Connect",
        "website": "www.tac-id.com",
        "sektor": "Sektor Teknologi Informasi dan Komunikasi",
        "nama_perusahaan": "PT Tac Teknologi Indonesia",
        "tanggal_daftar": "2021-10-26",
        "nomor_tanda_daftar": "001399.01/DJAI.PSE/10/2021",
        "qr_code": "https://pse.kominfo.go.id/storage/images/qr_code/0cd46f951d21cfd96409e7b31252aedb.png",
        "status_id": "TERDAFTAR",
        "sistem_elektronik_id": 3023
      }
    },
    {
      "type": "tdpseTerbit",
      "id": 2090,
      "attributes": {
        "nomor_pb_umku": null,
        "nama": "DIPAY",
        "website": "www.dipay.id",
        "sektor": "Sektor Keuangan, Sektor Teknologi Informasi dan Komunikasi",
        "nama_perusahaan": "MARECO PRIMA MANDIRI",
        "tanggal_daftar": "2021-10-26",
        "nomor_tanda_daftar": "001398.01/DJAI.PSE/10/2021",
        "qr_code": "https://pse.kominfo.go.id/storage/images/qr_code/4e09b964d5ba78470173072b72d0696f.png",
        "status_id": "TERDAFTAR",
        "sistem_elektronik_id": 1502
      }
    },
    {
      "type": "tdpseTerbit",
      "id": 2096,
      "attributes": {
        "nomor_pb_umku": null,
        "nama": "IBID",
        "website": "https://www.ibid.astra.co.id",
        "sektor": "Sektor Perdagangan",
        "nama_perusahaan": "PT Serasi Autoraya",
        "tanggal_daftar": "2021-10-26",
        "nomor_tanda_daftar": "001397.03/DJAI.PSE/10/2021",
        "qr_code": "https://pse.kominfo.go.id/storage/images/qr_code/3a44c7299c04dc76c1e568addeb9b97c.png",
        "status_id": "TERDAFTAR",
        "sistem_elektronik_id": 3022
      }
    },
    {
      "type": "tdpseTerbit",
      "id": 2093,
      "attributes": {
        "nomor_pb_umku": null,
        "nama": "ASTRA FMS",
        "website": "-",
        "sektor": "Sektor Transportasi",
        "nama_perusahaan": "PT Serasi Autoraya",
        "tanggal_daftar": "2021-10-26",
        "nomor_tanda_daftar": "001397.02/DJAI.PSE/10/2021",
        "qr_code": "https://pse.kominfo.go.id/storage/images/qr_code/21d0ae03ef40881bbf90ad1b52fdef6d.png",
        "status_id": "TERDAFTAR",
        "sistem_elektronik_id": 3021
      }
    },
    {
      "type": "tdpseTerbit",
      "id": 2088,
      "attributes": {
        "nomor_pb_umku": null,
        "nama": "TRAC TO GO",
        "website": "-",
        "sektor": "Sektor Transportasi",
        "nama_perusahaan": "PT Serasi Autoraya",
        "tanggal_daftar": "2021-10-26",
        "nomor_tanda_daftar": "001397.01/DJAI.PSE/10/2021",
        "qr_code": "https://pse.kominfo.go.id/storage/images/qr_code/03e623b05b35427425363fc245a736fe.png",
        "status_id": "TERDAFTAR",
        "sistem_elektronik_id": 3020
      }
    },
    {
      "type": "tdpseTerbit",
      "id": 2099,
      "attributes": {
        "nomor_pb_umku": null,
        "nama": "MOBILE BANKING",
        "website": "mobilebank.banksumut.co.id",
        "sektor": "Sektor Keuangan",
        "nama_perusahaan": "PT BANK PEMBANGUNAN DAERAH SUMATERA UTARA",
        "tanggal_daftar": "2021-10-26",
        "nomor_tanda_daftar": "001396.13/DJAI.PSE/10/2021",
        "qr_code": "https://pse.kominfo.go.id/storage/images/qr_code/314a4e7ec6b62fed1663282021f89ee3.png",
        "status_id": "TERDAFTAR",
        "sistem_elektronik_id": 3019
      }
    },
    {
      "type": "tdpseTerbit",
      "id": 2098,
      "attributes": {
        "nomor_pb_umku": null,
        "nama": "PIPELINE MANAGEMENT SYSTEM",
        "website": "pms.banksumut.co.id",
        "sektor": "Sektor Keuangan",
        "nama_perusahaan": "PT BANK PEMBANGUNAN DAERAH SUMATERA UTARA",
        "tanggal_daftar": "2021-10-26",
        "nomor_tanda_daftar": "001396.12/DJAI.PSE/10/2021",
        "qr_code": "https://pse.kominfo.go.id/storage/images/qr_code/fbc0fe30aea0c4803a6475eb562f731d.png",
        "status_id": "TERDAFTAR",
        "sistem_elektronik_id": 3018
      }
    },
    {
      "type": "tdpseTerbit",
      "id": 2097,
      "attributes": {
        "nomor_pb_umku": null,
        "nama": "e-RECRUITMENT",
        "website": "recruitment.banksumut.co.id",
        "sektor": "Sektor Keuangan",
        "nama_perusahaan": "PT BANK PEMBANGUNAN DAERAH SUMATERA UTARA",
        "tanggal_daftar": "2021-10-26",
        "nomor_tanda_daftar": "001396.11/DJAI.PSE/10/2021",
        "qr_code": "https://pse.kominfo.go.id/storage/images/qr_code/2f2b7c33fdfb3e744e4f016521dd9bfb.png",
        "status_id": "TERDAFTAR",
        "sistem_elektronik_id": 3017
      }
    },
    {
      "type": "tdpseTerbit",
      "id": 2095,
      "attributes": {
        "nomor_pb_umku": null,
        "nama": "KMG ONLINE",
        "website": "kmgonline.banksumut.co.id",
        "sektor": "Sektor Keuangan",
        "nama_perusahaan": "PT BANK PEMBANGUNAN DAERAH SUMATERA UTARA",
        "tanggal_daftar": "2021-10-26",
        "nomor_tanda_daftar": "001396.10/DJAI.PSE/10/2021",
        "qr_code": "https://pse.kominfo.go.id/storage/images/qr_code/3306ce94c2495f0df7ba64fbffa1b2ad.png",
        "status_id": "TERDAFTAR",
        "sistem_elektronik_id": 3016
      }
    },
    {
      "type": "tdpseTerbit",
      "id": 2094,
      "attributes": {
        "nomor_pb_umku": null,
        "nama": "e-PASAR",
        "website": "epasar.banksumut.co.id",
        "sektor": "Sektor Keuangan",
        "nama_perusahaan": "PT BANK PEMBANGUNAN DAERAH SUMATERA UTARA",
        "tanggal_daftar": "2021-10-26",
        "nomor_tanda_daftar": "001396.09/DJAI.PSE/10/2021",
        "qr_code": "https://pse.kominfo.go.id/storage/images/qr_code/128a8f5e5f9801523738a8ad209161e0.png",
        "status_id": "TERDAFTAR",
        "sistem_elektronik_id": 3015
      }
    }
  ]
}