{
  "meta": {
    "page": {
      "currentPage": 682,
      "from": 6811,
      "lastPage": 1020,
      "perPage": 10,
      "to": 6820,
      "total": 10192
    }
  },
  "data": [
    {
      "type": "tdpseTerbit",
      "id": 6356,
      "attributes": {
        "nomor_pb_umku": "912010217115700010006",
        "nama": "MERCHANT DASHBOARD",
        "website": "merchant.danakini.co.id",
        "sektor": "Sektor Keuangan",
        "nama_perusahaan": "DANA KINI INDONESIA",
        "tanggal_daftar": "2022-07-18",
        "nomor_tanda_daftar": "001681.06/DJAI.PSE/07/2022",
        "qr_code": "https://pse.kominfo.go.id/storage/images/qr_code/a478e7ab08198c7b6ce3d7d8d03fb079.png",
        "status_id": "TERDAFTAR",
        "sistem_elektronik_id": 6207
      }
    },
    {
      "type": "tdpseTerbit",
      "id": 6338,
      "attributes": {
        "nomor_pb_umku": "912010217115700010005",
        "nama": "WEBSITE PT DANA KINI INDONESIA",
        "website": "danakini.co.id",
        "sektor": "Sektor Keuangan",
        "nama_perusahaan": "DANA KINI INDONESIA",
        "tanggal_daftar": "2022-07-18",
        "nomor_tanda_daftar": "001681.05/DJAI.PSE/07/2022",
        "qr_code": "https://pse.kominfo.go.id/storage/images/qr_code/c1bcade2bd8f88e6e2cb13d49fee4e07.png",
        "status_id": "TERDAFTAR",
        "sistem_elektronik_id": 6196
      }
    },
    {
      "type": "tdpseTerbit",
      "id": 2652,
      "attributes": {
        "nomor_pb_umku": null,
        "nama": "Platform Mobilleapps Android P2P lending Danakini",
        "website": "-",
        "sektor": "Sektor Keuangan",
        "nama_perusahaan": "DANA KINI INDONESIA",
        "tanggal_daftar": "2021-12-07",
        "nomor_tanda_daftar": "001681.04/DJAI.PSE/12/2021",
        "qr_code": "https://pse.kominfo.go.id/storage/images/qr_code/dbcb07b3bf1fb2c90837ecba22ea033e.png",
        "status_id": "TERDAFTAR",
        "sistem_elektronik_id": 1787
      }
    },
    {
      "type": "tdpseTerbit",
      "id": 2651,
      "attributes": {
        "nomor_pb_umku": null,
        "nama": "Platform Mobile apps ISO P2P lending Danakini",
        "website": "-",
        "sektor": "Sektor Keuangan",
        "nama_perusahaan": "DANA KINI INDONESIA",
        "tanggal_daftar": "2021-12-07",
        "nomor_tanda_daftar": "001681.03/DJAI.PSE/12/2021",
        "qr_code": "https://pse.kominfo.go.id/storage/images/qr_code/df265295524cb4ae142586f47fa8267b.png",
        "status_id": "TERDAFTAR",
        "sistem_elektronik_id": 1786
      }
    },
    {
      "type": "tdpseTerbit",
      "id": 2650,
      "attributes": {
        "nomor_pb_umku": null,
        "nama": "Website Administrasi / Backend platform P2P lending Danakini",
        "website": "ops.danakini.co.id",
        "sektor": "Sektor Keuangan",
        "nama_perusahaan": "DANA KINI INDONESIA",
        "tanggal_daftar": "2021-12-07",
        "nomor_tanda_daftar": "001681.02/DJAI.PSE/12/2021",
        "qr_code": "https://pse.kominfo.go.id/storage/images/qr_code/60b742e0e5f22160a94d20a1ae6adc24.png",
        "status_id": "TERDAFTAR",
        "sistem_elektronik_id": 1785
      }
    },
    {
      "type": "tdpseTerbit",
      "id": 2593,
      "attributes": {
        "nomor_pb_umku": null,
        "nama": "Website platform P2P lending Danakini - p2p.danakini.co.id",
        "website": "p2p.danakini.co.id",
        "sektor": "Sektor Keuangan",
        "nama_perusahaan": "DANA KINI INDONESIA",
        "tanggal_daftar": "2021-12-02",
        "nomor_tanda_daftar": "001681.01/DJAI.PSE/12/2021",
        "qr_code": "https://pse.kominfo.go.id/storage/images/qr_code/08400586338013a33a96d7f85b8d7d02.png",
        "status_id": "TERDAFTAR",
        "sistem_elektronik_id": 1784
      }
    },
    {
      "type": "tdpseTerbit",
      "id": 2592,
      "attributes": {
        "nomor_pb_umku": null,
        "nama": "https://www.ilm.id",
        "website": "https://www.ilm.id",
        "sektor": "Sektor Perdagangan",
        "nama_perusahaan": "PANEN TATAGRIYA INDONESIA",
        "tanggal_daftar": "2021-12-02",
        "nomor_tanda_daftar": "001680.01/DJAI.PSE/12/2021",
        "qr_code": "https://pse.kominfo.go.id/storage/images/qr_code/7c4428596cfbd990ce5f44852720e375.png",
        "status_id": "TERDAFTAR",
        "sistem_elektronik_id": 1632
      }
    },
    {
      "type": "tdpseTerbit",
      "id": 2591,
      "attributes": {
        "nomor_pb_umku": null,
        "nama": "Baqat",
        "website": "baqat.id",
        "sektor": "Sektor Teknologi Informasi dan Komunikasi",
        "nama_perusahaan": "DIGITAL INDONESIA INVESTAMA",
        "tanggal_daftar": "2021-12-02",
        "nomor_tanda_daftar": "001679.01/DJAI.PSE/12/2021",
        "qr_code": "https://pse.kominfo.go.id/storage/images/qr_code/1ff5ad6f359317d096e556e730543390.png",
        "status_id": "TERDAFTAR",
        "sistem_elektronik_id": 3418
      }
    },
    {
      "type": "tdpseTerbit",
      "id": 2587,
      "attributes": {
        "nomor_pb_umku": null,
        "nama": "Borneotrip",
        "website": "https://borneotrip.id",
        "sektor": "Sektor Teknologi Informasi dan Komunikasi",
        "nama_perusahaan": "CAKRAWALA BORNEO SINERGI",
        "tanggal_daftar": "2021-12-02",
        "nomor_tanda_daftar": "001678.01/DJAI.PSE/12/2021",
        "qr_code": "https://pse.kominfo.go.id/storage/images/qr_code/62da16441f951c22eeac11a79bdb88ff.png",
        "status_id": "TERDAFTAR",
        "sistem_elektronik_id": 1788
      }
    },
    {
      "type": "tdpseTerbit",
      "id": 2586,
      "attributes": {
        "nomor_pb_umku": null,
        "nama": "www.maleser.com",
        "website": "maleser.com",
        "sektor": "Sektor Perdagangan",
        "nama_perusahaan": "MITRA ERA GLOBAL",
        "tanggal_daftar": "2021-12-02",
        "nomor_tanda_daftar": "001677.01/DJAI.PSE/12/2021",
        "qr_code": "https://pse.kominfo.go.id/storage/images/qr_code/9ca3748d4a8c64cd0a2e510f11ff0610.png",
        "status_id": "TERDAFTAR",
        "sistem_elektronik_id": 1483
      }
    }
  ]
}