{
  "meta": {
    "page": {
      "currentPage": 684,
      "from": 6831,
      "lastPage": 978,
      "perPage": 10,
      "to": 6840,
      "total": 9774
    }
  },
  "data": [
    {
      "type": "tdpseTerbit",
      "id": 2287,
      "attributes": {
        "nomor_pb_umku": null,
        "nama": "DIP WORKSPACE",
        "website": "https://dipworkspace.com",
        "sektor": "Sektor Teknologi Informasi dan Komunikasi",
        "nama_perusahaan": "PT DESKTOPIP TEKNOLOGI INDONESIA",
        "tanggal_daftar": "2021-11-08",
        "nomor_tanda_daftar": "001459.02/DJAI.PSE/11/2021",
        "qr_code": "https://pse.kominfo.go.id/storage/images/qr_code/54d602f889313fa52f3c88d0aef8b7ed.png",
        "status_id": "TERDAFTAR",
        "sistem_elektronik_id": 3081
      }
    },
    {
      "type": "tdpseTerbit",
      "id": 2188,
      "attributes": {
        "nomor_pb_umku": null,
        "nama": "JAYBOD",
        "website": "https://jaybod.com/",
        "sektor": "Sektor Teknologi Informasi dan Komunikasi",
        "nama_perusahaan": "PT DESKTOPIP TEKNOLOGI INDONESIA",
        "tanggal_daftar": "2021-11-01",
        "nomor_tanda_daftar": "001459.01/DJAI.PSE/11/2021",
        "qr_code": "https://pse.kominfo.go.id/storage/images/qr_code/777b96e727d50ae903716e0e29c29462.png",
        "status_id": "TERDAFTAR",
        "sistem_elektronik_id": 3080
      }
    },
    {
      "type": "tdpseTerbit",
      "id": 2187,
      "attributes": {
        "nomor_pb_umku": null,
        "nama": "Bisabebas",
        "website": "https://bisabebas.com",
        "sektor": "Sektor Perdagangan",
        "nama_perusahaan": "Bisabebas Ekosistem Terpercaya",
        "tanggal_daftar": "2021-11-01",
        "nomor_tanda_daftar": "001458.01/DJAI.PSE/11/2021",
        "qr_code": "https://pse.kominfo.go.id/storage/images/qr_code/4c39ceae94653312b04b2c5b324fd9a5.png",
        "status_id": "TERDAFTAR",
        "sistem_elektronik_id": 3079
      }
    },
    {
      "type": "tdpseTerbit",
      "id": 2185,
      "attributes": {
        "nomor_pb_umku": null,
        "nama": "Shifthink",
        "website": "https://shifthink.id/",
        "sektor": "Sektor Teknologi Informasi dan Komunikasi",
        "nama_perusahaan": "PT Shifthink Digital Creative",
        "tanggal_daftar": "2021-11-01",
        "nomor_tanda_daftar": "001457.01/DJAI.PSE/11/2021",
        "qr_code": "https://pse.kominfo.go.id/storage/images/qr_code/00871d933179c08abce075b2250684f6.png",
        "status_id": "TERDAFTAR",
        "sistem_elektronik_id": 3078
      }
    },
    {
      "type": "tdpseTerbit",
      "id": 2184,
      "attributes": {
        "nomor_pb_umku": null,
        "nama": "ASTA BUMI CIPTA",
        "website": "astabumi.com",
        "sektor": "Sektor Energi dan Sumber Daya Mineral, Sektor Keuangan, Sektor Perdagangan, Sektor Teknologi Informasi dan Komunikasi, Sektor Transportasi",
        "nama_perusahaan": "PT ASTA BUMI CIPTA",
        "tanggal_daftar": "2021-11-01",
        "nomor_tanda_daftar": "001456.01/DJAI.PSE/11/2021",
        "qr_code": "https://pse.kominfo.go.id/storage/images/qr_code/05b4bdb548b68a3e3adb22ed73948a54.png",
        "status_id": "TERDAFTAR",
        "sistem_elektronik_id": 3077
      }
    },
    {
      "type": "tdpseTerbit",
      "id": 2183,
      "attributes": {
        "nomor_pb_umku": null,
        "nama": "SLASH",
        "website": "www.getslash.id",
        "sektor": "Sektor Perdagangan, Sektor Teknologi Informasi dan Komunikasi",
        "nama_perusahaan": "ORI SERVICES INDONESIA",
        "tanggal_daftar": "2021-11-01",
        "nomor_tanda_daftar": "001455.01/DJAI.PSE/11/2021",
        "qr_code": "https://pse.kominfo.go.id/storage/images/qr_code/cdd5e8b65010a23f6ff14ff3af551f3a.png",
        "status_id": "TERDAFTAR",
        "sistem_elektronik_id": 1520
      }
    },
    {
      "type": "tdpseTerbit",
      "id": 2182,
      "attributes": {
        "nomor_pb_umku": null,
        "nama": "honestdocs",
        "website": "honestdocs.id",
        "sektor": "Sektor Kesehatan",
        "nama_perusahaan": "BIMINI LONGEVITY INDONESIA",
        "tanggal_daftar": "2021-11-01",
        "nomor_tanda_daftar": "001454.01/DJAI.PSE/11/2021",
        "qr_code": "https://pse.kominfo.go.id/storage/images/qr_code/7d0a06abbf54c641bce608eec40ae1f7.png",
        "status_id": "TERDAFTAR",
        "sistem_elektronik_id": 1537
      }
    },
    {
      "type": "tdpseTerbit",
      "id": 3191,
      "attributes": {
        "nomor_pb_umku": null,
        "nama": "Property.co.id",
        "website": "Property.co.id",
        "sektor": "Sektor Perdagangan",
        "nama_perusahaan": "EDRUS SAFTA ANUGERAH",
        "tanggal_daftar": "2022-02-08",
        "nomor_tanda_daftar": "001453.02/DJAI.PSE/02/2022",
        "qr_code": "https://pse.kominfo.go.id/storage/images/qr_code/218579c5587a9be074c8865316467de4.png",
        "status_id": "TERDAFTAR",
        "sistem_elektronik_id": 449
      }
    },
    {
      "type": "tdpseTerbit",
      "id": 2181,
      "attributes": {
        "nomor_pb_umku": null,
        "nama": "Ambassador.id",
        "website": "Ambassador.id",
        "sektor": "Sektor Perdagangan",
        "nama_perusahaan": "EDRUS SAFTA ANUGERAH",
        "tanggal_daftar": "2021-11-01",
        "nomor_tanda_daftar": "001453.01/DJAI.PSE/11/2021",
        "qr_code": "https://pse.kominfo.go.id/storage/images/qr_code/e5ae3b9934589cf4fe1f2c9c065b97e8.png",
        "status_id": "TERDAFTAR",
        "sistem_elektronik_id": 448
      }
    },
    {
      "type": "tdpseTerbit",
      "id": 2180,
      "attributes": {
        "nomor_pb_umku": null,
        "nama": "https://araputra-store.co.id",
        "website": "https://araputra-store.co.id",
        "sektor": "Sektor Keuangan, Sektor Perdagangan",
        "nama_perusahaan": "ARAPUTRA FORTUNA PERKASA",
        "tanggal_daftar": "2021-10-27",
        "nomor_tanda_daftar": "001452.01/DJAI.PSE/10/2021",
        "qr_code": "https://pse.kominfo.go.id/storage/images/qr_code/a2eb8af5057c2418e23ade9fd103ada9.png",
        "status_id": "TERDAFTAR",
        "sistem_elektronik_id": 3416
      }
    }
  ]
}