{
  "meta": {
    "page": {
      "currentPage": 685,
      "from": 6841,
      "lastPage": 975,
      "perPage": 10,
      "to": 6850,
      "total": 9746
    }
  },
  "data": [
    {
      "type": "tdpseTerbit",
      "id": 2224,
      "attributes": {
        "nomor_pb_umku": null,
        "nama": "Erlangga Exam Siswa",
        "website": "https://siswa.erlanggaexam.com",
        "sektor": "Sektor Teknologi Informasi dan Komunikasi",
        "nama_perusahaan": "PT Penerbit Buku Erlangga Mahameru",
        "tanggal_daftar": "2021-11-01",
        "nomor_tanda_daftar": "001444.05/DJAI.PSE/11/2021",
        "qr_code": "https://pse.kominfo.go.id/storage/images/qr_code/79b1c365d196e148754c39ccad7a74cc.png",
        "status_id": "TERDAFTAR",
        "sistem_elektronik_id": 3053
      }
    },
    {
      "type": "tdpseTerbit",
      "id": 2223,
      "attributes": {
        "nomor_pb_umku": null,
        "nama": "Erlangga Exam",
        "website": "https://erlanggaexam.com",
        "sektor": "Sektor Teknologi Informasi dan Komunikasi",
        "nama_perusahaan": "PT Penerbit Buku Erlangga Mahameru",
        "tanggal_daftar": "2021-11-01",
        "nomor_tanda_daftar": "001444.04/DJAI.PSE/11/2021",
        "qr_code": "https://pse.kominfo.go.id/storage/images/qr_code/67c9778c3977e9d9438bcaf0c65a0f24.png",
        "status_id": "TERDAFTAR",
        "sistem_elektronik_id": 3052
      }
    },
    {
      "type": "tdpseTerbit",
      "id": 2222,
      "attributes": {
        "nomor_pb_umku": null,
        "nama": "Ebook Erlangga",
        "website": "https://ebook.erlanggaonline.co.id",
        "sektor": "Sektor Teknologi Informasi dan Komunikasi",
        "nama_perusahaan": "PT Penerbit Buku Erlangga Mahameru",
        "tanggal_daftar": "2021-11-01",
        "nomor_tanda_daftar": "001444.03/DJAI.PSE/11/2021",
        "qr_code": "https://pse.kominfo.go.id/storage/images/qr_code/6bed6c60667470ff6b5adb6d3830872a.png",
        "status_id": "TERDAFTAR",
        "sistem_elektronik_id": 3051
      }
    },
    {
      "type": "tdpseTerbit",
      "id": 2206,
      "attributes": {
        "nomor_pb_umku": null,
        "nama": "E-library Erlangga",
        "website": "https://e-library.erlanggaonline.co.id",
        "sektor": "Sektor Teknologi Informasi dan Komunikasi",
        "nama_perusahaan": "PT Penerbit Buku Erlangga Mahameru",
        "tanggal_daftar": "2021-11-01",
        "nomor_tanda_daftar": "001444.02/DJAI.PSE/11/2021",
        "qr_code": "https://pse.kominfo.go.id/storage/images/qr_code/b84de8809f7a4bf7abfc21df6fed251a.png",
        "status_id": "TERDAFTAR",
        "sistem_elektronik_id": 3050
      }
    },
    {
      "type": "tdpseTerbit",
      "id": 2166,
      "attributes": {
        "nomor_pb_umku": null,
        "nama": "E-learn Erlangga",
        "website": "https://elearn.erlanggaonline.com",
        "sektor": "Sektor Teknologi Informasi dan Komunikasi",
        "nama_perusahaan": "PT Penerbit Buku Erlangga Mahameru",
        "tanggal_daftar": "2021-10-26",
        "nomor_tanda_daftar": "001444.01/DJAI.PSE/10/2021",
        "qr_code": "https://pse.kominfo.go.id/storage/images/qr_code/54ce4bc0235e3a6415cb5d8c84f40cd8.png",
        "status_id": "TERDAFTAR",
        "sistem_elektronik_id": 3049
      }
    },
    {
      "type": "tdpseTerbit",
      "id": 2162,
      "attributes": {
        "nomor_pb_umku": null,
        "nama": "SimInvest",
        "website": "https://siminvest.co.id",
        "sektor": "Sektor Keuangan",
        "nama_perusahaan": "SINARMAS SEKURITAS",
        "tanggal_daftar": "2021-10-26",
        "nomor_tanda_daftar": "001443.01/DJAI.PSE/10/2021",
        "qr_code": "https://pse.kominfo.go.id/storage/images/qr_code/9a7c4a2bd1ab02f2be139b8dc2d1decb.png",
        "status_id": "TERDAFTAR",
        "sistem_elektronik_id": 1510
      }
    },
    {
      "type": "tdpseTerbit",
      "id": 2208,
      "attributes": {
        "nomor_pb_umku": null,
        "nama": "Tokomaid",
        "website": "www.tokomaid.com",
        "sektor": "Sektor Teknologi Informasi dan Komunikasi",
        "nama_perusahaan": "PT Aplikasi Solusi Anak Bangsa",
        "tanggal_daftar": "2021-11-01",
        "nomor_tanda_daftar": "001442.02/DJAI.PSE/11/2021",
        "qr_code": "https://pse.kominfo.go.id/storage/images/qr_code/dc3ac952d1d2572a1393bf154fcf6dbb.png",
        "status_id": "TERDAFTAR",
        "sistem_elektronik_id": 3048
      }
    },
    {
      "type": "tdpseTerbit",
      "id": 2161,
      "attributes": {
        "nomor_pb_umku": null,
        "nama": "Tokomaid",
        "website": "www.tokomaid.com",
        "sektor": "Sektor Teknologi Informasi dan Komunikasi",
        "nama_perusahaan": "PT Aplikasi Solusi Anak Bangsa",
        "tanggal_daftar": "2021-10-26",
        "nomor_tanda_daftar": "001442.01/DJAI.PSE/10/2021",
        "qr_code": "https://pse.kominfo.go.id/storage/images/qr_code/cadd5478bd74c0d6783a7eeefa0dc5cc.png",
        "status_id": "TERDAFTAR",
        "sistem_elektronik_id": 3047
      }
    },
    {
      "type": "tdpseTerbit",
      "id": 2160,
      "attributes": {
        "nomor_pb_umku": null,
        "nama": "Zipay",
        "website": "zipay.id",
        "sektor": "Sektor Keuangan",
        "nama_perusahaan": "PT. Max Interactives Technologies",
        "tanggal_daftar": "2021-10-26",
        "nomor_tanda_daftar": "001441.01/DJAI.PSE/10/2021",
        "qr_code": "https://pse.kominfo.go.id/storage/images/qr_code/0ed7bde1caa4f6afed9d0558e3b75834.png",
        "status_id": "TERDAFTAR",
        "sistem_elektronik_id": 3046
      }
    },
    {
      "type": "tdpseTerbit",
      "id": 2155,
      "attributes": {
        "nomor_pb_umku": null,
        "nama": "Website Perusahaan",
        "website": "www.insatek.id",
        "sektor": "Sektor Energi dan Sumber Daya Mineral, Sektor Kesehatan, Sektor Perdagangan, Sektor Teknologi Informasi dan Komunikasi",
        "nama_perusahaan": "INSATEK MAJU BERSAMA",
        "tanggal_daftar": "2021-10-26",
        "nomor_tanda_daftar": "001439.01/DJAI.PSE/10/2021",
        "qr_code": "https://pse.kominfo.go.id/storage/images/qr_code/828ae922717d5eb8fb5e767f14cff38a.png",
        "status_id": "TERDAFTAR",
        "sistem_elektronik_id": 3044
      }
    }
  ]
}