{
  "meta": {
    "page": {
      "currentPage": 686,
      "from": 6851,
      "lastPage": 944,
      "perPage": 10,
      "to": 6860,
      "total": 9434
    }
  },
  "data": [
    {
      "type": "tdpseTerbit",
      "id": 1939,
      "attributes": {
        "nomor_pb_umku": null,
        "nama": "Nolimbah",
        "website": "https://www.nolimbah.com/",
        "sektor": "Sektor Perdagangan",
        "nama_perusahaan": "NOLIMBAH GERAKAN IKLIM",
        "tanggal_daftar": "2021-10-04",
        "nomor_tanda_daftar": "001293.01/DJAI.PSE/10/2021",
        "qr_code": "https://pse.kominfo.go.id/storage/images/qr_code/6a57cb41b61787b45d87396044f151d8.png",
        "status_id": "TERDAFTAR",
        "sistem_elektronik_id": 813
      }
    },
    {
      "type": "tdpseTerbit",
      "id": 1937,
      "attributes": {
        "nomor_pb_umku": null,
        "nama": "https://degadai.com/",
        "website": "https://degadai.com/",
        "sektor": "Sektor Teknologi Informasi dan Komunikasi",
        "nama_perusahaan": "DEGADAI SOLUSI DIGITAL",
        "tanggal_daftar": "2021-10-04",
        "nomor_tanda_daftar": "001292.01/DJAI.PSE/10/2021",
        "qr_code": "https://pse.kominfo.go.id/storage/images/qr_code/8c24e6f1b9e0ae347c948f07b5a0bbf3.png",
        "status_id": "TERDAFTAR",
        "sistem_elektronik_id": 404
      }
    },
    {
      "type": "tdpseTerbit",
      "id": 1936,
      "attributes": {
        "nomor_pb_umku": null,
        "nama": "Tangerangraya.net",
        "website": "Tangerangraya.net",
        "sektor": "Sektor Teknologi Informasi dan Komunikasi",
        "nama_perusahaan": "RAYA DIGITAL MULTIMEDIA",
        "tanggal_daftar": "2021-10-04",
        "nomor_tanda_daftar": "001291.01/DJAI.PSE/10/2021",
        "qr_code": "https://pse.kominfo.go.id/storage/images/qr_code/69a6b5928a1ef38ec2935940291cb5f3.png",
        "status_id": "TERDAFTAR",
        "sistem_elektronik_id": 1359
      }
    },
    {
      "type": "tdpseTerbit",
      "id": 1935,
      "attributes": {
        "nomor_pb_umku": null,
        "nama": "Jejak.in",
        "website": "www.jejakin.com",
        "sektor": "Sektor Perdagangan, Sektor Teknologi Informasi dan Komunikasi",
        "nama_perusahaan": "JEJAK ENVIRO TEKNOLOGI",
        "tanggal_daftar": "2021-10-04",
        "nomor_tanda_daftar": "001290.01/DJAI.PSE/10/2021",
        "qr_code": "https://pse.kominfo.go.id/storage/images/qr_code/4a9f03b6abbc67a31b7208b167b9504a.png",
        "status_id": "TERDAFTAR",
        "sistem_elektronik_id": 1414
      }
    },
    {
      "type": "tdpseTerbit",
      "id": 1934,
      "attributes": {
        "nomor_pb_umku": null,
        "nama": "Geniebook",
        "website": "geniebook.com",
        "sektor": "Sektor Teknologi Informasi dan Komunikasi",
        "nama_perusahaan": "GENIEBOOK INDONESIA SOFTWARE SERVICES",
        "tanggal_daftar": "2021-10-04",
        "nomor_tanda_daftar": "001289.01/DJAI.PSE/10/2021",
        "qr_code": "https://pse.kominfo.go.id/storage/images/qr_code/f8b09e2517181e2c0e52723e03392681.png",
        "status_id": "TERDAFTAR",
        "sistem_elektronik_id": 1242
      }
    },
    {
      "type": "tdpseTerbit",
      "id": 1933,
      "attributes": {
        "nomor_pb_umku": null,
        "nama": "E-Banking IBK",
        "website": "www.ibk.co.id",
        "sektor": "Sektor Teknologi Informasi dan Komunikasi",
        "nama_perusahaan": "BANK IBK INDONESIA",
        "tanggal_daftar": "2021-10-04",
        "nomor_tanda_daftar": "001288.01/DJAI.PSE/10/2021",
        "qr_code": "https://pse.kominfo.go.id/storage/images/qr_code/b4ce6f9806fb9e21487688fbfaadd333.png",
        "status_id": "TERDAFTAR",
        "sistem_elektronik_id": 922
      }
    },
    {
      "type": "tdpseTerbit",
      "id": 1932,
      "attributes": {
        "nomor_pb_umku": null,
        "nama": "True Digital Indonesia (Portal)",
        "website": "https://trueid.id/",
        "sektor": "Sektor Teknologi Informasi dan Komunikasi",
        "nama_perusahaan": "TRUE DIGITAL INDONESIA",
        "tanggal_daftar": "2021-09-29",
        "nomor_tanda_daftar": "001287.02/DJAI.PSE/09/2021",
        "qr_code": "https://pse.kominfo.go.id/storage/images/qr_code/2f06846bda8298448ece19e3594ba829.png",
        "status_id": "TERDAFTAR",
        "sistem_elektronik_id": 2482
      }
    },
    {
      "type": "tdpseTerbit",
      "id": 1931,
      "attributes": {
        "nomor_pb_umku": null,
        "nama": "True Digital Indonesia (Pemrosesan Data)",
        "website": "-",
        "sektor": "Sektor Teknologi Informasi dan Komunikasi",
        "nama_perusahaan": "TRUE DIGITAL INDONESIA",
        "tanggal_daftar": "2021-09-29",
        "nomor_tanda_daftar": "001287.01/DJAI.PSE/09/2021",
        "qr_code": "https://pse.kominfo.go.id/storage/images/qr_code/f1427e06d459c626ce27ba3893a8a050.png",
        "status_id": "TERDAFTAR",
        "sistem_elektronik_id": 2481
      }
    },
    {
      "type": "tdpseTerbit",
      "id": 10054,
      "attributes": {
        "nomor_pb_umku": "022010514059600040002",
        "nama": "DETIKCOM",
        "website": "detik.com",
        "sektor": "Sektor Teknologi Informasi dan Komunikasi",
        "nama_perusahaan": "TRANS DIGITAL MEDIA",
        "tanggal_daftar": "2022-08-08",
        "nomor_tanda_daftar": "001286.02/DJAI.PSE/08/2022",
        "qr_code": "https://pse.kominfo.go.id/storage/images/qr_code/f18ef89633f332ccc9012b0459edefeb.png",
        "status_id": "TERDAFTAR",
        "sistem_elektronik_id": 9940
      }
    },
    {
      "type": "tdpseTerbit",
      "id": 1930,
      "attributes": {
        "nomor_pb_umku": null,
        "nama": "berbuatbaik.id",
        "website": "https://berbuatbaik.id",
        "sektor": "Sektor Teknologi Informasi dan Komunikasi",
        "nama_perusahaan": "TRANS DIGITAL MEDIA",
        "tanggal_daftar": "2021-09-29",
        "nomor_tanda_daftar": "001286.01/DJAI.PSE/09/2021",
        "qr_code": "https://pse.kominfo.go.id/storage/images/qr_code/b345bda243bfcc5aa3c1486096d71238.png",
        "status_id": "TERDAFTAR",
        "sistem_elektronik_id": 1114
      }
    }
  ]
}