{
  "meta": {
    "page": {
      "currentPage": 687,
      "from": 6861,
      "lastPage": 937,
      "perPage": 10,
      "to": 6870,
      "total": 9366
    }
  },
  "data": [
    {
      "type": "tdpseTerbit",
      "id": 1869,
      "attributes": {
        "nomor_pb_umku": null,
        "nama": "WIFKAIN",
        "website": "www.wifkain.com",
        "sektor": "Sektor Perdagangan",
        "nama_perusahaan": "TRIHIAKA ALPHA TEKNOLOGI",
        "tanggal_daftar": "2021-08-09",
        "nomor_tanda_daftar": "001249.01/DJAI.PSE/08/2021",
        "qr_code": "https://pse.kominfo.go.id/storage/images/qr_code/92a36a7391667f4d6fd60bb1c3946358.png",
        "status_id": "TERDAFTAR",
        "sistem_elektronik_id": 1404
      }
    },
    {
      "type": "tdpseTerbit",
      "id": 4599,
      "attributes": {
        "nomor_pb_umku": null,
        "nama": "PLANB",
        "website": "-",
        "sektor": "Sektor Pangan, Sektor Teknologi Informasi dan Komunikasi",
        "nama_perusahaan": "PERMAKULTUR LANSKAP BERKELANJUTAN INDONESIA",
        "tanggal_daftar": "2021-08-09",
        "nomor_tanda_daftar": "001248.02/DJAI.PSE/08/2021",
        "qr_code": "https://pse.kominfo.go.id/storage/images/qr_code/79054cd3ceb2525d5d53e5a9537beb26.png",
        "status_id": "TERDAFTAR",
        "sistem_elektronik_id": 4562
      }
    },
    {
      "type": "tdpseTerbit",
      "id": 4598,
      "attributes": {
        "nomor_pb_umku": null,
        "nama": "www.planb.co.id",
        "website": "www.planb.co.id",
        "sektor": "Sektor Pangan, Sektor Teknologi Informasi dan Komunikasi",
        "nama_perusahaan": "PERMAKULTUR LANSKAP BERKELANJUTAN INDONESIA",
        "tanggal_daftar": "2021-08-09",
        "nomor_tanda_daftar": "001248.01/DJAI.PSE/08/2021",
        "qr_code": "https://pse.kominfo.go.id/storage/images/qr_code/42a9f9e3686a81530c6db21883d58bf5.png",
        "status_id": "TERDAFTAR",
        "sistem_elektronik_id": 4561
      }
    },
    {
      "type": "tdpseTerbit",
      "id": 2849,
      "attributes": {
        "nomor_pb_umku": null,
        "nama": "Utas",
        "website": "https://utas.co/",
        "sektor": "Sektor Teknologi Informasi dan Komunikasi",
        "nama_perusahaan": "KIRIM EMAIL INDONESIA",
        "tanggal_daftar": "2021-12-22",
        "nomor_tanda_daftar": "001247.02/DJAI.PSE/12/2021",
        "qr_code": "https://pse.kominfo.go.id/storage/images/qr_code/96a2ed4bd3ad3330560b08e8655845f5.png",
        "status_id": "TERDAFTAR",
        "sistem_elektronik_id": 1375
      }
    },
    {
      "type": "tdpseTerbit",
      "id": 1867,
      "attributes": {
        "nomor_pb_umku": null,
        "nama": "KIRIM.EMAIL",
        "website": "https://kirim.email",
        "sektor": "Sektor Teknologi Informasi dan Komunikasi",
        "nama_perusahaan": "KIRIM EMAIL INDONESIA",
        "tanggal_daftar": "2021-08-09",
        "nomor_tanda_daftar": "001247.01/DJAI.PSE/08/2021",
        "qr_code": "https://pse.kominfo.go.id/storage/images/qr_code/77db5a9a8388e0b0aa34dcbb27f9ac03.png",
        "status_id": "TERDAFTAR",
        "sistem_elektronik_id": 1374
      }
    },
    {
      "type": "tdpseTerbit",
      "id": 1865,
      "attributes": {
        "nomor_pb_umku": null,
        "nama": "Virtuathlon",
        "website": "virtuathlon.id",
        "sektor": "Sektor Teknologi Informasi dan Komunikasi",
        "nama_perusahaan": "RANWELL VIRTUATHLON INDONESIA",
        "tanggal_daftar": "2021-08-09",
        "nomor_tanda_daftar": "001246.01/DJAI.PSE/08/2021",
        "qr_code": "https://pse.kominfo.go.id/storage/images/qr_code/94aa5ae993d9fb52c0ad280822b8000f.png",
        "status_id": "TERDAFTAR",
        "sistem_elektronik_id": 1388
      }
    },
    {
      "type": "tdpseTerbit",
      "id": 8830,
      "attributes": {
        "nomor_pb_umku": "127300052217700020001",
        "nama": "KARMAFUND.ID",
        "website": "karmafund.id",
        "sektor": "Sektor Keuangan",
        "nama_perusahaan": "TEKNOLOGI MODAL BERSAMA",
        "tanggal_daftar": "2022-07-22",
        "nomor_tanda_daftar": "001245.02/DJAI.PSE/07/2022",
        "qr_code": "https://pse.kominfo.go.id/storage/images/qr_code/70350a28442b351afd0d31f88d10c30c.png",
        "status_id": "TERDAFTAR",
        "sistem_elektronik_id": 8738
      }
    },
    {
      "type": "tdpseTerbit",
      "id": 1864,
      "attributes": {
        "nomor_pb_umku": null,
        "nama": "Karmacap.id",
        "website": "https://karmacap.id, www.karmacap.id",
        "sektor": "Sektor Keuangan, Sektor Perdagangan, Sektor Teknologi Informasi dan Komunikasi",
        "nama_perusahaan": "TEKNOLOGI MODAL BERSAMA",
        "tanggal_daftar": "2021-08-09",
        "nomor_tanda_daftar": "001245.01/DJAI.PSE/08/2021",
        "qr_code": "https://pse.kominfo.go.id/storage/images/qr_code/ad83a0edb5586b4910f593c84ecebe12.png",
        "status_id": "TERDAFTAR",
        "sistem_elektronik_id": 1358
      }
    },
    {
      "type": "tdpseTerbit",
      "id": 1862,
      "attributes": {
        "nomor_pb_umku": null,
        "nama": "Atome",
        "website": "shop.atome.id",
        "sektor": "Sektor Teknologi Informasi dan Komunikasi",
        "nama_perusahaan": "MEGA SHOPINTAR INDONESIA",
        "tanggal_daftar": "2021-08-09",
        "nomor_tanda_daftar": "001244.01/DJAI.PSE/08/2021",
        "qr_code": "https://pse.kominfo.go.id/storage/images/qr_code/8cd4cdc36a02c5fcce00c549f2c58f61.png",
        "status_id": "TERDAFTAR",
        "sistem_elektronik_id": 812
      }
    },
    {
      "type": "tdpseTerbit",
      "id": 1861,
      "attributes": {
        "nomor_pb_umku": null,
        "nama": "lumina.mba",
        "website": "https://lumina.mba",
        "sektor": "Sektor Teknologi Informasi dan Komunikasi",
        "nama_perusahaan": "LENTERA ASA NUSANTARA",
        "tanggal_daftar": "2021-08-09",
        "nomor_tanda_daftar": "001243.01/DJAI.PSE/08/2021",
        "qr_code": "https://pse.kominfo.go.id/storage/images/qr_code/d554a2c1dea4ba238bbee3f5d3107759.png",
        "status_id": "TERDAFTAR",
        "sistem_elektronik_id": 1402
      }
    }
  ]
}