{
  "meta": {
    "page": {
      "currentPage": 688,
      "from": 6871,
      "lastPage": 1056,
      "perPage": 10,
      "to": 6880,
      "total": 10553
    }
  },
  "data": [
    {
      "type": "tdpseTerbit",
      "id": 2955,
      "attributes": {
        "nomor_pb_umku": null,
        "nama": "Sistem Elektronik Titipku",
        "website": "https://titipku.com/",
        "sektor": "Sektor Perdagangan, Sektor Teknologi Informasi dan Komunikasi",
        "nama_perusahaan": "TERANG BAGI BANGSA",
        "tanggal_daftar": "2022-01-06",
        "nomor_tanda_daftar": "001895.01/DJAI.PSE/01/2022",
        "qr_code": "https://pse.kominfo.go.id/storage/images/qr_code/10d0c6e3b947f68f4065dcd536321c2a.png",
        "status_id": "TERDAFTAR",
        "sistem_elektronik_id": 2051
      }
    },
    {
      "type": "tdpseTerbit",
      "id": 11577,
      "attributes": {
        "nomor_pb_umku": "129400023120800010008",
        "nama": "PDGIMALL",
        "website": "pdgimall.co.id",
        "sektor": "Sektor Perdagangan, Sektor Kesehatan, Sektor Teknologi Informasi dan Komunikasi",
        "nama_perusahaan": "LANCAR REKA SAMPURNA",
        "tanggal_daftar": "2022-10-06",
        "nomor_tanda_daftar": "001894.02/DJAI.PSE/10/2022",
        "qr_code": "https://pse.kominfo.go.id/storage/images/qr_code/b61aa4e4e2dd934ed378492d43144a89.png",
        "status_id": "TERDAFTAR",
        "sistem_elektronik_id": 11378
      }
    },
    {
      "type": "tdpseTerbit",
      "id": 2953,
      "attributes": {
        "nomor_pb_umku": null,
        "nama": "GHinshop",
        "website": "gh-orthoindonesia.com",
        "sektor": "Sektor Kesehatan, Sektor Perdagangan",
        "nama_perusahaan": "LANCAR REKA SAMPURNA",
        "tanggal_daftar": "2022-01-05",
        "nomor_tanda_daftar": "001894.01/DJAI.PSE/01/2022",
        "qr_code": "https://pse.kominfo.go.id/storage/images/qr_code/d7f4f1b80168c70c0d20dd56a142a4c1.png",
        "status_id": "TERDAFTAR",
        "sistem_elektronik_id": 1606
      }
    },
    {
      "type": "tdpseTerbit",
      "id": 10972,
      "attributes": {
        "nomor_pb_umku": "022030523131600070007",
        "nama": "APLIKASI EFEEDER",
        "website": "efishery.com",
        "sektor": "Sektor Pangan",
        "nama_perusahaan": "MULTIDAYA TEKNOLOGI NUSANTARA",
        "tanggal_daftar": "2022-09-01",
        "nomor_tanda_daftar": "001893.06/DJAI.PSE/09/2022",
        "qr_code": "https://pse.kominfo.go.id/storage/images/qr_code/4843371016606bd806cae3c9a46d861f.png",
        "status_id": "TERDAFTAR",
        "sistem_elektronik_id": 10780
      }
    },
    {
      "type": "tdpseTerbit",
      "id": 10960,
      "attributes": {
        "nomor_pb_umku": "022030523131600070006",
        "nama": "EFISHERY SMART FEEDER",
        "website": "efishery.com",
        "sektor": "Sektor Pangan",
        "nama_perusahaan": "MULTIDAYA TEKNOLOGI NUSANTARA",
        "tanggal_daftar": "2022-09-01",
        "nomor_tanda_daftar": "001893.05/DJAI.PSE/09/2022",
        "qr_code": "https://pse.kominfo.go.id/storage/images/qr_code/e5834b60a39a7d3037eb5900a77b2d4c.png",
        "status_id": "TERDAFTAR",
        "sistem_elektronik_id": 10769
      }
    },
    {
      "type": "tdpseTerbit",
      "id": 10959,
      "attributes": {
        "nomor_pb_umku": "022030523131600070005",
        "nama": "APLIKASI EFISHERYKU",
        "website": "efishery.com",
        "sektor": "Sektor Perdagangan",
        "nama_perusahaan": "MULTIDAYA TEKNOLOGI NUSANTARA",
        "tanggal_daftar": "2022-09-01",
        "nomor_tanda_daftar": "001893.04/DJAI.PSE/09/2022",
        "qr_code": "https://pse.kominfo.go.id/storage/images/qr_code/3eb793cf778b807425f4e4466b9ad857.png",
        "status_id": "TERDAFTAR",
        "sistem_elektronik_id": 10768
      }
    },
    {
      "type": "tdpseTerbit",
      "id": 10958,
      "attributes": {
        "nomor_pb_umku": "022030523131600070004",
        "nama": "EFISHERY FRESH",
        "website": "efishery.com",
        "sektor": "Sektor Perdagangan, Sektor Pangan",
        "nama_perusahaan": "MULTIDAYA TEKNOLOGI NUSANTARA",
        "tanggal_daftar": "2022-09-01",
        "nomor_tanda_daftar": "001893.03/DJAI.PSE/09/2022",
        "qr_code": "https://pse.kominfo.go.id/storage/images/qr_code/209a1dfe9e50a6aa3e3c8a0ef038ad9e.png",
        "status_id": "TERDAFTAR",
        "sistem_elektronik_id": 10767
      }
    },
    {
      "type": "tdpseTerbit",
      "id": 10957,
      "attributes": {
        "nomor_pb_umku": "022030523131600070003",
        "nama": "APLIKASI EFARM",
        "website": "efishery.com",
        "sektor": "Sektor Perdagangan",
        "nama_perusahaan": "MULTIDAYA TEKNOLOGI NUSANTARA",
        "tanggal_daftar": "2022-09-01",
        "nomor_tanda_daftar": "001893.02/DJAI.PSE/09/2022",
        "qr_code": "https://pse.kominfo.go.id/storage/images/qr_code/ddcf72a4ab09faf601972ba1b6f40bc0.png",
        "status_id": "TERDAFTAR",
        "sistem_elektronik_id": 10765
      }
    },
    {
      "type": "tdpseTerbit",
      "id": 2952,
      "attributes": {
        "nomor_pb_umku": null,
        "nama": "eFishery Feeder",
        "website": "http://api.efishery.com/",
        "sektor": "Sektor Pangan, Sektor Perdagangan",
        "nama_perusahaan": "MULTIDAYA TEKNOLOGI NUSANTARA",
        "tanggal_daftar": "2022-01-05",
        "nomor_tanda_daftar": "001893.01/DJAI.PSE/01/2022",
        "qr_code": "https://pse.kominfo.go.id/storage/images/qr_code/45fd7ee1bedcf8112ad5ec52cf7e5ec0.png",
        "status_id": "TERDAFTAR",
        "sistem_elektronik_id": 343
      }
    },
    {
      "type": "tdpseTerbit",
      "id": 2948,
      "attributes": {
        "nomor_pb_umku": null,
        "nama": "Portal Berita Online www.sakanews.com",
        "website": "sakanews.com",
        "sektor": "Sektor Perdagangan, Sektor Teknologi Informasi dan Komunikasi",
        "nama_perusahaan": "SAKA NEWS BRILLIANT",
        "tanggal_daftar": "2022-01-04",
        "nomor_tanda_daftar": "001892.01/DJAI.PSE/01/2022",
        "qr_code": "https://pse.kominfo.go.id/storage/images/qr_code/b06608ff1033e646d30bea73cf03e922.png",
        "status_id": "TERDAFTAR",
        "sistem_elektronik_id": 2010
      }
    }
  ]
}