{
  "meta": {
    "page": {
      "currentPage": 689,
      "from": 6881,
      "lastPage": 1055,
      "perPage": 10,
      "to": 6890,
      "total": 10545
    }
  },
  "data": [
    {
      "type": "tdpseTerbit",
      "id": 2941,
      "attributes": {
        "nomor_pb_umku": null,
        "nama": "WEBS",
        "website": "webs.id",
        "sektor": "Sektor Teknologi Informasi dan Komunikasi",
        "nama_perusahaan": "WEBS FOR INDONESIA",
        "tanggal_daftar": "2022-01-02",
        "nomor_tanda_daftar": "001886.01/DJAI.PSE/01/2022",
        "qr_code": "https://pse.kominfo.go.id/storage/images/qr_code/efb338e78e388ebd86cc4985ba492587.png",
        "status_id": "TERDAFTAR",
        "sistem_elektronik_id": 2007
      }
    },
    {
      "type": "tdpseTerbit",
      "id": 2939,
      "attributes": {
        "nomor_pb_umku": null,
        "nama": "snacktime",
        "website": "www.snacktime.co.id",
        "sektor": "Sektor Perdagangan",
        "nama_perusahaan": "KARSA MEDIA DIGITAL",
        "tanggal_daftar": "2021-12-31",
        "nomor_tanda_daftar": "001885.01/DJAI.PSE/12/2021",
        "qr_code": "https://pse.kominfo.go.id/storage/images/qr_code/4e51f93681cb03ea40d71af6d33408c8.png",
        "status_id": "TERDAFTAR",
        "sistem_elektronik_id": 2003
      }
    },
    {
      "type": "tdpseTerbit",
      "id": 5490,
      "attributes": {
        "nomor_pb_umku": "912020448118100030011",
        "nama": "JARVIN",
        "website": "-",
        "sektor": "Sektor Teknologi Informasi dan Komunikasi",
        "nama_perusahaan": "BUMI BERKAH BOGA",
        "tanggal_daftar": "2022-05-27",
        "nomor_tanda_daftar": "001884.02/DJAI.PSE/05/2022",
        "qr_code": "https://pse.kominfo.go.id/storage/images/qr_code/9ce6f5fb717a08e7333ad0be8c0e9f1b.png",
        "status_id": "TERDAFTAR",
        "sistem_elektronik_id": 4159
      }
    },
    {
      "type": "tdpseTerbit",
      "id": 2938,
      "attributes": {
        "nomor_pb_umku": null,
        "nama": "Kopi Kenangan Apps",
        "website": "kopikenangan.com",
        "sektor": "Sektor Perdagangan",
        "nama_perusahaan": "BUMI BERKAH BOGA",
        "tanggal_daftar": "2021-12-31",
        "nomor_tanda_daftar": "001884.01/DJAI.PSE/12/2021",
        "qr_code": "https://pse.kominfo.go.id/storage/images/qr_code/9cca2338928caa54258843c9516d4141.png",
        "status_id": "TERDAFTAR",
        "sistem_elektronik_id": 606
      }
    },
    {
      "type": "tdpseTerbit",
      "id": 2937,
      "attributes": {
        "nomor_pb_umku": null,
        "nama": "Fotoyu",
        "website": "fotoyu.com",
        "sektor": "Sektor Perdagangan",
        "nama_perusahaan": "SUPER GIGA GENERASI",
        "tanggal_daftar": "2021-12-31",
        "nomor_tanda_daftar": "001883.01/DJAI.PSE/12/2021",
        "qr_code": "https://pse.kominfo.go.id/storage/images/qr_code/20341ba6496ebc8808cef7873cbdf5b5.png",
        "status_id": "TERDAFTAR",
        "sistem_elektronik_id": 1464
      }
    },
    {
      "type": "tdpseTerbit",
      "id": 2936,
      "attributes": {
        "nomor_pb_umku": null,
        "nama": "Moinves",
        "website": "moinves.co.id",
        "sektor": "Sektor Keuangan",
        "nama_perusahaan": "MANDIRI MANAJEMEN INVESTASI",
        "tanggal_daftar": "2021-12-31",
        "nomor_tanda_daftar": "001882.01/DJAI.PSE/12/2021",
        "qr_code": "https://pse.kominfo.go.id/storage/images/qr_code/d0050549a37470c29cd41001588ad604.png",
        "status_id": "TERDAFTAR",
        "sistem_elektronik_id": 2851
      }
    },
    {
      "type": "tdpseTerbit",
      "id": 2935,
      "attributes": {
        "nomor_pb_umku": null,
        "nama": "SindoPay",
        "website": "datasolusindo.id",
        "sektor": "Sektor Keuangan, Sektor Teknologi Informasi dan Komunikasi",
        "nama_perusahaan": "DATA SOLUSINDO PERKASA",
        "tanggal_daftar": "2021-12-31",
        "nomor_tanda_daftar": "001881.01/DJAI.PSE/12/2021",
        "qr_code": "https://pse.kominfo.go.id/storage/images/qr_code/ed9df5eb0cf15c7b9a90419c8d08e3b5.png",
        "status_id": "TERDAFTAR",
        "sistem_elektronik_id": 1967
      }
    },
    {
      "type": "tdpseTerbit",
      "id": 3627,
      "attributes": {
        "nomor_pb_umku": null,
        "nama": "Aplikasi Kimia Farma Mobile",
        "website": "www.kimiafarmaapotek.co.id",
        "sektor": "Sektor Kesehatan",
        "nama_perusahaan": "KIMIA FARMA APOTEK",
        "tanggal_daftar": "2022-03-23",
        "nomor_tanda_daftar": "001880.02/DJAI.PSE/03/2022",
        "qr_code": "https://pse.kominfo.go.id/storage/images/qr_code/424803f5c89296628d1580ef8a08f7ee.png",
        "status_id": "TERDAFTAR",
        "sistem_elektronik_id": 3552
      }
    },
    {
      "type": "tdpseTerbit",
      "id": 2934,
      "attributes": {
        "nomor_pb_umku": null,
        "nama": "Kimia Farma Mobile",
        "website": "www.kimiafarmaapotek.co.id",
        "sektor": "Sektor Kesehatan",
        "nama_perusahaan": "KIMIA FARMA APOTEK",
        "tanggal_daftar": "2021-12-31",
        "nomor_tanda_daftar": "001880.01/DJAI.PSE/12/2021",
        "qr_code": "https://pse.kominfo.go.id/storage/images/qr_code/0c521887d2e8d90830e23021b61c90a4.png",
        "status_id": "TERDAFTAR",
        "sistem_elektronik_id": 1993
      }
    },
    {
      "type": "tdpseTerbit",
      "id": 5420,
      "attributes": {
        "nomor_pb_umku": "022010417140600020004",
        "nama": "WAKAF IKHLAS",
        "website": "wakaf.bjbsyariah.co.id",
        "sektor": "Sektor Keuangan",
        "nama_perusahaan": "BANK JABAR BANTEN SYARIAH",
        "tanggal_daftar": "2022-07-12",
        "nomor_tanda_daftar": "001879.07/DJAI.PSE/07/2022",
        "qr_code": "https://pse.kominfo.go.id/storage/images/qr_code/5c4756ee7d42f9eb182567f90e63d7c5.png",
        "status_id": "TERDAFTAR",
        "sistem_elektronik_id": 5292
      }
    }
  ]
}