{
  "meta": {
    "page": {
      "currentPage": 690,
      "from": 6891,
      "lastPage": 890,
      "perPage": 10,
      "to": 6900,
      "total": 8897
    }
  },
  "data": [
    {
      "type": "tdpseTerbit",
      "id": 1405,
      "attributes": {
        "nomor_pb_umku": null,
        "nama": "GERBANGAKSES",
        "website": "gerbangakses.id",
        "sektor": "Sektor Teknologi Informasi dan Komunikasi",
        "nama_perusahaan": "GERBANG AKSES INDONESIA",
        "tanggal_daftar": "2021-06-09",
        "nomor_tanda_daftar": "000935.01/DJAI.PSE/06/2021",
        "qr_code": "https://pse.kominfo.go.id/storage/images/qr_code/0f839086980b940d40a80e5f0a488ab7.png",
        "status_id": "TERDAFTAR",
        "sistem_elektronik_id": 2812
      }
    },
    {
      "type": "tdpseTerbit",
      "id": 1402,
      "attributes": {
        "nomor_pb_umku": null,
        "nama": "Aku Pintar Indonesia",
        "website": "https://akupintar.id",
        "sektor": "Sektor Teknologi Informasi dan Komunikasi",
        "nama_perusahaan": "AKU PINTAR INDONESIA",
        "tanggal_daftar": "2021-06-09",
        "nomor_tanda_daftar": "000934.01/DJAI.PSE/06/2021",
        "qr_code": "https://pse.kominfo.go.id/storage/images/qr_code/ca4999aab50e86da833bbede2079d4b6.png",
        "status_id": "TERDAFTAR",
        "sistem_elektronik_id": 978
      }
    },
    {
      "type": "tdpseTerbit",
      "id": 1942,
      "attributes": {
        "nomor_pb_umku": null,
        "nama": "Komuno",
        "website": "http://komuno.id/",
        "sektor": "Sektor Teknologi Informasi dan Komunikasi",
        "nama_perusahaan": "FANTASTIS ANAK BANGSA INDONESIA",
        "tanggal_daftar": "2021-10-04",
        "nomor_tanda_daftar": "000933.02/DJAI.PSE/10/2021",
        "qr_code": "https://pse.kominfo.go.id/storage/images/qr_code/c7ebbd0e89cfafa54f56643b3ec94609.png",
        "status_id": "TERDAFTAR",
        "sistem_elektronik_id": 675
      }
    },
    {
      "type": "tdpseTerbit",
      "id": 1400,
      "attributes": {
        "nomor_pb_umku": null,
        "nama": "Tlusure",
        "website": "http://tlusure.com",
        "sektor": "Sektor Teknologi Informasi dan Komunikasi",
        "nama_perusahaan": "FANTASTIS ANAK BANGSA INDONESIA",
        "tanggal_daftar": "2021-06-09",
        "nomor_tanda_daftar": "000933.01/DJAI.PSE/06/2021",
        "qr_code": "https://pse.kominfo.go.id/storage/images/qr_code/6ab7d82bbb8c8b9dd0ae6f5523eb6efc.png",
        "status_id": "TERDAFTAR",
        "sistem_elektronik_id": 674
      }
    },
    {
      "type": "tdpseTerbit",
      "id": 1401,
      "attributes": {
        "nomor_pb_umku": null,
        "nama": "Smartyseller Indonesia",
        "website": "Https://www.smartyseller.id",
        "sektor": "Sektor Perdagangan",
        "nama_perusahaan": "SMARTY SEJAHTERA INDONESIA",
        "tanggal_daftar": "2021-06-09",
        "nomor_tanda_daftar": "000932.02/DJAI.PSE/06/2021",
        "qr_code": "https://pse.kominfo.go.id/storage/images/qr_code/8efdd9cfa09b32d5582f5cabe6d34a8d.png",
        "status_id": "TERDAFTAR",
        "sistem_elektronik_id": 1025
      }
    },
    {
      "type": "tdpseTerbit",
      "id": 1399,
      "attributes": {
        "nomor_pb_umku": null,
        "nama": "Smarty Platform",
        "website": "https://www.smartyshop.co.id",
        "sektor": "Sektor Perdagangan, Sektor Teknologi Informasi dan Komunikasi",
        "nama_perusahaan": "SMARTY SEJAHTERA INDONESIA",
        "tanggal_daftar": "2021-06-09",
        "nomor_tanda_daftar": "000932.01/DJAI.PSE/06/2021",
        "qr_code": "https://pse.kominfo.go.id/storage/images/qr_code/15b7966c2d8024433bf9a18a3c160c26.png",
        "status_id": "TERDAFTAR",
        "sistem_elektronik_id": 1024
      }
    },
    {
      "type": "tdpseTerbit",
      "id": 1398,
      "attributes": {
        "nomor_pb_umku": null,
        "nama": "Sayurbox",
        "website": "www.sayurbox.com",
        "sektor": "Sektor Perdagangan",
        "nama_perusahaan": "KREASI NOSTRA MANDIRI",
        "tanggal_daftar": "2021-06-09",
        "nomor_tanda_daftar": "000931.01/DJAI.PSE/06/2021",
        "qr_code": "https://pse.kominfo.go.id/storage/images/qr_code/8eae1baf0014350781ae58e69d30134a.png",
        "status_id": "TERDAFTAR",
        "sistem_elektronik_id": 1020
      }
    },
    {
      "type": "tdpseTerbit",
      "id": 1397,
      "attributes": {
        "nomor_pb_umku": null,
        "nama": "Plum",
        "website": "plum.id",
        "sektor": "Sektor Perdagangan",
        "nama_perusahaan": "KONSUMEN DIGITAL ASET NUSANTARA",
        "tanggal_daftar": "2021-06-09",
        "nomor_tanda_daftar": "000930.01/DJAI.PSE/06/2021",
        "qr_code": "https://pse.kominfo.go.id/storage/images/qr_code/723127e21eeef3f542ea081fdb39da21.png",
        "status_id": "TERDAFTAR",
        "sistem_elektronik_id": 3361
      }
    },
    {
      "type": "tdpseTerbit",
      "id": 1866,
      "attributes": {
        "nomor_pb_umku": null,
        "nama": "UNIQLO INDONESIA",
        "website": "uniqlo.com/id",
        "sektor": "Sektor Perdagangan",
        "nama_perusahaan": "FAST RETAILING INDONESIA",
        "tanggal_daftar": "2021-08-09",
        "nomor_tanda_daftar": "000929.02/DJAI.PSE/08/2021",
        "qr_code": "https://pse.kominfo.go.id/storage/images/qr_code/c6010c5c7a538988c04e4ccba9eef25f.png",
        "status_id": "TERDAFTAR",
        "sistem_elektronik_id": 1023
      }
    },
    {
      "type": "tdpseTerbit",
      "id": 1396,
      "attributes": {
        "nomor_pb_umku": null,
        "nama": "UNIQLO",
        "website": "https://uniqlo.com/id",
        "sektor": "Sektor Perdagangan",
        "nama_perusahaan": "FAST RETAILING INDONESIA",
        "tanggal_daftar": "2021-06-09",
        "nomor_tanda_daftar": "000929.01/DJAI.PSE/06/2021",
        "qr_code": "https://pse.kominfo.go.id/storage/images/qr_code/289547e423b9b2cec60310cb3b88704e.png",
        "status_id": "TERDAFTAR",
        "sistem_elektronik_id": 1022
      }
    }
  ]
}