{
  "meta": {
    "page": {
      "currentPage": 70,
      "from": 691,
      "lastPage": 873,
      "perPage": 10,
      "to": 700,
      "total": 8721
    }
  },
  "data": [
    {
      "type": "tdpseTerbit",
      "id": 8032,
      "attributes": {
        "nomor_pb_umku": "912020085252400000001",
        "nama": "APLIKASI",
        "website": "-",
        "sektor": "Sektor Keuangan",
        "nama_perusahaan": "GADAIKU PASTI JAYA",
        "tanggal_daftar": "2022-07-20",
        "nomor_tanda_daftar": "005743.01/DJAI.PSE/07/2022",
        "qr_code": "https://pse.kominfo.go.id/storage/images/qr_code/c5dc55ba1680bc82b1c6d1d97c6758aa.png",
        "status_id": "TERDAFTAR",
        "sistem_elektronik_id": 7953
      }
    },
    {
      "type": "tdpseTerbit",
      "id": 8889,
      "attributes": {
        "nomor_pb_umku": "912020180079900020001",
        "nama": "KOMPAK MOBILE",
        "website": "kompak.co.id",
        "sektor": "Sektor Perdagangan",
        "nama_perusahaan": "KOMPAK INDOPOLA",
        "tanggal_daftar": "2022-07-22",
        "nomor_tanda_daftar": "005742.02/DJAI.PSE/07/2022",
        "qr_code": "https://pse.kominfo.go.id/storage/images/qr_code/86389015fa062d33cc26f1662b2303d6.png",
        "status_id": "TERDAFTAR",
        "sistem_elektronik_id": 8792
      }
    },
    {
      "type": "tdpseTerbit",
      "id": 9038,
      "attributes": {
        "nomor_pb_umku": "912020180079900020002",
        "nama": "WEBSITE",
        "website": "KOMPAK.CO.ID",
        "sektor": "Sektor Perdagangan",
        "nama_perusahaan": "KOMPAK INDOPOLA",
        "tanggal_daftar": "2022-07-26",
        "nomor_tanda_daftar": "005742.01/DJAI.PSE/07/2022",
        "qr_code": "https://pse.kominfo.go.id/storage/images/qr_code/9ea5ba82a87f8329274d1b142e1cfb95.png",
        "status_id": "TERDAFTAR",
        "sistem_elektronik_id": 7937
      }
    },
    {
      "type": "tdpseTerbit",
      "id": 8009,
      "attributes": {
        "nomor_pb_umku": "912000571257900010002",
        "nama": "PT.BPR RARAT GANDA",
        "website": "-",
        "sektor": "Sektor Keuangan",
        "nama_perusahaan": "BANK PERKREDITAN RAKYAT RARAT GANDA",
        "tanggal_daftar": "2022-07-20",
        "nomor_tanda_daftar": "005740.01/DJAI.PSE/07/2022",
        "qr_code": "https://pse.kominfo.go.id/storage/images/qr_code/7b586b4a38c266fbfbee6e7f7fabb7a3.png",
        "status_id": "TERDAFTAR",
        "sistem_elektronik_id": 7926
      }
    },
    {
      "type": "tdpseTerbit",
      "id": 7999,
      "attributes": {
        "nomor_pb_umku": "022020377194500010001",
        "nama": "WEBSITE PT BPR BKK MUNTILAN (PERSERODA)",
        "website": "bprbkkmuntilan.com",
        "sektor": "Sektor Keuangan",
        "nama_perusahaan": "BPR BKK MUNTILAN PERSERODA",
        "tanggal_daftar": "2022-07-20",
        "nomor_tanda_daftar": "005736.01/DJAI.PSE/07/2022",
        "qr_code": "https://pse.kominfo.go.id/storage/images/qr_code/617d0bce8656ba4927692aa997e1cc02.png",
        "status_id": "TERDAFTAR",
        "sistem_elektronik_id": 7918
      }
    },
    {
      "type": "tdpseTerbit",
      "id": 8378,
      "attributes": {
        "nomor_pb_umku": "912020192064400000001",
        "nama": "SUPERSEWA",
        "website": "supersewa.com",
        "sektor": "Sektor Perdagangan, Sektor Teknologi Informasi dan Komunikasi",
        "nama_perusahaan": "MEROKET BERSAMA SUPERSEWA",
        "tanggal_daftar": "2022-07-21",
        "nomor_tanda_daftar": "005735.01/DJAI.PSE/07/2022",
        "qr_code": "https://pse.kominfo.go.id/storage/images/qr_code/87e02af77f8b6d375659dda63b436163.png",
        "status_id": "TERDAFTAR",
        "sistem_elektronik_id": 8296
      }
    },
    {
      "type": "tdpseTerbit",
      "id": 8047,
      "attributes": {
        "nomor_pb_umku": "210322002147800020001",
        "nama": "KB BUKOPIN FINANCE",
        "website": "bukopinfinance.co.id",
        "sektor": "Sektor Keuangan",
        "nama_perusahaan": "KB BUKOPIN FINANCE",
        "tanggal_daftar": "2022-07-20",
        "nomor_tanda_daftar": "005734.01/DJAI.PSE/07/2022",
        "qr_code": "https://pse.kominfo.go.id/storage/images/qr_code/6d8c0295518298ea4fae962ddb13722f.png",
        "status_id": "TERDAFTAR",
        "sistem_elektronik_id": 7968
      }
    },
    {
      "type": "tdpseTerbit",
      "id": 8010,
      "attributes": {
        "nomor_pb_umku": "912050679351900020001",
        "nama": "WEBSITE PT. BPR ARTA KEDATON MAKMUR",
        "website": "bprartakedatonmakmurpt.co.id",
        "sektor": "Sektor Keuangan",
        "nama_perusahaan": "BANK PERKREDITAN RAKYAT ARTA KEDATON MAKMUR",
        "tanggal_daftar": "2022-07-20",
        "nomor_tanda_daftar": "005733.01/DJAI.PSE/07/2022",
        "qr_code": "https://pse.kominfo.go.id/storage/images/qr_code/2a2069c5e28a9cd7e283848995254aa7.png",
        "status_id": "TERDAFTAR",
        "sistem_elektronik_id": 7930
      }
    },
    {
      "type": "tdpseTerbit",
      "id": 8075,
      "attributes": {
        "nomor_pb_umku": "220322003985400000001",
        "nama": "JAKARTAWEBHOSTING.COM",
        "website": "jakartawebhosting.com",
        "sektor": "Sektor Teknologi Informasi dan Komunikasi",
        "nama_perusahaan": "TEKNOLOGIKA INTEGRATOR INDONESIA",
        "tanggal_daftar": "2022-07-20",
        "nomor_tanda_daftar": "005732.01/DJAI.PSE/07/2022",
        "qr_code": "https://pse.kominfo.go.id/storage/images/qr_code/07b099286f5dc473e6b0370cf569dac0.png",
        "status_id": "TERDAFTAR",
        "sistem_elektronik_id": 8000
      }
    },
    {
      "type": "tdpseTerbit",
      "id": 8091,
      "attributes": {
        "nomor_pb_umku": "812020386039300030001",
        "nama": "PT PACKET SYSTEMS INDONESIA",
        "website": "packet-systems.com",
        "sektor": "Sektor Teknologi Informasi dan Komunikasi",
        "nama_perusahaan": "PACKET SYSTEMS INDONESIA",
        "tanggal_daftar": "2022-07-20",
        "nomor_tanda_daftar": "005731.01/DJAI.PSE/07/2022",
        "qr_code": "https://pse.kominfo.go.id/storage/images/qr_code/cb3254b6b30637fb70a877dd5963222d.png",
        "status_id": "TERDAFTAR",
        "sistem_elektronik_id": 8011
      }
    }
  ]
}