{
  "meta": {
    "page": {
      "currentPage": 692,
      "from": 6911,
      "lastPage": 978,
      "perPage": 10,
      "to": 6920,
      "total": 9774
    }
  },
  "data": [
    {
      "type": "tdpseTerbit",
      "id": 2124,
      "attributes": {
        "nomor_pb_umku": null,
        "nama": "Mobile Banking BTPN Syariah",
        "website": "btpnsyariahmobile(appstrore/playstoreinstaller); https://webadmin-mbank.corp.btpns.com/ebanking-web/login; https://dashboard.btpnsyariah.com",
        "sektor": "Sektor Keuangan",
        "nama_perusahaan": "BANK BTPN SYARIAH",
        "tanggal_daftar": "2021-10-26",
        "nomor_tanda_daftar": "001421.01/DJAI.PSE/10/2021",
        "qr_code": "https://pse.kominfo.go.id/storage/images/qr_code/60270421eb0743ce353b32ba0517b58e.png",
        "status_id": "TERDAFTAR",
        "sistem_elektronik_id": 1479
      }
    },
    {
      "type": "tdpseTerbit",
      "id": 2123,
      "attributes": {
        "nomor_pb_umku": null,
        "nama": "Handyman Smart Home",
        "website": "www.handyman-id.com",
        "sektor": "Sektor Perdagangan",
        "nama_perusahaan": "PT Handyman Smarttech Indonesia",
        "tanggal_daftar": "2021-10-26",
        "nomor_tanda_daftar": "001420.01/DJAI.PSE/10/2021",
        "qr_code": "https://pse.kominfo.go.id/storage/images/qr_code/d1ec7a9f960a06084ea9123908d3effe.png",
        "status_id": "TERDAFTAR",
        "sistem_elektronik_id": 3036
      }
    },
    {
      "type": "tdpseTerbit",
      "id": 3761,
      "attributes": {
        "nomor_pb_umku": null,
        "nama": "Pluang",
        "website": "pluang.com",
        "sektor": "Sektor Perdagangan",
        "nama_perusahaan": "PLUANG EMAS SEJAHTERA",
        "tanggal_daftar": "2022-04-04",
        "nomor_tanda_daftar": "001419.02/DJAI.PSE/04/2022",
        "qr_code": "https://pse.kominfo.go.id/storage/images/qr_code/e828042cbe2f0f0c0e65c0267f935680.png",
        "status_id": "TERDAFTAR",
        "sistem_elektronik_id": 3803
      }
    },
    {
      "type": "tdpseTerbit",
      "id": 2122,
      "attributes": {
        "nomor_pb_umku": null,
        "nama": "Pluang Emas",
        "website": "pluang-emas.com",
        "sektor": "Sektor Perdagangan",
        "nama_perusahaan": "PLUANG EMAS SEJAHTERA",
        "tanggal_daftar": "2021-10-26",
        "nomor_tanda_daftar": "001419.01/DJAI.PSE/10/2021",
        "qr_code": "https://pse.kominfo.go.id/storage/images/qr_code/6628dafc3b5a9d304528cf658ffbdb4e.png",
        "status_id": "TERDAFTAR",
        "sistem_elektronik_id": 1536
      }
    },
    {
      "type": "tdpseTerbit",
      "id": 2121,
      "attributes": {
        "nomor_pb_umku": null,
        "nama": "Krasmart",
        "website": "www.krasmart.com",
        "sektor": "Sektor Perdagangan",
        "nama_perusahaan": "Krakatau Information Techonolgy",
        "tanggal_daftar": "2021-10-26",
        "nomor_tanda_daftar": "001418.01/DJAI.PSE/10/2021",
        "qr_code": "https://pse.kominfo.go.id/storage/images/qr_code/48d12e021647f0633d698194db6eeca8.png",
        "status_id": "TERDAFTAR",
        "sistem_elektronik_id": 3035
      }
    },
    {
      "type": "tdpseTerbit",
      "id": 3636,
      "attributes": {
        "nomor_pb_umku": null,
        "nama": "Aladinku",
        "website": "Aladinku.co.id",
        "sektor": "Sektor Keuangan",
        "nama_perusahaan": "INTEKNO RAYA",
        "tanggal_daftar": "2022-03-24",
        "nomor_tanda_daftar": "001417.03/DJAI.PSE/03/2022",
        "qr_code": "https://pse.kominfo.go.id/storage/images/qr_code/2c750e2bc92de583ee9ac28791e20a4e.png",
        "status_id": "TERDAFTAR",
        "sistem_elektronik_id": 3689
      }
    },
    {
      "type": "tdpseTerbit",
      "id": 3067,
      "attributes": {
        "nomor_pb_umku": null,
        "nama": "BOOSTER",
        "website": "boosterku.co.id",
        "sektor": "Sektor Keuangan",
        "nama_perusahaan": "INTEKNO RAYA",
        "tanggal_daftar": "2022-01-19",
        "nomor_tanda_daftar": "001417.02/DJAI.PSE/01/2022",
        "qr_code": "https://pse.kominfo.go.id/storage/images/qr_code/988e47a6c4945fe09ba2efd9b45d854f.png",
        "status_id": "TERDAFTAR",
        "sistem_elektronik_id": 3400
      }
    },
    {
      "type": "tdpseTerbit",
      "id": 2120,
      "attributes": {
        "nomor_pb_umku": null,
        "nama": "DANAMERDEKA",
        "website": "https://danamerdeka.co.id",
        "sektor": "Sektor Keuangan",
        "nama_perusahaan": "INTEKNO RAYA",
        "tanggal_daftar": "2021-10-26",
        "nomor_tanda_daftar": "001417.01/DJAI.PSE/10/2021",
        "qr_code": "https://pse.kominfo.go.id/storage/images/qr_code/41421237b725153cb4560af988009e4e.png",
        "status_id": "TERDAFTAR",
        "sistem_elektronik_id": 3399
      }
    },
    {
      "type": "tdpseTerbit",
      "id": 2119,
      "attributes": {
        "nomor_pb_umku": null,
        "nama": "MyIdScore",
        "website": "myidscore.id",
        "sektor": "Sektor Teknologi Informasi dan Komunikasi",
        "nama_perusahaan": "PT PEFINDO BIRO KREDIT",
        "tanggal_daftar": "2021-10-26",
        "nomor_tanda_daftar": "001416.01/DJAI.PSE/10/2021",
        "qr_code": "https://pse.kominfo.go.id/storage/images/qr_code/655efc37c98eba84a2b5996959b00b66.png",
        "status_id": "TERDAFTAR",
        "sistem_elektronik_id": 3034
      }
    },
    {
      "type": "tdpseTerbit",
      "id": 2118,
      "attributes": {
        "nomor_pb_umku": null,
        "nama": "Sitoen",
        "website": "https://www.sitoen.com",
        "sektor": "Sektor Perdagangan, Sektor Teknologi Informasi dan Komunikasi",
        "nama_perusahaan": "Sitoen Karya Abadi",
        "tanggal_daftar": "2021-10-26",
        "nomor_tanda_daftar": "001415.01/DJAI.PSE/10/2021",
        "qr_code": "https://pse.kominfo.go.id/storage/images/qr_code/eaf7a7bf2a7c7e786d196c15cccb0614.png",
        "status_id": "TERDAFTAR",
        "sistem_elektronik_id": 3033
      }
    }
  ]
}