{
  "meta": {
    "page": {
      "currentPage": 693,
      "from": 6921,
      "lastPage": 981,
      "perPage": 10,
      "to": 6930,
      "total": 9802
    }
  },
  "data": [
    {
      "type": "tdpseTerbit",
      "id": 2134,
      "attributes": {
        "nomor_pb_umku": null,
        "nama": "OSCARLIVING",
        "website": "www.oscarliving.go.id",
        "sektor": "Sektor Perdagangan",
        "nama_perusahaan": "PT. OSCAR MITRA SUKSES SEJAHTERA",
        "tanggal_daftar": "2021-10-26",
        "nomor_tanda_daftar": "001429.01/DJAI.PSE/10/2021",
        "qr_code": "https://pse.kominfo.go.id/storage/images/qr_code/d26022572ec5da136b945822ad04c16e.png",
        "status_id": "TERDAFTAR",
        "sistem_elektronik_id": 3037
      }
    },
    {
      "type": "tdpseTerbit",
      "id": 2133,
      "attributes": {
        "nomor_pb_umku": null,
        "nama": "NTB Mall",
        "website": "http://ntbmall.com/",
        "sektor": "Sektor Perdagangan",
        "nama_perusahaan": "NTB MALL GEMILANG",
        "tanggal_daftar": "2021-10-26",
        "nomor_tanda_daftar": "001428.01/DJAI.PSE/10/2021",
        "qr_code": "https://pse.kominfo.go.id/storage/images/qr_code/cba1f8c2fe6d48c61e5f7c9c768ec567.png",
        "status_id": "TERDAFTAR",
        "sistem_elektronik_id": 1507
      }
    },
    {
      "type": "tdpseTerbit",
      "id": 2132,
      "attributes": {
        "nomor_pb_umku": null,
        "nama": "share2u",
        "website": "www.share2u.digital",
        "sektor": "Sektor Perdagangan",
        "nama_perusahaan": "PT.HASBION SHARE INDONESIA",
        "tanggal_daftar": "2021-10-26",
        "nomor_tanda_daftar": "001427.01/DJAI.PSE/10/2021",
        "qr_code": "https://pse.kominfo.go.id/storage/images/qr_code/5a902cfa8a1b3d996304577f6fc24115.png",
        "status_id": "TERDAFTAR",
        "sistem_elektronik_id": 3040
      }
    },
    {
      "type": "tdpseTerbit",
      "id": 2131,
      "attributes": {
        "nomor_pb_umku": null,
        "nama": "99ninetynine",
        "website": "99ninetynine.com",
        "sektor": "Sektor Keuangan, Sektor Perdagangan, Sektor Teknologi Informasi dan Komunikasi, Sektor Transportasi",
        "nama_perusahaan": "NINETYNINE DIGITAL NIAGA",
        "tanggal_daftar": "2021-10-26",
        "nomor_tanda_daftar": "001426.01/DJAI.PSE/10/2021",
        "qr_code": "https://pse.kominfo.go.id/storage/images/qr_code/866e3697c5cdaec5e2c401d030f1e6ff.png",
        "status_id": "TERDAFTAR",
        "sistem_elektronik_id": 3360
      }
    },
    {
      "type": "tdpseTerbit",
      "id": 2130,
      "attributes": {
        "nomor_pb_umku": null,
        "nama": "PT Top Karir Indonesia",
        "website": "https://www.topkarir.com/",
        "sektor": "Sektor Teknologi Informasi dan Komunikasi",
        "nama_perusahaan": "PT Top Karir Indonesia",
        "tanggal_daftar": "2021-10-26",
        "nomor_tanda_daftar": "001425.01/DJAI.PSE/10/2021",
        "qr_code": "https://pse.kominfo.go.id/storage/images/qr_code/f8684e9223136e1141e08086bd11d74f.png",
        "status_id": "TERDAFTAR",
        "sistem_elektronik_id": 3039
      }
    },
    {
      "type": "tdpseTerbit",
      "id": 2129,
      "attributes": {
        "nomor_pb_umku": null,
        "nama": "Harrisma data citta",
        "website": "www.hdc.co.id",
        "sektor": "Sektor Teknologi Informasi dan Komunikasi",
        "nama_perusahaan": "HARRISMA DATA CITTA",
        "tanggal_daftar": "2021-10-26",
        "nomor_tanda_daftar": "001424.01/DJAI.PSE/10/2021",
        "qr_code": "https://pse.kominfo.go.id/storage/images/qr_code/b6ce1fe62d10cbeda342bb0b762e0e47.png",
        "status_id": "TERDAFTAR",
        "sistem_elektronik_id": 256
      }
    },
    {
      "type": "tdpseTerbit",
      "id": 4591,
      "attributes": {
        "nomor_pb_umku": null,
        "nama": "PDaja.com",
        "website": "https://www.pdaja.com/",
        "sektor": "Sektor Keuangan",
        "nama_perusahaan": "BANK SAHABAT SAMPOERNA",
        "tanggal_daftar": "2022-04-27",
        "nomor_tanda_daftar": "001422.06/DJAI.PSE/04/2022",
        "qr_code": "https://pse.kominfo.go.id/storage/images/qr_code/657e56a38b4b83b6313294f7c812ab48.png",
        "status_id": "TERDAFTAR",
        "sistem_elektronik_id": 4554
      }
    },
    {
      "type": "tdpseTerbit",
      "id": 4590,
      "attributes": {
        "nomor_pb_umku": null,
        "nama": "Website Bank Sahabat Sampoerna",
        "website": "https://www.banksampoerna.com/",
        "sektor": "Sektor Keuangan",
        "nama_perusahaan": "BANK SAHABAT SAMPOERNA",
        "tanggal_daftar": "2022-04-25",
        "nomor_tanda_daftar": "001422.05/DJAI.PSE/04/2022",
        "qr_code": "https://pse.kominfo.go.id/storage/images/qr_code/b71ab919872f7bd5e98275fa4f79a17d.png",
        "status_id": "TERDAFTAR",
        "sistem_elektronik_id": 4553
      }
    },
    {
      "type": "tdpseTerbit",
      "id": 4589,
      "attributes": {
        "nomor_pb_umku": null,
        "nama": "Internet Banking Bank  Sahabat Sampoerna",
        "website": "ibank.banksampoerna.co.id",
        "sektor": "Sektor Keuangan",
        "nama_perusahaan": "BANK SAHABAT SAMPOERNA",
        "tanggal_daftar": "2022-04-08",
        "nomor_tanda_daftar": "001422.04/DJAI.PSE/04/2022",
        "qr_code": "https://pse.kominfo.go.id/storage/images/qr_code/d052553929d9aa679c7851f73522a1d9.png",
        "status_id": "TERDAFTAR",
        "sistem_elektronik_id": 4552
      }
    },
    {
      "type": "tdpseTerbit",
      "id": 3787,
      "attributes": {
        "nomor_pb_umku": null,
        "nama": "Sampoerna Mobile Banking",
        "website": "https://sampoernamobile.banksampoerna.com",
        "sektor": "Sektor Keuangan",
        "nama_perusahaan": "BANK SAHABAT SAMPOERNA",
        "tanggal_daftar": "2022-04-06",
        "nomor_tanda_daftar": "001422.03/DJAI.PSE/04/2022",
        "qr_code": "https://pse.kominfo.go.id/storage/images/qr_code/3bb73a71b428e1cd6040d0910ff289c5.png",
        "status_id": "TERDAFTAR",
        "sistem_elektronik_id": 3690
      }
    }
  ]
}