{
  "meta": {
    "page": {
      "currentPage": 694,
      "from": 6931,
      "lastPage": 997,
      "perPage": 10,
      "to": 6940,
      "total": 9961
    }
  },
  "data": [
    {
      "type": "tdpseTerbit",
      "id": 2293,
      "attributes": {
        "nomor_pb_umku": null,
        "nama": "Platform Dropship dan Reseller",
        "website": "https://indohp.co.id",
        "sektor": "Sektor Perdagangan",
        "nama_perusahaan": "PT Indonesia Hakiki Pertama",
        "tanggal_daftar": "2021-11-08",
        "nomor_tanda_daftar": "001512.01/DJAI.PSE/11/2021",
        "qr_code": "https://pse.kominfo.go.id/storage/images/qr_code/d4d0102f77b6084492a651624b163600.png",
        "status_id": "TERDAFTAR",
        "sistem_elektronik_id": 3115
      }
    },
    {
      "type": "tdpseTerbit",
      "id": 2290,
      "attributes": {
        "nomor_pb_umku": null,
        "nama": "MediaHub Broadcast Service",
        "website": "https://www.mediahub.co.id",
        "sektor": "Sektor Teknologi Informasi dan Komunikasi",
        "nama_perusahaan": "MULTIMEDIA NUSANTARA",
        "tanggal_daftar": "2021-11-08",
        "nomor_tanda_daftar": "001511.01/DJAI.PSE/11/2021",
        "qr_code": "https://pse.kominfo.go.id/storage/images/qr_code/5e1dc4439e08b220a7df50d23663ce76.png",
        "status_id": "TERDAFTAR",
        "sistem_elektronik_id": 3486
      }
    },
    {
      "type": "tdpseTerbit",
      "id": 2283,
      "attributes": {
        "nomor_pb_umku": null,
        "nama": "KawanCicil",
        "website": "https://kawancicil.co.id",
        "sektor": "Sektor Keuangan",
        "nama_perusahaan": "PT KAWAN CICIL TEKNOLOGI UTAMA",
        "tanggal_daftar": "2021-11-08",
        "nomor_tanda_daftar": "001510.01/DJAI.PSE/11/2021",
        "qr_code": "https://pse.kominfo.go.id/storage/images/qr_code/f36d5eb45d8326e4e52dd8b898b5c53a.png",
        "status_id": "TERDAFTAR",
        "sistem_elektronik_id": 3114
      }
    },
    {
      "type": "tdpseTerbit",
      "id": 2282,
      "attributes": {
        "nomor_pb_umku": null,
        "nama": "Tonase",
        "website": "tonase.com",
        "sektor": "Sektor Transportasi",
        "nama_perusahaan": "PT Maritim Digital Indonesia",
        "tanggal_daftar": "2021-11-08",
        "nomor_tanda_daftar": "001509.01/DJAI.PSE/11/2021",
        "qr_code": "https://pse.kominfo.go.id/storage/images/qr_code/ced15568f55028b10a806f6047824318.png",
        "status_id": "TERDAFTAR",
        "sistem_elektronik_id": 3113
      }
    },
    {
      "type": "tdpseTerbit",
      "id": 6732,
      "attributes": {
        "nomor_pb_umku": "912020910141700010002",
        "nama": "RINTIZ BY WOOBIZ",
        "website": "rintiz.id",
        "sektor": "Sektor Teknologi Informasi dan Komunikasi",
        "nama_perusahaan": "TJS USAHA DIGITAL",
        "tanggal_daftar": "2022-07-19",
        "nomor_tanda_daftar": "001508.03/DJAI.PSE/07/2022",
        "qr_code": "https://pse.kominfo.go.id/storage/images/qr_code/88bf63d7e835345c3b8920b77925609d.png",
        "status_id": "TERDAFTAR",
        "sistem_elektronik_id": 5248
      }
    },
    {
      "type": "tdpseTerbit",
      "id": 6709,
      "attributes": {
        "nomor_pb_umku": "912020910141700010001",
        "nama": "MITRA KELILING",
        "website": "mitrakeliling.id",
        "sektor": "Sektor Perdagangan",
        "nama_perusahaan": "TJS USAHA DIGITAL",
        "tanggal_daftar": "2022-07-19",
        "nomor_tanda_daftar": "001508.02/DJAI.PSE/07/2022",
        "qr_code": "https://pse.kominfo.go.id/storage/images/qr_code/eb511ae32ec3e30b9bc032e84b0347b4.png",
        "status_id": "TERDAFTAR",
        "sistem_elektronik_id": 5828
      }
    },
    {
      "type": "tdpseTerbit",
      "id": 2280,
      "attributes": {
        "nomor_pb_umku": null,
        "nama": "Woobiz",
        "website": "https://woobiz.id/",
        "sektor": "Sektor Perdagangan",
        "nama_perusahaan": "PT TJS Usaha Digital Tbk.",
        "tanggal_daftar": "2021-11-08",
        "nomor_tanda_daftar": "001508.01/DJAI.PSE/11/2021",
        "qr_code": "https://pse.kominfo.go.id/storage/images/qr_code/c7239bc7e501b6358fe9945dced7f64d.png",
        "status_id": "TERDAFTAR",
        "sistem_elektronik_id": 3112
      }
    },
    {
      "type": "tdpseTerbit",
      "id": 2818,
      "attributes": {
        "nomor_pb_umku": null,
        "nama": "M-Bintang",
        "website": "-",
        "sektor": "Sektor Keuangan",
        "nama_perusahaan": "ASURANSI BINTANG",
        "tanggal_daftar": "2021-12-21",
        "nomor_tanda_daftar": "001507.02/DJAI.PSE/12/2021",
        "qr_code": "https://pse.kominfo.go.id/storage/images/qr_code/4af0a7e68ebf5f641cb9fb8668048915.png",
        "status_id": "TERDAFTAR",
        "sistem_elektronik_id": 3379
      }
    },
    {
      "type": "tdpseTerbit",
      "id": 2277,
      "attributes": {
        "nomor_pb_umku": null,
        "nama": "website www.asuransibintang.com",
        "website": "https://www.asuransibintang.com",
        "sektor": "Sektor Keuangan, Sektor Teknologi Informasi dan Komunikasi",
        "nama_perusahaan": "ASURANSI BINTANG",
        "tanggal_daftar": "2021-11-08",
        "nomor_tanda_daftar": "001507.01/DJAI.PSE/11/2021",
        "qr_code": "https://pse.kominfo.go.id/storage/images/qr_code/cb8451ba4824fd389be85bc65fdb89b6.png",
        "status_id": "TERDAFTAR",
        "sistem_elektronik_id": 3378
      }
    },
    {
      "type": "tdpseTerbit",
      "id": 2276,
      "attributes": {
        "nomor_pb_umku": null,
        "nama": "Layanan Cloud Communication - Voxnet",
        "website": "www.voxnet.id",
        "sektor": "Sektor Teknologi Informasi dan Komunikasi",
        "nama_perusahaan": "LIMA SATU TIGA GLOBAL TEL-ACCESS",
        "tanggal_daftar": "2021-11-08",
        "nomor_tanda_daftar": "001506.01/DJAI.PSE/11/2021",
        "qr_code": "https://pse.kominfo.go.id/storage/images/qr_code/a7b761411924f847a6900e9810dd61c2.png",
        "status_id": "TERDAFTAR",
        "sistem_elektronik_id": 1534
      }
    }
  ]
}