{
  "meta": {
    "page": {
      "currentPage": 695,
      "from": 6941,
      "lastPage": 1055,
      "perPage": 10,
      "to": 6950,
      "total": 10545
    }
  },
  "data": [
    {
      "type": "tdpseTerbit",
      "id": 2887,
      "attributes": {
        "nomor_pb_umku": null,
        "nama": "Instamoney",
        "website": "www.instamoney.co",
        "sektor": "Sektor Keuangan",
        "nama_perusahaan": "SYAFTRACO",
        "tanggal_daftar": "2021-12-27",
        "nomor_tanda_daftar": "001848.01/DJAI.PSE/12/2021",
        "qr_code": "https://pse.kominfo.go.id/storage/images/qr_code/a82adaf7b514a6147d3e6c3a0f56ea6f.png",
        "status_id": "TERDAFTAR",
        "sistem_elektronik_id": 2852
      }
    },
    {
      "type": "tdpseTerbit",
      "id": 2886,
      "attributes": {
        "nomor_pb_umku": null,
        "nama": "www.adapanen.com",
        "website": "adapanen.com",
        "sektor": "Sektor Perdagangan",
        "nama_perusahaan": "ADAPANEN TANI INDONESIA",
        "tanggal_daftar": "2021-12-27",
        "nomor_tanda_daftar": "001847.01/DJAI.PSE/12/2021",
        "qr_code": "https://pse.kominfo.go.id/storage/images/qr_code/b58ff4609806d85a4fec24cb3f7df3d8.png",
        "status_id": "TERDAFTAR",
        "sistem_elektronik_id": 1968
      }
    },
    {
      "type": "tdpseTerbit",
      "id": 2885,
      "attributes": {
        "nomor_pb_umku": null,
        "nama": "Portal Tokowebpedia",
        "website": "tokowebpedia.com",
        "sektor": "Sektor Teknologi Informasi dan Komunikasi",
        "nama_perusahaan": "JUMADIL AWAL",
        "tanggal_daftar": "2021-12-27",
        "nomor_tanda_daftar": "001846.01/DJAI.PSE/12/2021",
        "qr_code": "https://pse.kominfo.go.id/storage/images/qr_code/95307c18d5282297e9d9ba491fb413d9.png",
        "status_id": "TERDAFTAR",
        "sistem_elektronik_id": 1977
      }
    },
    {
      "type": "tdpseTerbit",
      "id": 2940,
      "attributes": {
        "nomor_pb_umku": null,
        "nama": "Teknologi Informasi Dan Jasa Komputer",
        "website": "-",
        "sektor": "Sektor Teknologi Informasi dan Komunikasi",
        "nama_perusahaan": "D' FAMILY TECHNOLOGY",
        "tanggal_daftar": "2021-12-31",
        "nomor_tanda_daftar": "001845.06/DJAI.PSE/12/2021",
        "qr_code": "https://pse.kominfo.go.id/storage/images/qr_code/eb01d91aedb550844bf20a036872df0f.png",
        "status_id": "TERDAFTAR",
        "sistem_elektronik_id": 1976
      }
    },
    {
      "type": "tdpseTerbit",
      "id": 2884,
      "attributes": {
        "nomor_pb_umku": null,
        "nama": "Aktivitas Konsultasi Komputer",
        "website": "-",
        "sektor": "Sektor Teknologi Informasi dan Komunikasi",
        "nama_perusahaan": "D' FAMILY TECHNOLOGY",
        "tanggal_daftar": "2021-12-26",
        "nomor_tanda_daftar": "001845.05/DJAI.PSE/12/2021",
        "qr_code": "https://pse.kominfo.go.id/storage/images/qr_code/b61fa26e2be48341b65f1a893f684baf.png",
        "status_id": "TERDAFTAR",
        "sistem_elektronik_id": 1975
      }
    },
    {
      "type": "tdpseTerbit",
      "id": 2883,
      "attributes": {
        "nomor_pb_umku": null,
        "nama": "Jasa Konten SMS Premium CV DFAMILY TECHNOLOGY",
        "website": "-",
        "sektor": "Sektor Teknologi Informasi dan Komunikasi",
        "nama_perusahaan": "D' FAMILY TECHNOLOGY",
        "tanggal_daftar": "2021-12-26",
        "nomor_tanda_daftar": "001845.04/DJAI.PSE/12/2021",
        "qr_code": "https://pse.kominfo.go.id/storage/images/qr_code/1db6d51094b4314078d83cb6ab312879.png",
        "status_id": "TERDAFTAR",
        "sistem_elektronik_id": 1974
      }
    },
    {
      "type": "tdpseTerbit",
      "id": 2882,
      "attributes": {
        "nomor_pb_umku": null,
        "nama": "Aktivitas Pengolahan Data CV DFAMILY TECHNOLOGY",
        "website": "-",
        "sektor": "Sektor Teknologi Informasi dan Komunikasi",
        "nama_perusahaan": "D' FAMILY TECHNOLOGY",
        "tanggal_daftar": "2021-12-26",
        "nomor_tanda_daftar": "001845.03/DJAI.PSE/12/2021",
        "qr_code": "https://pse.kominfo.go.id/storage/images/qr_code/26b9968876f5767159a6f8ff9347b0a5.png",
        "status_id": "TERDAFTAR",
        "sistem_elektronik_id": 1973
      }
    },
    {
      "type": "tdpseTerbit",
      "id": 2881,
      "attributes": {
        "nomor_pb_umku": null,
        "nama": "CV DFAMILY TECHNOLOGY",
        "website": "-",
        "sektor": "Sektor Teknologi Informasi dan Komunikasi",
        "nama_perusahaan": "D' FAMILY TECHNOLOGY",
        "tanggal_daftar": "2021-12-26",
        "nomor_tanda_daftar": "001845.02/DJAI.PSE/12/2021",
        "qr_code": "https://pse.kominfo.go.id/storage/images/qr_code/889590a2b43623c92dd8ba4ea79e8379.png",
        "status_id": "TERDAFTAR",
        "sistem_elektronik_id": 1972
      }
    },
    {
      "type": "tdpseTerbit",
      "id": 2880,
      "attributes": {
        "nomor_pb_umku": null,
        "nama": "cv dfamily technoogy",
        "website": "-",
        "sektor": "Sektor Teknologi Informasi dan Komunikasi",
        "nama_perusahaan": "D' FAMILY TECHNOLOGY",
        "tanggal_daftar": "2021-12-26",
        "nomor_tanda_daftar": "001845.01/DJAI.PSE/12/2021",
        "qr_code": "https://pse.kominfo.go.id/storage/images/qr_code/c0f1d1d44d1363b8c34c7fb8e96ae055.png",
        "status_id": "TERDAFTAR",
        "sistem_elektronik_id": 1971
      }
    },
    {
      "type": "tdpseTerbit",
      "id": 4058,
      "attributes": {
        "nomor_pb_umku": null,
        "nama": "VENTA COMPUTINDO TECH",
        "website": "-",
        "sektor": "Sektor Perdagangan",
        "nama_perusahaan": "MOCHAMAD IWAN SETIYAWAN",
        "tanggal_daftar": "2022-04-27",
        "nomor_tanda_daftar": "001844.05/DJAI.PSE/04/2022",
        "qr_code": "https://pse.kominfo.go.id/storage/images/qr_code/d66c18184e9527ab2bdfdfce701ae60b.png",
        "status_id": "TERDAFTAR",
        "sistem_elektronik_id": 3884
      }
    }
  ]
}