{
  "meta": {
    "page": {
      "currentPage": 696,
      "from": 6951,
      "lastPage": 937,
      "perPage": 10,
      "to": 6960,
      "total": 9366
    }
  },
  "data": [
    {
      "type": "tdpseTerbit",
      "id": 1785,
      "attributes": {
        "nomor_pb_umku": null,
        "nama": "KARYA INDONESIA CERDAS",
        "website": "karya-indonesia-cerdas.com",
        "sektor": "Sektor Teknologi Informasi dan Komunikasi",
        "nama_perusahaan": "KARYA INDONESIA CERDAS",
        "tanggal_daftar": "2021-07-27",
        "nomor_tanda_daftar": "001193.01/DJAI.PSE/07/2021",
        "qr_code": "https://pse.kominfo.go.id/storage/images/qr_code/587cd19e7f81de064f1fffe445e3f837.png",
        "status_id": "TERDAFTAR",
        "sistem_elektronik_id": 1370
      }
    },
    {
      "type": "tdpseTerbit",
      "id": 1784,
      "attributes": {
        "nomor_pb_umku": null,
        "nama": "Zipmex Exchange",
        "website": "https://zipmex.com/id/",
        "sektor": "Sektor Keuangan",
        "nama_perusahaan": "ZIPMEX EXCHANGE INDONESIA",
        "tanggal_daftar": "2021-07-27",
        "nomor_tanda_daftar": "001192.01/DJAI.PSE/07/2021",
        "qr_code": "https://pse.kominfo.go.id/storage/images/qr_code/5a5e6bc042fb468bdd2af3cdc4f7f1ed.png",
        "status_id": "TERDAFTAR",
        "sistem_elektronik_id": 1362
      }
    },
    {
      "type": "tdpseTerbit",
      "id": 3571,
      "attributes": {
        "nomor_pb_umku": null,
        "nama": "SMARTFREN.CORPORATE",
        "website": "smartfren.com",
        "sektor": "Sektor Teknologi Informasi dan Komunikasi",
        "nama_perusahaan": "SMARTFREN TELECOM",
        "tanggal_daftar": "2022-03-18",
        "nomor_tanda_daftar": "001191.14/DJAI.PSE/03/2022",
        "qr_code": "https://pse.kominfo.go.id/storage/images/qr_code/e4301f653116e527b7ebe189e7f4efa1.png",
        "status_id": "TERDAFTAR",
        "sistem_elektronik_id": 3216
      }
    },
    {
      "type": "tdpseTerbit",
      "id": 3570,
      "attributes": {
        "nomor_pb_umku": null,
        "nama": "SMARTFREN.SOCIAL",
        "website": "smartfren.com",
        "sektor": "Sektor Teknologi Informasi dan Komunikasi",
        "nama_perusahaan": "SMARTFREN TELECOM",
        "tanggal_daftar": "2022-03-17",
        "nomor_tanda_daftar": "001191.13/DJAI.PSE/03/2022",
        "qr_code": "https://pse.kominfo.go.id/storage/images/qr_code/de6e1a653a72ae05ea098b906de30628.png",
        "status_id": "TERDAFTAR",
        "sistem_elektronik_id": 3215
      }
    },
    {
      "type": "tdpseTerbit",
      "id": 3569,
      "attributes": {
        "nomor_pb_umku": null,
        "nama": "SMARTFREN.BUSINESS",
        "website": "smartfren.com",
        "sektor": "Sektor Perdagangan, Sektor Teknologi Informasi dan Komunikasi",
        "nama_perusahaan": "SMARTFREN TELECOM",
        "tanggal_daftar": "2022-03-17",
        "nomor_tanda_daftar": "001191.12/DJAI.PSE/03/2022",
        "qr_code": "https://pse.kominfo.go.id/storage/images/qr_code/e5cfc07ca7d04cfa9f258c83304ad2fe.png",
        "status_id": "TERDAFTAR",
        "sistem_elektronik_id": 3214
      }
    },
    {
      "type": "tdpseTerbit",
      "id": 3568,
      "attributes": {
        "nomor_pb_umku": null,
        "nama": "MySF",
        "website": "smartfren.com",
        "sektor": "Sektor Perdagangan, Sektor Teknologi Informasi dan Komunikasi",
        "nama_perusahaan": "SMARTFREN TELECOM",
        "tanggal_daftar": "2022-03-17",
        "nomor_tanda_daftar": "001191.11/DJAI.PSE/03/2022",
        "qr_code": "https://pse.kominfo.go.id/storage/images/qr_code/e52f24a591bf22f9778dd94cc7ad30c0.png",
        "status_id": "TERDAFTAR",
        "sistem_elektronik_id": 3213
      }
    },
    {
      "type": "tdpseTerbit",
      "id": 3567,
      "attributes": {
        "nomor_pb_umku": null,
        "nama": "MYLINK",
        "website": "-",
        "sektor": "Sektor Teknologi Informasi dan Komunikasi",
        "nama_perusahaan": "SMARTFREN TELECOM",
        "tanggal_daftar": "2022-03-17",
        "nomor_tanda_daftar": "001191.10/DJAI.PSE/03/2022",
        "qr_code": "https://pse.kominfo.go.id/storage/images/qr_code/08468837324eecad08d1c05ec3481d02.png",
        "status_id": "TERDAFTAR",
        "sistem_elektronik_id": 3212
      }
    },
    {
      "type": "tdpseTerbit",
      "id": 3564,
      "attributes": {
        "nomor_pb_umku": null,
        "nama": "UANGKU",
        "website": "www.uangku.co.id",
        "sektor": "Sektor Keuangan",
        "nama_perusahaan": "SMARTFREN TELECOM",
        "tanggal_daftar": "2022-03-17",
        "nomor_tanda_daftar": "001191.09/DJAI.PSE/03/2022",
        "qr_code": "https://pse.kominfo.go.id/storage/images/qr_code/b520390e49cf97d970ddaa3b0c34f8ff.png",
        "status_id": "TERDAFTAR",
        "sistem_elektronik_id": 3211
      }
    },
    {
      "type": "tdpseTerbit",
      "id": 3561,
      "attributes": {
        "nomor_pb_umku": null,
        "nama": "WWW.SMARTFREN.COM",
        "website": "smartfren.com",
        "sektor": "Sektor Perdagangan, Sektor Teknologi Informasi dan Komunikasi",
        "nama_perusahaan": "SMARTFREN TELECOM",
        "tanggal_daftar": "2022-03-17",
        "nomor_tanda_daftar": "001191.08/DJAI.PSE/03/2022",
        "qr_code": "https://pse.kominfo.go.id/storage/images/qr_code/506770df9c2965bb18383bb7350a7b1c.png",
        "status_id": "TERDAFTAR",
        "sistem_elektronik_id": 3210
      }
    },
    {
      "type": "tdpseTerbit",
      "id": 1804,
      "attributes": {
        "nomor_pb_umku": null,
        "nama": "Smartfren. Corporate",
        "website": "https://www.smartfren.com/id/corporate/",
        "sektor": "Sektor Teknologi Informasi dan Komunikasi",
        "nama_perusahaan": "SMARTFREN TELECOM",
        "tanggal_daftar": "2021-07-29",
        "nomor_tanda_daftar": "001191.07/DJAI.PSE/07/2021",
        "qr_code": "https://pse.kominfo.go.id/storage/images/qr_code/78e076fdf846489b2d8b6fca4affb719.png",
        "status_id": "TERDAFTAR",
        "sistem_elektronik_id": 2603
      }
    }
  ]
}