{
  "meta": {
    "page": {
      "currentPage": 697,
      "from": 6961,
      "lastPage": 908,
      "perPage": 10,
      "to": 6970,
      "total": 9074
    }
  },
  "data": [
    {
      "type": "tdpseTerbit",
      "id": 1522,
      "attributes": {
        "nomor_pb_umku": null,
        "nama": "Tira Commerce",
        "website": "https://tira-commerce.com",
        "sektor": "Sektor Perdagangan",
        "nama_perusahaan": "TIRA SATRIA NIAGA",
        "tanggal_daftar": "2021-06-24",
        "nomor_tanda_daftar": "000998.01/DJAI.PSE/06/2021",
        "qr_code": "https://pse.kominfo.go.id/storage/images/qr_code/a1d008ec71f9be86ef59299b832bdecf.png",
        "status_id": "TERDAFTAR",
        "sistem_elektronik_id": 1097
      }
    },
    {
      "type": "tdpseTerbit",
      "id": 1521,
      "attributes": {
        "nomor_pb_umku": null,
        "nama": "Insistpro Danasakti - Remote Trading",
        "website": "danasaktisekuritas.com",
        "sektor": "Sektor Keuangan",
        "nama_perusahaan": "DANASAKTI SEKURITAS INDONESIA",
        "tanggal_daftar": "2021-06-24",
        "nomor_tanda_daftar": "000997.01/DJAI.PSE/06/2021",
        "qr_code": "https://pse.kominfo.go.id/storage/images/qr_code/fbaeadf77f02acdfb0ce8dac1cefb7bb.png",
        "status_id": "TERDAFTAR",
        "sistem_elektronik_id": 1113
      }
    },
    {
      "type": "tdpseTerbit",
      "id": 1520,
      "attributes": {
        "nomor_pb_umku": null,
        "nama": "Papabli.com",
        "website": "https://www.papabli.com/",
        "sektor": "Sektor Perdagangan, Sektor Teknologi Informasi dan Komunikasi",
        "nama_perusahaan": "PAPABLI BISNIS SEMESTA",
        "tanggal_daftar": "2021-06-24",
        "nomor_tanda_daftar": "000996.01/DJAI.PSE/06/2021",
        "qr_code": "https://pse.kominfo.go.id/storage/images/qr_code/56260511225a9402616116d02cc01f9e.png",
        "status_id": "TERDAFTAR",
        "sistem_elektronik_id": 1115
      }
    },
    {
      "type": "tdpseTerbit",
      "id": 1518,
      "attributes": {
        "nomor_pb_umku": null,
        "nama": "IDCloudHost",
        "website": "https://idcloudhost.com/",
        "sektor": "Sektor Teknologi Informasi dan Komunikasi",
        "nama_perusahaan": "CLOUD HOSTING INDONESIA",
        "tanggal_daftar": "2021-06-24",
        "nomor_tanda_daftar": "000995.01/DJAI.PSE/06/2021",
        "qr_code": "https://pse.kominfo.go.id/storage/images/qr_code/8a965d36c315bdfe28761a2bac7cab01.png",
        "status_id": "TERDAFTAR",
        "sistem_elektronik_id": 1088
      }
    },
    {
      "type": "tdpseTerbit",
      "id": 5446,
      "attributes": {
        "nomor_pb_umku": "912010619174200010001",
        "nama": "PLUANG - GROW",
        "website": "pluang-grow.com",
        "sektor": "Sektor Keuangan",
        "nama_perusahaan": "SARANA SANTOSA SEJATI",
        "tanggal_daftar": "2022-07-13",
        "nomor_tanda_daftar": "000994.02/DJAI.PSE/07/2022",
        "qr_code": "https://pse.kominfo.go.id/storage/images/qr_code/cdf1b0b47ce62e4a98e6f99dc74f566d.png",
        "status_id": "TERDAFTAR",
        "sistem_elektronik_id": 5318
      }
    },
    {
      "type": "tdpseTerbit",
      "id": 1517,
      "attributes": {
        "nomor_pb_umku": null,
        "nama": "Pluang-Grow",
        "website": "www.pluang-grow.com",
        "sektor": "Sektor Keuangan",
        "nama_perusahaan": "SARANA SANTOSA SEJATI",
        "tanggal_daftar": "2021-06-24",
        "nomor_tanda_daftar": "000994.01/DJAI.PSE/06/2021",
        "qr_code": "https://pse.kominfo.go.id/storage/images/qr_code/8f115baca8f5c8304c3b9a83cfdf1049.png",
        "status_id": "TERDAFTAR",
        "sistem_elektronik_id": 2712
      }
    },
    {
      "type": "tdpseTerbit",
      "id": 1516,
      "attributes": {
        "nomor_pb_umku": null,
        "nama": "Rajapremi Dot Com",
        "website": "www.rajapremi.com",
        "sektor": "Sektor Teknologi Informasi dan Komunikasi",
        "nama_perusahaan": "RAJAPREMI DOT COM",
        "tanggal_daftar": "2021-06-24",
        "nomor_tanda_daftar": "000993.01/DJAI.PSE/06/2021",
        "qr_code": "https://pse.kominfo.go.id/storage/images/qr_code/4f43fd717d9fc74bcad48df952db72a0.png",
        "status_id": "TERDAFTAR",
        "sistem_elektronik_id": 1104
      }
    },
    {
      "type": "tdpseTerbit",
      "id": 1514,
      "attributes": {
        "nomor_pb_umku": null,
        "nama": "Daisi",
        "website": "https://daisi.id",
        "sektor": "Sektor Teknologi Informasi dan Komunikasi",
        "nama_perusahaan": "TIMKADO SEJAHTERA INDONESIA",
        "tanggal_daftar": "2021-06-24",
        "nomor_tanda_daftar": "000992.01/DJAI.PSE/06/2021",
        "qr_code": "https://pse.kominfo.go.id/storage/images/qr_code/76f0e318d0e662ff4b47a1a33b0bc726.png",
        "status_id": "TERDAFTAR",
        "sistem_elektronik_id": 1098
      }
    },
    {
      "type": "tdpseTerbit",
      "id": 4208,
      "attributes": {
        "nomor_pb_umku": "125000055234400010001",
        "nama": "BIGBOXASIA",
        "website": "bigboxasia.co.id",
        "sektor": "Sektor Perdagangan, Sektor Pangan",
        "nama_perusahaan": "DPO INDONESIA FMCG",
        "tanggal_daftar": "2022-06-02",
        "nomor_tanda_daftar": "000991.02/DJAI.PSE/06/2022",
        "qr_code": "https://pse.kominfo.go.id/storage/images/qr_code/8668885808c73a400b4d6643dc6029e8.png",
        "status_id": "TERDAFTAR",
        "sistem_elektronik_id": 4207
      }
    },
    {
      "type": "tdpseTerbit",
      "id": 1513,
      "attributes": {
        "nomor_pb_umku": null,
        "nama": "Nama Website : BIGboxAsia",
        "website": "bigboxasia.co.id",
        "sektor": "Sektor Pangan, Sektor Perdagangan",
        "nama_perusahaan": "DPO INDONESIA FMCG",
        "tanggal_daftar": "2021-06-24",
        "nomor_tanda_daftar": "000991.01/DJAI.PSE/06/2021",
        "qr_code": "https://pse.kominfo.go.id/storage/images/qr_code/62d4f2f0829bcfc3a1db8b0ce5d22270.png",
        "status_id": "TERDAFTAR",
        "sistem_elektronik_id": 951
      }
    }
  ]
}