{
  "meta": {
    "page": {
      "currentPage": 699,
      "from": 6981,
      "lastPage": 1080,
      "perPage": 10,
      "to": 6990,
      "total": 10793
    }
  },
  "data": [
    {
      "type": "tdpseTerbit",
      "id": 3086,
      "attributes": {
        "nomor_pb_umku": null,
        "nama": "plesiran transportasi",
        "website": "www.plesiran.co",
        "sektor": "Sektor Perdagangan, Sektor Teknologi Informasi dan Komunikasi, Sektor Transportasi",
        "nama_perusahaan": "PLESIRAN DIGITAL INDONESIA",
        "tanggal_daftar": "2022-01-21",
        "nomor_tanda_daftar": "001984.02/DJAI.PSE/01/2022",
        "qr_code": "https://pse.kominfo.go.id/storage/images/qr_code/1a9d8089697f1f1cb94d80cdbbb2f4ff.png",
        "status_id": "TERDAFTAR",
        "sistem_elektronik_id": 2097
      }
    },
    {
      "type": "tdpseTerbit",
      "id": 3085,
      "attributes": {
        "nomor_pb_umku": null,
        "nama": "PLESIRAN",
        "website": "www.plesiran.co",
        "sektor": "Sektor Perdagangan, Sektor Transportasi",
        "nama_perusahaan": "PLESIRAN DIGITAL INDONESIA",
        "tanggal_daftar": "2022-01-21",
        "nomor_tanda_daftar": "001984.01/DJAI.PSE/01/2022",
        "qr_code": "https://pse.kominfo.go.id/storage/images/qr_code/1d400bd94d7a5cd2cc3e117f74344ed6.png",
        "status_id": "TERDAFTAR",
        "sistem_elektronik_id": 2096
      }
    },
    {
      "type": "tdpseTerbit",
      "id": 3084,
      "attributes": {
        "nomor_pb_umku": null,
        "nama": "dominos.co.id",
        "website": "dominos.co.id",
        "sektor": "Sektor Perdagangan",
        "nama_perusahaan": "DOM PIZZA INDONESIA",
        "tanggal_daftar": "2022-01-21",
        "nomor_tanda_daftar": "001983.01/DJAI.PSE/01/2022",
        "qr_code": "https://pse.kominfo.go.id/storage/images/qr_code/d432d1988003c79995c4c8fd662a60bd.png",
        "status_id": "TERDAFTAR",
        "sistem_elektronik_id": 2095
      }
    },
    {
      "type": "tdpseTerbit",
      "id": 3083,
      "attributes": {
        "nomor_pb_umku": null,
        "nama": "Zenon Elektronik",
        "website": "-",
        "sektor": "Sektor Perdagangan",
        "nama_perusahaan": "HANSEN CHRYSTIAN",
        "tanggal_daftar": "2022-01-21",
        "nomor_tanda_daftar": "001982.01/DJAI.PSE/01/2022",
        "qr_code": "https://pse.kominfo.go.id/storage/images/qr_code/26f4a4072eca701106f5afbe304fd992.png",
        "status_id": "TERDAFTAR",
        "sistem_elektronik_id": 2094
      }
    },
    {
      "type": "tdpseTerbit",
      "id": 3082,
      "attributes": {
        "nomor_pb_umku": null,
        "nama": "LEGALMU DIGITAL INDONESIA",
        "website": "legalmu.com",
        "sektor": "Sektor Perdagangan",
        "nama_perusahaan": "DENY AGUNG FITRIANTO",
        "tanggal_daftar": "2022-01-20",
        "nomor_tanda_daftar": "001981.01/DJAI.PSE/01/2022",
        "qr_code": "https://pse.kominfo.go.id/storage/images/qr_code/2466da0c22709c2743662ffcbd2f807d.png",
        "status_id": "TERDAFTAR",
        "sistem_elektronik_id": 2093
      }
    },
    {
      "type": "tdpseTerbit",
      "id": 3081,
      "attributes": {
        "nomor_pb_umku": null,
        "nama": "http://cleverads.co.id/id/home.html",
        "website": "http://cleverads.co.id/id/home.html",
        "sektor": "Sektor Teknologi Informasi dan Komunikasi",
        "nama_perusahaan": "CLEVERADS",
        "tanggal_daftar": "2022-01-20",
        "nomor_tanda_daftar": "001980.01/DJAI.PSE/01/2022",
        "qr_code": "https://pse.kominfo.go.id/storage/images/qr_code/77eb7e96fa59adb5260db7d42e6a6e3d.png",
        "status_id": "TERDAFTAR",
        "sistem_elektronik_id": 2030
      }
    },
    {
      "type": "tdpseTerbit",
      "id": 3080,
      "attributes": {
        "nomor_pb_umku": null,
        "nama": "CARInih.com",
        "website": "www.carinih.com",
        "sektor": "Sektor Perdagangan, Sektor Teknologi Informasi dan Komunikasi",
        "nama_perusahaan": "DASA KARYA INDONESIA",
        "tanggal_daftar": "2022-01-19",
        "nomor_tanda_daftar": "001979.01/DJAI.PSE/01/2022",
        "qr_code": "https://pse.kominfo.go.id/storage/images/qr_code/f533f1e26a9c1fc50150bfb630df28dd.png",
        "status_id": "TERDAFTAR",
        "sistem_elektronik_id": 2087
      }
    },
    {
      "type": "tdpseTerbit",
      "id": 3078,
      "attributes": {
        "nomor_pb_umku": null,
        "nama": "RDS EXPRESS",
        "website": "-",
        "sektor": "Sektor Transportasi",
        "nama_perusahaan": "REYCOM DOCUMENT SOLUSI",
        "tanggal_daftar": "2022-01-19",
        "nomor_tanda_daftar": "001978.01/DJAI.PSE/01/2022",
        "qr_code": "https://pse.kominfo.go.id/storage/images/qr_code/a53754ea84b0ffcdd6538098084ed719.png",
        "status_id": "TERDAFTAR",
        "sistem_elektronik_id": 1958
      }
    },
    {
      "type": "tdpseTerbit",
      "id": 3077,
      "attributes": {
        "nomor_pb_umku": null,
        "nama": "PESONA - PESANAN OLEH-OLEH NUSANTARA",
        "website": "www.pesonanusantara.co.id",
        "sektor": "Sektor Perdagangan",
        "nama_perusahaan": "TIKI JALUR NUGRAHA EKAKURIR",
        "tanggal_daftar": "2022-01-19",
        "nomor_tanda_daftar": "001977.01/DJAI.PSE/01/2022",
        "qr_code": "https://pse.kominfo.go.id/storage/images/qr_code/2947a2ceeb3de922f54d40cdab4548c0.png",
        "status_id": "TERDAFTAR",
        "sistem_elektronik_id": 2054
      }
    },
    {
      "type": "tdpseTerbit",
      "id": 3076,
      "attributes": {
        "nomor_pb_umku": null,
        "nama": "Ajaib",
        "website": "www.ajaib.co.id",
        "sektor": "Sektor Keuangan, Sektor Perdagangan",
        "nama_perusahaan": "AJAIB TEKNOLOGI INDONESIA",
        "tanggal_daftar": "2022-01-19",
        "nomor_tanda_daftar": "001976.01/DJAI.PSE/01/2022",
        "qr_code": "https://pse.kominfo.go.id/storage/images/qr_code/615a34f5137c1db6ed1d78a41ff9f339.png",
        "status_id": "TERDAFTAR",
        "sistem_elektronik_id": 2090
      }
    }
  ]
}