{
  "meta": {
    "page": {
      "currentPage": 700,
      "from": 6991,
      "lastPage": 1016,
      "perPage": 10,
      "to": 7000,
      "total": 10156
    }
  },
  "data": [
    {
      "type": "tdpseTerbit",
      "id": 2439,
      "attributes": {
        "nomor_pb_umku": null,
        "nama": "Media Karya Utama",
        "website": "muf.my.id",
        "sektor": "Sektor Perdagangan, Sektor Teknologi Informasi dan Komunikasi",
        "nama_perusahaan": "MUFRIDA ARIFUDDIN",
        "tanggal_daftar": "2021-11-24",
        "nomor_tanda_daftar": "001603.01/DJAI.PSE/11/2021",
        "qr_code": "https://pse.kominfo.go.id/storage/images/qr_code/4457718143e1992741bd6dd37059686b.png",
        "status_id": "TERDAFTAR",
        "sistem_elektronik_id": 1627
      }
    },
    {
      "type": "tdpseTerbit",
      "id": 2438,
      "attributes": {
        "nomor_pb_umku": null,
        "nama": "Maxcloud.id",
        "website": "Maxcloud.id",
        "sektor": "Sektor Teknologi Informasi dan Komunikasi",
        "nama_perusahaan": "AWAN DATA INDONESIA",
        "tanggal_daftar": "2021-11-23",
        "nomor_tanda_daftar": "001602.01/DJAI.PSE/11/2021",
        "qr_code": "https://pse.kominfo.go.id/storage/images/qr_code/f216fb279ef54a33fbc7e15ebfbdf3dc.png",
        "status_id": "TERDAFTAR",
        "sistem_elektronik_id": 1625
      }
    },
    {
      "type": "tdpseTerbit",
      "id": 2437,
      "attributes": {
        "nomor_pb_umku": null,
        "nama": "SARI JNANA ARTHA",
        "website": "-",
        "sektor": "Sektor Teknologi Informasi dan Komunikasi",
        "nama_perusahaan": "GEDE BHUANA TEJASAPUTRA",
        "tanggal_daftar": "2021-11-23",
        "nomor_tanda_daftar": "001601.01/DJAI.PSE/11/2021",
        "qr_code": "https://pse.kominfo.go.id/storage/images/qr_code/f213f7d542f4ef0c258efb0b66a1a387.png",
        "status_id": "TERDAFTAR",
        "sistem_elektronik_id": 1626
      }
    },
    {
      "type": "tdpseTerbit",
      "id": 2436,
      "attributes": {
        "nomor_pb_umku": null,
        "nama": "searg.info",
        "website": "searg.info",
        "sektor": "Sektor Teknologi Informasi dan Komunikasi",
        "nama_perusahaan": "PERUPA SIBER INFORMATIKA",
        "tanggal_daftar": "2021-11-23",
        "nomor_tanda_daftar": "001600.04/DJAI.PSE/11/2021",
        "qr_code": "https://pse.kominfo.go.id/storage/images/qr_code/f2c453f0afd898641e98f60b08521845.png",
        "status_id": "TERDAFTAR",
        "sistem_elektronik_id": 1624
      }
    },
    {
      "type": "tdpseTerbit",
      "id": 2435,
      "attributes": {
        "nomor_pb_umku": null,
        "nama": "cathnewschina.com",
        "website": "cathnewschina.com",
        "sektor": "Sektor Teknologi Informasi dan Komunikasi",
        "nama_perusahaan": "PERUPA SIBER INFORMATIKA",
        "tanggal_daftar": "2021-11-23",
        "nomor_tanda_daftar": "001600.03/DJAI.PSE/11/2021",
        "qr_code": "https://pse.kominfo.go.id/storage/images/qr_code/036b999a8ce31e5b85f8959065e3b3b1.png",
        "status_id": "TERDAFTAR",
        "sistem_elektronik_id": 1623
      }
    },
    {
      "type": "tdpseTerbit",
      "id": 2434,
      "attributes": {
        "nomor_pb_umku": null,
        "nama": "perupamedia.com",
        "website": "perupamedia.com",
        "sektor": "Sektor Teknologi Informasi dan Komunikasi",
        "nama_perusahaan": "PERUPA SIBER INFORMATIKA",
        "tanggal_daftar": "2021-11-23",
        "nomor_tanda_daftar": "001600.02/DJAI.PSE/11/2021",
        "qr_code": "https://pse.kominfo.go.id/storage/images/qr_code/80988d939b9564b8188a34eba449836e.png",
        "status_id": "TERDAFTAR",
        "sistem_elektronik_id": 1622
      }
    },
    {
      "type": "tdpseTerbit",
      "id": 2433,
      "attributes": {
        "nomor_pb_umku": null,
        "nama": "Sertikasi",
        "website": "sertikasi.co",
        "sektor": "Sektor Teknologi Informasi dan Komunikasi",
        "nama_perusahaan": "PERUPA SIBER INFORMATIKA",
        "tanggal_daftar": "2021-11-23",
        "nomor_tanda_daftar": "001600.01/DJAI.PSE/11/2021",
        "qr_code": "https://pse.kominfo.go.id/storage/images/qr_code/75ca55b665c7ca7671e9ad69f3e6c841.png",
        "status_id": "TERDAFTAR",
        "sistem_elektronik_id": 1621
      }
    },
    {
      "type": "tdpseTerbit",
      "id": 2432,
      "attributes": {
        "nomor_pb_umku": null,
        "nama": "PT EKO GLOBAL TECHNO",
        "website": "eko-internet.com",
        "sektor": "Sektor Teknologi Informasi dan Komunikasi",
        "nama_perusahaan": "EKO ADRIE PRATOMO",
        "tanggal_daftar": "2021-11-22",
        "nomor_tanda_daftar": "001599.01/DJAI.PSE/11/2021",
        "qr_code": "https://pse.kominfo.go.id/storage/images/qr_code/8193144e10dae1ab0fd2ac3a0666f108.png",
        "status_id": "TERDAFTAR",
        "sistem_elektronik_id": 1619
      }
    },
    {
      "type": "tdpseTerbit",
      "id": 2431,
      "attributes": {
        "nomor_pb_umku": null,
        "nama": "Fixnet Media",
        "website": "fixnetmedia.co.id",
        "sektor": "Sektor Teknologi Informasi dan Komunikasi",
        "nama_perusahaan": "FIXNET NIAGA INDONUSA",
        "tanggal_daftar": "2021-11-22",
        "nomor_tanda_daftar": "001598.01/DJAI.PSE/11/2021",
        "qr_code": "https://pse.kominfo.go.id/storage/images/qr_code/7cd19d974254784cca5dac73cc508362.png",
        "status_id": "TERDAFTAR",
        "sistem_elektronik_id": 1620
      }
    },
    {
      "type": "tdpseTerbit",
      "id": 2430,
      "attributes": {
        "nomor_pb_umku": null,
        "nama": "Valid Solution (VAS)",
        "website": "www.vas.id",
        "sektor": "Sektor Teknologi Informasi dan Komunikasi",
        "nama_perusahaan": "DIGITAL LOGISTIK INTERNASIONAL",
        "tanggal_daftar": "2021-11-22",
        "nomor_tanda_daftar": "001597.01/DJAI.PSE/11/2021",
        "qr_code": "https://pse.kominfo.go.id/storage/images/qr_code/e38b2fed519beaaad4dba6c939f1ac13.png",
        "status_id": "TERDAFTAR",
        "sistem_elektronik_id": 3162
      }
    }
  ]
}