{
  "meta": {
    "page": {
      "currentPage": 8,
      "from": 71,
      "lastPage": 1113,
      "perPage": 10,
      "to": 80,
      "total": 11124
    }
  },
  "data": [
    {
      "type": "tdpseTerbit",
      "id": 12346,
      "attributes": {
        "nomor_pb_umku": "812010593006300020083",
        "nama": "PCC (PHILIPS CONTRACTOR CLUB)",
        "website": "admin.philipscontractorclub.com",
        "sektor": "Sektor Teknologi Informasi dan Komunikasi",
        "nama_perusahaan": "SIGNIFY COMMERCIAL INDONESIA",
        "tanggal_daftar": "2022-11-17",
        "nomor_tanda_daftar": "008500.03/DJAI.PSE/11/2022",
        "qr_code": "https://pse.kominfo.go.id/storage/images/qr_code/20787275dcce30553770b5e27f755615.png",
        "status_id": "TERDAFTAR",
        "sistem_elektronik_id": 12141
      }
    },
    {
      "type": "tdpseTerbit",
      "id": 12344,
      "attributes": {
        "nomor_pb_umku": "812010593006300020082",
        "nama": "PHILIPS LIGHTING E-STORE",
        "website": "df.philipscontractorclub.com",
        "sektor": "Sektor Perdagangan, Sektor Teknologi Informasi dan Komunikasi",
        "nama_perusahaan": "SIGNIFY COMMERCIAL INDONESIA",
        "tanggal_daftar": "2022-11-17",
        "nomor_tanda_daftar": "008500.02/DJAI.PSE/11/2022",
        "qr_code": "https://pse.kominfo.go.id/storage/images/qr_code/6eb384edc38610e63e8e119d69bd9b8b.png",
        "status_id": "TERDAFTAR",
        "sistem_elektronik_id": 12140
      }
    },
    {
      "type": "tdpseTerbit",
      "id": 12343,
      "attributes": {
        "nomor_pb_umku": "812010593006300020081",
        "nama": "MEET MD",
        "website": "df.philipscontractorclub.com",
        "sektor": "Sektor Teknologi Informasi dan Komunikasi",
        "nama_perusahaan": "SIGNIFY COMMERCIAL INDONESIA",
        "tanggal_daftar": "2022-11-17",
        "nomor_tanda_daftar": "008500.01/DJAI.PSE/11/2022",
        "qr_code": "https://pse.kominfo.go.id/storage/images/qr_code/a17cd38e637f351cdb43a89e3119847a.png",
        "status_id": "TERDAFTAR",
        "sistem_elektronik_id": 12139
      }
    },
    {
      "type": "tdpseTerbit",
      "id": 12349,
      "attributes": {
        "nomor_pb_umku": "020101000190700010001",
        "nama": "SISTEM KURIR JTLEXPRESS",
        "website": "jtlexpress.co.id",
        "sektor": "Sektor Transportasi",
        "nama_perusahaan": "JAGAD TOTAL LOGISTIC EXPRESS",
        "tanggal_daftar": "2022-11-17",
        "nomor_tanda_daftar": "008497.01/DJAI.PSE/11/2022",
        "qr_code": "https://pse.kominfo.go.id/storage/images/qr_code/07b512e1edf70fde9c08dbc5bcdb4065.png",
        "status_id": "TERDAFTAR",
        "sistem_elektronik_id": 12144
      }
    },
    {
      "type": "tdpseTerbit",
      "id": 12337,
      "attributes": {
        "nomor_pb_umku": "912000425218200270001",
        "nama": "WAHANA MOBILE",
        "website": "wahanaritelindo.com",
        "sektor": "Sektor Perdagangan, Sektor Teknologi Informasi dan Komunikasi",
        "nama_perusahaan": "WAHANAARTHA RITELINDO",
        "tanggal_daftar": "2022-11-16",
        "nomor_tanda_daftar": "008496.01/DJAI.PSE/11/2022",
        "qr_code": "https://pse.kominfo.go.id/storage/images/qr_code/5a8c528d6d7b7aea08179efd9d83e43a.png",
        "status_id": "TERDAFTAR",
        "sistem_elektronik_id": 12131
      }
    },
    {
      "type": "tdpseTerbit",
      "id": 12390,
      "attributes": {
        "nomor_pb_umku": "912050087077700020001",
        "nama": "SAHAMOLOGY",
        "website": "sahamology.id",
        "sektor": "Sektor Keuangan, Sektor Teknologi Informasi dan Komunikasi",
        "nama_perusahaan": "TETRA DIGITAL INVESTINDO",
        "tanggal_daftar": "2022-11-18",
        "nomor_tanda_daftar": "008495.01/DJAI.PSE/11/2022",
        "qr_code": "https://pse.kominfo.go.id/storage/images/qr_code/608dfe84bf198151ee43e4932eea39d2.png",
        "status_id": "TERDAFTAR",
        "sistem_elektronik_id": 12183
      }
    },
    {
      "type": "tdpseTerbit",
      "id": 12333,
      "attributes": {
        "nomor_pb_umku": "170522004191900000002",
        "nama": "BERKATDSK.COM",
        "website": "berkatdsk.com",
        "sektor": "Sektor Perdagangan",
        "nama_perusahaan": "BERKAT DUA SAUDARA KAPITAL",
        "tanggal_daftar": "2022-11-16",
        "nomor_tanda_daftar": "008490.02/DJAI.PSE/11/2022",
        "qr_code": "https://pse.kominfo.go.id/storage/images/qr_code/7579ba3602a2d69282e5b92881c5e74a.png",
        "status_id": "TERDAFTAR",
        "sistem_elektronik_id": 12128
      }
    },
    {
      "type": "tdpseTerbit",
      "id": 12328,
      "attributes": {
        "nomor_pb_umku": "170522004191900000001",
        "nama": "BERKAT DUA SAUDARA KAPITAL",
        "website": "berkatdsk.com",
        "sektor": "Sektor Perdagangan",
        "nama_perusahaan": "BERKAT DUA SAUDARA KAPITAL",
        "tanggal_daftar": "2022-11-16",
        "nomor_tanda_daftar": "008490.01/DJAI.PSE/11/2022",
        "qr_code": "https://pse.kominfo.go.id/storage/images/qr_code/ea870cc1677e7970ef801e36a7c279d1.png",
        "status_id": "TERDAFTAR",
        "sistem_elektronik_id": 12122
      }
    },
    {
      "type": "tdpseTerbit",
      "id": 12353,
      "attributes": {
        "nomor_pb_umku": "812010690107300090004",
        "nama": "AVOSKIN WEBSITE",
        "website": "avoskinbeauty.com",
        "sektor": "Sektor Perdagangan",
        "nama_perusahaan": "AVO INNOVATION TECHNOLOGY",
        "tanggal_daftar": "2022-11-17",
        "nomor_tanda_daftar": "008486.03/DJAI.PSE/11/2022",
        "qr_code": "https://pse.kominfo.go.id/storage/images/qr_code/29d0ae448cd54fd0db926c32ceeb5f49.png",
        "status_id": "TERDAFTAR",
        "sistem_elektronik_id": 12148
      }
    },
    {
      "type": "tdpseTerbit",
      "id": 12352,
      "attributes": {
        "nomor_pb_umku": "812010690107300090003",
        "nama": "AVOSKIN APP",
        "website": "-",
        "sektor": "Sektor Perdagangan",
        "nama_perusahaan": "AVO INNOVATION TECHNOLOGY",
        "tanggal_daftar": "2022-11-17",
        "nomor_tanda_daftar": "008486.02/DJAI.PSE/11/2022",
        "qr_code": "https://pse.kominfo.go.id/storage/images/qr_code/17a52962c48930f3c0167bbd646e48f3.png",
        "status_id": "TERDAFTAR",
        "sistem_elektronik_id": 12147
      }
    }
  ]
}