{
  "meta": {
    "page": {
      "currentPage": 701,
      "from": 7001,
      "lastPage": 970,
      "perPage": 10,
      "to": 7010,
      "total": 9692
    }
  },
  "data": [
    {
      "type": "tdpseTerbit",
      "id": 4986,
      "attributes": {
        "nomor_pb_umku": "912030449041501100050",
        "nama": "LOGEE CARGOWNER",
        "website": "logeetrans.com",
        "sektor": "Sektor Transportasi, Sektor Teknologi Informasi dan Komunikasi",
        "nama_perusahaan": "PERUSAHAAN PERSEROAN (PERSERO) PT. TELEKOMUNIKASI INDONESIA",
        "tanggal_daftar": "2022-06-30",
        "nomor_tanda_daftar": "001331.42/DJAI.PSE/06/2022",
        "qr_code": "https://pse.kominfo.go.id/storage/images/qr_code/c4e80fee4eb9fdae78327c5315ef7b9c.png",
        "status_id": "TERDAFTAR",
        "sistem_elektronik_id": 4852
      }
    },
    {
      "type": "tdpseTerbit",
      "id": 2801,
      "attributes": {
        "nomor_pb_umku": null,
        "nama": "sooltanPay",
        "website": "www.sooltanpay.id",
        "sektor": "Sektor Keuangan, Sektor Teknologi Informasi dan Komunikasi",
        "nama_perusahaan": "PERUSAHAAN PERSEROAN (PERSERO) PT. TELEKOMUNIKASI INDONESIA",
        "tanggal_daftar": "2021-12-20",
        "nomor_tanda_daftar": "001331.41/DJAI.PSE/12/2021",
        "qr_code": "https://pse.kominfo.go.id/storage/images/qr_code/f8e7868a23b7d33ad5edac190ceefd1a.png",
        "status_id": "TERDAFTAR",
        "sistem_elektronik_id": 1352
      }
    },
    {
      "type": "tdpseTerbit",
      "id": 2800,
      "attributes": {
        "nomor_pb_umku": null,
        "nama": "t-money",
        "website": "www.tmoney.co.id",
        "sektor": "Sektor Keuangan, Sektor Teknologi Informasi dan Komunikasi",
        "nama_perusahaan": "PERUSAHAAN PERSEROAN (PERSERO) PT. TELEKOMUNIKASI INDONESIA",
        "tanggal_daftar": "2021-12-20",
        "nomor_tanda_daftar": "001331.40/DJAI.PSE/12/2021",
        "qr_code": "https://pse.kominfo.go.id/storage/images/qr_code/c08355f443b03e32cada9762b8301cd2.png",
        "status_id": "TERDAFTAR",
        "sistem_elektronik_id": 1351
      }
    },
    {
      "type": "tdpseTerbit",
      "id": 2683,
      "attributes": {
        "nomor_pb_umku": null,
        "nama": "smarteye.id",
        "website": "www.smarteye.id",
        "sektor": "Sektor Teknologi Informasi dan Komunikasi",
        "nama_perusahaan": "PERUSAHAAN PERSEROAN (PERSERO) PT. TELEKOMUNIKASI INDONESIA",
        "tanggal_daftar": "2021-12-08",
        "nomor_tanda_daftar": "001331.39/DJAI.PSE/12/2021",
        "qr_code": "https://pse.kominfo.go.id/storage/images/qr_code/d7074277c796a9a2a4309a22703a596b.png",
        "status_id": "TERDAFTAR",
        "sistem_elektronik_id": 1350
      }
    },
    {
      "type": "tdpseTerbit",
      "id": 2682,
      "attributes": {
        "nomor_pb_umku": null,
        "nama": "Sprinthink",
        "website": "www.sprinthink.id",
        "sektor": "Sektor Teknologi Informasi dan Komunikasi",
        "nama_perusahaan": "PERUSAHAAN PERSEROAN (PERSERO) PT. TELEKOMUNIKASI INDONESIA",
        "tanggal_daftar": "2021-12-08",
        "nomor_tanda_daftar": "001331.38/DJAI.PSE/12/2021",
        "qr_code": "https://pse.kominfo.go.id/storage/images/qr_code/0d586065bb48bd73aafd3dd43138e860.png",
        "status_id": "TERDAFTAR",
        "sistem_elektronik_id": 1349
      }
    },
    {
      "type": "tdpseTerbit",
      "id": 2681,
      "attributes": {
        "nomor_pb_umku": null,
        "nama": "Smart Village​ Nusantara",
        "website": "www.smartvillagenusantara.id",
        "sektor": "Sektor Teknologi Informasi dan Komunikasi",
        "nama_perusahaan": "PERUSAHAAN PERSEROAN (PERSERO) PT. TELEKOMUNIKASI INDONESIA",
        "tanggal_daftar": "2021-12-08",
        "nomor_tanda_daftar": "001331.37/DJAI.PSE/12/2021",
        "qr_code": "https://pse.kominfo.go.id/storage/images/qr_code/ceea13ecbd89e67b9ebb19b778cb792c.png",
        "status_id": "TERDAFTAR",
        "sistem_elektronik_id": 1348
      }
    },
    {
      "type": "tdpseTerbit",
      "id": 2680,
      "attributes": {
        "nomor_pb_umku": null,
        "nama": "Vutura",
        "website": "www.vuturo.io",
        "sektor": "Sektor Teknologi Informasi dan Komunikasi",
        "nama_perusahaan": "PERUSAHAAN PERSEROAN (PERSERO) PT. TELEKOMUNIKASI INDONESIA",
        "tanggal_daftar": "2021-12-08",
        "nomor_tanda_daftar": "001331.36/DJAI.PSE/12/2021",
        "qr_code": "https://pse.kominfo.go.id/storage/images/qr_code/1d719165119d5758a3ee0ad06f648a08.png",
        "status_id": "TERDAFTAR",
        "sistem_elektronik_id": 1347
      }
    },
    {
      "type": "tdpseTerbit",
      "id": 2679,
      "attributes": {
        "nomor_pb_umku": null,
        "nama": "Bigbox",
        "website": "www.bigbox.co.id",
        "sektor": "Sektor Teknologi Informasi dan Komunikasi",
        "nama_perusahaan": "PERUSAHAAN PERSEROAN (PERSERO) PT. TELEKOMUNIKASI INDONESIA",
        "tanggal_daftar": "2021-12-08",
        "nomor_tanda_daftar": "001331.35/DJAI.PSE/12/2021",
        "qr_code": "https://pse.kominfo.go.id/storage/images/qr_code/264e3b23f07c5bef5f433fd029a8e856.png",
        "status_id": "TERDAFTAR",
        "sistem_elektronik_id": 1346
      }
    },
    {
      "type": "tdpseTerbit",
      "id": 2676,
      "attributes": {
        "nomor_pb_umku": null,
        "nama": "TravelAja",
        "website": "www.travelaja.id",
        "sektor": "Sektor Teknologi Informasi dan Komunikasi",
        "nama_perusahaan": "PERUSAHAAN PERSEROAN (PERSERO) PT. TELEKOMUNIKASI INDONESIA",
        "tanggal_daftar": "2021-12-08",
        "nomor_tanda_daftar": "001331.34/DJAI.PSE/12/2021",
        "qr_code": "https://pse.kominfo.go.id/storage/images/qr_code/f85eeeb885a12f87f5feaf858fea803d.png",
        "status_id": "TERDAFTAR",
        "sistem_elektronik_id": 1345
      }
    },
    {
      "type": "tdpseTerbit",
      "id": 2675,
      "attributes": {
        "nomor_pb_umku": null,
        "nama": "Logee Tracking",
        "website": "www.tracking.logee.id",
        "sektor": "Sektor Teknologi Informasi dan Komunikasi, Sektor Transportasi",
        "nama_perusahaan": "PERUSAHAAN PERSEROAN (PERSERO) PT. TELEKOMUNIKASI INDONESIA",
        "tanggal_daftar": "2021-12-08",
        "nomor_tanda_daftar": "001331.33/DJAI.PSE/12/2021",
        "qr_code": "https://pse.kominfo.go.id/storage/images/qr_code/6b04d2e22894ce74eea1551bf7d4310e.png",
        "status_id": "TERDAFTAR",
        "sistem_elektronik_id": 1344
      }
    }
  ]
}