{
  "meta": {
    "page": {
      "currentPage": 702,
      "from": 7011,
      "lastPage": 890,
      "perPage": 10,
      "to": 7020,
      "total": 8897
    }
  },
  "data": [
    {
      "type": "tdpseTerbit",
      "id": 1478,
      "attributes": {
        "nomor_pb_umku": null,
        "nama": "Website pengajuan Kartu Kredit BNI",
        "website": "https://applykartukredit.bni.co.id",
        "sektor": "Sektor Keuangan",
        "nama_perusahaan": "PERUSAHAAN PERSEROAN (PERSERO) BANK NEGARA INDONESIA",
        "tanggal_daftar": "2021-06-14",
        "nomor_tanda_daftar": "000872.28/DJAI.PSE/06/2021",
        "qr_code": "https://pse.kominfo.go.id/storage/images/qr_code/3c846793513e57fcc2077e88a924e982.png",
        "status_id": "TERDAFTAR",
        "sistem_elektronik_id": 859
      }
    },
    {
      "type": "tdpseTerbit",
      "id": 1477,
      "attributes": {
        "nomor_pb_umku": null,
        "nama": "BNI Loyalty Program (Poin+)",
        "website": "https://www.poinplus.bni.co.id",
        "sektor": "Sektor Keuangan",
        "nama_perusahaan": "PERUSAHAAN PERSEROAN (PERSERO) BANK NEGARA INDONESIA",
        "tanggal_daftar": "2021-06-14",
        "nomor_tanda_daftar": "000872.27/DJAI.PSE/06/2021",
        "qr_code": "https://pse.kominfo.go.id/storage/images/qr_code/6755d39916fae1ae61f4be6a3421ba1b.png",
        "status_id": "TERDAFTAR",
        "sistem_elektronik_id": 858
      }
    },
    {
      "type": "tdpseTerbit",
      "id": 1476,
      "attributes": {
        "nomor_pb_umku": null,
        "nama": "BNI Smart Remittance",
        "website": "https://sr.bni.co.id",
        "sektor": "Sektor Keuangan",
        "nama_perusahaan": "PERUSAHAAN PERSEROAN (PERSERO) BANK NEGARA INDONESIA",
        "tanggal_daftar": "2021-06-14",
        "nomor_tanda_daftar": "000872.26/DJAI.PSE/06/2021",
        "qr_code": "https://pse.kominfo.go.id/storage/images/qr_code/7c1f5c55ece2a94e395126c3e09aa195.png",
        "status_id": "TERDAFTAR",
        "sistem_elektronik_id": 857
      }
    },
    {
      "type": "tdpseTerbit",
      "id": 1475,
      "attributes": {
        "nomor_pb_umku": null,
        "nama": "BNI Internet Banking Corporate",
        "website": "https://bnidirect.bni.co.id",
        "sektor": "Sektor Keuangan",
        "nama_perusahaan": "PERUSAHAAN PERSEROAN (PERSERO) BANK NEGARA INDONESIA",
        "tanggal_daftar": "2021-06-14",
        "nomor_tanda_daftar": "000872.25/DJAI.PSE/06/2021",
        "qr_code": "https://pse.kominfo.go.id/storage/images/qr_code/f8799551d6b3e62973d485099a7d5bdc.png",
        "status_id": "TERDAFTAR",
        "sistem_elektronik_id": 856
      }
    },
    {
      "type": "tdpseTerbit",
      "id": 1474,
      "attributes": {
        "nomor_pb_umku": null,
        "nama": "BNI Internet Banking",
        "website": "https://ibank.bni.co.id",
        "sektor": "Sektor Keuangan",
        "nama_perusahaan": "PERUSAHAAN PERSEROAN (PERSERO) BANK NEGARA INDONESIA",
        "tanggal_daftar": "2021-06-14",
        "nomor_tanda_daftar": "000872.24/DJAI.PSE/06/2021",
        "qr_code": "https://pse.kominfo.go.id/storage/images/qr_code/f5f16d534fe2a6fedf3a123443052610.png",
        "status_id": "TERDAFTAR",
        "sistem_elektronik_id": 855
      }
    },
    {
      "type": "tdpseTerbit",
      "id": 1472,
      "attributes": {
        "nomor_pb_umku": null,
        "nama": "BNI MoRe (Mobile Remittance)",
        "website": "-",
        "sektor": "Sektor Keuangan",
        "nama_perusahaan": "PERUSAHAAN PERSEROAN (PERSERO) BANK NEGARA INDONESIA",
        "tanggal_daftar": "2021-06-14",
        "nomor_tanda_daftar": "000872.23/DJAI.PSE/06/2021",
        "qr_code": "https://pse.kominfo.go.id/storage/images/qr_code/f39833774f393c4cc244684352618a01.png",
        "status_id": "TERDAFTAR",
        "sistem_elektronik_id": 854
      }
    },
    {
      "type": "tdpseTerbit",
      "id": 1459,
      "attributes": {
        "nomor_pb_umku": null,
        "nama": "BNI Contact Center Virtual Assistant/BNI Call",
        "website": "-",
        "sektor": "Sektor Keuangan",
        "nama_perusahaan": "PERUSAHAAN PERSEROAN (PERSERO) BANK NEGARA INDONESIA",
        "tanggal_daftar": "2021-06-09",
        "nomor_tanda_daftar": "000872.22/DJAI.PSE/06/2021",
        "qr_code": "https://pse.kominfo.go.id/storage/images/qr_code/92821e09d0947d80ba438243a155d621.png",
        "status_id": "TERDAFTAR",
        "sistem_elektronik_id": 853
      }
    },
    {
      "type": "tdpseTerbit",
      "id": 1458,
      "attributes": {
        "nomor_pb_umku": null,
        "nama": "BNI Simponi Mobile",
        "website": "-",
        "sektor": "Sektor Keuangan",
        "nama_perusahaan": "PERUSAHAAN PERSEROAN (PERSERO) BANK NEGARA INDONESIA",
        "tanggal_daftar": "2021-06-09",
        "nomor_tanda_daftar": "000872.21/DJAI.PSE/06/2021",
        "qr_code": "https://pse.kominfo.go.id/storage/images/qr_code/f9264e2bd579d083b84394d112e139cc.png",
        "status_id": "TERDAFTAR",
        "sistem_elektronik_id": 852
      }
    },
    {
      "type": "tdpseTerbit",
      "id": 1457,
      "attributes": {
        "nomor_pb_umku": null,
        "nama": "BNI Pembukaan Rekening Digital",
        "website": "https://bukarekening.bni.co.id/simpanan/home",
        "sektor": "Sektor Keuangan",
        "nama_perusahaan": "PERUSAHAAN PERSEROAN (PERSERO) BANK NEGARA INDONESIA",
        "tanggal_daftar": "2021-06-09",
        "nomor_tanda_daftar": "000872.20/DJAI.PSE/06/2021",
        "qr_code": "https://pse.kominfo.go.id/storage/images/qr_code/5030ee392087e258f2f6c91bfdfb5b43.png",
        "status_id": "TERDAFTAR",
        "sistem_elektronik_id": 851
      }
    },
    {
      "type": "tdpseTerbit",
      "id": 1456,
      "attributes": {
        "nomor_pb_umku": null,
        "nama": "BNI Credit Card Mobile",
        "website": "-",
        "sektor": "Sektor Keuangan",
        "nama_perusahaan": "PERUSAHAAN PERSEROAN (PERSERO) BANK NEGARA INDONESIA",
        "tanggal_daftar": "2021-06-09",
        "nomor_tanda_daftar": "000872.19/DJAI.PSE/06/2021",
        "qr_code": "https://pse.kominfo.go.id/storage/images/qr_code/4e9d212efc12ff2341ca04351330220c.png",
        "status_id": "TERDAFTAR",
        "sistem_elektronik_id": 850
      }
    }
  ]
}