{
  "meta": {
    "page": {
      "currentPage": 703,
      "from": 7021,
      "lastPage": 1068,
      "perPage": 10,
      "to": 7030,
      "total": 10675
    }
  },
  "data": [
    {
      "type": "tdpseTerbit",
      "id": 7660,
      "attributes": {
        "nomor_pb_umku": "022000371093400000003",
        "nama": "APLIKASI BELANJA MADRASAH",
        "website": "absah.id",
        "sektor": "Sektor Perdagangan, Sektor Teknologi Informasi dan Komunikasi",
        "nama_perusahaan": "GRATIS ONGKIR",
        "tanggal_daftar": "2022-07-20",
        "nomor_tanda_daftar": "001874.02/DJAI.PSE/07/2022",
        "qr_code": "https://pse.kominfo.go.id/storage/images/qr_code/2f9c1bdc66e4bd4168b9c5ad62fc7b3a.png",
        "status_id": "TERDAFTAR",
        "sistem_elektronik_id": 7561
      }
    },
    {
      "type": "tdpseTerbit",
      "id": 2928,
      "attributes": {
        "nomor_pb_umku": null,
        "nama": "Gratis Ongkir",
        "website": "gratisongkir.id",
        "sektor": "Sektor Perdagangan",
        "nama_perusahaan": "GRATIS ONGKIR",
        "tanggal_daftar": "2021-12-30",
        "nomor_tanda_daftar": "001874.01/DJAI.PSE/12/2021",
        "qr_code": "https://pse.kominfo.go.id/storage/images/qr_code/4d133134b4ade87b82eac67abd538b24.png",
        "status_id": "TERDAFTAR",
        "sistem_elektronik_id": 2000
      }
    },
    {
      "type": "tdpseTerbit",
      "id": 2927,
      "attributes": {
        "nomor_pb_umku": null,
        "nama": "Easy Bills 2C2P",
        "website": "-",
        "sektor": "Sektor Teknologi Informasi dan Komunikasi",
        "nama_perusahaan": "INTEGRASI SINAPTIQ",
        "tanggal_daftar": "2021-12-30",
        "nomor_tanda_daftar": "001873.01/DJAI.PSE/12/2021",
        "qr_code": "https://pse.kominfo.go.id/storage/images/qr_code/7c1110f75803a18cbe98c2e2448f1aa3.png",
        "status_id": "TERDAFTAR",
        "sistem_elektronik_id": 1913
      }
    },
    {
      "type": "tdpseTerbit",
      "id": 5119,
      "attributes": {
        "nomor_pb_umku": "812010682351500020002",
        "nama": "HTTPS://WWW.UNIPIN.COM/",
        "website": "unipin.com",
        "sektor": "Sektor Perdagangan",
        "nama_perusahaan": "DUA PULUH EMPAT JAM ONLINE",
        "tanggal_daftar": "2022-07-06",
        "nomor_tanda_daftar": "001872.03/DJAI.PSE/07/2022",
        "qr_code": "https://pse.kominfo.go.id/storage/images/qr_code/acb840a282679ee4829f9783e055d48d.png",
        "status_id": "TERDAFTAR",
        "sistem_elektronik_id": 4981
      }
    },
    {
      "type": "tdpseTerbit",
      "id": 4997,
      "attributes": {
        "nomor_pb_umku": "812010682351500020001",
        "nama": "UNIPIN.COM",
        "website": "unipin.com",
        "sektor": "Sektor Teknologi Informasi dan Komunikasi",
        "nama_perusahaan": "DUA PULUH EMPAT JAM ONLINE",
        "tanggal_daftar": "2022-07-01",
        "nomor_tanda_daftar": "001872.02/DJAI.PSE/07/2022",
        "qr_code": "https://pse.kominfo.go.id/storage/images/qr_code/6fbd644cbc60b5bdbcd070bad1b9dd1e.png",
        "status_id": "TERDAFTAR",
        "sistem_elektronik_id": 4866
      }
    },
    {
      "type": "tdpseTerbit",
      "id": 2926,
      "attributes": {
        "nomor_pb_umku": null,
        "nama": "SJLv2",
        "website": "unipin.com",
        "sektor": "Sektor Teknologi Informasi dan Komunikasi",
        "nama_perusahaan": "DUA PULUH EMPAT JAM ONLINE",
        "tanggal_daftar": "2021-12-30",
        "nomor_tanda_daftar": "001872.01/DJAI.PSE/12/2021",
        "qr_code": "https://pse.kominfo.go.id/storage/images/qr_code/5a9625d070f987f61ab76f1e3f440668.png",
        "status_id": "TERDAFTAR",
        "sistem_elektronik_id": 1947
      }
    },
    {
      "type": "tdpseTerbit",
      "id": 2925,
      "attributes": {
        "nomor_pb_umku": null,
        "nama": "KITA",
        "website": "www.keluargakita.id",
        "sektor": "Sektor Kesehatan, Sektor Perdagangan",
        "nama_perusahaan": "KITA KELUARGA INDONESIA",
        "tanggal_daftar": "2021-12-30",
        "nomor_tanda_daftar": "001871.01/DJAI.PSE/12/2021",
        "qr_code": "https://pse.kominfo.go.id/storage/images/qr_code/b5c4866d9d0b5d3e86acf3afaff1da46.png",
        "status_id": "TERDAFTAR",
        "sistem_elektronik_id": 1992
      }
    },
    {
      "type": "tdpseTerbit",
      "id": 2923,
      "attributes": {
        "nomor_pb_umku": null,
        "nama": "Cipta Daya System",
        "website": "ahlikomputer.com",
        "sektor": "Sektor Teknologi Informasi dan Komunikasi",
        "nama_perusahaan": "CIPTA DAYA JAYA",
        "tanggal_daftar": "2021-12-30",
        "nomor_tanda_daftar": "001870.01/DJAI.PSE/12/2021",
        "qr_code": "https://pse.kominfo.go.id/storage/images/qr_code/65ff787ae5c47b279d18455c2f1a6b52.png",
        "status_id": "TERDAFTAR",
        "sistem_elektronik_id": 1999
      }
    },
    {
      "type": "tdpseTerbit",
      "id": 2921,
      "attributes": {
        "nomor_pb_umku": null,
        "nama": "BIRO HERIYANTO JAYA",
        "website": "-",
        "sektor": "Sektor Teknologi Informasi dan Komunikasi",
        "nama_perusahaan": "BIRO HERIYANTO JAYA",
        "tanggal_daftar": "2021-12-30",
        "nomor_tanda_daftar": "001869.01/DJAI.PSE/12/2021",
        "qr_code": "https://pse.kominfo.go.id/storage/images/qr_code/5737428a2b406bfeedf0e80132205c97.png",
        "status_id": "TERDAFTAR",
        "sistem_elektronik_id": 1998
      }
    },
    {
      "type": "tdpseTerbit",
      "id": 2920,
      "attributes": {
        "nomor_pb_umku": null,
        "nama": "ZONA MULTIMEDIA MAKASSAR",
        "website": "lontaraph.wordpress.com",
        "sektor": "Sektor Teknologi Informasi dan Komunikasi",
        "nama_perusahaan": "Asriadi Karim Maulana",
        "tanggal_daftar": "2021-12-30",
        "nomor_tanda_daftar": "001868.01/DJAI.PSE/12/2021",
        "qr_code": "https://pse.kominfo.go.id/storage/images/qr_code/9ce754e583e2368d9b82e7ea99c43da4.png",
        "status_id": "TERDAFTAR",
        "sistem_elektronik_id": 1997
      }
    }
  ]
}