{
  "meta": {
    "page": {
      "currentPage": 704,
      "from": 7031,
      "lastPage": 1080,
      "perPage": 10,
      "to": 7040,
      "total": 10793
    }
  },
  "data": [
    {
      "type": "tdpseTerbit",
      "id": 3030,
      "attributes": {
        "nomor_pb_umku": null,
        "nama": "DUTA MONEY",
        "website": "www.dutamoney.co.id",
        "sektor": "Sektor Keuangan, Sektor Teknologi Informasi dan Komunikasi",
        "nama_perusahaan": "DUTA TEKNOLOGI KREATIF",
        "tanggal_daftar": "2022-01-11",
        "nomor_tanda_daftar": "001935.01/DJAI.PSE/01/2022",
        "qr_code": "https://pse.kominfo.go.id/storage/images/qr_code/475543870544f62c457ba1fe07d49fcc.png",
        "status_id": "TERDAFTAR",
        "sistem_elektronik_id": 2053
      }
    },
    {
      "type": "tdpseTerbit",
      "id": 4375,
      "attributes": {
        "nomor_pb_umku": "912010671190500020002",
        "nama": "BLUECHIP CIPTADANA",
        "website": "ciptadana-sekuritas-asia.com",
        "sektor": "Sektor Keuangan",
        "nama_perusahaan": "CIPTADANA SEKURITAS ASIA",
        "tanggal_daftar": "2022-06-14",
        "nomor_tanda_daftar": "001934.02/DJAI.PSE/06/2022",
        "qr_code": "https://pse.kominfo.go.id/storage/images/qr_code/de3c0cf4368d34768414325ba0dd87ae.png",
        "status_id": "TERDAFTAR",
        "sistem_elektronik_id": 4360
      }
    },
    {
      "type": "tdpseTerbit",
      "id": 3029,
      "attributes": {
        "nomor_pb_umku": null,
        "nama": "CITRA",
        "website": "ciptadana.com",
        "sektor": "Sektor Keuangan",
        "nama_perusahaan": "CIPTADANA SEKURITAS ASIA",
        "tanggal_daftar": "2022-01-11",
        "nomor_tanda_daftar": "001934.01/DJAI.PSE/01/2022",
        "qr_code": "https://pse.kominfo.go.id/storage/images/qr_code/827d189e69a6b805c855fc534d6f6bb9.png",
        "status_id": "TERDAFTAR",
        "sistem_elektronik_id": 1605
      }
    },
    {
      "type": "tdpseTerbit",
      "id": 3027,
      "attributes": {
        "nomor_pb_umku": null,
        "nama": "www.vicari.id",
        "website": "www.vicari.id",
        "sektor": "Sektor Perdagangan",
        "nama_perusahaan": "MILANO MITRA ABADI",
        "tanggal_daftar": "2022-01-11",
        "nomor_tanda_daftar": "001933.02/DJAI.PSE/01/2022",
        "qr_code": "https://pse.kominfo.go.id/storage/images/qr_code/eb491e560da2656676637b55b405ac37.png",
        "status_id": "TERDAFTAR",
        "sistem_elektronik_id": 2049
      }
    },
    {
      "type": "tdpseTerbit",
      "id": 3025,
      "attributes": {
        "nomor_pb_umku": null,
        "nama": "www.gabino.id",
        "website": "www.gabino.id",
        "sektor": "Sektor Perdagangan",
        "nama_perusahaan": "MILANO MITRA ABADI",
        "tanggal_daftar": "2022-01-11",
        "nomor_tanda_daftar": "001933.01/DJAI.PSE/01/2022",
        "qr_code": "https://pse.kominfo.go.id/storage/images/qr_code/0c4328d3c95364eb99024597b6b9e870.png",
        "status_id": "TERDAFTAR",
        "sistem_elektronik_id": 2048
      }
    },
    {
      "type": "tdpseTerbit",
      "id": 3024,
      "attributes": {
        "nomor_pb_umku": null,
        "nama": "Pedagang Fisik Aset Kripto",
        "website": "-",
        "sektor": "Sektor Perdagangan",
        "nama_perusahaan": "DUIT ASSETECH INDONESIA",
        "tanggal_daftar": "2022-01-11",
        "nomor_tanda_daftar": "001932.01/DJAI.PSE/01/2022",
        "qr_code": "https://pse.kominfo.go.id/storage/images/qr_code/12aa025fd7dbbc7fd38e046acd863c5f.png",
        "status_id": "TERDAFTAR",
        "sistem_elektronik_id": 2046
      }
    },
    {
      "type": "tdpseTerbit",
      "id": 3021,
      "attributes": {
        "nomor_pb_umku": null,
        "nama": "Pinter",
        "website": "https://www.pinter.co.id",
        "sektor": "Sektor Keuangan, Sektor Pangan, Sektor Perdagangan, Sektor Teknologi Informasi dan Komunikasi",
        "nama_perusahaan": "FANATIK TEKNOLOGI INDONESIA",
        "tanggal_daftar": "2022-01-11",
        "nomor_tanda_daftar": "001931.01/DJAI.PSE/01/2022",
        "qr_code": "https://pse.kominfo.go.id/storage/images/qr_code/9e42937c88a77cf0a45da23531cb0021.png",
        "status_id": "TERDAFTAR",
        "sistem_elektronik_id": 1646
      }
    },
    {
      "type": "tdpseTerbit",
      "id": 3019,
      "attributes": {
        "nomor_pb_umku": null,
        "nama": "Korporat",
        "website": "korporat.com",
        "sektor": "Sektor Teknologi Informasi dan Komunikasi",
        "nama_perusahaan": "MEDIA BISNIS ANAK MUDA INDONESIA",
        "tanggal_daftar": "2022-01-10",
        "nomor_tanda_daftar": "001930.01/DJAI.PSE/01/2022",
        "qr_code": "https://pse.kominfo.go.id/storage/images/qr_code/42a69f7e17cf3ddb947d400d84534e81.png",
        "status_id": "TERDAFTAR",
        "sistem_elektronik_id": 2018
      }
    },
    {
      "type": "tdpseTerbit",
      "id": 3022,
      "attributes": {
        "nomor_pb_umku": null,
        "nama": "BotMD",
        "website": "www.botmd.io",
        "sektor": "Sektor Teknologi Informasi dan Komunikasi",
        "nama_perusahaan": "FIVE HEALTH INDONESIA",
        "tanggal_daftar": "2022-01-11",
        "nomor_tanda_daftar": "001929.02/DJAI.PSE/01/2022",
        "qr_code": "https://pse.kominfo.go.id/storage/images/qr_code/553b861f7c74d9bb64854077042eddd5.png",
        "status_id": "TERDAFTAR",
        "sistem_elektronik_id": 2045
      }
    },
    {
      "type": "tdpseTerbit",
      "id": 3018,
      "attributes": {
        "nomor_pb_umku": null,
        "nama": "BOTMD",
        "website": "-",
        "sektor": "Sektor Teknologi Informasi dan Komunikasi",
        "nama_perusahaan": "FIVE HEALTH INDONESIA",
        "tanggal_daftar": "2022-01-10",
        "nomor_tanda_daftar": "001929.01/DJAI.PSE/01/2022",
        "qr_code": "https://pse.kominfo.go.id/storage/images/qr_code/efe3accd80995cc3ad565e0b2fb29cae.png",
        "status_id": "TERDAFTAR",
        "sistem_elektronik_id": 2044
      }
    }
  ]
}