{
  "meta": {
    "page": {
      "currentPage": 705,
      "from": 7041,
      "lastPage": 985,
      "perPage": 10,
      "to": 7050,
      "total": 9842
    }
  },
  "data": [
    {
      "type": "tdpseTerbit",
      "id": 2075,
      "attributes": {
        "nomor_pb_umku": null,
        "nama": "Telpro Smart Parking",
        "website": "-",
        "sektor": "Sektor Teknologi Informasi dan Komunikasi",
        "nama_perusahaan": "GRAHA SARANA DUTA",
        "tanggal_daftar": "2021-10-26",
        "nomor_tanda_daftar": "001390.01/DJAI.PSE/10/2021",
        "qr_code": "https://pse.kominfo.go.id/storage/images/qr_code/a89bf34ca2e0c124aaf07748994d71a3.png",
        "status_id": "TERDAFTAR",
        "sistem_elektronik_id": 3004
      }
    },
    {
      "type": "tdpseTerbit",
      "id": 2074,
      "attributes": {
        "nomor_pb_umku": null,
        "nama": "PARI - Pasar Rakyat Indonesia",
        "website": "pari.co.id",
        "sektor": "Sektor Perdagangan",
        "nama_perusahaan": "BRINGIN INTI TEKNOLOGI",
        "tanggal_daftar": "2021-10-26",
        "nomor_tanda_daftar": "001389.01/DJAI.PSE/10/2021",
        "qr_code": "https://pse.kominfo.go.id/storage/images/qr_code/11d820f18cff51c3bdb32314ee304b7e.png",
        "status_id": "TERDAFTAR",
        "sistem_elektronik_id": 1484
      }
    },
    {
      "type": "tdpseTerbit",
      "id": 2073,
      "attributes": {
        "nomor_pb_umku": null,
        "nama": "BPDNet",
        "website": "www.bpdnet.com",
        "sektor": "Sektor Perdagangan, Sektor Teknologi Informasi dan Komunikasi",
        "nama_perusahaan": "SOLUSI NUSANTARA TERPADU",
        "tanggal_daftar": "2021-10-26",
        "nomor_tanda_daftar": "001388.01/DJAI.PSE/10/2021",
        "qr_code": "https://pse.kominfo.go.id/storage/images/qr_code/d3c089dfbd53e2c5a5a0edef575d84a3.png",
        "status_id": "TERDAFTAR",
        "sistem_elektronik_id": 1491
      }
    },
    {
      "type": "tdpseTerbit",
      "id": 2072,
      "attributes": {
        "nomor_pb_umku": null,
        "nama": "GOCpay",
        "website": "www.goc.id",
        "sektor": "Sektor Perdagangan",
        "nama_perusahaan": "FINAL IMPIAN NIAGA",
        "tanggal_daftar": "2021-10-26",
        "nomor_tanda_daftar": "001387.01/DJAI.PSE/10/2021",
        "qr_code": "https://pse.kominfo.go.id/storage/images/qr_code/c32e94ece397f393ce41678f20885baa.png",
        "status_id": "TERDAFTAR",
        "sistem_elektronik_id": 1524
      }
    },
    {
      "type": "tdpseTerbit",
      "id": 2071,
      "attributes": {
        "nomor_pb_umku": null,
        "nama": "bli-go! world of wonder app",
        "website": "www.bli-go.com",
        "sektor": "Sektor Pangan, Sektor Perdagangan, Sektor Transportasi",
        "nama_perusahaan": "ALAN DIGITAL INDONESIA",
        "tanggal_daftar": "2021-10-26",
        "nomor_tanda_daftar": "001386.01/DJAI.PSE/10/2021",
        "qr_code": "https://pse.kominfo.go.id/storage/images/qr_code/3f18e1c516db0f21d104989e8aaf33db.png",
        "status_id": "TERDAFTAR",
        "sistem_elektronik_id": 3364
      }
    },
    {
      "type": "tdpseTerbit",
      "id": 3087,
      "attributes": {
        "nomor_pb_umku": null,
        "nama": "WELTEK HEALTHIN INDONESIA",
        "website": "www.weltek.id",
        "sektor": "Sektor Kesehatan, Sektor Teknologi Informasi dan Komunikasi",
        "nama_perusahaan": "WELTEK HEALTHIN INDONESIA",
        "tanggal_daftar": "2022-01-21",
        "nomor_tanda_daftar": "001385.03/DJAI.PSE/01/2022",
        "qr_code": "https://pse.kominfo.go.id/storage/images/qr_code/4af5672fb05a28e7485270d85580d6fb.png",
        "status_id": "TERDAFTAR",
        "sistem_elektronik_id": 3367
      }
    },
    {
      "type": "tdpseTerbit",
      "id": 2291,
      "attributes": {
        "nomor_pb_umku": null,
        "nama": "BUBIDAN",
        "website": "https://weltek.id",
        "sektor": "Sektor Kesehatan, Sektor Perdagangan",
        "nama_perusahaan": "WELTEK HEALTHIN INDONESIA",
        "tanggal_daftar": "2021-11-08",
        "nomor_tanda_daftar": "001385.02/DJAI.PSE/11/2021",
        "qr_code": "https://pse.kominfo.go.id/storage/images/qr_code/7498153d426be9c3a0f33fb98ef79fa9.png",
        "status_id": "TERDAFTAR",
        "sistem_elektronik_id": 3366
      }
    },
    {
      "type": "tdpseTerbit",
      "id": 2070,
      "attributes": {
        "nomor_pb_umku": null,
        "nama": "BUBIDAN",
        "website": "https://weltek.id",
        "sektor": "Sektor Kesehatan, Sektor Perdagangan",
        "nama_perusahaan": "WELTEK HEALTHIN INDONESIA",
        "tanggal_daftar": "2021-10-26",
        "nomor_tanda_daftar": "001385.01/DJAI.PSE/10/2021",
        "qr_code": "https://pse.kominfo.go.id/storage/images/qr_code/c0c51031e680f9cd9b3dd31d8f6d7348.png",
        "status_id": "TERDAFTAR",
        "sistem_elektronik_id": 3365
      }
    },
    {
      "type": "tdpseTerbit",
      "id": 2069,
      "attributes": {
        "nomor_pb_umku": null,
        "nama": "Panggilaja.com",
        "website": "https://www.panggilaja.com",
        "sektor": "Sektor Perdagangan",
        "nama_perusahaan": "ANGKASA PURA SUPORT",
        "tanggal_daftar": "2021-10-26",
        "nomor_tanda_daftar": "001384.01/DJAI.PSE/10/2021",
        "qr_code": "https://pse.kominfo.go.id/storage/images/qr_code/5e6d480efa94871d0797002a46328edb.png",
        "status_id": "TERDAFTAR",
        "sistem_elektronik_id": 1411
      }
    },
    {
      "type": "tdpseTerbit",
      "id": 2212,
      "attributes": {
        "nomor_pb_umku": null,
        "nama": "Legalku Digital",
        "website": "legalku.com",
        "sektor": "Sektor Teknologi Informasi dan Komunikasi",
        "nama_perusahaan": "LEGALKU SERVICIA CORPORA",
        "tanggal_daftar": "2021-11-01",
        "nomor_tanda_daftar": "001383.02/DJAI.PSE/11/2021",
        "qr_code": "https://pse.kominfo.go.id/storage/images/qr_code/e5751a499cfc17e90d67ddc4a50fbcf1.png",
        "status_id": "TERDAFTAR",
        "sistem_elektronik_id": 1515
      }
    }
  ]
}