{
  "meta": {
    "page": {
      "currentPage": 706,
      "from": 7051,
      "lastPage": 931,
      "perPage": 10,
      "to": 7060,
      "total": 9301
    }
  },
  "data": [
    {
      "type": "tdpseTerbit",
      "id": 1648,
      "attributes": {
        "nomor_pb_umku": null,
        "nama": "casfer.io",
        "website": "https://casfer.io",
        "sektor": "Sektor Keuangan, Sektor Teknologi Informasi dan Komunikasi",
        "nama_perusahaan": "TAMBANG ARTHA WISESA",
        "tanggal_daftar": "2021-07-05",
        "nomor_tanda_daftar": "001082.01/DJAI.PSE/07/2021",
        "qr_code": "https://pse.kominfo.go.id/storage/images/qr_code/8ab74d2ef2e3fc980da122f7a62068a2.png",
        "status_id": "TERDAFTAR",
        "sistem_elektronik_id": 1200
      }
    },
    {
      "type": "tdpseTerbit",
      "id": 8041,
      "attributes": {
        "nomor_pb_umku": "912050081291600020002",
        "nama": "WEBSITE SUPRA SEKURITAS",
        "website": "suprasekuritas.co.id",
        "sektor": "Sektor Keuangan",
        "nama_perusahaan": "SUPRA SEKURITAS INDONESIA",
        "tanggal_daftar": "2022-07-20",
        "nomor_tanda_daftar": "001081.02/DJAI.PSE/07/2022",
        "qr_code": "https://pse.kominfo.go.id/storage/images/qr_code/9b37f2fb2819766d3d515b07e60a9940.png",
        "status_id": "TERDAFTAR",
        "sistem_elektronik_id": 7963
      }
    },
    {
      "type": "tdpseTerbit",
      "id": 1647,
      "attributes": {
        "nomor_pb_umku": null,
        "nama": "SAS Back Office dan SAS Front Office",
        "website": "https://suprasekuritas.co.id",
        "sektor": "Sektor Keuangan",
        "nama_perusahaan": "SUPRA SEKURITAS INDONESIA",
        "tanggal_daftar": "2021-07-05",
        "nomor_tanda_daftar": "001081.01/DJAI.PSE/07/2021",
        "qr_code": "https://pse.kominfo.go.id/storage/images/qr_code/9d17aa5b1f024cacbfd7a12e8498d796.png",
        "status_id": "TERDAFTAR",
        "sistem_elektronik_id": 1197
      }
    },
    {
      "type": "tdpseTerbit",
      "id": 1646,
      "attributes": {
        "nomor_pb_umku": null,
        "nama": "THEFEPI",
        "website": "https://thefepi.co.id",
        "sektor": "Sektor Perdagangan",
        "nama_perusahaan": "IDE PICUP GROUP",
        "tanggal_daftar": "2021-07-05",
        "nomor_tanda_daftar": "001080.01/DJAI.PSE/07/2021",
        "qr_code": "https://pse.kominfo.go.id/storage/images/qr_code/2cadaf211f12b872cbda7bb981c938d3.png",
        "status_id": "TERDAFTAR",
        "sistem_elektronik_id": 1078
      }
    },
    {
      "type": "tdpseTerbit",
      "id": 1842,
      "attributes": {
        "nomor_pb_umku": null,
        "nama": "RAJAHARDWARE.ID",
        "website": "RAJAHARDWARE.ID",
        "sektor": "Sektor Perdagangan",
        "nama_perusahaan": "COBAS PERKAKAS JAYA",
        "tanggal_daftar": "2021-08-03",
        "nomor_tanda_daftar": "001079.02/DJAI.PSE/08/2021",
        "qr_code": "https://pse.kominfo.go.id/storage/images/qr_code/c2bae8f3cc6b984a57e593b0f8886147.png",
        "status_id": "TERDAFTAR",
        "sistem_elektronik_id": 1187
      }
    },
    {
      "type": "tdpseTerbit",
      "id": 1643,
      "attributes": {
        "nomor_pb_umku": null,
        "nama": "COBASSTORE.CO.ID",
        "website": "Cobasstore.co.id",
        "sektor": "Sektor Perdagangan",
        "nama_perusahaan": "COBAS PERKAKAS JAYA",
        "tanggal_daftar": "2021-07-05",
        "nomor_tanda_daftar": "001079.01/DJAI.PSE/07/2021",
        "qr_code": "https://pse.kominfo.go.id/storage/images/qr_code/8937b432265eb2e9c05a9beeff796361.png",
        "status_id": "TERDAFTAR",
        "sistem_elektronik_id": 1186
      }
    },
    {
      "type": "tdpseTerbit",
      "id": 1639,
      "attributes": {
        "nomor_pb_umku": null,
        "nama": "TANYAI",
        "website": "https://tanyai.id/",
        "sektor": "Sektor Teknologi Informasi dan Komunikasi",
        "nama_perusahaan": "DARIS TRANSFORMASI DIGITAL",
        "tanggal_daftar": "2021-07-01",
        "nomor_tanda_daftar": "001078.01/DJAI.PSE/07/2021",
        "qr_code": "https://pse.kominfo.go.id/storage/images/qr_code/1283b9243cc07906e277315153aed5cd.png",
        "status_id": "TERDAFTAR",
        "sistem_elektronik_id": 1183
      }
    },
    {
      "type": "tdpseTerbit",
      "id": 1636,
      "attributes": {
        "nomor_pb_umku": null,
        "nama": "ralali.com",
        "website": "www.ralali.com",
        "sektor": "Sektor Perdagangan, Sektor Teknologi Informasi dan Komunikasi",
        "nama_perusahaan": "RAKSASA LAJU LINTANG",
        "tanggal_daftar": "2021-07-01",
        "nomor_tanda_daftar": "001077.01/DJAI.PSE/07/2021",
        "qr_code": "https://pse.kominfo.go.id/storage/images/qr_code/819f0ad78d6cca259bf57405612808e6.png",
        "status_id": "TERDAFTAR",
        "sistem_elektronik_id": 673
      }
    },
    {
      "type": "tdpseTerbit",
      "id": 1635,
      "attributes": {
        "nomor_pb_umku": null,
        "nama": "Alumak",
        "website": "www.alumak.id",
        "sektor": "Sektor Keuangan",
        "nama_perusahaan": "ALUMAK TEKNOLOGI INDONESIA",
        "tanggal_daftar": "2021-07-01",
        "nomor_tanda_daftar": "001076.01/DJAI.PSE/07/2021",
        "qr_code": "https://pse.kominfo.go.id/storage/images/qr_code/3560f4b74b0e26e5888977e8f6f9ed0e.png",
        "status_id": "TERDAFTAR",
        "sistem_elektronik_id": 1117
      }
    },
    {
      "type": "tdpseTerbit",
      "id": 3230,
      "attributes": {
        "nomor_pb_umku": null,
        "nama": "Inapedia",
        "website": "www.inapedia.id",
        "sektor": "Sektor Kesehatan, Sektor Pangan, Sektor Perdagangan, Sektor Teknologi Informasi dan Komunikasi",
        "nama_perusahaan": "MAHAKARYA INTI TECHNOLOGY",
        "tanggal_daftar": "2022-02-11",
        "nomor_tanda_daftar": "001075.02/DJAI.PSE/02/2022",
        "qr_code": "https://pse.kominfo.go.id/storage/images/qr_code/2265adb7b2483d19c2436b3a209b39cc.png",
        "status_id": "TERDAFTAR",
        "sistem_elektronik_id": 1208
      }
    }
  ]
}