{
  "meta": {
    "page": {
      "currentPage": 707,
      "from": 7061,
      "lastPage": 1072,
      "perPage": 10,
      "to": 7070,
      "total": 10718
    }
  },
  "data": [
    {
      "type": "tdpseTerbit",
      "id": 2931,
      "attributes": {
        "nomor_pb_umku": null,
        "nama": "Prilude Studio",
        "website": "priludestudio.com",
        "sektor": "Sektor Teknologi Informasi dan Komunikasi",
        "nama_perusahaan": "PRILUDE DIGITAL INDONESIA",
        "tanggal_daftar": "2021-12-30",
        "nomor_tanda_daftar": "001877.01/DJAI.PSE/12/2021",
        "qr_code": "https://pse.kominfo.go.id/storage/images/qr_code/e8bc9fa6cc523b4d3418ecffac8a8c6d.png",
        "status_id": "TERDAFTAR",
        "sistem_elektronik_id": 2001
      }
    },
    {
      "type": "tdpseTerbit",
      "id": 2930,
      "attributes": {
        "nomor_pb_umku": null,
        "nama": "Getwell Apps Indonesia",
        "website": "getwell.co.id",
        "sektor": "Sektor Kesehatan",
        "nama_perusahaan": "TELEMEDIKA TEKNOLOGI INDONESIA",
        "tanggal_daftar": "2021-12-30",
        "nomor_tanda_daftar": "001876.01/DJAI.PSE/12/2021",
        "qr_code": "https://pse.kominfo.go.id/storage/images/qr_code/5fa7a4ea62036e54601cbfde6bbe269a.png",
        "status_id": "TERDAFTAR",
        "sistem_elektronik_id": 3166
      }
    },
    {
      "type": "tdpseTerbit",
      "id": 2929,
      "attributes": {
        "nomor_pb_umku": null,
        "nama": "Digitesia",
        "website": "digitesia.com",
        "sektor": "Sektor Teknologi Informasi dan Komunikasi",
        "nama_perusahaan": "NGALI BUSTHOMI",
        "tanggal_daftar": "2021-12-30",
        "nomor_tanda_daftar": "001875.01/DJAI.PSE/12/2021",
        "qr_code": "https://pse.kominfo.go.id/storage/images/qr_code/d1e2173938f2583780ef21e21b06e07e.png",
        "status_id": "TERDAFTAR",
        "sistem_elektronik_id": 1862
      }
    },
    {
      "type": "tdpseTerbit",
      "id": 7660,
      "attributes": {
        "nomor_pb_umku": "022000371093400000003",
        "nama": "APLIKASI BELANJA MADRASAH",
        "website": "absah.id",
        "sektor": "Sektor Perdagangan, Sektor Teknologi Informasi dan Komunikasi",
        "nama_perusahaan": "GRATIS ONGKIR",
        "tanggal_daftar": "2022-07-20",
        "nomor_tanda_daftar": "001874.02/DJAI.PSE/07/2022",
        "qr_code": "https://pse.kominfo.go.id/storage/images/qr_code/2f9c1bdc66e4bd4168b9c5ad62fc7b3a.png",
        "status_id": "TERDAFTAR",
        "sistem_elektronik_id": 7561
      }
    },
    {
      "type": "tdpseTerbit",
      "id": 2928,
      "attributes": {
        "nomor_pb_umku": null,
        "nama": "Gratis Ongkir",
        "website": "gratisongkir.id",
        "sektor": "Sektor Perdagangan",
        "nama_perusahaan": "GRATIS ONGKIR",
        "tanggal_daftar": "2021-12-30",
        "nomor_tanda_daftar": "001874.01/DJAI.PSE/12/2021",
        "qr_code": "https://pse.kominfo.go.id/storage/images/qr_code/4d133134b4ade87b82eac67abd538b24.png",
        "status_id": "TERDAFTAR",
        "sistem_elektronik_id": 2000
      }
    },
    {
      "type": "tdpseTerbit",
      "id": 2927,
      "attributes": {
        "nomor_pb_umku": null,
        "nama": "Easy Bills 2C2P",
        "website": "-",
        "sektor": "Sektor Teknologi Informasi dan Komunikasi",
        "nama_perusahaan": "INTEGRASI SINAPTIQ",
        "tanggal_daftar": "2021-12-30",
        "nomor_tanda_daftar": "001873.01/DJAI.PSE/12/2021",
        "qr_code": "https://pse.kominfo.go.id/storage/images/qr_code/7c1110f75803a18cbe98c2e2448f1aa3.png",
        "status_id": "TERDAFTAR",
        "sistem_elektronik_id": 1913
      }
    },
    {
      "type": "tdpseTerbit",
      "id": 5119,
      "attributes": {
        "nomor_pb_umku": "812010682351500020002",
        "nama": "HTTPS://WWW.UNIPIN.COM/",
        "website": "unipin.com",
        "sektor": "Sektor Perdagangan",
        "nama_perusahaan": "DUA PULUH EMPAT JAM ONLINE",
        "tanggal_daftar": "2022-07-06",
        "nomor_tanda_daftar": "001872.03/DJAI.PSE/07/2022",
        "qr_code": "https://pse.kominfo.go.id/storage/images/qr_code/acb840a282679ee4829f9783e055d48d.png",
        "status_id": "TERDAFTAR",
        "sistem_elektronik_id": 4981
      }
    },
    {
      "type": "tdpseTerbit",
      "id": 4997,
      "attributes": {
        "nomor_pb_umku": "812010682351500020001",
        "nama": "UNIPIN.COM",
        "website": "unipin.com",
        "sektor": "Sektor Teknologi Informasi dan Komunikasi",
        "nama_perusahaan": "DUA PULUH EMPAT JAM ONLINE",
        "tanggal_daftar": "2022-07-01",
        "nomor_tanda_daftar": "001872.02/DJAI.PSE/07/2022",
        "qr_code": "https://pse.kominfo.go.id/storage/images/qr_code/6fbd644cbc60b5bdbcd070bad1b9dd1e.png",
        "status_id": "TERDAFTAR",
        "sistem_elektronik_id": 4866
      }
    },
    {
      "type": "tdpseTerbit",
      "id": 2926,
      "attributes": {
        "nomor_pb_umku": null,
        "nama": "SJLv2",
        "website": "unipin.com",
        "sektor": "Sektor Teknologi Informasi dan Komunikasi",
        "nama_perusahaan": "DUA PULUH EMPAT JAM ONLINE",
        "tanggal_daftar": "2021-12-30",
        "nomor_tanda_daftar": "001872.01/DJAI.PSE/12/2021",
        "qr_code": "https://pse.kominfo.go.id/storage/images/qr_code/5a9625d070f987f61ab76f1e3f440668.png",
        "status_id": "TERDAFTAR",
        "sistem_elektronik_id": 1947
      }
    },
    {
      "type": "tdpseTerbit",
      "id": 2925,
      "attributes": {
        "nomor_pb_umku": null,
        "nama": "KITA",
        "website": "www.keluargakita.id",
        "sektor": "Sektor Kesehatan, Sektor Perdagangan",
        "nama_perusahaan": "KITA KELUARGA INDONESIA",
        "tanggal_daftar": "2021-12-30",
        "nomor_tanda_daftar": "001871.01/DJAI.PSE/12/2021",
        "qr_code": "https://pse.kominfo.go.id/storage/images/qr_code/b5c4866d9d0b5d3e86acf3afaff1da46.png",
        "status_id": "TERDAFTAR",
        "sistem_elektronik_id": 1992
      }
    }
  ]
}