{
  "meta": {
    "page": {
      "currentPage": 708,
      "from": 7071,
      "lastPage": 1097,
      "perPage": 10,
      "to": 7080,
      "total": 10962
    }
  },
  "data": [
    {
      "type": "tdpseTerbit",
      "id": 4615,
      "attributes": {
        "nomor_pb_umku": "140122002723800040002",
        "nama": "HTTPS://SMARTECH.ORG",
        "website": "smartech.org",
        "sektor": "Sektor Perdagangan",
        "nama_perusahaan": "SMARTECH INDO JAYA",
        "tanggal_daftar": "2022-06-20",
        "nomor_tanda_daftar": "002031.02/DJAI.PSE/06/2022",
        "qr_code": "https://pse.kominfo.go.id/storage/images/qr_code/67cf44b0b0a863418b4ded4205836237.png",
        "status_id": "TERDAFTAR",
        "sistem_elektronik_id": 4576
      }
    },
    {
      "type": "tdpseTerbit",
      "id": 3146,
      "attributes": {
        "nomor_pb_umku": null,
        "nama": "SMARTSHOT  & GODFATHER",
        "website": "smartech.org",
        "sektor": "Sektor Perdagangan",
        "nama_perusahaan": "SMARTECH INDO JAYA",
        "tanggal_daftar": "2022-01-31",
        "nomor_tanda_daftar": "002031.01/DJAI.PSE/01/2022",
        "qr_code": "https://pse.kominfo.go.id/storage/images/qr_code/95269ad7ba88d6ef8d189ba312efeda2.png",
        "status_id": "TERDAFTAR",
        "sistem_elektronik_id": 2137
      }
    },
    {
      "type": "tdpseTerbit",
      "id": 3145,
      "attributes": {
        "nomor_pb_umku": null,
        "nama": "Toko Daring",
        "website": "tokodaring.co.id",
        "sektor": "Sektor Perdagangan, Sektor Teknologi Informasi dan Komunikasi",
        "nama_perusahaan": "TOKO DARING NUSANTARA",
        "tanggal_daftar": "2022-01-31",
        "nomor_tanda_daftar": "002030.01/DJAI.PSE/01/2022",
        "qr_code": "https://pse.kominfo.go.id/storage/images/qr_code/ba8b7c0686e4e5b07d30c34f621a13b6.png",
        "status_id": "TERDAFTAR",
        "sistem_elektronik_id": 2136
      }
    },
    {
      "type": "tdpseTerbit",
      "id": 3144,
      "attributes": {
        "nomor_pb_umku": null,
        "nama": "SwipeRxBelanja",
        "website": "https://belanja.swiperxapp.com",
        "sektor": "Sektor Perdagangan",
        "nama_perusahaan": "TEKNOLOGI MEDIKA PRATAMA",
        "tanggal_daftar": "2022-01-31",
        "nomor_tanda_daftar": "002029.01/DJAI.PSE/01/2022",
        "qr_code": "https://pse.kominfo.go.id/storage/images/qr_code/6e4106607671f3df8b91a5e855cedee1.png",
        "status_id": "TERDAFTAR",
        "sistem_elektronik_id": 2126
      }
    },
    {
      "type": "tdpseTerbit",
      "id": 3256,
      "attributes": {
        "nomor_pb_umku": null,
        "nama": "EpaySmart",
        "website": "-",
        "sektor": "Sektor Teknologi Informasi dan Komunikasi",
        "nama_perusahaan": "MEDIA DIMENSI TEKNOLOGI INDONESIA",
        "tanggal_daftar": "2022-02-15",
        "nomor_tanda_daftar": "002028.03/DJAI.PSE/02/2022",
        "qr_code": "https://pse.kominfo.go.id/storage/images/qr_code/524f48217331ddd212810ad8ca1bd64c.png",
        "status_id": "TERDAFTAR",
        "sistem_elektronik_id": 1490
      }
    },
    {
      "type": "tdpseTerbit",
      "id": 3227,
      "attributes": {
        "nomor_pb_umku": null,
        "nama": "EpayPOS",
        "website": "-",
        "sektor": "Sektor Teknologi Informasi dan Komunikasi",
        "nama_perusahaan": "MEDIA DIMENSI TEKNOLOGI INDONESIA",
        "tanggal_daftar": "2022-02-11",
        "nomor_tanda_daftar": "002028.02/DJAI.PSE/02/2022",
        "qr_code": "https://pse.kominfo.go.id/storage/images/qr_code/ac91e02b387fd27ac71869f047cade03.png",
        "status_id": "TERDAFTAR",
        "sistem_elektronik_id": 1489
      }
    },
    {
      "type": "tdpseTerbit",
      "id": 3143,
      "attributes": {
        "nomor_pb_umku": null,
        "nama": "EtimeTrac",
        "website": "etimetrac.id",
        "sektor": "Sektor Teknologi Informasi dan Komunikasi",
        "nama_perusahaan": "MEDIA DIMENSI TEKNOLOGI INDONESIA",
        "tanggal_daftar": "2022-01-31",
        "nomor_tanda_daftar": "002028.01/DJAI.PSE/01/2022",
        "qr_code": "https://pse.kominfo.go.id/storage/images/qr_code/9dabceadabf79f49658b634a66837fae.png",
        "status_id": "TERDAFTAR",
        "sistem_elektronik_id": 1488
      }
    },
    {
      "type": "tdpseTerbit",
      "id": 3142,
      "attributes": {
        "nomor_pb_umku": null,
        "nama": "Semaai",
        "website": "https://play.google.com/store/apps/details?id=com.semaai.toko",
        "sektor": "Sektor Pangan, Sektor Perdagangan",
        "nama_perusahaan": "AGRI PINTAR ASIA",
        "tanggal_daftar": "2022-01-31",
        "nomor_tanda_daftar": "002027.01/DJAI.PSE/01/2022",
        "qr_code": "https://pse.kominfo.go.id/storage/images/qr_code/3772f292540aab3efa34f38638ef52d4.png",
        "status_id": "TERDAFTAR",
        "sistem_elektronik_id": 2110
      }
    },
    {
      "type": "tdpseTerbit",
      "id": 3139,
      "attributes": {
        "nomor_pb_umku": null,
        "nama": "CV MEDICAL EINSTEIN SURABAYA",
        "website": "-",
        "sektor": "Sektor Perdagangan",
        "nama_perusahaan": "MEDICAL EINSTEIN SURABAYA",
        "tanggal_daftar": "2022-01-31",
        "nomor_tanda_daftar": "002025.01/DJAI.PSE/01/2022",
        "qr_code": "https://pse.kominfo.go.id/storage/images/qr_code/a25130709a467cc20496fda2619aa0ff.png",
        "status_id": "TERDAFTAR",
        "sistem_elektronik_id": 2131
      }
    },
    {
      "type": "tdpseTerbit",
      "id": 3138,
      "attributes": {
        "nomor_pb_umku": null,
        "nama": "AFC LIFE SCIENCE",
        "website": "-",
        "sektor": "Sektor Perdagangan",
        "nama_perusahaan": "ASAYAMA FAMILI CAHAYA INDONESIA",
        "tanggal_daftar": "2022-01-31",
        "nomor_tanda_daftar": "002024.01/DJAI.PSE/01/2022",
        "qr_code": "https://pse.kominfo.go.id/storage/images/qr_code/bf392d616dd3e947e28c20c94ae9ac9d.png",
        "status_id": "TERDAFTAR",
        "sistem_elektronik_id": 2130
      }
    }
  ]
}