{
  "meta": {
    "page": {
      "currentPage": 709,
      "from": 7081,
      "lastPage": 1001,
      "perPage": 10,
      "to": 7090,
      "total": 10002
    }
  },
  "data": [
    {
      "type": "tdpseTerbit",
      "id": 2233,
      "attributes": {
        "nomor_pb_umku": null,
        "nama": "Salam Erlangga Online",
        "website": "https://sallam-play.erlanggaonline.co.id",
        "sektor": "Sektor Teknologi Informasi dan Komunikasi",
        "nama_perusahaan": "PT Penerbit Buku Erlangga Mahameru",
        "tanggal_daftar": "2021-11-01",
        "nomor_tanda_daftar": "001444.13/DJAI.PSE/11/2021",
        "qr_code": "https://pse.kominfo.go.id/storage/images/qr_code/ec5e1b76511f036b5e33d9b251e80cd4.png",
        "status_id": "TERDAFTAR",
        "sistem_elektronik_id": 3061
      }
    },
    {
      "type": "tdpseTerbit",
      "id": 2232,
      "attributes": {
        "nomor_pb_umku": null,
        "nama": "Bupetik Erlangga Online",
        "website": "https://bupetik-play.erlanggaonline.co.id",
        "sektor": "Sektor Teknologi Informasi dan Komunikasi",
        "nama_perusahaan": "PT Penerbit Buku Erlangga Mahameru",
        "tanggal_daftar": "2021-11-01",
        "nomor_tanda_daftar": "001444.12/DJAI.PSE/11/2021",
        "qr_code": "https://pse.kominfo.go.id/storage/images/qr_code/894dabcccb69e1a7cf97f02ef07fe407.png",
        "status_id": "TERDAFTAR",
        "sistem_elektronik_id": 3060
      }
    },
    {
      "type": "tdpseTerbit",
      "id": 2230,
      "attributes": {
        "nomor_pb_umku": null,
        "nama": "Kelasku Erlangga Online",
        "website": "https://kelasku.erlanggaonline.co.id",
        "sektor": "Sektor Teknologi Informasi dan Komunikasi",
        "nama_perusahaan": "PT Penerbit Buku Erlangga Mahameru",
        "tanggal_daftar": "2021-11-01",
        "nomor_tanda_daftar": "001444.11/DJAI.PSE/11/2021",
        "qr_code": "https://pse.kominfo.go.id/storage/images/qr_code/db6ccccec652cb826b36f6cc29e340a6.png",
        "status_id": "TERDAFTAR",
        "sistem_elektronik_id": 3059
      }
    },
    {
      "type": "tdpseTerbit",
      "id": 2229,
      "attributes": {
        "nomor_pb_umku": null,
        "nama": "Mandiri Play Erlangga",
        "website": "https://mandiri-play.erlanggaonline.co.id",
        "sektor": "Sektor Teknologi Informasi dan Komunikasi",
        "nama_perusahaan": "PT Penerbit Buku Erlangga Mahameru",
        "tanggal_daftar": "2021-11-01",
        "nomor_tanda_daftar": "001444.10/DJAI.PSE/11/2021",
        "qr_code": "https://pse.kominfo.go.id/storage/images/qr_code/f50145fc19e3593cedf292babcd0b4df.png",
        "status_id": "TERDAFTAR",
        "sistem_elektronik_id": 3058
      }
    },
    {
      "type": "tdpseTerbit",
      "id": 2228,
      "attributes": {
        "nomor_pb_umku": null,
        "nama": "Bupena Erlangga",
        "website": "https://bupena-play.erlanggaonline.co.id",
        "sektor": "Sektor Teknologi Informasi dan Komunikasi",
        "nama_perusahaan": "PT Penerbit Buku Erlangga Mahameru",
        "tanggal_daftar": "2021-11-01",
        "nomor_tanda_daftar": "001444.09/DJAI.PSE/11/2021",
        "qr_code": "https://pse.kominfo.go.id/storage/images/qr_code/18b93721ef0598a81ece6cffbf7a3bd5.png",
        "status_id": "TERDAFTAR",
        "sistem_elektronik_id": 3057
      }
    },
    {
      "type": "tdpseTerbit",
      "id": 2227,
      "attributes": {
        "nomor_pb_umku": null,
        "nama": "UNBK Erlangga",
        "website": "https://unbk.erlanggaonline.co.id/",
        "sektor": "Sektor Teknologi Informasi dan Komunikasi",
        "nama_perusahaan": "PT Penerbit Buku Erlangga Mahameru",
        "tanggal_daftar": "2021-11-01",
        "nomor_tanda_daftar": "001444.08/DJAI.PSE/11/2021",
        "qr_code": "https://pse.kominfo.go.id/storage/images/qr_code/90bffa7e5cf42973257b89a85f0e7ad1.png",
        "status_id": "TERDAFTAR",
        "sistem_elektronik_id": 3056
      }
    },
    {
      "type": "tdpseTerbit",
      "id": 2226,
      "attributes": {
        "nomor_pb_umku": null,
        "nama": "Video Mengajar Online",
        "website": "https://play.erlanggaonline.co.id",
        "sektor": "Sektor Teknologi Informasi dan Komunikasi",
        "nama_perusahaan": "PT Penerbit Buku Erlangga Mahameru",
        "tanggal_daftar": "2021-11-01",
        "nomor_tanda_daftar": "001444.07/DJAI.PSE/11/2021",
        "qr_code": "https://pse.kominfo.go.id/storage/images/qr_code/aaf31d2d617d43353e806cbf936eb4fa.png",
        "status_id": "TERDAFTAR",
        "sistem_elektronik_id": 3055
      }
    },
    {
      "type": "tdpseTerbit",
      "id": 2225,
      "attributes": {
        "nomor_pb_umku": null,
        "nama": "Erlangga Online",
        "website": "https://erlanggaonline.com",
        "sektor": "Sektor Teknologi Informasi dan Komunikasi",
        "nama_perusahaan": "PT Penerbit Buku Erlangga Mahameru",
        "tanggal_daftar": "2021-11-01",
        "nomor_tanda_daftar": "001444.06/DJAI.PSE/11/2021",
        "qr_code": "https://pse.kominfo.go.id/storage/images/qr_code/b232d3b62a8a457a8d089bc740f85ed9.png",
        "status_id": "TERDAFTAR",
        "sistem_elektronik_id": 3054
      }
    },
    {
      "type": "tdpseTerbit",
      "id": 2224,
      "attributes": {
        "nomor_pb_umku": null,
        "nama": "Erlangga Exam Siswa",
        "website": "https://siswa.erlanggaexam.com",
        "sektor": "Sektor Teknologi Informasi dan Komunikasi",
        "nama_perusahaan": "PT Penerbit Buku Erlangga Mahameru",
        "tanggal_daftar": "2021-11-01",
        "nomor_tanda_daftar": "001444.05/DJAI.PSE/11/2021",
        "qr_code": "https://pse.kominfo.go.id/storage/images/qr_code/79b1c365d196e148754c39ccad7a74cc.png",
        "status_id": "TERDAFTAR",
        "sistem_elektronik_id": 3053
      }
    },
    {
      "type": "tdpseTerbit",
      "id": 2223,
      "attributes": {
        "nomor_pb_umku": null,
        "nama": "Erlangga Exam",
        "website": "https://erlanggaexam.com",
        "sektor": "Sektor Teknologi Informasi dan Komunikasi",
        "nama_perusahaan": "PT Penerbit Buku Erlangga Mahameru",
        "tanggal_daftar": "2021-11-01",
        "nomor_tanda_daftar": "001444.04/DJAI.PSE/11/2021",
        "qr_code": "https://pse.kominfo.go.id/storage/images/qr_code/67c9778c3977e9d9438bcaf0c65a0f24.png",
        "status_id": "TERDAFTAR",
        "sistem_elektronik_id": 3052
      }
    }
  ]
}