{
  "meta": {
    "page": {
      "currentPage": 710,
      "from": 7091,
      "lastPage": 962,
      "perPage": 10,
      "to": 7100,
      "total": 9612
    }
  },
  "data": [
    {
      "type": "tdpseTerbit",
      "id": 1872,
      "attributes": {
        "nomor_pb_umku": null,
        "nama": "Epployee",
        "website": "epployee.id",
        "sektor": "Sektor Teknologi Informasi dan Komunikasi",
        "nama_perusahaan": "TEKNOLOGI BANGUN SUMBER DAYA",
        "tanggal_daftar": "2021-08-09",
        "nomor_tanda_daftar": "001252.01/DJAI.PSE/08/2021",
        "qr_code": "https://pse.kominfo.go.id/storage/images/qr_code/abbc8c2636143ddf2d2d52727cd0ee6a.png",
        "status_id": "TERDAFTAR",
        "sistem_elektronik_id": 707
      }
    },
    {
      "type": "tdpseTerbit",
      "id": 7516,
      "attributes": {
        "nomor_pb_umku": "022020679239300040002",
        "nama": "WEBSITE PT. ASURANSI RELIANCE INDONESIA",
        "website": "asuransireliance.com",
        "sektor": "Sektor Keuangan",
        "nama_perusahaan": "ASURANSI RELIANCE INDONESIA",
        "tanggal_daftar": "2022-07-20",
        "nomor_tanda_daftar": "001251.03/DJAI.PSE/07/2022",
        "qr_code": "https://pse.kominfo.go.id/storage/images/qr_code/a3e4db1f6a98a99bba42abe86cea266c.png",
        "status_id": "TERDAFTAR",
        "sistem_elektronik_id": 7336
      }
    },
    {
      "type": "tdpseTerbit",
      "id": 3383,
      "attributes": {
        "nomor_pb_umku": null,
        "nama": "Relidoc",
        "website": "https://asuransireliance.com",
        "sektor": "Sektor Keuangan",
        "nama_perusahaan": "ASURANSI RELIANCE INDONESIA",
        "tanggal_daftar": "2022-02-25",
        "nomor_tanda_daftar": "001251.02/DJAI.PSE/02/2022",
        "qr_code": "https://pse.kominfo.go.id/storage/images/qr_code/c5b3c29ffebcbcebea5d54a61f3838f8.png",
        "status_id": "TERDAFTAR",
        "sistem_elektronik_id": 1396
      }
    },
    {
      "type": "tdpseTerbit",
      "id": 1871,
      "attributes": {
        "nomor_pb_umku": null,
        "nama": "RELIHIT",
        "website": "relihit2.relihc-app.com",
        "sektor": "Sektor Keuangan",
        "nama_perusahaan": "ASURANSI RELIANCE INDONESIA",
        "tanggal_daftar": "2021-08-09",
        "nomor_tanda_daftar": "001251.01/DJAI.PSE/08/2021",
        "qr_code": "https://pse.kominfo.go.id/storage/images/qr_code/e980c0551eae6b85c9b26dc39fcb74f1.png",
        "status_id": "TERDAFTAR",
        "sistem_elektronik_id": 1395
      }
    },
    {
      "type": "tdpseTerbit",
      "id": 1870,
      "attributes": {
        "nomor_pb_umku": null,
        "nama": "Koinku",
        "website": "www.koinku.id",
        "sektor": "Sektor Teknologi Informasi dan Komunikasi",
        "nama_perusahaan": "CIPTA KOIN DIGITAL",
        "tanggal_daftar": "2021-08-09",
        "nomor_tanda_daftar": "001250.01/DJAI.PSE/08/2021",
        "qr_code": "https://pse.kominfo.go.id/storage/images/qr_code/e5b833fd6167e6f92802a2573e30bc60.png",
        "status_id": "TERDAFTAR",
        "sistem_elektronik_id": 67
      }
    },
    {
      "type": "tdpseTerbit",
      "id": 7007,
      "attributes": {
        "nomor_pb_umku": "912020389091500010001",
        "nama": "WIF KAIN",
        "website": "-",
        "sektor": "Sektor Perdagangan",
        "nama_perusahaan": "TRIHIAKA ALPHA TEKNOLOGI",
        "tanggal_daftar": "2022-07-19",
        "nomor_tanda_daftar": "001249.02/DJAI.PSE/07/2022",
        "qr_code": "https://pse.kominfo.go.id/storage/images/qr_code/37ef2d56edbde8470c7eb8f0acbf517e.png",
        "status_id": "TERDAFTAR",
        "sistem_elektronik_id": 6810
      }
    },
    {
      "type": "tdpseTerbit",
      "id": 1869,
      "attributes": {
        "nomor_pb_umku": null,
        "nama": "WIFKAIN",
        "website": "www.wifkain.com",
        "sektor": "Sektor Perdagangan",
        "nama_perusahaan": "TRIHIAKA ALPHA TEKNOLOGI",
        "tanggal_daftar": "2021-08-09",
        "nomor_tanda_daftar": "001249.01/DJAI.PSE/08/2021",
        "qr_code": "https://pse.kominfo.go.id/storage/images/qr_code/92a36a7391667f4d6fd60bb1c3946358.png",
        "status_id": "TERDAFTAR",
        "sistem_elektronik_id": 1404
      }
    },
    {
      "type": "tdpseTerbit",
      "id": 4599,
      "attributes": {
        "nomor_pb_umku": null,
        "nama": "PLANB",
        "website": "-",
        "sektor": "Sektor Pangan, Sektor Teknologi Informasi dan Komunikasi",
        "nama_perusahaan": "PERMAKULTUR LANSKAP BERKELANJUTAN INDONESIA",
        "tanggal_daftar": "2021-08-09",
        "nomor_tanda_daftar": "001248.02/DJAI.PSE/08/2021",
        "qr_code": "https://pse.kominfo.go.id/storage/images/qr_code/79054cd3ceb2525d5d53e5a9537beb26.png",
        "status_id": "TERDAFTAR",
        "sistem_elektronik_id": 4562
      }
    },
    {
      "type": "tdpseTerbit",
      "id": 4598,
      "attributes": {
        "nomor_pb_umku": null,
        "nama": "www.planb.co.id",
        "website": "www.planb.co.id",
        "sektor": "Sektor Pangan, Sektor Teknologi Informasi dan Komunikasi",
        "nama_perusahaan": "PERMAKULTUR LANSKAP BERKELANJUTAN INDONESIA",
        "tanggal_daftar": "2021-08-09",
        "nomor_tanda_daftar": "001248.01/DJAI.PSE/08/2021",
        "qr_code": "https://pse.kominfo.go.id/storage/images/qr_code/42a9f9e3686a81530c6db21883d58bf5.png",
        "status_id": "TERDAFTAR",
        "sistem_elektronik_id": 4561
      }
    },
    {
      "type": "tdpseTerbit",
      "id": 2849,
      "attributes": {
        "nomor_pb_umku": null,
        "nama": "Utas",
        "website": "https://utas.co/",
        "sektor": "Sektor Teknologi Informasi dan Komunikasi",
        "nama_perusahaan": "KIRIM EMAIL INDONESIA",
        "tanggal_daftar": "2021-12-22",
        "nomor_tanda_daftar": "001247.02/DJAI.PSE/12/2021",
        "qr_code": "https://pse.kominfo.go.id/storage/images/qr_code/96a2ed4bd3ad3330560b08e8655845f5.png",
        "status_id": "TERDAFTAR",
        "sistem_elektronik_id": 1375
      }
    }
  ]
}