{
  "meta": {
    "page": {
      "currentPage": 72,
      "from": 711,
      "lastPage": 875,
      "perPage": 10,
      "to": 720,
      "total": 8749
    }
  },
  "data": [
    {
      "type": "tdpseTerbit",
      "id": 8083,
      "attributes": {
        "nomor_pb_umku": "912010580175900010001",
        "nama": "WEBSITE PT BPR PRABUMEGAH KENCANA",
        "website": "bprprabumegahkencana.co.id",
        "sektor": "Sektor Teknologi Informasi dan Komunikasi",
        "nama_perusahaan": "BANK PERKREDITAN RAKYAT PRABUMEGAH KENCANA",
        "tanggal_daftar": "2022-07-20",
        "nomor_tanda_daftar": "005747.01/DJAI.PSE/07/2022",
        "qr_code": "https://pse.kominfo.go.id/storage/images/qr_code/99e8279f4e928fe5ccd6e43393b8f82c.png",
        "status_id": "TERDAFTAR",
        "sistem_elektronik_id": 8005
      }
    },
    {
      "type": "tdpseTerbit",
      "id": 8050,
      "attributes": {
        "nomor_pb_umku": "130622004515600000001",
        "nama": "SIMASIF! LEGAL TECH",
        "website": "somasikan.com",
        "sektor": "Sektor Perdagangan",
        "nama_perusahaan": "KARISMA LEGALINDO UTAMA",
        "tanggal_daftar": "2022-07-20",
        "nomor_tanda_daftar": "005746.01/DJAI.PSE/07/2022",
        "qr_code": "https://pse.kominfo.go.id/storage/images/qr_code/de86bf9ed1b1d250a90410005cb106b8.png",
        "status_id": "TERDAFTAR",
        "sistem_elektronik_id": 7946
      }
    },
    {
      "type": "tdpseTerbit",
      "id": 8392,
      "attributes": {
        "nomor_pb_umku": "812031210219700010001",
        "nama": "BPRMAM.COM",
        "website": "bprmetroasiamandiri.com",
        "sektor": "Sektor Keuangan",
        "nama_perusahaan": "BANK PERKREDITAN RAKYAT METRO ASIA MANDIRI",
        "tanggal_daftar": "2022-07-21",
        "nomor_tanda_daftar": "005744.02/DJAI.PSE/07/2022",
        "qr_code": "https://pse.kominfo.go.id/storage/images/qr_code/5d8ce6d68f4fa2ebf0c9bac145819bf4.png",
        "status_id": "TERDAFTAR",
        "sistem_elektronik_id": 8307
      }
    },
    {
      "type": "tdpseTerbit",
      "id": 8094,
      "attributes": {
        "nomor_pb_umku": "812031210219700010001",
        "nama": "BPRMETROASIAMANDIRI.COM",
        "website": "Bprmetroasiamandiri.com",
        "sektor": "Sektor Keuangan",
        "nama_perusahaan": "BANK PERKREDITAN RAKYAT METRO ASIA MANDIRI",
        "tanggal_daftar": "2022-07-20",
        "nomor_tanda_daftar": "005744.01/DJAI.PSE/07/2022",
        "qr_code": "https://pse.kominfo.go.id/storage/images/qr_code/fc4f014e8753bfe8e0e3646985a7535f.png",
        "status_id": "TERDAFTAR",
        "sistem_elektronik_id": 7990
      }
    },
    {
      "type": "tdpseTerbit",
      "id": 8032,
      "attributes": {
        "nomor_pb_umku": "912020085252400000001",
        "nama": "APLIKASI",
        "website": "-",
        "sektor": "Sektor Keuangan",
        "nama_perusahaan": "GADAIKU PASTI JAYA",
        "tanggal_daftar": "2022-07-20",
        "nomor_tanda_daftar": "005743.01/DJAI.PSE/07/2022",
        "qr_code": "https://pse.kominfo.go.id/storage/images/qr_code/c5dc55ba1680bc82b1c6d1d97c6758aa.png",
        "status_id": "TERDAFTAR",
        "sistem_elektronik_id": 7953
      }
    },
    {
      "type": "tdpseTerbit",
      "id": 8889,
      "attributes": {
        "nomor_pb_umku": "912020180079900020001",
        "nama": "KOMPAK MOBILE",
        "website": "kompak.co.id",
        "sektor": "Sektor Perdagangan",
        "nama_perusahaan": "KOMPAK INDOPOLA",
        "tanggal_daftar": "2022-07-22",
        "nomor_tanda_daftar": "005742.02/DJAI.PSE/07/2022",
        "qr_code": "https://pse.kominfo.go.id/storage/images/qr_code/86389015fa062d33cc26f1662b2303d6.png",
        "status_id": "TERDAFTAR",
        "sistem_elektronik_id": 8792
      }
    },
    {
      "type": "tdpseTerbit",
      "id": 9038,
      "attributes": {
        "nomor_pb_umku": "912020180079900020002",
        "nama": "WEBSITE",
        "website": "KOMPAK.CO.ID",
        "sektor": "Sektor Perdagangan",
        "nama_perusahaan": "KOMPAK INDOPOLA",
        "tanggal_daftar": "2022-07-26",
        "nomor_tanda_daftar": "005742.01/DJAI.PSE/07/2022",
        "qr_code": "https://pse.kominfo.go.id/storage/images/qr_code/9ea5ba82a87f8329274d1b142e1cfb95.png",
        "status_id": "TERDAFTAR",
        "sistem_elektronik_id": 7937
      }
    },
    {
      "type": "tdpseTerbit",
      "id": 8009,
      "attributes": {
        "nomor_pb_umku": "912000571257900010002",
        "nama": "PT.BPR RARAT GANDA",
        "website": "-",
        "sektor": "Sektor Keuangan",
        "nama_perusahaan": "BANK PERKREDITAN RAKYAT RARAT GANDA",
        "tanggal_daftar": "2022-07-20",
        "nomor_tanda_daftar": "005740.01/DJAI.PSE/07/2022",
        "qr_code": "https://pse.kominfo.go.id/storage/images/qr_code/7b586b4a38c266fbfbee6e7f7fabb7a3.png",
        "status_id": "TERDAFTAR",
        "sistem_elektronik_id": 7926
      }
    },
    {
      "type": "tdpseTerbit",
      "id": 7999,
      "attributes": {
        "nomor_pb_umku": "022020377194500010001",
        "nama": "WEBSITE PT BPR BKK MUNTILAN (PERSERODA)",
        "website": "bprbkkmuntilan.com",
        "sektor": "Sektor Keuangan",
        "nama_perusahaan": "BPR BKK MUNTILAN PERSERODA",
        "tanggal_daftar": "2022-07-20",
        "nomor_tanda_daftar": "005736.01/DJAI.PSE/07/2022",
        "qr_code": "https://pse.kominfo.go.id/storage/images/qr_code/617d0bce8656ba4927692aa997e1cc02.png",
        "status_id": "TERDAFTAR",
        "sistem_elektronik_id": 7918
      }
    },
    {
      "type": "tdpseTerbit",
      "id": 8378,
      "attributes": {
        "nomor_pb_umku": "912020192064400000001",
        "nama": "SUPERSEWA",
        "website": "supersewa.com",
        "sektor": "Sektor Perdagangan, Sektor Teknologi Informasi dan Komunikasi",
        "nama_perusahaan": "MEROKET BERSAMA SUPERSEWA",
        "tanggal_daftar": "2022-07-21",
        "nomor_tanda_daftar": "005735.01/DJAI.PSE/07/2022",
        "qr_code": "https://pse.kominfo.go.id/storage/images/qr_code/87e02af77f8b6d375659dda63b436163.png",
        "status_id": "TERDAFTAR",
        "sistem_elektronik_id": 8296
      }
    }
  ]
}