{
  "meta": {
    "page": {
      "currentPage": 711,
      "from": 7101,
      "lastPage": 925,
      "perPage": 10,
      "to": 7110,
      "total": 9244
    }
  },
  "data": [
    {
      "type": "tdpseTerbit",
      "id": 1553,
      "attributes": {
        "nomor_pb_umku": null,
        "nama": "Hi App",
        "website": "hiapp.id",
        "sektor": "Sektor Teknologi Informasi dan Komunikasi",
        "nama_perusahaan": "HELLO KREASI INDONESIA",
        "tanggal_daftar": "2021-06-24",
        "nomor_tanda_daftar": "001017.02/DJAI.PSE/06/2021",
        "qr_code": "https://pse.kominfo.go.id/storage/images/qr_code/6849736f5fe1cc862b77b00eb4aeb7af.png",
        "status_id": "TERDAFTAR",
        "sistem_elektronik_id": 1076
      }
    },
    {
      "type": "tdpseTerbit",
      "id": 1549,
      "attributes": {
        "nomor_pb_umku": null,
        "nama": "Hi App",
        "website": "hiapp.id",
        "sektor": "Sektor Teknologi Informasi dan Komunikasi",
        "nama_perusahaan": "HELLO KREASI INDONESIA",
        "tanggal_daftar": "2021-06-24",
        "nomor_tanda_daftar": "001017.01/DJAI.PSE/06/2021",
        "qr_code": "https://pse.kominfo.go.id/storage/images/qr_code/e16b72e4cb2cf8c29fc204720ed02895.png",
        "status_id": "TERDAFTAR",
        "sistem_elektronik_id": 1075
      }
    },
    {
      "type": "tdpseTerbit",
      "id": 1548,
      "attributes": {
        "nomor_pb_umku": null,
        "nama": "GITS Indonesia",
        "website": "www.gits.id",
        "sektor": "Sektor Teknologi Informasi dan Komunikasi",
        "nama_perusahaan": "GITS INDONESIA",
        "tanggal_daftar": "2021-06-24",
        "nomor_tanda_daftar": "001016.01/DJAI.PSE/06/2021",
        "qr_code": "https://pse.kominfo.go.id/storage/images/qr_code/34c22cd2bf17027cbffe46f0aa179cd3.png",
        "status_id": "TERDAFTAR",
        "sistem_elektronik_id": 1134
      }
    },
    {
      "type": "tdpseTerbit",
      "id": 1547,
      "attributes": {
        "nomor_pb_umku": null,
        "nama": "Proedu",
        "website": "https://www.proedu.id/",
        "sektor": "Sektor Teknologi Informasi dan Komunikasi",
        "nama_perusahaan": "ALHASAN PRIMA EDUKASI",
        "tanggal_daftar": "2021-06-24",
        "nomor_tanda_daftar": "001015.01/DJAI.PSE/06/2021",
        "qr_code": "https://pse.kominfo.go.id/storage/images/qr_code/c75016569bfd10d669ba325fe5e06479.png",
        "status_id": "TERDAFTAR",
        "sistem_elektronik_id": 982
      }
    },
    {
      "type": "tdpseTerbit",
      "id": 1546,
      "attributes": {
        "nomor_pb_umku": null,
        "nama": "Dompet Aman",
        "website": "www.dompetaman.com",
        "sektor": "Sektor Perdagangan",
        "nama_perusahaan": "DOMPET AMAN INDONESIA",
        "tanggal_daftar": "2021-06-24",
        "nomor_tanda_daftar": "001014.01/DJAI.PSE/06/2021",
        "qr_code": "https://pse.kominfo.go.id/storage/images/qr_code/53e278fb4ccc53a2292a47414106706f.png",
        "status_id": "TERDAFTAR",
        "sistem_elektronik_id": 596
      }
    },
    {
      "type": "tdpseTerbit",
      "id": 1544,
      "attributes": {
        "nomor_pb_umku": null,
        "nama": "WEPLUS (WE+)",
        "website": "weplus.id",
        "sektor": "Sektor Perdagangan",
        "nama_perusahaan": "KITA INDONESIA PLUS",
        "tanggal_daftar": "2021-06-24",
        "nomor_tanda_daftar": "001013.01/DJAI.PSE/06/2021",
        "qr_code": "https://pse.kominfo.go.id/storage/images/qr_code/a70f768aea1c4bf59bc882c826e7f961.png",
        "status_id": "TERDAFTAR",
        "sistem_elektronik_id": 1129
      }
    },
    {
      "type": "tdpseTerbit",
      "id": 3539,
      "attributes": {
        "nomor_pb_umku": null,
        "nama": "Pegipegi",
        "website": "pegipegi.com",
        "sektor": "Sektor Perdagangan, Sektor Teknologi Informasi dan Komunikasi",
        "nama_perusahaan": "GO ONLINE DESTINATIONS",
        "tanggal_daftar": "2022-03-15",
        "nomor_tanda_daftar": "001012.02/DJAI.PSE/03/2022",
        "qr_code": "https://pse.kominfo.go.id/storage/images/qr_code/e6bca03d6b29dc5ea1742744e14889b7.png",
        "status_id": "TERDAFTAR",
        "sistem_elektronik_id": 3206
      }
    },
    {
      "type": "tdpseTerbit",
      "id": 1543,
      "attributes": {
        "nomor_pb_umku": null,
        "nama": "Pegipegi",
        "website": "pegipegi.com",
        "sektor": "Sektor Teknologi Informasi dan Komunikasi",
        "nama_perusahaan": "GO ONLINE DESTINATIONS",
        "tanggal_daftar": "2021-06-24",
        "nomor_tanda_daftar": "001012.01/DJAI.PSE/06/2021",
        "qr_code": "https://pse.kominfo.go.id/storage/images/qr_code/2539fca0cc6152676121c7532cb44c40.png",
        "status_id": "TERDAFTAR",
        "sistem_elektronik_id": 1127
      }
    },
    {
      "type": "tdpseTerbit",
      "id": 1542,
      "attributes": {
        "nomor_pb_umku": null,
        "nama": "DNRPlus",
        "website": "DnrPlus.com",
        "sektor": "Sektor Perdagangan",
        "nama_perusahaan": "DOS-NI-ROHA",
        "tanggal_daftar": "2021-06-24",
        "nomor_tanda_daftar": "001011.01/DJAI.PSE/06/2021",
        "qr_code": "https://pse.kominfo.go.id/storage/images/qr_code/74e7c09d9e93479e4f875bfd77c5b211.png",
        "status_id": "TERDAFTAR",
        "sistem_elektronik_id": 1040
      }
    },
    {
      "type": "tdpseTerbit",
      "id": 1541,
      "attributes": {
        "nomor_pb_umku": null,
        "nama": "Bluepay",
        "website": "http://www.bluepay.id/",
        "sektor": "Sektor Keuangan",
        "nama_perusahaan": "BLUEPAY DIGITAL INTERNATIONAL",
        "tanggal_daftar": "2021-06-24",
        "nomor_tanda_daftar": "001010.01/DJAI.PSE/06/2021",
        "qr_code": "https://pse.kominfo.go.id/storage/images/qr_code/13f89ac9291880ceb34b0403f040b3e8.png",
        "status_id": "TERDAFTAR",
        "sistem_elektronik_id": 1103
      }
    }
  ]
}