{
  "meta": {
    "page": {
      "currentPage": 712,
      "from": 7111,
      "lastPage": 1038,
      "perPage": 10,
      "to": 7120,
      "total": 10380
    }
  },
  "data": [
    {
      "type": "tdpseTerbit",
      "id": 2593,
      "attributes": {
        "nomor_pb_umku": null,
        "nama": "Website platform P2P lending Danakini - p2p.danakini.co.id",
        "website": "p2p.danakini.co.id",
        "sektor": "Sektor Keuangan",
        "nama_perusahaan": "DANA KINI INDONESIA",
        "tanggal_daftar": "2021-12-02",
        "nomor_tanda_daftar": "001681.01/DJAI.PSE/12/2021",
        "qr_code": "https://pse.kominfo.go.id/storage/images/qr_code/08400586338013a33a96d7f85b8d7d02.png",
        "status_id": "TERDAFTAR",
        "sistem_elektronik_id": 1784
      }
    },
    {
      "type": "tdpseTerbit",
      "id": 2592,
      "attributes": {
        "nomor_pb_umku": null,
        "nama": "https://www.ilm.id",
        "website": "https://www.ilm.id",
        "sektor": "Sektor Perdagangan",
        "nama_perusahaan": "PANEN TATAGRIYA INDONESIA",
        "tanggal_daftar": "2021-12-02",
        "nomor_tanda_daftar": "001680.01/DJAI.PSE/12/2021",
        "qr_code": "https://pse.kominfo.go.id/storage/images/qr_code/7c4428596cfbd990ce5f44852720e375.png",
        "status_id": "TERDAFTAR",
        "sistem_elektronik_id": 1632
      }
    },
    {
      "type": "tdpseTerbit",
      "id": 2591,
      "attributes": {
        "nomor_pb_umku": null,
        "nama": "Baqat",
        "website": "baqat.id",
        "sektor": "Sektor Teknologi Informasi dan Komunikasi",
        "nama_perusahaan": "DIGITAL INDONESIA INVESTAMA",
        "tanggal_daftar": "2021-12-02",
        "nomor_tanda_daftar": "001679.01/DJAI.PSE/12/2021",
        "qr_code": "https://pse.kominfo.go.id/storage/images/qr_code/1ff5ad6f359317d096e556e730543390.png",
        "status_id": "TERDAFTAR",
        "sistem_elektronik_id": 3418
      }
    },
    {
      "type": "tdpseTerbit",
      "id": 2587,
      "attributes": {
        "nomor_pb_umku": null,
        "nama": "Borneotrip",
        "website": "https://borneotrip.id",
        "sektor": "Sektor Teknologi Informasi dan Komunikasi",
        "nama_perusahaan": "CAKRAWALA BORNEO SINERGI",
        "tanggal_daftar": "2021-12-02",
        "nomor_tanda_daftar": "001678.01/DJAI.PSE/12/2021",
        "qr_code": "https://pse.kominfo.go.id/storage/images/qr_code/62da16441f951c22eeac11a79bdb88ff.png",
        "status_id": "TERDAFTAR",
        "sistem_elektronik_id": 1788
      }
    },
    {
      "type": "tdpseTerbit",
      "id": 2586,
      "attributes": {
        "nomor_pb_umku": null,
        "nama": "www.maleser.com",
        "website": "maleser.com",
        "sektor": "Sektor Perdagangan",
        "nama_perusahaan": "MITRA ERA GLOBAL",
        "tanggal_daftar": "2021-12-02",
        "nomor_tanda_daftar": "001677.01/DJAI.PSE/12/2021",
        "qr_code": "https://pse.kominfo.go.id/storage/images/qr_code/9ca3748d4a8c64cd0a2e510f11ff0610.png",
        "status_id": "TERDAFTAR",
        "sistem_elektronik_id": 1483
      }
    },
    {
      "type": "tdpseTerbit",
      "id": 2583,
      "attributes": {
        "nomor_pb_umku": null,
        "nama": "Trusti",
        "website": "trusti.id",
        "sektor": "Sektor Teknologi Informasi dan Komunikasi",
        "nama_perusahaan": "DAMOS HANGGARA",
        "tanggal_daftar": "2021-12-02",
        "nomor_tanda_daftar": "001676.02/DJAI.PSE/12/2021",
        "qr_code": "https://pse.kominfo.go.id/storage/images/qr_code/203adbb61fda2de6959bc75a68b51430.png",
        "status_id": "TERDAFTAR",
        "sistem_elektronik_id": 1766
      }
    },
    {
      "type": "tdpseTerbit",
      "id": 2581,
      "attributes": {
        "nomor_pb_umku": null,
        "nama": "Speakapp",
        "website": "speakapp.me",
        "sektor": "Sektor Teknologi Informasi dan Komunikasi",
        "nama_perusahaan": "DAMOS HANGGARA",
        "tanggal_daftar": "2021-12-02",
        "nomor_tanda_daftar": "001676.01/DJAI.PSE/12/2021",
        "qr_code": "https://pse.kominfo.go.id/storage/images/qr_code/1b7af269fac71de0688663bccb6ae08f.png",
        "status_id": "TERDAFTAR",
        "sistem_elektronik_id": 1765
      }
    },
    {
      "type": "tdpseTerbit",
      "id": 2599,
      "attributes": {
        "nomor_pb_umku": null,
        "nama": "S-MULTIVEST",
        "website": "tapera.ksei.co.id",
        "sektor": "Sektor Keuangan",
        "nama_perusahaan": "KUSTODIAN SENTRAL EFEK INDONESIA",
        "tanggal_daftar": "2021-12-02",
        "nomor_tanda_daftar": "001675.08/DJAI.PSE/12/2021",
        "qr_code": "https://pse.kominfo.go.id/storage/images/qr_code/bf836b297d4df37e23cf58eb7762858b.png",
        "status_id": "TERDAFTAR",
        "sistem_elektronik_id": 1764
      }
    },
    {
      "type": "tdpseTerbit",
      "id": 2582,
      "attributes": {
        "nomor_pb_umku": null,
        "nama": "Emiten Area",
        "website": "online.ksei.co.id",
        "sektor": "Sektor Keuangan",
        "nama_perusahaan": "KUSTODIAN SENTRAL EFEK INDONESIA",
        "tanggal_daftar": "2021-12-02",
        "nomor_tanda_daftar": "001675.07/DJAI.PSE/12/2021",
        "qr_code": "https://pse.kominfo.go.id/storage/images/qr_code/4c62f21df616fdeb8340d98452cb2269.png",
        "status_id": "TERDAFTAR",
        "sistem_elektronik_id": 1763
      }
    },
    {
      "type": "tdpseTerbit",
      "id": 2580,
      "attributes": {
        "nomor_pb_umku": null,
        "nama": "Website PT Kustodian Sentral Efek Indonesia",
        "website": "ksei.co.id",
        "sektor": "Sektor Keuangan",
        "nama_perusahaan": "KUSTODIAN SENTRAL EFEK INDONESIA",
        "tanggal_daftar": "2021-12-02",
        "nomor_tanda_daftar": "001675.06/DJAI.PSE/12/2021",
        "qr_code": "https://pse.kominfo.go.id/storage/images/qr_code/a42c8232bf45e17289a47722851e0c3d.png",
        "status_id": "TERDAFTAR",
        "sistem_elektronik_id": 1762
      }
    }
  ]
}