{
  "meta": {
    "page": {
      "currentPage": 713,
      "from": 7121,
      "lastPage": 1113,
      "perPage": 10,
      "to": 7130,
      "total": 11124
    }
  },
  "data": [
    {
      "type": "tdpseTerbit",
      "id": 3245,
      "attributes": {
        "nomor_pb_umku": null,
        "nama": "9to9 Online",
        "website": "9to9.co.id",
        "sektor": "Sektor Perdagangan",
        "nama_perusahaan": "TRANSMARCO",
        "tanggal_daftar": "2022-02-14",
        "nomor_tanda_daftar": "002102.01/DJAI.PSE/02/2022",
        "qr_code": "https://pse.kominfo.go.id/storage/images/qr_code/cefeeb71e274c44bcdc6c1ccc5be864d.png",
        "status_id": "TERDAFTAR",
        "sistem_elektronik_id": 2121
      }
    },
    {
      "type": "tdpseTerbit",
      "id": 10888,
      "attributes": {
        "nomor_pb_umku": "812021125138200390019",
        "nama": "MEDBIZ",
        "website": "medbiz.id",
        "sektor": "Sektor Perdagangan, Sektor Kesehatan",
        "nama_perusahaan": "PERUSAHAAN PERSEROAN (PERSERO) PT. BIO FARMA DISINGKAT PT. BIO FARMA (PERSERO)",
        "tanggal_daftar": "2022-09-06",
        "nomor_tanda_daftar": "002101.04/DJAI.PSE/08/2022",
        "qr_code": "https://pse.kominfo.go.id/storage/images/qr_code/c127d55158b440138bfc947136da5b56.png",
        "status_id": "TERDAFTAR",
        "sistem_elektronik_id": 10699
      }
    },
    {
      "type": "tdpseTerbit",
      "id": 10574,
      "attributes": {
        "nomor_pb_umku": "812021125138200380018",
        "nama": "MEDIVERSE",
        "website": "mediverse.id",
        "sektor": "Sektor Kesehatan",
        "nama_perusahaan": "PERUSAHAAN PERSEROAN (PERSERO) PT. BIO FARMA DISINGKAT PT. BIO FARMA (PERSERO)",
        "tanggal_daftar": "2022-08-19",
        "nomor_tanda_daftar": "002101.03/DJAI.PSE/08/2022",
        "qr_code": "https://pse.kominfo.go.id/storage/images/qr_code/95e958ed15b4edb8b33a5c96c3b07fe0.png",
        "status_id": "TERDAFTAR",
        "sistem_elektronik_id": 10429
      }
    },
    {
      "type": "tdpseTerbit",
      "id": 10174,
      "attributes": {
        "nomor_pb_umku": "812021125138200330017",
        "nama": "MEDWELL",
        "website": "medwell.id",
        "sektor": "Sektor Kesehatan, Sektor Teknologi Informasi dan Komunikasi",
        "nama_perusahaan": "PERUSAHAAN PERSEROAN (PERSERO) PT. BIO FARMA DISINGKAT PT. BIO FARMA (PERSERO)",
        "tanggal_daftar": "2022-08-10",
        "nomor_tanda_daftar": "002101.02/DJAI.PSE/08/2022",
        "qr_code": "https://pse.kominfo.go.id/storage/images/qr_code/eb70837486e06001e4c2fba8b4b5c42a.png",
        "status_id": "TERDAFTAR",
        "sistem_elektronik_id": 10038
      }
    },
    {
      "type": "tdpseTerbit",
      "id": 3244,
      "attributes": {
        "nomor_pb_umku": null,
        "nama": "Medevo",
        "website": "http://www.medevo.id",
        "sektor": "Sektor Kesehatan",
        "nama_perusahaan": "PERUSAHAAN PERSEROAN (PERSERO) PT. BIO FARMA DISINGKAT PT. BIO FARMA (PERSERO)",
        "tanggal_daftar": "2022-02-14",
        "nomor_tanda_daftar": "002101.01/DJAI.PSE/02/2022",
        "qr_code": "https://pse.kominfo.go.id/storage/images/qr_code/e551cf4ad3b48174c9783b76dd846ea9.png",
        "status_id": "TERDAFTAR",
        "sistem_elektronik_id": 2194
      }
    },
    {
      "type": "tdpseTerbit",
      "id": 3243,
      "attributes": {
        "nomor_pb_umku": null,
        "nama": "NOICE",
        "website": "https://noice.id/",
        "sektor": "Sektor Teknologi Informasi dan Komunikasi",
        "nama_perusahaan": "MAHAKA RADIO DIGITAL",
        "tanggal_daftar": "2022-02-14",
        "nomor_tanda_daftar": "002100.01/DJAI.PSE/02/2022",
        "qr_code": "https://pse.kominfo.go.id/storage/images/qr_code/88b9ef39d35bf5289f6d8ff8d97b7f9f.png",
        "status_id": "TERDAFTAR",
        "sistem_elektronik_id": 2189
      }
    },
    {
      "type": "tdpseTerbit",
      "id": 3242,
      "attributes": {
        "nomor_pb_umku": null,
        "nama": "Fintar",
        "website": "www.fintar.co.id",
        "sektor": "Sektor Teknologi Informasi dan Komunikasi",
        "nama_perusahaan": "TEKNOLOGI PINTAR NUSANTARA",
        "tanggal_daftar": "2022-02-14",
        "nomor_tanda_daftar": "002099.01/DJAI.PSE/02/2022",
        "qr_code": "https://pse.kominfo.go.id/storage/images/qr_code/60b1c53d075a1d54566c371783d8e567.png",
        "status_id": "TERDAFTAR",
        "sistem_elektronik_id": 2144
      }
    },
    {
      "type": "tdpseTerbit",
      "id": 3241,
      "attributes": {
        "nomor_pb_umku": null,
        "nama": "Shoppy",
        "website": "-",
        "sektor": "Sektor Pangan, Sektor Perdagangan",
        "nama_perusahaan": "HARUNIA JAYA GRUP",
        "tanggal_daftar": "2022-02-14",
        "nomor_tanda_daftar": "002098.01/DJAI.PSE/02/2022",
        "qr_code": "https://pse.kominfo.go.id/storage/images/qr_code/64ece66b54bbcd2a6f147269f9f4bdf5.png",
        "status_id": "TERDAFTAR",
        "sistem_elektronik_id": 3426
      }
    },
    {
      "type": "tdpseTerbit",
      "id": 3240,
      "attributes": {
        "nomor_pb_umku": null,
        "nama": "Dankedev",
        "website": "https://dankedev.com",
        "sektor": "Sektor Perdagangan, Sektor Teknologi Informasi dan Komunikasi",
        "nama_perusahaan": "M SYAMSUL HADI",
        "tanggal_daftar": "2022-02-13",
        "nomor_tanda_daftar": "002097.02/DJAI.PSE/02/2022",
        "qr_code": "https://pse.kominfo.go.id/storage/images/qr_code/af4f6b97b2edc89173035b3a008fd708.png",
        "status_id": "TERDAFTAR",
        "sistem_elektronik_id": 2200
      }
    },
    {
      "type": "tdpseTerbit",
      "id": 3239,
      "attributes": {
        "nomor_pb_umku": null,
        "nama": "Dankedev Web Development",
        "website": "https://dankedev.com",
        "sektor": "Sektor Perdagangan",
        "nama_perusahaan": "M SYAMSUL HADI",
        "tanggal_daftar": "2022-02-13",
        "nomor_tanda_daftar": "002097.01/DJAI.PSE/02/2022",
        "qr_code": "https://pse.kominfo.go.id/storage/images/qr_code/dfeac504d5181373915ea8a53696d59c.png",
        "status_id": "TERDAFTAR",
        "sistem_elektronik_id": 2199
      }
    }
  ]
}