{
  "meta": {
    "page": {
      "currentPage": 714,
      "from": 7131,
      "lastPage": 1097,
      "perPage": 10,
      "to": 7140,
      "total": 10962
    }
  },
  "data": [
    {
      "type": "tdpseTerbit",
      "id": 8418,
      "attributes": {
        "nomor_pb_umku": "180122003648300000002",
        "nama": "VIX MEDIA",
        "website": "vixmedia.id",
        "sektor": "Sektor Teknologi Informasi dan Komunikasi",
        "nama_perusahaan": "FATAHUDDIN AL ISFAHANI",
        "tanggal_daftar": "2022-07-21",
        "nomor_tanda_daftar": "001990.02/DJAI.PSE/07/2022",
        "qr_code": "https://pse.kominfo.go.id/storage/images/qr_code/95ee92df51d9f5bc873a7375dddceb93.png",
        "status_id": "TERDAFTAR",
        "sistem_elektronik_id": 8335
      }
    },
    {
      "type": "tdpseTerbit",
      "id": 3095,
      "attributes": {
        "nomor_pb_umku": null,
        "nama": "Vibe Media",
        "website": "vibemedia.id",
        "sektor": "Sektor Teknologi Informasi dan Komunikasi",
        "nama_perusahaan": "FATAHUDDIN AL ISFAHANI",
        "tanggal_daftar": "2022-01-22",
        "nomor_tanda_daftar": "001990.01/DJAI.PSE/01/2022",
        "qr_code": "https://pse.kominfo.go.id/storage/images/qr_code/37e80bd914f07b9ffa5cb4b0cc59921e.png",
        "status_id": "TERDAFTAR",
        "sistem_elektronik_id": 2101
      }
    },
    {
      "type": "tdpseTerbit",
      "id": 3094,
      "attributes": {
        "nomor_pb_umku": null,
        "nama": "Qasir.id",
        "website": "qasir.id",
        "sektor": "Sektor Perdagangan, Sektor Teknologi Informasi dan Komunikasi",
        "nama_perusahaan": "SOLUSI TEKNOLOGI NIAGA",
        "tanggal_daftar": "2022-01-22",
        "nomor_tanda_daftar": "001989.01/DJAI.PSE/01/2022",
        "qr_code": "https://pse.kominfo.go.id/storage/images/qr_code/cd970d527757775f0ee1f25902a9d497.png",
        "status_id": "TERDAFTAR",
        "sistem_elektronik_id": 3397
      }
    },
    {
      "type": "tdpseTerbit",
      "id": 3093,
      "attributes": {
        "nomor_pb_umku": null,
        "nama": "Berkumpul Reseller System Startup UMKM",
        "website": "berkumpul.com",
        "sektor": "Sektor Perdagangan",
        "nama_perusahaan": "ALAM NUSANTARA ASRI",
        "tanggal_daftar": "2022-01-22",
        "nomor_tanda_daftar": "001988.01/DJAI.PSE/01/2022",
        "qr_code": "https://pse.kominfo.go.id/storage/images/qr_code/00798bc9f74a8fc29f49924e604723b0.png",
        "status_id": "TERDAFTAR",
        "sistem_elektronik_id": 3167
      }
    },
    {
      "type": "tdpseTerbit",
      "id": 3090,
      "attributes": {
        "nomor_pb_umku": null,
        "nama": "eBdesk Inqurio",
        "website": "ebdesk.com",
        "sektor": "Sektor Teknologi Informasi dan Komunikasi",
        "nama_perusahaan": "EBDESK TEKNOLOGI",
        "tanggal_daftar": "2022-01-21",
        "nomor_tanda_daftar": "001987.01/DJAI.PSE/01/2022",
        "qr_code": "https://pse.kominfo.go.id/storage/images/qr_code/1be6fe3a7ddd09df5d21cc923efe5d96.png",
        "status_id": "TERDAFTAR",
        "sistem_elektronik_id": 1602
      }
    },
    {
      "type": "tdpseTerbit",
      "id": 5791,
      "attributes": {
        "nomor_pb_umku": "912010422102800010002",
        "nama": "AKSELERAN APPS (ANDROID & IOS)",
        "website": "-",
        "sektor": "Sektor Keuangan",
        "nama_perusahaan": "AKSELERAN KEUANGAN INKLUSIF INDONESIA",
        "tanggal_daftar": "2022-08-10",
        "nomor_tanda_daftar": "001986.02/DJAI.PSE/07/2022",
        "qr_code": "https://pse.kominfo.go.id/storage/images/qr_code/0cdc61b332ac3370f9ec756f875f0b3e.png",
        "status_id": "TERDAFTAR",
        "sistem_elektronik_id": 5654
      }
    },
    {
      "type": "tdpseTerbit",
      "id": 3089,
      "attributes": {
        "nomor_pb_umku": null,
        "nama": "Akseleran",
        "website": "www.akseleran.co.id",
        "sektor": "Sektor Keuangan",
        "nama_perusahaan": "AKSELERAN KEUANGAN INKLUSIF INDONESIA",
        "tanggal_daftar": "2022-01-21",
        "nomor_tanda_daftar": "001986.01/DJAI.PSE/01/2022",
        "qr_code": "https://pse.kominfo.go.id/storage/images/qr_code/3ad913675abd20d26f5f0309753c57dc.png",
        "status_id": "TERDAFTAR",
        "sistem_elektronik_id": 2084
      }
    },
    {
      "type": "tdpseTerbit",
      "id": 3088,
      "attributes": {
        "nomor_pb_umku": null,
        "nama": "Daun tech indo",
        "website": "-",
        "sektor": "Sektor Teknologi Informasi dan Komunikasi",
        "nama_perusahaan": "RT/RW INTERNET",
        "tanggal_daftar": "2022-01-21",
        "nomor_tanda_daftar": "001985.01/DJAI.PSE/01/2022",
        "qr_code": "https://pse.kominfo.go.id/storage/images/qr_code/b4d60caad39bbcfd52d98889b2a2a934.png",
        "status_id": "TERDAFTAR",
        "sistem_elektronik_id": 2098
      }
    },
    {
      "type": "tdpseTerbit",
      "id": 3086,
      "attributes": {
        "nomor_pb_umku": null,
        "nama": "plesiran transportasi",
        "website": "www.plesiran.co",
        "sektor": "Sektor Perdagangan, Sektor Teknologi Informasi dan Komunikasi, Sektor Transportasi",
        "nama_perusahaan": "PLESIRAN DIGITAL INDONESIA",
        "tanggal_daftar": "2022-01-21",
        "nomor_tanda_daftar": "001984.02/DJAI.PSE/01/2022",
        "qr_code": "https://pse.kominfo.go.id/storage/images/qr_code/1a9d8089697f1f1cb94d80cdbbb2f4ff.png",
        "status_id": "TERDAFTAR",
        "sistem_elektronik_id": 2097
      }
    },
    {
      "type": "tdpseTerbit",
      "id": 3085,
      "attributes": {
        "nomor_pb_umku": null,
        "nama": "PLESIRAN",
        "website": "www.plesiran.co",
        "sektor": "Sektor Perdagangan, Sektor Transportasi",
        "nama_perusahaan": "PLESIRAN DIGITAL INDONESIA",
        "tanggal_daftar": "2022-01-21",
        "nomor_tanda_daftar": "001984.01/DJAI.PSE/01/2022",
        "qr_code": "https://pse.kominfo.go.id/storage/images/qr_code/1d400bd94d7a5cd2cc3e117f74344ed6.png",
        "status_id": "TERDAFTAR",
        "sistem_elektronik_id": 2096
      }
    }
  ]
}