{
  "meta": {
    "page": {
      "currentPage": 715,
      "from": 7141,
      "lastPage": 906,
      "perPage": 10,
      "to": 7150,
      "total": 9060
    }
  },
  "data": [
    {
      "type": "tdpseTerbit",
      "id": 2979,
      "attributes": {
        "nomor_pb_umku": null,
        "nama": "Corporate Website",
        "website": "bni.co.id",
        "sektor": "Sektor Keuangan",
        "nama_perusahaan": "PERUSAHAAN PERSEROAN (PERSERO) BANK NEGARA INDONESIA",
        "tanggal_daftar": "2022-01-06",
        "nomor_tanda_daftar": "000872.49/DJAI.PSE/01/2022",
        "qr_code": "https://pse.kominfo.go.id/storage/images/qr_code/fb3cc61c7ef910413a2e7530c7c535db.png",
        "status_id": "TERDAFTAR",
        "sistem_elektronik_id": 880
      }
    },
    {
      "type": "tdpseTerbit",
      "id": 2978,
      "attributes": {
        "nomor_pb_umku": null,
        "nama": "BNI Zona",
        "website": "m.bnizona.com",
        "sektor": "Sektor Keuangan",
        "nama_perusahaan": "PERUSAHAAN PERSEROAN (PERSERO) BANK NEGARA INDONESIA",
        "tanggal_daftar": "2022-01-06",
        "nomor_tanda_daftar": "000872.48/DJAI.PSE/01/2022",
        "qr_code": "https://pse.kominfo.go.id/storage/images/qr_code/7ebd28fafa3b39afcaf18cfa80e0b2ae.png",
        "status_id": "TERDAFTAR",
        "sistem_elektronik_id": 879
      }
    },
    {
      "type": "tdpseTerbit",
      "id": 2975,
      "attributes": {
        "nomor_pb_umku": null,
        "nama": "Agen 46",
        "website": "agenbni46.bni.co.id",
        "sektor": "Sektor Keuangan",
        "nama_perusahaan": "PERUSAHAAN PERSEROAN (PERSERO) BANK NEGARA INDONESIA",
        "tanggal_daftar": "2022-01-06",
        "nomor_tanda_daftar": "000872.47/DJAI.PSE/01/2022",
        "qr_code": "https://pse.kominfo.go.id/storage/images/qr_code/1859e21091673ea7fe78f811f5b204e3.png",
        "status_id": "TERDAFTAR",
        "sistem_elektronik_id": 878
      }
    },
    {
      "type": "tdpseTerbit",
      "id": 2974,
      "attributes": {
        "nomor_pb_umku": null,
        "nama": "Poin Plus (BNI POIN+)",
        "website": "poinplus.bni.co.id",
        "sektor": "Sektor Keuangan",
        "nama_perusahaan": "PERUSAHAAN PERSEROAN (PERSERO) BANK NEGARA INDONESIA",
        "tanggal_daftar": "2022-01-06",
        "nomor_tanda_daftar": "000872.46/DJAI.PSE/01/2022",
        "qr_code": "https://pse.kominfo.go.id/storage/images/qr_code/02df6be3e2ee0a21c0c03cc06250cb62.png",
        "status_id": "TERDAFTAR",
        "sistem_elektronik_id": 877
      }
    },
    {
      "type": "tdpseTerbit",
      "id": 2973,
      "attributes": {
        "nomor_pb_umku": null,
        "nama": "Eform Kartu Kredit BNI",
        "website": "applykartukredit.bni.co.id",
        "sektor": "Sektor Keuangan",
        "nama_perusahaan": "PERUSAHAAN PERSEROAN (PERSERO) BANK NEGARA INDONESIA",
        "tanggal_daftar": "2022-01-06",
        "nomor_tanda_daftar": "000872.45/DJAI.PSE/01/2022",
        "qr_code": "https://pse.kominfo.go.id/storage/images/qr_code/2495af9dbbe41ed7913a8eccca1a96a1.png",
        "status_id": "TERDAFTAR",
        "sistem_elektronik_id": 876
      }
    },
    {
      "type": "tdpseTerbit",
      "id": 2972,
      "attributes": {
        "nomor_pb_umku": null,
        "nama": "eform BNI",
        "website": "eform.bni.co.id",
        "sektor": "Sektor Keuangan",
        "nama_perusahaan": "PERUSAHAAN PERSEROAN (PERSERO) BANK NEGARA INDONESIA",
        "tanggal_daftar": "2022-01-06",
        "nomor_tanda_daftar": "000872.44/DJAI.PSE/01/2022",
        "qr_code": "https://pse.kominfo.go.id/storage/images/qr_code/78f7a6c58a7689ce25b9b119ba9d870c.png",
        "status_id": "TERDAFTAR",
        "sistem_elektronik_id": 875
      }
    },
    {
      "type": "tdpseTerbit",
      "id": 2971,
      "attributes": {
        "nomor_pb_umku": null,
        "nama": "One Portal for All",
        "website": "bnitbs.id",
        "sektor": "Sektor Keuangan",
        "nama_perusahaan": "PERUSAHAAN PERSEROAN (PERSERO) BANK NEGARA INDONESIA",
        "tanggal_daftar": "2022-01-06",
        "nomor_tanda_daftar": "000872.43/DJAI.PSE/01/2022",
        "qr_code": "https://pse.kominfo.go.id/storage/images/qr_code/13e47b533e718e5ab67e20729ab7a767.png",
        "status_id": "TERDAFTAR",
        "sistem_elektronik_id": 874
      }
    },
    {
      "type": "tdpseTerbit",
      "id": 2970,
      "attributes": {
        "nomor_pb_umku": null,
        "nama": "SPAN",
        "website": "spancms.bni.co.id",
        "sektor": "Sektor Keuangan",
        "nama_perusahaan": "PERUSAHAAN PERSEROAN (PERSERO) BANK NEGARA INDONESIA",
        "tanggal_daftar": "2022-01-06",
        "nomor_tanda_daftar": "000872.42/DJAI.PSE/01/2022",
        "qr_code": "https://pse.kominfo.go.id/storage/images/qr_code/22cfc0b2c30b3d70e5f6c1dab7996f20.png",
        "status_id": "TERDAFTAR",
        "sistem_elektronik_id": 873
      }
    },
    {
      "type": "tdpseTerbit",
      "id": 2391,
      "attributes": {
        "nomor_pb_umku": null,
        "nama": "Xpora",
        "website": "xpora.bni.co.id",
        "sektor": "Sektor Keuangan",
        "nama_perusahaan": "PERUSAHAAN PERSEROAN (PERSERO) BANK NEGARA INDONESIA",
        "tanggal_daftar": "2021-11-16",
        "nomor_tanda_daftar": "000872.41/DJAI.PSE/11/2021",
        "qr_code": "https://pse.kominfo.go.id/storage/images/qr_code/51a22fe041cc1cc2e3277400849308dd.png",
        "status_id": "TERDAFTAR",
        "sistem_elektronik_id": 872
      }
    },
    {
      "type": "tdpseTerbit",
      "id": 1709,
      "attributes": {
        "nomor_pb_umku": null,
        "nama": "Internet Banking Corporate",
        "website": "https://bnidirect.bni.co.id",
        "sektor": "Sektor Keuangan",
        "nama_perusahaan": "PERUSAHAAN PERSEROAN (PERSERO) BANK NEGARA INDONESIA",
        "tanggal_daftar": "2021-07-15",
        "nomor_tanda_daftar": "000872.40/DJAI.PSE/07/2021",
        "qr_code": "https://pse.kominfo.go.id/storage/images/qr_code/ab5d10444b3947d47217083cecba8a6f.png",
        "status_id": "TERDAFTAR",
        "sistem_elektronik_id": 871
      }
    }
  ]
}