{
  "meta": {
    "page": {
      "currentPage": 716,
      "from": 7151,
      "lastPage": 989,
      "perPage": 10,
      "to": 7160,
      "total": 9888
    }
  },
  "data": [
    {
      "type": "tdpseTerbit",
      "id": 2025,
      "attributes": {
        "nomor_pb_umku": null,
        "nama": "Trust Online System",
        "website": "https://www.trust.co.id",
        "sektor": "Sektor Keuangan",
        "nama_perusahaan": "TRUST SEKURITAS",
        "tanggal_daftar": "2021-10-26",
        "nomor_tanda_daftar": "001346.01/DJAI.PSE/10/2021",
        "qr_code": "https://pse.kominfo.go.id/storage/images/qr_code/d8f9f821156bdcebd38c9f07ddebbc0e.png",
        "status_id": "TERDAFTAR",
        "sistem_elektronik_id": 2874
      }
    },
    {
      "type": "tdpseTerbit",
      "id": 2762,
      "attributes": {
        "nomor_pb_umku": null,
        "nama": "- TRIUMPH -",
        "website": "-",
        "sektor": "Sektor Perdagangan",
        "nama_perusahaan": "PELOPOR TEKNOLOGI INDONESIA",
        "tanggal_daftar": "2021-12-15",
        "nomor_tanda_daftar": "001345.03/DJAI.PSE/12/2021",
        "qr_code": "https://pse.kominfo.go.id/storage/images/qr_code/a5bb1a3edd8eec4077073326131a6909.png",
        "status_id": "TERDAFTAR",
        "sistem_elektronik_id": 1428
      }
    },
    {
      "type": "tdpseTerbit",
      "id": 2382,
      "attributes": {
        "nomor_pb_umku": null,
        "nama": "TRIUMPH",
        "website": "-",
        "sektor": "Sektor Perdagangan",
        "nama_perusahaan": "PELOPOR TEKNOLOGI INDONESIA",
        "tanggal_daftar": "2021-11-16",
        "nomor_tanda_daftar": "001345.02/DJAI.PSE/11/2021",
        "qr_code": "https://pse.kominfo.go.id/storage/images/qr_code/89f78cacced303ccc06d39ed46a40967.png",
        "status_id": "TERDAFTAR",
        "sistem_elektronik_id": 1427
      }
    },
    {
      "type": "tdpseTerbit",
      "id": 2023,
      "attributes": {
        "nomor_pb_umku": null,
        "nama": "www.triumph-official.ltd",
        "website": "www.triumph-official.ltd",
        "sektor": "Sektor Teknologi Informasi dan Komunikasi",
        "nama_perusahaan": "PELOPOR TEKNOLOGI INDONESIA",
        "tanggal_daftar": "2021-10-26",
        "nomor_tanda_daftar": "001345.01/DJAI.PSE/10/2021",
        "qr_code": "https://pse.kominfo.go.id/storage/images/qr_code/1899500cb0636ad1db0b6e54c2796de1.png",
        "status_id": "TERDAFTAR",
        "sistem_elektronik_id": 1426
      }
    },
    {
      "type": "tdpseTerbit",
      "id": 2022,
      "attributes": {
        "nomor_pb_umku": null,
        "nama": "Jeff",
        "website": "https://www.jeff.co.id",
        "sektor": "Sektor Teknologi Informasi dan Komunikasi",
        "nama_perusahaan": "JEFF TOP SKOR",
        "tanggal_daftar": "2021-10-26",
        "nomor_tanda_daftar": "001344.01/DJAI.PSE/10/2021",
        "qr_code": "https://pse.kominfo.go.id/storage/images/qr_code/ea1602177d2d29e39f214da2893c8695.png",
        "status_id": "TERDAFTAR",
        "sistem_elektronik_id": 1435
      }
    },
    {
      "type": "tdpseTerbit",
      "id": 2021,
      "attributes": {
        "nomor_pb_umku": null,
        "nama": "EZYHAUL",
        "website": "www.ezyhaul.com",
        "sektor": "Sektor Perdagangan",
        "nama_perusahaan": "EZYHAUL TECHNOLOGIES INDONESIA",
        "tanggal_daftar": "2021-10-26",
        "nomor_tanda_daftar": "001343.01/DJAI.PSE/10/2021",
        "qr_code": "https://pse.kominfo.go.id/storage/images/qr_code/b9f1527157afc0e93df07c053e04565d.png",
        "status_id": "TERDAFTAR",
        "sistem_elektronik_id": 599
      }
    },
    {
      "type": "tdpseTerbit",
      "id": 2147,
      "attributes": {
        "nomor_pb_umku": null,
        "nama": "VeloceTrax",
        "website": "www.velocetrax.com",
        "sektor": "Sektor Perdagangan, Sektor Teknologi Informasi dan Komunikasi",
        "nama_perusahaan": "VELOCE INDONESIA JAYA",
        "tanggal_daftar": "2021-10-26",
        "nomor_tanda_daftar": "001342.02/DJAI.PSE/10/2021",
        "qr_code": "https://pse.kominfo.go.id/storage/images/qr_code/5c21959371685c5cb71d8277568670e1.png",
        "status_id": "TERDAFTAR",
        "sistem_elektronik_id": 1455
      }
    },
    {
      "type": "tdpseTerbit",
      "id": 2020,
      "attributes": {
        "nomor_pb_umku": null,
        "nama": "Veloce Trax",
        "website": "velocetrax.com",
        "sektor": "Sektor Perdagangan",
        "nama_perusahaan": "VELOCE INDONESIA JAYA",
        "tanggal_daftar": "2021-10-26",
        "nomor_tanda_daftar": "001342.01/DJAI.PSE/10/2021",
        "qr_code": "https://pse.kominfo.go.id/storage/images/qr_code/12971a5604ad3a7d731bfb83d65fa78c.png",
        "status_id": "TERDAFTAR",
        "sistem_elektronik_id": 1454
      }
    },
    {
      "type": "tdpseTerbit",
      "id": 2019,
      "attributes": {
        "nomor_pb_umku": null,
        "nama": "FemaleDaily",
        "website": "femaledaily.com",
        "sektor": "Sektor Teknologi Informasi dan Komunikasi",
        "nama_perusahaan": "DAILY DINAMIKA KREASI",
        "tanggal_daftar": "2021-10-26",
        "nomor_tanda_daftar": "001341.01/DJAI.PSE/10/2021",
        "qr_code": "https://pse.kominfo.go.id/storage/images/qr_code/cbcd69f890174def547eab7601d59e1b.png",
        "status_id": "TERDAFTAR",
        "sistem_elektronik_id": 1143
      }
    },
    {
      "type": "tdpseTerbit",
      "id": 2010,
      "attributes": {
        "nomor_pb_umku": null,
        "nama": "https://www.floweradvisor.co.id/",
        "website": "https://www.floweradvisor.co.id/",
        "sektor": "Sektor Perdagangan",
        "nama_perusahaan": "ALDMIC INDONESIA",
        "tanggal_daftar": "2021-10-26",
        "nomor_tanda_daftar": "001340.01/DJAI.PSE/10/2021",
        "qr_code": "https://pse.kominfo.go.id/storage/images/qr_code/503fb9ad9275b50deb3fcd98f9500209.png",
        "status_id": "TERDAFTAR",
        "sistem_elektronik_id": 760
      }
    }
  ]
}