{
  "meta": {
    "page": {
      "currentPage": 717,
      "from": 7161,
      "lastPage": 1068,
      "perPage": 10,
      "to": 7170,
      "total": 10675
    }
  },
  "data": [
    {
      "type": "tdpseTerbit",
      "id": 3987,
      "attributes": {
        "nomor_pb_umku": null,
        "nama": "Maujual",
        "website": "maujual.com",
        "sektor": "Sektor Perdagangan, Sektor Teknologi Informasi dan Komunikasi",
        "nama_perusahaan": "LAKU6 ONLINE INDONESIA",
        "tanggal_daftar": "2022-04-21",
        "nomor_tanda_daftar": "001807.03/DJAI.PSE/04/2022",
        "qr_code": "https://pse.kominfo.go.id/storage/images/qr_code/a8a28b196db21999130ed8eda0483d83.png",
        "status_id": "TERDAFTAR",
        "sistem_elektronik_id": 3954
      }
    },
    {
      "type": "tdpseTerbit",
      "id": 3986,
      "attributes": {
        "nomor_pb_umku": null,
        "nama": "Laku6 Trade Center",
        "website": "-",
        "sektor": "Sektor Perdagangan, Sektor Teknologi Informasi dan Komunikasi",
        "nama_perusahaan": "LAKU6 ONLINE INDONESIA",
        "tanggal_daftar": "2022-04-21",
        "nomor_tanda_daftar": "001807.02/DJAI.PSE/04/2022",
        "qr_code": "https://pse.kominfo.go.id/storage/images/qr_code/c0378467f54db8cbc4ac6996f1bfe62e.png",
        "status_id": "TERDAFTAR",
        "sistem_elektronik_id": 3953
      }
    },
    {
      "type": "tdpseTerbit",
      "id": 2805,
      "attributes": {
        "nomor_pb_umku": null,
        "nama": "Laku6.com",
        "website": "laku6.com",
        "sektor": "Sektor Perdagangan",
        "nama_perusahaan": "LAKU6 ONLINE INDONESIA",
        "tanggal_daftar": "2021-12-20",
        "nomor_tanda_daftar": "001807.01/DJAI.PSE/12/2021",
        "qr_code": "https://pse.kominfo.go.id/storage/images/qr_code/ad2c1509381bfd0727d89db1dabf541d.png",
        "status_id": "TERDAFTAR",
        "sistem_elektronik_id": 1912
      }
    },
    {
      "type": "tdpseTerbit",
      "id": 2829,
      "attributes": {
        "nomor_pb_umku": null,
        "nama": "budidana.com",
        "website": "budidana.com",
        "sektor": "Sektor Perdagangan, Sektor Teknologi Informasi dan Komunikasi",
        "nama_perusahaan": "BUDIDANA INVESTASI NUSANTARA",
        "tanggal_daftar": "2021-12-21",
        "nomor_tanda_daftar": "001806.02/DJAI.PSE/12/2021",
        "qr_code": "https://pse.kominfo.go.id/storage/images/qr_code/28dc06a770cbbaf049d1d5c79e8099ec.png",
        "status_id": "TERDAFTAR",
        "sistem_elektronik_id": 1916
      }
    },
    {
      "type": "tdpseTerbit",
      "id": 2804,
      "attributes": {
        "nomor_pb_umku": null,
        "nama": "budidana.id",
        "website": "budidana.id",
        "sektor": "Sektor Perdagangan, Sektor Teknologi Informasi dan Komunikasi",
        "nama_perusahaan": "BUDIDANA INVESTASI NUSANTARA",
        "tanggal_daftar": "2021-12-20",
        "nomor_tanda_daftar": "001806.01/DJAI.PSE/12/2021",
        "qr_code": "https://pse.kominfo.go.id/storage/images/qr_code/ee705a37c937951d16939d597fdd0beb.png",
        "status_id": "TERDAFTAR",
        "sistem_elektronik_id": 1915
      }
    },
    {
      "type": "tdpseTerbit",
      "id": 3098,
      "attributes": {
        "nomor_pb_umku": null,
        "nama": "www.rajaperkakas.store",
        "website": "www.rajaperkakas.store",
        "sektor": "Sektor Perdagangan",
        "nama_perusahaan": "RETAIL SINERGI TEKNOLOGI",
        "tanggal_daftar": "2022-01-24",
        "nomor_tanda_daftar": "001805.02/DJAI.PSE/01/2022",
        "qr_code": "https://pse.kominfo.go.id/storage/images/qr_code/515997a0693cf6c20a43a06187354fd9.png",
        "status_id": "TERDAFTAR",
        "sistem_elektronik_id": 1911
      }
    },
    {
      "type": "tdpseTerbit",
      "id": 2803,
      "attributes": {
        "nomor_pb_umku": null,
        "nama": "www.teknikmart.com",
        "website": "www.teknikmart.com",
        "sektor": "Sektor Perdagangan",
        "nama_perusahaan": "RETAIL SINERGI TEKNOLOGI",
        "tanggal_daftar": "2021-12-20",
        "nomor_tanda_daftar": "001805.01/DJAI.PSE/12/2021",
        "qr_code": "https://pse.kominfo.go.id/storage/images/qr_code/3faaa25f4855c543e3de57b159509c7b.png",
        "status_id": "TERDAFTAR",
        "sistem_elektronik_id": 1910
      }
    },
    {
      "type": "tdpseTerbit",
      "id": 2802,
      "attributes": {
        "nomor_pb_umku": null,
        "nama": "Dprimahotel",
        "website": "dprimahotel.com",
        "sektor": "Sektor Perdagangan",
        "nama_perusahaan": "PRIMAHOTEL MANAJEMEN INDONESIA",
        "tanggal_daftar": "2021-12-20",
        "nomor_tanda_daftar": "001804.01/DJAI.PSE/12/2021",
        "qr_code": "https://pse.kominfo.go.id/storage/images/qr_code/3c3a37cc5a442a82373b53263d7a07a5.png",
        "status_id": "TERDAFTAR",
        "sistem_elektronik_id": 1843
      }
    },
    {
      "type": "tdpseTerbit",
      "id": 2799,
      "attributes": {
        "nomor_pb_umku": null,
        "nama": "PT. TARAYASA DIGITAL TEKNOLOGI",
        "website": "-",
        "sektor": "Sektor Teknologi Informasi dan Komunikasi",
        "nama_perusahaan": "TARAYASA DIGITAL TEKNOLOGI",
        "tanggal_daftar": "2021-12-20",
        "nomor_tanda_daftar": "001803.01/DJAI.PSE/12/2021",
        "qr_code": "https://pse.kominfo.go.id/storage/images/qr_code/49a4ca5a59dfd1ebea5643ee3d1fbb60.png",
        "status_id": "TERDAFTAR",
        "sistem_elektronik_id": 1914
      }
    },
    {
      "type": "tdpseTerbit",
      "id": 2798,
      "attributes": {
        "nomor_pb_umku": null,
        "nama": "PT. Mulia Sejahtera Teknologi",
        "website": "-",
        "sektor": "Sektor Teknologi Informasi dan Komunikasi",
        "nama_perusahaan": "MULIA SEJAHTERA TEKNOLOGI",
        "tanggal_daftar": "2021-12-20",
        "nomor_tanda_daftar": "001802.01/DJAI.PSE/12/2021",
        "qr_code": "https://pse.kominfo.go.id/storage/images/qr_code/ca79eca5fb5f57a71ac658b8ac3d4d2d.png",
        "status_id": "TERDAFTAR",
        "sistem_elektronik_id": 1745
      }
    }
  ]
}