{
  "meta": {
    "page": {
      "currentPage": 718,
      "from": 7171,
      "lastPage": 1055,
      "perPage": 10,
      "to": 7180,
      "total": 10545
    }
  },
  "data": [
    {
      "type": "tdpseTerbit",
      "id": 2697,
      "attributes": {
        "nomor_pb_umku": null,
        "nama": "Rumah Berkat",
        "website": "www.rumahberkat.com",
        "sektor": "Sektor Teknologi Informasi dan Komunikasi",
        "nama_perusahaan": "RAKHASA ARTHA WISESA",
        "tanggal_daftar": "2021-12-09",
        "nomor_tanda_daftar": "001728.01/DJAI.PSE/12/2021",
        "qr_code": "https://pse.kominfo.go.id/storage/images/qr_code/3b8c2abd637c4c02d1f37e29dfa5a70e.png",
        "status_id": "TERDAFTAR",
        "sistem_elektronik_id": 1831
      }
    },
    {
      "type": "tdpseTerbit",
      "id": 2693,
      "attributes": {
        "nomor_pb_umku": null,
        "nama": "Vampode Store",
        "website": "vampodestore.com",
        "sektor": "Sektor Perdagangan",
        "nama_perusahaan": "INDRA ALIEF SHIEVENTRI",
        "tanggal_daftar": "2021-12-09",
        "nomor_tanda_daftar": "001727.01/DJAI.PSE/12/2021",
        "qr_code": "https://pse.kominfo.go.id/storage/images/qr_code/b722122bcb61b44fefac3bfa9a5b1739.png",
        "status_id": "TERDAFTAR",
        "sistem_elektronik_id": 1842
      }
    },
    {
      "type": "tdpseTerbit",
      "id": 2691,
      "attributes": {
        "nomor_pb_umku": null,
        "nama": "Lapak Satwa",
        "website": "lapaksatwa.co.id",
        "sektor": "Sektor Teknologi Informasi dan Komunikasi",
        "nama_perusahaan": "LAPAK SATWA INDONESIA",
        "tanggal_daftar": "2021-12-09",
        "nomor_tanda_daftar": "001726.01/DJAI.PSE/12/2021",
        "qr_code": "https://pse.kominfo.go.id/storage/images/qr_code/a7989e3dd78aaeb042641992381916a1.png",
        "status_id": "TERDAFTAR",
        "sistem_elektronik_id": 1841
      }
    },
    {
      "type": "tdpseTerbit",
      "id": 2689,
      "attributes": {
        "nomor_pb_umku": null,
        "nama": "Aksoro Digital",
        "website": "aksorodigital.biz",
        "sektor": "Sektor Teknologi Informasi dan Komunikasi",
        "nama_perusahaan": "RIZQI FEBRIANSYAH",
        "tanggal_daftar": "2021-12-09",
        "nomor_tanda_daftar": "001725.01/DJAI.PSE/12/2021",
        "qr_code": "https://pse.kominfo.go.id/storage/images/qr_code/81aab49ff44cc0b371e9bc9c52c0b09f.png",
        "status_id": "TERDAFTAR",
        "sistem_elektronik_id": 2825
      }
    },
    {
      "type": "tdpseTerbit",
      "id": 2687,
      "attributes": {
        "nomor_pb_umku": null,
        "nama": "VAIZ PRATAMA",
        "website": "-",
        "sektor": "Sektor Kesehatan, Sektor Pertahanan dan Keamanan, Sektor Teknologi Informasi dan Komunikasi",
        "nama_perusahaan": "ADHITYA SALEH KOENELA",
        "tanggal_daftar": "2021-12-09",
        "nomor_tanda_daftar": "001724.01/DJAI.PSE/12/2021",
        "qr_code": "https://pse.kominfo.go.id/storage/images/qr_code/c8458832cf7309eea7ed0e4e89d0b390.png",
        "status_id": "TERDAFTAR",
        "sistem_elektronik_id": 1840
      }
    },
    {
      "type": "tdpseTerbit",
      "id": 2686,
      "attributes": {
        "nomor_pb_umku": null,
        "nama": "Aplikasi GGL",
        "website": "app.ggl.life",
        "sektor": "Sektor Perdagangan",
        "nama_perusahaan": "ANUGERAH WIJAYA RAGA",
        "tanggal_daftar": "2021-12-08",
        "nomor_tanda_daftar": "001723.02/DJAI.PSE/12/2021",
        "qr_code": "https://pse.kominfo.go.id/storage/images/qr_code/f51b8b671864a33a7915064c17c6a55d.png",
        "status_id": "TERDAFTAR",
        "sistem_elektronik_id": 1656
      }
    },
    {
      "type": "tdpseTerbit",
      "id": 2684,
      "attributes": {
        "nomor_pb_umku": null,
        "nama": "GGL",
        "website": "ggl.life",
        "sektor": "Sektor Perdagangan",
        "nama_perusahaan": "ANUGERAH WIJAYA RAGA",
        "tanggal_daftar": "2021-12-08",
        "nomor_tanda_daftar": "001723.01/DJAI.PSE/12/2021",
        "qr_code": "https://pse.kominfo.go.id/storage/images/qr_code/9b2084eda43d5b00dba9c091893d514d.png",
        "status_id": "TERDAFTAR",
        "sistem_elektronik_id": 1655
      }
    },
    {
      "type": "tdpseTerbit",
      "id": 2677,
      "attributes": {
        "nomor_pb_umku": null,
        "nama": "Artah Investa Teknologi",
        "website": "www.arthainvestateknologi.co.id",
        "sektor": "Sektor Keuangan",
        "nama_perusahaan": "ARTHA INVESTA TEKNOLOGI",
        "tanggal_daftar": "2021-12-08",
        "nomor_tanda_daftar": "001722.01/DJAI.PSE/12/2021",
        "qr_code": "https://pse.kominfo.go.id/storage/images/qr_code/107385a0bf6651c588897c03475820da.png",
        "status_id": "TERDAFTAR",
        "sistem_elektronik_id": 1813
      }
    },
    {
      "type": "tdpseTerbit",
      "id": 2673,
      "attributes": {
        "nomor_pb_umku": null,
        "nama": "PAC CASH",
        "website": "pactindo.com",
        "sektor": "Sektor Teknologi Informasi dan Komunikasi",
        "nama_perusahaan": "SARANA PACTINDO",
        "tanggal_daftar": "2021-12-08",
        "nomor_tanda_daftar": "001721.01/DJAI.PSE/12/2021",
        "qr_code": "https://pse.kominfo.go.id/storage/images/qr_code/86afcf8a7fbef5d373f2240bd3cca068.png",
        "status_id": "TERDAFTAR",
        "sistem_elektronik_id": 2379
      }
    },
    {
      "type": "tdpseTerbit",
      "id": 2672,
      "attributes": {
        "nomor_pb_umku": null,
        "nama": "PT Sentra Kriya Edukasi",
        "website": "skelaboratory.co.id",
        "sektor": "Sektor Perdagangan",
        "nama_perusahaan": "SENTRA KRIYA EDUKASI",
        "tanggal_daftar": "2021-12-08",
        "nomor_tanda_daftar": "001720.01/DJAI.PSE/12/2021",
        "qr_code": "https://pse.kominfo.go.id/storage/images/qr_code/8fe807410862edf98f0fe4151824759a.png",
        "status_id": "TERDAFTAR",
        "sistem_elektronik_id": 1731
      }
    }
  ]
}