{
  "meta": {
    "page": {
      "currentPage": 720,
      "from": 7191,
      "lastPage": 1086,
      "perPage": 10,
      "to": 7200,
      "total": 10851
    }
  },
  "data": [
    {
      "type": "tdpseTerbit",
      "id": 2925,
      "attributes": {
        "nomor_pb_umku": null,
        "nama": "KITA",
        "website": "www.keluargakita.id",
        "sektor": "Sektor Kesehatan, Sektor Perdagangan",
        "nama_perusahaan": "KITA KELUARGA INDONESIA",
        "tanggal_daftar": "2021-12-30",
        "nomor_tanda_daftar": "001871.01/DJAI.PSE/12/2021",
        "qr_code": "https://pse.kominfo.go.id/storage/images/qr_code/b5c4866d9d0b5d3e86acf3afaff1da46.png",
        "status_id": "TERDAFTAR",
        "sistem_elektronik_id": 1992
      }
    },
    {
      "type": "tdpseTerbit",
      "id": 2923,
      "attributes": {
        "nomor_pb_umku": null,
        "nama": "Cipta Daya System",
        "website": "ahlikomputer.com",
        "sektor": "Sektor Teknologi Informasi dan Komunikasi",
        "nama_perusahaan": "CIPTA DAYA JAYA",
        "tanggal_daftar": "2021-12-30",
        "nomor_tanda_daftar": "001870.01/DJAI.PSE/12/2021",
        "qr_code": "https://pse.kominfo.go.id/storage/images/qr_code/65ff787ae5c47b279d18455c2f1a6b52.png",
        "status_id": "TERDAFTAR",
        "sistem_elektronik_id": 1999
      }
    },
    {
      "type": "tdpseTerbit",
      "id": 2921,
      "attributes": {
        "nomor_pb_umku": null,
        "nama": "BIRO HERIYANTO JAYA",
        "website": "-",
        "sektor": "Sektor Teknologi Informasi dan Komunikasi",
        "nama_perusahaan": "BIRO HERIYANTO JAYA",
        "tanggal_daftar": "2021-12-30",
        "nomor_tanda_daftar": "001869.01/DJAI.PSE/12/2021",
        "qr_code": "https://pse.kominfo.go.id/storage/images/qr_code/5737428a2b406bfeedf0e80132205c97.png",
        "status_id": "TERDAFTAR",
        "sistem_elektronik_id": 1998
      }
    },
    {
      "type": "tdpseTerbit",
      "id": 2920,
      "attributes": {
        "nomor_pb_umku": null,
        "nama": "ZONA MULTIMEDIA MAKASSAR",
        "website": "lontaraph.wordpress.com",
        "sektor": "Sektor Teknologi Informasi dan Komunikasi",
        "nama_perusahaan": "Asriadi Karim Maulana",
        "tanggal_daftar": "2021-12-30",
        "nomor_tanda_daftar": "001868.01/DJAI.PSE/12/2021",
        "qr_code": "https://pse.kominfo.go.id/storage/images/qr_code/9ce754e583e2368d9b82e7ea99c43da4.png",
        "status_id": "TERDAFTAR",
        "sistem_elektronik_id": 1997
      }
    },
    {
      "type": "tdpseTerbit",
      "id": 2919,
      "attributes": {
        "nomor_pb_umku": null,
        "nama": "Website Growther.id",
        "website": "growther.id",
        "sektor": "Sektor Teknologi Informasi dan Komunikasi",
        "nama_perusahaan": "AKSELERASI SOLUSI OPTIMA",
        "tanggal_daftar": "2021-12-29",
        "nomor_tanda_daftar": "001867.02/DJAI.PSE/12/2021",
        "qr_code": "https://pse.kominfo.go.id/storage/images/qr_code/ed7335ecf3d9055940eb671834c21621.png",
        "status_id": "TERDAFTAR",
        "sistem_elektronik_id": 711
      }
    },
    {
      "type": "tdpseTerbit",
      "id": 2918,
      "attributes": {
        "nomor_pb_umku": null,
        "nama": "Growther.id",
        "website": "Growther.id",
        "sektor": "Sektor Perdagangan",
        "nama_perusahaan": "AKSELERASI SOLUSI OPTIMA",
        "tanggal_daftar": "2021-12-29",
        "nomor_tanda_daftar": "001867.01/DJAI.PSE/12/2021",
        "qr_code": "https://pse.kominfo.go.id/storage/images/qr_code/c5c06df0a0f7833f2532195f06478fc3.png",
        "status_id": "TERDAFTAR",
        "sistem_elektronik_id": 710
      }
    },
    {
      "type": "tdpseTerbit",
      "id": 2917,
      "attributes": {
        "nomor_pb_umku": null,
        "nama": "Averill System",
        "website": "ahlikomputer.com",
        "sektor": "Sektor Teknologi Informasi dan Komunikasi",
        "nama_perusahaan": "MEIKA WELLIANA",
        "tanggal_daftar": "2021-12-29",
        "nomor_tanda_daftar": "001866.01/DJAI.PSE/12/2021",
        "qr_code": "https://pse.kominfo.go.id/storage/images/qr_code/9158a7d677318844cac1c6022a1c01ad.png",
        "status_id": "TERDAFTAR",
        "sistem_elektronik_id": 1996
      }
    },
    {
      "type": "tdpseTerbit",
      "id": 6763,
      "attributes": {
        "nomor_pb_umku": "022020660204800000002",
        "nama": "ITULOH",
        "website": "ituloh.co",
        "sektor": "Sektor Perdagangan, Sektor Teknologi Informasi dan Komunikasi",
        "nama_perusahaan": "EATEROO BOGA INOVASI",
        "tanggal_daftar": "2022-07-19",
        "nomor_tanda_daftar": "001865.02/DJAI.PSE/07/2022",
        "qr_code": "https://pse.kominfo.go.id/storage/images/qr_code/180afba4b8f407412e9738e9c61eddbd.png",
        "status_id": "TERDAFTAR",
        "sistem_elektronik_id": 6612
      }
    },
    {
      "type": "tdpseTerbit",
      "id": 2916,
      "attributes": {
        "nomor_pb_umku": null,
        "nama": "Eateroo, Eateroo Merchant",
        "website": "eateroo.co",
        "sektor": "Sektor Perdagangan, Sektor Teknologi Informasi dan Komunikasi",
        "nama_perusahaan": "EATEROO BOGA INOVASI",
        "tanggal_daftar": "2021-12-29",
        "nomor_tanda_daftar": "001865.01/DJAI.PSE/12/2021",
        "qr_code": "https://pse.kominfo.go.id/storage/images/qr_code/e7694f7e9c8ec3703b760b3d5674a485.png",
        "status_id": "TERDAFTAR",
        "sistem_elektronik_id": 1995
      }
    },
    {
      "type": "tdpseTerbit",
      "id": 4122,
      "attributes": {
        "nomor_pb_umku": "051021002041900010003",
        "nama": "WWW.TUMI.CO.ID",
        "website": "tumi.co.id",
        "sektor": "Sektor Perdagangan",
        "nama_perusahaan": "RITEL PANEN ADIPERKASA",
        "tanggal_daftar": "2022-05-24",
        "nomor_tanda_daftar": "001864.03/DJAI.PSE/06/2022",
        "qr_code": "https://pse.kominfo.go.id/storage/images/qr_code/aeadb907d75b7ec34a6d79063a045104.png",
        "status_id": "TERDAFTAR",
        "sistem_elektronik_id": 4119
      }
    }
  ]
}