{
  "meta": {
    "page": {
      "currentPage": 721,
      "from": 7201,
      "lastPage": 1032,
      "perPage": 10,
      "to": 7210,
      "total": 10315
    }
  },
  "data": [
    {
      "type": "tdpseTerbit",
      "id": 2371,
      "attributes": {
        "nomor_pb_umku": null,
        "nama": "PERUPA",
        "website": "https://perupa.co",
        "sektor": "Sektor Teknologi Informasi dan Komunikasi",
        "nama_perusahaan": "PT PERUPA SIBER INFORMATIKA",
        "tanggal_daftar": "2021-11-08",
        "nomor_tanda_daftar": "001555.01/DJAI.PSE/11/2021",
        "qr_code": "https://pse.kominfo.go.id/storage/images/qr_code/c0372490a375feaec9d3d5395abd189c.png",
        "status_id": "TERDAFTAR",
        "sistem_elektronik_id": 3149
      }
    },
    {
      "type": "tdpseTerbit",
      "id": 2368,
      "attributes": {
        "nomor_pb_umku": null,
        "nama": "88News",
        "website": "www.medan88news.com",
        "sektor": "Sektor Teknologi Informasi dan Komunikasi",
        "nama_perusahaan": "PT. Delapan Delapan News",
        "tanggal_daftar": "2021-11-08",
        "nomor_tanda_daftar": "001554.02/DJAI.PSE/11/2021",
        "qr_code": "https://pse.kominfo.go.id/storage/images/qr_code/a0e4fb3850baf757d3e372321d5e5916.png",
        "status_id": "TERDAFTAR",
        "sistem_elektronik_id": 3148
      }
    },
    {
      "type": "tdpseTerbit",
      "id": 2367,
      "attributes": {
        "nomor_pb_umku": null,
        "nama": "88News",
        "website": "www.medan88news.com",
        "sektor": "Sektor Teknologi Informasi dan Komunikasi",
        "nama_perusahaan": "PT. Delapan Delapan News",
        "tanggal_daftar": "2021-11-08",
        "nomor_tanda_daftar": "001554.01/DJAI.PSE/11/2021",
        "qr_code": "https://pse.kominfo.go.id/storage/images/qr_code/fd16af2818759c43da7a5e69fbe3d60c.png",
        "status_id": "TERDAFTAR",
        "sistem_elektronik_id": 3147
      }
    },
    {
      "type": "tdpseTerbit",
      "id": 2366,
      "attributes": {
        "nomor_pb_umku": null,
        "nama": "PAZEMO",
        "website": "https://www.pazemo.com/",
        "sektor": "Sektor Teknologi Informasi dan Komunikasi",
        "nama_perusahaan": "PT GIAT BANGUN INDONESIA",
        "tanggal_daftar": "2021-11-08",
        "nomor_tanda_daftar": "001553.01/DJAI.PSE/11/2021",
        "qr_code": "https://pse.kominfo.go.id/storage/images/qr_code/9bd77de332c2ca3a96f109a2d8cd4785.png",
        "status_id": "TERDAFTAR",
        "sistem_elektronik_id": 3146
      }
    },
    {
      "type": "tdpseTerbit",
      "id": 2365,
      "attributes": {
        "nomor_pb_umku": null,
        "nama": "Koinpack",
        "website": "https://www.koinpack.id/",
        "sektor": "Sektor Perdagangan",
        "nama_perusahaan": "Solusi Sirkular Indonesia",
        "tanggal_daftar": "2021-11-08",
        "nomor_tanda_daftar": "001552.01/DJAI.PSE/11/2021",
        "qr_code": "https://pse.kominfo.go.id/storage/images/qr_code/a8f3b73098f78e6107d256cf2adb0b4e.png",
        "status_id": "TERDAFTAR",
        "sistem_elektronik_id": 3145
      }
    },
    {
      "type": "tdpseTerbit",
      "id": 2364,
      "attributes": {
        "nomor_pb_umku": null,
        "nama": "PINTAR",
        "website": "www.hostingceria.com",
        "sektor": "Sektor Teknologi Informasi dan Komunikasi",
        "nama_perusahaan": "PT Teknologi Pintar Solusindo",
        "tanggal_daftar": "2021-11-08",
        "nomor_tanda_daftar": "001551.02/DJAI.PSE/11/2021",
        "qr_code": "https://pse.kominfo.go.id/storage/images/qr_code/a44a83e25619130eac00db1a63b5917c.png",
        "status_id": "TERDAFTAR",
        "sistem_elektronik_id": 3144
      }
    },
    {
      "type": "tdpseTerbit",
      "id": 2363,
      "attributes": {
        "nomor_pb_umku": null,
        "nama": "KEBUNALI",
        "website": "www.hostingceria.com",
        "sektor": "Sektor Pangan, Sektor Teknologi Informasi dan Komunikasi",
        "nama_perusahaan": "PT Teknologi Pintar Solusindo",
        "tanggal_daftar": "2021-11-08",
        "nomor_tanda_daftar": "001551.01/DJAI.PSE/11/2021",
        "qr_code": "https://pse.kominfo.go.id/storage/images/qr_code/ad08c50699ebd31e22fb6223aba0fe54.png",
        "status_id": "TERDAFTAR",
        "sistem_elektronik_id": 3143
      }
    },
    {
      "type": "tdpseTerbit",
      "id": 2362,
      "attributes": {
        "nomor_pb_umku": null,
        "nama": "TOKOPO",
        "website": "www.hostingceria.com",
        "sektor": "Sektor Teknologi Informasi dan Komunikasi",
        "nama_perusahaan": "EZLINK SYSTEM SOLUTIONS",
        "tanggal_daftar": "2021-11-08",
        "nomor_tanda_daftar": "001550.03/DJAI.PSE/11/2021",
        "qr_code": "https://pse.kominfo.go.id/storage/images/qr_code/f24ca291785c23817c2172846d3e1c64.png",
        "status_id": "TERDAFTAR",
        "sistem_elektronik_id": 1540
      }
    },
    {
      "type": "tdpseTerbit",
      "id": 2361,
      "attributes": {
        "nomor_pb_umku": null,
        "nama": "KTRIP",
        "website": "www.hostingceria.com",
        "sektor": "Sektor Teknologi Informasi dan Komunikasi",
        "nama_perusahaan": "EZLINK SYSTEM SOLUTIONS",
        "tanggal_daftar": "2021-11-08",
        "nomor_tanda_daftar": "001550.02/DJAI.PSE/11/2021",
        "qr_code": "https://pse.kominfo.go.id/storage/images/qr_code/c4239d9c28d83daf664e3fcc91d3157a.png",
        "status_id": "TERDAFTAR",
        "sistem_elektronik_id": 1539
      }
    },
    {
      "type": "tdpseTerbit",
      "id": 2360,
      "attributes": {
        "nomor_pb_umku": null,
        "nama": "DINEIN",
        "website": "www.hostingceria.com",
        "sektor": "Sektor Teknologi Informasi dan Komunikasi",
        "nama_perusahaan": "EZLINK SYSTEM SOLUTIONS",
        "tanggal_daftar": "2021-11-08",
        "nomor_tanda_daftar": "001550.01/DJAI.PSE/11/2021",
        "qr_code": "https://pse.kominfo.go.id/storage/images/qr_code/2ae73f4536d9f39080e43f0a690d58ba.png",
        "status_id": "TERDAFTAR",
        "sistem_elektronik_id": 1538
      }
    }
  ]
}