{
  "meta": {
    "page": {
      "currentPage": 722,
      "from": 7211,
      "lastPage": 1074,
      "perPage": 10,
      "to": 7220,
      "total": 10738
    }
  },
  "data": [
    {
      "type": "tdpseTerbit",
      "id": 2808,
      "attributes": {
        "nomor_pb_umku": null,
        "nama": "Situs PT Wanteg Asset Management",
        "website": "wantegasset.com",
        "sektor": "Sektor Keuangan",
        "nama_perusahaan": "WANTEG ASSET MANAGEMENT",
        "tanggal_daftar": "2021-12-20",
        "nomor_tanda_daftar": "001810.01/DJAI.PSE/12/2021",
        "qr_code": "https://pse.kominfo.go.id/storage/images/qr_code/4f65c82136a1567b6664d715c8678357.png",
        "status_id": "TERDAFTAR",
        "sistem_elektronik_id": 2850
      }
    },
    {
      "type": "tdpseTerbit",
      "id": 2807,
      "attributes": {
        "nomor_pb_umku": null,
        "nama": "PT BioKissed Naturals Indonesia",
        "website": "biokissed.com",
        "sektor": "Sektor Kesehatan, Sektor Perdagangan, Sektor Teknologi Informasi dan Komunikasi",
        "nama_perusahaan": "BIOKISSED NATURALS INDONESIA",
        "tanggal_daftar": "2021-12-20",
        "nomor_tanda_daftar": "001809.01/DJAI.PSE/12/2021",
        "qr_code": "https://pse.kominfo.go.id/storage/images/qr_code/b29f16c45c1eeb74c945020146025c9c.png",
        "status_id": "TERDAFTAR",
        "sistem_elektronik_id": 1272
      }
    },
    {
      "type": "tdpseTerbit",
      "id": 2806,
      "attributes": {
        "nomor_pb_umku": null,
        "nama": "taligama.com",
        "website": "taligama.com",
        "sektor": "Sektor Teknologi Informasi dan Komunikasi",
        "nama_perusahaan": "HIRA ECOKREASI SEMESTA",
        "tanggal_daftar": "2021-12-20",
        "nomor_tanda_daftar": "001808.01/DJAI.PSE/12/2021",
        "qr_code": "https://pse.kominfo.go.id/storage/images/qr_code/65b8c42db7e44d33f10d4b9fd0abc52d.png",
        "status_id": "TERDAFTAR",
        "sistem_elektronik_id": 1901
      }
    },
    {
      "type": "tdpseTerbit",
      "id": 5411,
      "attributes": {
        "nomor_pb_umku": "912000448196500010012",
        "nama": "DISTRIBUTOR TRADE CENTER",
        "website": "-",
        "sektor": "Sektor Perdagangan",
        "nama_perusahaan": "LAKU6 ONLINE INDONESIA",
        "tanggal_daftar": "2022-07-12",
        "nomor_tanda_daftar": "001807.13/DJAI.PSE/07/2022",
        "qr_code": "https://pse.kominfo.go.id/storage/images/qr_code/d002a5f376ee5da8fbcf3a8ce0843685.png",
        "status_id": "TERDAFTAR",
        "sistem_elektronik_id": 5284
      }
    },
    {
      "type": "tdpseTerbit",
      "id": 5410,
      "attributes": {
        "nomor_pb_umku": "912000448196500010012",
        "nama": "TRADE IN MHI",
        "website": "-",
        "sektor": "Sektor Teknologi Informasi dan Komunikasi",
        "nama_perusahaan": "LAKU6 ONLINE INDONESIA",
        "tanggal_daftar": "2022-07-12",
        "nomor_tanda_daftar": "001807.12/DJAI.PSE/07/2022",
        "qr_code": "https://pse.kominfo.go.id/storage/images/qr_code/5d166db4a92fb9a09e5b8e4340d259d1.png",
        "status_id": "TERDAFTAR",
        "sistem_elektronik_id": 5283
      }
    },
    {
      "type": "tdpseTerbit",
      "id": 5409,
      "attributes": {
        "nomor_pb_umku": "912000448196500010011",
        "nama": "TUKAR TAMBAH LITE",
        "website": "-",
        "sektor": "Sektor Teknologi Informasi dan Komunikasi",
        "nama_perusahaan": "LAKU6 ONLINE INDONESIA",
        "tanggal_daftar": "2022-07-12",
        "nomor_tanda_daftar": "001807.11/DJAI.PSE/07/2022",
        "qr_code": "https://pse.kominfo.go.id/storage/images/qr_code/0587c786db05fe4b8d67ece467cff335.png",
        "status_id": "TERDAFTAR",
        "sistem_elektronik_id": 5282
      }
    },
    {
      "type": "tdpseTerbit",
      "id": 5373,
      "attributes": {
        "nomor_pb_umku": "912000448196500010010",
        "nama": "MISHOP TRADE-IN",
        "website": "-",
        "sektor": "Sektor Teknologi Informasi dan Komunikasi",
        "nama_perusahaan": "LAKU6 ONLINE INDONESIA",
        "tanggal_daftar": "2022-07-12",
        "nomor_tanda_daftar": "001807.10/DJAI.PSE/07/2022",
        "qr_code": "https://pse.kominfo.go.id/storage/images/qr_code/8bfda88b496e12733aa535d9ebe4f22f.png",
        "status_id": "TERDAFTAR",
        "sistem_elektronik_id": 5243
      }
    },
    {
      "type": "tdpseTerbit",
      "id": 5314,
      "attributes": {
        "nomor_pb_umku": "912000448196500010009",
        "nama": "VTRADEIN",
        "website": "-",
        "sektor": "Sektor Teknologi Informasi dan Komunikasi",
        "nama_perusahaan": "LAKU6 ONLINE INDONESIA",
        "tanggal_daftar": "2022-07-11",
        "nomor_tanda_daftar": "001807.09/DJAI.PSE/07/2022",
        "qr_code": "https://pse.kominfo.go.id/storage/images/qr_code/9c03bb5838e2e919bb5b61ea886eceea.png",
        "status_id": "TERDAFTAR",
        "sistem_elektronik_id": 5189
      }
    },
    {
      "type": "tdpseTerbit",
      "id": 5313,
      "attributes": {
        "nomor_pb_umku": "912000448196500010008",
        "nama": "OTRADEIN",
        "website": "-",
        "sektor": "Sektor Teknologi Informasi dan Komunikasi",
        "nama_perusahaan": "LAKU6 ONLINE INDONESIA",
        "tanggal_daftar": "2022-07-11",
        "nomor_tanda_daftar": "001807.08/DJAI.PSE/07/2022",
        "qr_code": "https://pse.kominfo.go.id/storage/images/qr_code/d59926c06cea7d706e9e719d335a3782.png",
        "status_id": "TERDAFTAR",
        "sistem_elektronik_id": 5188
      }
    },
    {
      "type": "tdpseTerbit",
      "id": 5312,
      "attributes": {
        "nomor_pb_umku": "912000448196500010007",
        "nama": "GALAXY TRADE-IN",
        "website": "-",
        "sektor": "Sektor Teknologi Informasi dan Komunikasi",
        "nama_perusahaan": "LAKU6 ONLINE INDONESIA",
        "tanggal_daftar": "2022-07-11",
        "nomor_tanda_daftar": "001807.07/DJAI.PSE/07/2022",
        "qr_code": "https://pse.kominfo.go.id/storage/images/qr_code/c67c4f605b7dc7543bb4e70b507c62d5.png",
        "status_id": "TERDAFTAR",
        "sistem_elektronik_id": 5187
      }
    }
  ]
}