{
  "meta": {
    "page": {
      "currentPage": 723,
      "from": 7221,
      "lastPage": 994,
      "perPage": 10,
      "to": 7230,
      "total": 9936
    }
  },
  "data": [
    {
      "type": "tdpseTerbit",
      "id": 1992,
      "attributes": {
        "nomor_pb_umku": null,
        "nama": "Goodpass App & Score",
        "website": "https://goodpass.id",
        "sektor": "Sektor Teknologi Informasi dan Komunikasi",
        "nama_perusahaan": "DIGITAL VENTURE INTERNATIONAL",
        "tanggal_daftar": "2021-10-12",
        "nomor_tanda_daftar": "001332.01/DJAI.PSE/10/2021",
        "qr_code": "https://pse.kominfo.go.id/storage/images/qr_code/708c14a5c796dc5c22de438fa3aca9f8.png",
        "status_id": "TERDAFTAR",
        "sistem_elektronik_id": 1429
      }
    },
    {
      "type": "tdpseTerbit",
      "id": 9803,
      "attributes": {
        "nomor_pb_umku": "912030449041501120068",
        "nama": "SOOLTANCAM",
        "website": "-",
        "sektor": "Sektor Teknologi Informasi dan Komunikasi",
        "nama_perusahaan": "PERUSAHAAN PERSEROAN (PERSERO) PT. TELEKOMUNIKASI INDONESIA",
        "tanggal_daftar": "2022-08-03",
        "nomor_tanda_daftar": "001331.63/DJAI.PSE/08/2022",
        "qr_code": "https://pse.kominfo.go.id/storage/images/qr_code/3bed7547768d3a6b1e6a02e7112f01c6.png",
        "status_id": "TERDAFTAR",
        "sistem_elektronik_id": 9678
      }
    },
    {
      "type": "tdpseTerbit",
      "id": 9800,
      "attributes": {
        "nomor_pb_umku": "912030449041501120066",
        "nama": "HUNIANAJA",
        "website": "hunianaja.id",
        "sektor": "Sektor Teknologi Informasi dan Komunikasi",
        "nama_perusahaan": "PERUSAHAAN PERSEROAN (PERSERO) PT. TELEKOMUNIKASI INDONESIA",
        "tanggal_daftar": "2022-08-03",
        "nomor_tanda_daftar": "001331.62/DJAI.PSE/08/2022",
        "qr_code": "https://pse.kominfo.go.id/storage/images/qr_code/9e6dc6b2c137dc5de6121b78ee6a2747.png",
        "status_id": "TERDAFTAR",
        "sistem_elektronik_id": 9676
      }
    },
    {
      "type": "tdpseTerbit",
      "id": 9802,
      "attributes": {
        "nomor_pb_umku": "912030449041501120067",
        "nama": "ONE PLAY",
        "website": "oneplay.id",
        "sektor": "Sektor Teknologi Informasi dan Komunikasi",
        "nama_perusahaan": "PERUSAHAAN PERSEROAN (PERSERO) PT. TELEKOMUNIKASI INDONESIA",
        "tanggal_daftar": "2022-08-03",
        "nomor_tanda_daftar": "001331.61/DJAI.PSE/08/2022",
        "qr_code": "https://pse.kominfo.go.id/storage/images/qr_code/46d52374a83ffd8dd1406835813d67e7.png",
        "status_id": "TERDAFTAR",
        "sistem_elektronik_id": 9671
      }
    },
    {
      "type": "tdpseTerbit",
      "id": 9794,
      "attributes": {
        "nomor_pb_umku": "912030449041501120065",
        "nama": "MYINDIHOME X",
        "website": "myih.telkom.co.id",
        "sektor": "Sektor Perdagangan, Sektor Teknologi Informasi dan Komunikasi",
        "nama_perusahaan": "PERUSAHAAN PERSEROAN (PERSERO) PT. TELEKOMUNIKASI INDONESIA",
        "tanggal_daftar": "2022-08-03",
        "nomor_tanda_daftar": "001331.60/DJAI.PSE/08/2022",
        "qr_code": "https://pse.kominfo.go.id/storage/images/qr_code/ffb4867777fbb9073b589ad35dfe4d8c.png",
        "status_id": "TERDAFTAR",
        "sistem_elektronik_id": 9669
      }
    },
    {
      "type": "tdpseTerbit",
      "id": 9792,
      "attributes": {
        "nomor_pb_umku": "912030449041501120064",
        "nama": "MYTENS",
        "website": "mytens.co.id",
        "sektor": "Sektor Teknologi Informasi dan Komunikasi",
        "nama_perusahaan": "PERUSAHAAN PERSEROAN (PERSERO) PT. TELEKOMUNIKASI INDONESIA",
        "tanggal_daftar": "2022-08-03",
        "nomor_tanda_daftar": "001331.59/DJAI.PSE/08/2022",
        "qr_code": "https://pse.kominfo.go.id/storage/images/qr_code/8b5ce3441e7381069b48910af2e4253e.png",
        "status_id": "TERDAFTAR",
        "sistem_elektronik_id": 9668
      }
    },
    {
      "type": "tdpseTerbit",
      "id": 9791,
      "attributes": {
        "nomor_pb_umku": "912030449041501120063",
        "nama": "LEAP",
        "website": "leap.digitalbisa.id",
        "sektor": "Sektor Teknologi Informasi dan Komunikasi",
        "nama_perusahaan": "PERUSAHAAN PERSEROAN (PERSERO) PT. TELEKOMUNIKASI INDONESIA",
        "tanggal_daftar": "2022-08-03",
        "nomor_tanda_daftar": "001331.58/DJAI.PSE/08/2022",
        "qr_code": "https://pse.kominfo.go.id/storage/images/qr_code/361b7313712173bcdf8cbf4a3b33efdd.png",
        "status_id": "TERDAFTAR",
        "sistem_elektronik_id": 9664
      }
    },
    {
      "type": "tdpseTerbit",
      "id": 9161,
      "attributes": {
        "nomor_pb_umku": "912030449041501110062",
        "nama": "INRATE MEDIA RATING ANALYTICS",
        "website": "urbanrate.id",
        "sektor": "Sektor Teknologi Informasi dan Komunikasi",
        "nama_perusahaan": "PERUSAHAAN PERSEROAN (PERSERO) PT. TELEKOMUNIKASI INDONESIA",
        "tanggal_daftar": "2022-07-27",
        "nomor_tanda_daftar": "001331.57/DJAI.PSE/07/2022",
        "qr_code": "https://pse.kominfo.go.id/storage/images/qr_code/59b716a1ea0042728e9d31df99f9c835.png",
        "status_id": "TERDAFTAR",
        "sistem_elektronik_id": 9067
      }
    },
    {
      "type": "tdpseTerbit",
      "id": 9160,
      "attributes": {
        "nomor_pb_umku": "912030449041501110061",
        "nama": "LOGEE FULFILLMENT",
        "website": "logeefulfillment.id",
        "sektor": "Sektor Perdagangan, Sektor Teknologi Informasi dan Komunikasi",
        "nama_perusahaan": "PERUSAHAAN PERSEROAN (PERSERO) PT. TELEKOMUNIKASI INDONESIA",
        "tanggal_daftar": "2022-07-27",
        "nomor_tanda_daftar": "001331.56/DJAI.PSE/07/2022",
        "qr_code": "https://pse.kominfo.go.id/storage/images/qr_code/dc5f4dd4cb1d7d964b6b64e6e2d9f51e.png",
        "status_id": "TERDAFTAR",
        "sistem_elektronik_id": 9066
      }
    },
    {
      "type": "tdpseTerbit",
      "id": 9157,
      "attributes": {
        "nomor_pb_umku": "912030449041501110060",
        "nama": "AGREE MARKET",
        "website": "market.agreeculture.id",
        "sektor": "Sektor Perdagangan",
        "nama_perusahaan": "PERUSAHAAN PERSEROAN (PERSERO) PT. TELEKOMUNIKASI INDONESIA",
        "tanggal_daftar": "2022-07-27",
        "nomor_tanda_daftar": "001331.55/DJAI.PSE/07/2022",
        "qr_code": "https://pse.kominfo.go.id/storage/images/qr_code/50f0aa5372ad3a53b69a0e816f1380fb.png",
        "status_id": "TERDAFTAR",
        "sistem_elektronik_id": 9063
      }
    }
  ]
}