{
  "meta": {
    "page": {
      "currentPage": 724,
      "from": 7231,
      "lastPage": 873,
      "perPage": 10,
      "to": 7240,
      "total": 8721
    }
  },
  "data": [
    {
      "type": "tdpseTerbit",
      "id": 1014,
      "attributes": {
        "nomor_pb_umku": null,
        "nama": "JIWA+",
        "website": "-",
        "sektor": "Sektor Perdagangan",
        "nama_perusahaan": "JIWA TRI BOGA",
        "tanggal_daftar": "2021-05-18",
        "nomor_tanda_daftar": "000757.01/DJAI.PSE/05/2021",
        "qr_code": "https://pse.kominfo.go.id/storage/images/qr_code/9589dcac5873e1a5559a92e681462ba8.png",
        "status_id": "TERDAFTAR",
        "sistem_elektronik_id": 374
      }
    },
    {
      "type": "tdpseTerbit",
      "id": 2653,
      "attributes": {
        "nomor_pb_umku": null,
        "nama": "Anymind Group",
        "website": "anymindgroup.com",
        "sektor": "Sektor Teknologi Informasi dan Komunikasi",
        "nama_perusahaan": "ADASIA TECHNOLOGY INDONESIA",
        "tanggal_daftar": "2021-12-07",
        "nomor_tanda_daftar": "000756.04/DJAI.PSE/12/2021",
        "qr_code": "https://pse.kominfo.go.id/storage/images/qr_code/fd97c3677c763dd76f754edc9ec4514b.png",
        "status_id": "TERDAFTAR",
        "sistem_elektronik_id": 2804
      }
    },
    {
      "type": "tdpseTerbit",
      "id": 1096,
      "attributes": {
        "nomor_pb_umku": null,
        "nama": "AnyTag",
        "website": "www.anytag.co.id",
        "sektor": "Sektor Teknologi Informasi dan Komunikasi",
        "nama_perusahaan": "ADASIA TECHNOLOGY INDONESIA",
        "tanggal_daftar": "2021-06-02",
        "nomor_tanda_daftar": "000756.03/DJAI.PSE/06/2021",
        "qr_code": "https://pse.kominfo.go.id/storage/images/qr_code/779acfeaf9ec1ed431e48a6edf1a5268.png",
        "status_id": "TERDAFTAR",
        "sistem_elektronik_id": 2803
      }
    },
    {
      "type": "tdpseTerbit",
      "id": 1095,
      "attributes": {
        "nomor_pb_umku": null,
        "nama": "AnyFactory",
        "website": "www.anyfactory.co.id",
        "sektor": "Sektor Teknologi Informasi dan Komunikasi",
        "nama_perusahaan": "ADASIA TECHNOLOGY INDONESIA",
        "tanggal_daftar": "2021-06-02",
        "nomor_tanda_daftar": "000756.02/DJAI.PSE/06/2021",
        "qr_code": "https://pse.kominfo.go.id/storage/images/qr_code/ea110c18e752a875b6b6b225142ea22b.png",
        "status_id": "TERDAFTAR",
        "sistem_elektronik_id": 2802
      }
    },
    {
      "type": "tdpseTerbit",
      "id": 1013,
      "attributes": {
        "nomor_pb_umku": null,
        "nama": "AnyDigital",
        "website": "http://anydigital.co.id/",
        "sektor": "Sektor Teknologi Informasi dan Komunikasi",
        "nama_perusahaan": "ADASIA TECHNOLOGY INDONESIA",
        "tanggal_daftar": "2021-05-18",
        "nomor_tanda_daftar": "000756.01/DJAI.PSE/05/2021",
        "qr_code": "https://pse.kominfo.go.id/storage/images/qr_code/99a576001dc8d338adaa8de6b46f14bd.png",
        "status_id": "TERDAFTAR",
        "sistem_elektronik_id": 2801
      }
    },
    {
      "type": "tdpseTerbit",
      "id": 1011,
      "attributes": {
        "nomor_pb_umku": null,
        "nama": "Ponny Beaute",
        "website": "https://ponnybeaute.co.id/",
        "sektor": "Sektor Perdagangan",
        "nama_perusahaan": "PONNY BEAUTE INDONESIA",
        "tanggal_daftar": "2021-05-18",
        "nomor_tanda_daftar": "000755.01/DJAI.PSE/05/2021",
        "qr_code": "https://pse.kominfo.go.id/storage/images/qr_code/96975ead0765de21a7aa2647be91a52d.png",
        "status_id": "TERDAFTAR",
        "sistem_elektronik_id": 746
      }
    },
    {
      "type": "tdpseTerbit",
      "id": 1010,
      "attributes": {
        "nomor_pb_umku": null,
        "nama": "Hni.id",
        "website": "hni.id",
        "sektor": "Sektor Perdagangan",
        "nama_perusahaan": "HERBA PENAWAR ALWAHIDA INDONESIA",
        "tanggal_daftar": "2021-05-18",
        "nomor_tanda_daftar": "000754.01/DJAI.PSE/05/2021",
        "qr_code": "https://pse.kominfo.go.id/storage/images/qr_code/aed56ababf047e8c988bc8ad8605b1b3.png",
        "status_id": "TERDAFTAR",
        "sistem_elektronik_id": 527
      }
    },
    {
      "type": "tdpseTerbit",
      "id": 3946,
      "attributes": {
        "nomor_pb_umku": null,
        "nama": "eCampuz Suite",
        "website": "https://suite.ecampuz.com/",
        "sektor": "Sektor Teknologi Informasi dan Komunikasi",
        "nama_perusahaan": "SOLUSI KAMPUS INDONESIA",
        "tanggal_daftar": "2022-04-20",
        "nomor_tanda_daftar": "000753.05/DJAI.PSE/04/2022",
        "qr_code": "https://pse.kominfo.go.id/storage/images/qr_code/4371ffb56d8cd4f60587a85aa619dd8f.png",
        "status_id": "TERDAFTAR",
        "sistem_elektronik_id": 3988
      }
    },
    {
      "type": "tdpseTerbit",
      "id": 3945,
      "attributes": {
        "nomor_pb_umku": null,
        "nama": "eSPMI",
        "website": "https://suite.ecampuz.com/",
        "sektor": "Sektor Teknologi Informasi dan Komunikasi",
        "nama_perusahaan": "SOLUSI KAMPUS INDONESIA",
        "tanggal_daftar": "2022-04-20",
        "nomor_tanda_daftar": "000753.04/DJAI.PSE/04/2022",
        "qr_code": "https://pse.kominfo.go.id/storage/images/qr_code/9f89d4b05ad3101438327f2ce033bf1c.png",
        "status_id": "TERDAFTAR",
        "sistem_elektronik_id": 3987
      }
    },
    {
      "type": "tdpseTerbit",
      "id": 1048,
      "attributes": {
        "nomor_pb_umku": null,
        "nama": "eCampuz",
        "website": "cloud.eCampuz.com",
        "sektor": "Sektor Teknologi Informasi dan Komunikasi",
        "nama_perusahaan": "SOLUSI KAMPUS INDONESIA",
        "tanggal_daftar": "2021-05-21",
        "nomor_tanda_daftar": "000753.03/DJAI.PSE/05/2021",
        "qr_code": "https://pse.kominfo.go.id/storage/images/qr_code/d9da238c263e2c4fdbfd95a5ff8326ea.png",
        "status_id": "TERDAFTAR",
        "sistem_elektronik_id": 556
      }
    }
  ]
}