{
  "meta": {
    "page": {
      "currentPage": 727,
      "from": 7261,
      "lastPage": 1059,
      "perPage": 10,
      "to": 7270,
      "total": 10586
    }
  },
  "data": [
    {
      "type": "tdpseTerbit",
      "id": 2635,
      "attributes": {
        "nomor_pb_umku": null,
        "nama": "Voila.id",
        "website": "www.voila.id",
        "sektor": "Sektor Perdagangan",
        "nama_perusahaan": "VOILAMODA ARYA NAWASENA",
        "tanggal_daftar": "2021-12-06",
        "nomor_tanda_daftar": "001704.01/DJAI.PSE/12/2021",
        "qr_code": "https://pse.kominfo.go.id/storage/images/qr_code/6f0d5b2429e3b3cbcebcbee9a90e6fe5.png",
        "status_id": "TERDAFTAR",
        "sistem_elektronik_id": 1811
      }
    },
    {
      "type": "tdpseTerbit",
      "id": 9767,
      "attributes": {
        "nomor_pb_umku": "024701004086900050003",
        "nama": "DJOIN KOPERASI DIGITAL, DJOIN LPD DIGITAL COMPANY WEBSITE INFORMATION",
        "website": "djoin.id",
        "sektor": "Sektor Teknologi Informasi dan Komunikasi",
        "nama_perusahaan": "SOLUSI ANAK SAKTI",
        "tanggal_daftar": "2022-08-03",
        "nomor_tanda_daftar": "001703.03/DJAI.PSE/08/2022",
        "qr_code": "https://pse.kominfo.go.id/storage/images/qr_code/6dc2603b79476f81667a4a37b500b611.png",
        "status_id": "TERDAFTAR",
        "sistem_elektronik_id": 9642
      }
    },
    {
      "type": "tdpseTerbit",
      "id": 9766,
      "attributes": {
        "nomor_pb_umku": "024701004086900050002",
        "nama": "DJOIN KOPERASI DIGITAL, DJOIN LPD DIGITAL",
        "website": "djoin.id",
        "sektor": "Sektor Teknologi Informasi dan Komunikasi",
        "nama_perusahaan": "SOLUSI ANAK SAKTI",
        "tanggal_daftar": "2022-08-03",
        "nomor_tanda_daftar": "001703.02/DJAI.PSE/08/2022",
        "qr_code": "https://pse.kominfo.go.id/storage/images/qr_code/4a3487257c038cd248c43be2170e4d61.png",
        "status_id": "TERDAFTAR",
        "sistem_elektronik_id": 9640
      }
    },
    {
      "type": "tdpseTerbit",
      "id": 2634,
      "attributes": {
        "nomor_pb_umku": null,
        "nama": "Solusi Banking Sakti (SBS)",
        "website": "sbs-app.solusisakti.id",
        "sektor": "Sektor Keuangan, Sektor Teknologi Informasi dan Komunikasi",
        "nama_perusahaan": "SOLUSI ANAK SAKTI",
        "tanggal_daftar": "2021-12-06",
        "nomor_tanda_daftar": "001703.01/DJAI.PSE/12/2021",
        "qr_code": "https://pse.kominfo.go.id/storage/images/qr_code/6b50bc2b73712da8af94836b6916a140.png",
        "status_id": "TERDAFTAR",
        "sistem_elektronik_id": 1699
      }
    },
    {
      "type": "tdpseTerbit",
      "id": 2633,
      "attributes": {
        "nomor_pb_umku": null,
        "nama": "vpnneo",
        "website": "vpnneo.id",
        "sektor": "Sektor Teknologi Informasi dan Komunikasi",
        "nama_perusahaan": "NANDUNG EKO PRASETYO",
        "tanggal_daftar": "2021-12-06",
        "nomor_tanda_daftar": "001702.01/DJAI.PSE/12/2021",
        "qr_code": "https://pse.kominfo.go.id/storage/images/qr_code/3712e8d28d1d1d6e06d06f175c79bf9b.png",
        "status_id": "TERDAFTAR",
        "sistem_elektronik_id": 1812
      }
    },
    {
      "type": "tdpseTerbit",
      "id": 2632,
      "attributes": {
        "nomor_pb_umku": null,
        "nama": "www.ocydia.com",
        "website": "www.ocydia.com",
        "sektor": "Sektor Perdagangan",
        "nama_perusahaan": "DINAMIKA TIGA PILAR",
        "tanggal_daftar": "2021-12-06",
        "nomor_tanda_daftar": "001701.02/DJAI.PSE/12/2021",
        "qr_code": "https://pse.kominfo.go.id/storage/images/qr_code/28e517a22bbd464c6d1c0db889b9a494.png",
        "status_id": "TERDAFTAR",
        "sistem_elektronik_id": 1806
      }
    },
    {
      "type": "tdpseTerbit",
      "id": 2631,
      "attributes": {
        "nomor_pb_umku": null,
        "nama": "Autopro System",
        "website": "-",
        "sektor": "Sektor Perdagangan",
        "nama_perusahaan": "DINAMIKA TIGA PILAR",
        "tanggal_daftar": "2021-12-06",
        "nomor_tanda_daftar": "001701.01/DJAI.PSE/12/2021",
        "qr_code": "https://pse.kominfo.go.id/storage/images/qr_code/6a6b36e2cbb7815bbeef45ef40c1e482.png",
        "status_id": "TERDAFTAR",
        "sistem_elektronik_id": 1805
      }
    },
    {
      "type": "tdpseTerbit",
      "id": 2628,
      "attributes": {
        "nomor_pb_umku": null,
        "nama": "Enterprise Resources Planning PELITA",
        "website": "pi2.co.id",
        "sektor": "Sektor Perdagangan, Sektor Teknologi Informasi dan Komunikasi",
        "nama_perusahaan": "PELITA INOVASI INTERNUSA",
        "tanggal_daftar": "2021-12-06",
        "nomor_tanda_daftar": "001700.01/DJAI.PSE/12/2021",
        "qr_code": "https://pse.kominfo.go.id/storage/images/qr_code/353cc78ae39f68db08f332153e2d09b6.png",
        "status_id": "TERDAFTAR",
        "sistem_elektronik_id": 1809
      }
    },
    {
      "type": "tdpseTerbit",
      "id": 2627,
      "attributes": {
        "nomor_pb_umku": null,
        "nama": "Toko OnlineKU",
        "website": "https://abadijayaselalu.my.id",
        "sektor": "Sektor Perdagangan",
        "nama_perusahaan": "Abadi Jaya Selalu",
        "tanggal_daftar": "2021-12-06",
        "nomor_tanda_daftar": "001699.01/DJAI.PSE/12/2021",
        "qr_code": "https://pse.kominfo.go.id/storage/images/qr_code/cf6605c8cbc5587ba759da81b0aeb5d4.png",
        "status_id": "TERDAFTAR",
        "sistem_elektronik_id": 1808
      }
    },
    {
      "type": "tdpseTerbit",
      "id": 2626,
      "attributes": {
        "nomor_pb_umku": null,
        "nama": "CHL Logistik",
        "website": "chllogistik.com",
        "sektor": "Sektor Transportasi",
        "nama_perusahaan": "ARIF BUDIMAN",
        "tanggal_daftar": "2021-12-05",
        "nomor_tanda_daftar": "001698.01/DJAI.PSE/12/2021",
        "qr_code": "https://pse.kominfo.go.id/storage/images/qr_code/1ffddfce2117b21a3abb09654f2c997d.png",
        "status_id": "TERDAFTAR",
        "sistem_elektronik_id": 1807
      }
    }
  ]
}