{
  "meta": {
    "page": {
      "currentPage": 729,
      "from": 7281,
      "lastPage": 945,
      "perPage": 10,
      "to": 7290,
      "total": 9449
    }
  },
  "data": [
    {
      "type": "tdpseTerbit",
      "id": 1570,
      "attributes": {
        "nomor_pb_umku": null,
        "nama": "HappyFresh",
        "website": "www.happyfresh.id",
        "sektor": "Sektor Perdagangan",
        "nama_perusahaan": "ICART GROUP INDONESIA",
        "tanggal_daftar": "2021-06-24",
        "nomor_tanda_daftar": "001034.01/DJAI.PSE/06/2021",
        "qr_code": "https://pse.kominfo.go.id/storage/images/qr_code/632a8026d16682f2d852b4ea56681d80.png",
        "status_id": "TERDAFTAR",
        "sistem_elektronik_id": 1172
      }
    },
    {
      "type": "tdpseTerbit",
      "id": 1568,
      "attributes": {
        "nomor_pb_umku": null,
        "nama": "MIKRON (Managemen Informasi Klinik dan Rumah Sakit Online)",
        "website": "http://mikron.id.id/",
        "sektor": "Sektor Energi dan Sumber Daya Mineral, Sektor Kesehatan, Sektor Keuangan, Sektor Pangan, Sektor Perdagangan, Sektor Pertahanan dan Keamanan, Sektor Teknologi Informasi dan Komunikasi, Sektor Transportasi",
        "nama_perusahaan": "FUJITSU INDONESIA",
        "tanggal_daftar": "2021-06-24",
        "nomor_tanda_daftar": "001033.01/DJAI.PSE/06/2021",
        "qr_code": "https://pse.kominfo.go.id/storage/images/qr_code/5cb13f55581b9d7a82676c5ecbb73c03.png",
        "status_id": "TERDAFTAR",
        "sistem_elektronik_id": 821
      }
    },
    {
      "type": "tdpseTerbit",
      "id": 1567,
      "attributes": {
        "nomor_pb_umku": null,
        "nama": "www.dream.co.id",
        "website": "www.dream.co.id",
        "sektor": "Sektor Teknologi Informasi dan Komunikasi",
        "nama_perusahaan": "DREAM BAHAGIA INDONESIA",
        "tanggal_daftar": "2021-06-24",
        "nomor_tanda_daftar": "001032.01/DJAI.PSE/06/2021",
        "qr_code": "https://pse.kominfo.go.id/storage/images/qr_code/738e190eb6ec0bbb7e3c766b8ffd2bd5.png",
        "status_id": "TERDAFTAR",
        "sistem_elektronik_id": 1085
      }
    },
    {
      "type": "tdpseTerbit",
      "id": 1566,
      "attributes": {
        "nomor_pb_umku": null,
        "nama": "GV e-money",
        "website": "www.gudangvoucher.com",
        "sektor": "Sektor Keuangan, Sektor Teknologi Informasi dan Komunikasi",
        "nama_perusahaan": "BUANA MEDIA TEKNOLOGI",
        "tanggal_daftar": "2021-06-24",
        "nomor_tanda_daftar": "001031.01/DJAI.PSE/06/2021",
        "qr_code": "https://pse.kominfo.go.id/storage/images/qr_code/0cac4f27bc8a4c7d87656b7014838c14.png",
        "status_id": "TERDAFTAR",
        "sistem_elektronik_id": 1144
      }
    },
    {
      "type": "tdpseTerbit",
      "id": 1564,
      "attributes": {
        "nomor_pb_umku": null,
        "nama": "e-TOP",
        "website": "HTTPS://EKOKAPITAL.COM",
        "sektor": "Sektor Keuangan",
        "nama_perusahaan": "EKOKAPITAL SEKURITAS",
        "tanggal_daftar": "2021-06-24",
        "nomor_tanda_daftar": "001030.01/DJAI.PSE/06/2021",
        "qr_code": "https://pse.kominfo.go.id/storage/images/qr_code/8d1a10e8c4cdb929eadbc99ede980e85.png",
        "status_id": "TERDAFTAR",
        "sistem_elektronik_id": 1137
      }
    },
    {
      "type": "tdpseTerbit",
      "id": 1563,
      "attributes": {
        "nomor_pb_umku": null,
        "nama": "Beever Financial Solution",
        "website": "https://www.beever-ecosystem.com",
        "sektor": "Sektor Keuangan",
        "nama_perusahaan": "BEEVER SYSTEM INDONESIA",
        "tanggal_daftar": "2021-06-24",
        "nomor_tanda_daftar": "001029.01/DJAI.PSE/06/2021",
        "qr_code": "https://pse.kominfo.go.id/storage/images/qr_code/13969a21b795e6b9b393a399fbb954d2.png",
        "status_id": "TERDAFTAR",
        "sistem_elektronik_id": 2452
      }
    },
    {
      "type": "tdpseTerbit",
      "id": 1562,
      "attributes": {
        "nomor_pb_umku": null,
        "nama": "Cfund",
        "website": "https://cfund.id/",
        "sektor": "Sektor Perdagangan",
        "nama_perusahaan": "CUMA UNTUK ANAK NEGERI",
        "tanggal_daftar": "2021-06-24",
        "nomor_tanda_daftar": "001028.01/DJAI.PSE/06/2021",
        "qr_code": "https://pse.kominfo.go.id/storage/images/qr_code/20db3419be961f06adb919a155a05d4f.png",
        "status_id": "TERDAFTAR",
        "sistem_elektronik_id": 3335
      }
    },
    {
      "type": "tdpseTerbit",
      "id": 1561,
      "attributes": {
        "nomor_pb_umku": null,
        "nama": "Best-world.id",
        "website": "https://best-worl.id/home",
        "sektor": "Sektor Perdagangan",
        "nama_perusahaan": "BANDUNG ECO SINERGI TEKNOLOGI",
        "tanggal_daftar": "2021-06-24",
        "nomor_tanda_daftar": "001027.01/DJAI.PSE/06/2021",
        "qr_code": "https://pse.kominfo.go.id/storage/images/qr_code/e5b283a48e5e4f1e6418bfc516e28e0b.png",
        "status_id": "TERDAFTAR",
        "sistem_elektronik_id": 1149
      }
    },
    {
      "type": "tdpseTerbit",
      "id": 1560,
      "attributes": {
        "nomor_pb_umku": null,
        "nama": "Oke Genius",
        "website": "Okegenius.co.id",
        "sektor": "Sektor Perdagangan",
        "nama_perusahaan": "BIMASAKTI CAHAYA ABADI",
        "tanggal_daftar": "2021-06-24",
        "nomor_tanda_daftar": "001026.01/DJAI.PSE/06/2021",
        "qr_code": "https://pse.kominfo.go.id/storage/images/qr_code/a5217a6d3b93783de81232d9e47d5f6f.png",
        "status_id": "TERDAFTAR",
        "sistem_elektronik_id": 1136
      }
    },
    {
      "type": "tdpseTerbit",
      "id": 1559,
      "attributes": {
        "nomor_pb_umku": null,
        "nama": "MetaTrader 5",
        "website": "www.surya-am.id, www.surya-am.com",
        "sektor": "Sektor Perdagangan",
        "nama_perusahaan": "SURYA ANUGRAH MULYA",
        "tanggal_daftar": "2021-06-24",
        "nomor_tanda_daftar": "001025.01/DJAI.PSE/06/2021",
        "qr_code": "https://pse.kominfo.go.id/storage/images/qr_code/bdc8d34d9f3f5a572e90a5d3f405ba0c.png",
        "status_id": "TERDAFTAR",
        "sistem_elektronik_id": 1135
      }
    }
  ]
}