{
  "meta": {
    "page": {
      "currentPage": 730,
      "from": 7291,
      "lastPage": 903,
      "perPage": 10,
      "to": 7300,
      "total": 9025
    }
  },
  "data": [
    {
      "type": "tdpseTerbit",
      "id": 1175,
      "attributes": {
        "nomor_pb_umku": null,
        "nama": "Dhanapala",
        "website": "www.dhanapala.id",
        "sektor": "Sektor Keuangan",
        "nama_perusahaan": "SEMANGAT GOTONG ROYONG",
        "tanggal_daftar": "2021-06-02",
        "nomor_tanda_daftar": "000836.01/DJAI.PSE/06/2021",
        "qr_code": "https://pse.kominfo.go.id/storage/images/qr_code/8abc472047eed78a309480d0b085a62b.png",
        "status_id": "TERDAFTAR",
        "sistem_elektronik_id": 354
      }
    },
    {
      "type": "tdpseTerbit",
      "id": 1171,
      "attributes": {
        "nomor_pb_umku": null,
        "nama": "blu",
        "website": "-",
        "sektor": "Sektor Keuangan",
        "nama_perusahaan": "BANK DIGITAL BCA",
        "tanggal_daftar": "2021-06-02",
        "nomor_tanda_daftar": "000835.01/DJAI.PSE/06/2021",
        "qr_code": "https://pse.kominfo.go.id/storage/images/qr_code/f7b872d0e3d6fb0995e32e727f88dcc2.png",
        "status_id": "TERDAFTAR",
        "sistem_elektronik_id": 515
      }
    },
    {
      "type": "tdpseTerbit",
      "id": 1169,
      "attributes": {
        "nomor_pb_umku": null,
        "nama": "koperasi beta serumpun setia",
        "website": "https://www.betaserumpun.id",
        "sektor": "Sektor Keuangan",
        "nama_perusahaan": "BETA SERUMPUN SETIA",
        "tanggal_daftar": "2021-06-02",
        "nomor_tanda_daftar": "000834.01/DJAI.PSE/06/2021",
        "qr_code": "https://pse.kominfo.go.id/storage/images/qr_code/fd46ec6e004d25b50551906c0535c10a.png",
        "status_id": "TERDAFTAR",
        "sistem_elektronik_id": 499
      }
    },
    {
      "type": "tdpseTerbit",
      "id": 1158,
      "attributes": {
        "nomor_pb_umku": null,
        "nama": "BBO",
        "website": "bbo.co.id",
        "sektor": "Sektor Keuangan, Sektor Teknologi Informasi dan Komunikasi",
        "nama_perusahaan": "BIZGITAL INDONESIA JAYA",
        "tanggal_daftar": "2021-06-02",
        "nomor_tanda_daftar": "000833.01/DJAI.PSE/06/2021",
        "qr_code": "https://pse.kominfo.go.id/storage/images/qr_code/002a511fa3ed4e9a2df03ea7d3bd456a.png",
        "status_id": "TERDAFTAR",
        "sistem_elektronik_id": 560
      }
    },
    {
      "type": "tdpseTerbit",
      "id": 7468,
      "attributes": {
        "nomor_pb_umku": "812001429187400010011",
        "nama": "MICROSITE ESG IDX",
        "website": "esg.idx.co.id",
        "sektor": "Sektor Keuangan",
        "nama_perusahaan": "BURSA EFEK INDONESIA",
        "tanggal_daftar": "2022-07-20",
        "nomor_tanda_daftar": "000832.23/DJAI.PSE/07/2022",
        "qr_code": "https://pse.kominfo.go.id/storage/images/qr_code/f817e1808afa1e9fe44dbd42852d09c9.png",
        "status_id": "TERDAFTAR",
        "sistem_elektronik_id": 7376
      }
    },
    {
      "type": "tdpseTerbit",
      "id": 7448,
      "attributes": {
        "nomor_pb_umku": "812001429187400010013",
        "nama": "WEBSITE PASAR MODAL SYARIAH",
        "website": "idxislamic.idx.co.id",
        "sektor": "Sektor Keuangan",
        "nama_perusahaan": "BURSA EFEK INDONESIA",
        "tanggal_daftar": "2022-07-26",
        "nomor_tanda_daftar": "000832.22/DJAI.PSE/07/2022",
        "qr_code": "https://pse.kominfo.go.id/storage/images/qr_code/9164c980ed3ab5b20e458474b4550cb2.png",
        "status_id": "TERDAFTAR",
        "sistem_elektronik_id": 7351
      }
    },
    {
      "type": "tdpseTerbit",
      "id": 7422,
      "attributes": {
        "nomor_pb_umku": "812001429187400010010",
        "nama": "INVESTOR DEVELOPMENT INFORMATION SYSTEM (IDIS)",
        "website": "idis.idx.co.id",
        "sektor": "Sektor Keuangan",
        "nama_perusahaan": "BURSA EFEK INDONESIA",
        "tanggal_daftar": "2022-07-20",
        "nomor_tanda_daftar": "000832.21/DJAI.PSE/07/2022",
        "qr_code": "https://pse.kominfo.go.id/storage/images/qr_code/c4fdc00ba1c55a3c2a0b36ac4858b62b.png",
        "status_id": "TERDAFTAR",
        "sistem_elektronik_id": 7324
      }
    },
    {
      "type": "tdpseTerbit",
      "id": 7397,
      "attributes": {
        "nomor_pb_umku": "812001429187400010009",
        "nama": "IDX INCUBATOR PORTAL",
        "website": "idxincubator.co.id",
        "sektor": "Sektor Keuangan",
        "nama_perusahaan": "BURSA EFEK INDONESIA",
        "tanggal_daftar": "2022-07-20",
        "nomor_tanda_daftar": "000832.20/DJAI.PSE/07/2022",
        "qr_code": "https://pse.kominfo.go.id/storage/images/qr_code/62fedd76cc130ac7f9f0e5d95e469e38.png",
        "status_id": "TERDAFTAR",
        "sistem_elektronik_id": 7287
      }
    },
    {
      "type": "tdpseTerbit",
      "id": 7367,
      "attributes": {
        "nomor_pb_umku": "812001429187400010008",
        "nama": "APLIKASI E-RKAT",
        "website": "erkatpm.co.id",
        "sektor": "Sektor Keuangan",
        "nama_perusahaan": "BURSA EFEK INDONESIA",
        "tanggal_daftar": "2022-07-20",
        "nomor_tanda_daftar": "000832.19/DJAI.PSE/07/2022",
        "qr_code": "https://pse.kominfo.go.id/storage/images/qr_code/7e57e6ed9bde71596cb6c3b7c185fc9d.png",
        "status_id": "TERDAFTAR",
        "sistem_elektronik_id": 7267
      }
    },
    {
      "type": "tdpseTerbit",
      "id": 7335,
      "attributes": {
        "nomor_pb_umku": "812001429187400010007",
        "nama": "IDX RECORD",
        "website": "idxrecord.idx.co.id",
        "sektor": "Sektor Keuangan",
        "nama_perusahaan": "BURSA EFEK INDONESIA",
        "tanggal_daftar": "2022-07-20",
        "nomor_tanda_daftar": "000832.18/DJAI.PSE/07/2022",
        "qr_code": "https://pse.kominfo.go.id/storage/images/qr_code/c57493857c7d8b18bc468a42eb20de46.png",
        "status_id": "TERDAFTAR",
        "sistem_elektronik_id": 7229
      }
    }
  ]
}