{
  "meta": {
    "page": {
      "currentPage": 73,
      "from": 721,
      "lastPage": 816,
      "perPage": 10,
      "to": 730,
      "total": 8153
    }
  },
  "jsonapi": {
    "version": "1.0"
  },
  "links": {
    "first": "http://pse.kominfo.go.id/api/v1/jsonapi/tdpse-terbit?page%5Blimit%5D=10&page%5Bpage%5D=1",
    "last": "http://pse.kominfo.go.id/api/v1/jsonapi/tdpse-terbit?page%5Blimit%5D=10&page%5Bpage%5D=816",
    "next": "http://pse.kominfo.go.id/api/v1/jsonapi/tdpse-terbit?page%5Blimit%5D=10&page%5Bpage%5D=74",
    "prev": "http://pse.kominfo.go.id/api/v1/jsonapi/tdpse-terbit?page%5Blimit%5D=10&page%5Bpage%5D=72"
  },
  "data": [
    {
      "type": "tdpseTerbit",
      "id": "7901",
      "attributes": {
        "nomor_pb_umku": "190722006615900000001",
        "nama": "WEBCOMMERCE",
        "website": "banananina.co.id",
        "sektor": "Sektor Perdagangan",
        "nama_tampil_badan_hukum": "",
        "nama_perusahaan": "FITRI MAYA SAFIRA",
        "tanggal_daftar": "2022-07-20",
        "tanggal_terbit": "2022-07-20",
        "nomor_tanda_daftar": "005198.01/DJAI.PSE/07/2022",
        "qr_code": "http://pse.kominfo.go.id/api/v1/jsonapi/tdpse-terbit/qr-code/7901",
        "status_id": "TERDAFTAR",
        "sistem_elektronik_id": "7798",
        "keterangan": "-",
        "lokalitas": "LOKAL"
      },
      "links": {
        "self": "http://pse.kominfo.go.id/api/v1/jsonapi/tdpse-terbit/7901"
      }
    },
    {
      "type": "tdpseTerbit",
      "id": "7900",
      "attributes": {
        "nomor_pb_umku": "912020447065100230006",
        "nama": "ACA-POCKET.COM",
        "website": "aca-pocket.com",
        "sektor": "Sektor Keuangan",
        "nama_tampil_badan_hukum": "PT",
        "nama_perusahaan": "PT ASURANSI CENTRAL ASIA",
        "tanggal_daftar": "2022-07-20",
        "tanggal_terbit": "2022-07-20",
        "nomor_tanda_daftar": "005454.07/DJAI.PSE/07/2022",
        "qr_code": "http://pse.kominfo.go.id/api/v1/jsonapi/tdpse-terbit/qr-code/7900",
        "status_id": "TERDAFTAR",
        "sistem_elektronik_id": "7818",
        "keterangan": "-",
        "lokalitas": "LOKAL"
      },
      "links": {
        "self": "http://pse.kominfo.go.id/api/v1/jsonapi/tdpse-terbit/7900"
      }
    },
    {
      "type": "tdpseTerbit",
      "id": "7899",
      "attributes": {
        "nomor_pb_umku": "912020447065100230006",
        "nama": "ACA-EPOLIS.COM",
        "website": "aca-epolis.com",
        "sektor": "Sektor Keuangan",
        "nama_tampil_badan_hukum": "PT",
        "nama_perusahaan": "PT ASURANSI CENTRAL ASIA",
        "tanggal_daftar": "2022-07-20",
        "tanggal_terbit": "2022-07-20",
        "nomor_tanda_daftar": "005454.06/DJAI.PSE/07/2022",
        "qr_code": "http://pse.kominfo.go.id/api/v1/jsonapi/tdpse-terbit/qr-code/7899",
        "status_id": "TERDAFTAR",
        "sistem_elektronik_id": "7811",
        "keterangan": "-",
        "lokalitas": "LOKAL"
      },
      "links": {
        "self": "http://pse.kominfo.go.id/api/v1/jsonapi/tdpse-terbit/7899"
      }
    },
    {
      "type": "tdpseTerbit",
      "id": "7898",
      "attributes": {
        "nomor_pb_umku": "241221001038800050001",
        "nama": "WEBGUE.COM",
        "website": "webgue.com",
        "sektor": "Sektor Teknologi Informasi dan Komunikasi",
        "nama_tampil_badan_hukum": "",
        "nama_perusahaan": "WEB GUE INDONESIA",
        "tanggal_daftar": "2022-07-20",
        "tanggal_terbit": "2022-07-20",
        "nomor_tanda_daftar": "004429.01/DJAI.PSE/07/2022",
        "qr_code": "http://pse.kominfo.go.id/api/v1/jsonapi/tdpse-terbit/qr-code/7898",
        "status_id": "TERDAFTAR",
        "sistem_elektronik_id": "7815",
        "keterangan": "-",
        "lokalitas": "LOKAL"
      },
      "links": {
        "self": "http://pse.kominfo.go.id/api/v1/jsonapi/tdpse-terbit/7898"
      }
    },
    {
      "type": "tdpseTerbit",
      "id": "7897",
      "attributes": {
        "nomor_pb_umku": "912050774204200010001",
        "nama": "LAMPUNG ONLINE",
        "website": "banklampung.co.id",
        "sektor": "Sektor Keuangan, Sektor Teknologi Informasi dan Komunikasi",
        "nama_tampil_badan_hukum": "PT",
        "nama_perusahaan": "PT BANK PEMBANGUNAN DAERAH LAMPUNG",
        "tanggal_daftar": "2022-07-20",
        "tanggal_terbit": "2022-07-20",
        "nomor_tanda_daftar": "005475.01/DJAI.PSE/07/2022",
        "qr_code": "http://pse.kominfo.go.id/api/v1/jsonapi/tdpse-terbit/qr-code/7897",
        "status_id": "TERDAFTAR",
        "sistem_elektronik_id": "7814",
        "keterangan": "-",
        "lokalitas": "LOKAL"
      },
      "links": {
        "self": "http://pse.kominfo.go.id/api/v1/jsonapi/tdpse-terbit/7897"
      }
    },
    {
      "type": "tdpseTerbit",
      "id": "7896",
      "attributes": {
        "nomor_pb_umku": "124200032054700020004",
        "nama": "AKTIVITAS TEKNOLOGI INFORMASI ONLINE",
        "website": "otr.id",
        "sektor": "Sektor Perdagangan, Sektor Teknologi Informasi dan Komunikasi",
        "nama_tampil_badan_hukum": "PT",
        "nama_perusahaan": "PT INOVASI MERAH PUTIH",
        "tanggal_daftar": "2022-07-20",
        "tanggal_terbit": "2022-07-20",
        "nomor_tanda_daftar": "005623.04/DJAI.PSE/07/2022",
        "qr_code": "http://pse.kominfo.go.id/api/v1/jsonapi/tdpse-terbit/qr-code/7896",
        "status_id": "TERDAFTAR",
        "sistem_elektronik_id": "7783",
        "keterangan": "-",
        "lokalitas": "LOKAL"
      },
      "links": {
        "self": "http://pse.kominfo.go.id/api/v1/jsonapi/tdpse-terbit/7896"
      }
    },
    {
      "type": "tdpseTerbit",
      "id": "7895",
      "attributes": {
        "nomor_pb_umku": "912030086192200260001",
        "nama": "CEK EPOLIS BOSOWA ASURANSI",
        "website": "bosowaasuransi.com",
        "sektor": "Sektor Keuangan",
        "nama_tampil_badan_hukum": "PT",
        "nama_perusahaan": "PT BOSOWA ASURANSI",
        "tanggal_daftar": "2022-07-20",
        "tanggal_terbit": "2022-07-20",
        "nomor_tanda_daftar": "005641.01/DJAI.PSE/07/2022",
        "qr_code": "http://pse.kominfo.go.id/api/v1/jsonapi/tdpse-terbit/qr-code/7895",
        "status_id": "TERDAFTAR",
        "sistem_elektronik_id": "7805",
        "keterangan": "-",
        "lokalitas": "LOKAL"
      },
      "links": {
        "self": "http://pse.kominfo.go.id/api/v1/jsonapi/tdpse-terbit/7895"
      }
    },
    {
      "type": "tdpseTerbit",
      "id": "7894",
      "attributes": {
        "nomor_pb_umku": "912010078197600010004",
        "nama": "DIGITAL MODERN (DIGIMOD) E-LOAN -BPR MODERN EXPRESS NTT",
        "website": "digimod.bprmodernexpressntt.com",
        "sektor": "Sektor Keuangan",
        "nama_tampil_badan_hukum": "PT",
        "nama_perusahaan": "PT BANK PERKREDITAN RAKYAT MODERN EXPRESS NTT",
        "tanggal_daftar": "2022-07-20",
        "tanggal_terbit": "2022-07-20",
        "nomor_tanda_daftar": "004901.07/DJAI.PSE/07/2022",
        "qr_code": "http://pse.kominfo.go.id/api/v1/jsonapi/tdpse-terbit/qr-code/7894",
        "status_id": "TERDAFTAR",
        "sistem_elektronik_id": "7804",
        "keterangan": "-",
        "lokalitas": "LOKAL"
      },
      "links": {
        "self": "http://pse.kominfo.go.id/api/v1/jsonapi/tdpse-terbit/7894"
      }
    },
    {
      "type": "tdpseTerbit",
      "id": "7893",
      "attributes": {
        "nomor_pb_umku": "070921002689500000002",
        "nama": "THE DAILY WASH LAUNDROMAT",
        "website": "thedailywash.co.id",
        "sektor": "Sektor Perdagangan, Sektor Teknologi Informasi dan Komunikasi",
        "nama_tampil_badan_hukum": "PT",
        "nama_perusahaan": "PT ANUGRAH LIMA SEMESTA",
        "tanggal_daftar": "2022-07-20",
        "tanggal_terbit": "2022-07-20",
        "nomor_tanda_daftar": "005582.02/DJAI.PSE/07/2022",
        "qr_code": "http://pse.kominfo.go.id/api/v1/jsonapi/tdpse-terbit/qr-code/7893",
        "status_id": "TERDAFTAR",
        "sistem_elektronik_id": "7810",
        "keterangan": "-",
        "lokalitas": "LOKAL"
      },
      "links": {
        "self": "http://pse.kominfo.go.id/api/v1/jsonapi/tdpse-terbit/7893"
      }
    },
    {
      "type": "tdpseTerbit",
      "id": "7892",
      "attributes": {
        "nomor_pb_umku": "022000175283700010001",
        "nama": "BANKING SMART SISTEM",
        "website": "-",
        "sektor": "Sektor Keuangan",
        "nama_tampil_badan_hukum": "PT",
        "nama_perusahaan": "PT BANK PERKREDITAN RAKYAT KARUNIA DEWATA",
        "tanggal_daftar": "2022-07-20",
        "tanggal_terbit": "2022-07-20",
        "nomor_tanda_daftar": "005598.01/DJAI.PSE/07/2022",
        "qr_code": "http://pse.kominfo.go.id/api/v1/jsonapi/tdpse-terbit/qr-code/7892",
        "status_id": "TERDAFTAR",
        "sistem_elektronik_id": "7807",
        "keterangan": "-",
        "lokalitas": "LOKAL"
      },
      "links": {
        "self": "http://pse.kominfo.go.id/api/v1/jsonapi/tdpse-terbit/7892"
      }
    }
  ]
}