{
  "meta": {
    "page": {
      "currentPage": 731,
      "from": 7301,
      "lastPage": 1070,
      "perPage": 10,
      "to": 7310,
      "total": 10698
    }
  },
  "data": [
    {
      "type": "tdpseTerbit",
      "id": 8665,
      "attributes": {
        "nomor_pb_umku": "812011802002900160004",
        "nama": "BRAINACADEMY",
        "website": "brainacademy.id",
        "sektor": "Sektor Perdagangan, Sektor Teknologi Informasi dan Komunikasi",
        "nama_perusahaan": "RUANG RAYA INDONESIA",
        "tanggal_daftar": "2022-07-21",
        "nomor_tanda_daftar": "001737.04/DJAI.PSE/07/2022",
        "qr_code": "https://pse.kominfo.go.id/storage/images/qr_code/3d642dc845ec291a77845ed29b1c3603.png",
        "status_id": "TERDAFTAR",
        "sistem_elektronik_id": 8583
      }
    },
    {
      "type": "tdpseTerbit",
      "id": 8521,
      "attributes": {
        "nomor_pb_umku": "812011802002900160003",
        "nama": "RUANGKERJA",
        "website": "ruangkerja.id",
        "sektor": "Sektor Perdagangan, Sektor Teknologi Informasi dan Komunikasi",
        "nama_perusahaan": "RUANG RAYA INDONESIA",
        "tanggal_daftar": "2022-07-21",
        "nomor_tanda_daftar": "001737.03/DJAI.PSE/07/2022",
        "qr_code": "https://pse.kominfo.go.id/storage/images/qr_code/36038d85221fe17aa19b330865be3996.png",
        "status_id": "TERDAFTAR",
        "sistem_elektronik_id": 8434
      }
    },
    {
      "type": "tdpseTerbit",
      "id": 8436,
      "attributes": {
        "nomor_pb_umku": "812011802002900160002",
        "nama": "SKILLACADEMY",
        "website": "skillacademy.com",
        "sektor": "Sektor Perdagangan, Sektor Teknologi Informasi dan Komunikasi",
        "nama_perusahaan": "RUANG RAYA INDONESIA",
        "tanggal_daftar": "2022-07-21",
        "nomor_tanda_daftar": "001737.02/DJAI.PSE/07/2022",
        "qr_code": "https://pse.kominfo.go.id/storage/images/qr_code/d3feafd407e82279ad0fe5eef516fd0e.png",
        "status_id": "TERDAFTAR",
        "sistem_elektronik_id": 8354
      }
    },
    {
      "type": "tdpseTerbit",
      "id": 2706,
      "attributes": {
        "nomor_pb_umku": null,
        "nama": "ruangguru",
        "website": "ruangguru.com",
        "sektor": "Sektor Perdagangan",
        "nama_perusahaan": "RUANG RAYA INDONESIA",
        "tanggal_daftar": "2021-12-10",
        "nomor_tanda_daftar": "001737.01/DJAI.PSE/12/2021",
        "qr_code": "https://pse.kominfo.go.id/storage/images/qr_code/12faefed609bf19eda4aa8267726e41f.png",
        "status_id": "TERDAFTAR",
        "sistem_elektronik_id": 1609
      }
    },
    {
      "type": "tdpseTerbit",
      "id": 4009,
      "attributes": {
        "nomor_pb_umku": null,
        "nama": "www.bhayangkaranews.my.id",
        "website": "www.bhayangkaranews.my.id",
        "sektor": "Sektor Teknologi Informasi dan Komunikasi",
        "nama_perusahaan": "MEDIA NARASI JARINGAN RAKYAT",
        "tanggal_daftar": "2022-04-23",
        "nomor_tanda_daftar": "001736.04/DJAI.PSE/04/2022",
        "qr_code": "https://pse.kominfo.go.id/storage/images/qr_code/315cf8552dfa7a5eb56b1a61ba8c44d0.png",
        "status_id": "TERDAFTAR",
        "sistem_elektronik_id": 3743
      }
    },
    {
      "type": "tdpseTerbit",
      "id": 3655,
      "attributes": {
        "nomor_pb_umku": null,
        "nama": "www.bhayangkaranews.id",
        "website": "www.bhayangkaranews.id",
        "sektor": "Sektor Teknologi Informasi dan Komunikasi",
        "nama_perusahaan": "MEDIA NARASI JARINGAN RAKYAT",
        "tanggal_daftar": "2022-03-26",
        "nomor_tanda_daftar": "001736.03/DJAI.PSE/03/2022",
        "qr_code": "https://pse.kominfo.go.id/storage/images/qr_code/843dda14a195e1c15619e8ef588d55d8.png",
        "status_id": "TERDAFTAR",
        "sistem_elektronik_id": 3551
      }
    },
    {
      "type": "tdpseTerbit",
      "id": 3320,
      "attributes": {
        "nomor_pb_umku": null,
        "nama": "www.bhayangkara.news",
        "website": "bhayangkara.news",
        "sektor": "Sektor Teknologi Informasi dan Komunikasi",
        "nama_perusahaan": "MEDIA NARASI JARINGAN RAKYAT",
        "tanggal_daftar": "2022-02-20",
        "nomor_tanda_daftar": "001736.02/DJAI.PSE/02/2022",
        "qr_code": "https://pse.kominfo.go.id/storage/images/qr_code/9abf080de224661261953f185d9ec445.png",
        "status_id": "TERDAFTAR",
        "sistem_elektronik_id": 1848
      }
    },
    {
      "type": "tdpseTerbit",
      "id": 2705,
      "attributes": {
        "nomor_pb_umku": null,
        "nama": "Website Resmi Portal Berita Media Narasi Jaringan Rakyat",
        "website": "www.bhanyangkaranews.id",
        "sektor": "Sektor Teknologi Informasi dan Komunikasi",
        "nama_perusahaan": "MEDIA NARASI JARINGAN RAKYAT",
        "tanggal_daftar": "2021-12-10",
        "nomor_tanda_daftar": "001736.01/DJAI.PSE/12/2021",
        "qr_code": "https://pse.kominfo.go.id/storage/images/qr_code/f66a9e0fca0745de810ef60b6905f756.png",
        "status_id": "TERDAFTAR",
        "sistem_elektronik_id": 1847
      }
    },
    {
      "type": "tdpseTerbit",
      "id": 2704,
      "attributes": {
        "nomor_pb_umku": null,
        "nama": "roomdev",
        "website": "www.roomdev.id",
        "sektor": "Sektor Perdagangan",
        "nama_perusahaan": "YED MARCO GRANDIORI ZULKARNAIN",
        "tanggal_daftar": "2021-12-09",
        "nomor_tanda_daftar": "001735.01/DJAI.PSE/12/2021",
        "qr_code": "https://pse.kominfo.go.id/storage/images/qr_code/a584452757cb0a1d84c99a14b1504072.png",
        "status_id": "TERDAFTAR",
        "sistem_elektronik_id": 1846
      }
    },
    {
      "type": "tdpseTerbit",
      "id": 2703,
      "attributes": {
        "nomor_pb_umku": null,
        "nama": "KONTANKU",
        "website": "kontanku.id",
        "sektor": "Sektor Keuangan, Sektor Teknologi Informasi dan Komunikasi",
        "nama_perusahaan": "PAM FINANSIAL TEKNOLOGI",
        "tanggal_daftar": "2021-12-09",
        "nomor_tanda_daftar": "001734.01/DJAI.PSE/12/2021",
        "qr_code": "https://pse.kominfo.go.id/storage/images/qr_code/eb0cabda6f1bd08850d1a7cfcfc77ce2.png",
        "status_id": "TERDAFTAR",
        "sistem_elektronik_id": 3394
      }
    }
  ]
}