{
  "meta": {
    "page": {
      "currentPage": 736,
      "from": 7351,
      "lastPage": 978,
      "perPage": 10,
      "to": 7360,
      "total": 9774
    }
  },
  "data": [
    {
      "type": "tdpseTerbit",
      "id": 3569,
      "attributes": {
        "nomor_pb_umku": null,
        "nama": "SMARTFREN.BUSINESS",
        "website": "smartfren.com",
        "sektor": "Sektor Perdagangan, Sektor Teknologi Informasi dan Komunikasi",
        "nama_perusahaan": "SMARTFREN TELECOM",
        "tanggal_daftar": "2022-03-17",
        "nomor_tanda_daftar": "001191.12/DJAI.PSE/03/2022",
        "qr_code": "https://pse.kominfo.go.id/storage/images/qr_code/e5cfc07ca7d04cfa9f258c83304ad2fe.png",
        "status_id": "TERDAFTAR",
        "sistem_elektronik_id": 3214
      }
    },
    {
      "type": "tdpseTerbit",
      "id": 3568,
      "attributes": {
        "nomor_pb_umku": null,
        "nama": "MySF",
        "website": "smartfren.com",
        "sektor": "Sektor Perdagangan, Sektor Teknologi Informasi dan Komunikasi",
        "nama_perusahaan": "SMARTFREN TELECOM",
        "tanggal_daftar": "2022-03-17",
        "nomor_tanda_daftar": "001191.11/DJAI.PSE/03/2022",
        "qr_code": "https://pse.kominfo.go.id/storage/images/qr_code/e52f24a591bf22f9778dd94cc7ad30c0.png",
        "status_id": "TERDAFTAR",
        "sistem_elektronik_id": 3213
      }
    },
    {
      "type": "tdpseTerbit",
      "id": 3567,
      "attributes": {
        "nomor_pb_umku": null,
        "nama": "MYLINK",
        "website": "-",
        "sektor": "Sektor Teknologi Informasi dan Komunikasi",
        "nama_perusahaan": "SMARTFREN TELECOM",
        "tanggal_daftar": "2022-03-17",
        "nomor_tanda_daftar": "001191.10/DJAI.PSE/03/2022",
        "qr_code": "https://pse.kominfo.go.id/storage/images/qr_code/08468837324eecad08d1c05ec3481d02.png",
        "status_id": "TERDAFTAR",
        "sistem_elektronik_id": 3212
      }
    },
    {
      "type": "tdpseTerbit",
      "id": 3564,
      "attributes": {
        "nomor_pb_umku": null,
        "nama": "UANGKU",
        "website": "www.uangku.co.id",
        "sektor": "Sektor Keuangan",
        "nama_perusahaan": "SMARTFREN TELECOM",
        "tanggal_daftar": "2022-03-17",
        "nomor_tanda_daftar": "001191.09/DJAI.PSE/03/2022",
        "qr_code": "https://pse.kominfo.go.id/storage/images/qr_code/b520390e49cf97d970ddaa3b0c34f8ff.png",
        "status_id": "TERDAFTAR",
        "sistem_elektronik_id": 3211
      }
    },
    {
      "type": "tdpseTerbit",
      "id": 3561,
      "attributes": {
        "nomor_pb_umku": null,
        "nama": "WWW.SMARTFREN.COM",
        "website": "smartfren.com",
        "sektor": "Sektor Perdagangan, Sektor Teknologi Informasi dan Komunikasi",
        "nama_perusahaan": "SMARTFREN TELECOM",
        "tanggal_daftar": "2022-03-17",
        "nomor_tanda_daftar": "001191.08/DJAI.PSE/03/2022",
        "qr_code": "https://pse.kominfo.go.id/storage/images/qr_code/506770df9c2965bb18383bb7350a7b1c.png",
        "status_id": "TERDAFTAR",
        "sistem_elektronik_id": 3210
      }
    },
    {
      "type": "tdpseTerbit",
      "id": 1804,
      "attributes": {
        "nomor_pb_umku": null,
        "nama": "Smartfren. Corporate",
        "website": "https://www.smartfren.com/id/corporate/",
        "sektor": "Sektor Teknologi Informasi dan Komunikasi",
        "nama_perusahaan": "SMARTFREN TELECOM",
        "tanggal_daftar": "2021-07-29",
        "nomor_tanda_daftar": "001191.07/DJAI.PSE/07/2021",
        "qr_code": "https://pse.kominfo.go.id/storage/images/qr_code/78e076fdf846489b2d8b6fca4affb719.png",
        "status_id": "TERDAFTAR",
        "sistem_elektronik_id": 2603
      }
    },
    {
      "type": "tdpseTerbit",
      "id": 1803,
      "attributes": {
        "nomor_pb_umku": null,
        "nama": "smartfren. BUSINESS",
        "website": "https://www.smartfren.com/business/id",
        "sektor": "Sektor Perdagangan, Sektor Teknologi Informasi dan Komunikasi",
        "nama_perusahaan": "SMARTFREN TELECOM",
        "tanggal_daftar": "2021-07-29",
        "nomor_tanda_daftar": "001191.06/DJAI.PSE/07/2021",
        "qr_code": "https://pse.kominfo.go.id/storage/images/qr_code/75e1dd9b1863dae2f23e599120ed96ed.png",
        "status_id": "TERDAFTAR",
        "sistem_elektronik_id": 2602
      }
    },
    {
      "type": "tdpseTerbit",
      "id": 1800,
      "attributes": {
        "nomor_pb_umku": null,
        "nama": "www.smartfren.com",
        "website": "www.smartfren.com",
        "sektor": "Sektor Perdagangan, Sektor Teknologi Informasi dan Komunikasi",
        "nama_perusahaan": "SMARTFREN TELECOM",
        "tanggal_daftar": "2021-07-29",
        "nomor_tanda_daftar": "001191.05/DJAI.PSE/07/2021",
        "qr_code": "https://pse.kominfo.go.id/storage/images/qr_code/24f96f1d5d1911ae1a935a5b963e3388.png",
        "status_id": "TERDAFTAR",
        "sistem_elektronik_id": 2601
      }
    },
    {
      "type": "tdpseTerbit",
      "id": 1783,
      "attributes": {
        "nomor_pb_umku": null,
        "nama": "UANGKU",
        "website": "https://www.uangku.co.id/",
        "sektor": "Sektor Keuangan",
        "nama_perusahaan": "SMARTFREN TELECOM",
        "tanggal_daftar": "2021-07-27",
        "nomor_tanda_daftar": "001191.04/DJAI.PSE/07/2021",
        "qr_code": "https://pse.kominfo.go.id/storage/images/qr_code/75fdde051d517b1b0780749246463f4e.png",
        "status_id": "TERDAFTAR",
        "sistem_elektronik_id": 2600
      }
    },
    {
      "type": "tdpseTerbit",
      "id": 1781,
      "attributes": {
        "nomor_pb_umku": null,
        "nama": "mySF",
        "website": "https://my.smartfren.com/",
        "sektor": "Sektor Perdagangan, Sektor Teknologi Informasi dan Komunikasi",
        "nama_perusahaan": "SMARTFREN TELECOM",
        "tanggal_daftar": "2021-07-27",
        "nomor_tanda_daftar": "001191.03/DJAI.PSE/07/2021",
        "qr_code": "https://pse.kominfo.go.id/storage/images/qr_code/b727d80bb57f7b23e58c4e32c23f5769.png",
        "status_id": "TERDAFTAR",
        "sistem_elektronik_id": 2599
      }
    }
  ]
}