{
  "meta": {
    "page": {
      "currentPage": 737,
      "from": 7361,
      "lastPage": 890,
      "perPage": 10,
      "to": 7370,
      "total": 8897
    }
  },
  "data": [
    {
      "type": "tdpseTerbit",
      "id": 1045,
      "attributes": {
        "nomor_pb_umku": null,
        "nama": "FWDI Banca",
        "website": "https://services.fwdinsurance.co.id/bancassurance",
        "sektor": "Sektor Keuangan",
        "nama_perusahaan": "FWD INSURANCE INDONESIA",
        "tanggal_daftar": "2021-05-18",
        "nomor_tanda_daftar": "000769.11/DJAI.PSE/05/2021",
        "qr_code": "https://pse.kominfo.go.id/storage/images/qr_code/a78b1eddffd06678dbdf9974afd81bd2.png",
        "status_id": "TERDAFTAR",
        "sistem_elektronik_id": 580
      }
    },
    {
      "type": "tdpseTerbit",
      "id": 1044,
      "attributes": {
        "nomor_pb_umku": null,
        "nama": "FWDI Agency",
        "website": "https://agency.fwdinsurance.co.id/",
        "sektor": "Sektor Keuangan",
        "nama_perusahaan": "FWD INSURANCE INDONESIA",
        "tanggal_daftar": "2021-05-18",
        "nomor_tanda_daftar": "000769.10/DJAI.PSE/05/2021",
        "qr_code": "https://pse.kominfo.go.id/storage/images/qr_code/30b78f6cf030aae0d97fa49481f4d65b.png",
        "status_id": "TERDAFTAR",
        "sistem_elektronik_id": 579
      }
    },
    {
      "type": "tdpseTerbit",
      "id": 1043,
      "attributes": {
        "nomor_pb_umku": null,
        "nama": "FWDI Services",
        "website": "https://services.fwdinsurance.co.id/customer",
        "sektor": "Sektor Keuangan",
        "nama_perusahaan": "FWD INSURANCE INDONESIA",
        "tanggal_daftar": "2021-05-18",
        "nomor_tanda_daftar": "000769.09/DJAI.PSE/05/2021",
        "qr_code": "https://pse.kominfo.go.id/storage/images/qr_code/2a1cd4f6d045c2130ccece4ff9888737.png",
        "status_id": "TERDAFTAR",
        "sistem_elektronik_id": 578
      }
    },
    {
      "type": "tdpseTerbit",
      "id": 1042,
      "attributes": {
        "nomor_pb_umku": null,
        "nama": "Affiliates",
        "website": "-",
        "sektor": "Sektor Keuangan",
        "nama_perusahaan": "FWD INSURANCE INDONESIA",
        "tanggal_daftar": "2021-05-18",
        "nomor_tanda_daftar": "000769.08/DJAI.PSE/05/2021",
        "qr_code": "https://pse.kominfo.go.id/storage/images/qr_code/4c59dc60edd658d8bfda73bb4b39d15c.png",
        "status_id": "TERDAFTAR",
        "sistem_elektronik_id": 577
      }
    },
    {
      "type": "tdpseTerbit",
      "id": 1041,
      "attributes": {
        "nomor_pb_umku": null,
        "nama": "Customer Portal",
        "website": "https://portal.fwd.co.id/eservices/",
        "sektor": "Sektor Keuangan",
        "nama_perusahaan": "FWD INSURANCE INDONESIA",
        "tanggal_daftar": "2021-05-18",
        "nomor_tanda_daftar": "000769.07/DJAI.PSE/05/2021",
        "qr_code": "https://pse.kominfo.go.id/storage/images/qr_code/7af75c06708322b5dfb3528351063a0c.png",
        "status_id": "TERDAFTAR",
        "sistem_elektronik_id": 576
      }
    },
    {
      "type": "tdpseTerbit",
      "id": 1038,
      "attributes": {
        "nomor_pb_umku": null,
        "nama": "FWD MAX",
        "website": "-",
        "sektor": "Sektor Keuangan",
        "nama_perusahaan": "FWD INSURANCE INDONESIA",
        "tanggal_daftar": "2021-05-18",
        "nomor_tanda_daftar": "000769.06/DJAI.PSE/05/2021",
        "qr_code": "https://pse.kominfo.go.id/storage/images/qr_code/aaeb072d9fcadedc231842a530f8bac3.png",
        "status_id": "TERDAFTAR",
        "sistem_elektronik_id": 575
      }
    },
    {
      "type": "tdpseTerbit",
      "id": 1036,
      "attributes": {
        "nomor_pb_umku": null,
        "nama": "iFWD",
        "website": "https://www.ifwd.co.id",
        "sektor": "Sektor Keuangan",
        "nama_perusahaan": "FWD INSURANCE INDONESIA",
        "tanggal_daftar": "2021-05-18",
        "nomor_tanda_daftar": "000769.05/DJAI.PSE/05/2021",
        "qr_code": "https://pse.kominfo.go.id/storage/images/qr_code/721132c66d2a9f7de4ea0431e15f41fa.png",
        "status_id": "TERDAFTAR",
        "sistem_elektronik_id": 574
      }
    },
    {
      "type": "tdpseTerbit",
      "id": 1034,
      "attributes": {
        "nomor_pb_umku": null,
        "nama": "Corporate Care Portals",
        "website": "-",
        "sektor": "Sektor Keuangan",
        "nama_perusahaan": "FWD INSURANCE INDONESIA",
        "tanggal_daftar": "2021-05-18",
        "nomor_tanda_daftar": "000769.04/DJAI.PSE/05/2021",
        "qr_code": "https://pse.kominfo.go.id/storage/images/qr_code/43dde7a7c9284623a005035b46cabbf2.png",
        "status_id": "TERDAFTAR",
        "sistem_elektronik_id": 573
      }
    },
    {
      "type": "tdpseTerbit",
      "id": 1033,
      "attributes": {
        "nomor_pb_umku": null,
        "nama": "FWD Mobile",
        "website": "-",
        "sektor": "Sektor Keuangan",
        "nama_perusahaan": "FWD INSURANCE INDONESIA",
        "tanggal_daftar": "2021-05-18",
        "nomor_tanda_daftar": "000769.03/DJAI.PSE/05/2021",
        "qr_code": "https://pse.kominfo.go.id/storage/images/qr_code/b04aaf477347be1acecc0f820aa73f93.png",
        "status_id": "TERDAFTAR",
        "sistem_elektronik_id": 572
      }
    },
    {
      "type": "tdpseTerbit",
      "id": 1032,
      "attributes": {
        "nomor_pb_umku": null,
        "nama": "FWD Smart/New Business",
        "website": "-",
        "sektor": "Sektor Teknologi Informasi dan Komunikasi",
        "nama_perusahaan": "FWD INSURANCE INDONESIA",
        "tanggal_daftar": "2021-05-18",
        "nomor_tanda_daftar": "000769.02/DJAI.PSE/05/2021",
        "qr_code": "https://pse.kominfo.go.id/storage/images/qr_code/af95ef572f7af3d77e59bc780712ffa2.png",
        "status_id": "TERDAFTAR",
        "sistem_elektronik_id": 571
      }
    }
  ]
}