{
  "meta": {
    "page": {
      "currentPage": 739,
      "from": 7381,
      "lastPage": 1097,
      "perPage": 10,
      "to": 7390,
      "total": 10962
    }
  },
  "data": [
    {
      "type": "tdpseTerbit",
      "id": 2830,
      "attributes": {
        "nomor_pb_umku": null,
        "nama": "BRI API",
        "website": "www.omegasoft.co.id",
        "sektor": "Sektor Keuangan, Sektor Perdagangan",
        "nama_perusahaan": "DHANA JAYA PRATAMA",
        "tanggal_daftar": "2021-12-21",
        "nomor_tanda_daftar": "001819.01/DJAI.PSE/12/2021",
        "qr_code": "https://pse.kominfo.go.id/storage/images/qr_code/a933b0b00d4a0025e648db8221228dfa.png",
        "status_id": "TERDAFTAR",
        "sistem_elektronik_id": 1917
      }
    },
    {
      "type": "tdpseTerbit",
      "id": 2827,
      "attributes": {
        "nomor_pb_umku": null,
        "nama": "Elite Permai Shop",
        "website": "elitepermaishop.com",
        "sektor": "Sektor Perdagangan",
        "nama_perusahaan": "ELITE PERMAI METAL WORKS",
        "tanggal_daftar": "2021-12-21",
        "nomor_tanda_daftar": "001818.01/DJAI.PSE/12/2021",
        "qr_code": "https://pse.kominfo.go.id/storage/images/qr_code/ed1ce7aeee8c49540e3ed8362cca2151.png",
        "status_id": "TERDAFTAR",
        "sistem_elektronik_id": 1810
      }
    },
    {
      "type": "tdpseTerbit",
      "id": 11111,
      "attributes": {
        "nomor_pb_umku": "191121004201600020005",
        "nama": "UPFILEKU",
        "website": "upfileku.com",
        "sektor": "Sektor Teknologi Informasi dan Komunikasi",
        "nama_perusahaan": "SURYA CLOUD TECHNOLOGY",
        "tanggal_daftar": "2022-09-09",
        "nomor_tanda_daftar": "001817.05/DJAI.PSE/09/2022",
        "qr_code": "https://pse.kominfo.go.id/storage/images/qr_code/1c1b40be0610b3940c6be2ee4bc21ee6.png",
        "status_id": "TERDAFTAR",
        "sistem_elektronik_id": 10913
      }
    },
    {
      "type": "tdpseTerbit",
      "id": 11109,
      "attributes": {
        "nomor_pb_umku": "191121004201600020004",
        "nama": "SIMBALISME.NET",
        "website": "-",
        "sektor": "Sektor Perdagangan",
        "nama_perusahaan": "SURYA CLOUD TECHNOLOGY",
        "tanggal_daftar": "2022-09-09",
        "nomor_tanda_daftar": "001817.04/DJAI.PSE/09/2022",
        "qr_code": "https://pse.kominfo.go.id/storage/images/qr_code/288ff3fdcf29f6154ceb14a54364b85a.png",
        "status_id": "TERDAFTAR",
        "sistem_elektronik_id": 10911
      }
    },
    {
      "type": "tdpseTerbit",
      "id": 2868,
      "attributes": {
        "nomor_pb_umku": null,
        "nama": "Adlink.id - Shorten URLs and earn money",
        "website": "adlink.id",
        "sektor": "Sektor Teknologi Informasi dan Komunikasi",
        "nama_perusahaan": "SURYA CLOUD TECHNOLOGY",
        "tanggal_daftar": "2021-12-24",
        "nomor_tanda_daftar": "001817.03/DJAI.PSE/12/2021",
        "qr_code": "https://pse.kominfo.go.id/storage/images/qr_code/71987812a1acbded9ab790851690ff88.png",
        "status_id": "TERDAFTAR",
        "sistem_elektronik_id": 1945
      }
    },
    {
      "type": "tdpseTerbit",
      "id": 2867,
      "attributes": {
        "nomor_pb_umku": null,
        "nama": "Jobpedia",
        "website": "jobpedia.co.id",
        "sektor": "Sektor Teknologi Informasi dan Komunikasi",
        "nama_perusahaan": "SURYA CLOUD TECHNOLOGY",
        "tanggal_daftar": "2021-12-24",
        "nomor_tanda_daftar": "001817.02/DJAI.PSE/12/2021",
        "qr_code": "https://pse.kominfo.go.id/storage/images/qr_code/fde4456d36bf985a29298368e7f9823c.png",
        "status_id": "TERDAFTAR",
        "sistem_elektronik_id": 1944
      }
    },
    {
      "type": "tdpseTerbit",
      "id": 2822,
      "attributes": {
        "nomor_pb_umku": null,
        "nama": "surya cloud technology",
        "website": "sct.co.id",
        "sektor": "Sektor Perdagangan, Sektor Pertahanan dan Keamanan, Sektor Teknologi Informasi dan Komunikasi",
        "nama_perusahaan": "SURYA CLOUD TECHNOLOGY",
        "tanggal_daftar": "2021-12-21",
        "nomor_tanda_daftar": "001817.01/DJAI.PSE/12/2021",
        "qr_code": "https://pse.kominfo.go.id/storage/images/qr_code/6912116798c2fbbdb2bb74d5e15ca967.png",
        "status_id": "TERDAFTAR",
        "sistem_elektronik_id": 1943
      }
    },
    {
      "type": "tdpseTerbit",
      "id": 2821,
      "attributes": {
        "nomor_pb_umku": null,
        "nama": "PikApp",
        "website": "https.//pik.app.id",
        "sektor": "Sektor Perdagangan, Sektor Teknologi Informasi dan Komunikasi",
        "nama_perusahaan": "GERAI TEKNOLOGI CERDAS",
        "tanggal_daftar": "2021-12-21",
        "nomor_tanda_daftar": "001816.01/DJAI.PSE/12/2021",
        "qr_code": "https://pse.kominfo.go.id/storage/images/qr_code/0fbddb2712563e53dac58fff63bb8770.png",
        "status_id": "TERDAFTAR",
        "sistem_elektronik_id": 1946
      }
    },
    {
      "type": "tdpseTerbit",
      "id": 2814,
      "attributes": {
        "nomor_pb_umku": null,
        "nama": "PERDAGANGAN FISIK ASET KRIPTO",
        "website": "-",
        "sektor": "Sektor Perdagangan",
        "nama_perusahaan": "PROJECT ONE SOLUTION",
        "tanggal_daftar": "2021-12-21",
        "nomor_tanda_daftar": "001815.01/DJAI.PSE/12/2021",
        "qr_code": "https://pse.kominfo.go.id/storage/images/qr_code/a986d78c8b893237006829665631b3d8.png",
        "status_id": "TERDAFTAR",
        "sistem_elektronik_id": 1919
      }
    },
    {
      "type": "tdpseTerbit",
      "id": 10380,
      "attributes": {
        "nomor_pb_umku": "812020697207500000005",
        "nama": "SOCIOLLA",
        "website": "sociolla.com",
        "sektor": "Sektor Perdagangan",
        "nama_perusahaan": "SOCIOLLA RITEL INDONESIA",
        "tanggal_daftar": "2022-08-15",
        "nomor_tanda_daftar": "001814.05/DJAI.PSE/08/2022",
        "qr_code": "https://pse.kominfo.go.id/storage/images/qr_code/f0d4916eff7c2c2817a745ea77ce5e65.png",
        "status_id": "TERDAFTAR",
        "sistem_elektronik_id": 10236
      }
    }
  ]
}