{
  "meta": {
    "page": {
      "currentPage": 740,
      "from": 7391,
      "lastPage": 1113,
      "perPage": 10,
      "to": 7400,
      "total": 11124
    }
  },
  "data": [
    {
      "type": "tdpseTerbit",
      "id": 2966,
      "attributes": {
        "nomor_pb_umku": null,
        "nama": "HSSE Information System",
        "website": "elisium.id",
        "sektor": "Sektor Teknologi Informasi dan Komunikasi",
        "nama_perusahaan": "ELISIUM DIGITAL TEKNOLOGI",
        "tanggal_daftar": "2022-01-06",
        "nomor_tanda_daftar": "001903.01/DJAI.PSE/01/2022",
        "qr_code": "https://pse.kominfo.go.id/storage/images/qr_code/5b0c9b40c607adb13b725c86d5bb316f.png",
        "status_id": "TERDAFTAR",
        "sistem_elektronik_id": 2004
      }
    },
    {
      "type": "tdpseTerbit",
      "id": 3020,
      "attributes": {
        "nomor_pb_umku": null,
        "nama": "Top Legal ID",
        "website": "www.toplegal.id",
        "sektor": "Sektor Perdagangan, Sektor Teknologi Informasi dan Komunikasi",
        "nama_perusahaan": "TOP LEGAL GROUP",
        "tanggal_daftar": "2022-01-11",
        "nomor_tanda_daftar": "001902.02/DJAI.PSE/01/2022",
        "qr_code": "https://pse.kominfo.go.id/storage/images/qr_code/7b60ea6657fcaa4e7a65ae61111e4a7a.png",
        "status_id": "TERDAFTAR",
        "sistem_elektronik_id": 2027
      }
    },
    {
      "type": "tdpseTerbit",
      "id": 2965,
      "attributes": {
        "nomor_pb_umku": null,
        "nama": "Top Legal",
        "website": "www.toplegal.id",
        "sektor": "Sektor Perdagangan, Sektor Teknologi Informasi dan Komunikasi",
        "nama_perusahaan": "TOP LEGAL GROUP",
        "tanggal_daftar": "2022-01-06",
        "nomor_tanda_daftar": "001902.01/DJAI.PSE/01/2022",
        "qr_code": "https://pse.kominfo.go.id/storage/images/qr_code/d40c115e27ddb406f340615d3f539b95.png",
        "status_id": "TERDAFTAR",
        "sistem_elektronik_id": 2026
      }
    },
    {
      "type": "tdpseTerbit",
      "id": 2964,
      "attributes": {
        "nomor_pb_umku": null,
        "nama": "Kredibel",
        "website": "kredibel.co.id",
        "sektor": "Sektor Perdagangan, Sektor Teknologi Informasi dan Komunikasi",
        "nama_perusahaan": "KREDIBEL TEKNOLOGI INDONESIA",
        "tanggal_daftar": "2022-01-06",
        "nomor_tanda_daftar": "001901.01/DJAI.PSE/01/2022",
        "qr_code": "https://pse.kominfo.go.id/storage/images/qr_code/fdf1cfe40792086ed906f91e9419e773.png",
        "status_id": "TERDAFTAR",
        "sistem_elektronik_id": 587
      }
    },
    {
      "type": "tdpseTerbit",
      "id": 2963,
      "attributes": {
        "nomor_pb_umku": null,
        "nama": "Website",
        "website": "astronacci.com",
        "sektor": "Sektor Teknologi Informasi dan Komunikasi",
        "nama_perusahaan": "ASTRONACCI INTERNATIONAL",
        "tanggal_daftar": "2022-01-06",
        "nomor_tanda_daftar": "001900.01/DJAI.PSE/01/2022",
        "qr_code": "https://pse.kominfo.go.id/storage/images/qr_code/6b725560edb94702820c506d1a972635.png",
        "status_id": "TERDAFTAR",
        "sistem_elektronik_id": 1982
      }
    },
    {
      "type": "tdpseTerbit",
      "id": 2960,
      "attributes": {
        "nomor_pb_umku": null,
        "nama": "WEBSITE WWW.IDH.ID , APLIKASI IDH.ID",
        "website": "www.idh.id",
        "sektor": "Sektor Perdagangan",
        "nama_perusahaan": "INDONESIA DISTRIBUTION HUB",
        "tanggal_daftar": "2022-01-06",
        "nomor_tanda_daftar": "001899.01/DJAI.PSE/01/2022",
        "qr_code": "https://pse.kominfo.go.id/storage/images/qr_code/f06b29536e72e0c73bc4875e01ee7418.png",
        "status_id": "TERDAFTAR",
        "sistem_elektronik_id": 2022
      }
    },
    {
      "type": "tdpseTerbit",
      "id": 2959,
      "attributes": {
        "nomor_pb_umku": null,
        "nama": "Layanan Penggalangan Dana Sosial (ZISWAF)",
        "website": "bersedekah.com",
        "sektor": "Sektor Teknologi Informasi dan Komunikasi",
        "nama_perusahaan": "PILAR TAGIHAN INDONESIA",
        "tanggal_daftar": "2022-01-06",
        "nomor_tanda_daftar": "001898.01/DJAI.PSE/01/2022",
        "qr_code": "https://pse.kominfo.go.id/storage/images/qr_code/a300ceb047eab475e102fbd0c183bbf2.png",
        "status_id": "TERDAFTAR",
        "sistem_elektronik_id": 2021
      }
    },
    {
      "type": "tdpseTerbit",
      "id": 2958,
      "attributes": {
        "nomor_pb_umku": null,
        "nama": "satupintuaja.co.id",
        "website": "satupintuaja.co.id",
        "sektor": "Sektor Perdagangan, Sektor Teknologi Informasi dan Komunikasi",
        "nama_perusahaan": "PANCA JAYA SETIA",
        "tanggal_daftar": "2022-01-06",
        "nomor_tanda_daftar": "001897.01/DJAI.PSE/01/2022",
        "qr_code": "https://pse.kominfo.go.id/storage/images/qr_code/296f5b8f63e1c68f1d30ecbbc8455db8.png",
        "status_id": "TERDAFTAR",
        "sistem_elektronik_id": 2020
      }
    },
    {
      "type": "tdpseTerbit",
      "id": 3114,
      "attributes": {
        "nomor_pb_umku": null,
        "nama": "new",
        "website": "www.newnational.co.id",
        "sektor": "Sektor Perdagangan",
        "nama_perusahaan": "DAB INDONESIA",
        "tanggal_daftar": "2022-01-25",
        "nomor_tanda_daftar": "001896.02/DJAI.PSE/01/2022",
        "qr_code": "https://pse.kominfo.go.id/storage/images/qr_code/42771e0c5edd739a47db73cdd6ee189b.png",
        "status_id": "TERDAFTAR",
        "sistem_elektronik_id": 2017
      }
    },
    {
      "type": "tdpseTerbit",
      "id": 2956,
      "attributes": {
        "nomor_pb_umku": null,
        "nama": "distributor pompa air dan led",
        "website": "dabindonesia.co.id",
        "sektor": "Sektor Energi dan Sumber Daya Mineral, Sektor Perdagangan, Sektor Pertahanan dan Keamanan",
        "nama_perusahaan": "DAB INDONESIA",
        "tanggal_daftar": "2022-01-06",
        "nomor_tanda_daftar": "001896.01/DJAI.PSE/01/2022",
        "qr_code": "https://pse.kominfo.go.id/storage/images/qr_code/343e83400a3064668dc249501ec43e56.png",
        "status_id": "TERDAFTAR",
        "sistem_elektronik_id": 2016
      }
    }
  ]
}