{
  "meta": {
    "page": {
      "currentPage": 741,
      "from": 7401,
      "lastPage": 923,
      "perPage": 10,
      "to": 7410,
      "total": 9227
    }
  },
  "data": [
    {
      "type": "tdpseTerbit",
      "id": 6719,
      "attributes": {
        "nomor_pb_umku": "912010214198600160002",
        "nama": "BSI SMART",
        "website": "smartagent.bankbsi.co.id",
        "sektor": "Sektor Keuangan",
        "nama_perusahaan": "BANK SYARIAH INDONESIA",
        "tanggal_daftar": "2022-07-19",
        "nomor_tanda_daftar": "000863.12/DJAI.PSE/07/2022",
        "qr_code": "https://pse.kominfo.go.id/storage/images/qr_code/d41ff4e46b5bcdaa0f2d83e8d5a7235e.png",
        "status_id": "TERDAFTAR",
        "sistem_elektronik_id": 6568
      }
    },
    {
      "type": "tdpseTerbit",
      "id": 6720,
      "attributes": {
        "nomor_pb_umku": "912010214198600160002",
        "nama": "DASHBOARD KEMENTERIAN 2 (THRU ACCOUNT)",
        "website": "dmkl2.bankbsi.co.id",
        "sektor": "Sektor Keuangan",
        "nama_perusahaan": "BANK SYARIAH INDONESIA",
        "tanggal_daftar": "2022-07-19",
        "nomor_tanda_daftar": "000863.11/DJAI.PSE/07/2022",
        "qr_code": "https://pse.kominfo.go.id/storage/images/qr_code/e68cb9b6346bed0ab2fa643d65618a7a.png",
        "status_id": "TERDAFTAR",
        "sistem_elektronik_id": 6552
      }
    },
    {
      "type": "tdpseTerbit",
      "id": 6694,
      "attributes": {
        "nomor_pb_umku": "912010214198600160002",
        "nama": "DASHBOARD KEMENTERIAN (THRU ACCOUNT)",
        "website": "dmkl.bankbsi.co.id",
        "sektor": "Sektor Keuangan",
        "nama_perusahaan": "BANK SYARIAH INDONESIA",
        "tanggal_daftar": "2022-07-19",
        "nomor_tanda_daftar": "000863.10/DJAI.PSE/07/2022",
        "qr_code": "https://pse.kominfo.go.id/storage/images/qr_code/20393b11c5c9b4580c6db19e8f5b8ee1.png",
        "status_id": "TERDAFTAR",
        "sistem_elektronik_id": 6547
      }
    },
    {
      "type": "tdpseTerbit",
      "id": 6680,
      "attributes": {
        "nomor_pb_umku": "912010214198600160002",
        "nama": "BANK SYARIAH INDONESIA THRU ACCOUNT (BSI THRU ACCOUNT)",
        "website": "vaportal.bankbsi.co.id",
        "sektor": "Sektor Keuangan",
        "nama_perusahaan": "BANK SYARIAH INDONESIA",
        "tanggal_daftar": "2022-07-19",
        "nomor_tanda_daftar": "000863.09/DJAI.PSE/07/2022",
        "qr_code": "https://pse.kominfo.go.id/storage/images/qr_code/63780cacc53d2e45016f97a4a76e8b37.png",
        "status_id": "TERDAFTAR",
        "sistem_elektronik_id": 6531
      }
    },
    {
      "type": "tdpseTerbit",
      "id": 5211,
      "attributes": {
        "nomor_pb_umku": "912010214198600140001",
        "nama": "CUSTOMER PORTFOLIO MANAGEMENT (CPM)",
        "website": "cpm.bankbsi.co.id",
        "sektor": "Sektor Keuangan",
        "nama_perusahaan": "BANK SYARIAH INDONESIA",
        "tanggal_daftar": "2022-07-08",
        "nomor_tanda_daftar": "000863.08/DJAI.PSE/07/2022",
        "qr_code": "https://pse.kominfo.go.id/storage/images/qr_code/ab22864eecf5f56b30744116cd6408be.png",
        "status_id": "TERDAFTAR",
        "sistem_elektronik_id": 5081
      }
    },
    {
      "type": "tdpseTerbit",
      "id": 1282,
      "attributes": {
        "nomor_pb_umku": null,
        "nama": "Chatbot Aisyah",
        "website": "www.bankbsi.co.id",
        "sektor": "Sektor Keuangan, Sektor Pangan",
        "nama_perusahaan": "BANK SYARIAH INDONESIA",
        "tanggal_daftar": "2021-06-02",
        "nomor_tanda_daftar": "000863.07/DJAI.PSE/06/2021",
        "qr_code": "https://pse.kominfo.go.id/storage/images/qr_code/db328b3ef38cc86fe9d307158a995df4.png",
        "status_id": "TERDAFTAR",
        "sistem_elektronik_id": 906
      }
    },
    {
      "type": "tdpseTerbit",
      "id": 1281,
      "attributes": {
        "nomor_pb_umku": null,
        "nama": "QRIS BSI",
        "website": "www.bsimobile.co.id",
        "sektor": "Sektor Keuangan",
        "nama_perusahaan": "BANK SYARIAH INDONESIA",
        "tanggal_daftar": "2021-06-02",
        "nomor_tanda_daftar": "000863.06/DJAI.PSE/06/2021",
        "qr_code": "https://pse.kominfo.go.id/storage/images/qr_code/716f38b8a07fdab77d7f46b9817b806f.png",
        "status_id": "TERDAFTAR",
        "sistem_elektronik_id": 905
      }
    },
    {
      "type": "tdpseTerbit",
      "id": 1280,
      "attributes": {
        "nomor_pb_umku": null,
        "nama": "API Cardless Withdrawal",
        "website": "https://apisandbox.bsm.co.id:7776/gateway/CashOut/1.0",
        "sektor": "Sektor Keuangan",
        "nama_perusahaan": "BANK SYARIAH INDONESIA",
        "tanggal_daftar": "2021-06-02",
        "nomor_tanda_daftar": "000863.05/DJAI.PSE/06/2021",
        "qr_code": "https://pse.kominfo.go.id/storage/images/qr_code/0ed35af0873dad4862d69c6d842c34ec.png",
        "status_id": "TERDAFTAR",
        "sistem_elektronik_id": 904
      }
    },
    {
      "type": "tdpseTerbit",
      "id": 1279,
      "attributes": {
        "nomor_pb_umku": null,
        "nama": "API Bisnis BSI",
        "website": "https://developer.bankbsi.co.id",
        "sektor": "Sektor Keuangan",
        "nama_perusahaan": "BANK SYARIAH INDONESIA",
        "tanggal_daftar": "2021-06-02",
        "nomor_tanda_daftar": "000863.04/DJAI.PSE/06/2021",
        "qr_code": "https://pse.kominfo.go.id/storage/images/qr_code/a2d2e92e471615bb1c4409a7a285f46c.png",
        "status_id": "TERDAFTAR",
        "sistem_elektronik_id": 903
      }
    },
    {
      "type": "tdpseTerbit",
      "id": 1269,
      "attributes": {
        "nomor_pb_umku": null,
        "nama": "BSI Mobile",
        "website": "www.bsimobile.co.id",
        "sektor": "Sektor Keuangan",
        "nama_perusahaan": "BANK SYARIAH INDONESIA",
        "tanggal_daftar": "2021-06-02",
        "nomor_tanda_daftar": "000863.03/DJAI.PSE/06/2021",
        "qr_code": "https://pse.kominfo.go.id/storage/images/qr_code/d142c21f62c47f6294f766bfb85b835f.png",
        "status_id": "TERDAFTAR",
        "sistem_elektronik_id": 902
      }
    }
  ]
}