{
  "meta": {
    "page": {
      "currentPage": 744,
      "from": 7431,
      "lastPage": 1006,
      "perPage": 10,
      "to": 7440,
      "total": 10051
    }
  },
  "data": [
    {
      "type": "tdpseTerbit",
      "id": 1952,
      "attributes": {
        "nomor_pb_umku": null,
        "nama": "DigiData",
        "website": "-",
        "sektor": "Sektor Teknologi Informasi dan Komunikasi",
        "nama_perusahaan": "DIGITAL DATA TEKNOLOGI TERDEPAN",
        "tanggal_daftar": "2021-10-04",
        "nomor_tanda_daftar": "001304.01/DJAI.PSE/10/2021",
        "qr_code": "https://pse.kominfo.go.id/storage/images/qr_code/f60f245ba8ec317ff16c12765dc36bf1.png",
        "status_id": "TERDAFTAR",
        "sistem_elektronik_id": 1434
      }
    },
    {
      "type": "tdpseTerbit",
      "id": 2142,
      "attributes": {
        "nomor_pb_umku": null,
        "nama": "PesantrenQu",
        "website": "pesantrenqu.id",
        "sektor": "Sektor Keuangan, Sektor Teknologi Informasi dan Komunikasi",
        "nama_perusahaan": "SOLUSI INFOTECH SEMESTA INDONESIA",
        "tanggal_daftar": "2021-10-26",
        "nomor_tanda_daftar": "001303.02/DJAI.PSE/10/2021",
        "qr_code": "https://pse.kominfo.go.id/storage/images/qr_code/15b97d46060d67eee5a90273a496f4ff.png",
        "status_id": "TERDAFTAR",
        "sistem_elektronik_id": 1457
      }
    },
    {
      "type": "tdpseTerbit",
      "id": 1951,
      "attributes": {
        "nomor_pb_umku": null,
        "nama": "LapakQu",
        "website": "LapakQu.id",
        "sektor": "Sektor Perdagangan",
        "nama_perusahaan": "SOLUSI INFOTECH SEMESTA INDONESIA",
        "tanggal_daftar": "2021-10-04",
        "nomor_tanda_daftar": "001303.01/DJAI.PSE/10/2021",
        "qr_code": "https://pse.kominfo.go.id/storage/images/qr_code/d1b796aa336eb4f9ad84955b7137c1d7.png",
        "status_id": "TERDAFTAR",
        "sistem_elektronik_id": 1456
      }
    },
    {
      "type": "tdpseTerbit",
      "id": 2645,
      "attributes": {
        "nomor_pb_umku": null,
        "nama": "BSC Crypto",
        "website": "bumisantosacemerlang.com",
        "sektor": "Sektor Perdagangan",
        "nama_perusahaan": "BUMI SANTOSA CEMERLANG",
        "tanggal_daftar": "2021-12-07",
        "nomor_tanda_daftar": "001302.02/DJAI.PSE/12/2021",
        "qr_code": "https://pse.kominfo.go.id/storage/images/qr_code/48248e5f0b0dc3a13b68ad246025a420.png",
        "status_id": "TERDAFTAR",
        "sistem_elektronik_id": 1447
      }
    },
    {
      "type": "tdpseTerbit",
      "id": 1950,
      "attributes": {
        "nomor_pb_umku": null,
        "nama": "Pluang",
        "website": "https://pluang.com",
        "sektor": "Sektor Perdagangan",
        "nama_perusahaan": "BUMI SANTOSA CEMERLANG",
        "tanggal_daftar": "2021-10-04",
        "nomor_tanda_daftar": "001302.01/DJAI.PSE/10/2021",
        "qr_code": "https://pse.kominfo.go.id/storage/images/qr_code/501b1ae563946f659a88f895679353cf.png",
        "status_id": "TERDAFTAR",
        "sistem_elektronik_id": 1446
      }
    },
    {
      "type": "tdpseTerbit",
      "id": 1949,
      "attributes": {
        "nomor_pb_umku": null,
        "nama": "Carmudi",
        "website": "https://www.carmudi.co.id/",
        "sektor": "Sektor Perdagangan",
        "nama_perusahaan": "CAR CLASSIFIEDS INDONESIA",
        "tanggal_daftar": "2021-10-04",
        "nomor_tanda_daftar": "001301.01/DJAI.PSE/10/2021",
        "qr_code": "https://pse.kominfo.go.id/storage/images/qr_code/494e50f3cc53a59eb11e2d6e19cd672d.png",
        "status_id": "TERDAFTAR",
        "sistem_elektronik_id": 1451
      }
    },
    {
      "type": "tdpseTerbit",
      "id": 1987,
      "attributes": {
        "nomor_pb_umku": null,
        "nama": "FIRMAN ONLINE STORE",
        "website": "-",
        "sektor": "Sektor Perdagangan, Sektor Teknologi Informasi dan Komunikasi",
        "nama_perusahaan": "TECKINDO PRIMA INOVASI",
        "tanggal_daftar": "2021-10-12",
        "nomor_tanda_daftar": "001300.02/DJAI.PSE/10/2021",
        "qr_code": "https://pse.kominfo.go.id/storage/images/qr_code/8975297ca4bcf1e383ffaa4ac39c103f.png",
        "status_id": "TERDAFTAR",
        "sistem_elektronik_id": 1449
      }
    },
    {
      "type": "tdpseTerbit",
      "id": 1948,
      "attributes": {
        "nomor_pb_umku": null,
        "nama": "FIRMAN INDONESIA",
        "website": "www.firmanindonesia.com",
        "sektor": "Sektor Perdagangan, Sektor Teknologi Informasi dan Komunikasi",
        "nama_perusahaan": "TECKINDO PRIMA INOVASI",
        "tanggal_daftar": "2021-10-04",
        "nomor_tanda_daftar": "001300.01/DJAI.PSE/10/2021",
        "qr_code": "https://pse.kominfo.go.id/storage/images/qr_code/121713665a4552066c5c82ccb3f89643.png",
        "status_id": "TERDAFTAR",
        "sistem_elektronik_id": 1448
      }
    },
    {
      "type": "tdpseTerbit",
      "id": 1947,
      "attributes": {
        "nomor_pb_umku": null,
        "nama": "Monabi",
        "website": "www.monabi.co.id",
        "sektor": "Sektor Perdagangan, Sektor Teknologi Informasi dan Komunikasi",
        "nama_perusahaan": "WOSO CHAKRA BERDAYA",
        "tanggal_daftar": "2021-10-04",
        "nomor_tanda_daftar": "001299.01/DJAI.PSE/10/2021",
        "qr_code": "https://pse.kominfo.go.id/storage/images/qr_code/f91e332c42e0e708e9da03bc03703ae2.png",
        "status_id": "TERDAFTAR",
        "sistem_elektronik_id": 1379
      }
    },
    {
      "type": "tdpseTerbit",
      "id": 1946,
      "attributes": {
        "nomor_pb_umku": null,
        "nama": "EnkripaSign",
        "website": "https://sign.enkripa.id",
        "sektor": "Sektor Teknologi Informasi dan Komunikasi",
        "nama_perusahaan": "ENKRIPA TEKNOLOGI INDONESIA",
        "tanggal_daftar": "2021-10-04",
        "nomor_tanda_daftar": "001298.01/DJAI.PSE/10/2021",
        "qr_code": "https://pse.kominfo.go.id/storage/images/qr_code/86f161a7728e3323db1222fa1f1ab176.png",
        "status_id": "TERDAFTAR",
        "sistem_elektronik_id": 1437
      }
    }
  ]
}