{
  "meta": {
    "page": {
      "currentPage": 746,
      "from": 7451,
      "lastPage": 899,
      "perPage": 10,
      "to": 7460,
      "total": 8983
    }
  },
  "data": [
    {
      "type": "tdpseTerbit",
      "id": 1052,
      "attributes": {
        "nomor_pb_umku": null,
        "nama": "CommBank Smartwealth",
        "website": "-",
        "sektor": "Sektor Keuangan",
        "nama_perusahaan": "BANK COMMONWEALTH",
        "tanggal_daftar": "2021-05-21",
        "nomor_tanda_daftar": "000768.03/DJAI.PSE/05/2021",
        "qr_code": "https://pse.kominfo.go.id/storage/images/qr_code/eb8a881f5be28cd353402a1dd107237e.png",
        "status_id": "TERDAFTAR",
        "sistem_elektronik_id": 697
      }
    },
    {
      "type": "tdpseTerbit",
      "id": 1037,
      "attributes": {
        "nomor_pb_umku": null,
        "nama": "CommBank Cashflow",
        "website": "-",
        "sektor": "Sektor Keuangan",
        "nama_perusahaan": "BANK COMMONWEALTH",
        "tanggal_daftar": "2021-05-18",
        "nomor_tanda_daftar": "000768.02/DJAI.PSE/05/2021",
        "qr_code": "https://pse.kominfo.go.id/storage/images/qr_code/b46db0c552111661426f2b78fd29fd31.png",
        "status_id": "TERDAFTAR",
        "sistem_elektronik_id": 696
      }
    },
    {
      "type": "tdpseTerbit",
      "id": 1028,
      "attributes": {
        "nomor_pb_umku": null,
        "nama": "CommBank Mobile",
        "website": "-",
        "sektor": "Sektor Keuangan",
        "nama_perusahaan": "BANK COMMONWEALTH",
        "tanggal_daftar": "2021-05-18",
        "nomor_tanda_daftar": "000768.01/DJAI.PSE/05/2021",
        "qr_code": "https://pse.kominfo.go.id/storage/images/qr_code/4429da3bdaaa8885a65fdb361cbc06f8.png",
        "status_id": "TERDAFTAR",
        "sistem_elektronik_id": 695
      }
    },
    {
      "type": "tdpseTerbit",
      "id": 1027,
      "attributes": {
        "nomor_pb_umku": null,
        "nama": "Finmas",
        "website": "https://www.finmas.co.id",
        "sektor": "Sektor Keuangan",
        "nama_perusahaan": "ORIENTE MAS SEJAHTERA",
        "tanggal_daftar": "2021-05-18",
        "nomor_tanda_daftar": "000767.01/DJAI.PSE/05/2021",
        "qr_code": "https://pse.kominfo.go.id/storage/images/qr_code/84d588b1dc3bdc7ad30589dc3371c654.png",
        "status_id": "TERDAFTAR",
        "sistem_elektronik_id": 763
      }
    },
    {
      "type": "tdpseTerbit",
      "id": 1026,
      "attributes": {
        "nomor_pb_umku": null,
        "nama": "Wahana Honda",
        "website": "-",
        "sektor": "Sektor Perdagangan",
        "nama_perusahaan": "WAHANA MAKMUR SEJATI",
        "tanggal_daftar": "2021-05-18",
        "nomor_tanda_daftar": "000766.01/DJAI.PSE/05/2021",
        "qr_code": "https://pse.kominfo.go.id/storage/images/qr_code/58f94fd01f49de04701316e1da75478d.png",
        "status_id": "TERDAFTAR",
        "sistem_elektronik_id": 643
      }
    },
    {
      "type": "tdpseTerbit",
      "id": 2349,
      "attributes": {
        "nomor_pb_umku": null,
        "nama": "Bussan Auto Finance (BAF) Sandia",
        "website": "sandia.baf.id",
        "sektor": "Sektor Keuangan",
        "nama_perusahaan": "BUSSAN AUTO FINANCE",
        "tanggal_daftar": "2021-11-08",
        "nomor_tanda_daftar": "000765.04/DJAI.PSE/11/2021",
        "qr_code": "https://pse.kominfo.go.id/storage/images/qr_code/fd5ca653fa7e8608eddda0b270f591f7.png",
        "status_id": "TERDAFTAR",
        "sistem_elektronik_id": 749
      }
    },
    {
      "type": "tdpseTerbit",
      "id": 1080,
      "attributes": {
        "nomor_pb_umku": null,
        "nama": "Bussan Auto Finance (BAF) Website",
        "website": "http://www.baf.id",
        "sektor": "Sektor Keuangan",
        "nama_perusahaan": "BUSSAN AUTO FINANCE",
        "tanggal_daftar": "2021-06-02",
        "nomor_tanda_daftar": "000765.02/DJAI.PSE/06/2021",
        "qr_code": "https://pse.kominfo.go.id/storage/images/qr_code/b3e63fbf6df368861395af8606a728a5.png",
        "status_id": "TERDAFTAR",
        "sistem_elektronik_id": 748
      }
    },
    {
      "type": "tdpseTerbit",
      "id": 1022,
      "attributes": {
        "nomor_pb_umku": null,
        "nama": "Bussan Auto Finance (BAF) Mobile",
        "website": "http://sandia.baf.id",
        "sektor": "Sektor Keuangan",
        "nama_perusahaan": "BUSSAN AUTO FINANCE",
        "tanggal_daftar": "2021-05-18",
        "nomor_tanda_daftar": "000765.01/DJAI.PSE/05/2021",
        "qr_code": "https://pse.kominfo.go.id/storage/images/qr_code/c8242f05571ad07228a1e354fa14ccb0.png",
        "status_id": "TERDAFTAR",
        "sistem_elektronik_id": 747
      }
    },
    {
      "type": "tdpseTerbit",
      "id": 9018,
      "attributes": {
        "nomor_pb_umku": "912030798250700020002",
        "nama": "SPOT BY SUCOR SEKURITAS",
        "website": "sucorsekuritas.com",
        "sektor": "Sektor Keuangan",
        "nama_perusahaan": "SUCOR SEKURITAS",
        "tanggal_daftar": "2022-07-25",
        "nomor_tanda_daftar": "000764.04/DJAI.PSE/07/2022",
        "qr_code": "https://pse.kominfo.go.id/storage/images/qr_code/ff702bf2a6196770f5241ad609727690.png",
        "status_id": "TERDAFTAR",
        "sistem_elektronik_id": 8932
      }
    },
    {
      "type": "tdpseTerbit",
      "id": 1024,
      "attributes": {
        "nomor_pb_umku": null,
        "nama": "Eform Sucor Sekuritas",
        "website": "https://sucorsekuritas.com",
        "sektor": "Sektor Keuangan",
        "nama_perusahaan": "SUCOR SEKURITAS",
        "tanggal_daftar": "2021-05-18",
        "nomor_tanda_daftar": "000764.03/DJAI.PSE/05/2021",
        "qr_code": "https://pse.kominfo.go.id/storage/images/qr_code/5f0773f259aef65dd7f8dbffbac024a8.png",
        "status_id": "TERDAFTAR",
        "sistem_elektronik_id": 754
      }
    }
  ]
}