{
  "meta": {
    "page": {
      "currentPage": 748,
      "from": 7471,
      "lastPage": 1012,
      "perPage": 10,
      "to": 7480,
      "total": 10114
    }
  },
  "data": [
    {
      "type": "tdpseTerbit",
      "id": 1974,
      "attributes": {
        "nomor_pb_umku": null,
        "nama": "NilaiQ",
        "website": "https://www.nilaiq.com",
        "sektor": "Sektor Teknologi Informasi dan Komunikasi",
        "nama_perusahaan": "KEPERCAYAAN INFORMASI TERINTEGRASI",
        "tanggal_daftar": "2021-10-04",
        "nomor_tanda_daftar": "001320.01/DJAI.PSE/10/2021",
        "qr_code": "https://pse.kominfo.go.id/storage/images/qr_code/b7e3ea549020ca60845d685f9c0f894a.png",
        "status_id": "TERDAFTAR",
        "sistem_elektronik_id": 1463
      }
    },
    {
      "type": "tdpseTerbit",
      "id": 3921,
      "attributes": {
        "nomor_pb_umku": null,
        "nama": "uSyariah",
        "website": "usyariah.com",
        "sektor": "Sektor Keuangan",
        "nama_perusahaan": "APLIKASI BERKAH BERSAMA",
        "tanggal_daftar": "2022-04-19",
        "nomor_tanda_daftar": "001319.02/DJAI.PSE/04/2022",
        "qr_code": "https://pse.kominfo.go.id/storage/images/qr_code/fedbf56b29524894c5d507cd67c68542.png",
        "status_id": "TERDAFTAR",
        "sistem_elektronik_id": 3836
      }
    },
    {
      "type": "tdpseTerbit",
      "id": 1973,
      "attributes": {
        "nomor_pb_umku": null,
        "nama": "Advantee Syariah",
        "website": "www.advanteesyariah.com",
        "sektor": "Sektor Teknologi Informasi dan Komunikasi",
        "nama_perusahaan": "APLIKASI BERKAH BERSAMA",
        "tanggal_daftar": "2021-10-04",
        "nomor_tanda_daftar": "001319.01/DJAI.PSE/10/2021",
        "qr_code": "https://pse.kominfo.go.id/storage/images/qr_code/103689de96b8ee04eaca67c454223851.png",
        "status_id": "TERDAFTAR",
        "sistem_elektronik_id": 1458
      }
    },
    {
      "type": "tdpseTerbit",
      "id": 1972,
      "attributes": {
        "nomor_pb_umku": null,
        "nama": "ADILOKA",
        "website": "www.adiloka.co.id",
        "sektor": "Sektor Perdagangan, Sektor Teknologi Informasi dan Komunikasi",
        "nama_perusahaan": "MILENIA SUKSES MESARI",
        "tanggal_daftar": "2021-10-04",
        "nomor_tanda_daftar": "001318.01/DJAI.PSE/10/2021",
        "qr_code": "https://pse.kominfo.go.id/storage/images/qr_code/be2b372e7784d6d439f708014b28aafd.png",
        "status_id": "TERDAFTAR",
        "sistem_elektronik_id": 1475
      }
    },
    {
      "type": "tdpseTerbit",
      "id": 1971,
      "attributes": {
        "nomor_pb_umku": null,
        "nama": "SKYNANCE",
        "website": "www.skynanceworld.com",
        "sektor": "Sektor Perdagangan, Sektor Teknologi Informasi dan Komunikasi",
        "nama_perusahaan": "EFSU SKYNANCE INDONESIA",
        "tanggal_daftar": "2021-10-04",
        "nomor_tanda_daftar": "001317.01/DJAI.PSE/10/2021",
        "qr_code": "https://pse.kominfo.go.id/storage/images/qr_code/cf9b346f2e11ca0a669cefd917678fe7.png",
        "status_id": "TERDAFTAR",
        "sistem_elektronik_id": 1420
      }
    },
    {
      "type": "tdpseTerbit",
      "id": 3079,
      "attributes": {
        "nomor_pb_umku": null,
        "nama": "www.ibox.co.id",
        "website": "ibox.co.id",
        "sektor": "Sektor Perdagangan, Sektor Teknologi Informasi dan Komunikasi",
        "nama_perusahaan": "DATA CITRA MANDIRI",
        "tanggal_daftar": "2022-01-19",
        "nomor_tanda_daftar": "001316.02/DJAI.PSE/01/2022",
        "qr_code": "https://pse.kominfo.go.id/storage/images/qr_code/f27cbe19c959d9c147025365f5b34df0.png",
        "status_id": "TERDAFTAR",
        "sistem_elektronik_id": 1444
      }
    },
    {
      "type": "tdpseTerbit",
      "id": 1969,
      "attributes": {
        "nomor_pb_umku": null,
        "nama": "http://www.ibox.co.id/",
        "website": "http://www.ibox.co.id/",
        "sektor": "Sektor Perdagangan",
        "nama_perusahaan": "DATA CITRA MANDIRI",
        "tanggal_daftar": "2021-10-04",
        "nomor_tanda_daftar": "001316.01/DJAI.PSE/10/2021",
        "qr_code": "https://pse.kominfo.go.id/storage/images/qr_code/0ad15b8f7815540dd0e7755c1e09bc04.png",
        "status_id": "TERDAFTAR",
        "sistem_elektronik_id": 1443
      }
    },
    {
      "type": "tdpseTerbit",
      "id": 2076,
      "attributes": {
        "nomor_pb_umku": null,
        "nama": "PNM DIGI",
        "website": "mtm.co.id",
        "sektor": "Sektor Teknologi Informasi dan Komunikasi",
        "nama_perusahaan": "MITRA TEKNO MADANI",
        "tanggal_daftar": "2021-10-26",
        "nomor_tanda_daftar": "001315.02/DJAI.PSE/10/2021",
        "qr_code": "https://pse.kominfo.go.id/storage/images/qr_code/b4673e79a1aff3463b30ce680706990b.png",
        "status_id": "TERDAFTAR",
        "sistem_elektronik_id": 1473
      }
    },
    {
      "type": "tdpseTerbit",
      "id": 1968,
      "attributes": {
        "nomor_pb_umku": null,
        "nama": "PNM DIGI",
        "website": "mtm.co.id",
        "sektor": "Sektor Teknologi Informasi dan Komunikasi",
        "nama_perusahaan": "MITRA TEKNO MADANI",
        "tanggal_daftar": "2021-10-04",
        "nomor_tanda_daftar": "001315.01/DJAI.PSE/10/2021",
        "qr_code": "https://pse.kominfo.go.id/storage/images/qr_code/deac1201bcdafaf0c707110cbad4f725.png",
        "status_id": "TERDAFTAR",
        "sistem_elektronik_id": 1472
      }
    },
    {
      "type": "tdpseTerbit",
      "id": 1965,
      "attributes": {
        "nomor_pb_umku": null,
        "nama": "DamoGO",
        "website": "damogo.co",
        "sektor": "Sektor Perdagangan, Sektor Teknologi Informasi dan Komunikasi",
        "nama_perusahaan": "SOLUSI CERDAS NUSANTARA",
        "tanggal_daftar": "2021-10-04",
        "nomor_tanda_daftar": "001314.01/DJAI.PSE/10/2021",
        "qr_code": "https://pse.kominfo.go.id/storage/images/qr_code/a95ba33d20a0d57c47ad2fb19e7611ab.png",
        "status_id": "TERDAFTAR",
        "sistem_elektronik_id": 1462
      }
    }
  ]
}