{
  "meta": {
    "page": {
      "currentPage": 749,
      "from": 7481,
      "lastPage": 912,
      "perPage": 10,
      "to": 7490,
      "total": 9118
    }
  },
  "data": [
    {
      "type": "tdpseTerbit",
      "id": 1207,
      "attributes": {
        "nomor_pb_umku": null,
        "nama": "eWorkplace - SIMPLE",
        "website": "https://eworkplace.bankmandiri.co.id/#",
        "sektor": "Sektor Keuangan",
        "nama_perusahaan": "PERUSAHAAN PERSEROAN (PERSERO) PT. BANK MANDIRI",
        "tanggal_daftar": "2021-06-02",
        "nomor_tanda_daftar": "000806.27/DJAI.PSE/06/2021",
        "qr_code": "https://pse.kominfo.go.id/storage/images/qr_code/98592eee90e211b305a77de6a6bc462c.png",
        "status_id": "TERDAFTAR",
        "sistem_elektronik_id": 3457
      }
    },
    {
      "type": "tdpseTerbit",
      "id": 1206,
      "attributes": {
        "nomor_pb_umku": null,
        "nama": "Treasury Portal",
        "website": "https://treasury.bankmandiri.co.id",
        "sektor": "Sektor Keuangan",
        "nama_perusahaan": "PERUSAHAAN PERSEROAN (PERSERO) PT. BANK MANDIRI",
        "tanggal_daftar": "2021-06-02",
        "nomor_tanda_daftar": "000806.26/DJAI.PSE/06/2021",
        "qr_code": "https://pse.kominfo.go.id/storage/images/qr_code/9792d7c0a71668f0847f890021991afb.png",
        "status_id": "TERDAFTAR",
        "sistem_elektronik_id": 3456
      }
    },
    {
      "type": "tdpseTerbit",
      "id": 1205,
      "attributes": {
        "nomor_pb_umku": null,
        "nama": "Mandiri eFX",
        "website": "https://e-fx.bankmandiri.co.id",
        "sektor": "Sektor Keuangan",
        "nama_perusahaan": "PERUSAHAAN PERSEROAN (PERSERO) PT. BANK MANDIRI",
        "tanggal_daftar": "2021-06-02",
        "nomor_tanda_daftar": "000806.25/DJAI.PSE/06/2021",
        "qr_code": "https://pse.kominfo.go.id/storage/images/qr_code/2c311f14a3699cb65212aee990dabf01.png",
        "status_id": "TERDAFTAR",
        "sistem_elektronik_id": 3455
      }
    },
    {
      "type": "tdpseTerbit",
      "id": 1204,
      "attributes": {
        "nomor_pb_umku": null,
        "nama": "Aplikasi Pinjaman Modal",
        "website": "https://pinjamanmodal.bankmandiri.co.id /",
        "sektor": "Sektor Keuangan",
        "nama_perusahaan": "PERUSAHAAN PERSEROAN (PERSERO) PT. BANK MANDIRI",
        "tanggal_daftar": "2021-06-02",
        "nomor_tanda_daftar": "000806.24/DJAI.PSE/06/2021",
        "qr_code": "https://pse.kominfo.go.id/storage/images/qr_code/e7282c1edb0e2ef221818a4bd113b424.png",
        "status_id": "TERDAFTAR",
        "sistem_elektronik_id": 3454
      }
    },
    {
      "type": "tdpseTerbit",
      "id": 1203,
      "attributes": {
        "nomor_pb_umku": null,
        "nama": "Online Onboarding",
        "website": "https://join.bankmandiri.co.id",
        "sektor": "Sektor Keuangan",
        "nama_perusahaan": "PERUSAHAAN PERSEROAN (PERSERO) PT. BANK MANDIRI",
        "tanggal_daftar": "2021-06-02",
        "nomor_tanda_daftar": "000806.23/DJAI.PSE/06/2021",
        "qr_code": "https://pse.kominfo.go.id/storage/images/qr_code/748fe4054b1c45e3aac8c474a555c162.png",
        "status_id": "TERDAFTAR",
        "sistem_elektronik_id": 3453
      }
    },
    {
      "type": "tdpseTerbit",
      "id": 1202,
      "attributes": {
        "nomor_pb_umku": null,
        "nama": "LMS Mobile (JOSS)",
        "website": "-",
        "sektor": "Sektor Keuangan",
        "nama_perusahaan": "PERUSAHAAN PERSEROAN (PERSERO) PT. BANK MANDIRI",
        "tanggal_daftar": "2021-06-02",
        "nomor_tanda_daftar": "000806.22/DJAI.PSE/06/2021",
        "qr_code": "https://pse.kominfo.go.id/storage/images/qr_code/8b6e3773528632a24a8cc44ec870d464.png",
        "status_id": "TERDAFTAR",
        "sistem_elektronik_id": 3452
      }
    },
    {
      "type": "tdpseTerbit",
      "id": 1201,
      "attributes": {
        "nomor_pb_umku": null,
        "nama": "Fiesta Point Microsite",
        "website": "https://fiestapoin.bankmandiri.co.id",
        "sektor": "Sektor Keuangan",
        "nama_perusahaan": "PERUSAHAAN PERSEROAN (PERSERO) PT. BANK MANDIRI",
        "tanggal_daftar": "2021-06-02",
        "nomor_tanda_daftar": "000806.21/DJAI.PSE/06/2021",
        "qr_code": "https://pse.kominfo.go.id/storage/images/qr_code/2d19919cc98a7fd35285a57b0c68204e.png",
        "status_id": "TERDAFTAR",
        "sistem_elektronik_id": 3451
      }
    },
    {
      "type": "tdpseTerbit",
      "id": 1200,
      "attributes": {
        "nomor_pb_umku": null,
        "nama": "Service API Bank Mandiri Sandbox",
        "website": "-",
        "sektor": "Sektor Keuangan",
        "nama_perusahaan": "PERUSAHAAN PERSEROAN (PERSERO) PT. BANK MANDIRI",
        "tanggal_daftar": "2021-06-02",
        "nomor_tanda_daftar": "000806.20/DJAI.PSE/06/2021",
        "qr_code": "https://pse.kominfo.go.id/storage/images/qr_code/a9d32a0d41dd547ad95b352cb59fdfdb.png",
        "status_id": "TERDAFTAR",
        "sistem_elektronik_id": 3450
      }
    },
    {
      "type": "tdpseTerbit",
      "id": 1199,
      "attributes": {
        "nomor_pb_umku": null,
        "nama": "Service API Bank Mandiri Production",
        "website": "-",
        "sektor": "Sektor Keuangan",
        "nama_perusahaan": "PERUSAHAAN PERSEROAN (PERSERO) PT. BANK MANDIRI",
        "tanggal_daftar": "2021-06-02",
        "nomor_tanda_daftar": "000806.19/DJAI.PSE/06/2021",
        "qr_code": "https://pse.kominfo.go.id/storage/images/qr_code/4693beb0653ecf3135d90747b4509d3f.png",
        "status_id": "TERDAFTAR",
        "sistem_elektronik_id": 3449
      }
    },
    {
      "type": "tdpseTerbit",
      "id": 1198,
      "attributes": {
        "nomor_pb_umku": null,
        "nama": "Aplikasi API Portal",
        "website": "https://developer.bankmandiri.co.id /",
        "sektor": "Sektor Keuangan",
        "nama_perusahaan": "PERUSAHAAN PERSEROAN (PERSERO) PT. BANK MANDIRI",
        "tanggal_daftar": "2021-06-02",
        "nomor_tanda_daftar": "000806.18/DJAI.PSE/06/2021",
        "qr_code": "https://pse.kominfo.go.id/storage/images/qr_code/47dda183c529b0e9f00444ce60b327a8.png",
        "status_id": "TERDAFTAR",
        "sistem_elektronik_id": 3448
      }
    }
  ]
}