{
  "meta": {
    "page": {
      "currentPage": 750,
      "from": 7491,
      "lastPage": 1113,
      "perPage": 10,
      "to": 7500,
      "total": 11124
    }
  },
  "data": [
    {
      "type": "tdpseTerbit",
      "id": 4057,
      "attributes": {
        "nomor_pb_umku": null,
        "nama": "VENTA COMPUTINDO TECHNOLOGIES",
        "website": "-",
        "sektor": "Sektor Perdagangan",
        "nama_perusahaan": "MOCHAMAD IWAN SETIYAWAN",
        "tanggal_daftar": "2022-04-27",
        "nomor_tanda_daftar": "001844.04/DJAI.PSE/04/2022",
        "qr_code": "https://pse.kominfo.go.id/storage/images/qr_code/72c33417e116acdf7f97404140541e8e.png",
        "status_id": "TERDAFTAR",
        "sistem_elektronik_id": 3883
      }
    },
    {
      "type": "tdpseTerbit",
      "id": 4032,
      "attributes": {
        "nomor_pb_umku": null,
        "nama": "VENTA COMP",
        "website": "-",
        "sektor": "Sektor Perdagangan, Sektor Teknologi Informasi dan Komunikasi",
        "nama_perusahaan": "MOCHAMAD IWAN SETIYAWAN",
        "tanggal_daftar": "2022-04-26",
        "nomor_tanda_daftar": "001844.03/DJAI.PSE/04/2022",
        "qr_code": "https://pse.kominfo.go.id/storage/images/qr_code/fda573c4e78c6867422c59195bee6ccd.png",
        "status_id": "TERDAFTAR",
        "sistem_elektronik_id": 3882
      }
    },
    {
      "type": "tdpseTerbit",
      "id": 3890,
      "attributes": {
        "nomor_pb_umku": null,
        "nama": "Venta Computindo",
        "website": "-",
        "sektor": "Sektor Perdagangan, Sektor Teknologi Informasi dan Komunikasi",
        "nama_perusahaan": "MOCHAMAD IWAN SETIYAWAN",
        "tanggal_daftar": "2022-04-17",
        "nomor_tanda_daftar": "001844.02/DJAI.PSE/04/2022",
        "qr_code": "https://pse.kominfo.go.id/storage/images/qr_code/32e6774c487599307a6908cf58035885.png",
        "status_id": "TERDAFTAR",
        "sistem_elektronik_id": 3881
      }
    },
    {
      "type": "tdpseTerbit",
      "id": 2879,
      "attributes": {
        "nomor_pb_umku": null,
        "nama": "Venta Computindi",
        "website": "-",
        "sektor": "Sektor Perdagangan, Sektor Teknologi Informasi dan Komunikasi",
        "nama_perusahaan": "MOCHAMAD IWAN SETIYAWAN",
        "tanggal_daftar": "2021-12-26",
        "nomor_tanda_daftar": "001844.01/DJAI.PSE/12/2021",
        "qr_code": "https://pse.kominfo.go.id/storage/images/qr_code/7933b347bd5d2f2cf224736f8cbdc427.png",
        "status_id": "TERDAFTAR",
        "sistem_elektronik_id": 2832
      }
    },
    {
      "type": "tdpseTerbit",
      "id": 2878,
      "attributes": {
        "nomor_pb_umku": null,
        "nama": "Eksist",
        "website": "www.eksist.id",
        "sektor": "Sektor Perdagangan, Sektor Teknologi Informasi dan Komunikasi",
        "nama_perusahaan": "TEKNOLOGI KITA SEJAHTERA",
        "tanggal_daftar": "2021-12-25",
        "nomor_tanda_daftar": "001843.01/DJAI.PSE/12/2021",
        "qr_code": "https://pse.kominfo.go.id/storage/images/qr_code/19baf68c7b46df6a90a6ebf1651808eb.png",
        "status_id": "TERDAFTAR",
        "sistem_elektronik_id": 1885
      }
    },
    {
      "type": "tdpseTerbit",
      "id": 2877,
      "attributes": {
        "nomor_pb_umku": null,
        "nama": "www.ptoxygen.id",
        "website": "www.ptoxygen.id",
        "sektor": "Sektor Teknologi Informasi dan Komunikasi",
        "nama_perusahaan": "OXYGEN TECHNOLOGY INDONESIA",
        "tanggal_daftar": "2021-12-25",
        "nomor_tanda_daftar": "001842.01/DJAI.PSE/12/2021",
        "qr_code": "https://pse.kominfo.go.id/storage/images/qr_code/403e11c63f5c70af7c06dc283d75b5bc.png",
        "status_id": "TERDAFTAR",
        "sistem_elektronik_id": 1970
      }
    },
    {
      "type": "tdpseTerbit",
      "id": 2876,
      "attributes": {
        "nomor_pb_umku": null,
        "nama": "www.ptpanacea.id",
        "website": "www.ptpanacea.id",
        "sektor": "Sektor Teknologi Informasi dan Komunikasi",
        "nama_perusahaan": "PANACEA TECHNOLOGY INDONESIA",
        "tanggal_daftar": "2021-12-25",
        "nomor_tanda_daftar": "001841.01/DJAI.PSE/12/2021",
        "qr_code": "https://pse.kominfo.go.id/storage/images/qr_code/8877a84bbc9579f5df9dd6ba3f989b0b.png",
        "status_id": "TERDAFTAR",
        "sistem_elektronik_id": 1960
      }
    },
    {
      "type": "tdpseTerbit",
      "id": 2874,
      "attributes": {
        "nomor_pb_umku": null,
        "nama": "MY VENUS",
        "website": "myvenus.co.id",
        "sektor": "Sektor Kesehatan",
        "nama_perusahaan": "MYVENUS NETWORK INDONESIA",
        "tanggal_daftar": "2021-12-24",
        "nomor_tanda_daftar": "001840.01/DJAI.PSE/12/2021",
        "qr_code": "https://pse.kominfo.go.id/storage/images/qr_code/5e54e99cdc5fae5e38d8e0862e3dd2f7.png",
        "status_id": "TERDAFTAR",
        "sistem_elektronik_id": 1872
      }
    },
    {
      "type": "tdpseTerbit",
      "id": 12144,
      "attributes": {
        "nomor_pb_umku": "171221003488500050004",
        "nama": "INA.GAME",
        "website": "ina.game",
        "sektor": "Sektor Teknologi Informasi dan Komunikasi",
        "nama_perusahaan": "GLOBAL GAME INTERNUSA",
        "tanggal_daftar": "2022-11-06",
        "nomor_tanda_daftar": "001839.04/DJAI.PSE/11/2022",
        "qr_code": "https://pse.kominfo.go.id/storage/images/qr_code/6b26f5416633fc76f842d3ed7fc8e17e.png",
        "status_id": "TERDAFTAR",
        "sistem_elektronik_id": 11939
      }
    },
    {
      "type": "tdpseTerbit",
      "id": 12067,
      "attributes": {
        "nomor_pb_umku": "171221003488500050003",
        "nama": "INAGAME",
        "website": "inagame.id",
        "sektor": "Sektor Teknologi Informasi dan Komunikasi",
        "nama_perusahaan": "GLOBAL GAME INTERNUSA",
        "tanggal_daftar": "2022-11-01",
        "nomor_tanda_daftar": "001839.03/DJAI.PSE/11/2022",
        "qr_code": "https://pse.kominfo.go.id/storage/images/qr_code/049ba4517d6fbdcd6969c937e2e81d32.png",
        "status_id": "TERDAFTAR",
        "sistem_elektronik_id": 11870
      }
    }
  ]
}