{
  "meta": {
    "page": {
      "currentPage": 752,
      "from": 7511,
      "lastPage": 1001,
      "perPage": 10,
      "to": 7520,
      "total": 10002
    }
  },
  "data": [
    {
      "type": "tdpseTerbit",
      "id": 1840,
      "attributes": {
        "nomor_pb_umku": null,
        "nama": "DUIT KEY",
        "website": "duitkey.id",
        "sektor": "Sektor Keuangan",
        "nama_perusahaan": "SIMPAN PINJAM GRAHA SUMBER MAKMUR",
        "tanggal_daftar": "2021-08-03",
        "nomor_tanda_daftar": "001229.01/DJAI.PSE/08/2021",
        "qr_code": "https://pse.kominfo.go.id/storage/images/qr_code/936b28333cdcb854f83f4ab658bcfdfd.png",
        "status_id": "TERDAFTAR",
        "sistem_elektronik_id": 3401
      }
    },
    {
      "type": "tdpseTerbit",
      "id": 1839,
      "attributes": {
        "nomor_pb_umku": null,
        "nama": "Kibble",
        "website": "www.kibble.id",
        "sektor": "Sektor Kesehatan, Sektor Teknologi Informasi dan Komunikasi",
        "nama_perusahaan": "MITRA INSAN GLOBAL",
        "tanggal_daftar": "2021-08-03",
        "nomor_tanda_daftar": "001228.01/DJAI.PSE/08/2021",
        "qr_code": "https://pse.kominfo.go.id/storage/images/qr_code/4746b11ee6e61feab911c7fa3adb1984.png",
        "status_id": "TERDAFTAR",
        "sistem_elektronik_id": 1398
      }
    },
    {
      "type": "tdpseTerbit",
      "id": 1837,
      "attributes": {
        "nomor_pb_umku": null,
        "nama": "JARINGAN DESA",
        "website": "-",
        "sektor": "Sektor Teknologi Informasi dan Komunikasi",
        "nama_perusahaan": "SARANA GENERASI DIGITAL",
        "tanggal_daftar": "2021-08-03",
        "nomor_tanda_daftar": "001227.01/DJAI.PSE/08/2021",
        "qr_code": "https://pse.kominfo.go.id/storage/images/qr_code/3fffa074312391ebf015971aab69c6ff.png",
        "status_id": "TERDAFTAR",
        "sistem_elektronik_id": 1372
      }
    },
    {
      "type": "tdpseTerbit",
      "id": 1836,
      "attributes": {
        "nomor_pb_umku": null,
        "nama": "Aplikasi Mapan",
        "website": "https://mapan.id",
        "sektor": "Sektor Perdagangan, Sektor Teknologi Informasi dan Komunikasi",
        "nama_perusahaan": "REKAN USAHA MIKRO ANDA",
        "tanggal_daftar": "2021-08-03",
        "nomor_tanda_daftar": "001226.01/DJAI.PSE/08/2021",
        "qr_code": "https://pse.kominfo.go.id/storage/images/qr_code/9b77fdc68d67acd13aa39af13fa851ce.png",
        "status_id": "TERDAFTAR",
        "sistem_elektronik_id": 1305
      }
    },
    {
      "type": "tdpseTerbit",
      "id": 10229,
      "attributes": {
        "nomor_pb_umku": "912000399151100040003",
        "nama": "E-REGISTRATION OPENING ACCOUNT ONLINE EKUATOR SWARNA SEKURITAS",
        "website": "e-registration.ekuator.co.id",
        "sektor": "Sektor Keuangan, Sektor Teknologi Informasi dan Komunikasi",
        "nama_perusahaan": "EKUATOR SWARNA SEKURITAS",
        "tanggal_daftar": "2022-08-11",
        "nomor_tanda_daftar": "001225.02/DJAI.PSE/08/2022",
        "qr_code": "https://pse.kominfo.go.id/storage/images/qr_code/6024e1d56d47f2fbc654505b2c0e0a0e.png",
        "status_id": "TERDAFTAR",
        "sistem_elektronik_id": 10108
      }
    },
    {
      "type": "tdpseTerbit",
      "id": 1835,
      "attributes": {
        "nomor_pb_umku": null,
        "nama": "Ekuator Swarna Online (ESONE)",
        "website": "https://ekuator.co.id dan https://ekuatorsekuritas.co.id",
        "sektor": "Sektor Keuangan, Sektor Perdagangan, Sektor Teknologi Informasi dan Komunikasi",
        "nama_perusahaan": "EKUATOR SWARNA SEKURITAS",
        "tanggal_daftar": "2021-08-03",
        "nomor_tanda_daftar": "001225.01/DJAI.PSE/08/2021",
        "qr_code": "https://pse.kominfo.go.id/storage/images/qr_code/46140a06d61a13f9236ac1d47c523270.png",
        "status_id": "TERDAFTAR",
        "sistem_elektronik_id": 1302
      }
    },
    {
      "type": "tdpseTerbit",
      "id": 6642,
      "attributes": {
        "nomor_pb_umku": "912040878274600010002",
        "nama": "ODYSSEY",
        "website": "odyssey.co.id",
        "sektor": "Sektor Teknologi Informasi dan Komunikasi",
        "nama_perusahaan": "DAYA DIMENSI INDONESIA",
        "tanggal_daftar": "2022-07-19",
        "nomor_tanda_daftar": "001224.02/DJAI.PSE/07/2022",
        "qr_code": "https://pse.kominfo.go.id/storage/images/qr_code/6279ff3fdbd416b844ee2d86fc8c2330.png",
        "status_id": "TERDAFTAR",
        "sistem_elektronik_id": 6456
      }
    },
    {
      "type": "tdpseTerbit",
      "id": 1834,
      "attributes": {
        "nomor_pb_umku": null,
        "nama": "Assessment Hub",
        "website": "ams.ddiassessment.com",
        "sektor": "Sektor Perdagangan",
        "nama_perusahaan": "DAYA DIMENSI INDONESIA",
        "tanggal_daftar": "2021-08-03",
        "nomor_tanda_daftar": "001224.01/DJAI.PSE/08/2021",
        "qr_code": "https://pse.kominfo.go.id/storage/images/qr_code/01b8438318a7f243a0c72ca96af06ac5.png",
        "status_id": "TERDAFTAR",
        "sistem_elektronik_id": 1000
      }
    },
    {
      "type": "tdpseTerbit",
      "id": 1833,
      "attributes": {
        "nomor_pb_umku": null,
        "nama": "https://jenfi.id/",
        "website": "https://jenfi.id/",
        "sektor": "Sektor Teknologi Informasi dan Komunikasi",
        "nama_perusahaan": "GEN LIMA INDONESIA",
        "tanggal_daftar": "2021-08-03",
        "nomor_tanda_daftar": "001223.01/DJAI.PSE/08/2021",
        "qr_code": "https://pse.kominfo.go.id/storage/images/qr_code/d4da443545ed832ce89b06ff3355c408.png",
        "status_id": "TERDAFTAR",
        "sistem_elektronik_id": 1378
      }
    },
    {
      "type": "tdpseTerbit",
      "id": 1832,
      "attributes": {
        "nomor_pb_umku": null,
        "nama": "Kata.ai",
        "website": "https://platform.kata.ai",
        "sektor": "Sektor Teknologi Informasi dan Komunikasi",
        "nama_perusahaan": "YESBOSS GROUP INDONESIA",
        "tanggal_daftar": "2021-08-03",
        "nomor_tanda_daftar": "001222.01/DJAI.PSE/08/2021",
        "qr_code": "https://pse.kominfo.go.id/storage/images/qr_code/671d405eaae313e94a5a51167b1ce6fc.png",
        "status_id": "TERDAFTAR",
        "sistem_elektronik_id": 1271
      }
    }
  ]
}