{
  "meta": {
    "page": {
      "currentPage": 753,
      "from": 7521,
      "lastPage": 1072,
      "perPage": 10,
      "to": 7530,
      "total": 10718
    }
  },
  "data": [
    {
      "type": "tdpseTerbit",
      "id": 2508,
      "attributes": {
        "nomor_pb_umku": null,
        "nama": "AI Talkbot",
        "website": "https://www.wiz.ai/",
        "sektor": "Sektor Teknologi Informasi dan Komunikasi",
        "nama_perusahaan": "WIZ TECHNOLOGY INDONESIA",
        "tanggal_daftar": "2021-11-30",
        "nomor_tanda_daftar": "001661.01/DJAI.PSE/11/2021",
        "qr_code": "https://pse.kominfo.go.id/storage/images/qr_code/6cc550b457539f0e0e58bb32b3fc2e8e.png",
        "status_id": "TERDAFTAR",
        "sistem_elektronik_id": 1723
      }
    },
    {
      "type": "tdpseTerbit",
      "id": 2506,
      "attributes": {
        "nomor_pb_umku": null,
        "nama": "woocommerce",
        "website": "www.soulfuloverseas.co",
        "sektor": "Sektor Teknologi Informasi dan Komunikasi",
        "nama_perusahaan": "SOULFUL INDO OVERSEAS",
        "tanggal_daftar": "2021-11-30",
        "nomor_tanda_daftar": "001659.01/DJAI.PSE/11/2021",
        "qr_code": "https://pse.kominfo.go.id/storage/images/qr_code/e1c0efe2e4680a61154f5908b97e8523.png",
        "status_id": "TERDAFTAR",
        "sistem_elektronik_id": 1508
      }
    },
    {
      "type": "tdpseTerbit",
      "id": 2505,
      "attributes": {
        "nomor_pb_umku": null,
        "nama": "Upaboga",
        "website": "upaboga.com",
        "sektor": "Sektor Pangan, Sektor Teknologi Informasi dan Komunikasi",
        "nama_perusahaan": "UPABOGA MEDIA SINERGI",
        "tanggal_daftar": "2021-11-30",
        "nomor_tanda_daftar": "001658.01/DJAI.PSE/11/2021",
        "qr_code": "https://pse.kominfo.go.id/storage/images/qr_code/312ebc246525d88e19aee9e680be4437.png",
        "status_id": "TERDAFTAR",
        "sistem_elektronik_id": 1739
      }
    },
    {
      "type": "tdpseTerbit",
      "id": 2504,
      "attributes": {
        "nomor_pb_umku": null,
        "nama": "Samlay Store",
        "website": "-",
        "sektor": "Sektor Perdagangan, Sektor Teknologi Informasi dan Komunikasi",
        "nama_perusahaan": "AMINUDIN",
        "tanggal_daftar": "2021-11-30",
        "nomor_tanda_daftar": "001657.01/DJAI.PSE/11/2021",
        "qr_code": "https://pse.kominfo.go.id/storage/images/qr_code/c75aa68b4a9cc50d3d709d9d6f8f8fe7.png",
        "status_id": "TERDAFTAR",
        "sistem_elektronik_id": 1738
      }
    },
    {
      "type": "tdpseTerbit",
      "id": 2503,
      "attributes": {
        "nomor_pb_umku": null,
        "nama": "SOLDAYS",
        "website": "soldays.id",
        "sektor": "Sektor Perdagangan",
        "nama_perusahaan": "SOLUSI DIGITAL INTERNUSA",
        "tanggal_daftar": "2021-11-29",
        "nomor_tanda_daftar": "001656.01/DJAI.PSE/11/2021",
        "qr_code": "https://pse.kominfo.go.id/storage/images/qr_code/9697104a2e7627b2be8f93f9474a05b8.png",
        "status_id": "TERDAFTAR",
        "sistem_elektronik_id": 1725
      }
    },
    {
      "type": "tdpseTerbit",
      "id": 2502,
      "attributes": {
        "nomor_pb_umku": null,
        "nama": "Website",
        "website": "boozestall.com",
        "sektor": "Sektor Perdagangan",
        "nama_perusahaan": "DEVI APRICIA",
        "tanggal_daftar": "2021-11-29",
        "nomor_tanda_daftar": "001655.01/DJAI.PSE/11/2021",
        "qr_code": "https://pse.kominfo.go.id/storage/images/qr_code/ab20b6d9cad824d249f01374cdb59101.png",
        "status_id": "TERDAFTAR",
        "sistem_elektronik_id": 2823
      }
    },
    {
      "type": "tdpseTerbit",
      "id": 2501,
      "attributes": {
        "nomor_pb_umku": null,
        "nama": "Singkat Tepat Jelas",
        "website": "ktrindonesia.com",
        "sektor": "Sektor Teknologi Informasi dan Komunikasi",
        "nama_perusahaan": "POLY BETAUBUN",
        "tanggal_daftar": "2021-11-29",
        "nomor_tanda_daftar": "001654.01/DJAI.PSE/11/2021",
        "qr_code": "https://pse.kominfo.go.id/storage/images/qr_code/f940aa77af053997cd82fa5de317aaff.png",
        "status_id": "TERDAFTAR",
        "sistem_elektronik_id": 1736
      }
    },
    {
      "type": "tdpseTerbit",
      "id": 2500,
      "attributes": {
        "nomor_pb_umku": null,
        "nama": "Web Pan Pacific",
        "website": "panfic.com",
        "sektor": "Sektor Keuangan",
        "nama_perusahaan": "PAN PACIFIC INSURANCE",
        "tanggal_daftar": "2021-11-29",
        "nomor_tanda_daftar": "001653.01/DJAI.PSE/11/2021",
        "qr_code": "https://pse.kominfo.go.id/storage/images/qr_code/d5fd53e125299e5a792ecdc52625ae8a.png",
        "status_id": "TERDAFTAR",
        "sistem_elektronik_id": 1700
      }
    },
    {
      "type": "tdpseTerbit",
      "id": 2499,
      "attributes": {
        "nomor_pb_umku": null,
        "nama": "Indonesia Pasti Peduli",
        "website": "pastipeduli.com",
        "sektor": "Sektor Perdagangan",
        "nama_perusahaan": "INDONESIA PASTI PEDULI",
        "tanggal_daftar": "2021-11-29",
        "nomor_tanda_daftar": "001652.01/DJAI.PSE/11/2021",
        "qr_code": "https://pse.kominfo.go.id/storage/images/qr_code/b3ecdbd7a166d3886ff97e272ac5fd36.png",
        "status_id": "TERDAFTAR",
        "sistem_elektronik_id": 1574
      }
    },
    {
      "type": "tdpseTerbit",
      "id": 2498,
      "attributes": {
        "nomor_pb_umku": null,
        "nama": "88 Senada Lampung",
        "website": "-",
        "sektor": "Sektor Perdagangan",
        "nama_perusahaan": "INDRA JULIANTA",
        "tanggal_daftar": "2021-11-29",
        "nomor_tanda_daftar": "001651.01/DJAI.PSE/11/2021",
        "qr_code": "https://pse.kominfo.go.id/storage/images/qr_code/c3ca8feed4bb5951a5fe0d409d524272.png",
        "status_id": "TERDAFTAR",
        "sistem_elektronik_id": 1735
      }
    }
  ]
}