{
  "meta": {
    "page": {
      "currentPage": 756,
      "from": 7551,
      "lastPage": 1080,
      "perPage": 10,
      "to": 7560,
      "total": 10793
    }
  },
  "data": [
    {
      "type": "tdpseTerbit",
      "id": 5604,
      "attributes": {
        "nomor_pb_umku": "812000289391400620025",
        "nama": "RUMAHSAYA BCA",
        "website": "rumahsaya.bca.co.id",
        "sektor": "Sektor Keuangan",
        "nama_perusahaan": "BANK CENTRAL ASIA",
        "tanggal_daftar": "2022-07-14",
        "nomor_tanda_daftar": "001669.26/DJAI.PSE/07/2022",
        "qr_code": "https://pse.kominfo.go.id/storage/images/qr_code/81b3a6e411c9f9964035e0b4c8cdc324.png",
        "status_id": "TERDAFTAR",
        "sistem_elektronik_id": 5472
      }
    },
    {
      "type": "tdpseTerbit",
      "id": 5498,
      "attributes": {
        "nomor_pb_umku": "812000289391400620024",
        "nama": "BCA PAYMENT GATEWAY",
        "website": "ecommpg.klikbca.com",
        "sektor": "Sektor Keuangan",
        "nama_perusahaan": "BANK CENTRAL ASIA",
        "tanggal_daftar": "2022-07-13",
        "nomor_tanda_daftar": "001669.25/DJAI.PSE/07/2022",
        "qr_code": "https://pse.kominfo.go.id/storage/images/qr_code/11a2be07981beb4e57d2fb03d0f78a6a.png",
        "status_id": "TERDAFTAR",
        "sistem_elektronik_id": 5362
      }
    },
    {
      "type": "tdpseTerbit",
      "id": 5496,
      "attributes": {
        "nomor_pb_umku": "812000289391400620023",
        "nama": "FIRE API",
        "website": "api.klikbca.com",
        "sektor": "Sektor Keuangan",
        "nama_perusahaan": "BANK CENTRAL ASIA",
        "tanggal_daftar": "2022-07-13",
        "nomor_tanda_daftar": "001669.24/DJAI.PSE/07/2022",
        "qr_code": "https://pse.kominfo.go.id/storage/images/qr_code/7f6c0244bb8301f8a3777f2081ba714e.png",
        "status_id": "TERDAFTAR",
        "sistem_elektronik_id": 5359
      }
    },
    {
      "type": "tdpseTerbit",
      "id": 5495,
      "attributes": {
        "nomor_pb_umku": "",
        "nama": "BCA E-COMMERCE PAYMENT GATEWAY",
        "website": "ecommpg.klikbca.com",
        "sektor": "Sektor Keuangan",
        "nama_perusahaan": "BANK CENTRAL ASIA",
        "tanggal_daftar": "2022-07-13",
        "nomor_tanda_daftar": "001669.23/DJAI.PSE/07/2022",
        "qr_code": "https://pse.kominfo.go.id/storage/images/qr_code/8e397d77a8b910571830222ef9669527.png",
        "status_id": "TERDAFTAR",
        "sistem_elektronik_id": 5358
      }
    },
    {
      "type": "tdpseTerbit",
      "id": 5492,
      "attributes": {
        "nomor_pb_umku": "",
        "nama": "APLIKASI WEB FIRE",
        "website": "bcaremit.klikbca.com",
        "sektor": "Sektor Keuangan",
        "nama_perusahaan": "BANK CENTRAL ASIA",
        "tanggal_daftar": "2022-07-13",
        "nomor_tanda_daftar": "001669.22/DJAI.PSE/07/2022",
        "qr_code": "https://pse.kominfo.go.id/storage/images/qr_code/6525479f4dc4738940da5aa5b52530c0.png",
        "status_id": "TERDAFTAR",
        "sistem_elektronik_id": 5355
      }
    },
    {
      "type": "tdpseTerbit",
      "id": 5440,
      "attributes": {
        "nomor_pb_umku": "",
        "nama": "REMITTANCEBCA",
        "website": "remittancebca.bca.co.id",
        "sektor": "Sektor Keuangan",
        "nama_perusahaan": "BANK CENTRAL ASIA",
        "tanggal_daftar": "2022-07-13",
        "nomor_tanda_daftar": "001669.20/DJAI.PSE/07/2022",
        "qr_code": "https://pse.kominfo.go.id/storage/images/qr_code/d3c08ccbe948b34a3dd16255f6cb1ef8.png",
        "status_id": "TERDAFTAR",
        "sistem_elektronik_id": 5273
      }
    },
    {
      "type": "tdpseTerbit",
      "id": 5400,
      "attributes": {
        "nomor_pb_umku": "812000289391400620021",
        "nama": "WEBSITE (PORTAL) API BCA",
        "website": "developer.bca.co.id",
        "sektor": "Sektor Keuangan",
        "nama_perusahaan": "BANK CENTRAL ASIA",
        "tanggal_daftar": "2022-07-12",
        "nomor_tanda_daftar": "001669.19/DJAI.PSE/07/2022",
        "qr_code": "https://pse.kominfo.go.id/storage/images/qr_code/b3ef7fb3e4150f5946b18acef7cb760c.png",
        "status_id": "TERDAFTAR",
        "sistem_elektronik_id": 5272
      }
    },
    {
      "type": "tdpseTerbit",
      "id": 5399,
      "attributes": {
        "nomor_pb_umku": "812000289391400620021",
        "nama": "VIRA",
        "website": "vira.bca.co.id",
        "sektor": "Sektor Keuangan",
        "nama_perusahaan": "BANK CENTRAL ASIA",
        "tanggal_daftar": "2022-07-12",
        "nomor_tanda_daftar": "001669.18/DJAI.PSE/07/2022",
        "qr_code": "https://pse.kominfo.go.id/storage/images/qr_code/e7a3d9daec9393f6365644b7a79c0430.png",
        "status_id": "TERDAFTAR",
        "sistem_elektronik_id": 5270
      }
    },
    {
      "type": "tdpseTerbit",
      "id": 2857,
      "attributes": {
        "nomor_pb_umku": null,
        "nama": "Aplikasi keyBCA (Soft Token)",
        "website": "-",
        "sektor": "Sektor Keuangan",
        "nama_perusahaan": "BANK CENTRAL ASIA",
        "tanggal_daftar": "2021-12-22",
        "nomor_tanda_daftar": "001669.17/DJAI.PSE/12/2021",
        "qr_code": "https://pse.kominfo.go.id/storage/images/qr_code/649f8d478fbda61fefdcf7ee8a284c92.png",
        "status_id": "TERDAFTAR",
        "sistem_elektronik_id": 634
      }
    },
    {
      "type": "tdpseTerbit",
      "id": 2612,
      "attributes": {
        "nomor_pb_umku": null,
        "nama": "eBranch",
        "website": "-",
        "sektor": "Sektor Keuangan",
        "nama_perusahaan": "BANK CENTRAL ASIA",
        "tanggal_daftar": "2021-12-02",
        "nomor_tanda_daftar": "001669.16/DJAI.PSE/12/2021",
        "qr_code": "https://pse.kominfo.go.id/storage/images/qr_code/38a08ae2e04cd8cceb77182bc08b5d72.png",
        "status_id": "TERDAFTAR",
        "sistem_elektronik_id": 633
      }
    }
  ]
}