{
  "meta": {
    "page": {
      "currentPage": 758,
      "from": 7571,
      "lastPage": 903,
      "perPage": 10,
      "to": 7580,
      "total": 9025
    }
  },
  "data": [
    {
      "type": "tdpseTerbit",
      "id": 966,
      "attributes": {
        "nomor_pb_umku": null,
        "nama": "Kepoo",
        "website": "www.kepoo.id",
        "sektor": "Sektor Perdagangan, Sektor Teknologi Informasi dan Komunikasi",
        "nama_perusahaan": "KEPOO SOLUSI INDONESIA",
        "tanggal_daftar": "2021-05-11",
        "nomor_tanda_daftar": "000725.01/DJAI.PSE/05/2021",
        "qr_code": "https://pse.kominfo.go.id/storage/images/qr_code/3ab18fc05930725f2bc3b2b109c3c59c.png",
        "status_id": "TERDAFTAR",
        "sistem_elektronik_id": 73
      }
    },
    {
      "type": "tdpseTerbit",
      "id": 965,
      "attributes": {
        "nomor_pb_umku": null,
        "nama": "MyTaspenlife",
        "website": "https://my.taspenlife.com/",
        "sektor": "Sektor Teknologi Informasi dan Komunikasi",
        "nama_perusahaan": "ASURANSI JIWA TASPEN",
        "tanggal_daftar": "2021-05-11",
        "nomor_tanda_daftar": "000724.01/DJAI.PSE/05/2021",
        "qr_code": "https://pse.kominfo.go.id/storage/images/qr_code/d07b43b2026671529e9e7983fb5a2dcc.png",
        "status_id": "TERDAFTAR",
        "sistem_elektronik_id": 311
      }
    },
    {
      "type": "tdpseTerbit",
      "id": 963,
      "attributes": {
        "nomor_pb_umku": null,
        "nama": "Modal Uang",
        "website": "http://kspsinergimaju.id/",
        "sektor": "Sektor Keuangan, Sektor Perdagangan",
        "nama_perusahaan": "KONSUMEN SINERGI MAJU MAKMUR",
        "tanggal_daftar": "2021-05-11",
        "nomor_tanda_daftar": "000723.01/DJAI.PSE/05/2021",
        "qr_code": "https://pse.kominfo.go.id/storage/images/qr_code/592e2d3a4a531dada598a19fe778fea4.png",
        "status_id": "TERDAFTAR",
        "sistem_elektronik_id": 3309
      }
    },
    {
      "type": "tdpseTerbit",
      "id": 962,
      "attributes": {
        "nomor_pb_umku": null,
        "nama": "Sistem Brokerage Office System S21-Plus Aldiracita",
        "website": "www.aldiracita.com",
        "sektor": "Sektor Keuangan",
        "nama_perusahaan": "ALDIRACITA SEKURITAS INDONESIA",
        "tanggal_daftar": "2021-05-11",
        "nomor_tanda_daftar": "000722.01/DJAI.PSE/05/2021",
        "qr_code": "https://pse.kominfo.go.id/storage/images/qr_code/924a588d0214b778b697d053ea7e9179.png",
        "status_id": "TERDAFTAR",
        "sistem_elektronik_id": 715
      }
    },
    {
      "type": "tdpseTerbit",
      "id": 961,
      "attributes": {
        "nomor_pb_umku": null,
        "nama": "Edukasi MasaDepan",
        "website": "www.masadepan.com",
        "sektor": "Sektor Perdagangan",
        "nama_perusahaan": "EDUKASI MASA DEPAN",
        "tanggal_daftar": "2021-05-11",
        "nomor_tanda_daftar": "000721.01/DJAI.PSE/05/2021",
        "qr_code": "https://pse.kominfo.go.id/storage/images/qr_code/e590f96a3bac5d2b3532459381648223.png",
        "status_id": "TERDAFTAR",
        "sistem_elektronik_id": 3308
      }
    },
    {
      "type": "tdpseTerbit",
      "id": 959,
      "attributes": {
        "nomor_pb_umku": null,
        "nama": "Itruzz",
        "website": "https://www.itruzz.com/",
        "sektor": "Sektor Keuangan, Sektor Teknologi Informasi dan Komunikasi",
        "nama_perusahaan": "INOVASI KREDIT INDONESIA",
        "tanggal_daftar": "2021-05-11",
        "nomor_tanda_daftar": "000720.01/DJAI.PSE/05/2021",
        "qr_code": "https://pse.kominfo.go.id/storage/images/qr_code/12f9f60082d4bb17e853f1ad014068bf.png",
        "status_id": "TERDAFTAR",
        "sistem_elektronik_id": 2516
      }
    },
    {
      "type": "tdpseTerbit",
      "id": 958,
      "attributes": {
        "nomor_pb_umku": null,
        "nama": "Holla",
        "website": "www.Holla.co.id",
        "sektor": "Sektor Perdagangan",
        "nama_perusahaan": "HOLLA GLOBAL INDONESIA",
        "tanggal_daftar": "2021-05-11",
        "nomor_tanda_daftar": "000719.01/DJAI.PSE/05/2021",
        "qr_code": "https://pse.kominfo.go.id/storage/images/qr_code/1462b155736bc4f45f88f76a4127cece.png",
        "status_id": "TERDAFTAR",
        "sistem_elektronik_id": 3307
      }
    },
    {
      "type": "tdpseTerbit",
      "id": 957,
      "attributes": {
        "nomor_pb_umku": null,
        "nama": "FINPLUS",
        "website": "www.finplus.co.id",
        "sektor": "Sektor Keuangan",
        "nama_perusahaan": "REZEKI BERSAMA TEKNOLOGI",
        "tanggal_daftar": "2021-05-11",
        "nomor_tanda_daftar": "000718.01/DJAI.PSE/05/2021",
        "qr_code": "https://pse.kominfo.go.id/storage/images/qr_code/71d9a4cc78d7f3ed97201fa4032da672.png",
        "status_id": "TERDAFTAR",
        "sistem_elektronik_id": 2531
      }
    },
    {
      "type": "tdpseTerbit",
      "id": 1035,
      "attributes": {
        "nomor_pb_umku": null,
        "nama": "DANA SIAP",
        "website": "Http://www.danasiap.com/",
        "sektor": "Sektor Teknologi Informasi dan Komunikasi",
        "nama_perusahaan": "SIMPAN PINJAM DANA KESUKSESAN INDONESIA",
        "tanggal_daftar": "2021-05-18",
        "nomor_tanda_daftar": "000717.02/DJAI.PSE/05/2021",
        "qr_code": "https://pse.kominfo.go.id/storage/images/qr_code/a4ff824d21c325a31e65c3b691bcab3f.png",
        "status_id": "TERDAFTAR",
        "sistem_elektronik_id": 709
      }
    },
    {
      "type": "tdpseTerbit",
      "id": 956,
      "attributes": {
        "nomor_pb_umku": null,
        "nama": "MONEYGET",
        "website": "http://www.moneyget.com/",
        "sektor": "Sektor Teknologi Informasi dan Komunikasi",
        "nama_perusahaan": "SIMPAN PINJAM DANA KESUKSESAN INDONESIA",
        "tanggal_daftar": "2021-05-11",
        "nomor_tanda_daftar": "000717.01/DJAI.PSE/05/2021",
        "qr_code": "https://pse.kominfo.go.id/storage/images/qr_code/e283e444c084b8c3f64f0994aee7b16c.png",
        "status_id": "TERDAFTAR",
        "sistem_elektronik_id": 708
      }
    }
  ]
}