{
  "meta": {
    "page": {
      "currentPage": 760,
      "from": 7591,
      "lastPage": 1063,
      "perPage": 10,
      "to": 7600,
      "total": 10630
    }
  },
  "data": [
    {
      "type": "tdpseTerbit",
      "id": 2394,
      "attributes": {
        "nomor_pb_umku": null,
        "nama": "Circle K Shopping",
        "website": "-",
        "sektor": "Sektor Perdagangan",
        "nama_perusahaan": "CIRCLEKA INDONESIA UTAMA",
        "tanggal_daftar": "2021-11-17",
        "nomor_tanda_daftar": "001574.01/DJAI.PSE/11/2021",
        "qr_code": "https://pse.kominfo.go.id/storage/images/qr_code/5025f49d7eba44839c84a96b2b6b7eed.png",
        "status_id": "TERDAFTAR",
        "sistem_elektronik_id": 405
      }
    },
    {
      "type": "tdpseTerbit",
      "id": 2393,
      "attributes": {
        "nomor_pb_umku": null,
        "nama": "kaskita",
        "website": "www.kaskita.id",
        "sektor": "Sektor Perdagangan, Sektor Teknologi Informasi dan Komunikasi",
        "nama_perusahaan": "ANDHIRA DIGITAL MANDIRI",
        "tanggal_daftar": "2021-11-17",
        "nomor_tanda_daftar": "001573.01/DJAI.PSE/11/2021",
        "qr_code": "https://pse.kominfo.go.id/storage/images/qr_code/fdf9b58b357faea7a18b5017076a411b.png",
        "status_id": "TERDAFTAR",
        "sistem_elektronik_id": 1583
      }
    },
    {
      "type": "tdpseTerbit",
      "id": 2643,
      "attributes": {
        "nomor_pb_umku": null,
        "nama": "PT. METAVERSE INDO JAYA",
        "website": "cindrum.com",
        "sektor": "Sektor Perdagangan, Sektor Teknologi Informasi dan Komunikasi",
        "nama_perusahaan": "METAVERSE INDO JAYA",
        "tanggal_daftar": "2021-12-07",
        "nomor_tanda_daftar": "001572.02/DJAI.PSE/12/2021",
        "qr_code": "https://pse.kominfo.go.id/storage/images/qr_code/c20c4c2c2efca0a84029285d9d5ef950.png",
        "status_id": "TERDAFTAR",
        "sistem_elektronik_id": 1576
      }
    },
    {
      "type": "tdpseTerbit",
      "id": 2392,
      "attributes": {
        "nomor_pb_umku": null,
        "nama": "PT. METAVERSE INDO JAYA",
        "website": "cindrum.com",
        "sektor": "Sektor Teknologi Informasi dan Komunikasi",
        "nama_perusahaan": "METAVERSE INDO JAYA",
        "tanggal_daftar": "2021-11-17",
        "nomor_tanda_daftar": "001572.01/DJAI.PSE/11/2021",
        "qr_code": "https://pse.kominfo.go.id/storage/images/qr_code/903da2839868ed287f85305e0b320653.png",
        "status_id": "TERDAFTAR",
        "sistem_elektronik_id": 1575
      }
    },
    {
      "type": "tdpseTerbit",
      "id": 2389,
      "attributes": {
        "nomor_pb_umku": null,
        "nama": "NAWANUSA",
        "website": "traveloka.co.id",
        "sektor": "Sektor Kesehatan, Sektor Teknologi Informasi dan Komunikasi",
        "nama_perusahaan": "NAWANUSA MEDIKA TEKNOLOGI",
        "tanggal_daftar": "2021-11-16",
        "nomor_tanda_daftar": "001571.01/DJAI.PSE/11/2021",
        "qr_code": "https://pse.kominfo.go.id/storage/images/qr_code/09498bf67e31d965538c7a769dd1a67d.png",
        "status_id": "TERDAFTAR",
        "sistem_elektronik_id": 1580
      }
    },
    {
      "type": "tdpseTerbit",
      "id": 2388,
      "attributes": {
        "nomor_pb_umku": null,
        "nama": "Flash Express",
        "website": "flashexpress.id",
        "sektor": "Sektor Transportasi",
        "nama_perusahaan": "FLASH EXPRESS INDONESIA",
        "tanggal_daftar": "2021-11-16",
        "nomor_tanda_daftar": "001570.01/DJAI.PSE/11/2021",
        "qr_code": "https://pse.kominfo.go.id/storage/images/qr_code/b221c81f5492b049f1c6dc924cf6e298.png",
        "status_id": "TERDAFTAR",
        "sistem_elektronik_id": 1532
      }
    },
    {
      "type": "tdpseTerbit",
      "id": 2387,
      "attributes": {
        "nomor_pb_umku": null,
        "nama": "twonline",
        "website": "twonline.co.id",
        "sektor": "Sektor Perdagangan",
        "nama_perusahaan": "TUNAS WIJAYA LAKSANA",
        "tanggal_daftar": "2021-11-16",
        "nomor_tanda_daftar": "001569.01/DJAI.PSE/11/2021",
        "qr_code": "https://pse.kominfo.go.id/storage/images/qr_code/83132c3536de117fad98bb2a364d627e.png",
        "status_id": "TERDAFTAR",
        "sistem_elektronik_id": 1535
      }
    },
    {
      "type": "tdpseTerbit",
      "id": 2386,
      "attributes": {
        "nomor_pb_umku": null,
        "nama": "KODECUT",
        "website": "app.kodecut.com",
        "sektor": "Sektor Perdagangan",
        "nama_perusahaan": "KODECUT DIGITAL MEDIA",
        "tanggal_daftar": "2021-11-16",
        "nomor_tanda_daftar": "001568.01/DJAI.PSE/11/2021",
        "qr_code": "https://pse.kominfo.go.id/storage/images/qr_code/899b818659b62424b508b8f93d31d1e9.png",
        "status_id": "TERDAFTAR",
        "sistem_elektronik_id": 1567
      }
    },
    {
      "type": "tdpseTerbit",
      "id": 2385,
      "attributes": {
        "nomor_pb_umku": null,
        "nama": "sketsketch",
        "website": "sketsketch.com",
        "sektor": "Sektor Perdagangan",
        "nama_perusahaan": "ALDRIANSYAH PUTRA",
        "tanggal_daftar": "2021-11-16",
        "nomor_tanda_daftar": "001567.01/DJAI.PSE/11/2021",
        "qr_code": "https://pse.kominfo.go.id/storage/images/qr_code/2a0342a0e6cba6968a922accc45975f3.png",
        "status_id": "TERDAFTAR",
        "sistem_elektronik_id": 1568
      }
    },
    {
      "type": "tdpseTerbit",
      "id": 2384,
      "attributes": {
        "nomor_pb_umku": null,
        "nama": "8PROP",
        "website": "rea-id.com",
        "sektor": "Sektor Teknologi Informasi dan Komunikasi",
        "nama_perusahaan": "REAL ESTATE ANALYTICS INDONESIA",
        "tanggal_daftar": "2021-11-16",
        "nomor_tanda_daftar": "001566.01/DJAI.PSE/11/2021",
        "qr_code": "https://pse.kominfo.go.id/storage/images/qr_code/47e83a68b86d84e2e3471fad74ff2456.png",
        "status_id": "TERDAFTAR",
        "sistem_elektronik_id": 1579
      }
    }
  ]
}