{
  "meta": {
    "page": {
      "currentPage": 761,
      "from": 7601,
      "lastPage": 985,
      "perPage": 10,
      "to": 7610,
      "total": 9842
    }
  },
  "data": [
    {
      "type": "tdpseTerbit",
      "id": 5745,
      "attributes": {
        "nomor_pb_umku": "912040985125700010001",
        "nama": "WWW.BANKMAS.CO.ID",
        "website": "bankmas.co.id",
        "sektor": "Sektor Keuangan",
        "nama_perusahaan": "BANK MULTIARTA SENTOSA",
        "tanggal_daftar": "2022-07-15",
        "nomor_tanda_daftar": "001066.03/DJAI.PSE/07/2022",
        "qr_code": "https://pse.kominfo.go.id/storage/images/qr_code/be1c7cf63669c952792bdd2d06517db7.png",
        "status_id": "TERDAFTAR",
        "sistem_elektronik_id": 5553
      }
    },
    {
      "type": "tdpseTerbit",
      "id": 1659,
      "attributes": {
        "nomor_pb_umku": null,
        "nama": "Mobile Banking",
        "website": "https:/www.bankmas.co.id",
        "sektor": "Sektor Keuangan, Sektor Teknologi Informasi dan Komunikasi",
        "nama_perusahaan": "BANK MULTIARTA SENTOSA",
        "tanggal_daftar": "2021-07-08",
        "nomor_tanda_daftar": "001066.02/DJAI.PSE/07/2021",
        "qr_code": "https://pse.kominfo.go.id/storage/images/qr_code/b4c2408bd0acdde41d3aed91247d28a5.png",
        "status_id": "TERDAFTAR",
        "sistem_elektronik_id": 1048
      }
    },
    {
      "type": "tdpseTerbit",
      "id": 1617,
      "attributes": {
        "nomor_pb_umku": null,
        "nama": "Internet Banking",
        "website": "https:/www.bankmas.co.id",
        "sektor": "Sektor Keuangan, Sektor Teknologi Informasi dan Komunikasi",
        "nama_perusahaan": "BANK MULTIARTA SENTOSA",
        "tanggal_daftar": "2021-07-01",
        "nomor_tanda_daftar": "001066.01/DJAI.PSE/07/2021",
        "qr_code": "https://pse.kominfo.go.id/storage/images/qr_code/9556e5a88e32f655f12878c0c139341d.png",
        "status_id": "TERDAFTAR",
        "sistem_elektronik_id": 1047
      }
    },
    {
      "type": "tdpseTerbit",
      "id": 1616,
      "attributes": {
        "nomor_pb_umku": null,
        "nama": "Hi-Commerce",
        "website": "hicommerce.co.id",
        "sektor": "Sektor Perdagangan, Sektor Teknologi Informasi dan Komunikasi",
        "nama_perusahaan": "HAI CIPTA INOVASI",
        "tanggal_daftar": "2021-07-01",
        "nomor_tanda_daftar": "001065.01/DJAI.PSE/07/2021",
        "qr_code": "https://pse.kominfo.go.id/storage/images/qr_code/3c703fa8f96551eadeb126ee68527576.png",
        "status_id": "TERDAFTAR",
        "sistem_elektronik_id": 758
      }
    },
    {
      "type": "tdpseTerbit",
      "id": 1615,
      "attributes": {
        "nomor_pb_umku": null,
        "nama": "Just Kidding",
        "website": "-",
        "sektor": "Sektor Perdagangan",
        "nama_perusahaan": "JUST KIDDING INDONESIA",
        "tanggal_daftar": "2021-07-01",
        "nomor_tanda_daftar": "001064.01/DJAI.PSE/07/2021",
        "qr_code": "https://pse.kominfo.go.id/storage/images/qr_code/18613fbf03264ac5263b66e154a343c9.png",
        "status_id": "TERDAFTAR",
        "sistem_elektronik_id": 1011
      }
    },
    {
      "type": "tdpseTerbit",
      "id": 9308,
      "attributes": {
        "nomor_pb_umku": "124100053157600020001",
        "nama": "MATHPRESSO QANDA",
        "website": "Qandaindonesia.com",
        "sektor": "Sektor Teknologi Informasi dan Komunikasi",
        "nama_perusahaan": "MATHPRESSO QANDA INDONESIA",
        "tanggal_daftar": "2022-07-28",
        "nomor_tanda_daftar": "001063.02/DJAI.PSE/07/2022",
        "qr_code": "https://pse.kominfo.go.id/storage/images/qr_code/974d9503ba75a26517ab264baedfa888.png",
        "status_id": "TERDAFTAR",
        "sistem_elektronik_id": 9020
      }
    },
    {
      "type": "tdpseTerbit",
      "id": 1614,
      "attributes": {
        "nomor_pb_umku": null,
        "nama": "Qandaindonesia.com",
        "website": "Qandaindonesia.com",
        "sektor": "Sektor Teknologi Informasi dan Komunikasi",
        "nama_perusahaan": "MATHPRESSO QANDA INDONESIA",
        "tanggal_daftar": "2021-07-01",
        "nomor_tanda_daftar": "001063.01/DJAI.PSE/07/2021",
        "qr_code": "https://pse.kominfo.go.id/storage/images/qr_code/12e27ac5ab9adfc55e2f74fa75c309b7.png",
        "status_id": "TERDAFTAR",
        "sistem_elektronik_id": 1150
      }
    },
    {
      "type": "tdpseTerbit",
      "id": 1612,
      "attributes": {
        "nomor_pb_umku": null,
        "nama": "RiauBISA.com",
        "website": "https://www.riaubisa.com",
        "sektor": "Sektor Teknologi Informasi dan Komunikasi",
        "nama_perusahaan": "RIAU BISA MEDIA",
        "tanggal_daftar": "2021-07-01",
        "nomor_tanda_daftar": "001062.01/DJAI.PSE/07/2021",
        "qr_code": "https://pse.kominfo.go.id/storage/images/qr_code/6f6535a6038b1219b61dd38a606ae14e.png",
        "status_id": "TERDAFTAR",
        "sistem_elektronik_id": 1193
      }
    },
    {
      "type": "tdpseTerbit",
      "id": 1611,
      "attributes": {
        "nomor_pb_umku": null,
        "nama": "XARDRIANO KERUB BEJANA",
        "website": "www.kickstox.com",
        "sektor": "Sektor Teknologi Informasi dan Komunikasi",
        "nama_perusahaan": "XARDRIANO KERUB BEJANA",
        "tanggal_daftar": "2021-07-01",
        "nomor_tanda_daftar": "001061.01/DJAI.PSE/07/2021",
        "qr_code": "https://pse.kominfo.go.id/storage/images/qr_code/002f31331c9fe298116bf050adaffa9c.png",
        "status_id": "TERDAFTAR",
        "sistem_elektronik_id": 1188
      }
    },
    {
      "type": "tdpseTerbit",
      "id": 1608,
      "attributes": {
        "nomor_pb_umku": null,
        "nama": "SakuCeria",
        "website": "https://sakuceria.id",
        "sektor": "Sektor Keuangan",
        "nama_perusahaan": "SOLUSI BIJAK INDONESIA",
        "tanggal_daftar": "2021-07-01",
        "nomor_tanda_daftar": "001060.01/DJAI.PSE/07/2021",
        "qr_code": "https://pse.kominfo.go.id/storage/images/qr_code/40ab595fb457b040de291228637b8474.png",
        "status_id": "TERDAFTAR",
        "sistem_elektronik_id": 1191
      }
    }
  ]
}