{
  "meta": {
    "page": {
      "currentPage": 762,
      "from": 7611,
      "lastPage": 890,
      "perPage": 10,
      "to": 7620,
      "total": 8897
    }
  },
  "data": [
    {
      "type": "tdpseTerbit",
      "id": 5343,
      "attributes": {
        "nomor_pb_umku": "912031427139300030004",
        "nama": "WEBSITE MNC LEASING",
        "website": "mncleasing.com",
        "sektor": "Sektor Keuangan",
        "nama_perusahaan": "MNC GUNA USAHA INDONESIA",
        "tanggal_daftar": "2022-07-12",
        "nomor_tanda_daftar": "000647.04/DJAI.PSE/07/2022",
        "qr_code": "https://pse.kominfo.go.id/storage/images/qr_code/de189b00c92ccfb8ceea9fbc6c81c413.png",
        "status_id": "TERDAFTAR",
        "sistem_elektronik_id": 5216
      }
    },
    {
      "type": "tdpseTerbit",
      "id": 4252,
      "attributes": {
        "nomor_pb_umku": "912031427139300030003",
        "nama": "MOTION CREDIT",
        "website": "MotionCredit.id",
        "sektor": "Sektor Keuangan",
        "nama_perusahaan": "MNC GUNA USAHA INDONESIA",
        "tanggal_daftar": "2022-06-07",
        "nomor_tanda_daftar": "000647.03/DJAI.PSE/06/2022",
        "qr_code": "https://pse.kominfo.go.id/storage/images/qr_code/35d1d0398854db385f5973f67c8f751f.png",
        "status_id": "TERDAFTAR",
        "sistem_elektronik_id": 4245
      }
    },
    {
      "type": "tdpseTerbit",
      "id": 809,
      "attributes": {
        "nomor_pb_umku": null,
        "nama": "SiapHaji.com",
        "website": "https://siaphaji.com",
        "sektor": "Sektor Keuangan",
        "nama_perusahaan": "MNC GUNA USAHA INDONESIA",
        "tanggal_daftar": "2021-05-07",
        "nomor_tanda_daftar": "000647.02/DJAI.PSE/05/2021",
        "qr_code": "https://pse.kominfo.go.id/storage/images/qr_code/46075999c2a984f794ec98df91aeb50a.png",
        "status_id": "TERDAFTAR",
        "sistem_elektronik_id": 583
      }
    },
    {
      "type": "tdpseTerbit",
      "id": 807,
      "attributes": {
        "nomor_pb_umku": null,
        "nama": "Aplikasi Mobile MNC Leasing",
        "website": "-",
        "sektor": "Sektor Keuangan",
        "nama_perusahaan": "MNC GUNA USAHA INDONESIA",
        "tanggal_daftar": "2021-05-07",
        "nomor_tanda_daftar": "000647.01/DJAI.PSE/05/2021",
        "qr_code": "https://pse.kominfo.go.id/storage/images/qr_code/62385395cb12914f73b9dab8345280c5.png",
        "status_id": "TERDAFTAR",
        "sistem_elektronik_id": 582
      }
    },
    {
      "type": "tdpseTerbit",
      "id": 806,
      "attributes": {
        "nomor_pb_umku": null,
        "nama": "Pohon Pengetahuan Tambah Ilmu",
        "website": "http://pohonpengetahuantambahilmu.co.id",
        "sektor": "Sektor Perdagangan, Sektor Teknologi Informasi dan Komunikasi",
        "nama_perusahaan": "EFSU DIGITAL INDONESIA",
        "tanggal_daftar": "2021-05-07",
        "nomor_tanda_daftar": "000646.01/DJAI.PSE/05/2021",
        "qr_code": "https://pse.kominfo.go.id/storage/images/qr_code/dd6a08b085560fbcee0c38e303910c2e.png",
        "status_id": "TERDAFTAR",
        "sistem_elektronik_id": 334
      }
    },
    {
      "type": "tdpseTerbit",
      "id": 9610,
      "attributes": {
        "nomor_pb_umku": "",
        "nama": "PUBLIC WEBSITE (PWS) MANULIFE INDONESIA",
        "website": "manulife.co.id",
        "sektor": "Sektor Keuangan",
        "nama_perusahaan": "ASURANSI JIWA MANULIFE INDONESIA",
        "tanggal_daftar": "2022-08-01",
        "nomor_tanda_daftar": "000645.06/DJAI.PSE/08/2022",
        "qr_code": "https://pse.kominfo.go.id/storage/images/qr_code/272281048806626d51f9e86ba5157945.png",
        "status_id": "TERDAFTAR",
        "sistem_elektronik_id": 9499
      }
    },
    {
      "type": "tdpseTerbit",
      "id": 7069,
      "attributes": {
        "nomor_pb_umku": "812021129139900020004",
        "nama": "MIPOS",
        "website": "manulife.com",
        "sektor": "Sektor Keuangan",
        "nama_perusahaan": "ASURANSI JIWA MANULIFE INDONESIA",
        "tanggal_daftar": "2022-07-19",
        "nomor_tanda_daftar": "000645.05/DJAI.PSE/07/2022",
        "qr_code": "https://pse.kominfo.go.id/storage/images/qr_code/1af1f888502473b667675588e7c7ceb5.png",
        "status_id": "TERDAFTAR",
        "sistem_elektronik_id": 6938
      }
    },
    {
      "type": "tdpseTerbit",
      "id": 5469,
      "attributes": {
        "nomor_pb_umku": "",
        "nama": "MIE-CLAIM",
        "website": "eclaim.manulife.co.id",
        "sektor": "Sektor Keuangan",
        "nama_perusahaan": "ASURANSI JIWA MANULIFE INDONESIA",
        "tanggal_daftar": "2022-07-13",
        "nomor_tanda_daftar": "000645.04/DJAI.PSE/07/2022",
        "qr_code": "https://pse.kominfo.go.id/storage/images/qr_code/43c82674befa8a8f97d90a733a8dcf98.png",
        "status_id": "TERDAFTAR",
        "sistem_elektronik_id": 5341
      }
    },
    {
      "type": "tdpseTerbit",
      "id": 1012,
      "attributes": {
        "nomor_pb_umku": null,
        "nama": "MiInfo",
        "website": "https://miinfo.manulife.co.id/idcws/login",
        "sektor": "Sektor Keuangan",
        "nama_perusahaan": "ASURANSI JIWA MANULIFE INDONESIA",
        "tanggal_daftar": "2021-05-18",
        "nomor_tanda_daftar": "000645.02/DJAI.PSE/05/2021",
        "qr_code": "https://pse.kominfo.go.id/storage/images/qr_code/20f8d24b69f45de3959ef4ac736ad722.png",
        "status_id": "TERDAFTAR",
        "sistem_elektronik_id": 526
      }
    },
    {
      "type": "tdpseTerbit",
      "id": 805,
      "attributes": {
        "nomor_pb_umku": null,
        "nama": "MiRecruit",
        "website": "https://mirecruit.manulife.co.id/",
        "sektor": "Sektor Keuangan",
        "nama_perusahaan": "ASURANSI JIWA MANULIFE INDONESIA",
        "tanggal_daftar": "2021-05-07",
        "nomor_tanda_daftar": "000645.01/DJAI.PSE/05/2021",
        "qr_code": "https://pse.kominfo.go.id/storage/images/qr_code/7da2389300dc0d232d16c7cdd58f9ee4.png",
        "status_id": "TERDAFTAR",
        "sistem_elektronik_id": 525
      }
    }
  ]
}