{
  "meta": {
    "page": {
      "currentPage": 763,
      "from": 7621,
      "lastPage": 890,
      "perPage": 10,
      "to": 7630,
      "total": 8897
    }
  },
  "data": [
    {
      "type": "tdpseTerbit",
      "id": 4224,
      "attributes": {
        "nomor_pb_umku": "912030654200900010001",
        "nama": "DKONSUL",
        "website": "dkonsul.com",
        "sektor": "Sektor Kesehatan",
        "nama_perusahaan": "GLOBAL URBAN ESENSIAL",
        "tanggal_daftar": "2022-06-03",
        "nomor_tanda_daftar": "000644.06/DJAI.PSE/06/2022",
        "qr_code": "https://pse.kominfo.go.id/storage/images/qr_code/472acfa3c720cb15a5440ca96e0e0087.png",
        "status_id": "TERDAFTAR",
        "sistem_elektronik_id": 4221
      }
    },
    {
      "type": "tdpseTerbit",
      "id": 996,
      "attributes": {
        "nomor_pb_umku": null,
        "nama": "GoApotik",
        "website": "www.goapotik.com",
        "sektor": "Sektor Kesehatan, Sektor Perdagangan",
        "nama_perusahaan": "GLOBAL URBAN ESENSIAL",
        "tanggal_daftar": "2021-05-17",
        "nomor_tanda_daftar": "000644.05/DJAI.PSE/05/2021",
        "qr_code": "https://pse.kominfo.go.id/storage/images/qr_code/b6444a7dd3271931ee03c2aa6368b812.png",
        "status_id": "TERDAFTAR",
        "sistem_elektronik_id": 3297
      }
    },
    {
      "type": "tdpseTerbit",
      "id": 964,
      "attributes": {
        "nomor_pb_umku": null,
        "nama": "GueSehat",
        "website": "guesehat.com, gueaehat.co.id, guesehat.id",
        "sektor": "Sektor Kesehatan",
        "nama_perusahaan": "GLOBAL URBAN ESENSIAL",
        "tanggal_daftar": "2021-05-11",
        "nomor_tanda_daftar": "000644.04/DJAI.PSE/05/2021",
        "qr_code": "https://pse.kominfo.go.id/storage/images/qr_code/bd5d53ed67194c719279ef102532626a.png",
        "status_id": "TERDAFTAR",
        "sistem_elektronik_id": 3296
      }
    },
    {
      "type": "tdpseTerbit",
      "id": 902,
      "attributes": {
        "nomor_pb_umku": null,
        "nama": "D2D (Doctor to Doctor)",
        "website": "https://d2d.co.id/",
        "sektor": "Sektor Kesehatan",
        "nama_perusahaan": "GLOBAL URBAN ESENSIAL",
        "tanggal_daftar": "2021-05-11",
        "nomor_tanda_daftar": "000644.03/DJAI.PSE/05/2021",
        "qr_code": "https://pse.kominfo.go.id/storage/images/qr_code/60adee0d86ebdedf0cd6d4f39305b7b2.png",
        "status_id": "TERDAFTAR",
        "sistem_elektronik_id": 3295
      }
    },
    {
      "type": "tdpseTerbit",
      "id": 901,
      "attributes": {
        "nomor_pb_umku": null,
        "nama": "Teman Diabetes",
        "website": "https://www.temandiabetes.com/",
        "sektor": "Sektor Kesehatan",
        "nama_perusahaan": "GLOBAL URBAN ESENSIAL",
        "tanggal_daftar": "2021-05-11",
        "nomor_tanda_daftar": "000644.02/DJAI.PSE/05/2021",
        "qr_code": "https://pse.kominfo.go.id/storage/images/qr_code/0ecd87b8b1ab13eb6976699e4f5f2c49.png",
        "status_id": "TERDAFTAR",
        "sistem_elektronik_id": 3294
      }
    },
    {
      "type": "tdpseTerbit",
      "id": 804,
      "attributes": {
        "nomor_pb_umku": null,
        "nama": "Teman Bumil",
        "website": "temanbumil.com, temanbumil.co.id, temanbumil.id",
        "sektor": "Sektor Kesehatan",
        "nama_perusahaan": "GLOBAL URBAN ESENSIAL",
        "tanggal_daftar": "2021-05-07",
        "nomor_tanda_daftar": "000644.01/DJAI.PSE/05/2021",
        "qr_code": "https://pse.kominfo.go.id/storage/images/qr_code/c615387a80632edaa95f22c28268e64e.png",
        "status_id": "TERDAFTAR",
        "sistem_elektronik_id": 3293
      }
    },
    {
      "type": "tdpseTerbit",
      "id": 1392,
      "attributes": {
        "nomor_pb_umku": null,
        "nama": "itemku",
        "website": "itemku.com",
        "sektor": "Sektor Perdagangan",
        "nama_perusahaan": "FIVE JACK",
        "tanggal_daftar": "2021-06-09",
        "nomor_tanda_daftar": "000643.02/DJAI.PSE/06/2021",
        "qr_code": "https://pse.kominfo.go.id/storage/images/qr_code/0a90e3c2497ba6d65a697842bddfd568.png",
        "status_id": "TERDAFTAR",
        "sistem_elektronik_id": 593
      }
    },
    {
      "type": "tdpseTerbit",
      "id": 803,
      "attributes": {
        "nomor_pb_umku": null,
        "nama": "itemku",
        "website": "itemku.com",
        "sektor": "Sektor Perdagangan, Sektor Teknologi Informasi dan Komunikasi",
        "nama_perusahaan": "FIVE JACK",
        "tanggal_daftar": "2021-05-07",
        "nomor_tanda_daftar": "000643.01/DJAI.PSE/05/2021",
        "qr_code": "https://pse.kominfo.go.id/storage/images/qr_code/d8133f41dbf46f3bbe694847cf949cc2.png",
        "status_id": "TERDAFTAR",
        "sistem_elektronik_id": 592
      }
    },
    {
      "type": "tdpseTerbit",
      "id": 802,
      "attributes": {
        "nomor_pb_umku": null,
        "nama": "CASHBIRD",
        "website": "http://www.cashbird.cn/",
        "sektor": "Sektor Teknologi Informasi dan Komunikasi",
        "nama_perusahaan": "SIMPAN PINJAM DANA BERKAH NIAGA",
        "tanggal_daftar": "2021-05-07",
        "nomor_tanda_daftar": "000642.01/DJAI.PSE/05/2021",
        "qr_code": "https://pse.kominfo.go.id/storage/images/qr_code/d0187ef46f926298f22c9d89a3513000.png",
        "status_id": "TERDAFTAR",
        "sistem_elektronik_id": 598
      }
    },
    {
      "type": "tdpseTerbit",
      "id": 1136,
      "attributes": {
        "nomor_pb_umku": null,
        "nama": "www.oranye.co.id",
        "website": "www.oranye.co.id",
        "sektor": "Sektor Teknologi Informasi dan Komunikasi",
        "nama_perusahaan": "MANJO TEKNOLOGI INDONESIA",
        "tanggal_daftar": "2021-06-02",
        "nomor_tanda_daftar": "000641.02/DJAI.PSE/06/2021",
        "qr_code": "https://pse.kominfo.go.id/storage/images/qr_code/4066669f400927307d88eed126508535.png",
        "status_id": "TERDAFTAR",
        "sistem_elektronik_id": 37
      }
    }
  ]
}