{
  "meta": {
    "page": {
      "currentPage": 764,
      "from": 7631,
      "lastPage": 1014,
      "perPage": 10,
      "to": 7640,
      "total": 10138
    }
  },
  "data": [
    {
      "type": "tdpseTerbit",
      "id": 1848,
      "attributes": {
        "nomor_pb_umku": null,
        "nama": "Advantee",
        "website": "www.Advantee.app",
        "sektor": "Sektor Keuangan",
        "nama_perusahaan": "ATOME FINANCE INDONESIA",
        "tanggal_daftar": "2021-08-03",
        "nomor_tanda_daftar": "001236.01/DJAI.PSE/08/2021",
        "qr_code": "https://pse.kominfo.go.id/storage/images/qr_code/383f5e7ec315d65fd9ec6458e60e1704.png",
        "status_id": "TERDAFTAR",
        "sistem_elektronik_id": 1403
      }
    },
    {
      "type": "tdpseTerbit",
      "id": 1847,
      "attributes": {
        "nomor_pb_umku": null,
        "nama": "Friendchised",
        "website": "https://friendchised.id/",
        "sektor": "Sektor Perdagangan",
        "nama_perusahaan": "AMIGO INTI INDONESIA",
        "tanggal_daftar": "2021-08-03",
        "nomor_tanda_daftar": "001235.01/DJAI.PSE/08/2021",
        "qr_code": "https://pse.kominfo.go.id/storage/images/qr_code/0ce5da749e65d45d90e72618e8b8a765.png",
        "status_id": "TERDAFTAR",
        "sistem_elektronik_id": 1392
      }
    },
    {
      "type": "tdpseTerbit",
      "id": 1846,
      "attributes": {
        "nomor_pb_umku": null,
        "nama": "Class Chatting",
        "website": "www.lestariilmu.id",
        "sektor": "Sektor Teknologi Informasi dan Komunikasi",
        "nama_perusahaan": "LESTARI DIGITAL TEXT",
        "tanggal_daftar": "2021-08-03",
        "nomor_tanda_daftar": "001234.01/DJAI.PSE/08/2021",
        "qr_code": "https://pse.kominfo.go.id/storage/images/qr_code/3a333e561309d3e67ad6c308d734e029.png",
        "status_id": "TERDAFTAR",
        "sistem_elektronik_id": 3357
      }
    },
    {
      "type": "tdpseTerbit",
      "id": 1845,
      "attributes": {
        "nomor_pb_umku": null,
        "nama": "Wappin",
        "website": "wappin.id",
        "sektor": "Sektor Teknologi Informasi dan Komunikasi",
        "nama_perusahaan": "SOLUSI PEMBAYARAN ELEKTRONIK",
        "tanggal_daftar": "2021-08-03",
        "nomor_tanda_daftar": "001233.01/DJAI.PSE/08/2021",
        "qr_code": "https://pse.kominfo.go.id/storage/images/qr_code/9f5fc434c43ad7c8363a9ea02e3ab78b.png",
        "status_id": "TERDAFTAR",
        "sistem_elektronik_id": 1357
      }
    },
    {
      "type": "tdpseTerbit",
      "id": 1844,
      "attributes": {
        "nomor_pb_umku": null,
        "nama": "KreditPro",
        "website": "https://kreditpro.id/",
        "sektor": "Sektor Keuangan",
        "nama_perusahaan": "TRI DIGI FIN",
        "tanggal_daftar": "2021-08-03",
        "nomor_tanda_daftar": "001232.01/DJAI.PSE/08/2021",
        "qr_code": "https://pse.kominfo.go.id/storage/images/qr_code/e87a0dbd674f91112849f924d0f05d09.png",
        "status_id": "TERDAFTAR",
        "sistem_elektronik_id": 1390
      }
    },
    {
      "type": "tdpseTerbit",
      "id": 1843,
      "attributes": {
        "nomor_pb_umku": null,
        "nama": "Shell GO+",
        "website": "-",
        "sektor": "Sektor Energi dan Sumber Daya Mineral, Sektor Perdagangan",
        "nama_perusahaan": "SHELL INDONESIA",
        "tanggal_daftar": "2021-08-03",
        "nomor_tanda_daftar": "001231.01/DJAI.PSE/08/2021",
        "qr_code": "https://pse.kominfo.go.id/storage/images/qr_code/3248e8a2c02c7570efa23bfecdf3f827.png",
        "status_id": "TERDAFTAR",
        "sistem_elektronik_id": 2813
      }
    },
    {
      "type": "tdpseTerbit",
      "id": 1841,
      "attributes": {
        "nomor_pb_umku": null,
        "nama": "UANG BULL",
        "website": "uangbull.id",
        "sektor": "Sektor Keuangan",
        "nama_perusahaan": "SIMPAN PINJAM JARINGAN USAHA SESAMA",
        "tanggal_daftar": "2021-08-03",
        "nomor_tanda_daftar": "001230.01/DJAI.PSE/08/2021",
        "qr_code": "https://pse.kominfo.go.id/storage/images/qr_code/6b7c5ead492bd3daa9483d074890d08e.png",
        "status_id": "TERDAFTAR",
        "sistem_elektronik_id": 3377
      }
    },
    {
      "type": "tdpseTerbit",
      "id": 1840,
      "attributes": {
        "nomor_pb_umku": null,
        "nama": "DUIT KEY",
        "website": "duitkey.id",
        "sektor": "Sektor Keuangan",
        "nama_perusahaan": "SIMPAN PINJAM GRAHA SUMBER MAKMUR",
        "tanggal_daftar": "2021-08-03",
        "nomor_tanda_daftar": "001229.01/DJAI.PSE/08/2021",
        "qr_code": "https://pse.kominfo.go.id/storage/images/qr_code/936b28333cdcb854f83f4ab658bcfdfd.png",
        "status_id": "TERDAFTAR",
        "sistem_elektronik_id": 3401
      }
    },
    {
      "type": "tdpseTerbit",
      "id": 1839,
      "attributes": {
        "nomor_pb_umku": null,
        "nama": "Kibble",
        "website": "www.kibble.id",
        "sektor": "Sektor Kesehatan, Sektor Teknologi Informasi dan Komunikasi",
        "nama_perusahaan": "MITRA INSAN GLOBAL",
        "tanggal_daftar": "2021-08-03",
        "nomor_tanda_daftar": "001228.01/DJAI.PSE/08/2021",
        "qr_code": "https://pse.kominfo.go.id/storage/images/qr_code/4746b11ee6e61feab911c7fa3adb1984.png",
        "status_id": "TERDAFTAR",
        "sistem_elektronik_id": 1398
      }
    },
    {
      "type": "tdpseTerbit",
      "id": 1837,
      "attributes": {
        "nomor_pb_umku": null,
        "nama": "JARINGAN DESA",
        "website": "-",
        "sektor": "Sektor Teknologi Informasi dan Komunikasi",
        "nama_perusahaan": "SARANA GENERASI DIGITAL",
        "tanggal_daftar": "2021-08-03",
        "nomor_tanda_daftar": "001227.01/DJAI.PSE/08/2021",
        "qr_code": "https://pse.kominfo.go.id/storage/images/qr_code/3fffa074312391ebf015971aab69c6ff.png",
        "status_id": "TERDAFTAR",
        "sistem_elektronik_id": 1372
      }
    }
  ]
}