{
  "meta": {
    "page": {
      "currentPage": 765,
      "from": 7641,
      "lastPage": 1074,
      "perPage": 10,
      "to": 7650,
      "total": 10738
    }
  },
  "data": [
    {
      "type": "tdpseTerbit",
      "id": 2569,
      "attributes": {
        "nomor_pb_umku": null,
        "nama": "E-Commerce KCG",
        "website": "www.charleskeith.co.id",
        "sektor": "Sektor Perdagangan",
        "nama_perusahaan": "KURNIA CIPTAKARYA GEMILANG",
        "tanggal_daftar": "2021-12-01",
        "nomor_tanda_daftar": "001615.02/DJAI.PSE/12/2021",
        "qr_code": "https://pse.kominfo.go.id/storage/images/qr_code/574a6b73cbd9352b223ea9e4ef686b65.png",
        "status_id": "TERDAFTAR",
        "sistem_elektronik_id": 1636
      }
    },
    {
      "type": "tdpseTerbit",
      "id": 2454,
      "attributes": {
        "nomor_pb_umku": null,
        "nama": "E-Commerce KCG",
        "website": "www.pedroshoes.co.id",
        "sektor": "Sektor Perdagangan",
        "nama_perusahaan": "KURNIA CIPTAKARYA GEMILANG",
        "tanggal_daftar": "2021-11-25",
        "nomor_tanda_daftar": "001615.01/DJAI.PSE/11/2021",
        "qr_code": "https://pse.kominfo.go.id/storage/images/qr_code/659f18a5842e1ff1fcf7e0e98561102e.png",
        "status_id": "TERDAFTAR",
        "sistem_elektronik_id": 1635
      }
    },
    {
      "type": "tdpseTerbit",
      "id": 2453,
      "attributes": {
        "nomor_pb_umku": null,
        "nama": "TRAVELO.ID",
        "website": "Https://travelo.id",
        "sektor": "Sektor Keuangan, Sektor Perdagangan, Sektor Teknologi Informasi dan Komunikasi, Sektor Transportasi",
        "nama_perusahaan": "CONFTECH DIGITAL INDONESIA",
        "tanggal_daftar": "2021-11-25",
        "nomor_tanda_daftar": "001614.01/DJAI.PSE/11/2021",
        "qr_code": "https://pse.kominfo.go.id/storage/images/qr_code/8f0ee9e3abbe327a7cd5b49c2e00af55.png",
        "status_id": "TERDAFTAR",
        "sistem_elektronik_id": 1697
      }
    },
    {
      "type": "tdpseTerbit",
      "id": 2452,
      "attributes": {
        "nomor_pb_umku": null,
        "nama": "PICTURE ARCHIVING AND COMMUNICATION SYSTEM",
        "website": "teleradiologi.digital",
        "sektor": "Sektor Kesehatan",
        "nama_perusahaan": "MOKERINDO MEDITRON INDONESIA",
        "tanggal_daftar": "2021-11-25",
        "nomor_tanda_daftar": "001613.01/DJAI.PSE/11/2021",
        "qr_code": "https://pse.kominfo.go.id/storage/images/qr_code/e5a4483c1bc396b5f84e836320c17913.png",
        "status_id": "TERDAFTAR",
        "sistem_elektronik_id": 1696
      }
    },
    {
      "type": "tdpseTerbit",
      "id": 2451,
      "attributes": {
        "nomor_pb_umku": null,
        "nama": "website WUNDAGI",
        "website": "https ://wundagi.com://wundagi.com",
        "sektor": "Sektor Kesehatan, Sektor Keuangan, Sektor Perdagangan, Sektor Teknologi Informasi dan Komunikasi",
        "nama_perusahaan": "KONFIGURASI TEKNO MEDIKA",
        "tanggal_daftar": "2021-11-25",
        "nomor_tanda_daftar": "001612.01/DJAI.PSE/11/2021",
        "qr_code": "https://pse.kominfo.go.id/storage/images/qr_code/5e4c69291ad9e6014aa23c1e2b488c92.png",
        "status_id": "TERDAFTAR",
        "sistem_elektronik_id": 1637
      }
    },
    {
      "type": "tdpseTerbit",
      "id": 2450,
      "attributes": {
        "nomor_pb_umku": null,
        "nama": "klikbuilding.com",
        "website": "https://klikbuilding.com/",
        "sektor": "Sektor Perdagangan, Sektor Teknologi Informasi dan Komunikasi",
        "nama_perusahaan": "SAMUDRA SRIYA ABADI",
        "tanggal_daftar": "2021-11-25",
        "nomor_tanda_daftar": "001611.01/DJAI.PSE/11/2021",
        "qr_code": "https://pse.kominfo.go.id/storage/images/qr_code/ad4123c66da85dfd23f1e6dbed08d0e2.png",
        "status_id": "TERDAFTAR",
        "sistem_elektronik_id": 1647
      }
    },
    {
      "type": "tdpseTerbit",
      "id": 2449,
      "attributes": {
        "nomor_pb_umku": null,
        "nama": "Pumpun Toko",
        "website": "pumpuntoko.com",
        "sektor": "Sektor Keuangan, Sektor Perdagangan, Sektor Transportasi",
        "nama_perusahaan": "PUMPUN TOKO JAYA",
        "tanggal_daftar": "2021-11-24",
        "nomor_tanda_daftar": "001610.01/DJAI.PSE/11/2021",
        "qr_code": "https://pse.kominfo.go.id/storage/images/qr_code/968acc62fb2e0a73a9e78e3f9c40190d.png",
        "status_id": "TERDAFTAR",
        "sistem_elektronik_id": 1648
      }
    },
    {
      "type": "tdpseTerbit",
      "id": 7704,
      "attributes": {
        "nomor_pb_umku": "912000992006600070008",
        "nama": "JASINDO TRAVEL",
        "website": "jasindotravel.co.id",
        "sektor": "Sektor Keuangan",
        "nama_perusahaan": "ASURANSI JASA INDONESIA",
        "tanggal_daftar": "2022-07-20",
        "nomor_tanda_daftar": "001609.09/DJAI.PSE/07/2022",
        "qr_code": "https://pse.kominfo.go.id/storage/images/qr_code/56eba8126b8cfc4bfef0577ac91c1f8d.png",
        "status_id": "TERDAFTAR",
        "sistem_elektronik_id": 7608
      }
    },
    {
      "type": "tdpseTerbit",
      "id": 6729,
      "attributes": {
        "nomor_pb_umku": "912000992006600070007",
        "nama": "WEBAPP JASINDO",
        "website": "webapp.asuransijasindo.co.id",
        "sektor": "Sektor Keuangan",
        "nama_perusahaan": "ASURANSI JASA INDONESIA",
        "tanggal_daftar": "2022-07-19",
        "nomor_tanda_daftar": "001609.07/DJAI.PSE/07/2022",
        "qr_code": "https://pse.kominfo.go.id/storage/images/qr_code/457333ed2f5db58f862a96f9e83ae707.png",
        "status_id": "TERDAFTAR",
        "sistem_elektronik_id": 6577
      }
    },
    {
      "type": "tdpseTerbit",
      "id": 6430,
      "attributes": {
        "nomor_pb_umku": "912000992006600070006",
        "nama": "APLIKASI VIRTUAL CLAIM POSINDO",
        "website": "klaimposindo.asuransijasindo.co.id",
        "sektor": "Sektor Keuangan",
        "nama_perusahaan": "ASURANSI JASA INDONESIA",
        "tanggal_daftar": "2022-07-18",
        "nomor_tanda_daftar": "001609.06/DJAI.PSE/07/2022",
        "qr_code": "https://pse.kominfo.go.id/storage/images/qr_code/295f2c2f8d9b3637b68b13e4b3c86be9.png",
        "status_id": "TERDAFTAR",
        "sistem_elektronik_id": 6299
      }
    }
  ]
}