{
  "meta": {
    "page": {
      "currentPage": 767,
      "from": 7661,
      "lastPage": 1070,
      "perPage": 10,
      "to": 7670,
      "total": 10698
    }
  },
  "data": [
    {
      "type": "tdpseTerbit",
      "id": 2392,
      "attributes": {
        "nomor_pb_umku": null,
        "nama": "PT. METAVERSE INDO JAYA",
        "website": "cindrum.com",
        "sektor": "Sektor Teknologi Informasi dan Komunikasi",
        "nama_perusahaan": "METAVERSE INDO JAYA",
        "tanggal_daftar": "2021-11-17",
        "nomor_tanda_daftar": "001572.01/DJAI.PSE/11/2021",
        "qr_code": "https://pse.kominfo.go.id/storage/images/qr_code/903da2839868ed287f85305e0b320653.png",
        "status_id": "TERDAFTAR",
        "sistem_elektronik_id": 1575
      }
    },
    {
      "type": "tdpseTerbit",
      "id": 2389,
      "attributes": {
        "nomor_pb_umku": null,
        "nama": "NAWANUSA",
        "website": "traveloka.co.id",
        "sektor": "Sektor Kesehatan, Sektor Teknologi Informasi dan Komunikasi",
        "nama_perusahaan": "NAWANUSA MEDIKA TEKNOLOGI",
        "tanggal_daftar": "2021-11-16",
        "nomor_tanda_daftar": "001571.01/DJAI.PSE/11/2021",
        "qr_code": "https://pse.kominfo.go.id/storage/images/qr_code/09498bf67e31d965538c7a769dd1a67d.png",
        "status_id": "TERDAFTAR",
        "sistem_elektronik_id": 1580
      }
    },
    {
      "type": "tdpseTerbit",
      "id": 2388,
      "attributes": {
        "nomor_pb_umku": null,
        "nama": "Flash Express",
        "website": "flashexpress.id",
        "sektor": "Sektor Transportasi",
        "nama_perusahaan": "FLASH EXPRESS INDONESIA",
        "tanggal_daftar": "2021-11-16",
        "nomor_tanda_daftar": "001570.01/DJAI.PSE/11/2021",
        "qr_code": "https://pse.kominfo.go.id/storage/images/qr_code/b221c81f5492b049f1c6dc924cf6e298.png",
        "status_id": "TERDAFTAR",
        "sistem_elektronik_id": 1532
      }
    },
    {
      "type": "tdpseTerbit",
      "id": 2387,
      "attributes": {
        "nomor_pb_umku": null,
        "nama": "twonline",
        "website": "twonline.co.id",
        "sektor": "Sektor Perdagangan",
        "nama_perusahaan": "TUNAS WIJAYA LAKSANA",
        "tanggal_daftar": "2021-11-16",
        "nomor_tanda_daftar": "001569.01/DJAI.PSE/11/2021",
        "qr_code": "https://pse.kominfo.go.id/storage/images/qr_code/83132c3536de117fad98bb2a364d627e.png",
        "status_id": "TERDAFTAR",
        "sistem_elektronik_id": 1535
      }
    },
    {
      "type": "tdpseTerbit",
      "id": 2386,
      "attributes": {
        "nomor_pb_umku": null,
        "nama": "KODECUT",
        "website": "app.kodecut.com",
        "sektor": "Sektor Perdagangan",
        "nama_perusahaan": "KODECUT DIGITAL MEDIA",
        "tanggal_daftar": "2021-11-16",
        "nomor_tanda_daftar": "001568.01/DJAI.PSE/11/2021",
        "qr_code": "https://pse.kominfo.go.id/storage/images/qr_code/899b818659b62424b508b8f93d31d1e9.png",
        "status_id": "TERDAFTAR",
        "sistem_elektronik_id": 1567
      }
    },
    {
      "type": "tdpseTerbit",
      "id": 2385,
      "attributes": {
        "nomor_pb_umku": null,
        "nama": "sketsketch",
        "website": "sketsketch.com",
        "sektor": "Sektor Perdagangan",
        "nama_perusahaan": "ALDRIANSYAH PUTRA",
        "tanggal_daftar": "2021-11-16",
        "nomor_tanda_daftar": "001567.01/DJAI.PSE/11/2021",
        "qr_code": "https://pse.kominfo.go.id/storage/images/qr_code/2a0342a0e6cba6968a922accc45975f3.png",
        "status_id": "TERDAFTAR",
        "sistem_elektronik_id": 1568
      }
    },
    {
      "type": "tdpseTerbit",
      "id": 2384,
      "attributes": {
        "nomor_pb_umku": null,
        "nama": "8PROP",
        "website": "rea-id.com",
        "sektor": "Sektor Teknologi Informasi dan Komunikasi",
        "nama_perusahaan": "REAL ESTATE ANALYTICS INDONESIA",
        "tanggal_daftar": "2021-11-16",
        "nomor_tanda_daftar": "001566.01/DJAI.PSE/11/2021",
        "qr_code": "https://pse.kominfo.go.id/storage/images/qr_code/47e83a68b86d84e2e3471fad74ff2456.png",
        "status_id": "TERDAFTAR",
        "sistem_elektronik_id": 1579
      }
    },
    {
      "type": "tdpseTerbit",
      "id": 2383,
      "attributes": {
        "nomor_pb_umku": null,
        "nama": "Travelio",
        "website": "Travelio.com",
        "sektor": "Sektor Perdagangan",
        "nama_perusahaan": "HORIZON INTERNUSA PERSADA",
        "tanggal_daftar": "2021-11-16",
        "nomor_tanda_daftar": "001565.01/DJAI.PSE/11/2021",
        "qr_code": "https://pse.kominfo.go.id/storage/images/qr_code/af42b0e5df188e89d13307485104e838.png",
        "status_id": "TERDAFTAR",
        "sistem_elektronik_id": 3348
      }
    },
    {
      "type": "tdpseTerbit",
      "id": 2692,
      "attributes": {
        "nomor_pb_umku": null,
        "nama": "ICS Platform",
        "website": "-",
        "sektor": "Sektor Teknologi Informasi dan Komunikasi",
        "nama_perusahaan": "IMPACT CREDIT SOLUTIONS",
        "tanggal_daftar": "2021-12-09",
        "nomor_tanda_daftar": "001564.02/DJAI.PSE/12/2021",
        "qr_code": "https://pse.kominfo.go.id/storage/images/qr_code/036a283b2b65eb1c50fb988c4e7a268c.png",
        "status_id": "TERDAFTAR",
        "sistem_elektronik_id": 1570
      }
    },
    {
      "type": "tdpseTerbit",
      "id": 2381,
      "attributes": {
        "nomor_pb_umku": null,
        "nama": "Nikel Platform",
        "website": "-",
        "sektor": "Sektor Teknologi Informasi dan Komunikasi",
        "nama_perusahaan": "IMPACT CREDIT SOLUTIONS",
        "tanggal_daftar": "2021-11-15",
        "nomor_tanda_daftar": "001564.01/DJAI.PSE/11/2021",
        "qr_code": "https://pse.kominfo.go.id/storage/images/qr_code/714b283b75f5d742cce50da06ac96e6a.png",
        "status_id": "TERDAFTAR",
        "sistem_elektronik_id": 1569
      }
    }
  ]
}