{
  "meta": {
    "page": {
      "currentPage": 768,
      "from": 7671,
      "lastPage": 1052,
      "perPage": 10,
      "to": 7680,
      "total": 10513
    }
  },
  "data": [
    {
      "type": "tdpseTerbit",
      "id": 2243,
      "attributes": {
        "nomor_pb_umku": null,
        "nama": "Bukusekolahku",
        "website": "https://new.bukusekolahku.com",
        "sektor": "Sektor Perdagangan",
        "nama_perusahaan": "PT Penerbit Buku Erlangga Mahameru",
        "tanggal_daftar": "2021-11-01",
        "nomor_tanda_daftar": "001444.22/DJAI.PSE/11/2021",
        "qr_code": "https://pse.kominfo.go.id/storage/images/qr_code/a0347eb8f40b74fb939138c7e92e567c.png",
        "status_id": "TERDAFTAR",
        "sistem_elektronik_id": 3070
      }
    },
    {
      "type": "tdpseTerbit",
      "id": 2242,
      "attributes": {
        "nomor_pb_umku": null,
        "nama": "GAP Print",
        "website": "https://gapprint.com",
        "sektor": "Sektor Teknologi Informasi dan Komunikasi",
        "nama_perusahaan": "PT Penerbit Buku Erlangga Mahameru",
        "tanggal_daftar": "2021-11-01",
        "nomor_tanda_daftar": "001444.21/DJAI.PSE/11/2021",
        "qr_code": "https://pse.kominfo.go.id/storage/images/qr_code/27d9562cb7c54f572fdf99a9a8dd7a73.png",
        "status_id": "TERDAFTAR",
        "sistem_elektronik_id": 3069
      }
    },
    {
      "type": "tdpseTerbit",
      "id": 2241,
      "attributes": {
        "nomor_pb_umku": null,
        "nama": "Galeri Pamer Karya",
        "website": "https://galeripamerkarya.id",
        "sektor": "Sektor Teknologi Informasi dan Komunikasi",
        "nama_perusahaan": "PT Penerbit Buku Erlangga Mahameru",
        "tanggal_daftar": "2021-11-01",
        "nomor_tanda_daftar": "001444.20/DJAI.PSE/11/2021",
        "qr_code": "https://pse.kominfo.go.id/storage/images/qr_code/5ba0a258af26b6b4833f550c5fdb0dc5.png",
        "status_id": "TERDAFTAR",
        "sistem_elektronik_id": 3068
      }
    },
    {
      "type": "tdpseTerbit",
      "id": 2240,
      "attributes": {
        "nomor_pb_umku": null,
        "nama": "Indonesia Talent Week",
        "website": "https://indonesiatalentweek.com",
        "sektor": "Sektor Teknologi Informasi dan Komunikasi",
        "nama_perusahaan": "PT Penerbit Buku Erlangga Mahameru",
        "tanggal_daftar": "2021-11-01",
        "nomor_tanda_daftar": "001444.19/DJAI.PSE/11/2021",
        "qr_code": "https://pse.kominfo.go.id/storage/images/qr_code/88e0416c95ee82581138ffd4c29ff251.png",
        "status_id": "TERDAFTAR",
        "sistem_elektronik_id": 3067
      }
    },
    {
      "type": "tdpseTerbit",
      "id": 2239,
      "attributes": {
        "nomor_pb_umku": null,
        "nama": "Erlangga Inspirasi",
        "website": "https://erlanggainspirasi.id",
        "sektor": "Sektor Teknologi Informasi dan Komunikasi",
        "nama_perusahaan": "PT Penerbit Buku Erlangga Mahameru",
        "tanggal_daftar": "2021-11-01",
        "nomor_tanda_daftar": "001444.18/DJAI.PSE/11/2021",
        "qr_code": "https://pse.kominfo.go.id/storage/images/qr_code/09df3f8acfc9490b4279356db2b7c761.png",
        "status_id": "TERDAFTAR",
        "sistem_elektronik_id": 3066
      }
    },
    {
      "type": "tdpseTerbit",
      "id": 2238,
      "attributes": {
        "nomor_pb_umku": null,
        "nama": "Erlangga For Kids",
        "website": "https://erlanggaforkids.com",
        "sektor": "Sektor Teknologi Informasi dan Komunikasi",
        "nama_perusahaan": "PT Penerbit Buku Erlangga Mahameru",
        "tanggal_daftar": "2021-11-01",
        "nomor_tanda_daftar": "001444.17/DJAI.PSE/11/2021",
        "qr_code": "https://pse.kominfo.go.id/storage/images/qr_code/81660c22de149ab8d1356396774dc13f.png",
        "status_id": "TERDAFTAR",
        "sistem_elektronik_id": 3065
      }
    },
    {
      "type": "tdpseTerbit",
      "id": 2236,
      "attributes": {
        "nomor_pb_umku": null,
        "nama": "Emir",
        "website": "https://emir.co.id",
        "sektor": "Sektor Teknologi Informasi dan Komunikasi",
        "nama_perusahaan": "PT Penerbit Buku Erlangga Mahameru",
        "tanggal_daftar": "2021-11-01",
        "nomor_tanda_daftar": "001444.16/DJAI.PSE/11/2021",
        "qr_code": "https://pse.kominfo.go.id/storage/images/qr_code/a5bc9c544ff2f900b1e45e9c8d2ebfc7.png",
        "status_id": "TERDAFTAR",
        "sistem_elektronik_id": 3064
      }
    },
    {
      "type": "tdpseTerbit",
      "id": 2235,
      "attributes": {
        "nomor_pb_umku": null,
        "nama": "Esensi",
        "website": "https://esensi.co.id",
        "sektor": "Sektor Teknologi Informasi dan Komunikasi",
        "nama_perusahaan": "PT Penerbit Buku Erlangga Mahameru",
        "tanggal_daftar": "2021-11-01",
        "nomor_tanda_daftar": "001444.15/DJAI.PSE/11/2021",
        "qr_code": "https://pse.kominfo.go.id/storage/images/qr_code/ff79bfc0f43fc9f906030ce5c7f5b0ac.png",
        "status_id": "TERDAFTAR",
        "sistem_elektronik_id": 3063
      }
    },
    {
      "type": "tdpseTerbit",
      "id": 2234,
      "attributes": {
        "nomor_pb_umku": null,
        "nama": "Penerbit Erlangga",
        "website": "https://erlangga.co.id",
        "sektor": "Sektor Teknologi Informasi dan Komunikasi",
        "nama_perusahaan": "PT Penerbit Buku Erlangga Mahameru",
        "tanggal_daftar": "2021-11-01",
        "nomor_tanda_daftar": "001444.14/DJAI.PSE/11/2021",
        "qr_code": "https://pse.kominfo.go.id/storage/images/qr_code/4cf3b73e70081d3b832c25e725b7b2b2.png",
        "status_id": "TERDAFTAR",
        "sistem_elektronik_id": 3062
      }
    },
    {
      "type": "tdpseTerbit",
      "id": 2233,
      "attributes": {
        "nomor_pb_umku": null,
        "nama": "Salam Erlangga Online",
        "website": "https://sallam-play.erlanggaonline.co.id",
        "sektor": "Sektor Teknologi Informasi dan Komunikasi",
        "nama_perusahaan": "PT Penerbit Buku Erlangga Mahameru",
        "tanggal_daftar": "2021-11-01",
        "nomor_tanda_daftar": "001444.13/DJAI.PSE/11/2021",
        "qr_code": "https://pse.kominfo.go.id/storage/images/qr_code/ec5e1b76511f036b5e33d9b251e80cd4.png",
        "status_id": "TERDAFTAR",
        "sistem_elektronik_id": 3061
      }
    }
  ]
}