{
  "meta": {
    "page": {
      "currentPage": 769,
      "from": 7681,
      "lastPage": 873,
      "perPage": 10,
      "to": 7690,
      "total": 8721
    }
  },
  "data": [
    {
      "type": "tdpseTerbit",
      "id": 632,
      "attributes": {
        "nomor_pb_umku": null,
        "nama": "Solusi Bayar",
        "website": "https://solusibayar.co.id/",
        "sektor": "Sektor Teknologi Informasi dan Komunikasi",
        "nama_perusahaan": "SOLUSI PAYMENT INDONESIA",
        "tanggal_daftar": "2021-04-26",
        "nomor_tanda_daftar": "000517.01/DJAI.PSE/04/2021",
        "qr_code": "https://pse.kominfo.go.id/storage/images/qr_code/c46d068d1a038396f90fd0c5855ad568.png",
        "status_id": "TERDAFTAR",
        "sistem_elektronik_id": 120
      }
    },
    {
      "type": "tdpseTerbit",
      "id": 631,
      "attributes": {
        "nomor_pb_umku": null,
        "nama": "YOHOM",
        "website": "www.yohom.co.id",
        "sektor": "Sektor Teknologi Informasi dan Komunikasi",
        "nama_perusahaan": "YOHOM INDONESIA SOLUTION",
        "tanggal_daftar": "2021-04-26",
        "nomor_tanda_daftar": "000516.01/DJAI.PSE/04/2021",
        "qr_code": "https://pse.kominfo.go.id/storage/images/qr_code/a08a4ea2aec01549e27103cff13eb0b0.png",
        "status_id": "TERDAFTAR",
        "sistem_elektronik_id": 438
      }
    },
    {
      "type": "tdpseTerbit",
      "id": 630,
      "attributes": {
        "nomor_pb_umku": null,
        "nama": "Bantoo.id",
        "website": "https://www.bantoo.id",
        "sektor": "Sektor Kesehatan, Sektor Teknologi Informasi dan Komunikasi",
        "nama_perusahaan": "GENERASI BANTU INDONESIA",
        "tanggal_daftar": "2021-04-26",
        "nomor_tanda_daftar": "000515.01/DJAI.PSE/04/2021",
        "qr_code": "https://pse.kominfo.go.id/storage/images/qr_code/20524c9734fc6d27dca4b0d5a0bd87b6.png",
        "status_id": "TERDAFTAR",
        "sistem_elektronik_id": 440
      }
    },
    {
      "type": "tdpseTerbit",
      "id": 629,
      "attributes": {
        "nomor_pb_umku": null,
        "nama": "Mitra Bukalapak",
        "website": "https://mitra.bukalapak.com/",
        "sektor": "Sektor Teknologi Informasi dan Komunikasi",
        "nama_perusahaan": "BUKA MITRA INDONESIA",
        "tanggal_daftar": "2021-04-26",
        "nomor_tanda_daftar": "000514.01/DJAI.PSE/04/2021",
        "qr_code": "https://pse.kominfo.go.id/storage/images/qr_code/238a95d9ef470fd525aa5d2573d5ccd1.png",
        "status_id": "TERDAFTAR",
        "sistem_elektronik_id": 258
      }
    },
    {
      "type": "tdpseTerbit",
      "id": 9345,
      "attributes": {
        "nomor_pb_umku": "812011619289900530015",
        "nama": "APLIKASI PEGA TRAINING PEGATRAINING.SINARMAS.CO.ID",
        "website": "sinarmas.co.id",
        "sektor": "Sektor Keuangan",
        "nama_perusahaan": "ASURANSI SINAR MAS",
        "tanggal_daftar": "2022-07-29",
        "nomor_tanda_daftar": "000513.16/DJAI.PSE/07/2022",
        "qr_code": "https://pse.kominfo.go.id/storage/images/qr_code/3ff5de0b6978e45c317171621bdac140.png",
        "status_id": "TERDAFTAR",
        "sistem_elektronik_id": 9257
      }
    },
    {
      "type": "tdpseTerbit",
      "id": 9310,
      "attributes": {
        "nomor_pb_umku": "812011619289900530014",
        "nama": "APLIKASI GAMIFICATION GAME.SINARMAS.CO.ID",
        "website": "sinarmas.co.id",
        "sektor": "Sektor Keuangan",
        "nama_perusahaan": "ASURANSI SINAR MAS",
        "tanggal_daftar": "2022-07-28",
        "nomor_tanda_daftar": "000513.15/DJAI.PSE/07/2022",
        "qr_code": "https://pse.kominfo.go.id/storage/images/qr_code/df599e7180a504d733c17a4039035119.png",
        "status_id": "TERDAFTAR",
        "sistem_elektronik_id": 9223
      }
    },
    {
      "type": "tdpseTerbit",
      "id": 9309,
      "attributes": {
        "nomor_pb_umku": "812011619289900530013",
        "nama": "PEGA RISK SCORE EPEFINDO.SINARMAS.CO.ID",
        "website": "sinarmas.co.id",
        "sektor": "Sektor Keuangan",
        "nama_perusahaan": "ASURANSI SINAR MAS",
        "tanggal_daftar": "2022-07-28",
        "nomor_tanda_daftar": "000513.14/DJAI.PSE/07/2022",
        "qr_code": "https://pse.kominfo.go.id/storage/images/qr_code/e3429703e854ada72074afb5e0cc536d.png",
        "status_id": "TERDAFTAR",
        "sistem_elektronik_id": 9221
      }
    },
    {
      "type": "tdpseTerbit",
      "id": 9307,
      "attributes": {
        "nomor_pb_umku": "812011619289900530012",
        "nama": "WEBSITE KLAIM APP.SINARMAS.CO.ID",
        "website": "sinarmas.co.id",
        "sektor": "Sektor Keuangan",
        "nama_perusahaan": "ASURANSI SINAR MAS",
        "tanggal_daftar": "2022-07-28",
        "nomor_tanda_daftar": "000513.13/DJAI.PSE/07/2022",
        "qr_code": "https://pse.kominfo.go.id/storage/images/qr_code/0c950487a8e81aad0ef9fa8a93659883.png",
        "status_id": "TERDAFTAR",
        "sistem_elektronik_id": 9220
      }
    },
    {
      "type": "tdpseTerbit",
      "id": 9295,
      "attributes": {
        "nomor_pb_umku": "812011619289900530011",
        "nama": "APLIKASI PEGA BUSINESS PARTNER API.SINARMAS.CO.ID",
        "website": "sinarmas.co.id",
        "sektor": "Sektor Keuangan",
        "nama_perusahaan": "ASURANSI SINAR MAS",
        "tanggal_daftar": "2022-07-28",
        "nomor_tanda_daftar": "000513.12/DJAI.PSE/07/2022",
        "qr_code": "https://pse.kominfo.go.id/storage/images/qr_code/7beafbce94369b6c6136fcea4fa4c674.png",
        "status_id": "TERDAFTAR",
        "sistem_elektronik_id": 9206
      }
    },
    {
      "type": "tdpseTerbit",
      "id": 9290,
      "attributes": {
        "nomor_pb_umku": "812011619289900530010",
        "nama": "APLIKASI PEGA ASM PRO CLOUDPEGA.SINARMAS.CO.ID",
        "website": "sinarmas.co.id",
        "sektor": "Sektor Keuangan",
        "nama_perusahaan": "ASURANSI SINAR MAS",
        "tanggal_daftar": "2022-07-28",
        "nomor_tanda_daftar": "000513.11/DJAI.PSE/07/2022",
        "qr_code": "https://pse.kominfo.go.id/storage/images/qr_code/515b940ddfd9f057ff11bf1e04681a5a.png",
        "status_id": "TERDAFTAR",
        "sistem_elektronik_id": 9201
      }
    }
  ]
}