{
  "meta": {
    "page": {
      "currentPage": 770,
      "from": 7691,
      "lastPage": 1041,
      "perPage": 10,
      "to": 7700,
      "total": 10407
    }
  },
  "data": [
    {
      "type": "tdpseTerbit",
      "id": 2080,
      "attributes": {
        "nomor_pb_umku": null,
        "nama": "hata.id",
        "website": "hata.id",
        "sektor": "Sektor Kesehatan",
        "nama_perusahaan": "PT. Hata Indonesia Sejahtera",
        "tanggal_daftar": "2021-10-26",
        "nomor_tanda_daftar": "001394.01/DJAI.PSE/10/2021",
        "qr_code": "https://pse.kominfo.go.id/storage/images/qr_code/668977f3288ebe50e7837442f31272e1.png",
        "status_id": "TERDAFTAR",
        "sistem_elektronik_id": 3005
      }
    },
    {
      "type": "tdpseTerbit",
      "id": 2079,
      "attributes": {
        "nomor_pb_umku": null,
        "nama": "TokoTalk",
        "website": "https://www.tokotalk.com/",
        "sektor": "Sektor Perdagangan, Sektor Teknologi Informasi dan Komunikasi",
        "nama_perusahaan": "CODEBRICK INDONESIA",
        "tanggal_daftar": "2021-10-26",
        "nomor_tanda_daftar": "001393.01/DJAI.PSE/10/2021",
        "qr_code": "https://pse.kominfo.go.id/storage/images/qr_code/116eedc543cc1d2d7e4f1edd966cec2d.png",
        "status_id": "TERDAFTAR",
        "sistem_elektronik_id": 561
      }
    },
    {
      "type": "tdpseTerbit",
      "id": 3497,
      "attributes": {
        "nomor_pb_umku": null,
        "nama": "www.soeasy.id",
        "website": "www.soeasy.id",
        "sektor": "Sektor Teknologi Informasi dan Komunikasi",
        "nama_perusahaan": "QUARK INTERNATIONAL INDONESIA",
        "tanggal_daftar": "2022-03-10",
        "nomor_tanda_daftar": "001392.02/DJAI.PSE/03/2022",
        "qr_code": "https://pse.kominfo.go.id/storage/images/qr_code/518599b3eb4211720b1a7a58394379a4.png",
        "status_id": "TERDAFTAR",
        "sistem_elektronik_id": 3202
      }
    },
    {
      "type": "tdpseTerbit",
      "id": 2078,
      "attributes": {
        "nomor_pb_umku": null,
        "nama": "So Easy",
        "website": "www.soeasy.id",
        "sektor": "Sektor Teknologi Informasi dan Komunikasi",
        "nama_perusahaan": "QUARK INTERNATIONAL INDONESIA",
        "tanggal_daftar": "2021-10-26",
        "nomor_tanda_daftar": "001392.01/DJAI.PSE/10/2021",
        "qr_code": "https://pse.kominfo.go.id/storage/images/qr_code/b359d6b9b16305db269309ecfc03de9e.png",
        "status_id": "TERDAFTAR",
        "sistem_elektronik_id": 2521
      }
    },
    {
      "type": "tdpseTerbit",
      "id": 2077,
      "attributes": {
        "nomor_pb_umku": null,
        "nama": "TERASLIS",
        "website": "https://demo2.terassekawanbersama.co.id",
        "sektor": "Sektor Kesehatan, Sektor Teknologi Informasi dan Komunikasi",
        "nama_perusahaan": "TERAS SEKAWAN BERSAMA",
        "tanggal_daftar": "2021-10-26",
        "nomor_tanda_daftar": "001391.01/DJAI.PSE/10/2021",
        "qr_code": "https://pse.kominfo.go.id/storage/images/qr_code/d452c53373172b9ed361dfedfa5bddfc.png",
        "status_id": "TERDAFTAR",
        "sistem_elektronik_id": 3412
      }
    },
    {
      "type": "tdpseTerbit",
      "id": 2075,
      "attributes": {
        "nomor_pb_umku": null,
        "nama": "Telpro Smart Parking",
        "website": "-",
        "sektor": "Sektor Teknologi Informasi dan Komunikasi",
        "nama_perusahaan": "GRAHA SARANA DUTA",
        "tanggal_daftar": "2021-10-26",
        "nomor_tanda_daftar": "001390.01/DJAI.PSE/10/2021",
        "qr_code": "https://pse.kominfo.go.id/storage/images/qr_code/a89bf34ca2e0c124aaf07748994d71a3.png",
        "status_id": "TERDAFTAR",
        "sistem_elektronik_id": 3004
      }
    },
    {
      "type": "tdpseTerbit",
      "id": 2074,
      "attributes": {
        "nomor_pb_umku": null,
        "nama": "PARI - Pasar Rakyat Indonesia",
        "website": "pari.co.id",
        "sektor": "Sektor Perdagangan",
        "nama_perusahaan": "BRINGIN INTI TEKNOLOGI",
        "tanggal_daftar": "2021-10-26",
        "nomor_tanda_daftar": "001389.01/DJAI.PSE/10/2021",
        "qr_code": "https://pse.kominfo.go.id/storage/images/qr_code/11d820f18cff51c3bdb32314ee304b7e.png",
        "status_id": "TERDAFTAR",
        "sistem_elektronik_id": 1484
      }
    },
    {
      "type": "tdpseTerbit",
      "id": 2073,
      "attributes": {
        "nomor_pb_umku": null,
        "nama": "BPDNet",
        "website": "www.bpdnet.com",
        "sektor": "Sektor Perdagangan, Sektor Teknologi Informasi dan Komunikasi",
        "nama_perusahaan": "SOLUSI NUSANTARA TERPADU",
        "tanggal_daftar": "2021-10-26",
        "nomor_tanda_daftar": "001388.01/DJAI.PSE/10/2021",
        "qr_code": "https://pse.kominfo.go.id/storage/images/qr_code/d3c089dfbd53e2c5a5a0edef575d84a3.png",
        "status_id": "TERDAFTAR",
        "sistem_elektronik_id": 1491
      }
    },
    {
      "type": "tdpseTerbit",
      "id": 2072,
      "attributes": {
        "nomor_pb_umku": null,
        "nama": "GOCpay",
        "website": "www.goc.id",
        "sektor": "Sektor Perdagangan",
        "nama_perusahaan": "FINAL IMPIAN NIAGA",
        "tanggal_daftar": "2021-10-26",
        "nomor_tanda_daftar": "001387.01/DJAI.PSE/10/2021",
        "qr_code": "https://pse.kominfo.go.id/storage/images/qr_code/c32e94ece397f393ce41678f20885baa.png",
        "status_id": "TERDAFTAR",
        "sistem_elektronik_id": 1524
      }
    },
    {
      "type": "tdpseTerbit",
      "id": 2071,
      "attributes": {
        "nomor_pb_umku": null,
        "nama": "bli-go! world of wonder app",
        "website": "www.bli-go.com",
        "sektor": "Sektor Pangan, Sektor Perdagangan, Sektor Transportasi",
        "nama_perusahaan": "ALAN DIGITAL INDONESIA",
        "tanggal_daftar": "2021-10-26",
        "nomor_tanda_daftar": "001386.01/DJAI.PSE/10/2021",
        "qr_code": "https://pse.kominfo.go.id/storage/images/qr_code/3f18e1c516db0f21d104989e8aaf33db.png",
        "status_id": "TERDAFTAR",
        "sistem_elektronik_id": 3364
      }
    }
  ]
}