{
  "meta": {
    "page": {
      "currentPage": 771,
      "from": 7701,
      "lastPage": 873,
      "perPage": 10,
      "to": 7710,
      "total": 8721
    }
  },
  "data": [
    {
      "type": "tdpseTerbit",
      "id": 626,
      "attributes": {
        "nomor_pb_umku": null,
        "nama": "Semesta online",
        "website": "www.semestaindovest.co.id",
        "sektor": "Sektor Keuangan",
        "nama_perusahaan": "SEMESTA INDOVEST SEKURITAS",
        "tanggal_daftar": "2021-04-26",
        "nomor_tanda_daftar": "000512.01/DJAI.PSE/04/2021",
        "qr_code": "https://pse.kominfo.go.id/storage/images/qr_code/00f5aca25cc1d02a81b88716e34a67b9.png",
        "status_id": "TERDAFTAR",
        "sistem_elektronik_id": 430
      }
    },
    {
      "type": "tdpseTerbit",
      "id": 624,
      "attributes": {
        "nomor_pb_umku": null,
        "nama": "Smile Train Indonesia",
        "website": "https://www.smiletrainindonesia.org/",
        "sektor": "Sektor Kesehatan",
        "nama_perusahaan": "SMILE TRAIN INDONESIA",
        "tanggal_daftar": "2021-04-26",
        "nomor_tanda_daftar": "000511.01/DJAI.PSE/04/2021",
        "qr_code": "https://pse.kominfo.go.id/storage/images/qr_code/eb7f0626ff8a2e6e87d74887a4ac1cff.png",
        "status_id": "TERDAFTAR",
        "sistem_elektronik_id": 2625
      }
    },
    {
      "type": "tdpseTerbit",
      "id": 623,
      "attributes": {
        "nomor_pb_umku": null,
        "nama": "sindonews",
        "website": "https://sindonews.com/",
        "sektor": "Sektor Teknologi Informasi dan Komunikasi",
        "nama_perusahaan": "SINDONEWS PORTAL INDONESIA",
        "tanggal_daftar": "2021-04-26",
        "nomor_tanda_daftar": "000510.01/DJAI.PSE/04/2021",
        "qr_code": "https://pse.kominfo.go.id/storage/images/qr_code/11607d8f226a2910b6feca098ea1f916.png",
        "status_id": "TERDAFTAR",
        "sistem_elektronik_id": 136
      }
    },
    {
      "type": "tdpseTerbit",
      "id": 622,
      "attributes": {
        "nomor_pb_umku": null,
        "nama": "DiaryBunda",
        "website": "https://diarybunda.co.id",
        "sektor": "Sektor Kesehatan",
        "nama_perusahaan": "ASA BESTARI CITTA",
        "tanggal_daftar": "2021-04-26",
        "nomor_tanda_daftar": "000509.01/DJAI.PSE/04/2021",
        "qr_code": "https://pse.kominfo.go.id/storage/images/qr_code/850838c0a7b2ea45c24efe3c4f6c016f.png",
        "status_id": "TERDAFTAR",
        "sistem_elektronik_id": 431
      }
    },
    {
      "type": "tdpseTerbit",
      "id": 621,
      "attributes": {
        "nomor_pb_umku": null,
        "nama": "karyanoesantara.id",
        "website": "karyanoesantara.id",
        "sektor": "Sektor Perdagangan, Sektor Teknologi Informasi dan Komunikasi",
        "nama_perusahaan": "SOLUSI MEDIA RAVEL TEKNOLOGI",
        "tanggal_daftar": "2021-04-26",
        "nomor_tanda_daftar": "000508.01/DJAI.PSE/04/2021",
        "qr_code": "https://pse.kominfo.go.id/storage/images/qr_code/27b9557936676faf0a255b88de44a5d6.png",
        "status_id": "TERDAFTAR",
        "sistem_elektronik_id": 432
      }
    },
    {
      "type": "tdpseTerbit",
      "id": 620,
      "attributes": {
        "nomor_pb_umku": null,
        "nama": "okezone",
        "website": "https://okezone.com/",
        "sektor": "Sektor Teknologi Informasi dan Komunikasi",
        "nama_perusahaan": "MNC OKEZONE NETWORK",
        "tanggal_daftar": "2021-04-26",
        "nomor_tanda_daftar": "000507.01/DJAI.PSE/04/2021",
        "qr_code": "https://pse.kominfo.go.id/storage/images/qr_code/d020a58efb6e30baf317c2f6f5912849.png",
        "status_id": "TERDAFTAR",
        "sistem_elektronik_id": 2703
      }
    },
    {
      "type": "tdpseTerbit",
      "id": 618,
      "attributes": {
        "nomor_pb_umku": null,
        "nama": "Pinjam Modal",
        "website": "https://pinjammodal.id",
        "sektor": "Sektor Keuangan",
        "nama_perusahaan": "FINANSIAL INTEGRASI TEKNOLOGI",
        "tanggal_daftar": "2021-04-26",
        "nomor_tanda_daftar": "000506.01/DJAI.PSE/04/2021",
        "qr_code": "https://pse.kominfo.go.id/storage/images/qr_code/5304610224d363a0a1f22188fad7ec14.png",
        "status_id": "TERDAFTAR",
        "sistem_elektronik_id": 3266
      }
    },
    {
      "type": "tdpseTerbit",
      "id": 617,
      "attributes": {
        "nomor_pb_umku": null,
        "nama": "adventuraja",
        "website": "Https://Adventuraja.com",
        "sektor": "Sektor Perdagangan, Sektor Teknologi Informasi dan Komunikasi",
        "nama_perusahaan": "SATU ALAM INDONESIA",
        "tanggal_daftar": "2021-04-26",
        "nomor_tanda_daftar": "000505.01/DJAI.PSE/04/2021",
        "qr_code": "https://pse.kominfo.go.id/storage/images/qr_code/9c4ed58c75a5f83a8d27fc437bcf1b9e.png",
        "status_id": "TERDAFTAR",
        "sistem_elektronik_id": 3265
      }
    },
    {
      "type": "tdpseTerbit",
      "id": 4213,
      "attributes": {
        "nomor_pb_umku": "101121001369900050001",
        "nama": "WOW KONSULTAN",
        "website": "WOWKONSULTAN.COM",
        "sektor": "Sektor Keuangan",
        "nama_perusahaan": "WOW INDONESIA BERSATU",
        "tanggal_daftar": "2022-06-02",
        "nomor_tanda_daftar": "000504.01/DJAI.PSE/06/2022",
        "qr_code": "https://pse.kominfo.go.id/storage/images/qr_code/514e2123a8993ec98512a6d99d2e73c5.png",
        "status_id": "TERDAFTAR",
        "sistem_elektronik_id": 4212
      }
    },
    {
      "type": "tdpseTerbit",
      "id": 616,
      "attributes": {
        "nomor_pb_umku": null,
        "nama": "Nusaindo Academy",
        "website": "www.nusaindoacademy.id",
        "sektor": "Sektor Perdagangan",
        "nama_perusahaan": "NUSA INFRASINDO UTAMA",
        "tanggal_daftar": "2021-04-26",
        "nomor_tanda_daftar": "000504.01/DJAI.PSE/04/2021",
        "qr_code": "https://pse.kominfo.go.id/storage/images/qr_code/4b0e2ea0097c64170f5dd9367f06bae2.png",
        "status_id": "TERDAFTAR",
        "sistem_elektronik_id": 424
      }
    }
  ]
}