{
  "meta": {
    "page": {
      "currentPage": 772,
      "from": 7711,
      "lastPage": 1074,
      "perPage": 10,
      "to": 7720,
      "total": 10738
    }
  },
  "data": [
    {
      "type": "tdpseTerbit",
      "id": 2380,
      "attributes": {
        "nomor_pb_umku": null,
        "nama": "cashcashpro",
        "website": "cashcashpro.id",
        "sektor": "Sektor Keuangan",
        "nama_perusahaan": "DIGITAL KUANTUM TEKNOLOGI",
        "tanggal_daftar": "2021-11-15",
        "nomor_tanda_daftar": "001563.01/DJAI.PSE/11/2021",
        "qr_code": "https://pse.kominfo.go.id/storage/images/qr_code/b09a013b99ad9540c80ca603362a23ed.png",
        "status_id": "TERDAFTAR",
        "sistem_elektronik_id": 100
      }
    },
    {
      "type": "tdpseTerbit",
      "id": 2398,
      "attributes": {
        "nomor_pb_umku": null,
        "nama": "Inter Kreasi Adhitama",
        "website": "veroty.co.id",
        "sektor": "Sektor Perdagangan",
        "nama_perusahaan": "INTER KREASI ADHITAMA",
        "tanggal_daftar": "2021-11-17",
        "nomor_tanda_daftar": "001562.02/DJAI.PSE/11/2021",
        "qr_code": "https://pse.kominfo.go.id/storage/images/qr_code/fe3fe734cc686cabae9e44e7ba0540de.png",
        "status_id": "TERDAFTAR",
        "sistem_elektronik_id": 428
      }
    },
    {
      "type": "tdpseTerbit",
      "id": 2379,
      "attributes": {
        "nomor_pb_umku": null,
        "nama": "PT. INTER KREASI ADHITAMA",
        "website": "veroty.co.id",
        "sektor": "Sektor Perdagangan, Sektor Teknologi Informasi dan Komunikasi",
        "nama_perusahaan": "INTER KREASI ADHITAMA",
        "tanggal_daftar": "2021-11-15",
        "nomor_tanda_daftar": "001562.01/DJAI.PSE/11/2021",
        "qr_code": "https://pse.kominfo.go.id/storage/images/qr_code/91b8b55114b6739738435b8639fc7706.png",
        "status_id": "TERDAFTAR",
        "sistem_elektronik_id": 427
      }
    },
    {
      "type": "tdpseTerbit",
      "id": 2378,
      "attributes": {
        "nomor_pb_umku": null,
        "nama": "Acer e-Store",
        "website": "store.acer.com",
        "sektor": "Sektor Perdagangan",
        "nama_perusahaan": "ACER INDONESIA",
        "tanggal_daftar": "2021-11-15",
        "nomor_tanda_daftar": "001561.01/DJAI.PSE/11/2021",
        "qr_code": "https://pse.kominfo.go.id/storage/images/qr_code/0e0126b028a70c971e55bb53de7b7703.png",
        "status_id": "TERDAFTAR",
        "sistem_elektronik_id": 1578
      }
    },
    {
      "type": "tdpseTerbit",
      "id": 4021,
      "attributes": {
        "nomor_pb_umku": null,
        "nama": "Pintarnya.com",
        "website": "pintarnya.com",
        "sektor": "Sektor Perdagangan",
        "nama_perusahaan": "PINTARNYA SOLUSI TEKNOLOGI",
        "tanggal_daftar": "2022-04-25",
        "nomor_tanda_daftar": "001560.03/DJAI.PSE/04/2022",
        "qr_code": "https://pse.kominfo.go.id/storage/images/qr_code/90612db6f03f596974b015206af5862f.png",
        "status_id": "TERDAFTAR",
        "sistem_elektronik_id": 3713
      }
    },
    {
      "type": "tdpseTerbit",
      "id": 2848,
      "attributes": {
        "nomor_pb_umku": null,
        "nama": "Pintar",
        "website": "pintarnya.com",
        "sektor": "Sektor Perdagangan",
        "nama_perusahaan": "PINTARNYA SOLUSI TEKNOLOGI",
        "tanggal_daftar": "2021-12-22",
        "nomor_tanda_daftar": "001560.02/DJAI.PSE/12/2021",
        "qr_code": "https://pse.kominfo.go.id/storage/images/qr_code/0986cb49b81351091e41fedc72ed5c0e.png",
        "status_id": "TERDAFTAR",
        "sistem_elektronik_id": 1564
      }
    },
    {
      "type": "tdpseTerbit",
      "id": 2375,
      "attributes": {
        "nomor_pb_umku": null,
        "nama": "NC Finansial Success",
        "website": "-",
        "sektor": "Sektor Perdagangan",
        "nama_perusahaan": "NCPLUS SOLUSI RAPTAMA",
        "tanggal_daftar": "2021-11-15",
        "nomor_tanda_daftar": "001559.01/DJAI.PSE/11/2021",
        "qr_code": "https://pse.kominfo.go.id/storage/images/qr_code/d27e6a724ef5886046831f81dbd791d6.png",
        "status_id": "TERDAFTAR",
        "sistem_elektronik_id": 3971
      }
    },
    {
      "type": "tdpseTerbit",
      "id": 6448,
      "attributes": {
        "nomor_pb_umku": null,
        "nama": "NC FINANCIAL SUCCESS",
        "website": "NCPLUS.CO.ID",
        "sektor": "Sektor Perdagangan",
        "nama_perusahaan": "NCPLUS SOLUSI RAPTAMA",
        "tanggal_daftar": "2021-11-19",
        "nomor_tanda_daftar": "001559.01/DJAI.PSE/11/2021",
        "qr_code": "https://pse.kominfo.go.id/storage/images/qr_code/d27e6a724ef5886046831f81dbd791d6.png",
        "status_id": "TERDAFTAR",
        "sistem_elektronik_id": 1577
      }
    },
    {
      "type": "tdpseTerbit",
      "id": 3371,
      "attributes": {
        "nomor_pb_umku": null,
        "nama": "DIRI.",
        "website": "Diricare.com",
        "sektor": "Sektor Kesehatan",
        "nama_perusahaan": "DIRI ARTHA SEHAT",
        "tanggal_daftar": "2022-02-24",
        "nomor_tanda_daftar": "001558.02/DJAI.PSE/02/2022",
        "qr_code": "https://pse.kominfo.go.id/storage/images/qr_code/965eade48982476a6adbc2b7b1d7a201.png",
        "status_id": "TERDAFTAR",
        "sistem_elektronik_id": 1563
      }
    },
    {
      "type": "tdpseTerbit",
      "id": 4681,
      "attributes": {
        "nomor_pb_umku": null,
        "nama": "Astro",
        "website": "www.astronauts.",
        "sektor": "Sektor Perdagangan",
        "nama_perusahaan": "ASTRO TECHNOLOGIES INDONESIA",
        "tanggal_daftar": "2021-11-19",
        "nomor_tanda_daftar": "001558.01/DJAI.PSE/11/2021",
        "qr_code": "https://pse.kominfo.go.id/storage/images/qr_code/a725c831499233aca1172c306b45dca4.png",
        "status_id": "TERDAFTAR",
        "sistem_elektronik_id": 1430
      }
    }
  ]
}