{
  "meta": {
    "page": {
      "currentPage": 774,
      "from": 7731,
      "lastPage": 931,
      "perPage": 10,
      "to": 7740,
      "total": 9301
    }
  },
  "data": [
    {
      "type": "tdpseTerbit",
      "id": 7087,
      "attributes": {
        "nomor_pb_umku": "912010216234800020003",
        "nama": "SALES FORCE DANAMOBIL",
        "website": "mncdanamobil.com",
        "sektor": "Sektor Keuangan",
        "nama_perusahaan": "MNC FINANCE",
        "tanggal_daftar": "2022-07-19",
        "nomor_tanda_daftar": "000779.05/DJAI.PSE/07/2022",
        "qr_code": "https://pse.kominfo.go.id/storage/images/qr_code/5ea9cc455d27de46baef620bb2fa3716.png",
        "status_id": "TERDAFTAR",
        "sistem_elektronik_id": 6953
      }
    },
    {
      "type": "tdpseTerbit",
      "id": 6467,
      "attributes": {
        "nomor_pb_umku": "912010216234800020002",
        "nama": "ITRACK",
        "website": "mncfinance.net",
        "sektor": "Sektor Keuangan",
        "nama_perusahaan": "MNC FINANCE",
        "tanggal_daftar": "2022-07-18",
        "nomor_tanda_daftar": "000779.04/DJAI.PSE/07/2022",
        "qr_code": "https://pse.kominfo.go.id/storage/images/qr_code/816a07c09b520d4ed5949fece7155f1c.png",
        "status_id": "TERDAFTAR",
        "sistem_elektronik_id": 6329
      }
    },
    {
      "type": "tdpseTerbit",
      "id": 6451,
      "attributes": {
        "nomor_pb_umku": "912010216234800020001",
        "nama": "CORPORATE WEBSITE MNC FINANCE",
        "website": "mncfinance.com",
        "sektor": "Sektor Keuangan",
        "nama_perusahaan": "MNC FINANCE",
        "tanggal_daftar": "2022-07-18",
        "nomor_tanda_daftar": "000779.02/DJAI.PSE/07/2022",
        "qr_code": "https://pse.kominfo.go.id/storage/images/qr_code/4bd491faad80961114165060bece1b1e.png",
        "status_id": "TERDAFTAR",
        "sistem_elektronik_id": 6317
      }
    },
    {
      "type": "tdpseTerbit",
      "id": 1060,
      "attributes": {
        "nomor_pb_umku": null,
        "nama": "Bang Kredit Mobile",
        "website": "www.mncfinance.com",
        "sektor": "Sektor Keuangan",
        "nama_perusahaan": "MNC FINANCE",
        "tanggal_daftar": "2021-06-02",
        "nomor_tanda_daftar": "000779.01/DJAI.PSE/06/2021",
        "qr_code": "https://pse.kominfo.go.id/storage/images/qr_code/0c08ee5d5e7b7f792534cce61ec3c4a6.png",
        "status_id": "TERDAFTAR",
        "sistem_elektronik_id": 761
      }
    },
    {
      "type": "tdpseTerbit",
      "id": 1144,
      "attributes": {
        "nomor_pb_umku": null,
        "nama": "Perdania Direct Internet Banking",
        "website": "https://pdirect.perdania.co.id/sslvpn/Login/Login",
        "sektor": "Sektor Keuangan",
        "nama_perusahaan": "BANK RESONA PERDANIA",
        "tanggal_daftar": "2021-06-02",
        "nomor_tanda_daftar": "000778.03/DJAI.PSE/06/2021",
        "qr_code": "https://pse.kominfo.go.id/storage/images/qr_code/5a24d11cdea6ed5238276da4d1a2d5c7.png",
        "status_id": "TERDAFTAR",
        "sistem_elektronik_id": 775
      }
    },
    {
      "type": "tdpseTerbit",
      "id": 1143,
      "attributes": {
        "nomor_pb_umku": null,
        "nama": "Website  Bank Resona Perdania",
        "website": "http://www.perdania.co.id/",
        "sektor": "Sektor Keuangan",
        "nama_perusahaan": "BANK RESONA PERDANIA",
        "tanggal_daftar": "2021-06-02",
        "nomor_tanda_daftar": "000778.02/DJAI.PSE/06/2021",
        "qr_code": "https://pse.kominfo.go.id/storage/images/qr_code/74fdff35c087d3787e087b4320e0e173.png",
        "status_id": "TERDAFTAR",
        "sistem_elektronik_id": 774
      }
    },
    {
      "type": "tdpseTerbit",
      "id": 1059,
      "attributes": {
        "nomor_pb_umku": null,
        "nama": "Website  Bank Resona Perdania  & \tPerdania Direct Internet Banking",
        "website": "http://www.perdania.co.id/ & https://pdirect.perdania.co.id/sslvpn/Login/Login",
        "sektor": "Sektor Keuangan",
        "nama_perusahaan": "BANK RESONA PERDANIA",
        "tanggal_daftar": "2021-06-02",
        "nomor_tanda_daftar": "000778.01/DJAI.PSE/06/2021",
        "qr_code": "https://pse.kominfo.go.id/storage/images/qr_code/7ab865a518f8772d6b3d414e185063f1.png",
        "status_id": "TERDAFTAR",
        "sistem_elektronik_id": 773
      }
    },
    {
      "type": "tdpseTerbit",
      "id": 1057,
      "attributes": {
        "nomor_pb_umku": null,
        "nama": "inDriver",
        "website": "-",
        "sektor": "Sektor Teknologi Informasi dan Komunikasi, Sektor Transportasi",
        "nama_perusahaan": "IND MOBITECH SERVICE",
        "tanggal_daftar": "2021-05-28",
        "nomor_tanda_daftar": "000777.01/DJAI.PSE/05/2021",
        "qr_code": "https://pse.kominfo.go.id/storage/images/qr_code/21e3c36c74bd3ef19394786f360ebb23.png",
        "status_id": "TERDAFTAR",
        "sistem_elektronik_id": 822
      }
    },
    {
      "type": "tdpseTerbit",
      "id": 1053,
      "attributes": {
        "nomor_pb_umku": null,
        "nama": "WM-UMROH",
        "website": "https://www.wmumroh.co.id/",
        "sektor": "Sektor Teknologi Informasi dan Komunikasi",
        "nama_perusahaan": "APLIKASI WIRAUSAHA MUSLIM",
        "tanggal_daftar": "2021-05-21",
        "nomor_tanda_daftar": "000776.01/DJAI.PSE/05/2021",
        "qr_code": "https://pse.kominfo.go.id/storage/images/qr_code/a0bc138ae24f59940986317ba5e52a65.png",
        "status_id": "TERDAFTAR",
        "sistem_elektronik_id": 553
      }
    },
    {
      "type": "tdpseTerbit",
      "id": 1732,
      "attributes": {
        "nomor_pb_umku": null,
        "nama": "Kagum Teknologi Indonesia",
        "website": "https://www.ptkagumteknologiindonesia.com/",
        "sektor": "Sektor Perdagangan",
        "nama_perusahaan": "KAGUM TEKNOLOGI INDONESIA",
        "tanggal_daftar": "2021-07-22",
        "nomor_tanda_daftar": "000775.02/DJAI.PSE/07/2021",
        "qr_code": "https://pse.kominfo.go.id/storage/images/qr_code/cf06682eea9950a58147c52462813f0d.png",
        "status_id": "TERDAFTAR",
        "sistem_elektronik_id": 725
      }
    }
  ]
}