{
  "meta": {
    "page": {
      "currentPage": 775,
      "from": 7741,
      "lastPage": 1086,
      "perPage": 10,
      "to": 7750,
      "total": 10851
    }
  },
  "data": [
    {
      "type": "tdpseTerbit",
      "id": 2487,
      "attributes": {
        "nomor_pb_umku": null,
        "nama": "CoolPay",
        "website": "coolpay.maybank.co.id",
        "sektor": "Sektor Keuangan",
        "nama_perusahaan": "BANK MAYBANK INDONESIA",
        "tanggal_daftar": "2021-11-29",
        "nomor_tanda_daftar": "001617.03/DJAI.PSE/11/2021",
        "qr_code": "https://pse.kominfo.go.id/storage/images/qr_code/eb047ec3a5b99e63408e4a7d3ee2e7b1.png",
        "status_id": "TERDAFTAR",
        "sistem_elektronik_id": 1659
      }
    },
    {
      "type": "tdpseTerbit",
      "id": 2486,
      "attributes": {
        "nomor_pb_umku": null,
        "nama": "M2U ID",
        "website": "m2u.maybank.co.id",
        "sektor": "Sektor Keuangan",
        "nama_perusahaan": "BANK MAYBANK INDONESIA",
        "tanggal_daftar": "2021-11-29",
        "nomor_tanda_daftar": "001617.02/DJAI.PSE/11/2021",
        "qr_code": "https://pse.kominfo.go.id/storage/images/qr_code/5fffb44e5b2e9f4d8dcb44197c2484af.png",
        "status_id": "TERDAFTAR",
        "sistem_elektronik_id": 1658
      }
    },
    {
      "type": "tdpseTerbit",
      "id": 2456,
      "attributes": {
        "nomor_pb_umku": null,
        "nama": "Maybank.co.id",
        "website": "www.maybank.co.id",
        "sektor": "Sektor Keuangan",
        "nama_perusahaan": "BANK MAYBANK INDONESIA",
        "tanggal_daftar": "2021-11-25",
        "nomor_tanda_daftar": "001617.01/DJAI.PSE/11/2021",
        "qr_code": "https://pse.kominfo.go.id/storage/images/qr_code/954dc021d5696235d17a308e5a4ffd74.png",
        "status_id": "TERDAFTAR",
        "sistem_elektronik_id": 1657
      }
    },
    {
      "type": "tdpseTerbit",
      "id": 2455,
      "attributes": {
        "nomor_pb_umku": null,
        "nama": "TikVee",
        "website": "app.tikvee.com",
        "sektor": "Sektor Teknologi Informasi dan Komunikasi",
        "nama_perusahaan": "TIKVEE TEKNO GLOBAL",
        "tanggal_daftar": "2021-11-25",
        "nomor_tanda_daftar": "001616.01/DJAI.PSE/11/2021",
        "qr_code": "https://pse.kominfo.go.id/storage/images/qr_code/aaec5aecee44adf07219e7c0a06c4082.png",
        "status_id": "TERDAFTAR",
        "sistem_elektronik_id": 1631
      }
    },
    {
      "type": "tdpseTerbit",
      "id": 11940,
      "attributes": {
        "nomor_pb_umku": "0111210003485000000003",
        "nama": "E-COMMERCE",
        "website": "charleskeith.co.id",
        "sektor": "Sektor Perdagangan",
        "nama_perusahaan": "KURNIA CIPTAKARYA GEMILANG",
        "tanggal_daftar": "2022-10-24",
        "nomor_tanda_daftar": "001615.03/DJAI.PSE/10/2022",
        "qr_code": "https://pse.kominfo.go.id/storage/images/qr_code/ff395d33589bc9f230b3e97b1ab004c3.png",
        "status_id": "TERDAFTAR",
        "sistem_elektronik_id": 11741
      }
    },
    {
      "type": "tdpseTerbit",
      "id": 2569,
      "attributes": {
        "nomor_pb_umku": null,
        "nama": "E-Commerce KCG",
        "website": "www.charleskeith.co.id",
        "sektor": "Sektor Perdagangan",
        "nama_perusahaan": "KURNIA CIPTAKARYA GEMILANG",
        "tanggal_daftar": "2021-12-01",
        "nomor_tanda_daftar": "001615.02/DJAI.PSE/12/2021",
        "qr_code": "https://pse.kominfo.go.id/storage/images/qr_code/574a6b73cbd9352b223ea9e4ef686b65.png",
        "status_id": "TERDAFTAR",
        "sistem_elektronik_id": 1636
      }
    },
    {
      "type": "tdpseTerbit",
      "id": 2454,
      "attributes": {
        "nomor_pb_umku": null,
        "nama": "E-Commerce KCG",
        "website": "www.pedroshoes.co.id",
        "sektor": "Sektor Perdagangan",
        "nama_perusahaan": "KURNIA CIPTAKARYA GEMILANG",
        "tanggal_daftar": "2021-11-25",
        "nomor_tanda_daftar": "001615.01/DJAI.PSE/11/2021",
        "qr_code": "https://pse.kominfo.go.id/storage/images/qr_code/659f18a5842e1ff1fcf7e0e98561102e.png",
        "status_id": "TERDAFTAR",
        "sistem_elektronik_id": 1635
      }
    },
    {
      "type": "tdpseTerbit",
      "id": 2453,
      "attributes": {
        "nomor_pb_umku": null,
        "nama": "TRAVELO.ID",
        "website": "Https://travelo.id",
        "sektor": "Sektor Keuangan, Sektor Perdagangan, Sektor Teknologi Informasi dan Komunikasi, Sektor Transportasi",
        "nama_perusahaan": "CONFTECH DIGITAL INDONESIA",
        "tanggal_daftar": "2021-11-25",
        "nomor_tanda_daftar": "001614.01/DJAI.PSE/11/2021",
        "qr_code": "https://pse.kominfo.go.id/storage/images/qr_code/8f0ee9e3abbe327a7cd5b49c2e00af55.png",
        "status_id": "TERDAFTAR",
        "sistem_elektronik_id": 1697
      }
    },
    {
      "type": "tdpseTerbit",
      "id": 2452,
      "attributes": {
        "nomor_pb_umku": null,
        "nama": "PICTURE ARCHIVING AND COMMUNICATION SYSTEM",
        "website": "teleradiologi.digital",
        "sektor": "Sektor Kesehatan",
        "nama_perusahaan": "MOKERINDO MEDITRON INDONESIA",
        "tanggal_daftar": "2021-11-25",
        "nomor_tanda_daftar": "001613.01/DJAI.PSE/11/2021",
        "qr_code": "https://pse.kominfo.go.id/storage/images/qr_code/e5a4483c1bc396b5f84e836320c17913.png",
        "status_id": "TERDAFTAR",
        "sistem_elektronik_id": 1696
      }
    },
    {
      "type": "tdpseTerbit",
      "id": 2451,
      "attributes": {
        "nomor_pb_umku": null,
        "nama": "website WUNDAGI",
        "website": "https ://wundagi.com://wundagi.com",
        "sektor": "Sektor Kesehatan, Sektor Keuangan, Sektor Perdagangan, Sektor Teknologi Informasi dan Komunikasi",
        "nama_perusahaan": "KONFIGURASI TEKNO MEDIKA",
        "tanggal_daftar": "2021-11-25",
        "nomor_tanda_daftar": "001612.01/DJAI.PSE/11/2021",
        "qr_code": "https://pse.kominfo.go.id/storage/images/qr_code/5e4c69291ad9e6014aa23c1e2b488c92.png",
        "status_id": "TERDAFTAR",
        "sistem_elektronik_id": 1637
      }
    }
  ]
}