{
  "meta": {
    "page": {
      "currentPage": 777,
      "from": 7761,
      "lastPage": 957,
      "perPage": 10,
      "to": 7770,
      "total": 9563
    }
  },
  "data": [
    {
      "type": "tdpseTerbit",
      "id": 8062,
      "attributes": {
        "nomor_pb_umku": "912001519122100010001",
        "nama": "WEBSITE BANKINA.ID",
        "website": "bankina.id",
        "sektor": "Sektor Keuangan",
        "nama_perusahaan": "BANK INA PERDANA",
        "tanggal_daftar": "2022-07-20",
        "nomor_tanda_daftar": "000860.04/DJAI.PSE/07/2022",
        "qr_code": "https://pse.kominfo.go.id/storage/images/qr_code/3065552df43ff57c2caddd6262d53fa2.png",
        "status_id": "TERDAFTAR",
        "sistem_elektronik_id": 7931
      }
    },
    {
      "type": "tdpseTerbit",
      "id": 1263,
      "attributes": {
        "nomor_pb_umku": null,
        "nama": "Internet Banking Bisnis Bank Ina Perdana",
        "website": "https://ibb.bankina.co.id/",
        "sektor": "Sektor Keuangan",
        "nama_perusahaan": "BANK INA PERDANA",
        "tanggal_daftar": "2021-06-02",
        "nomor_tanda_daftar": "000860.03/DJAI.PSE/06/2021",
        "qr_code": "https://pse.kominfo.go.id/storage/images/qr_code/06af9c258c08bd5b99c5fd235fdd454f.png",
        "status_id": "TERDAFTAR",
        "sistem_elektronik_id": 932
      }
    },
    {
      "type": "tdpseTerbit",
      "id": 1260,
      "attributes": {
        "nomor_pb_umku": null,
        "nama": "Internet Banking dan Mobile Banking Bank Ina Perdana",
        "website": "https://ibi.bankina.co.id/",
        "sektor": "Sektor Keuangan",
        "nama_perusahaan": "BANK INA PERDANA",
        "tanggal_daftar": "2021-06-02",
        "nomor_tanda_daftar": "000860.02/DJAI.PSE/06/2021",
        "qr_code": "https://pse.kominfo.go.id/storage/images/qr_code/2082592e8fbd4307c41b19583360df1d.png",
        "status_id": "TERDAFTAR",
        "sistem_elektronik_id": 931
      }
    },
    {
      "type": "tdpseTerbit",
      "id": 1258,
      "attributes": {
        "nomor_pb_umku": null,
        "nama": "Website PT Bank Ina Perdana Tbk",
        "website": "www.bankina.co.id",
        "sektor": "Sektor Teknologi Informasi dan Komunikasi",
        "nama_perusahaan": "BANK INA PERDANA",
        "tanggal_daftar": "2021-06-02",
        "nomor_tanda_daftar": "000860.01/DJAI.PSE/06/2021",
        "qr_code": "https://pse.kominfo.go.id/storage/images/qr_code/ef7bea6344fe8ba04c691bd7e0f5622d.png",
        "status_id": "TERDAFTAR",
        "sistem_elektronik_id": 930
      }
    },
    {
      "type": "tdpseTerbit",
      "id": 1262,
      "attributes": {
        "nomor_pb_umku": null,
        "nama": "Surat Berharga Negara (SBN Ritel)",
        "website": "https://www.victoriabank.co.id/SBNRITEL/welcome",
        "sektor": "Sektor Keuangan",
        "nama_perusahaan": "BANK VICTORIA INTERNATIONAL",
        "tanggal_daftar": "2021-06-02",
        "nomor_tanda_daftar": "000859.05/DJAI.PSE/06/2021",
        "qr_code": "https://pse.kominfo.go.id/storage/images/qr_code/b7d4672fbdc133ccc4ce1238e1bd87e7.png",
        "status_id": "TERDAFTAR",
        "sistem_elektronik_id": 947
      }
    },
    {
      "type": "tdpseTerbit",
      "id": 1261,
      "attributes": {
        "nomor_pb_umku": null,
        "nama": "Website Bank Victoria",
        "website": "https://www.victoriabank.co.id",
        "sektor": "Sektor Keuangan",
        "nama_perusahaan": "BANK VICTORIA INTERNATIONAL",
        "tanggal_daftar": "2021-06-02",
        "nomor_tanda_daftar": "000859.04/DJAI.PSE/06/2021",
        "qr_code": "https://pse.kominfo.go.id/storage/images/qr_code/598c86b21ddb2c7fbd1cb9b146134fa6.png",
        "status_id": "TERDAFTAR",
        "sistem_elektronik_id": 946
      }
    },
    {
      "type": "tdpseTerbit",
      "id": 1259,
      "attributes": {
        "nomor_pb_umku": null,
        "nama": "Victoria Mobile",
        "website": "-",
        "sektor": "Sektor Keuangan",
        "nama_perusahaan": "BANK VICTORIA INTERNATIONAL",
        "tanggal_daftar": "2021-06-02",
        "nomor_tanda_daftar": "000859.03/DJAI.PSE/06/2021",
        "qr_code": "https://pse.kominfo.go.id/storage/images/qr_code/c130ca8dd083ab3f663e6531ef9e429c.png",
        "status_id": "TERDAFTAR",
        "sistem_elektronik_id": 945
      }
    },
    {
      "type": "tdpseTerbit",
      "id": 1257,
      "attributes": {
        "nomor_pb_umku": null,
        "nama": "internet Banking Bisnis",
        "website": "https://vib.victoriabank.co.id",
        "sektor": "Sektor Keuangan",
        "nama_perusahaan": "BANK VICTORIA INTERNATIONAL",
        "tanggal_daftar": "2021-06-02",
        "nomor_tanda_daftar": "000859.02/DJAI.PSE/06/2021",
        "qr_code": "https://pse.kominfo.go.id/storage/images/qr_code/81710f0f5e3557e5d85cebd51f2882da.png",
        "status_id": "TERDAFTAR",
        "sistem_elektronik_id": 944
      }
    },
    {
      "type": "tdpseTerbit",
      "id": 1256,
      "attributes": {
        "nomor_pb_umku": null,
        "nama": "Internet Banking Perorangan",
        "website": "https://ib.victoriabank.co.id",
        "sektor": "Sektor Keuangan",
        "nama_perusahaan": "BANK VICTORIA INTERNATIONAL",
        "tanggal_daftar": "2021-06-02",
        "nomor_tanda_daftar": "000859.01/DJAI.PSE/06/2021",
        "qr_code": "https://pse.kominfo.go.id/storage/images/qr_code/672afa9b3584a9862da9fb8dedc66149.png",
        "status_id": "TERDAFTAR",
        "sistem_elektronik_id": 943
      }
    },
    {
      "type": "tdpseTerbit",
      "id": 1254,
      "attributes": {
        "nomor_pb_umku": null,
        "nama": "BCA Syariah Mobile; Klik BCA Syariah; Klik BCA Syariah Bisnis; Website BCA Syariah",
        "website": "https://www.bcasyariah.co.id/",
        "sektor": "Sektor Keuangan",
        "nama_perusahaan": "BANK BCA SYARIAH",
        "tanggal_daftar": "2021-06-02",
        "nomor_tanda_daftar": "000858.01/DJAI.PSE/06/2021",
        "qr_code": "https://pse.kominfo.go.id/storage/images/qr_code/b17758cf59f7ecc551ae9a996c999bd6.png",
        "status_id": "TERDAFTAR",
        "sistem_elektronik_id": 890
      }
    }
  ]
}