{
  "meta": {
    "page": {
      "currentPage": 780,
      "from": 7791,
      "lastPage": 937,
      "perPage": 10,
      "to": 7800,
      "total": 9366
    }
  },
  "data": [
    {
      "type": "tdpseTerbit",
      "id": 1064,
      "attributes": {
        "nomor_pb_umku": null,
        "nama": "klikMAMI",
        "website": "https://klikmami.com/Reksadana/Home/Main",
        "sektor": "Sektor Keuangan",
        "nama_perusahaan": "MANULIFE ASET MANAJEMEN INDONESIA",
        "tanggal_daftar": "2021-06-02",
        "nomor_tanda_daftar": "000783.01/DJAI.PSE/06/2021",
        "qr_code": "https://pse.kominfo.go.id/storage/images/qr_code/90ffab1dffb1e23891f047eb3f53566f.png",
        "status_id": "TERDAFTAR",
        "sistem_elektronik_id": 716
      }
    },
    {
      "type": "tdpseTerbit",
      "id": 1063,
      "attributes": {
        "nomor_pb_umku": null,
        "nama": "DANABIJAK",
        "website": "www.danabijak.com",
        "sektor": "Sektor Keuangan",
        "nama_perusahaan": "DIGITAL MICRO INDONESIA",
        "tanggal_daftar": "2021-06-02",
        "nomor_tanda_daftar": "000782.01/DJAI.PSE/06/2021",
        "qr_code": "https://pse.kominfo.go.id/storage/images/qr_code/5ded1eb3049ead7eb1e174bbf07b537c.png",
        "status_id": "TERDAFTAR",
        "sistem_elektronik_id": 750
      }
    },
    {
      "type": "tdpseTerbit",
      "id": 1062,
      "attributes": {
        "nomor_pb_umku": null,
        "nama": "SociaBuzz",
        "website": "https://sociabuzz.com",
        "sektor": "Sektor Teknologi Informasi dan Komunikasi",
        "nama_perusahaan": "KOMUNIKA LINTAS MAYA",
        "tanggal_daftar": "2021-06-02",
        "nomor_tanda_daftar": "000781.01/DJAI.PSE/06/2021",
        "qr_code": "https://pse.kominfo.go.id/storage/images/qr_code/64322c14060ef3ecb737fa76ce863b14.png",
        "status_id": "TERDAFTAR",
        "sistem_elektronik_id": 767
      }
    },
    {
      "type": "tdpseTerbit",
      "id": 1061,
      "attributes": {
        "nomor_pb_umku": null,
        "nama": "Mekar",
        "website": "https://mekar.id",
        "sektor": "Sektor Keuangan",
        "nama_perusahaan": "MEKAR INVESTAMA SAMPOERNA",
        "tanggal_daftar": "2021-06-02",
        "nomor_tanda_daftar": "000780.01/DJAI.PSE/06/2021",
        "qr_code": "https://pse.kominfo.go.id/storage/images/qr_code/69375e6dd817bfdb12256e8092bccca4.png",
        "status_id": "TERDAFTAR",
        "sistem_elektronik_id": 3477
      }
    },
    {
      "type": "tdpseTerbit",
      "id": 7087,
      "attributes": {
        "nomor_pb_umku": "912010216234800020003",
        "nama": "SALES FORCE DANAMOBIL",
        "website": "mncdanamobil.com",
        "sektor": "Sektor Keuangan",
        "nama_perusahaan": "MNC FINANCE",
        "tanggal_daftar": "2022-07-19",
        "nomor_tanda_daftar": "000779.05/DJAI.PSE/07/2022",
        "qr_code": "https://pse.kominfo.go.id/storage/images/qr_code/5ea9cc455d27de46baef620bb2fa3716.png",
        "status_id": "TERDAFTAR",
        "sistem_elektronik_id": 6953
      }
    },
    {
      "type": "tdpseTerbit",
      "id": 6467,
      "attributes": {
        "nomor_pb_umku": "912010216234800020002",
        "nama": "ITRACK",
        "website": "mncfinance.net",
        "sektor": "Sektor Keuangan",
        "nama_perusahaan": "MNC FINANCE",
        "tanggal_daftar": "2022-07-18",
        "nomor_tanda_daftar": "000779.04/DJAI.PSE/07/2022",
        "qr_code": "https://pse.kominfo.go.id/storage/images/qr_code/816a07c09b520d4ed5949fece7155f1c.png",
        "status_id": "TERDAFTAR",
        "sistem_elektronik_id": 6329
      }
    },
    {
      "type": "tdpseTerbit",
      "id": 6451,
      "attributes": {
        "nomor_pb_umku": "912010216234800020001",
        "nama": "CORPORATE WEBSITE MNC FINANCE",
        "website": "mncfinance.com",
        "sektor": "Sektor Keuangan",
        "nama_perusahaan": "MNC FINANCE",
        "tanggal_daftar": "2022-07-18",
        "nomor_tanda_daftar": "000779.02/DJAI.PSE/07/2022",
        "qr_code": "https://pse.kominfo.go.id/storage/images/qr_code/4bd491faad80961114165060bece1b1e.png",
        "status_id": "TERDAFTAR",
        "sistem_elektronik_id": 6317
      }
    },
    {
      "type": "tdpseTerbit",
      "id": 1060,
      "attributes": {
        "nomor_pb_umku": null,
        "nama": "Bang Kredit Mobile",
        "website": "www.mncfinance.com",
        "sektor": "Sektor Keuangan",
        "nama_perusahaan": "MNC FINANCE",
        "tanggal_daftar": "2021-06-02",
        "nomor_tanda_daftar": "000779.01/DJAI.PSE/06/2021",
        "qr_code": "https://pse.kominfo.go.id/storage/images/qr_code/0c08ee5d5e7b7f792534cce61ec3c4a6.png",
        "status_id": "TERDAFTAR",
        "sistem_elektronik_id": 761
      }
    },
    {
      "type": "tdpseTerbit",
      "id": 1144,
      "attributes": {
        "nomor_pb_umku": null,
        "nama": "Perdania Direct Internet Banking",
        "website": "https://pdirect.perdania.co.id/sslvpn/Login/Login",
        "sektor": "Sektor Keuangan",
        "nama_perusahaan": "BANK RESONA PERDANIA",
        "tanggal_daftar": "2021-06-02",
        "nomor_tanda_daftar": "000778.03/DJAI.PSE/06/2021",
        "qr_code": "https://pse.kominfo.go.id/storage/images/qr_code/5a24d11cdea6ed5238276da4d1a2d5c7.png",
        "status_id": "TERDAFTAR",
        "sistem_elektronik_id": 775
      }
    },
    {
      "type": "tdpseTerbit",
      "id": 1143,
      "attributes": {
        "nomor_pb_umku": null,
        "nama": "Website  Bank Resona Perdania",
        "website": "http://www.perdania.co.id/",
        "sektor": "Sektor Keuangan",
        "nama_perusahaan": "BANK RESONA PERDANIA",
        "tanggal_daftar": "2021-06-02",
        "nomor_tanda_daftar": "000778.02/DJAI.PSE/06/2021",
        "qr_code": "https://pse.kominfo.go.id/storage/images/qr_code/74fdff35c087d3787e087b4320e0e173.png",
        "status_id": "TERDAFTAR",
        "sistem_elektronik_id": 774
      }
    }
  ]
}