{
  "meta": {
    "page": {
      "currentPage": 782,
      "from": 7811,
      "lastPage": 1041,
      "perPage": 10,
      "to": 7820,
      "total": 10407
    }
  },
  "data": [
    {
      "type": "tdpseTerbit",
      "id": 2682,
      "attributes": {
        "nomor_pb_umku": null,
        "nama": "Sprinthink",
        "website": "www.sprinthink.id",
        "sektor": "Sektor Teknologi Informasi dan Komunikasi",
        "nama_perusahaan": "PERUSAHAAN PERSEROAN (PERSERO) PT. TELEKOMUNIKASI INDONESIA",
        "tanggal_daftar": "2021-12-08",
        "nomor_tanda_daftar": "001331.38/DJAI.PSE/12/2021",
        "qr_code": "https://pse.kominfo.go.id/storage/images/qr_code/0d586065bb48bd73aafd3dd43138e860.png",
        "status_id": "TERDAFTAR",
        "sistem_elektronik_id": 1349
      }
    },
    {
      "type": "tdpseTerbit",
      "id": 2681,
      "attributes": {
        "nomor_pb_umku": null,
        "nama": "Smart Village​ Nusantara",
        "website": "www.smartvillagenusantara.id",
        "sektor": "Sektor Teknologi Informasi dan Komunikasi",
        "nama_perusahaan": "PERUSAHAAN PERSEROAN (PERSERO) PT. TELEKOMUNIKASI INDONESIA",
        "tanggal_daftar": "2021-12-08",
        "nomor_tanda_daftar": "001331.37/DJAI.PSE/12/2021",
        "qr_code": "https://pse.kominfo.go.id/storage/images/qr_code/ceea13ecbd89e67b9ebb19b778cb792c.png",
        "status_id": "TERDAFTAR",
        "sistem_elektronik_id": 1348
      }
    },
    {
      "type": "tdpseTerbit",
      "id": 2680,
      "attributes": {
        "nomor_pb_umku": null,
        "nama": "Vutura",
        "website": "www.vuturo.io",
        "sektor": "Sektor Teknologi Informasi dan Komunikasi",
        "nama_perusahaan": "PERUSAHAAN PERSEROAN (PERSERO) PT. TELEKOMUNIKASI INDONESIA",
        "tanggal_daftar": "2021-12-08",
        "nomor_tanda_daftar": "001331.36/DJAI.PSE/12/2021",
        "qr_code": "https://pse.kominfo.go.id/storage/images/qr_code/1d719165119d5758a3ee0ad06f648a08.png",
        "status_id": "TERDAFTAR",
        "sistem_elektronik_id": 1347
      }
    },
    {
      "type": "tdpseTerbit",
      "id": 2679,
      "attributes": {
        "nomor_pb_umku": null,
        "nama": "Bigbox",
        "website": "www.bigbox.co.id",
        "sektor": "Sektor Teknologi Informasi dan Komunikasi",
        "nama_perusahaan": "PERUSAHAAN PERSEROAN (PERSERO) PT. TELEKOMUNIKASI INDONESIA",
        "tanggal_daftar": "2021-12-08",
        "nomor_tanda_daftar": "001331.35/DJAI.PSE/12/2021",
        "qr_code": "https://pse.kominfo.go.id/storage/images/qr_code/264e3b23f07c5bef5f433fd029a8e856.png",
        "status_id": "TERDAFTAR",
        "sistem_elektronik_id": 1346
      }
    },
    {
      "type": "tdpseTerbit",
      "id": 2676,
      "attributes": {
        "nomor_pb_umku": null,
        "nama": "TravelAja",
        "website": "www.travelaja.id",
        "sektor": "Sektor Teknologi Informasi dan Komunikasi",
        "nama_perusahaan": "PERUSAHAAN PERSEROAN (PERSERO) PT. TELEKOMUNIKASI INDONESIA",
        "tanggal_daftar": "2021-12-08",
        "nomor_tanda_daftar": "001331.34/DJAI.PSE/12/2021",
        "qr_code": "https://pse.kominfo.go.id/storage/images/qr_code/f85eeeb885a12f87f5feaf858fea803d.png",
        "status_id": "TERDAFTAR",
        "sistem_elektronik_id": 1345
      }
    },
    {
      "type": "tdpseTerbit",
      "id": 2675,
      "attributes": {
        "nomor_pb_umku": null,
        "nama": "Logee Tracking",
        "website": "www.tracking.logee.id",
        "sektor": "Sektor Teknologi Informasi dan Komunikasi, Sektor Transportasi",
        "nama_perusahaan": "PERUSAHAAN PERSEROAN (PERSERO) PT. TELEKOMUNIKASI INDONESIA",
        "tanggal_daftar": "2021-12-08",
        "nomor_tanda_daftar": "001331.33/DJAI.PSE/12/2021",
        "qr_code": "https://pse.kominfo.go.id/storage/images/qr_code/6b04d2e22894ce74eea1551bf7d4310e.png",
        "status_id": "TERDAFTAR",
        "sistem_elektronik_id": 1344
      }
    },
    {
      "type": "tdpseTerbit",
      "id": 2674,
      "attributes": {
        "nomor_pb_umku": null,
        "nama": "Qren",
        "website": "www.qren.id",
        "sektor": "Sektor Keuangan, Sektor Teknologi Informasi dan Komunikasi",
        "nama_perusahaan": "PERUSAHAAN PERSEROAN (PERSERO) PT. TELEKOMUNIKASI INDONESIA",
        "tanggal_daftar": "2021-12-08",
        "nomor_tanda_daftar": "001331.32/DJAI.PSE/12/2021",
        "qr_code": "https://pse.kominfo.go.id/storage/images/qr_code/65124c4e722711ca87723ba99b93b141.png",
        "status_id": "TERDAFTAR",
        "sistem_elektronik_id": 1343
      }
    },
    {
      "type": "tdpseTerbit",
      "id": 2671,
      "attributes": {
        "nomor_pb_umku": null,
        "nama": "Logee Order Rural",
        "website": "www.logee.id",
        "sektor": "Sektor Teknologi Informasi dan Komunikasi, Sektor Transportasi",
        "nama_perusahaan": "PERUSAHAAN PERSEROAN (PERSERO) PT. TELEKOMUNIKASI INDONESIA",
        "tanggal_daftar": "2021-12-08",
        "nomor_tanda_daftar": "001331.31/DJAI.PSE/12/2021",
        "qr_code": "https://pse.kominfo.go.id/storage/images/qr_code/f2f48be9bb3289864e073202c1059a3f.png",
        "status_id": "TERDAFTAR",
        "sistem_elektronik_id": 1342
      }
    },
    {
      "type": "tdpseTerbit",
      "id": 2670,
      "attributes": {
        "nomor_pb_umku": null,
        "nama": "Pijar Sekolah",
        "website": "www.pijarsekolah.id",
        "sektor": "Sektor Teknologi Informasi dan Komunikasi",
        "nama_perusahaan": "PERUSAHAAN PERSEROAN (PERSERO) PT. TELEKOMUNIKASI INDONESIA",
        "tanggal_daftar": "2021-12-08",
        "nomor_tanda_daftar": "001331.30/DJAI.PSE/12/2021",
        "qr_code": "https://pse.kominfo.go.id/storage/images/qr_code/a88e5c66f9170eecb789ab6468abdbc8.png",
        "status_id": "TERDAFTAR",
        "sistem_elektronik_id": 1341
      }
    },
    {
      "type": "tdpseTerbit",
      "id": 2669,
      "attributes": {
        "nomor_pb_umku": null,
        "nama": "Logee Order",
        "website": "www.logeeorder.id",
        "sektor": "Sektor Teknologi Informasi dan Komunikasi, Sektor Transportasi",
        "nama_perusahaan": "PERUSAHAAN PERSEROAN (PERSERO) PT. TELEKOMUNIKASI INDONESIA",
        "tanggal_daftar": "2021-12-08",
        "nomor_tanda_daftar": "001331.29/DJAI.PSE/12/2021",
        "qr_code": "https://pse.kominfo.go.id/storage/images/qr_code/12213d8e51cd6e502a8d4e1f87780403.png",
        "status_id": "TERDAFTAR",
        "sistem_elektronik_id": 1340
      }
    }
  ]
}