{
  "meta": {
    "page": {
      "currentPage": 783,
      "from": 7821,
      "lastPage": 1080,
      "perPage": 10,
      "to": 7830,
      "total": 10793
    }
  },
  "data": [
    {
      "type": "tdpseTerbit",
      "id": 2310,
      "attributes": {
        "nomor_pb_umku": null,
        "nama": "Coinbit",
        "website": "https://coinbit.id/",
        "sektor": "Sektor Keuangan",
        "nama_perusahaan": "COINBIT DIGITAL INDONESIA",
        "tanggal_daftar": "2021-11-08",
        "nomor_tanda_daftar": "001525.01/DJAI.PSE/11/2021",
        "qr_code": "https://pse.kominfo.go.id/storage/images/qr_code/dfeb3540293acb671a059f27f3417009.png",
        "status_id": "TERDAFTAR",
        "sistem_elektronik_id": 1556
      }
    },
    {
      "type": "tdpseTerbit",
      "id": 2309,
      "attributes": {
        "nomor_pb_umku": null,
        "nama": "KMK Trading",
        "website": "-",
        "sektor": "Sektor Keuangan, Sektor Perdagangan",
        "nama_perusahaan": "PT. KRIPTO MAKSIMA KOIN",
        "tanggal_daftar": "2021-11-08",
        "nomor_tanda_daftar": "001524.01/DJAI.PSE/11/2021",
        "qr_code": "https://pse.kominfo.go.id/storage/images/qr_code/956333c515afb6446faf7fd49cf50e80.png",
        "status_id": "TERDAFTAR",
        "sistem_elektronik_id": 3126
      }
    },
    {
      "type": "tdpseTerbit",
      "id": 2308,
      "attributes": {
        "nomor_pb_umku": null,
        "nama": "MKS Trading",
        "website": "-",
        "sektor": "Sektor Keuangan, Sektor Perdagangan",
        "nama_perusahaan": "PT. MITRA KRIPTO SUKSES",
        "tanggal_daftar": "2021-11-08",
        "nomor_tanda_daftar": "001523.01/DJAI.PSE/11/2021",
        "qr_code": "https://pse.kominfo.go.id/storage/images/qr_code/c5ed72ce12c5fbd32c11df6648dcff35.png",
        "status_id": "TERDAFTAR",
        "sistem_elektronik_id": 3125
      }
    },
    {
      "type": "tdpseTerbit",
      "id": 2307,
      "attributes": {
        "nomor_pb_umku": null,
        "nama": "Eden Farm",
        "website": "https://www.edenfarm.id/",
        "sektor": "Sektor Pangan, Sektor Perdagangan",
        "nama_perusahaan": "Eden Pangan Indonesia",
        "tanggal_daftar": "2021-11-08",
        "nomor_tanda_daftar": "001522.01/DJAI.PSE/11/2021",
        "qr_code": "https://pse.kominfo.go.id/storage/images/qr_code/151a67d37e21ee33267bf59a0cb6b30e.png",
        "status_id": "TERDAFTAR",
        "sistem_elektronik_id": 3124
      }
    },
    {
      "type": "tdpseTerbit",
      "id": 2306,
      "attributes": {
        "nomor_pb_umku": null,
        "nama": "Midas",
        "website": "www.midas.id",
        "sektor": "Sektor Keuangan",
        "nama_perusahaan": "PT MIDAS DWANI SADAYA",
        "tanggal_daftar": "2021-11-08",
        "nomor_tanda_daftar": "001521.01/DJAI.PSE/11/2021",
        "qr_code": "https://pse.kominfo.go.id/storage/images/qr_code/5ab30894247f34bf3dfaefd4f36c4506.png",
        "status_id": "TERDAFTAR",
        "sistem_elektronik_id": 3123
      }
    },
    {
      "type": "tdpseTerbit",
      "id": 2305,
      "attributes": {
        "nomor_pb_umku": null,
        "nama": "iStyle.id",
        "website": "iStyle.id",
        "sektor": "Sektor Perdagangan",
        "nama_perusahaan": "INDO SEUNGLI MAKMUR",
        "tanggal_daftar": "2021-11-08",
        "nomor_tanda_daftar": "001520.01/DJAI.PSE/11/2021",
        "qr_code": "https://pse.kominfo.go.id/storage/images/qr_code/718359212cec1007e536fbce804b5c46.png",
        "status_id": "TERDAFTAR",
        "sistem_elektronik_id": 1553
      }
    },
    {
      "type": "tdpseTerbit",
      "id": 2304,
      "attributes": {
        "nomor_pb_umku": null,
        "nama": "3Dolphins SRM",
        "website": "https://3dolphins.ai/",
        "sektor": "Sektor Teknologi Informasi dan Komunikasi",
        "nama_perusahaan": "PT. INMOTION INOVASI TEKNOLOGI",
        "tanggal_daftar": "2021-11-08",
        "nomor_tanda_daftar": "001519.01/DJAI.PSE/11/2021",
        "qr_code": "https://pse.kominfo.go.id/storage/images/qr_code/b3668e05010747baa67362c7f1c2784f.png",
        "status_id": "TERDAFTAR",
        "sistem_elektronik_id": 3122
      }
    },
    {
      "type": "tdpseTerbit",
      "id": 11991,
      "attributes": {
        "nomor_pb_umku": "912030477035200010003",
        "nama": "WEB OPENING ACCOUNT ONLINE KIWOOM SEKURITAS INDONESIA",
        "website": "welcome.kiwoom.co.id",
        "sektor": "Sektor Keuangan",
        "nama_perusahaan": "KIWOOM SEKURITAS INDONESIA",
        "tanggal_daftar": "2022-10-27",
        "nomor_tanda_daftar": "001518.03/DJAI.PSE/10/2022",
        "qr_code": "https://pse.kominfo.go.id/storage/images/qr_code/803d89985b3c87523c77dac997200f97.png",
        "status_id": "TERDAFTAR",
        "sistem_elektronik_id": 11795
      }
    },
    {
      "type": "tdpseTerbit",
      "id": 11990,
      "attributes": {
        "nomor_pb_umku": "912030477035200010002",
        "nama": "HERO",
        "website": "-",
        "sektor": "Sektor Keuangan",
        "nama_perusahaan": "KIWOOM SEKURITAS INDONESIA",
        "tanggal_daftar": "2022-10-27",
        "nomor_tanda_daftar": "001518.02/DJAI.PSE/10/2022",
        "qr_code": "https://pse.kominfo.go.id/storage/images/qr_code/ce6f8043cccef7df0db216df970bbc08.png",
        "status_id": "TERDAFTAR",
        "sistem_elektronik_id": 11794
      }
    },
    {
      "type": "tdpseTerbit",
      "id": 2302,
      "attributes": {
        "nomor_pb_umku": null,
        "nama": "Hero Kiwoom Online Trading dan Website Opening Account Online Kiwoom Sekuritas Indonesia",
        "website": "http://kiwoom.co.id/main.html",
        "sektor": "Sektor Keuangan",
        "nama_perusahaan": "PT Kiwoom Sekuritas Indonesia",
        "tanggal_daftar": "2021-11-08",
        "nomor_tanda_daftar": "001518.01/DJAI.PSE/11/2021",
        "qr_code": "https://pse.kominfo.go.id/storage/images/qr_code/f98e0c2a0016a510aa03401c0269be42.png",
        "status_id": "TERDAFTAR",
        "sistem_elektronik_id": 3121
      }
    }
  ]
}