{
  "meta": {
    "page": {
      "currentPage": 784,
      "from": 7831,
      "lastPage": 875,
      "perPage": 10,
      "to": 7840,
      "total": 8749
    }
  },
  "data": [
    {
      "type": "tdpseTerbit",
      "id": 634,
      "attributes": {
        "nomor_pb_umku": null,
        "nama": "PAPRIKA",
        "website": "https://paprika.co.id/",
        "sektor": "Sektor Keuangan",
        "nama_perusahaan": "PAPRIKA MULTI MEDIA",
        "tanggal_daftar": "2021-04-26",
        "nomor_tanda_daftar": "000454.05/DJAI.PSE/04/2021",
        "qr_code": "https://pse.kominfo.go.id/storage/images/qr_code/80cf3e6045d036af21738f5953dabbbb.png",
        "status_id": "TERDAFTAR",
        "sistem_elektronik_id": 3248
      }
    },
    {
      "type": "tdpseTerbit",
      "id": 604,
      "attributes": {
        "nomor_pb_umku": null,
        "nama": "PAPRIKA",
        "website": "https://paprika.co.id/",
        "sektor": "Sektor Keuangan",
        "nama_perusahaan": "PAPRIKA MULTI MEDIA",
        "tanggal_daftar": "2021-04-26",
        "nomor_tanda_daftar": "000454.04/DJAI.PSE/04/2021",
        "qr_code": "https://pse.kominfo.go.id/storage/images/qr_code/e27b0cd361c90977de52b17adc7a03d3.png",
        "status_id": "TERDAFTAR",
        "sistem_elektronik_id": 3247
      }
    },
    {
      "type": "tdpseTerbit",
      "id": 603,
      "attributes": {
        "nomor_pb_umku": null,
        "nama": "PAPRIKA",
        "website": "https://paprika.co.id/",
        "sektor": "Sektor Keuangan",
        "nama_perusahaan": "PAPRIKA MULTI MEDIA",
        "tanggal_daftar": "2021-04-26",
        "nomor_tanda_daftar": "000454.03/DJAI.PSE/04/2021",
        "qr_code": "https://pse.kominfo.go.id/storage/images/qr_code/80e03fcd404071ec80b704229722938f.png",
        "status_id": "TERDAFTAR",
        "sistem_elektronik_id": 3246
      }
    },
    {
      "type": "tdpseTerbit",
      "id": 583,
      "attributes": {
        "nomor_pb_umku": null,
        "nama": "PAPRIKA",
        "website": "https://paprika.co.id/",
        "sektor": "Sektor Keuangan",
        "nama_perusahaan": "PAPRIKA MULTI MEDIA",
        "tanggal_daftar": "2021-04-26",
        "nomor_tanda_daftar": "000454.02/DJAI.PSE/04/2021",
        "qr_code": "https://pse.kominfo.go.id/storage/images/qr_code/89360e07e2bffad7f17a71e37ce053db.png",
        "status_id": "TERDAFTAR",
        "sistem_elektronik_id": 3245
      }
    },
    {
      "type": "tdpseTerbit",
      "id": 558,
      "attributes": {
        "nomor_pb_umku": null,
        "nama": "PAPRIKA",
        "website": "https://paprika.co.id/",
        "sektor": "Sektor Keuangan",
        "nama_perusahaan": "PAPRIKA MULTI MEDIA",
        "tanggal_daftar": "2021-04-26",
        "nomor_tanda_daftar": "000454.01/DJAI.PSE/04/2021",
        "qr_code": "https://pse.kominfo.go.id/storage/images/qr_code/4c4006cc3070c8682edd398dc073f208.png",
        "status_id": "TERDAFTAR",
        "sistem_elektronik_id": 3244
      }
    },
    {
      "type": "tdpseTerbit",
      "id": 5024,
      "attributes": {
        "nomor_pb_umku": "912050589239700010002",
        "nama": "MOTIONBANKING.ID",
        "website": "motionbanking.id",
        "sektor": "Sektor Keuangan",
        "nama_perusahaan": "BANK MNC INTERNASIONAL",
        "tanggal_daftar": "2022-07-01",
        "nomor_tanda_daftar": "000453.03/DJAI.PSE/07/2022",
        "qr_code": "https://pse.kominfo.go.id/storage/images/qr_code/1c008d167b8567d464cc9a77fa683fd5.png",
        "status_id": "TERDAFTAR",
        "sistem_elektronik_id": 4877
      }
    },
    {
      "type": "tdpseTerbit",
      "id": 5015,
      "attributes": {
        "nomor_pb_umku": "912050589239700010001",
        "nama": "WEBSITE PT BANK MNC INTERNASIONAL TBK",
        "website": "mncbank.co.id",
        "sektor": "Sektor Keuangan",
        "nama_perusahaan": "BANK MNC INTERNASIONAL",
        "tanggal_daftar": "2022-07-01",
        "nomor_tanda_daftar": "000453.02/DJAI.PSE/07/2022",
        "qr_code": "https://pse.kominfo.go.id/storage/images/qr_code/8dbebcab5759fcd3222b1e037d896eb3.png",
        "status_id": "TERDAFTAR",
        "sistem_elektronik_id": 4876
      }
    },
    {
      "type": "tdpseTerbit",
      "id": 4185,
      "attributes": {
        "nomor_pb_umku": "022020676165500000001",
        "nama": "BAJOJO.ID",
        "website": "-",
        "sektor": "Sektor Perdagangan",
        "nama_perusahaan": "BAJOJO MINANG DIGITAL",
        "tanggal_daftar": "2022-05-30",
        "nomor_tanda_daftar": "000453.01/DJAI.PSE/05/2022",
        "qr_code": "https://pse.kominfo.go.id/storage/images/qr_code/facbe6dd35cd68060b38912577ca66ca.png",
        "status_id": "TERDAFTAR",
        "sistem_elektronik_id": 4186
      }
    },
    {
      "type": "tdpseTerbit",
      "id": 557,
      "attributes": {
        "nomor_pb_umku": null,
        "nama": "Motion dan eBiz",
        "website": "ebiz : https://cms.mncbank.co.id",
        "sektor": "Sektor Keuangan",
        "nama_perusahaan": "BANK MNC INTERNASIONAL",
        "tanggal_daftar": "2021-04-26",
        "nomor_tanda_daftar": "000453.01/DJAI.PSE/04/2021",
        "qr_code": "https://pse.kominfo.go.id/storage/images/qr_code/d1454bb756267d6454e7b85d700c8bf1.png",
        "status_id": "TERDAFTAR",
        "sistem_elektronik_id": 3356
      }
    },
    {
      "type": "tdpseTerbit",
      "id": 556,
      "attributes": {
        "nomor_pb_umku": null,
        "nama": "Wahed Invest",
        "website": "www.wahedinvest.co.id",
        "sektor": "Sektor Keuangan",
        "nama_perusahaan": "WAHED INVESTASI INDONESIA",
        "tanggal_daftar": "2021-04-26",
        "nomor_tanda_daftar": "000452.01/DJAI.PSE/04/2021",
        "qr_code": "https://pse.kominfo.go.id/storage/images/qr_code/506cd66cde856fd7a10afd53d44ac2f7.png",
        "status_id": "TERDAFTAR",
        "sistem_elektronik_id": 267
      }
    }
  ]
}