{
  "meta": {
    "page": {
      "currentPage": 785,
      "from": 7841,
      "lastPage": 1008,
      "perPage": 10,
      "to": 7850,
      "total": 10073
    }
  },
  "data": [
    {
      "type": "tdpseTerbit",
      "id": 5300,
      "attributes": {
        "nomor_pb_umku": "912000218009900010002",
        "nama": "WEBSITE SEABANK",
        "website": "seabank.co.id",
        "sektor": "Sektor Keuangan",
        "nama_perusahaan": "BANK SEABANK INDONESIA",
        "tanggal_daftar": "2022-07-11",
        "nomor_tanda_daftar": "001052.02/DJAI.PSE/07/2022",
        "qr_code": "https://pse.kominfo.go.id/storage/images/qr_code/d34b5e36d10698aef0a5f442a0805695.png",
        "status_id": "TERDAFTAR",
        "sistem_elektronik_id": 5173
      }
    },
    {
      "type": "tdpseTerbit",
      "id": 1596,
      "attributes": {
        "nomor_pb_umku": null,
        "nama": "Aplikasi SeaBank",
        "website": "www.bankbke.co.id & www.seabank.co.id",
        "sektor": "Sektor Keuangan",
        "nama_perusahaan": "BANK SEABANK INDONESIA",
        "tanggal_daftar": "2021-06-25",
        "nomor_tanda_daftar": "001052.01/DJAI.PSE/06/2021",
        "qr_code": "https://pse.kominfo.go.id/storage/images/qr_code/b1f58ac49bce9aef9d0319e87ec61fb5.png",
        "status_id": "TERDAFTAR",
        "sistem_elektronik_id": 1184
      }
    },
    {
      "type": "tdpseTerbit",
      "id": 1595,
      "attributes": {
        "nomor_pb_umku": null,
        "nama": "XM helper",
        "website": "https://xmhelper.com",
        "sektor": "Sektor Teknologi Informasi dan Komunikasi",
        "nama_perusahaan": "TEKNOLOGI LAYANAN INFORMASI YOKA",
        "tanggal_daftar": "2021-06-25",
        "nomor_tanda_daftar": "001051.01/DJAI.PSE/06/2021",
        "qr_code": "https://pse.kominfo.go.id/storage/images/qr_code/a56c8ac1823c6552b3726703e7e0583b.png",
        "status_id": "TERDAFTAR",
        "sistem_elektronik_id": 1028
      }
    },
    {
      "type": "tdpseTerbit",
      "id": 1594,
      "attributes": {
        "nomor_pb_umku": null,
        "nama": "PT KONSEP DIGITAL INDONESIA",
        "website": "https://kodi.pictures/",
        "sektor": "Sektor Teknologi Informasi dan Komunikasi",
        "nama_perusahaan": "KONSEP DIGITAL INDONESIA",
        "tanggal_daftar": "2021-06-25",
        "nomor_tanda_daftar": "001050.01/DJAI.PSE/06/2021",
        "qr_code": "https://pse.kominfo.go.id/storage/images/qr_code/1be9c7cf5861f8637974322778b16c84.png",
        "status_id": "TERDAFTAR",
        "sistem_elektronik_id": 1111
      }
    },
    {
      "type": "tdpseTerbit",
      "id": 2015,
      "attributes": {
        "nomor_pb_umku": null,
        "nama": "ADASEMUA",
        "website": "adasemua.id",
        "sektor": "Sektor Perdagangan",
        "nama_perusahaan": "BENGAWAN CABLE VISION",
        "tanggal_daftar": "2021-10-26",
        "nomor_tanda_daftar": "001049.04/DJAI.PSE/10/2021",
        "qr_code": "https://pse.kominfo.go.id/storage/images/qr_code/2deb837857b26a21989b00f29134a9f0.png",
        "status_id": "TERDAFTAR",
        "sistem_elektronik_id": 1123
      }
    },
    {
      "type": "tdpseTerbit",
      "id": 1838,
      "attributes": {
        "nomor_pb_umku": null,
        "nama": "AdaSemua SipLah",
        "website": "www.siplah.adasemua.id",
        "sektor": "Sektor Perdagangan",
        "nama_perusahaan": "BENGAWAN CABLE VISION",
        "tanggal_daftar": "2021-08-03",
        "nomor_tanda_daftar": "001049.03/DJAI.PSE/08/2021",
        "qr_code": "https://pse.kominfo.go.id/storage/images/qr_code/3a326ebff5ec310e55995db98dcd46b7.png",
        "status_id": "TERDAFTAR",
        "sistem_elektronik_id": 1122
      }
    },
    {
      "type": "tdpseTerbit",
      "id": 1634,
      "attributes": {
        "nomor_pb_umku": null,
        "nama": "ADA SEMUA",
        "website": "adasemua.id",
        "sektor": "Sektor Perdagangan",
        "nama_perusahaan": "BENGAWAN CABLE VISION",
        "tanggal_daftar": "2021-07-01",
        "nomor_tanda_daftar": "001049.02/DJAI.PSE/07/2021",
        "qr_code": "https://pse.kominfo.go.id/storage/images/qr_code/2ee6875f82277aedb2ffad5aa1fda9aa.png",
        "status_id": "TERDAFTAR",
        "sistem_elektronik_id": 1121
      }
    },
    {
      "type": "tdpseTerbit",
      "id": 1593,
      "attributes": {
        "nomor_pb_umku": null,
        "nama": "ADASEMUA",
        "website": "adasemua.com",
        "sektor": "Sektor Perdagangan",
        "nama_perusahaan": "BENGAWAN CABLE VISION",
        "tanggal_daftar": "2021-06-25",
        "nomor_tanda_daftar": "001049.01/DJAI.PSE/06/2021",
        "qr_code": "https://pse.kominfo.go.id/storage/images/qr_code/72af55422057c032438cd39ee4e7ce8f.png",
        "status_id": "TERDAFTAR",
        "sistem_elektronik_id": 1120
      }
    },
    {
      "type": "tdpseTerbit",
      "id": 1592,
      "attributes": {
        "nomor_pb_umku": null,
        "nama": "MyBlueBird",
        "website": "www.bluebirdgroup.com",
        "sektor": "Sektor Transportasi",
        "nama_perusahaan": "BLUE BIRD Tbk",
        "tanggal_daftar": "2021-06-25",
        "nomor_tanda_daftar": "001048.01/DJAI.PSE/06/2021",
        "qr_code": "https://pse.kominfo.go.id/storage/images/qr_code/79b17400de179f9c512ca781cb88f381.png",
        "status_id": "TERDAFTAR",
        "sistem_elektronik_id": 1177
      }
    },
    {
      "type": "tdpseTerbit",
      "id": 1589,
      "attributes": {
        "nomor_pb_umku": null,
        "nama": "Furee",
        "website": "https://furee.id",
        "sektor": "Sektor Perdagangan",
        "nama_perusahaan": "DIGITAL PRIMA LESTARI",
        "tanggal_daftar": "2021-06-24",
        "nomor_tanda_daftar": "001047.01/DJAI.PSE/06/2021",
        "qr_code": "https://pse.kominfo.go.id/storage/images/qr_code/13d4b4f73ffac652f94a3668d2ee8fdf.png",
        "status_id": "TERDAFTAR",
        "sistem_elektronik_id": 1180
      }
    }
  ]
}