{
  "meta": {
    "page": {
      "currentPage": 787,
      "from": 7861,
      "lastPage": 1008,
      "perPage": 10,
      "to": 7870,
      "total": 10073
    }
  },
  "data": [
    {
      "type": "tdpseTerbit",
      "id": 2014,
      "attributes": {
        "nomor_pb_umku": null,
        "nama": "Bank Mega Employee Mobile",
        "website": "https://memo.bankmega.com",
        "sektor": "Sektor Keuangan",
        "nama_perusahaan": "BANK MEGA",
        "tanggal_daftar": "2021-10-26",
        "nomor_tanda_daftar": "001040.18/DJAI.PSE/10/2021",
        "qr_code": "https://pse.kominfo.go.id/storage/images/qr_code/d2d02be9bfd99658fccb37afb7cd9676.png",
        "status_id": "TERDAFTAR",
        "sistem_elektronik_id": 1168
      }
    },
    {
      "type": "tdpseTerbit",
      "id": 1638,
      "attributes": {
        "nomor_pb_umku": null,
        "nama": "Bank Mega Registrasi/Ubah PIN Credit Card",
        "website": "https://ibank.bankmega.com/regpin/index.php",
        "sektor": "Sektor Keuangan",
        "nama_perusahaan": "BANK MEGA",
        "tanggal_daftar": "2021-07-01",
        "nomor_tanda_daftar": "001040.16/DJAI.PSE/07/2021",
        "qr_code": "https://pse.kominfo.go.id/storage/images/qr_code/b97c8c8e83d60c91c46d862d4b5e911f.png",
        "status_id": "TERDAFTAR",
        "sistem_elektronik_id": 1166
      }
    },
    {
      "type": "tdpseTerbit",
      "id": 1632,
      "attributes": {
        "nomor_pb_umku": null,
        "nama": "Bank Mega Document Courier Tracking Credit Card",
        "website": "https://doctrack.bankmega.com",
        "sektor": "Sektor Keuangan",
        "nama_perusahaan": "BANK MEGA",
        "tanggal_daftar": "2021-07-01",
        "nomor_tanda_daftar": "001040.15/DJAI.PSE/07/2021",
        "qr_code": "https://pse.kominfo.go.id/storage/images/qr_code/9fdabe7d1913795f5245db91ca21ab7f.png",
        "status_id": "TERDAFTAR",
        "sistem_elektronik_id": 1165
      }
    },
    {
      "type": "tdpseTerbit",
      "id": 1631,
      "attributes": {
        "nomor_pb_umku": null,
        "nama": "Bank Mega Microsite Pengajuan Credit Card",
        "website": "https://ms.bankmega.com",
        "sektor": "Sektor Keuangan",
        "nama_perusahaan": "BANK MEGA",
        "tanggal_daftar": "2021-07-01",
        "nomor_tanda_daftar": "001040.14/DJAI.PSE/07/2021",
        "qr_code": "https://pse.kominfo.go.id/storage/images/qr_code/b4da100c536ba797c561942c1988981b.png",
        "status_id": "TERDAFTAR",
        "sistem_elektronik_id": 1164
      }
    },
    {
      "type": "tdpseTerbit",
      "id": 1629,
      "attributes": {
        "nomor_pb_umku": null,
        "nama": "Bank Mega Microsite Cicilan",
        "website": "https://mp.bankmega.com",
        "sektor": "Sektor Keuangan",
        "nama_perusahaan": "BANK MEGA",
        "tanggal_daftar": "2021-07-01",
        "nomor_tanda_daftar": "001040.13/DJAI.PSE/07/2021",
        "qr_code": "https://pse.kominfo.go.id/storage/images/qr_code/a7df624f5be6c53c34a47ba7cdbd3c60.png",
        "status_id": "TERDAFTAR",
        "sistem_elektronik_id": 1163
      }
    },
    {
      "type": "tdpseTerbit",
      "id": 1621,
      "attributes": {
        "nomor_pb_umku": null,
        "nama": "Bank Mega Ubah PIN Credit Card",
        "website": "https://ubahpin.bankmega.com",
        "sektor": "Sektor Keuangan",
        "nama_perusahaan": "BANK MEGA",
        "tanggal_daftar": "2021-07-01",
        "nomor_tanda_daftar": "001040.12/DJAI.PSE/07/2021",
        "qr_code": "https://pse.kominfo.go.id/storage/images/qr_code/b71934043543a8885453d84946c2ca31.png",
        "status_id": "TERDAFTAR",
        "sistem_elektronik_id": 1162
      }
    },
    {
      "type": "tdpseTerbit",
      "id": 1610,
      "attributes": {
        "nomor_pb_umku": null,
        "nama": "Bank Mega ESBN",
        "website": "https://sbnonline.bankmega.com",
        "sektor": "Sektor Keuangan",
        "nama_perusahaan": "BANK MEGA",
        "tanggal_daftar": "2021-07-01",
        "nomor_tanda_daftar": "001040.11/DJAI.PSE/07/2021",
        "qr_code": "https://pse.kominfo.go.id/storage/images/qr_code/25467369dc295029d0a2a9b5079bddf8.png",
        "status_id": "TERDAFTAR",
        "sistem_elektronik_id": 1161
      }
    },
    {
      "type": "tdpseTerbit",
      "id": 1609,
      "attributes": {
        "nomor_pb_umku": null,
        "nama": "Bank Mega Mobile Acquititions Tools",
        "website": "https://mauto.bankmega.com/mauto/index.php/login",
        "sektor": "Sektor Keuangan",
        "nama_perusahaan": "BANK MEGA",
        "tanggal_daftar": "2021-07-01",
        "nomor_tanda_daftar": "001040.10/DJAI.PSE/07/2021",
        "qr_code": "https://pse.kominfo.go.id/storage/images/qr_code/e063d70206207dee5f3f7f99cf8c24fc.png",
        "status_id": "TERDAFTAR",
        "sistem_elektronik_id": 1160
      }
    },
    {
      "type": "tdpseTerbit",
      "id": 1607,
      "attributes": {
        "nomor_pb_umku": null,
        "nama": "Bank Mega Mobile On Boarding",
        "website": "https://mobonboarding.bankmega.com/index.php/login",
        "sektor": "Sektor Keuangan",
        "nama_perusahaan": "BANK MEGA",
        "tanggal_daftar": "2021-07-01",
        "nomor_tanda_daftar": "001040.09/DJAI.PSE/07/2021",
        "qr_code": "https://pse.kominfo.go.id/storage/images/qr_code/70de28cc5713b7d3f3ffbd98439cee99.png",
        "status_id": "TERDAFTAR",
        "sistem_elektronik_id": 1159
      }
    },
    {
      "type": "tdpseTerbit",
      "id": 1606,
      "attributes": {
        "nomor_pb_umku": null,
        "nama": "Bank Mega MegaFirst",
        "website": "https://bankmega.com/id/megafirst/",
        "sektor": "Sektor Keuangan",
        "nama_perusahaan": "BANK MEGA",
        "tanggal_daftar": "2021-07-01",
        "nomor_tanda_daftar": "001040.08/DJAI.PSE/07/2021",
        "qr_code": "https://pse.kominfo.go.id/storage/images/qr_code/466f1f4cd0b28866c320e2062a20e9cc.png",
        "status_id": "TERDAFTAR",
        "sistem_elektronik_id": 1158
      }
    }
  ]
}