{
  "meta": {
    "page": {
      "currentPage": 788,
      "from": 7871,
      "lastPage": 1074,
      "perPage": 10,
      "to": 7880,
      "total": 10738
    }
  },
  "data": [
    {
      "type": "tdpseTerbit",
      "id": 2184,
      "attributes": {
        "nomor_pb_umku": null,
        "nama": "ASTA BUMI CIPTA",
        "website": "astabumi.com",
        "sektor": "Sektor Energi dan Sumber Daya Mineral, Sektor Keuangan, Sektor Perdagangan, Sektor Teknologi Informasi dan Komunikasi, Sektor Transportasi",
        "nama_perusahaan": "PT ASTA BUMI CIPTA",
        "tanggal_daftar": "2021-11-01",
        "nomor_tanda_daftar": "001456.01/DJAI.PSE/11/2021",
        "qr_code": "https://pse.kominfo.go.id/storage/images/qr_code/05b4bdb548b68a3e3adb22ed73948a54.png",
        "status_id": "TERDAFTAR",
        "sistem_elektronik_id": 3077
      }
    },
    {
      "type": "tdpseTerbit",
      "id": 2183,
      "attributes": {
        "nomor_pb_umku": null,
        "nama": "SLASH",
        "website": "www.getslash.id",
        "sektor": "Sektor Perdagangan, Sektor Teknologi Informasi dan Komunikasi",
        "nama_perusahaan": "ORI SERVICES INDONESIA",
        "tanggal_daftar": "2021-11-01",
        "nomor_tanda_daftar": "001455.01/DJAI.PSE/11/2021",
        "qr_code": "https://pse.kominfo.go.id/storage/images/qr_code/cdd5e8b65010a23f6ff14ff3af551f3a.png",
        "status_id": "TERDAFTAR",
        "sistem_elektronik_id": 1520
      }
    },
    {
      "type": "tdpseTerbit",
      "id": 2182,
      "attributes": {
        "nomor_pb_umku": null,
        "nama": "honestdocs",
        "website": "honestdocs.id",
        "sektor": "Sektor Kesehatan",
        "nama_perusahaan": "BIMINI LONGEVITY INDONESIA",
        "tanggal_daftar": "2021-11-01",
        "nomor_tanda_daftar": "001454.01/DJAI.PSE/11/2021",
        "qr_code": "https://pse.kominfo.go.id/storage/images/qr_code/7d0a06abbf54c641bce608eec40ae1f7.png",
        "status_id": "TERDAFTAR",
        "sistem_elektronik_id": 1537
      }
    },
    {
      "type": "tdpseTerbit",
      "id": 3191,
      "attributes": {
        "nomor_pb_umku": null,
        "nama": "Property.co.id",
        "website": "Property.co.id",
        "sektor": "Sektor Perdagangan",
        "nama_perusahaan": "EDRUS SAFTA ANUGERAH",
        "tanggal_daftar": "2022-02-08",
        "nomor_tanda_daftar": "001453.02/DJAI.PSE/02/2022",
        "qr_code": "https://pse.kominfo.go.id/storage/images/qr_code/218579c5587a9be074c8865316467de4.png",
        "status_id": "TERDAFTAR",
        "sistem_elektronik_id": 449
      }
    },
    {
      "type": "tdpseTerbit",
      "id": 2181,
      "attributes": {
        "nomor_pb_umku": null,
        "nama": "Ambassador.id",
        "website": "Ambassador.id",
        "sektor": "Sektor Perdagangan",
        "nama_perusahaan": "EDRUS SAFTA ANUGERAH",
        "tanggal_daftar": "2021-11-01",
        "nomor_tanda_daftar": "001453.01/DJAI.PSE/11/2021",
        "qr_code": "https://pse.kominfo.go.id/storage/images/qr_code/e5ae3b9934589cf4fe1f2c9c065b97e8.png",
        "status_id": "TERDAFTAR",
        "sistem_elektronik_id": 448
      }
    },
    {
      "type": "tdpseTerbit",
      "id": 2180,
      "attributes": {
        "nomor_pb_umku": null,
        "nama": "https://araputra-store.co.id",
        "website": "https://araputra-store.co.id",
        "sektor": "Sektor Keuangan, Sektor Perdagangan",
        "nama_perusahaan": "ARAPUTRA FORTUNA PERKASA",
        "tanggal_daftar": "2021-10-27",
        "nomor_tanda_daftar": "001452.01/DJAI.PSE/10/2021",
        "qr_code": "https://pse.kominfo.go.id/storage/images/qr_code/a2eb8af5057c2418e23ade9fd103ada9.png",
        "status_id": "TERDAFTAR",
        "sistem_elektronik_id": 3416
      }
    },
    {
      "type": "tdpseTerbit",
      "id": 2179,
      "attributes": {
        "nomor_pb_umku": null,
        "nama": "Taxsam.co Learning Center",
        "website": "https://edu.taxsam.co/",
        "sektor": "Sektor Teknologi Informasi dan Komunikasi",
        "nama_perusahaan": "PT SOLUSI ALLINDO MANDIRI",
        "tanggal_daftar": "2021-10-27",
        "nomor_tanda_daftar": "001451.01/DJAI.PSE/10/2021",
        "qr_code": "https://pse.kominfo.go.id/storage/images/qr_code/68506a027c0c2698bc7730ee89eb34c7.png",
        "status_id": "TERDAFTAR",
        "sistem_elektronik_id": 3076
      }
    },
    {
      "type": "tdpseTerbit",
      "id": 2178,
      "attributes": {
        "nomor_pb_umku": null,
        "nama": "Platform perdagangan Aset kripto PT. Upbit Exchange Indonesia",
        "website": "https://upbit.co.id",
        "sektor": "Sektor Perdagangan",
        "nama_perusahaan": "UPBIT EXCHANGE INDONESIA",
        "tanggal_daftar": "2021-10-27",
        "nomor_tanda_daftar": "001450.01/DJAI.PSE/10/2021",
        "qr_code": "https://pse.kominfo.go.id/storage/images/qr_code/01cbd94ae55ecc231cc403ef7fc6cf81.png",
        "status_id": "TERDAFTAR",
        "sistem_elektronik_id": 2558
      }
    },
    {
      "type": "tdpseTerbit",
      "id": 11576,
      "attributes": {
        "nomor_pb_umku": "912020361208200010001",
        "nama": "CEKAJA.COM",
        "website": "cekaja.com",
        "sektor": "Sektor Teknologi Informasi dan Komunikasi",
        "nama_perusahaan": "CEKAJA MERDEKA KEUANGAN",
        "tanggal_daftar": "2022-10-06",
        "nomor_tanda_daftar": "001449.02/DJAI.PSE/10/2022",
        "qr_code": "https://pse.kominfo.go.id/storage/images/qr_code/431e8f8a9ac80b4f8771559911880a3f.png",
        "status_id": "TERDAFTAR",
        "sistem_elektronik_id": 10960
      }
    },
    {
      "type": "tdpseTerbit",
      "id": 2172,
      "attributes": {
        "nomor_pb_umku": null,
        "nama": "Admin Tool",
        "website": "www.cekaja.com",
        "sektor": "Sektor Keuangan",
        "nama_perusahaan": "PT Puncak Finansial Utama",
        "tanggal_daftar": "2021-10-27",
        "nomor_tanda_daftar": "001449.01/DJAI.PSE/10/2021",
        "qr_code": "https://pse.kominfo.go.id/storage/images/qr_code/4e787d2f39f0abe202e8a67082b9fd6b.png",
        "status_id": "TERDAFTAR",
        "sistem_elektronik_id": 3075
      }
    }
  ]
}