{
  "meta": {
    "page": {
      "currentPage": 789,
      "from": 7881,
      "lastPage": 1089,
      "perPage": 10,
      "to": 7890,
      "total": 10885
    }
  },
  "data": [
    {
      "type": "tdpseTerbit",
      "id": 2350,
      "attributes": {
        "nomor_pb_umku": null,
        "nama": "dsds",
        "website": "www.kosonganaja.com",
        "sektor": "Sektor Perdagangan",
        "nama_perusahaan": "Gemilang sentosa",
        "tanggal_daftar": "2021-11-08",
        "nomor_tanda_daftar": "001543.01/DJAI.PSE/11/2021",
        "qr_code": "https://pse.kominfo.go.id/storage/images/qr_code/8f80391b3946b6991779582a3ad4a5ee.png",
        "status_id": "TERDAFTAR",
        "sistem_elektronik_id": 3138
      }
    },
    {
      "type": "tdpseTerbit",
      "id": 2348,
      "attributes": {
        "nomor_pb_umku": null,
        "nama": "dsds",
        "website": "www.kosongan.com",
        "sektor": "Sektor Perdagangan",
        "nama_perusahaan": "ksp",
        "tanggal_daftar": "2021-11-08",
        "nomor_tanda_daftar": "001542.01/DJAI.PSE/11/2021",
        "qr_code": "https://pse.kominfo.go.id/storage/images/qr_code/60c77abfd9b9afc44a85fd3d1e29d379.png",
        "status_id": "TERDAFTAR",
        "sistem_elektronik_id": 3137
      }
    },
    {
      "type": "tdpseTerbit",
      "id": 2351,
      "attributes": {
        "nomor_pb_umku": null,
        "nama": "ME Interaction",
        "website": "jidokasystem.co.id",
        "sektor": "Sektor Teknologi Informasi dan Komunikasi",
        "nama_perusahaan": "JIDOKA SYSTEM INDONESIA",
        "tanggal_daftar": "2021-11-08",
        "nomor_tanda_daftar": "001541.02/DJAI.PSE/11/2021",
        "qr_code": "https://pse.kominfo.go.id/storage/images/qr_code/9b54c0fd045cd7039de59210f805dfb5.png",
        "status_id": "TERDAFTAR",
        "sistem_elektronik_id": 3355
      }
    },
    {
      "type": "tdpseTerbit",
      "id": 2347,
      "attributes": {
        "nomor_pb_umku": null,
        "nama": "JS3",
        "website": "jidokasystem.co.id",
        "sektor": "Sektor Teknologi Informasi dan Komunikasi",
        "nama_perusahaan": "JIDOKA SYSTEM INDONESIA",
        "tanggal_daftar": "2021-11-08",
        "nomor_tanda_daftar": "001541.01/DJAI.PSE/11/2021",
        "qr_code": "https://pse.kominfo.go.id/storage/images/qr_code/ec4ce0ea15071b49fe499252277a01ab.png",
        "status_id": "TERDAFTAR",
        "sistem_elektronik_id": 3354
      }
    },
    {
      "type": "tdpseTerbit",
      "id": 2346,
      "attributes": {
        "nomor_pb_umku": null,
        "nama": "oneshafplus",
        "website": "https://oneshafplus.id",
        "sektor": "Sektor Keuangan",
        "nama_perusahaan": "PT. Alfin Digital Indonesia",
        "tanggal_daftar": "2021-11-08",
        "nomor_tanda_daftar": "001540.01/DJAI.PSE/11/2021",
        "qr_code": "https://pse.kominfo.go.id/storage/images/qr_code/5d90de0fc45624615988f0b705ee8fbc.png",
        "status_id": "TERDAFTAR",
        "sistem_elektronik_id": 3136
      }
    },
    {
      "type": "tdpseTerbit",
      "id": 2345,
      "attributes": {
        "nomor_pb_umku": null,
        "nama": "Jubelio",
        "website": "https://jubelio.com",
        "sektor": "Sektor Teknologi Informasi dan Komunikasi",
        "nama_perusahaan": "PT Guardia Teknologi Indonesia",
        "tanggal_daftar": "2021-11-08",
        "nomor_tanda_daftar": "001539.01/DJAI.PSE/11/2021",
        "qr_code": "https://pse.kominfo.go.id/storage/images/qr_code/df97d2d2f62b34af6d7f27018879665f.png",
        "status_id": "TERDAFTAR",
        "sistem_elektronik_id": 3135
      }
    },
    {
      "type": "tdpseTerbit",
      "id": 12136,
      "attributes": {
        "nomor_pb_umku": "912021905073900000001",
        "nama": "BUKUDIGITALKU.COM",
        "website": "ns.jagoanhosting.com",
        "sektor": "Sektor Perdagangan, Sektor Teknologi Informasi dan Komunikasi",
        "nama_perusahaan": "OMAH TEKNOLOGI INDONESIA",
        "tanggal_daftar": "2022-11-05",
        "nomor_tanda_daftar": "001538.02/DJAI.PSE/11/2022",
        "qr_code": "https://pse.kominfo.go.id/storage/images/qr_code/77cedf55cbe47a304a4103dc3d0d8f77.png",
        "status_id": "TERDAFTAR",
        "sistem_elektronik_id": 11931
      }
    },
    {
      "type": "tdpseTerbit",
      "id": 2344,
      "attributes": {
        "nomor_pb_umku": null,
        "nama": "belanja24",
        "website": "http://omah-ti.com/",
        "sektor": "Sektor Perdagangan",
        "nama_perusahaan": "OMAH TEKNOLOGI INDONESIA",
        "tanggal_daftar": "2021-11-08",
        "nomor_tanda_daftar": "001538.01/DJAI.PSE/11/2021",
        "qr_code": "https://pse.kominfo.go.id/storage/images/qr_code/784f7e5e96e6c7a7c36f7567b8cd24bc.png",
        "status_id": "TERDAFTAR",
        "sistem_elektronik_id": 1541
      }
    },
    {
      "type": "tdpseTerbit",
      "id": 5271,
      "attributes": {
        "nomor_pb_umku": "812010470244100000001",
        "nama": "QOALAPLUS.COM",
        "website": "qoalaplus.com",
        "sektor": "Sektor Keuangan",
        "nama_perusahaan": "ARCHOR TEKNOLOGI DIGITAL",
        "tanggal_daftar": "2022-07-11",
        "nomor_tanda_daftar": "001537.02/DJAI.PSE/07/2022",
        "qr_code": "https://pse.kominfo.go.id/storage/images/qr_code/2cabf880a320e1fba10d57540bb60d41.png",
        "status_id": "TERDAFTAR",
        "sistem_elektronik_id": 5139
      }
    },
    {
      "type": "tdpseTerbit",
      "id": 2343,
      "attributes": {
        "nomor_pb_umku": null,
        "nama": "Qoala.app",
        "website": "https://qoala.app",
        "sektor": "Sektor Keuangan",
        "nama_perusahaan": "ARCHOR TEKNOLOGI DIGITAL",
        "tanggal_daftar": "2021-11-08",
        "nomor_tanda_daftar": "001537.01/DJAI.PSE/11/2021",
        "qr_code": "https://pse.kominfo.go.id/storage/images/qr_code/69987c40e5a55406e55d477e0163c92c.png",
        "status_id": "TERDAFTAR",
        "sistem_elektronik_id": 93
      }
    }
  ]
}