{
  "meta": {
    "page": {
      "currentPage": 790,
      "from": 7891,
      "lastPage": 1028,
      "perPage": 10,
      "to": 7900,
      "total": 10273
    }
  },
  "data": [
    {
      "type": "tdpseTerbit",
      "id": 1752,
      "attributes": {
        "nomor_pb_umku": null,
        "nama": "VIDA",
        "website": "https://vida.co.id",
        "sektor": "Sektor Kesehatan, Sektor Keuangan",
        "nama_perusahaan": "LIPPO LIFE ASSURANCE",
        "tanggal_daftar": "2021-07-22",
        "nomor_tanda_daftar": "001166.01/DJAI.PSE/07/2021",
        "qr_code": "https://pse.kominfo.go.id/storage/images/qr_code/27ffb5c82e77538fc0788219e8f5d647.png",
        "status_id": "TERDAFTAR",
        "sistem_elektronik_id": 1290
      }
    },
    {
      "type": "tdpseTerbit",
      "id": 1749,
      "attributes": {
        "nomor_pb_umku": null,
        "nama": "odindex",
        "website": "WWW.ODINDEX.COM",
        "sektor": "Sektor Perdagangan",
        "nama_perusahaan": "ODIN PERKASA INDONESIA",
        "tanggal_daftar": "2021-07-22",
        "nomor_tanda_daftar": "001163.01/DJAI.PSE/07/2021",
        "qr_code": "https://pse.kominfo.go.id/storage/images/qr_code/98e6cf43360cad534bd1a707d5e67c06.png",
        "status_id": "TERDAFTAR",
        "sistem_elektronik_id": 1291
      }
    },
    {
      "type": "tdpseTerbit",
      "id": 1748,
      "attributes": {
        "nomor_pb_umku": null,
        "nama": "Express Wifi by Primacom",
        "website": "https://primacom-id.expresswifi.com/",
        "sektor": "Sektor Teknologi Informasi dan Komunikasi",
        "nama_perusahaan": "PRIMACOM INTERBUANA",
        "tanggal_daftar": "2021-07-22",
        "nomor_tanda_daftar": "001162.01/DJAI.PSE/07/2021",
        "qr_code": "https://pse.kominfo.go.id/storage/images/qr_code/e7da248e4ab4678b5cc6d21f32abbc20.png",
        "status_id": "TERDAFTAR",
        "sistem_elektronik_id": 344
      }
    },
    {
      "type": "tdpseTerbit",
      "id": 1746,
      "attributes": {
        "nomor_pb_umku": null,
        "nama": "Komunikasi Jaya Bersama",
        "website": "komunikasijaya.id",
        "sektor": "Sektor Keuangan, Sektor Teknologi Informasi dan Komunikasi",
        "nama_perusahaan": "KOMUNIKASI JAYA BERSAMA",
        "tanggal_daftar": "2021-07-22",
        "nomor_tanda_daftar": "001160.01/DJAI.PSE/07/2021",
        "qr_code": "https://pse.kominfo.go.id/storage/images/qr_code/b6e4e35f6a1bdcdf9fffa558ed7cc8a3.png",
        "status_id": "TERDAFTAR",
        "sistem_elektronik_id": 1297
      }
    },
    {
      "type": "tdpseTerbit",
      "id": 1745,
      "attributes": {
        "nomor_pb_umku": null,
        "nama": "PBKTL CLUB",
        "website": "https://pbktlclub.id/",
        "sektor": "Sektor Perdagangan",
        "nama_perusahaan": "PBKTL SAPTA INDONESIA",
        "tanggal_daftar": "2021-07-22",
        "nomor_tanda_daftar": "001159.01/DJAI.PSE/07/2021",
        "qr_code": "https://pse.kominfo.go.id/storage/images/qr_code/59984a115b086d28eb0495149f1ee02d.png",
        "status_id": "TERDAFTAR",
        "sistem_elektronik_id": 1294
      }
    },
    {
      "type": "tdpseTerbit",
      "id": 1744,
      "attributes": {
        "nomor_pb_umku": null,
        "nama": "BITREXGO",
        "website": "https://www.bitrexgo.co.id/",
        "sektor": "Sektor Perdagangan",
        "nama_perusahaan": "BITREXGO SOLUSI PRIMA",
        "tanggal_daftar": "2021-07-22",
        "nomor_tanda_daftar": "001158.01/DJAI.PSE/07/2021",
        "qr_code": "https://pse.kominfo.go.id/storage/images/qr_code/2e7a974e8879dff0c8e4d4ec5e7c62f3.png",
        "status_id": "TERDAFTAR",
        "sistem_elektronik_id": 1296
      }
    },
    {
      "type": "tdpseTerbit",
      "id": 1743,
      "attributes": {
        "nomor_pb_umku": null,
        "nama": "TH-GO",
        "website": "http://thgo.co.id",
        "sektor": "Sektor Transportasi",
        "nama_perusahaan": "TUNAS HIJAU DIGITAL RESOURCE",
        "tanggal_daftar": "2021-07-22",
        "nomor_tanda_daftar": "001157.01/DJAI.PSE/07/2021",
        "qr_code": "https://pse.kominfo.go.id/storage/images/qr_code/d323eb039734b22d8d0d7b02fd290099.png",
        "status_id": "TERDAFTAR",
        "sistem_elektronik_id": 1258
      }
    },
    {
      "type": "tdpseTerbit",
      "id": 1742,
      "attributes": {
        "nomor_pb_umku": null,
        "nama": "Farmasee",
        "website": "https://farmasee.id",
        "sektor": "Sektor Kesehatan",
        "nama_perusahaan": "VISI TEKNO FARMA PERSADA",
        "tanggal_daftar": "2021-07-22",
        "nomor_tanda_daftar": "001156.01/DJAI.PSE/07/2021",
        "qr_code": "https://pse.kominfo.go.id/storage/images/qr_code/c5e23f740e9bc9e30ed6c3c5ca731b8f.png",
        "status_id": "TERDAFTAR",
        "sistem_elektronik_id": 722
      }
    },
    {
      "type": "tdpseTerbit",
      "id": 1741,
      "attributes": {
        "nomor_pb_umku": null,
        "nama": "Arsitag",
        "website": "www.arsitag.com",
        "sektor": "Sektor Teknologi Informasi dan Komunikasi",
        "nama_perusahaan": "TRITAMA GEMILANG SUKSES",
        "tanggal_daftar": "2021-07-22",
        "nomor_tanda_daftar": "001155.01/DJAI.PSE/07/2021",
        "qr_code": "https://pse.kominfo.go.id/storage/images/qr_code/b25977fdf20d47cf9dbed5c87874c96d.png",
        "status_id": "TERDAFTAR",
        "sistem_elektronik_id": 1196
      }
    },
    {
      "type": "tdpseTerbit",
      "id": 1740,
      "attributes": {
        "nomor_pb_umku": null,
        "nama": "Swadaya",
        "website": "www.swadaya.id",
        "sektor": "Sektor Keuangan",
        "nama_perusahaan": "SWADAYA REKSABUMI INVESTAMA",
        "tanggal_daftar": "2021-07-22",
        "nomor_tanda_daftar": "001154.01/DJAI.PSE/07/2021",
        "qr_code": "https://pse.kominfo.go.id/storage/images/qr_code/1184c51198793d88886df5ee31561c31.png",
        "status_id": "TERDAFTAR",
        "sistem_elektronik_id": 350
      }
    }
  ]
}