{
  "meta": {
    "page": {
      "currentPage": 792,
      "from": 7911,
      "lastPage": 949,
      "perPage": 10,
      "to": 7920,
      "total": 9482
    }
  },
  "data": [
    {
      "type": "tdpseTerbit",
      "id": 1144,
      "attributes": {
        "nomor_pb_umku": null,
        "nama": "Perdania Direct Internet Banking",
        "website": "https://pdirect.perdania.co.id/sslvpn/Login/Login",
        "sektor": "Sektor Keuangan",
        "nama_perusahaan": "BANK RESONA PERDANIA",
        "tanggal_daftar": "2021-06-02",
        "nomor_tanda_daftar": "000778.03/DJAI.PSE/06/2021",
        "qr_code": "https://pse.kominfo.go.id/storage/images/qr_code/5a24d11cdea6ed5238276da4d1a2d5c7.png",
        "status_id": "TERDAFTAR",
        "sistem_elektronik_id": 775
      }
    },
    {
      "type": "tdpseTerbit",
      "id": 1143,
      "attributes": {
        "nomor_pb_umku": null,
        "nama": "Website  Bank Resona Perdania",
        "website": "http://www.perdania.co.id/",
        "sektor": "Sektor Keuangan",
        "nama_perusahaan": "BANK RESONA PERDANIA",
        "tanggal_daftar": "2021-06-02",
        "nomor_tanda_daftar": "000778.02/DJAI.PSE/06/2021",
        "qr_code": "https://pse.kominfo.go.id/storage/images/qr_code/74fdff35c087d3787e087b4320e0e173.png",
        "status_id": "TERDAFTAR",
        "sistem_elektronik_id": 774
      }
    },
    {
      "type": "tdpseTerbit",
      "id": 1059,
      "attributes": {
        "nomor_pb_umku": null,
        "nama": "Website  Bank Resona Perdania  & \tPerdania Direct Internet Banking",
        "website": "http://www.perdania.co.id/ & https://pdirect.perdania.co.id/sslvpn/Login/Login",
        "sektor": "Sektor Keuangan",
        "nama_perusahaan": "BANK RESONA PERDANIA",
        "tanggal_daftar": "2021-06-02",
        "nomor_tanda_daftar": "000778.01/DJAI.PSE/06/2021",
        "qr_code": "https://pse.kominfo.go.id/storage/images/qr_code/7ab865a518f8772d6b3d414e185063f1.png",
        "status_id": "TERDAFTAR",
        "sistem_elektronik_id": 773
      }
    },
    {
      "type": "tdpseTerbit",
      "id": 1057,
      "attributes": {
        "nomor_pb_umku": null,
        "nama": "inDriver",
        "website": "-",
        "sektor": "Sektor Teknologi Informasi dan Komunikasi, Sektor Transportasi",
        "nama_perusahaan": "IND MOBITECH SERVICE",
        "tanggal_daftar": "2021-05-28",
        "nomor_tanda_daftar": "000777.01/DJAI.PSE/05/2021",
        "qr_code": "https://pse.kominfo.go.id/storage/images/qr_code/21e3c36c74bd3ef19394786f360ebb23.png",
        "status_id": "TERDAFTAR",
        "sistem_elektronik_id": 822
      }
    },
    {
      "type": "tdpseTerbit",
      "id": 1053,
      "attributes": {
        "nomor_pb_umku": null,
        "nama": "WM-UMROH",
        "website": "https://www.wmumroh.co.id/",
        "sektor": "Sektor Teknologi Informasi dan Komunikasi",
        "nama_perusahaan": "APLIKASI WIRAUSAHA MUSLIM",
        "tanggal_daftar": "2021-05-21",
        "nomor_tanda_daftar": "000776.01/DJAI.PSE/05/2021",
        "qr_code": "https://pse.kominfo.go.id/storage/images/qr_code/a0bc138ae24f59940986317ba5e52a65.png",
        "status_id": "TERDAFTAR",
        "sistem_elektronik_id": 553
      }
    },
    {
      "type": "tdpseTerbit",
      "id": 1732,
      "attributes": {
        "nomor_pb_umku": null,
        "nama": "Kagum Teknologi Indonesia",
        "website": "https://www.ptkagumteknologiindonesia.com/",
        "sektor": "Sektor Perdagangan",
        "nama_perusahaan": "KAGUM TEKNOLOGI INDONESIA",
        "tanggal_daftar": "2021-07-22",
        "nomor_tanda_daftar": "000775.02/DJAI.PSE/07/2021",
        "qr_code": "https://pse.kominfo.go.id/storage/images/qr_code/cf06682eea9950a58147c52462813f0d.png",
        "status_id": "TERDAFTAR",
        "sistem_elektronik_id": 725
      }
    },
    {
      "type": "tdpseTerbit",
      "id": 5325,
      "attributes": {
        "nomor_pb_umku": "912000319198400000001",
        "nama": "INSANMADANIONLINE",
        "website": "insanmadanionline.com",
        "sektor": "Sektor Perdagangan",
        "nama_perusahaan": "PUSTAKA INSAN MADANI",
        "tanggal_daftar": "2022-07-12",
        "nomor_tanda_daftar": "000774.02/DJAI.PSE/07/2022",
        "qr_code": "https://pse.kominfo.go.id/storage/images/qr_code/2accb701f59dde8405c2323abdf7393c.png",
        "status_id": "TERDAFTAR",
        "sistem_elektronik_id": 5200
      }
    },
    {
      "type": "tdpseTerbit",
      "id": 1050,
      "attributes": {
        "nomor_pb_umku": null,
        "nama": "siplah.jualin.co.id",
        "website": "jualin.co.id",
        "sektor": "Sektor Kesehatan, Sektor Pangan, Sektor Perdagangan, Sektor Teknologi Informasi dan Komunikasi",
        "nama_perusahaan": "PUSTAKA INSAN MADANI",
        "tanggal_daftar": "2021-05-21",
        "nomor_tanda_daftar": "000774.01/DJAI.PSE/05/2021",
        "qr_code": "https://pse.kominfo.go.id/storage/images/qr_code/0ef1b1d40e7eff68699aebd1ce3d1b80.png",
        "status_id": "TERDAFTAR",
        "sistem_elektronik_id": 335
      }
    },
    {
      "type": "tdpseTerbit",
      "id": 1299,
      "attributes": {
        "nomor_pb_umku": null,
        "nama": "Bunga Matahari",
        "website": "www.kspbungamatahariindonesia.co.id",
        "sektor": "Sektor Keuangan",
        "nama_perusahaan": "KOPERASI SIMPAN PINJAM BUNGA MATAHARI INDONESIA",
        "tanggal_daftar": "2021-06-02",
        "nomor_tanda_daftar": "000773.02/DJAI.PSE/06/2021",
        "qr_code": "https://pse.kominfo.go.id/storage/images/qr_code/29b2b0e6a7f0b9db9c60ae045947ce76.png",
        "status_id": "TERDAFTAR",
        "sistem_elektronik_id": 742
      }
    },
    {
      "type": "tdpseTerbit",
      "id": 1049,
      "attributes": {
        "nomor_pb_umku": null,
        "nama": "Bunga Matahari",
        "website": "www.kspbungamatahariindonesia.co.id",
        "sektor": "Sektor Keuangan",
        "nama_perusahaan": "KOPERASI SIMPAN PINJAM BUNGA MATAHARI INDONESIA",
        "tanggal_daftar": "2021-05-21",
        "nomor_tanda_daftar": "000773.01/DJAI.PSE/05/2021",
        "qr_code": "https://pse.kominfo.go.id/storage/images/qr_code/6456ae5247f379a5f08da4d72110c416.png",
        "status_id": "TERDAFTAR",
        "sistem_elektronik_id": 741
      }
    }
  ]
}