{
  "meta": {
    "page": {
      "currentPage": 795,
      "from": 7941,
      "lastPage": 885,
      "perPage": 10,
      "to": 7950,
      "total": 8844
    }
  },
  "data": [
    {
      "type": "tdpseTerbit",
      "id": 4182,
      "attributes": {
        "nomor_pb_umku": "128000070102500030001",
        "nama": "SETIAWAN DIGI NET",
        "website": "bc24pedia.my.id",
        "sektor": "Sektor Teknologi Informasi dan Komunikasi",
        "nama_perusahaan": "MUNZI SETIAWAN",
        "tanggal_daftar": "2022-05-30",
        "nomor_tanda_daftar": "000446.01/DJAI.PSE/05/2022",
        "qr_code": "https://pse.kominfo.go.id/storage/images/qr_code/64a97b5dbd4a2ff678b3a6633be525bf.png",
        "status_id": "TERDAFTAR",
        "sistem_elektronik_id": 4183
      }
    },
    {
      "type": "tdpseTerbit",
      "id": 548,
      "attributes": {
        "nomor_pb_umku": null,
        "nama": "KSP SUKU PLANET",
        "website": "Http://www.sukuplanetapp.com",
        "sektor": "Sektor Teknologi Informasi dan Komunikasi",
        "nama_perusahaan": "SIMPAN PINJAM SIMPANAN LANCAR INDONESIA",
        "tanggal_daftar": "2021-04-26",
        "nomor_tanda_daftar": "000446.01/DJAI.PSE/04/2021",
        "qr_code": "https://pse.kominfo.go.id/storage/images/qr_code/2eb1b08221c028536cb0f73b384ec7b5.png",
        "status_id": "TERDAFTAR",
        "sistem_elektronik_id": 381
      }
    },
    {
      "type": "tdpseTerbit",
      "id": 547,
      "attributes": {
        "nomor_pb_umku": null,
        "nama": "balimall.id",
        "website": "https://balimall.id",
        "sektor": "Sektor Perdagangan",
        "nama_perusahaan": "BALI UNGGUL SEJAHTERA",
        "tanggal_daftar": "2021-04-26",
        "nomor_tanda_daftar": "000445.02/DJAI.PSE/04/2021",
        "qr_code": "https://pse.kominfo.go.id/storage/images/qr_code/9c5db6c16b72a97f705279e0ef357794.png",
        "status_id": "TERDAFTAR",
        "sistem_elektronik_id": 228
      }
    },
    {
      "type": "tdpseTerbit",
      "id": 4184,
      "attributes": {
        "nomor_pb_umku": "022010564042300000001",
        "nama": "ANTRIQUE",
        "website": "antrique.com",
        "sektor": "Sektor Teknologi Informasi dan Komunikasi",
        "nama_perusahaan": "VISI KARYA PRAKARSA",
        "tanggal_daftar": "2022-05-30",
        "nomor_tanda_daftar": "000445.01/DJAI.PSE/05/2022",
        "qr_code": "https://pse.kominfo.go.id/storage/images/qr_code/94dd5b18363e2270d7d7941799051fb9.png",
        "status_id": "TERDAFTAR",
        "sistem_elektronik_id": 4184
      }
    },
    {
      "type": "tdpseTerbit",
      "id": 546,
      "attributes": {
        "nomor_pb_umku": null,
        "nama": "balimall.id",
        "website": "https://balimall.id",
        "sektor": "Sektor Perdagangan",
        "nama_perusahaan": "BALI UNGGUL SEJAHTERA",
        "tanggal_daftar": "2021-04-26",
        "nomor_tanda_daftar": "000445.01/DJAI.PSE/04/2021",
        "qr_code": "https://pse.kominfo.go.id/storage/images/qr_code/3b795fbbc189a97db19ee8a1ee303914.png",
        "status_id": "TERDAFTAR",
        "sistem_elektronik_id": 227
      }
    },
    {
      "type": "tdpseTerbit",
      "id": 545,
      "attributes": {
        "nomor_pb_umku": null,
        "nama": "KLAR Smile",
        "website": "https://www.klarsmile.com",
        "sektor": "Sektor Kesehatan",
        "nama_perusahaan": "SOLUSI SENYUM INDONESIA",
        "tanggal_daftar": "2021-04-26",
        "nomor_tanda_daftar": "000444.01/DJAI.PSE/04/2021",
        "qr_code": "https://pse.kominfo.go.id/storage/images/qr_code/f5a2b09a41cb56823308bc1736ac1786.png",
        "status_id": "TERDAFTAR",
        "sistem_elektronik_id": 3155
      }
    },
    {
      "type": "tdpseTerbit",
      "id": 544,
      "attributes": {
        "nomor_pb_umku": null,
        "nama": "DANA COIN",
        "website": "http://www.danacoin.com",
        "sektor": "Sektor Teknologi Informasi dan Komunikasi",
        "nama_perusahaan": "SIMPAN PINJAM TANGO PURWA RIBU",
        "tanggal_daftar": "2021-04-26",
        "nomor_tanda_daftar": "000443.01/DJAI.PSE/04/2021",
        "qr_code": "https://pse.kominfo.go.id/storage/images/qr_code/33ee9b8aa499690a96c08e3695e24717.png",
        "status_id": "TERDAFTAR",
        "sistem_elektronik_id": 2384
      }
    },
    {
      "type": "tdpseTerbit",
      "id": 4180,
      "attributes": {
        "nomor_pb_umku": "240921002096300010001",
        "nama": "TIPTIP",
        "website": "Tiptip.tv",
        "sektor": "Sektor Perdagangan",
        "nama_perusahaan": "TIPTIP NETWORK INDONESIA",
        "tanggal_daftar": "2022-05-30",
        "nomor_tanda_daftar": "000442.01/DJAI.PSE/05/2022",
        "qr_code": "https://pse.kominfo.go.id/storage/images/qr_code/8e27a93dcffb7527fca5e098050a9f39.png",
        "status_id": "TERDAFTAR",
        "sistem_elektronik_id": 4181
      }
    },
    {
      "type": "tdpseTerbit",
      "id": 542,
      "attributes": {
        "nomor_pb_umku": null,
        "nama": "http://maingame.com",
        "website": "http://maingame.com",
        "sektor": "Sektor Perdagangan, Sektor Teknologi Informasi dan Komunikasi",
        "nama_perusahaan": "BAHAGIA BERSAMA INDONESIA",
        "tanggal_daftar": "2021-04-26",
        "nomor_tanda_daftar": "000442.01/DJAI.PSE/04/2021",
        "qr_code": "https://pse.kominfo.go.id/storage/images/qr_code/cdf6dec7e310c05c3606e43f8ae7ee23.png",
        "status_id": "TERDAFTAR",
        "sistem_elektronik_id": 316
      }
    },
    {
      "type": "tdpseTerbit",
      "id": 541,
      "attributes": {
        "nomor_pb_umku": null,
        "nama": "MauDana",
        "website": "https://maudana.com",
        "sektor": "Sektor Perdagangan",
        "nama_perusahaan": "PERMATA AGUNG NUSARAYA",
        "tanggal_daftar": "2021-04-26",
        "nomor_tanda_daftar": "000441.01/DJAI.PSE/04/2021",
        "qr_code": "https://pse.kominfo.go.id/storage/images/qr_code/052c908b5c718f4994d2a97d4999a96a.png",
        "status_id": "TERDAFTAR",
        "sistem_elektronik_id": 157
      }
    }
  ]
}