{
  "meta": {
    "page": {
      "currentPage": 796,
      "from": 7951,
      "lastPage": 1040,
      "perPage": 10,
      "to": 7960,
      "total": 10398
    }
  },
  "data": [
    {
      "type": "tdpseTerbit",
      "id": 1886,
      "attributes": {
        "nomor_pb_umku": null,
        "nama": "Greenfund.id",
        "website": "www.greenfund.id",
        "sektor": "Sektor Keuangan",
        "nama_perusahaan": "GLOBAL KREASI DANA",
        "tanggal_daftar": "2021-08-31",
        "nomor_tanda_daftar": "001264.01/DJAI.PSE/08/2021",
        "qr_code": "https://pse.kominfo.go.id/storage/images/qr_code/8d9000e2855bbf8a093edff558f88619.png",
        "status_id": "TERDAFTAR",
        "sistem_elektronik_id": 3682
      }
    },
    {
      "type": "tdpseTerbit",
      "id": 3125,
      "attributes": {
        "nomor_pb_umku": null,
        "nama": "Axdif",
        "website": "axdif.com",
        "sektor": "Sektor Teknologi Informasi dan Komunikasi",
        "nama_perusahaan": "ELABRAM SYSTEMS",
        "tanggal_daftar": "2022-01-26",
        "nomor_tanda_daftar": "001263.02/DJAI.PSE/01/2022",
        "qr_code": "https://pse.kominfo.go.id/storage/images/qr_code/3868811de7501b09ff4201628e3f629d.png",
        "status_id": "TERDAFTAR",
        "sistem_elektronik_id": 77
      }
    },
    {
      "type": "tdpseTerbit",
      "id": 1885,
      "attributes": {
        "nomor_pb_umku": null,
        "nama": "Workforce Management Systems",
        "website": "https://wms.elabram.com",
        "sektor": "Sektor Teknologi Informasi dan Komunikasi",
        "nama_perusahaan": "ELABRAM SYSTEMS",
        "tanggal_daftar": "2021-08-31",
        "nomor_tanda_daftar": "001263.01/DJAI.PSE/08/2021",
        "qr_code": "https://pse.kominfo.go.id/storage/images/qr_code/a7ba0f736d7ea8ac985cae316520c78f.png",
        "status_id": "TERDAFTAR",
        "sistem_elektronik_id": 76
      }
    },
    {
      "type": "tdpseTerbit",
      "id": 1884,
      "attributes": {
        "nomor_pb_umku": null,
        "nama": "GRUPIN",
        "website": "www.grupin.com",
        "sektor": "Sektor Perdagangan, Sektor Teknologi Informasi dan Komunikasi",
        "nama_perusahaan": "FILOSOFI UNIK NUSANTARA",
        "tanggal_daftar": "2021-08-16",
        "nomor_tanda_daftar": "001262.01/DJAI.PSE/08/2021",
        "qr_code": "https://pse.kominfo.go.id/storage/images/qr_code/4c71c01ffb68162b7866e5cbca6b5b1e.png",
        "status_id": "TERDAFTAR",
        "sistem_elektronik_id": 1274
      }
    },
    {
      "type": "tdpseTerbit",
      "id": 1961,
      "attributes": {
        "nomor_pb_umku": null,
        "nama": "Glober",
        "website": "https://www.glober.co.id",
        "sektor": "Sektor Perdagangan, Sektor Teknologi Informasi dan Komunikasi, Sektor Transportasi",
        "nama_perusahaan": "GLOBAL APLIKASI INDONESIA",
        "tanggal_daftar": "2021-10-04",
        "nomor_tanda_daftar": "001261.02/DJAI.PSE/10/2021",
        "qr_code": "https://pse.kominfo.go.id/storage/images/qr_code/2fe595fd981dc62a2e21787413dc6062.png",
        "status_id": "TERDAFTAR",
        "sistem_elektronik_id": 2575
      }
    },
    {
      "type": "tdpseTerbit",
      "id": 1883,
      "attributes": {
        "nomor_pb_umku": null,
        "nama": "Glober Mart",
        "website": "https://www.globermart.co.id",
        "sektor": "Sektor Perdagangan, Sektor Transportasi",
        "nama_perusahaan": "GLOBAL APLIKASI INDONESIA",
        "tanggal_daftar": "2021-08-16",
        "nomor_tanda_daftar": "001261.01/DJAI.PSE/08/2021",
        "qr_code": "https://pse.kominfo.go.id/storage/images/qr_code/e545d753425841fa10ebf23d4da75a95.png",
        "status_id": "TERDAFTAR",
        "sistem_elektronik_id": 2574
      }
    },
    {
      "type": "tdpseTerbit",
      "id": 1882,
      "attributes": {
        "nomor_pb_umku": null,
        "nama": "pintap.id",
        "website": "https://pintap.id/",
        "sektor": "Sektor Perdagangan",
        "nama_perusahaan": "SOLUSI PINTAP INDONESIA",
        "tanggal_daftar": "2021-08-16",
        "nomor_tanda_daftar": "001260.01/DJAI.PSE/08/2021",
        "qr_code": "https://pse.kominfo.go.id/storage/images/qr_code/454c6fd29c1d97d7f8a6e3002f835c96.png",
        "status_id": "TERDAFTAR",
        "sistem_elektronik_id": 1226
      }
    },
    {
      "type": "tdpseTerbit",
      "id": 1880,
      "attributes": {
        "nomor_pb_umku": null,
        "nama": "APEX POS",
        "website": "http://evolution-apex.com/",
        "sektor": "Sektor Teknologi Informasi dan Komunikasi",
        "nama_perusahaan": "ANUGERAH SEMESTA DESAIN",
        "tanggal_daftar": "2021-08-16",
        "nomor_tanda_daftar": "001259.01/DJAI.PSE/08/2021",
        "qr_code": "https://pse.kominfo.go.id/storage/images/qr_code/358034ffa80136513a0982c2c9275fc3.png",
        "status_id": "TERDAFTAR",
        "sistem_elektronik_id": 1300
      }
    },
    {
      "type": "tdpseTerbit",
      "id": 1879,
      "attributes": {
        "nomor_pb_umku": null,
        "nama": "Nex Parabola",
        "website": "www.nexparabola.com",
        "sektor": "Sektor Teknologi Informasi dan Komunikasi",
        "nama_perusahaan": "MEDIATAMA TELEVISI",
        "tanggal_daftar": "2021-08-09",
        "nomor_tanda_daftar": "001258.01/DJAI.PSE/08/2021",
        "qr_code": "https://pse.kominfo.go.id/storage/images/qr_code/be2bd0c7e485d607fef9c62d75e249cf.png",
        "status_id": "TERDAFTAR",
        "sistem_elektronik_id": 1386
      }
    },
    {
      "type": "tdpseTerbit",
      "id": 1878,
      "attributes": {
        "nomor_pb_umku": null,
        "nama": "Ematerai",
        "website": "https://asyanasekarredjeki.com",
        "sektor": "Sektor Teknologi Informasi dan Komunikasi",
        "nama_perusahaan": "ASYANA SEKARREDJEKI",
        "tanggal_daftar": "2021-08-09",
        "nomor_tanda_daftar": "001257.01/DJAI.PSE/08/2021",
        "qr_code": "https://pse.kominfo.go.id/storage/images/qr_code/13a225eb391fc1d97c493ec7239ac1ad.png",
        "status_id": "TERDAFTAR",
        "sistem_elektronik_id": 1140
      }
    }
  ]
}