{
  "meta": {
    "page": {
      "currentPage": 798,
      "from": 7971,
      "lastPage": 903,
      "perPage": 10,
      "to": 7980,
      "total": 9025
    }
  },
  "data": [
    {
      "type": "tdpseTerbit",
      "id": 8263,
      "attributes": {
        "nomor_pb_umku": "022201005088500060001",
        "nama": "ANDALAN DOMPET PUTERA INDONESIA",
        "website": "adope.co.id",
        "sektor": "Sektor Perdagangan, Sektor Transportasi, Sektor Teknologi Informasi dan Komunikasi",
        "nama_perusahaan": "ANDALAN DOMPET PUTERA INDONESIA",
        "tanggal_daftar": "2022-07-20",
        "nomor_tanda_daftar": "000521.03/DJAI.PSE/07/2022",
        "qr_code": "https://pse.kominfo.go.id/storage/images/qr_code/add592233a974f76212c5fe83e6b7a4d.png",
        "status_id": "TERDAFTAR",
        "sistem_elektronik_id": 8180
      }
    },
    {
      "type": "tdpseTerbit",
      "id": 649,
      "attributes": {
        "nomor_pb_umku": null,
        "nama": "ADOPEJEK",
        "website": "www.adope.co.id",
        "sektor": "Sektor Perdagangan, Sektor Transportasi",
        "nama_perusahaan": "ANDALAN DOMPET PUTERA INDONESIA",
        "tanggal_daftar": "2021-04-26",
        "nomor_tanda_daftar": "000521.02/DJAI.PSE/04/2021",
        "qr_code": "https://pse.kominfo.go.id/storage/images/qr_code/de8c41d4fc3455ce3364d5838dd49fc2.png",
        "status_id": "TERDAFTAR",
        "sistem_elektronik_id": 3270
      }
    },
    {
      "type": "tdpseTerbit",
      "id": 638,
      "attributes": {
        "nomor_pb_umku": null,
        "nama": "TOKOADOPE",
        "website": "www.tokoadope.com",
        "sektor": "Sektor Perdagangan",
        "nama_perusahaan": "ANDALAN DOMPET PUTERA INDONESIA",
        "tanggal_daftar": "2021-04-26",
        "nomor_tanda_daftar": "000521.01/DJAI.PSE/04/2021",
        "qr_code": "https://pse.kominfo.go.id/storage/images/qr_code/c714f832bd14873ec853afe83bd0c78b.png",
        "status_id": "TERDAFTAR",
        "sistem_elektronik_id": 3269
      }
    },
    {
      "type": "tdpseTerbit",
      "id": 637,
      "attributes": {
        "nomor_pb_umku": null,
        "nama": "PT. Verdhana Sekuritas Indonesia website",
        "website": "http://www.verdhana.id  dan https://www.verdhana.id",
        "sektor": "Sektor Keuangan",
        "nama_perusahaan": "VERDHANA SEKURITAS INDONESIA",
        "tanggal_daftar": "2021-04-26",
        "nomor_tanda_daftar": "000520.01/DJAI.PSE/04/2021",
        "qr_code": "https://pse.kominfo.go.id/storage/images/qr_code/09fe2282257debbc92844601b07910b2.png",
        "status_id": "TERDAFTAR",
        "sistem_elektronik_id": 423
      }
    },
    {
      "type": "tdpseTerbit",
      "id": 636,
      "attributes": {
        "nomor_pb_umku": null,
        "nama": "MEDINA",
        "website": "https://www.med-ina.co.id/",
        "sektor": "Sektor Kesehatan, Sektor Perdagangan, Sektor Teknologi Informasi dan Komunikasi",
        "nama_perusahaan": "MEDINA TEKNIK ALKESINDO",
        "tanggal_daftar": "2021-04-26",
        "nomor_tanda_daftar": "000519.01/DJAI.PSE/04/2021",
        "qr_code": "https://pse.kominfo.go.id/storage/images/qr_code/b5b117176b6c78a068f269a3bf1cbbdb.png",
        "status_id": "TERDAFTAR",
        "sistem_elektronik_id": 3268
      }
    },
    {
      "type": "tdpseTerbit",
      "id": 633,
      "attributes": {
        "nomor_pb_umku": null,
        "nama": "Maatloob",
        "website": "www.maatloob.com",
        "sektor": "Sektor Perdagangan, Sektor Teknologi Informasi dan Komunikasi",
        "nama_perusahaan": "SMART ONLINE MARKETING",
        "tanggal_daftar": "2021-04-26",
        "nomor_tanda_daftar": "000518.01/DJAI.PSE/04/2021",
        "qr_code": "https://pse.kominfo.go.id/storage/images/qr_code/b7c6060b0abf044d5f19921ec40cbb07.png",
        "status_id": "TERDAFTAR",
        "sistem_elektronik_id": 2651
      }
    },
    {
      "type": "tdpseTerbit",
      "id": 632,
      "attributes": {
        "nomor_pb_umku": null,
        "nama": "Solusi Bayar",
        "website": "https://solusibayar.co.id/",
        "sektor": "Sektor Teknologi Informasi dan Komunikasi",
        "nama_perusahaan": "SOLUSI PAYMENT INDONESIA",
        "tanggal_daftar": "2021-04-26",
        "nomor_tanda_daftar": "000517.01/DJAI.PSE/04/2021",
        "qr_code": "https://pse.kominfo.go.id/storage/images/qr_code/c46d068d1a038396f90fd0c5855ad568.png",
        "status_id": "TERDAFTAR",
        "sistem_elektronik_id": 120
      }
    },
    {
      "type": "tdpseTerbit",
      "id": 631,
      "attributes": {
        "nomor_pb_umku": null,
        "nama": "YOHOM",
        "website": "www.yohom.co.id",
        "sektor": "Sektor Teknologi Informasi dan Komunikasi",
        "nama_perusahaan": "YOHOM INDONESIA SOLUTION",
        "tanggal_daftar": "2021-04-26",
        "nomor_tanda_daftar": "000516.01/DJAI.PSE/04/2021",
        "qr_code": "https://pse.kominfo.go.id/storage/images/qr_code/a08a4ea2aec01549e27103cff13eb0b0.png",
        "status_id": "TERDAFTAR",
        "sistem_elektronik_id": 438
      }
    },
    {
      "type": "tdpseTerbit",
      "id": 630,
      "attributes": {
        "nomor_pb_umku": null,
        "nama": "Bantoo.id",
        "website": "https://www.bantoo.id",
        "sektor": "Sektor Kesehatan, Sektor Teknologi Informasi dan Komunikasi",
        "nama_perusahaan": "GENERASI BANTU INDONESIA",
        "tanggal_daftar": "2021-04-26",
        "nomor_tanda_daftar": "000515.01/DJAI.PSE/04/2021",
        "qr_code": "https://pse.kominfo.go.id/storage/images/qr_code/20524c9734fc6d27dca4b0d5a0bd87b6.png",
        "status_id": "TERDAFTAR",
        "sistem_elektronik_id": 440
      }
    },
    {
      "type": "tdpseTerbit",
      "id": 629,
      "attributes": {
        "nomor_pb_umku": null,
        "nama": "Mitra Bukalapak",
        "website": "https://mitra.bukalapak.com/",
        "sektor": "Sektor Teknologi Informasi dan Komunikasi",
        "nama_perusahaan": "BUKA MITRA INDONESIA",
        "tanggal_daftar": "2021-04-26",
        "nomor_tanda_daftar": "000514.01/DJAI.PSE/04/2021",
        "qr_code": "https://pse.kominfo.go.id/storage/images/qr_code/238a95d9ef470fd525aa5d2573d5ccd1.png",
        "status_id": "TERDAFTAR",
        "sistem_elektronik_id": 258
      }
    }
  ]
}