{
  "meta": {
    "page": {
      "currentPage": 799,
      "from": 7981,
      "lastPage": 989,
      "perPage": 10,
      "to": 7990,
      "total": 9888
    }
  },
  "data": [
    {
      "type": "tdpseTerbit",
      "id": 1457,
      "attributes": {
        "nomor_pb_umku": null,
        "nama": "BNI Pembukaan Rekening Digital",
        "website": "https://bukarekening.bni.co.id/simpanan/home",
        "sektor": "Sektor Keuangan",
        "nama_perusahaan": "PERUSAHAAN PERSEROAN (PERSERO) BANK NEGARA INDONESIA",
        "tanggal_daftar": "2021-06-09",
        "nomor_tanda_daftar": "000872.20/DJAI.PSE/06/2021",
        "qr_code": "https://pse.kominfo.go.id/storage/images/qr_code/5030ee392087e258f2f6c91bfdfb5b43.png",
        "status_id": "TERDAFTAR",
        "sistem_elektronik_id": 851
      }
    },
    {
      "type": "tdpseTerbit",
      "id": 1456,
      "attributes": {
        "nomor_pb_umku": null,
        "nama": "BNI Credit Card Mobile",
        "website": "-",
        "sektor": "Sektor Keuangan",
        "nama_perusahaan": "PERUSAHAAN PERSEROAN (PERSERO) BANK NEGARA INDONESIA",
        "tanggal_daftar": "2021-06-09",
        "nomor_tanda_daftar": "000872.19/DJAI.PSE/06/2021",
        "qr_code": "https://pse.kominfo.go.id/storage/images/qr_code/4e9d212efc12ff2341ca04351330220c.png",
        "status_id": "TERDAFTAR",
        "sistem_elektronik_id": 850
      }
    },
    {
      "type": "tdpseTerbit",
      "id": 1455,
      "attributes": {
        "nomor_pb_umku": null,
        "nama": "Agen46 Mobile",
        "website": "-",
        "sektor": "Sektor Keuangan",
        "nama_perusahaan": "PERUSAHAAN PERSEROAN (PERSERO) BANK NEGARA INDONESIA",
        "tanggal_daftar": "2021-06-09",
        "nomor_tanda_daftar": "000872.18/DJAI.PSE/06/2021",
        "qr_code": "https://pse.kominfo.go.id/storage/images/qr_code/ad6bc20f9c5ba5a98a4b92948e9443a8.png",
        "status_id": "TERDAFTAR",
        "sistem_elektronik_id": 849
      }
    },
    {
      "type": "tdpseTerbit",
      "id": 1454,
      "attributes": {
        "nomor_pb_umku": null,
        "nama": "BNI TapCash Go",
        "website": "-",
        "sektor": "Sektor Keuangan",
        "nama_perusahaan": "PERUSAHAAN PERSEROAN (PERSERO) BANK NEGARA INDONESIA",
        "tanggal_daftar": "2021-06-09",
        "nomor_tanda_daftar": "000872.17/DJAI.PSE/06/2021",
        "qr_code": "https://pse.kominfo.go.id/storage/images/qr_code/5e4c6315eff337e198fdec327357ecc2.png",
        "status_id": "TERDAFTAR",
        "sistem_elektronik_id": 848
      }
    },
    {
      "type": "tdpseTerbit",
      "id": 1453,
      "attributes": {
        "nomor_pb_umku": null,
        "nama": "BNI Mobile Banking",
        "website": "-",
        "sektor": "Sektor Keuangan",
        "nama_perusahaan": "PERUSAHAAN PERSEROAN (PERSERO) BANK NEGARA INDONESIA",
        "tanggal_daftar": "2021-06-09",
        "nomor_tanda_daftar": "000872.16/DJAI.PSE/06/2021",
        "qr_code": "https://pse.kominfo.go.id/storage/images/qr_code/32755ec9f3e636439dca8efbfd21b3a8.png",
        "status_id": "TERDAFTAR",
        "sistem_elektronik_id": 847
      }
    },
    {
      "type": "tdpseTerbit",
      "id": 1322,
      "attributes": {
        "nomor_pb_umku": null,
        "nama": "Website BNI Simponi",
        "website": "https://dplk.bni.co.id",
        "sektor": "Sektor Keuangan",
        "nama_perusahaan": "PERUSAHAAN PERSEROAN (PERSERO) BANK NEGARA INDONESIA",
        "tanggal_daftar": "2021-06-02",
        "nomor_tanda_daftar": "000872.14/DJAI.PSE/06/2021",
        "qr_code": "https://pse.kominfo.go.id/storage/images/qr_code/8714f82410241c4b7b45803ffcd4ffe6.png",
        "status_id": "TERDAFTAR",
        "sistem_elektronik_id": 846
      }
    },
    {
      "type": "tdpseTerbit",
      "id": 1321,
      "attributes": {
        "nomor_pb_umku": null,
        "nama": "Portal BNI API Management",
        "website": "https://digitalservices.bni.co.id",
        "sektor": "Sektor Keuangan",
        "nama_perusahaan": "PERUSAHAAN PERSEROAN (PERSERO) BANK NEGARA INDONESIA",
        "tanggal_daftar": "2021-06-02",
        "nomor_tanda_daftar": "000872.13/DJAI.PSE/06/2021",
        "qr_code": "https://pse.kominfo.go.id/storage/images/qr_code/cf584df3de6d2719ae3076f23bfc7739.png",
        "status_id": "TERDAFTAR",
        "sistem_elektronik_id": 845
      }
    },
    {
      "type": "tdpseTerbit",
      "id": 1320,
      "attributes": {
        "nomor_pb_umku": null,
        "nama": "Website pengajuan Kartu Kredit BNI",
        "website": "https://applykartukredit.bni.co.id",
        "sektor": "Sektor Keuangan",
        "nama_perusahaan": "PERUSAHAAN PERSEROAN (PERSERO) BANK NEGARA INDONESIA",
        "tanggal_daftar": "2021-06-02",
        "nomor_tanda_daftar": "000872.12/DJAI.PSE/06/2021",
        "qr_code": "https://pse.kominfo.go.id/storage/images/qr_code/073e2279f19d3cd6f0e3f44ba238f7f4.png",
        "status_id": "TERDAFTAR",
        "sistem_elektronik_id": 844
      }
    },
    {
      "type": "tdpseTerbit",
      "id": 1319,
      "attributes": {
        "nomor_pb_umku": null,
        "nama": "BNI Loyalty Program (Poin+)",
        "website": "https://www.poinplus.bni.co.id/",
        "sektor": "Sektor Keuangan",
        "nama_perusahaan": "PERUSAHAAN PERSEROAN (PERSERO) BANK NEGARA INDONESIA",
        "tanggal_daftar": "2021-06-02",
        "nomor_tanda_daftar": "000872.11/DJAI.PSE/06/2021",
        "qr_code": "https://pse.kominfo.go.id/storage/images/qr_code/e7a3d237e96f213bcd48911e25287da9.png",
        "status_id": "TERDAFTAR",
        "sistem_elektronik_id": 843
      }
    },
    {
      "type": "tdpseTerbit",
      "id": 1314,
      "attributes": {
        "nomor_pb_umku": null,
        "nama": "BNI Smart Remittance",
        "website": "https://sr.bni.co.id/",
        "sektor": "Sektor Keuangan",
        "nama_perusahaan": "PERUSAHAAN PERSEROAN (PERSERO) BANK NEGARA INDONESIA",
        "tanggal_daftar": "2021-06-02",
        "nomor_tanda_daftar": "000872.10/DJAI.PSE/06/2021",
        "qr_code": "https://pse.kominfo.go.id/storage/images/qr_code/710281a2273bc23404247911e3af25d4.png",
        "status_id": "TERDAFTAR",
        "sistem_elektronik_id": 842
      }
    }
  ]
}