{
  "meta": {
    "page": {
      "currentPage": 800,
      "from": 7991,
      "lastPage": 1005,
      "perPage": 10,
      "to": 8000,
      "total": 10048
    }
  },
  "data": [
    {
      "type": "tdpseTerbit",
      "id": 1425,
      "attributes": {
        "nomor_pb_umku": null,
        "nama": "UDANA",
        "website": "udana.id",
        "sektor": "Sektor Keuangan, Sektor Teknologi Informasi dan Komunikasi",
        "nama_perusahaan": "DANA RINTIS INDONESIA",
        "tanggal_daftar": "2021-06-09",
        "nomor_tanda_daftar": "000948.01/DJAI.PSE/06/2021",
        "qr_code": "https://pse.kominfo.go.id/storage/images/qr_code/f1f1a1ccc0bc6ad3471c2775b965ee8e.png",
        "status_id": "TERDAFTAR",
        "sistem_elektronik_id": 2393
      }
    },
    {
      "type": "tdpseTerbit",
      "id": 1423,
      "attributes": {
        "nomor_pb_umku": null,
        "nama": "PotatoBeans",
        "website": "potatobeans.id",
        "sektor": "Sektor Perdagangan, Sektor Teknologi Informasi dan Komunikasi",
        "nama_perusahaan": "PADMA DIGITAL INDONESIA",
        "tanggal_daftar": "2021-06-09",
        "nomor_tanda_daftar": "000947.01/DJAI.PSE/06/2021",
        "qr_code": "https://pse.kominfo.go.id/storage/images/qr_code/effc7384c9f921d2dda78659307aaf8d.png",
        "status_id": "TERDAFTAR",
        "sistem_elektronik_id": 1039
      }
    },
    {
      "type": "tdpseTerbit",
      "id": 1422,
      "attributes": {
        "nomor_pb_umku": null,
        "nama": "ShopBack Online Cashback Platform",
        "website": "https://www.shopback.co.id",
        "sektor": "Sektor Teknologi Informasi dan Komunikasi",
        "nama_perusahaan": "SHOPBACK MITRA SEJAHTERA",
        "tanggal_daftar": "2021-06-09",
        "nomor_tanda_daftar": "000946.01/DJAI.PSE/06/2021",
        "qr_code": "https://pse.kominfo.go.id/storage/images/qr_code/ecff51d38859eca17ae83d0870354df6.png",
        "status_id": "TERDAFTAR",
        "sistem_elektronik_id": 1038
      }
    },
    {
      "type": "tdpseTerbit",
      "id": 3117,
      "attributes": {
        "nomor_pb_umku": null,
        "nama": "QRIS BANK BENGKULU",
        "website": "-",
        "sektor": "Sektor Keuangan, Sektor Teknologi Informasi dan Komunikasi",
        "nama_perusahaan": "BANK PEMBANGUNAN DAERAH BENGKULU",
        "tanggal_daftar": "2022-01-25",
        "nomor_tanda_daftar": "000945.03/DJAI.PSE/01/2022",
        "qr_code": "https://pse.kominfo.go.id/storage/images/qr_code/f66c91d064e91760af2af1e69e901ce0.png",
        "status_id": "TERDAFTAR",
        "sistem_elektronik_id": 1019
      }
    },
    {
      "type": "tdpseTerbit",
      "id": 1830,
      "attributes": {
        "nomor_pb_umku": null,
        "nama": "CMS Corporate Bank Bengkulu",
        "website": "https://cms.bankbengkulu.co.id/",
        "sektor": "Sektor Keuangan",
        "nama_perusahaan": "BANK PEMBANGUNAN DAERAH BENGKULU",
        "tanggal_daftar": "2021-08-03",
        "nomor_tanda_daftar": "000945.02/DJAI.PSE/08/2021",
        "qr_code": "https://pse.kominfo.go.id/storage/images/qr_code/81918687cd3b8ed8c14b4900ae4b46cf.png",
        "status_id": "TERDAFTAR",
        "sistem_elektronik_id": 1018
      }
    },
    {
      "type": "tdpseTerbit",
      "id": 1421,
      "attributes": {
        "nomor_pb_umku": null,
        "nama": "Mobile Banking Bank Bengkulu",
        "website": "-",
        "sektor": "Sektor Keuangan",
        "nama_perusahaan": "BANK PEMBANGUNAN DAERAH BENGKULU",
        "tanggal_daftar": "2021-06-09",
        "nomor_tanda_daftar": "000945.01/DJAI.PSE/06/2021",
        "qr_code": "https://pse.kominfo.go.id/storage/images/qr_code/3b13c55637d74f7e5a19c1fd7288784a.png",
        "status_id": "TERDAFTAR",
        "sistem_elektronik_id": 1017
      }
    },
    {
      "type": "tdpseTerbit",
      "id": 1420,
      "attributes": {
        "nomor_pb_umku": null,
        "nama": "InvestASIK",
        "website": "https://www.investasik.id",
        "sektor": "Sektor Keuangan",
        "nama_perusahaan": "DANAREKSA INVESTMENT MANAGEMENT",
        "tanggal_daftar": "2021-06-09",
        "nomor_tanda_daftar": "000944.01/DJAI.PSE/06/2021",
        "qr_code": "https://pse.kominfo.go.id/storage/images/qr_code/906fffc432c49b2b7eb309b518ee12ca.png",
        "status_id": "TERDAFTAR",
        "sistem_elektronik_id": 1032
      }
    },
    {
      "type": "tdpseTerbit",
      "id": 1419,
      "attributes": {
        "nomor_pb_umku": null,
        "nama": "Shox Rumahan",
        "website": "rumahanapp.com",
        "sektor": "Sektor Teknologi Informasi dan Komunikasi",
        "nama_perusahaan": "SOYAKA CERDAS KAYA",
        "tanggal_daftar": "2021-06-09",
        "nomor_tanda_daftar": "000943.01/DJAI.PSE/06/2021",
        "qr_code": "https://pse.kominfo.go.id/storage/images/qr_code/eaea8c9b04a244fc418d5405821628bf.png",
        "status_id": "TERDAFTAR",
        "sistem_elektronik_id": 977
      }
    },
    {
      "type": "tdpseTerbit",
      "id": 1418,
      "attributes": {
        "nomor_pb_umku": null,
        "nama": "Guru Kreator",
        "website": "https://www.gurukreator.id/",
        "sektor": "Sektor Teknologi Informasi dan Komunikasi",
        "nama_perusahaan": "CAHAYA MITRA HARAPAN",
        "tanggal_daftar": "2021-06-09",
        "nomor_tanda_daftar": "000942.01/DJAI.PSE/06/2021",
        "qr_code": "https://pse.kominfo.go.id/storage/images/qr_code/bb7f3c051f3f8e02447953f17e53fac9.png",
        "status_id": "TERDAFTAR",
        "sistem_elektronik_id": 1033
      }
    },
    {
      "type": "tdpseTerbit",
      "id": 1417,
      "attributes": {
        "nomor_pb_umku": null,
        "nama": "Kokikit Indonesia Teknologi",
        "website": "https://www.kokikit.com",
        "sektor": "Sektor Pangan, Sektor Perdagangan, Sektor Teknologi Informasi dan Komunikasi",
        "nama_perusahaan": "KOKIKIT INDONESIA TEKNOLOGI",
        "tanggal_daftar": "2021-06-09",
        "nomor_tanda_daftar": "000941.01/DJAI.PSE/06/2021",
        "qr_code": "https://pse.kominfo.go.id/storage/images/qr_code/1bddca8b3ec01f3a6d1c95481935d608.png",
        "status_id": "TERDAFTAR",
        "sistem_elektronik_id": 1037
      }
    }
  ]
}