{
  "meta": {
    "page": {
      "currentPage": 9,
      "from": 81,
      "lastPage": 1113,
      "perPage": 10,
      "to": 90,
      "total": 11124
    }
  },
  "data": [
    {
      "type": "tdpseTerbit",
      "id": 12351,
      "attributes": {
        "nomor_pb_umku": "812010690107300090002",
        "nama": "AVOSTORE APP",
        "website": "-",
        "sektor": "Sektor Perdagangan",
        "nama_perusahaan": "AVO INNOVATION TECHNOLOGY",
        "tanggal_daftar": "2022-11-17",
        "nomor_tanda_daftar": "008486.01/DJAI.PSE/11/2022",
        "qr_code": "https://pse.kominfo.go.id/storage/images/qr_code/0ecc651f2c9853be413589b384234cfa.png",
        "status_id": "TERDAFTAR",
        "sistem_elektronik_id": 12146
      }
    },
    {
      "type": "tdpseTerbit",
      "id": 12389,
      "attributes": {
        "nomor_pb_umku": "812001518067900020003",
        "nama": "TWILL.NET",
        "website": "twill.net",
        "sektor": "Sektor Transportasi",
        "nama_perusahaan": "PELAYARAN BINTANG PUTIH",
        "tanggal_daftar": "2022-11-18",
        "nomor_tanda_daftar": "008485.03/DJAI.PSE/11/2022",
        "qr_code": "https://pse.kominfo.go.id/storage/images/qr_code/5e9d487fce14fc4317778542373d7e6b.png",
        "status_id": "TERDAFTAR",
        "sistem_elektronik_id": 12168
      }
    },
    {
      "type": "tdpseTerbit",
      "id": 12388,
      "attributes": {
        "nomor_pb_umku": "812001518067900020002",
        "nama": "SEALANDMAERSK.COM",
        "website": "sealandmaersk.com",
        "sektor": "Sektor Transportasi",
        "nama_perusahaan": "PELAYARAN BINTANG PUTIH",
        "tanggal_daftar": "2022-11-18",
        "nomor_tanda_daftar": "008485.02/DJAI.PSE/11/2022",
        "qr_code": "https://pse.kominfo.go.id/storage/images/qr_code/6f4f98e005673fafab694b79e4bfb55f.png",
        "status_id": "TERDAFTAR",
        "sistem_elektronik_id": 12167
      }
    },
    {
      "type": "tdpseTerbit",
      "id": 12387,
      "attributes": {
        "nomor_pb_umku": "812001518067900020001",
        "nama": "MAERSK.COM",
        "website": "maersk.com",
        "sektor": "Sektor Transportasi",
        "nama_perusahaan": "PELAYARAN BINTANG PUTIH",
        "tanggal_daftar": "2022-11-18",
        "nomor_tanda_daftar": "008485.01/DJAI.PSE/11/2022",
        "qr_code": "https://pse.kominfo.go.id/storage/images/qr_code/7b3dc8706314b683ce4d8203ddec72f7.png",
        "status_id": "TERDAFTAR",
        "sistem_elektronik_id": 12166
      }
    },
    {
      "type": "tdpseTerbit",
      "id": 12302,
      "attributes": {
        "nomor_pb_umku": "141122006908200000001",
        "nama": "YRS GAMING SHOP",
        "website": "-",
        "sektor": "Sektor Perdagangan",
        "nama_perusahaan": "YRS GAMING SHOP",
        "tanggal_daftar": "2022-11-15",
        "nomor_tanda_daftar": "008472.01/DJAI.PSE/11/2022",
        "qr_code": "https://pse.kominfo.go.id/storage/images/qr_code/7fe329c43a1349885f7722a36ac52155.png",
        "status_id": "TERDAFTAR",
        "sistem_elektronik_id": 12096
      }
    },
    {
      "type": "tdpseTerbit",
      "id": 12382,
      "attributes": {
        "nomor_pb_umku": "128700024138400000002",
        "nama": "WHOLESALE",
        "website": "jaringpangan.com",
        "sektor": "Sektor Perdagangan",
        "nama_perusahaan": "JARING PANGAN INDONESIA",
        "tanggal_daftar": "2022-11-18",
        "nomor_tanda_daftar": "008469.02/DJAI.PSE/11/2022",
        "qr_code": "https://pse.kominfo.go.id/storage/images/qr_code/86123f36d42ed65126aa6a58dd8c8d81.png",
        "status_id": "TERDAFTAR",
        "sistem_elektronik_id": 12179
      }
    },
    {
      "type": "tdpseTerbit",
      "id": 12380,
      "attributes": {
        "nomor_pb_umku": "128700024138400000001",
        "nama": "JAWARA",
        "website": "jaringpangan.com",
        "sektor": "Sektor Perdagangan",
        "nama_perusahaan": "JARING PANGAN INDONESIA",
        "tanggal_daftar": "2022-11-18",
        "nomor_tanda_daftar": "008469.01/DJAI.PSE/11/2022",
        "qr_code": "https://pse.kominfo.go.id/storage/images/qr_code/868e4921617d8088283fc572f1d2d0d1.png",
        "status_id": "TERDAFTAR",
        "sistem_elektronik_id": 12136
      }
    },
    {
      "type": "tdpseTerbit",
      "id": 12300,
      "attributes": {
        "nomor_pb_umku": "126200010017400080001",
        "nama": "CHAHRA EVENT",
        "website": "chahraevent.id",
        "sektor": "Sektor Teknologi Informasi dan Komunikasi",
        "nama_perusahaan": "BUANA CIPTA CHAHRA",
        "tanggal_daftar": "2022-11-15",
        "nomor_tanda_daftar": "008468.01/DJAI.PSE/11/2022",
        "qr_code": "https://pse.kominfo.go.id/storage/images/qr_code/797294ac338df3f5457813cd886badd1.png",
        "status_id": "TERDAFTAR",
        "sistem_elektronik_id": 12094
      }
    },
    {
      "type": "tdpseTerbit",
      "id": 12298,
      "attributes": {
        "nomor_pb_umku": "040322000891600020001",
        "nama": "WWW.BOOURAC.COM",
        "website": "boourac.com",
        "sektor": "Sektor Perdagangan",
        "nama_perusahaan": "BOOURAC INTERNASIONAL INDONESIA",
        "tanggal_daftar": "2022-11-15",
        "nomor_tanda_daftar": "008467.01/DJAI.PSE/11/2022",
        "qr_code": "https://pse.kominfo.go.id/storage/images/qr_code/ea2a627bc8ade8590004aede2bdf4cdd.png",
        "status_id": "TERDAFTAR",
        "sistem_elektronik_id": 12092
      }
    },
    {
      "type": "tdpseTerbit",
      "id": 12313,
      "attributes": {
        "nomor_pb_umku": "123800060176200000001",
        "nama": "PARAS COMIC",
        "website": "comic.paras.id",
        "sektor": "Sektor Teknologi Informasi dan Komunikasi",
        "nama_perusahaan": "EVIUS TEKNOLOGI INDONESIA",
        "tanggal_daftar": "2022-11-15",
        "nomor_tanda_daftar": "008466.01/DJAI.PSE/11/2022",
        "qr_code": "https://pse.kominfo.go.id/storage/images/qr_code/b0d687eb6a28131542975dcf779d976d.png",
        "status_id": "TERDAFTAR",
        "sistem_elektronik_id": 12106
      }
    }
  ]
}