{
  "meta": {
    "page": {
      "currentPage": 802,
      "from": 8011,
      "lastPage": 1053,
      "perPage": 10,
      "to": 8020,
      "total": 10528
    }
  },
  "data": [
    {
      "type": "tdpseTerbit",
      "id": 11254,
      "attributes": {
        "nomor_pb_umku": "122000163188900030002",
        "nama": "ORANGE",
        "website": "memall.shop",
        "sektor": "Sektor Perdagangan",
        "nama_perusahaan": "ORANGE SHOPPING MALL",
        "tanggal_daftar": "2022-09-20",
        "nomor_tanda_daftar": "001297.02/DJAI.PSE/09/2022",
        "qr_code": "https://pse.kominfo.go.id/storage/images/qr_code/b330359bdadb4524a49afe4f03e68722.png",
        "status_id": "TERDAFTAR",
        "sistem_elektronik_id": 11061
      }
    },
    {
      "type": "tdpseTerbit",
      "id": 1945,
      "attributes": {
        "nomor_pb_umku": null,
        "nama": "Memall",
        "website": "website: http://www.memall.shop/",
        "sektor": "Sektor Perdagangan",
        "nama_perusahaan": "MEMALL TECHNOLOGY INDONESIA",
        "tanggal_daftar": "2021-10-04",
        "nomor_tanda_daftar": "001297.01/DJAI.PSE/10/2021",
        "qr_code": "https://pse.kominfo.go.id/storage/images/qr_code/9c455ae9d7a68eb9dfa646ac51b0e7f1.png",
        "status_id": "TERDAFTAR",
        "sistem_elektronik_id": 1260
      }
    },
    {
      "type": "tdpseTerbit",
      "id": 1944,
      "attributes": {
        "nomor_pb_umku": null,
        "nama": "EAZY Driver",
        "website": "-",
        "sektor": "Sektor Transportasi",
        "nama_perusahaan": "APLIKASI JAYA SEMPURNA",
        "tanggal_daftar": "2021-10-04",
        "nomor_tanda_daftar": "001296.02/DJAI.PSE/10/2021",
        "qr_code": "https://pse.kominfo.go.id/storage/images/qr_code/cc547fb2d47247ea3be9c6c33a6c2d44.png",
        "status_id": "TERDAFTAR",
        "sistem_elektronik_id": 1417
      }
    },
    {
      "type": "tdpseTerbit",
      "id": 1943,
      "attributes": {
        "nomor_pb_umku": null,
        "nama": "EAZY.id",
        "website": "-",
        "sektor": "Sektor Transportasi",
        "nama_perusahaan": "APLIKASI JAYA SEMPURNA",
        "tanggal_daftar": "2021-10-04",
        "nomor_tanda_daftar": "001296.01/DJAI.PSE/10/2021",
        "qr_code": "https://pse.kominfo.go.id/storage/images/qr_code/8e981666cd4cb2b1c5cb3838def596a7.png",
        "status_id": "TERDAFTAR",
        "sistem_elektronik_id": 1416
      }
    },
    {
      "type": "tdpseTerbit",
      "id": 1941,
      "attributes": {
        "nomor_pb_umku": null,
        "nama": "Website Kontrastimes",
        "website": "https://kontrastimes.com/",
        "sektor": "Sektor Teknologi Informasi dan Komunikasi",
        "nama_perusahaan": "KONTRAS TIMES INDONESIA",
        "tanggal_daftar": "2021-10-04",
        "nomor_tanda_daftar": "001295.01/DJAI.PSE/10/2021",
        "qr_code": "https://pse.kominfo.go.id/storage/images/qr_code/2c81b3de97d0acc64fd7051c0c68986f.png",
        "status_id": "TERDAFTAR",
        "sistem_elektronik_id": 1445
      }
    },
    {
      "type": "tdpseTerbit",
      "id": 1940,
      "attributes": {
        "nomor_pb_umku": null,
        "nama": "Zen Multimedia Indonesia",
        "website": "https://zenmultimediacorp.com/",
        "sektor": "Sektor Perdagangan, Sektor Teknologi Informasi dan Komunikasi",
        "nama_perusahaan": "ZEN MULTIMEDIA INDONESIA",
        "tanggal_daftar": "2021-10-04",
        "nomor_tanda_daftar": "001294.01/DJAI.PSE/10/2021",
        "qr_code": "https://pse.kominfo.go.id/storage/images/qr_code/e67185ba87c14915a16c613137d7c7a9.png",
        "status_id": "TERDAFTAR",
        "sistem_elektronik_id": 1450
      }
    },
    {
      "type": "tdpseTerbit",
      "id": 1939,
      "attributes": {
        "nomor_pb_umku": null,
        "nama": "Nolimbah",
        "website": "https://www.nolimbah.com/",
        "sektor": "Sektor Perdagangan",
        "nama_perusahaan": "NOLIMBAH GERAKAN IKLIM",
        "tanggal_daftar": "2021-10-04",
        "nomor_tanda_daftar": "001293.01/DJAI.PSE/10/2021",
        "qr_code": "https://pse.kominfo.go.id/storage/images/qr_code/6a57cb41b61787b45d87396044f151d8.png",
        "status_id": "TERDAFTAR",
        "sistem_elektronik_id": 813
      }
    },
    {
      "type": "tdpseTerbit",
      "id": 1937,
      "attributes": {
        "nomor_pb_umku": null,
        "nama": "https://degadai.com/",
        "website": "https://degadai.com/",
        "sektor": "Sektor Teknologi Informasi dan Komunikasi",
        "nama_perusahaan": "DEGADAI SOLUSI DIGITAL",
        "tanggal_daftar": "2021-10-04",
        "nomor_tanda_daftar": "001292.01/DJAI.PSE/10/2021",
        "qr_code": "https://pse.kominfo.go.id/storage/images/qr_code/8c24e6f1b9e0ae347c948f07b5a0bbf3.png",
        "status_id": "TERDAFTAR",
        "sistem_elektronik_id": 404
      }
    },
    {
      "type": "tdpseTerbit",
      "id": 1936,
      "attributes": {
        "nomor_pb_umku": null,
        "nama": "Tangerangraya.net",
        "website": "Tangerangraya.net",
        "sektor": "Sektor Teknologi Informasi dan Komunikasi",
        "nama_perusahaan": "RAYA DIGITAL MULTIMEDIA",
        "tanggal_daftar": "2021-10-04",
        "nomor_tanda_daftar": "001291.01/DJAI.PSE/10/2021",
        "qr_code": "https://pse.kominfo.go.id/storage/images/qr_code/69a6b5928a1ef38ec2935940291cb5f3.png",
        "status_id": "TERDAFTAR",
        "sistem_elektronik_id": 1359
      }
    },
    {
      "type": "tdpseTerbit",
      "id": 1935,
      "attributes": {
        "nomor_pb_umku": null,
        "nama": "Jejak.in",
        "website": "www.jejakin.com",
        "sektor": "Sektor Perdagangan, Sektor Teknologi Informasi dan Komunikasi",
        "nama_perusahaan": "JEJAK ENVIRO TEKNOLOGI",
        "tanggal_daftar": "2021-10-04",
        "nomor_tanda_daftar": "001290.01/DJAI.PSE/10/2021",
        "qr_code": "https://pse.kominfo.go.id/storage/images/qr_code/4a9f03b6abbc67a31b7208b167b9504a.png",
        "status_id": "TERDAFTAR",
        "sistem_elektronik_id": 1414
      }
    }
  ]
}