{
  "meta": {
    "page": {
      "currentPage": 803,
      "from": 8021,
      "lastPage": 875,
      "perPage": 10,
      "to": 8030,
      "total": 8749
    }
  },
  "data": [
    {
      "type": "tdpseTerbit",
      "id": 4181,
      "attributes": {
        "nomor_pb_umku": "190522005282400000001",
        "nama": "GLOBAL CAREER",
        "website": "globalcareer.id",
        "sektor": "Sektor Teknologi Informasi dan Komunikasi",
        "nama_perusahaan": "GLOBAL KARIR MANAJEMEN",
        "tanggal_daftar": "2022-05-30",
        "nomor_tanda_daftar": "000358.01/DJAI.PSE/05/2022",
        "qr_code": "https://pse.kominfo.go.id/storage/images/qr_code/81572cf90205163966cec1287cdd8edf.png",
        "status_id": "TERDAFTAR",
        "sistem_elektronik_id": 4182
      }
    },
    {
      "type": "tdpseTerbit",
      "id": 439,
      "attributes": {
        "nomor_pb_umku": null,
        "nama": "OSLE INDONESIA",
        "website": "www.osleindonesia.com",
        "sektor": "Sektor Teknologi Informasi dan Komunikasi",
        "nama_perusahaan": "OSLE INDONESIA",
        "tanggal_daftar": "2021-04-14",
        "nomor_tanda_daftar": "000358.01/DJAI.PSE/04/2021",
        "qr_code": "https://pse.kominfo.go.id/storage/images/qr_code/d8d0413b663b8eb062b5d5c666ddad02.png",
        "status_id": "TERDAFTAR",
        "sistem_elektronik_id": 3510
      }
    },
    {
      "type": "tdpseTerbit",
      "id": 436,
      "attributes": {
        "nomor_pb_umku": null,
        "nama": "Pintek.id",
        "website": "https://pintek.id",
        "sektor": "Sektor Keuangan, Sektor Teknologi Informasi dan Komunikasi",
        "nama_perusahaan": "PINDUIT TEKNOLOGI INDONESIA",
        "tanggal_daftar": "2021-04-14",
        "nomor_tanda_daftar": "000357.01/DJAI.PSE/04/2021",
        "qr_code": "https://pse.kominfo.go.id/storage/images/qr_code/2e321d73cf4b4608a007951eee32eb24.png",
        "status_id": "TERDAFTAR",
        "sistem_elektronik_id": 2798
      }
    },
    {
      "type": "tdpseTerbit",
      "id": 435,
      "attributes": {
        "nomor_pb_umku": null,
        "nama": "TOKOZOOM",
        "website": "www.tokozoom.com",
        "sektor": "Sektor Perdagangan",
        "nama_perusahaan": "ZOOM INFOTEK TELESINDO",
        "tanggal_daftar": "2021-04-14",
        "nomor_tanda_daftar": "000356.01/DJAI.PSE/04/2021",
        "qr_code": "https://pse.kominfo.go.id/storage/images/qr_code/8b8ad9009f28bb4ee25c9d59218710fd.png",
        "status_id": "TERDAFTAR",
        "sistem_elektronik_id": 2513
      }
    },
    {
      "type": "tdpseTerbit",
      "id": 434,
      "attributes": {
        "nomor_pb_umku": null,
        "nama": "BeautyHaul",
        "website": "www.beautyhaul.com",
        "sektor": "Sektor Perdagangan",
        "nama_perusahaan": "BEAUTE HAUL INDONESIA",
        "tanggal_daftar": "2021-04-09",
        "nomor_tanda_daftar": "000355.01/DJAI.PSE/04/2021",
        "qr_code": "https://pse.kominfo.go.id/storage/images/qr_code/23eec80778e74ed9d414bf646b58c480.png",
        "status_id": "TERDAFTAR",
        "sistem_elektronik_id": 2782
      }
    },
    {
      "type": "tdpseTerbit",
      "id": 4333,
      "attributes": {
        "nomor_pb_umku": "912040779110200020001",
        "nama": "LAKUEMAS",
        "website": "lakuemas.com",
        "sektor": "Sektor Perdagangan",
        "nama_perusahaan": "LAKU EMAS INDONESIA",
        "tanggal_daftar": "2022-06-13",
        "nomor_tanda_daftar": "000354.01/DJAI.PSE/06/2022",
        "qr_code": "https://pse.kominfo.go.id/storage/images/qr_code/5ceef130f524012db3a2b3ddd760c289.png",
        "status_id": "TERDAFTAR",
        "sistem_elektronik_id": 4320
      }
    },
    {
      "type": "tdpseTerbit",
      "id": 433,
      "attributes": {
        "nomor_pb_umku": null,
        "nama": "YOUNG LIVING",
        "website": "https://www.youngliving.com/id_ID",
        "sektor": "Sektor Perdagangan",
        "nama_perusahaan": "YOUNG LIVING INDONESIA",
        "tanggal_daftar": "2021-04-09",
        "nomor_tanda_daftar": "000354.01/DJAI.PSE/04/2021",
        "qr_code": "https://pse.kominfo.go.id/storage/images/qr_code/93048e83433ec0924f8c925be17abbc9.png",
        "status_id": "TERDAFTAR",
        "sistem_elektronik_id": 2732
      }
    },
    {
      "type": "tdpseTerbit",
      "id": 4171,
      "attributes": {
        "nomor_pb_umku": "129000023055400090003",
        "nama": "LEARNINGX",
        "website": "learningx.com",
        "sektor": "Sektor Teknologi Informasi dan Komunikasi",
        "nama_perusahaan": "GLOBAL INVESTMENT INSTITUSI",
        "tanggal_daftar": "2022-05-30",
        "nomor_tanda_daftar": "000353.01/DJAI.PSE/05/2022",
        "qr_code": "https://pse.kominfo.go.id/storage/images/qr_code/0ed38a7a325e42eab3a43a350d3a9eab.png",
        "status_id": "TERDAFTAR",
        "sistem_elektronik_id": 4174
      }
    },
    {
      "type": "tdpseTerbit",
      "id": 432,
      "attributes": {
        "nomor_pb_umku": null,
        "nama": "MotionFunds",
        "website": "https://www.motionfunds.id",
        "sektor": "Sektor Keuangan",
        "nama_perusahaan": "MNC ASSET MANAGEMENT",
        "tanggal_daftar": "2021-04-09",
        "nomor_tanda_daftar": "000353.01/DJAI.PSE/04/2021",
        "qr_code": "https://pse.kominfo.go.id/storage/images/qr_code/7e92de7e79edd717b78703999a997724.png",
        "status_id": "TERDAFTAR",
        "sistem_elektronik_id": 208
      }
    },
    {
      "type": "tdpseTerbit",
      "id": 431,
      "attributes": {
        "nomor_pb_umku": null,
        "nama": "KSP BERKAT MANDIRI BERSATU",
        "website": "https://kspbmb.com",
        "sektor": "Sektor Keuangan",
        "nama_perusahaan": "BERKAT MANDIRI BERSATU",
        "tanggal_daftar": "2021-04-09",
        "nomor_tanda_daftar": "000352.01/DJAI.PSE/04/2021",
        "qr_code": "https://pse.kominfo.go.id/storage/images/qr_code/511744131696e90a9b128b6d0369d25e.png",
        "status_id": "TERDAFTAR",
        "sistem_elektronik_id": 230
      }
    }
  ]
}