{
  "meta": {
    "page": {
      "currentPage": 804,
      "from": 8031,
      "lastPage": 1068,
      "perPage": 10,
      "to": 8040,
      "total": 10675
    }
  },
  "data": [
    {
      "type": "tdpseTerbit",
      "id": 11573,
      "attributes": {
        "nomor_pb_umku": "024600093057400020001",
        "nama": "LINGOJUNIOR",
        "website": "lingotalk.co",
        "sektor": "Sektor Teknologi Informasi dan Komunikasi",
        "nama_perusahaan": "INTERMEDIA MULTIBAHASA INDONESIA",
        "tanggal_daftar": "2022-10-05",
        "nomor_tanda_daftar": "001337.02/DJAI.PSE/10/2022",
        "qr_code": "https://pse.kominfo.go.id/storage/images/qr_code/17dd02025c7f025834c6127b510fef98.png",
        "status_id": "TERDAFTAR",
        "sistem_elektronik_id": 11375
      }
    },
    {
      "type": "tdpseTerbit",
      "id": 2001,
      "attributes": {
        "nomor_pb_umku": null,
        "nama": "LingoTalk",
        "website": "https://lingotalk.co/",
        "sektor": "Sektor Perdagangan",
        "nama_perusahaan": "INTERMEDIA MULTIBAHASA INDONESIA",
        "tanggal_daftar": "2021-10-26",
        "nomor_tanda_daftar": "001337.01/DJAI.PSE/10/2021",
        "qr_code": "https://pse.kominfo.go.id/storage/images/qr_code/367917487d8f06e3e23d62747e6dd3b8.png",
        "status_id": "TERDAFTAR",
        "sistem_elektronik_id": 97
      }
    },
    {
      "type": "tdpseTerbit",
      "id": 2000,
      "attributes": {
        "nomor_pb_umku": null,
        "nama": "PT. INSPIRE MULTI SOLUSINDO",
        "website": "www.inspiremultisolusindo.com",
        "sektor": "Sektor Perdagangan, Sektor Teknologi Informasi dan Komunikasi",
        "nama_perusahaan": "MANDIRI CITRA INFORMASI TEKNOLOGI",
        "tanggal_daftar": "2021-10-26",
        "nomor_tanda_daftar": "001336.01/DJAI.PSE/10/2021",
        "qr_code": "https://pse.kominfo.go.id/storage/images/qr_code/42090bb9e5c035a665a41a2553638b42.png",
        "status_id": "TERDAFTAR",
        "sistem_elektronik_id": 53
      }
    },
    {
      "type": "tdpseTerbit",
      "id": 1995,
      "attributes": {
        "nomor_pb_umku": null,
        "nama": "BOS 2 BOS",
        "website": "www.bos2bos.com",
        "sektor": "Sektor Perdagangan, Sektor Teknologi Informasi dan Komunikasi",
        "nama_perusahaan": "BOS TOBOS INDONESIA",
        "tanggal_daftar": "2021-10-12",
        "nomor_tanda_daftar": "001335.01/DJAI.PSE/10/2021",
        "qr_code": "https://pse.kominfo.go.id/storage/images/qr_code/06cf2f8fab8194927902f6e33c67d4fc.png",
        "status_id": "TERDAFTAR",
        "sistem_elektronik_id": 1415
      }
    },
    {
      "type": "tdpseTerbit",
      "id": 1994,
      "attributes": {
        "nomor_pb_umku": null,
        "nama": "WWW.SHIMAJIRO.ID",
        "website": "WWW.SHIMAJIRO.ID",
        "sektor": "Sektor Perdagangan",
        "nama_perusahaan": "BENESSE INDONESIA",
        "tanggal_daftar": "2021-10-12",
        "nomor_tanda_daftar": "001334.01/DJAI.PSE/10/2021",
        "qr_code": "https://pse.kominfo.go.id/storage/images/qr_code/bc400269d18bb2a647efcc520bcc3804.png",
        "status_id": "TERDAFTAR",
        "sistem_elektronik_id": 2748
      }
    },
    {
      "type": "tdpseTerbit",
      "id": 2395,
      "attributes": {
        "nomor_pb_umku": null,
        "nama": "Cartalog.id",
        "website": "www.cartalog.id",
        "sektor": "Sektor Perdagangan",
        "nama_perusahaan": "AUTOPEDIA SUKSES LESTARI",
        "tanggal_daftar": "2021-11-17",
        "nomor_tanda_daftar": "001333.02/DJAI.PSE/11/2021",
        "qr_code": "https://pse.kominfo.go.id/storage/images/qr_code/3100877deddf69dfc39990486b160f3b.png",
        "status_id": "TERDAFTAR",
        "sistem_elektronik_id": 1419
      }
    },
    {
      "type": "tdpseTerbit",
      "id": 1993,
      "attributes": {
        "nomor_pb_umku": null,
        "nama": "Caroline.id",
        "website": "www.caroline.id",
        "sektor": "Sektor Perdagangan",
        "nama_perusahaan": "AUTOPEDIA SUKSES LESTARI",
        "tanggal_daftar": "2021-10-12",
        "nomor_tanda_daftar": "001333.01/DJAI.PSE/10/2021",
        "qr_code": "https://pse.kominfo.go.id/storage/images/qr_code/1e6c45a0ca4af0064db3474b7ebd53b6.png",
        "status_id": "TERDAFTAR",
        "sistem_elektronik_id": 1418
      }
    },
    {
      "type": "tdpseTerbit",
      "id": 1992,
      "attributes": {
        "nomor_pb_umku": null,
        "nama": "Goodpass App & Score",
        "website": "https://goodpass.id",
        "sektor": "Sektor Teknologi Informasi dan Komunikasi",
        "nama_perusahaan": "DIGITAL VENTURE INTERNATIONAL",
        "tanggal_daftar": "2021-10-12",
        "nomor_tanda_daftar": "001332.01/DJAI.PSE/10/2021",
        "qr_code": "https://pse.kominfo.go.id/storage/images/qr_code/708c14a5c796dc5c22de438fa3aca9f8.png",
        "status_id": "TERDAFTAR",
        "sistem_elektronik_id": 1429
      }
    },
    {
      "type": "tdpseTerbit",
      "id": 11591,
      "attributes": {
        "nomor_pb_umku": "912030449041501280070",
        "nama": "SMART CITY NUSANTARA",
        "website": "smartcitynusantara.id",
        "sektor": "Sektor Teknologi Informasi dan Komunikasi",
        "nama_perusahaan": "PERUSAHAAN PERSEROAN (PERSERO) PT. TELEKOMUNIKASI INDONESIA",
        "tanggal_daftar": "2022-10-06",
        "nomor_tanda_daftar": "001331.65/DJAI.PSE/10/2022",
        "qr_code": "https://pse.kominfo.go.id/storage/images/qr_code/c3130bf625267ffa512d58d943b595a2.png",
        "status_id": "TERDAFTAR",
        "sistem_elektronik_id": 11391
      }
    },
    {
      "type": "tdpseTerbit",
      "id": 11590,
      "attributes": {
        "nomor_pb_umku": "912030449041501280069",
        "nama": "BIG SIGHT",
        "website": "bigsight.id",
        "sektor": "Sektor Teknologi Informasi dan Komunikasi",
        "nama_perusahaan": "PERUSAHAAN PERSEROAN (PERSERO) PT. TELEKOMUNIKASI INDONESIA",
        "tanggal_daftar": "2022-10-06",
        "nomor_tanda_daftar": "001331.64/DJAI.PSE/10/2022",
        "qr_code": "https://pse.kominfo.go.id/storage/images/qr_code/799794993787ca3063ca1976b47741f6.png",
        "status_id": "TERDAFTAR",
        "sistem_elektronik_id": 11390
      }
    }
  ]
}