{
  "meta": {
    "page": {
      "currentPage": 805,
      "from": 8041,
      "lastPage": 1085,
      "perPage": 10,
      "to": 8050,
      "total": 10842
    }
  },
  "data": [
    {
      "type": "tdpseTerbit",
      "id": 12054,
      "attributes": {
        "nomor_pb_umku": "912020929138700130007",
        "nama": "SAHABAT DAYA",
        "website": "tepatdaya.btpnsyariah.com",
        "sektor": "Sektor Keuangan",
        "nama_perusahaan": "BANK BTPN SYARIAH",
        "tanggal_daftar": "2022-10-31",
        "nomor_tanda_daftar": "001421.09/DJAI.PSE/10/2022",
        "qr_code": "https://pse.kominfo.go.id/storage/images/qr_code/8ca63811488af47c206ce5624ae87190.png",
        "status_id": "TERDAFTAR",
        "sistem_elektronik_id": 11857
      }
    },
    {
      "type": "tdpseTerbit",
      "id": 7677,
      "attributes": {
        "nomor_pb_umku": "912020929138700100006",
        "nama": "APLIKASI AGENT BTPN SYARIAH",
        "website": "-",
        "sektor": "Sektor Keuangan",
        "nama_perusahaan": "BANK BTPN SYARIAH",
        "tanggal_daftar": "2022-07-20",
        "nomor_tanda_daftar": "001421.08/DJAI.PSE/07/2022",
        "qr_code": "https://pse.kominfo.go.id/storage/images/qr_code/9ea65a71279e7a66c441f755c22fa4ec.png",
        "status_id": "TERDAFTAR",
        "sistem_elektronik_id": 7584
      }
    },
    {
      "type": "tdpseTerbit",
      "id": 7643,
      "attributes": {
        "nomor_pb_umku": "912020929138700100005",
        "nama": "WARUNG TEPAT BTPN SYARIAH",
        "website": "-",
        "sektor": "Sektor Keuangan",
        "nama_perusahaan": "BANK BTPN SYARIAH",
        "tanggal_daftar": "2022-07-20",
        "nomor_tanda_daftar": "001421.07/DJAI.PSE/07/2022",
        "qr_code": "https://pse.kominfo.go.id/storage/images/qr_code/f4d71e61f57d391bc2ebc1e6ee6deee4.png",
        "status_id": "TERDAFTAR",
        "sistem_elektronik_id": 7542
      }
    },
    {
      "type": "tdpseTerbit",
      "id": 7586,
      "attributes": {
        "nomor_pb_umku": "912020929138700100004",
        "nama": "TEPAT MOBILE",
        "website": "btpnsyariah.com",
        "sektor": "Sektor Keuangan",
        "nama_perusahaan": "BANK BTPN SYARIAH",
        "tanggal_daftar": "2022-07-20",
        "nomor_tanda_daftar": "001421.06/DJAI.PSE/07/2022",
        "qr_code": "https://pse.kominfo.go.id/storage/images/qr_code/278c0390ebea756233c22543e9225bfa.png",
        "status_id": "TERDAFTAR",
        "sistem_elektronik_id": 7481
      }
    },
    {
      "type": "tdpseTerbit",
      "id": 6837,
      "attributes": {
        "nomor_pb_umku": "912020929138700100003",
        "nama": "TEPAT INTERNET BANKING BISNIS",
        "website": "btpnsyariah.com",
        "sektor": "Sektor Keuangan",
        "nama_perusahaan": "BANK BTPN SYARIAH",
        "tanggal_daftar": "2022-07-19",
        "nomor_tanda_daftar": "001421.05/DJAI.PSE/07/2022",
        "qr_code": "https://pse.kominfo.go.id/storage/images/qr_code/ec778c7b9b4b889de23697d15eaf7ea2.png",
        "status_id": "TERDAFTAR",
        "sistem_elektronik_id": 6681
      }
    },
    {
      "type": "tdpseTerbit",
      "id": 5560,
      "attributes": {
        "nomor_pb_umku": "",
        "nama": "TEPAT INTERNET BANKING",
        "website": "btpnsyariah.com",
        "sektor": "Sektor Keuangan",
        "nama_perusahaan": "BANK BTPN SYARIAH",
        "tanggal_daftar": "2022-07-14",
        "nomor_tanda_daftar": "001421.04/DJAI.PSE/07/2022",
        "qr_code": "https://pse.kominfo.go.id/storage/images/qr_code/d90c82399f5fa3e364323ba5b847a431.png",
        "status_id": "TERDAFTAR",
        "sistem_elektronik_id": 4998
      }
    },
    {
      "type": "tdpseTerbit",
      "id": 4350,
      "attributes": {
        "nomor_pb_umku": null,
        "nama": "TEPAT DAYA",
        "website": "tepatdaya.btpnsyariah.com",
        "sektor": "Sektor Keuangan",
        "nama_perusahaan": "BANK BTPN SYARIAH",
        "tanggal_daftar": "2022-05-19",
        "nomor_tanda_daftar": "001421.03/DJAI.PSE/05/2022",
        "qr_code": "https://pse.kominfo.go.id/storage/images/qr_code/e02ff1dcbb6c258eeab6a8d5022aa570.png",
        "status_id": "TERDAFTAR",
        "sistem_elektronik_id": 4336
      }
    },
    {
      "type": "tdpseTerbit",
      "id": 2125,
      "attributes": {
        "nomor_pb_umku": null,
        "nama": "company portal BTPN Syariah",
        "website": "https://www.btpnsyariah.com/",
        "sektor": "Sektor Keuangan",
        "nama_perusahaan": "BANK BTPN SYARIAH",
        "tanggal_daftar": "2021-10-26",
        "nomor_tanda_daftar": "001421.02/DJAI.PSE/10/2021",
        "qr_code": "https://pse.kominfo.go.id/storage/images/qr_code/82ac47407cc3fe5f12ff9baeaa02c0c7.png",
        "status_id": "TERDAFTAR",
        "sistem_elektronik_id": 1480
      }
    },
    {
      "type": "tdpseTerbit",
      "id": 2124,
      "attributes": {
        "nomor_pb_umku": null,
        "nama": "Mobile Banking BTPN Syariah",
        "website": "btpnsyariahmobile(appstrore/playstoreinstaller); https://webadmin-mbank.corp.btpns.com/ebanking-web/login; https://dashboard.btpnsyariah.com",
        "sektor": "Sektor Keuangan",
        "nama_perusahaan": "BANK BTPN SYARIAH",
        "tanggal_daftar": "2021-10-26",
        "nomor_tanda_daftar": "001421.01/DJAI.PSE/10/2021",
        "qr_code": "https://pse.kominfo.go.id/storage/images/qr_code/60270421eb0743ce353b32ba0517b58e.png",
        "status_id": "TERDAFTAR",
        "sistem_elektronik_id": 1479
      }
    },
    {
      "type": "tdpseTerbit",
      "id": 2123,
      "attributes": {
        "nomor_pb_umku": null,
        "nama": "Handyman Smart Home",
        "website": "www.handyman-id.com",
        "sektor": "Sektor Perdagangan",
        "nama_perusahaan": "PT Handyman Smarttech Indonesia",
        "tanggal_daftar": "2021-10-26",
        "nomor_tanda_daftar": "001420.01/DJAI.PSE/10/2021",
        "qr_code": "https://pse.kominfo.go.id/storage/images/qr_code/d1ec7a9f960a06084ea9123908d3effe.png",
        "status_id": "TERDAFTAR",
        "sistem_elektronik_id": 3036
      }
    }
  ]
}