{
  "meta": {
    "page": {
      "currentPage": 806,
      "from": 8051,
      "lastPage": 1040,
      "perPage": 10,
      "to": 8060,
      "total": 10398
    }
  },
  "data": [
    {
      "type": "tdpseTerbit",
      "id": 1801,
      "attributes": {
        "nomor_pb_umku": null,
        "nama": "Internet Banking Corporate (e-BBA)",
        "website": "https://ebanking.bankbba.co.id/",
        "sektor": "Sektor Keuangan",
        "nama_perusahaan": "BANK BUMI ARTA",
        "tanggal_daftar": "2021-07-29",
        "nomor_tanda_daftar": "001206.01/DJAI.PSE/07/2021",
        "qr_code": "https://pse.kominfo.go.id/storage/images/qr_code/e93711a32e31462f907abfd96a7aec26.png",
        "status_id": "TERDAFTAR",
        "sistem_elektronik_id": 1005
      }
    },
    {
      "type": "tdpseTerbit",
      "id": 1799,
      "attributes": {
        "nomor_pb_umku": null,
        "nama": "Berrybenka..com",
        "website": "www.berrybenka.com",
        "sektor": "Sektor Perdagangan, Sektor Teknologi Informasi dan Komunikasi",
        "nama_perusahaan": "BERRYBENKA",
        "tanggal_daftar": "2021-07-29",
        "nomor_tanda_daftar": "001205.01/DJAI.PSE/07/2021",
        "qr_code": "https://pse.kominfo.go.id/storage/images/qr_code/1dde51b26a93397a98ecbe969510ed4e.png",
        "status_id": "TERDAFTAR",
        "sistem_elektronik_id": 1371
      }
    },
    {
      "type": "tdpseTerbit",
      "id": 1798,
      "attributes": {
        "nomor_pb_umku": null,
        "nama": "Data Center",
        "website": "www.elitery.com",
        "sektor": "Sektor Teknologi Informasi dan Komunikasi",
        "nama_perusahaan": "DATA SINERGITAMA JAYA",
        "tanggal_daftar": "2021-07-29",
        "nomor_tanda_daftar": "001204.01/DJAI.PSE/07/2021",
        "qr_code": "https://pse.kominfo.go.id/storage/images/qr_code/77e7b9c91f88ce708e3ac242c24f98c6.png",
        "status_id": "TERDAFTAR",
        "sistem_elektronik_id": 1306
      }
    },
    {
      "type": "tdpseTerbit",
      "id": 1797,
      "attributes": {
        "nomor_pb_umku": null,
        "nama": "EMOS",
        "website": "https://emos.id",
        "sektor": "Sektor Kesehatan, Sektor Perdagangan",
        "nama_perusahaan": "EMOS GLOBAL DIGITAL",
        "tanggal_daftar": "2021-07-29",
        "nomor_tanda_daftar": "001203.01/DJAI.PSE/07/2021",
        "qr_code": "https://pse.kominfo.go.id/storage/images/qr_code/c7213b8b28e3c8907a7efb9523f533fe.png",
        "status_id": "TERDAFTAR",
        "sistem_elektronik_id": 205
      }
    },
    {
      "type": "tdpseTerbit",
      "id": 1796,
      "attributes": {
        "nomor_pb_umku": null,
        "nama": "SRS-X",
        "website": "https://www.digitalregistra.co.id/",
        "sektor": "Sektor Teknologi Informasi dan Komunikasi",
        "nama_perusahaan": "DIGITAL REGISTRA INDONESIA",
        "tanggal_daftar": "2021-07-29",
        "nomor_tanda_daftar": "001202.01/DJAI.PSE/07/2021",
        "qr_code": "https://pse.kominfo.go.id/storage/images/qr_code/6bac066d8844688044e86327263e1a84.png",
        "status_id": "TERDAFTAR",
        "sistem_elektronik_id": 1243
      }
    },
    {
      "type": "tdpseTerbit",
      "id": 1795,
      "attributes": {
        "nomor_pb_umku": null,
        "nama": "Sacred Ornaments Tattoo",
        "website": "sacredornamentsbali.com",
        "sektor": "Sektor Perdagangan",
        "nama_perusahaan": "SACRED ORNAMENTS TATTOO",
        "tanggal_daftar": "2021-07-29",
        "nomor_tanda_daftar": "001201.01/DJAI.PSE/07/2021",
        "qr_code": "https://pse.kominfo.go.id/storage/images/qr_code/4eff32b28c4791018604ef1ed9d0fcba.png",
        "status_id": "TERDAFTAR",
        "sistem_elektronik_id": 528
      }
    },
    {
      "type": "tdpseTerbit",
      "id": 1794,
      "attributes": {
        "nomor_pb_umku": null,
        "nama": "EAZY App",
        "website": "-",
        "sektor": "Sektor Teknologi Informasi dan Komunikasi, Sektor Transportasi",
        "nama_perusahaan": "APLIKASI DWI PUTRA MANDIRI",
        "tanggal_daftar": "2021-07-29",
        "nomor_tanda_daftar": "001200.01/DJAI.PSE/07/2021",
        "qr_code": "https://pse.kominfo.go.id/storage/images/qr_code/4bddbd2905f6700dfcac2d3f8240ff6e.png",
        "status_id": "TERDAFTAR",
        "sistem_elektronik_id": 1376
      }
    },
    {
      "type": "tdpseTerbit",
      "id": 1793,
      "attributes": {
        "nomor_pb_umku": null,
        "nama": "LandX",
        "website": "https://landx.id/",
        "sektor": "Sektor Keuangan, Sektor Teknologi Informasi dan Komunikasi",
        "nama_perusahaan": "NUMEX TEKNOLOGI INDONESIA",
        "tanggal_daftar": "2021-07-29",
        "nomor_tanda_daftar": "001199.01/DJAI.PSE/07/2021",
        "qr_code": "https://pse.kominfo.go.id/storage/images/qr_code/29637c881fb20b2c57ddcf34f84baf38.png",
        "status_id": "TERDAFTAR",
        "sistem_elektronik_id": 1355
      }
    },
    {
      "type": "tdpseTerbit",
      "id": 1792,
      "attributes": {
        "nomor_pb_umku": null,
        "nama": "UniQR",
        "website": "uniqr.id",
        "sektor": "Sektor Keuangan",
        "nama_perusahaan": "ARISTI JASA PANDU",
        "tanggal_daftar": "2021-07-27",
        "nomor_tanda_daftar": "001198.01/DJAI.PSE/07/2021",
        "qr_code": "https://pse.kominfo.go.id/storage/images/qr_code/21c3ed88baa813a19a7290d0e0ea8da6.png",
        "status_id": "TERDAFTAR",
        "sistem_elektronik_id": 166
      }
    },
    {
      "type": "tdpseTerbit",
      "id": 1791,
      "attributes": {
        "nomor_pb_umku": null,
        "nama": "Platform Logisly",
        "website": "https://logisly.com/",
        "sektor": "Sektor Teknologi Informasi dan Komunikasi",
        "nama_perusahaan": "LOGISTIK PINTAR INDONESIA",
        "tanggal_daftar": "2021-07-27",
        "nomor_tanda_daftar": "001197.01/DJAI.PSE/07/2021",
        "qr_code": "https://pse.kominfo.go.id/storage/images/qr_code/b02cbc86aa59006fecc49ce8f6b7e1ac.png",
        "status_id": "TERDAFTAR",
        "sistem_elektronik_id": 1124
      }
    }
  ]
}