{
  "meta": {
    "page": {
      "currentPage": 807,
      "from": 8061,
      "lastPage": 1089,
      "perPage": 10,
      "to": 8070,
      "total": 10885
    }
  },
  "data": [
    {
      "type": "tdpseTerbit",
      "id": 2152,
      "attributes": {
        "nomor_pb_umku": null,
        "nama": "ALLO EXPLORE",
        "website": "-",
        "sektor": "Sektor Keuangan",
        "nama_perusahaan": "PT Allo Bank Indonesia Tbk",
        "tanggal_daftar": "2021-10-26",
        "nomor_tanda_daftar": "001435.05/DJAI.PSE/10/2021",
        "qr_code": "https://pse.kominfo.go.id/storage/images/qr_code/e5498eb14990312ea3f5fb8ede8e72d5.png",
        "status_id": "TERDAFTAR",
        "sistem_elektronik_id": 3340
      }
    },
    {
      "type": "tdpseTerbit",
      "id": 2151,
      "attributes": {
        "nomor_pb_umku": null,
        "nama": "ALLO BANK VPN",
        "website": "https://vpn.allobank.com/",
        "sektor": "Sektor Keuangan",
        "nama_perusahaan": "PT Allo Bank Indonesia Tbk",
        "tanggal_daftar": "2021-10-26",
        "nomor_tanda_daftar": "001435.04/DJAI.PSE/10/2021",
        "qr_code": "https://pse.kominfo.go.id/storage/images/qr_code/0dc84c42143984115a4e4f00374fd11f.png",
        "status_id": "TERDAFTAR",
        "sistem_elektronik_id": 3339
      }
    },
    {
      "type": "tdpseTerbit",
      "id": 2150,
      "attributes": {
        "nomor_pb_umku": null,
        "nama": "ALLO BANK ALLO APP",
        "website": "-",
        "sektor": "Sektor Keuangan",
        "nama_perusahaan": "PT Allo Bank Indonesia Tbk",
        "tanggal_daftar": "2021-10-26",
        "nomor_tanda_daftar": "001435.03/DJAI.PSE/10/2021",
        "qr_code": "https://pse.kominfo.go.id/storage/images/qr_code/b68535befa93b4932a7559343f2f6874.png",
        "status_id": "TERDAFTAR",
        "sistem_elektronik_id": 3338
      }
    },
    {
      "type": "tdpseTerbit",
      "id": 2148,
      "attributes": {
        "nomor_pb_umku": null,
        "nama": "ALLO BANK EMAIL",
        "website": "https://mail.allobank.com/",
        "sektor": "Sektor Keuangan, Sektor Teknologi Informasi dan Komunikasi",
        "nama_perusahaan": "PT Allo Bank Indonesia Tbk",
        "tanggal_daftar": "2021-10-26",
        "nomor_tanda_daftar": "001435.02/DJAI.PSE/10/2021",
        "qr_code": "https://pse.kominfo.go.id/storage/images/qr_code/2f42fcd9a22c2bcaecee79bd36654f4a.png",
        "status_id": "TERDAFTAR",
        "sistem_elektronik_id": 3337
      }
    },
    {
      "type": "tdpseTerbit",
      "id": 2144,
      "attributes": {
        "nomor_pb_umku": null,
        "nama": "ALLO BANK WEB",
        "website": "http://www.allobank.com",
        "sektor": "Sektor Keuangan",
        "nama_perusahaan": "PT Allo Bank Indonesia Tbk",
        "tanggal_daftar": "2021-10-26",
        "nomor_tanda_daftar": "001435.01/DJAI.PSE/10/2021",
        "qr_code": "https://pse.kominfo.go.id/storage/images/qr_code/8d2495ab18aa748c995067d6b2f3847e.png",
        "status_id": "TERDAFTAR",
        "sistem_elektronik_id": 3336
      }
    },
    {
      "type": "tdpseTerbit",
      "id": 2143,
      "attributes": {
        "nomor_pb_umku": null,
        "nama": "AnugrahPratama.com",
        "website": "www.anugrahpratama.com",
        "sektor": "Sektor Perdagangan, Sektor Teknologi Informasi dan Komunikasi",
        "nama_perusahaan": "CV. ANUGRAH PRATAMA",
        "tanggal_daftar": "2021-10-26",
        "nomor_tanda_daftar": "001434.01/DJAI.PSE/10/2021",
        "qr_code": "https://pse.kominfo.go.id/storage/images/qr_code/772e17e3865a5a95f758e7c306d9fc95.png",
        "status_id": "TERDAFTAR",
        "sistem_elektronik_id": 3043
      }
    },
    {
      "type": "tdpseTerbit",
      "id": 2141,
      "attributes": {
        "nomor_pb_umku": null,
        "nama": "Jobsmaid",
        "website": "www.jobsmaid.id",
        "sektor": "Sektor Teknologi Informasi dan Komunikasi",
        "nama_perusahaan": "PT Aplikasi Digital Asisten",
        "tanggal_daftar": "2021-10-26",
        "nomor_tanda_daftar": "001433.01/DJAI.PSE/10/2021",
        "qr_code": "https://pse.kominfo.go.id/storage/images/qr_code/965bef96eb0826b299118609b144f85d.png",
        "status_id": "TERDAFTAR",
        "sistem_elektronik_id": 3042
      }
    },
    {
      "type": "tdpseTerbit",
      "id": 2138,
      "attributes": {
        "nomor_pb_umku": null,
        "nama": "KASISOLUSI",
        "website": "www.kasisolusi.com",
        "sektor": "Sektor Perdagangan",
        "nama_perusahaan": "KASISOLUSI USAHA INDONESIA",
        "tanggal_daftar": "2021-10-26",
        "nomor_tanda_daftar": "001432.01/DJAI.PSE/10/2021",
        "qr_code": "https://pse.kominfo.go.id/storage/images/qr_code/68f9ac003512c12c8e57e7d5f182f29f.png",
        "status_id": "TERDAFTAR",
        "sistem_elektronik_id": 1523
      }
    },
    {
      "type": "tdpseTerbit",
      "id": 2136,
      "attributes": {
        "nomor_pb_umku": null,
        "nama": "Moneta Pay",
        "website": "www.monetapay.id",
        "sektor": "Sektor Keuangan",
        "nama_perusahaan": "MONETA PEMBAYARAN TEKNOLOGI",
        "tanggal_daftar": "2021-10-26",
        "nomor_tanda_daftar": "001431.01/DJAI.PSE/10/2021",
        "qr_code": "https://pse.kominfo.go.id/storage/images/qr_code/8cbf3b96907f5e17b2eab98b6e6e4f73.png",
        "status_id": "TERDAFTAR",
        "sistem_elektronik_id": 1481
      }
    },
    {
      "type": "tdpseTerbit",
      "id": 2135,
      "attributes": {
        "nomor_pb_umku": null,
        "nama": "spikoeresepkuno.com",
        "website": "www.spikoeresepkuno.com",
        "sektor": "Sektor Perdagangan",
        "nama_perusahaan": "CV. SRKFOODS",
        "tanggal_daftar": "2021-10-26",
        "nomor_tanda_daftar": "001430.01/DJAI.PSE/10/2021",
        "qr_code": "https://pse.kominfo.go.id/storage/images/qr_code/39c416c3278d0e6914bd0fbf5ce5cb02.png",
        "status_id": "TERDAFTAR",
        "sistem_elektronik_id": 3041
      }
    }
  ]
}