{
  "meta": {
    "page": {
      "currentPage": 808,
      "from": 8071,
      "lastPage": 1111,
      "perPage": 10,
      "to": 8080,
      "total": 11105
    }
  },
  "data": [
    {
      "type": "tdpseTerbit",
      "id": 2364,
      "attributes": {
        "nomor_pb_umku": null,
        "nama": "PINTAR",
        "website": "www.hostingceria.com",
        "sektor": "Sektor Teknologi Informasi dan Komunikasi",
        "nama_perusahaan": "PT Teknologi Pintar Solusindo",
        "tanggal_daftar": "2021-11-08",
        "nomor_tanda_daftar": "001551.02/DJAI.PSE/11/2021",
        "qr_code": "https://pse.kominfo.go.id/storage/images/qr_code/a44a83e25619130eac00db1a63b5917c.png",
        "status_id": "TERDAFTAR",
        "sistem_elektronik_id": 3144
      }
    },
    {
      "type": "tdpseTerbit",
      "id": 2363,
      "attributes": {
        "nomor_pb_umku": null,
        "nama": "KEBUNALI",
        "website": "www.hostingceria.com",
        "sektor": "Sektor Pangan, Sektor Teknologi Informasi dan Komunikasi",
        "nama_perusahaan": "PT Teknologi Pintar Solusindo",
        "tanggal_daftar": "2021-11-08",
        "nomor_tanda_daftar": "001551.01/DJAI.PSE/11/2021",
        "qr_code": "https://pse.kominfo.go.id/storage/images/qr_code/ad08c50699ebd31e22fb6223aba0fe54.png",
        "status_id": "TERDAFTAR",
        "sistem_elektronik_id": 3143
      }
    },
    {
      "type": "tdpseTerbit",
      "id": 2362,
      "attributes": {
        "nomor_pb_umku": null,
        "nama": "TOKOPO",
        "website": "www.hostingceria.com",
        "sektor": "Sektor Teknologi Informasi dan Komunikasi",
        "nama_perusahaan": "EZLINK SYSTEM SOLUTIONS",
        "tanggal_daftar": "2021-11-08",
        "nomor_tanda_daftar": "001550.03/DJAI.PSE/11/2021",
        "qr_code": "https://pse.kominfo.go.id/storage/images/qr_code/f24ca291785c23817c2172846d3e1c64.png",
        "status_id": "TERDAFTAR",
        "sistem_elektronik_id": 1540
      }
    },
    {
      "type": "tdpseTerbit",
      "id": 2361,
      "attributes": {
        "nomor_pb_umku": null,
        "nama": "KTRIP",
        "website": "www.hostingceria.com",
        "sektor": "Sektor Teknologi Informasi dan Komunikasi",
        "nama_perusahaan": "EZLINK SYSTEM SOLUTIONS",
        "tanggal_daftar": "2021-11-08",
        "nomor_tanda_daftar": "001550.02/DJAI.PSE/11/2021",
        "qr_code": "https://pse.kominfo.go.id/storage/images/qr_code/c4239d9c28d83daf664e3fcc91d3157a.png",
        "status_id": "TERDAFTAR",
        "sistem_elektronik_id": 1539
      }
    },
    {
      "type": "tdpseTerbit",
      "id": 2360,
      "attributes": {
        "nomor_pb_umku": null,
        "nama": "DINEIN",
        "website": "www.hostingceria.com",
        "sektor": "Sektor Teknologi Informasi dan Komunikasi",
        "nama_perusahaan": "EZLINK SYSTEM SOLUTIONS",
        "tanggal_daftar": "2021-11-08",
        "nomor_tanda_daftar": "001550.01/DJAI.PSE/11/2021",
        "qr_code": "https://pse.kominfo.go.id/storage/images/qr_code/2ae73f4536d9f39080e43f0a690d58ba.png",
        "status_id": "TERDAFTAR",
        "sistem_elektronik_id": 1538
      }
    },
    {
      "type": "tdpseTerbit",
      "id": 2359,
      "attributes": {
        "nomor_pb_umku": null,
        "nama": "Interfund",
        "website": "https://internusacapital.com/",
        "sektor": "Sektor Teknologi Informasi dan Komunikasi",
        "nama_perusahaan": "PT Internusa Digital Investasi",
        "tanggal_daftar": "2021-11-08",
        "nomor_tanda_daftar": "001549.01/DJAI.PSE/11/2021",
        "qr_code": "https://pse.kominfo.go.id/storage/images/qr_code/add81fd16c554f420a94241a8b8c1447.png",
        "status_id": "TERDAFTAR",
        "sistem_elektronik_id": 3142
      }
    },
    {
      "type": "tdpseTerbit",
      "id": 2358,
      "attributes": {
        "nomor_pb_umku": null,
        "nama": "CWB Lab App",
        "website": "https://cwbmedical.com",
        "sektor": "Sektor Kesehatan",
        "nama_perusahaan": "PT Citra Wira Bawana",
        "tanggal_daftar": "2021-11-08",
        "nomor_tanda_daftar": "001548.01/DJAI.PSE/11/2021",
        "qr_code": "https://pse.kominfo.go.id/storage/images/qr_code/97ccb2d9c9daf20d325b77f264567b7d.png",
        "status_id": "TERDAFTAR",
        "sistem_elektronik_id": 3141
      }
    },
    {
      "type": "tdpseTerbit",
      "id": 12020,
      "attributes": {
        "nomor_pb_umku": "022000733130500040001",
        "nama": "WAGELY - FINANCIAL WELLNESS",
        "website": "wagely.app",
        "sektor": "Sektor Teknologi Informasi dan Komunikasi",
        "nama_perusahaan": "GAJI PINTAR INDONESIA",
        "tanggal_daftar": "2022-10-31",
        "nomor_tanda_daftar": "001547.02/DJAI.PSE/10/2022",
        "qr_code": "https://pse.kominfo.go.id/storage/images/qr_code/bdadc50bacda6a8cb934eb43d90c9a04.png",
        "status_id": "TERDAFTAR",
        "sistem_elektronik_id": 11769
      }
    },
    {
      "type": "tdpseTerbit",
      "id": 2357,
      "attributes": {
        "nomor_pb_umku": null,
        "nama": "wagely",
        "website": "http://wagely.id/",
        "sektor": "Sektor Keuangan, Sektor Teknologi Informasi dan Komunikasi",
        "nama_perusahaan": "PT Gaji Pintar Indonesia",
        "tanggal_daftar": "2021-11-08",
        "nomor_tanda_daftar": "001547.01/DJAI.PSE/11/2021",
        "qr_code": "https://pse.kominfo.go.id/storage/images/qr_code/af5ea2cfdb656f15537f7adb4cc12b15.png",
        "status_id": "TERDAFTAR",
        "sistem_elektronik_id": 3346
      }
    },
    {
      "type": "tdpseTerbit",
      "id": 4618,
      "attributes": {
        "nomor_pb_umku": "310821004490900060003",
        "nama": "KIOSON MOBILE",
        "website": "-",
        "sektor": "Sektor Teknologi Informasi dan Komunikasi",
        "nama_perusahaan": "KIOSON KOMERSIAL INDONESIA",
        "tanggal_daftar": "2022-06-20",
        "nomor_tanda_daftar": "001546.04/DJAI.PSE/06/2022",
        "qr_code": "https://pse.kominfo.go.id/storage/images/qr_code/94e2ddba90fbc7a6d523b6ea3b0e70e5.png",
        "status_id": "TERDAFTAR",
        "sistem_elektronik_id": 4579
      }
    }
  ]
}