{
  "meta": {
    "page": {
      "currentPage": 809,
      "from": 8081,
      "lastPage": 1046,
      "perPage": 10,
      "to": 8090,
      "total": 10457
    }
  },
  "data": [
    {
      "type": "tdpseTerbit",
      "id": 1819,
      "attributes": {
        "nomor_pb_umku": null,
        "nama": "Migo",
        "website": "migo.io",
        "sektor": "Sektor Teknologi Informasi dan Komunikasi",
        "nama_perusahaan": "TEKNOLOGI MIGO INDONESIA",
        "tanggal_daftar": "2021-07-29",
        "nomor_tanda_daftar": "001215.01/DJAI.PSE/07/2021",
        "qr_code": "https://pse.kominfo.go.id/storage/images/qr_code/250c0295919f60a93cabbe4e8ec4a1c1.png",
        "status_id": "TERDAFTAR",
        "sistem_elektronik_id": 3548
      }
    },
    {
      "type": "tdpseTerbit",
      "id": 1817,
      "attributes": {
        "nomor_pb_umku": null,
        "nama": "Main Outdoor",
        "website": "www.mainoutdoor.com",
        "sektor": "Sektor Perdagangan",
        "nama_perusahaan": "MANUSIA ALAM INDONESIA",
        "tanggal_daftar": "2021-07-29",
        "nomor_tanda_daftar": "001214.01/DJAI.PSE/07/2021",
        "qr_code": "https://pse.kominfo.go.id/storage/images/qr_code/087711a285efed8c8132ca8dc55888fb.png",
        "status_id": "TERDAFTAR",
        "sistem_elektronik_id": 1381
      }
    },
    {
      "type": "tdpseTerbit",
      "id": 1816,
      "attributes": {
        "nomor_pb_umku": null,
        "nama": "Mengantar",
        "website": "www.mengantar.com",
        "sektor": "Sektor Teknologi Informasi dan Komunikasi",
        "nama_perusahaan": "MENGANTAR KARYA BANGSA",
        "tanggal_daftar": "2021-07-29",
        "nomor_tanda_daftar": "001213.01/DJAI.PSE/07/2021",
        "qr_code": "https://pse.kominfo.go.id/storage/images/qr_code/f0fd19b51bfda8bf78946ecc8c1a720d.png",
        "status_id": "TERDAFTAR",
        "sistem_elektronik_id": 1380
      }
    },
    {
      "type": "tdpseTerbit",
      "id": 7220,
      "attributes": {
        "nomor_pb_umku": "912021327016200400004",
        "nama": "AGENCY WEB PORTAL",
        "website": "agency.car.co.id",
        "sektor": "Sektor Keuangan",
        "nama_perusahaan": "ASURANSI JIWA CENTRAL ASIA RAYA",
        "tanggal_daftar": "2022-07-19",
        "nomor_tanda_daftar": "001212.09/DJAI.PSE/07/2022",
        "qr_code": "https://pse.kominfo.go.id/storage/images/qr_code/db6186f4c6f6c116407e0b081aa8b65e.png",
        "status_id": "TERDAFTAR",
        "sistem_elektronik_id": 7107
      }
    },
    {
      "type": "tdpseTerbit",
      "id": 5129,
      "attributes": {
        "nomor_pb_umku": "912021327016200400003",
        "nama": "ECLIS",
        "website": "client.car.co.id",
        "sektor": "Sektor Keuangan",
        "nama_perusahaan": "ASURANSI JIWA CENTRAL ASIA RAYA",
        "tanggal_daftar": "2022-07-06",
        "nomor_tanda_daftar": "001212.08/DJAI.PSE/07/2022",
        "qr_code": "https://pse.kominfo.go.id/storage/images/qr_code/a6f62e31e5b0a261cc517dfb46ef6bc5.png",
        "status_id": "TERDAFTAR",
        "sistem_elektronik_id": 4993
      }
    },
    {
      "type": "tdpseTerbit",
      "id": 5126,
      "attributes": {
        "nomor_pb_umku": "912021327016200400003",
        "nama": "EPOS",
        "website": "eposv3.car.co.id",
        "sektor": "Sektor Keuangan",
        "nama_perusahaan": "ASURANSI JIWA CENTRAL ASIA RAYA",
        "tanggal_daftar": "2022-07-06",
        "nomor_tanda_daftar": "001212.07/DJAI.PSE/07/2022",
        "qr_code": "https://pse.kominfo.go.id/storage/images/qr_code/33bf8d18d837cda9ce638a6dc5a97128.png",
        "status_id": "TERDAFTAR",
        "sistem_elektronik_id": 4990
      }
    },
    {
      "type": "tdpseTerbit",
      "id": 1898,
      "attributes": {
        "nomor_pb_umku": null,
        "nama": "3i-Networks",
        "website": "https://3i-networks.com",
        "sektor": "Sektor Kesehatan",
        "nama_perusahaan": "ASURANSI JIWA CENTRAL ASIA RAYA",
        "tanggal_daftar": "2021-09-28",
        "nomor_tanda_daftar": "001212.06/DJAI.PSE/09/2021",
        "qr_code": "https://pse.kominfo.go.id/storage/images/qr_code/ea397595f4dc4682bb2bb7ba20f53d93.png",
        "status_id": "TERDAFTAR",
        "sistem_elektronik_id": 1368
      }
    },
    {
      "type": "tdpseTerbit",
      "id": 1897,
      "attributes": {
        "nomor_pb_umku": null,
        "nama": "SPAJ",
        "website": "-",
        "sektor": "Sektor Kesehatan",
        "nama_perusahaan": "ASURANSI JIWA CENTRAL ASIA RAYA",
        "tanggal_daftar": "2021-09-28",
        "nomor_tanda_daftar": "001212.05/DJAI.PSE/09/2021",
        "qr_code": "https://pse.kominfo.go.id/storage/images/qr_code/056930ea275167b5fdeda0b31fb72dbf.png",
        "status_id": "TERDAFTAR",
        "sistem_elektronik_id": 1367
      }
    },
    {
      "type": "tdpseTerbit",
      "id": 1896,
      "attributes": {
        "nomor_pb_umku": null,
        "nama": "Mobiss",
        "website": "-",
        "sektor": "Sektor Kesehatan",
        "nama_perusahaan": "ASURANSI JIWA CENTRAL ASIA RAYA",
        "tanggal_daftar": "2021-09-28",
        "nomor_tanda_daftar": "001212.04/DJAI.PSE/09/2021",
        "qr_code": "https://pse.kominfo.go.id/storage/images/qr_code/5abfcb79dc1da9174eed413291d6e028.png",
        "status_id": "TERDAFTAR",
        "sistem_elektronik_id": 1366
      }
    },
    {
      "type": "tdpseTerbit",
      "id": 1895,
      "attributes": {
        "nomor_pb_umku": null,
        "nama": "e-Benefit",
        "website": "-",
        "sektor": "Sektor Kesehatan",
        "nama_perusahaan": "ASURANSI JIWA CENTRAL ASIA RAYA",
        "tanggal_daftar": "2021-09-28",
        "nomor_tanda_daftar": "001212.03/DJAI.PSE/09/2021",
        "qr_code": "https://pse.kominfo.go.id/storage/images/qr_code/455f0a56bcdc0d766b0026976dc1600c.png",
        "status_id": "TERDAFTAR",
        "sistem_elektronik_id": 1365
      }
    }
  ]
}