{
  "meta": {
    "page": {
      "currentPage": 810,
      "from": 8091,
      "lastPage": 1038,
      "perPage": 10,
      "to": 8100,
      "total": 10380
    }
  },
  "data": [
    {
      "type": "tdpseTerbit",
      "id": 1770,
      "attributes": {
        "nomor_pb_umku": null,
        "nama": "Qornerstone",
        "website": "www.qornerstone.id",
        "sektor": "Sektor Keuangan, Sektor Perdagangan, Sektor Teknologi Informasi dan Komunikasi",
        "nama_perusahaan": "DIGITAL TEKNOLOGI PROPERTINDO",
        "tanggal_daftar": "2021-07-27",
        "nomor_tanda_daftar": "001183.01/DJAI.PSE/07/2021",
        "qr_code": "https://pse.kominfo.go.id/storage/images/qr_code/eb1991a1e5737b046bc4784208014892.png",
        "status_id": "TERDAFTAR",
        "sistem_elektronik_id": 1354
      }
    },
    {
      "type": "tdpseTerbit",
      "id": 1769,
      "attributes": {
        "nomor_pb_umku": null,
        "nama": "Langit Selatan Maju",
        "website": "www.skywestshop.com",
        "sektor": "Sektor Perdagangan",
        "nama_perusahaan": "LANGIT SELATAN MAJU",
        "tanggal_daftar": "2021-07-27",
        "nomor_tanda_daftar": "001182.01/DJAI.PSE/07/2021",
        "qr_code": "https://pse.kominfo.go.id/storage/images/qr_code/598fe9ca04bc640f6611af45317d0edd.png",
        "status_id": "TERDAFTAR",
        "sistem_elektronik_id": 1304
      }
    },
    {
      "type": "tdpseTerbit",
      "id": 1767,
      "attributes": {
        "nomor_pb_umku": null,
        "nama": "Waresix TMS",
        "website": "www.waresix.com",
        "sektor": "Sektor Transportasi",
        "nama_perusahaan": "TIGA BERUANG KALIFORNIA",
        "tanggal_daftar": "2021-07-22",
        "nomor_tanda_daftar": "001181.01/DJAI.PSE/07/2021",
        "qr_code": "https://pse.kominfo.go.id/storage/images/qr_code/816ede96f01945cfdc9cd97abf618f99.png",
        "status_id": "TERDAFTAR",
        "sistem_elektronik_id": 1215
      }
    },
    {
      "type": "tdpseTerbit",
      "id": 1766,
      "attributes": {
        "nomor_pb_umku": null,
        "nama": "RUPIAH KURIR",
        "website": "http://www.rupiahkurir.com/",
        "sektor": "Sektor Keuangan",
        "nama_perusahaan": "SIMPAN PINJAM DANA TELAGA SWARA",
        "tanggal_daftar": "2021-07-22",
        "nomor_tanda_daftar": "001180.01/DJAI.PSE/07/2021",
        "qr_code": "https://pse.kominfo.go.id/storage/images/qr_code/c8c27e307e495cbeec0dca7508f0413a.png",
        "status_id": "TERDAFTAR",
        "sistem_elektronik_id": 1307
      }
    },
    {
      "type": "tdpseTerbit",
      "id": 1764,
      "attributes": {
        "nomor_pb_umku": null,
        "nama": "SMART EAGLE",
        "website": "smarteagle.id",
        "sektor": "Sektor Perdagangan, Sektor Teknologi Informasi dan Komunikasi",
        "nama_perusahaan": "SMART EAGLE TELEMEDIA",
        "tanggal_daftar": "2021-07-22",
        "nomor_tanda_daftar": "001178.01/DJAI.PSE/07/2021",
        "qr_code": "https://pse.kominfo.go.id/storage/images/qr_code/c734fde9bc666bc4dd7ce78ec7195235.png",
        "status_id": "TERDAFTAR",
        "sistem_elektronik_id": 1299
      }
    },
    {
      "type": "tdpseTerbit",
      "id": 7326,
      "attributes": {
        "nomor_pb_umku": "912040788259900020002",
        "nama": "INVESNOW.ID",
        "website": "invesnow.id",
        "sektor": "Sektor Keuangan",
        "nama_perusahaan": "INVESNOW PRINCIPAL OPTIMA",
        "tanggal_daftar": "2022-07-20",
        "nomor_tanda_daftar": "001177.02/DJAI.PSE/07/2022",
        "qr_code": "https://pse.kominfo.go.id/storage/images/qr_code/8a96aaaa8517fcc4b9dd76df9c929045.png",
        "status_id": "TERDAFTAR",
        "sistem_elektronik_id": 7217
      }
    },
    {
      "type": "tdpseTerbit",
      "id": 1763,
      "attributes": {
        "nomor_pb_umku": null,
        "nama": "INVESNOW",
        "website": "www.investamart.com",
        "sektor": "Sektor Keuangan",
        "nama_perusahaan": "INVESNOW PRINCIPAL OPTIMA",
        "tanggal_daftar": "2021-07-22",
        "nomor_tanda_daftar": "001177.01/DJAI.PSE/07/2021",
        "qr_code": "https://pse.kominfo.go.id/storage/images/qr_code/de3b70a3326b9c67c954412964710616.png",
        "status_id": "TERDAFTAR",
        "sistem_elektronik_id": 1131
      }
    },
    {
      "type": "tdpseTerbit",
      "id": 1762,
      "attributes": {
        "nomor_pb_umku": null,
        "nama": "Story-i",
        "website": "https://www.story-i.com",
        "sektor": "Sektor Perdagangan, Sektor Teknologi Informasi dan Komunikasi",
        "nama_perusahaan": "INETINDO INFOCOM",
        "tanggal_daftar": "2021-07-22",
        "nomor_tanda_daftar": "001176.01/DJAI.PSE/07/2021",
        "qr_code": "https://pse.kominfo.go.id/storage/images/qr_code/5c79f31120681da772ffbfbe6f544978.png",
        "status_id": "TERDAFTAR",
        "sistem_elektronik_id": 3160
      }
    },
    {
      "type": "tdpseTerbit",
      "id": 1761,
      "attributes": {
        "nomor_pb_umku": null,
        "nama": "Sifa.id",
        "website": "Sifa.id",
        "sektor": "Sektor Kesehatan",
        "nama_perusahaan": "SIFA APLIKASI INDONESIA",
        "tanggal_daftar": "2021-07-22",
        "nomor_tanda_daftar": "001175.01/DJAI.PSE/07/2021",
        "qr_code": "https://pse.kominfo.go.id/storage/images/qr_code/864ee07b545cc55caead46871d01a628.png",
        "status_id": "TERDAFTAR",
        "sistem_elektronik_id": 1303
      }
    },
    {
      "type": "tdpseTerbit",
      "id": 1760,
      "attributes": {
        "nomor_pb_umku": null,
        "nama": "Kospin SMS eChannel",
        "website": "www.kospinsms.co.id",
        "sektor": "Sektor Keuangan",
        "nama_perusahaan": "KOP SIMPAN PINJAM SINAR MERAK SANTOSO",
        "tanggal_daftar": "2021-07-22",
        "nomor_tanda_daftar": "001174.01/DJAI.PSE/07/2021",
        "qr_code": "https://pse.kominfo.go.id/storage/images/qr_code/3a553ffb589f933ee94ce8eaa61e5774.png",
        "status_id": "TERDAFTAR",
        "sistem_elektronik_id": 1301
      }
    }
  ]
}