{
  "meta": {
    "page": {
      "currentPage": 811,
      "from": 8101,
      "lastPage": 949,
      "perPage": 10,
      "to": 8110,
      "total": 9489
    }
  },
  "data": [
    {
      "type": "tdpseTerbit",
      "id": 941,
      "attributes": {
        "nomor_pb_umku": null,
        "nama": "POST PRO Website",
        "website": "www.post-pro.co.id",
        "sektor": "Sektor Keuangan",
        "nama_perusahaan": "PANIN SEKURITAS",
        "tanggal_daftar": "2021-05-11",
        "nomor_tanda_daftar": "000692.02/DJAI.PSE/05/2021",
        "qr_code": "https://pse.kominfo.go.id/storage/images/qr_code/4497ecaa66689a5cf90d9075d191dc2b.png",
        "status_id": "TERDAFTAR",
        "sistem_elektronik_id": 2462
      }
    },
    {
      "type": "tdpseTerbit",
      "id": 906,
      "attributes": {
        "nomor_pb_umku": null,
        "nama": "Postdana.id",
        "website": "www.postdana.id",
        "sektor": "Sektor Keuangan",
        "nama_perusahaan": "PANIN SEKURITAS",
        "tanggal_daftar": "2021-05-11",
        "nomor_tanda_daftar": "000692.01/DJAI.PSE/05/2021",
        "qr_code": "https://pse.kominfo.go.id/storage/images/qr_code/df99d4f189611bfb756604e4b56ca5e8.png",
        "status_id": "TERDAFTAR",
        "sistem_elektronik_id": 2461
      }
    },
    {
      "type": "tdpseTerbit",
      "id": 905,
      "attributes": {
        "nomor_pb_umku": null,
        "nama": "Taralite",
        "website": "https://www.taralite.com/",
        "sektor": "Sektor Keuangan",
        "nama_perusahaan": "INDONUSA BARA SEJAHTERA",
        "tanggal_daftar": "2021-05-11",
        "nomor_tanda_daftar": "000691.01/DJAI.PSE/05/2021",
        "qr_code": "https://pse.kominfo.go.id/storage/images/qr_code/2a01304a4adf380dec23b0f85d6c19ba.png",
        "status_id": "TERDAFTAR",
        "sistem_elektronik_id": 665
      }
    },
    {
      "type": "tdpseTerbit",
      "id": 903,
      "attributes": {
        "nomor_pb_umku": null,
        "nama": "tisera.id",
        "website": "tisera.id",
        "sektor": "Sektor Teknologi Informasi dan Komunikasi",
        "nama_perusahaan": "TIGASERANGKAI PUSTAKAMANDIRI",
        "tanggal_daftar": "2021-05-11",
        "nomor_tanda_daftar": "000690.01/DJAI.PSE/05/2021",
        "qr_code": "https://pse.kominfo.go.id/storage/images/qr_code/4b8edaeb8b533ae612c2b511ab626ad7.png",
        "status_id": "TERDAFTAR",
        "sistem_elektronik_id": 301
      }
    },
    {
      "type": "tdpseTerbit",
      "id": 900,
      "attributes": {
        "nomor_pb_umku": null,
        "nama": "Online Trading",
        "website": "www.minnapadi.com",
        "sektor": "Sektor Perdagangan, Sektor Teknologi Informasi dan Komunikasi",
        "nama_perusahaan": "MINNA PADI INVESTAMA SEKURITAS",
        "tanggal_daftar": "2021-05-11",
        "nomor_tanda_daftar": "000689.01/DJAI.PSE/05/2021",
        "qr_code": "https://pse.kominfo.go.id/storage/images/qr_code/4f86deaa6c45c4a794506fea5ceef6ff.png",
        "status_id": "TERDAFTAR",
        "sistem_elektronik_id": 667
      }
    },
    {
      "type": "tdpseTerbit",
      "id": 898,
      "attributes": {
        "nomor_pb_umku": null,
        "nama": "Polismall",
        "website": "https://cargo.polismall.com/",
        "sektor": "Sektor Keuangan, Sektor Teknologi Informasi dan Komunikasi",
        "nama_perusahaan": "PIALANG ASURANSI PROVIS MITRA SINERGI",
        "tanggal_daftar": "2021-05-11",
        "nomor_tanda_daftar": "000688.01/DJAI.PSE/05/2021",
        "qr_code": "https://pse.kominfo.go.id/storage/images/qr_code/83418581b0931dcd033562b2ad12f47d.png",
        "status_id": "TERDAFTAR",
        "sistem_elektronik_id": 516
      }
    },
    {
      "type": "tdpseTerbit",
      "id": 6445,
      "attributes": {
        "nomor_pb_umku": null,
        "nama": "Acura Labs",
        "website": "https://acuralabs.ai/",
        "sektor": "Sektor Teknologi Informasi dan Komunikasi",
        "nama_perusahaan": "ACURA LABS INDONESIA",
        "tanggal_daftar": "2021-05-11",
        "nomor_tanda_daftar": "000687.01/DJAI.PSE/05/2021",
        "qr_code": "https://pse.kominfo.go.id/storage/images/qr_code/1103f7df2b99a217f3dd215c310339eb.png",
        "status_id": "TERDAFTAR",
        "sistem_elektronik_id": 2556
      }
    },
    {
      "type": "tdpseTerbit",
      "id": 894,
      "attributes": {
        "nomor_pb_umku": null,
        "nama": "Digitalscommunity.co.id",
        "website": "https://digitalscommunity.co.id",
        "sektor": "Sektor Perdagangan",
        "nama_perusahaan": "KONAKAMI DIGITAL INDONESIA",
        "tanggal_daftar": "2021-05-11",
        "nomor_tanda_daftar": "000686.01/DJAI.PSE/05/2021",
        "qr_code": "https://pse.kominfo.go.id/storage/images/qr_code/f459b4bfe77c0ab636882bbfb5f37249.png",
        "status_id": "TERDAFTAR",
        "sistem_elektronik_id": 590
      }
    },
    {
      "type": "tdpseTerbit",
      "id": 1030,
      "attributes": {
        "nomor_pb_umku": null,
        "nama": "Finansialku.com",
        "website": "www.Finansialku.com",
        "sektor": "Sektor Keuangan",
        "nama_perusahaan": "SOLUSI FINANSIALKU INDONESIA",
        "tanggal_daftar": "2021-05-18",
        "nomor_tanda_daftar": "000685.02/DJAI.PSE/05/2021",
        "qr_code": "https://pse.kominfo.go.id/storage/images/qr_code/630989d96bfafebf7ae69d953346ffbe.png",
        "status_id": "TERDAFTAR",
        "sistem_elektronik_id": 647
      }
    },
    {
      "type": "tdpseTerbit",
      "id": 892,
      "attributes": {
        "nomor_pb_umku": null,
        "nama": "Finansialku.com",
        "website": "www.finansialku.com",
        "sektor": "Sektor Keuangan",
        "nama_perusahaan": "SOLUSI FINANSIALKU INDONESIA",
        "tanggal_daftar": "2021-05-11",
        "nomor_tanda_daftar": "000685.01/DJAI.PSE/05/2021",
        "qr_code": "https://pse.kominfo.go.id/storage/images/qr_code/043dbb5ce8d2b3e813756acaef3d50c5.png",
        "status_id": "TERDAFTAR",
        "sistem_elektronik_id": 646
      }
    }
  ]
}