{
  "meta": {
    "page": {
      "currentPage": 812,
      "from": 8111,
      "lastPage": 1061,
      "perPage": 10,
      "to": 8120,
      "total": 10601
    }
  },
  "data": [
    {
      "type": "tdpseTerbit",
      "id": 1938,
      "attributes": {
        "nomor_pb_umku": null,
        "nama": "mTOYOTA",
        "website": "-",
        "sektor": "Sektor Perdagangan, Sektor Teknologi Informasi dan Komunikasi",
        "nama_perusahaan": "TOYOTA-ASTRA MOTOR",
        "tanggal_daftar": "2021-10-04",
        "nomor_tanda_daftar": "001276.03/DJAI.PSE/10/2021",
        "qr_code": "https://pse.kominfo.go.id/storage/images/qr_code/c4be3e5d25d61201beb45eb9f9a103c1.png",
        "status_id": "TERDAFTAR",
        "sistem_elektronik_id": 1073
      }
    },
    {
      "type": "tdpseTerbit",
      "id": 1912,
      "attributes": {
        "nomor_pb_umku": null,
        "nama": "Website Toyota Astra Motor : toyota.astra.co.id",
        "website": "https://www.toyota.astra.co.id",
        "sektor": "Sektor Perdagangan, Sektor Teknologi Informasi dan Komunikasi",
        "nama_perusahaan": "TOYOTA-ASTRA MOTOR",
        "tanggal_daftar": "2021-09-29",
        "nomor_tanda_daftar": "001276.02/DJAI.PSE/09/2021",
        "qr_code": "https://pse.kominfo.go.id/storage/images/qr_code/1e216db2e191cbcff858ea37465e7b7a.png",
        "status_id": "TERDAFTAR",
        "sistem_elektronik_id": 1072
      }
    },
    {
      "type": "tdpseTerbit",
      "id": 1911,
      "attributes": {
        "nomor_pb_umku": null,
        "nama": "G-FLEET",
        "website": "https://gfms.g-fleet.info/",
        "sektor": "Sektor Perdagangan, Sektor Teknologi Informasi dan Komunikasi",
        "nama_perusahaan": "TOYOTA-ASTRA MOTOR",
        "tanggal_daftar": "2021-09-29",
        "nomor_tanda_daftar": "001276.01/DJAI.PSE/09/2021",
        "qr_code": "https://pse.kominfo.go.id/storage/images/qr_code/ad9f792f77663929a4f80414c720cfc1.png",
        "status_id": "TERDAFTAR",
        "sistem_elektronik_id": 1071
      }
    },
    {
      "type": "tdpseTerbit",
      "id": 3338,
      "attributes": {
        "nomor_pb_umku": null,
        "nama": "Loket.com",
        "website": "loket.com",
        "sektor": "Sektor Perdagangan",
        "nama_perusahaan": "GLOBAL LOKET SEJAHTERA",
        "tanggal_daftar": "2022-02-22",
        "nomor_tanda_daftar": "001275.02/DJAI.PSE/02/2022",
        "qr_code": "https://pse.kominfo.go.id/storage/images/qr_code/759f2171c434c077e3512abdee6fe517.png",
        "status_id": "TERDAFTAR",
        "sistem_elektronik_id": 96
      }
    },
    {
      "type": "tdpseTerbit",
      "id": 1909,
      "attributes": {
        "nomor_pb_umku": null,
        "nama": "go-tix.id",
        "website": "https://go-tix.id/",
        "sektor": "Sektor Perdagangan, Sektor Teknologi Informasi dan Komunikasi",
        "nama_perusahaan": "GLOBAL LOKET SEJAHTERA",
        "tanggal_daftar": "2021-09-29",
        "nomor_tanda_daftar": "001275.01/DJAI.PSE/09/2021",
        "qr_code": "https://pse.kominfo.go.id/storage/images/qr_code/9d4ba77282f2428b6b131b728a8ba923.png",
        "status_id": "TERDAFTAR",
        "sistem_elektronik_id": 95
      }
    },
    {
      "type": "tdpseTerbit",
      "id": 1919,
      "attributes": {
        "nomor_pb_umku": null,
        "nama": "MUFG One (SSO) Portal",
        "website": "one.mufg.co.id",
        "sektor": "Sektor Teknologi Informasi dan Komunikasi",
        "nama_perusahaan": "BUT.MUFG BANK, LTD.",
        "tanggal_daftar": "2021-09-29",
        "nomor_tanda_daftar": "001274.09/DJAI.PSE/09/2021",
        "qr_code": "https://pse.kominfo.go.id/storage/images/qr_code/4129e8e2affdea4e855ee7c91d83d06b.png",
        "status_id": "TERDAFTAR",
        "sistem_elektronik_id": 1070
      }
    },
    {
      "type": "tdpseTerbit",
      "id": 1918,
      "attributes": {
        "nomor_pb_umku": null,
        "nama": "GPH (Global Payment Hub)",
        "website": "ebusiness.bk.mufg.jp",
        "sektor": "Sektor Teknologi Informasi dan Komunikasi",
        "nama_perusahaan": "BUT.MUFG BANK, LTD.",
        "tanggal_daftar": "2021-09-29",
        "nomor_tanda_daftar": "001274.08/DJAI.PSE/09/2021",
        "qr_code": "https://pse.kominfo.go.id/storage/images/qr_code/69f53875b4742ac88c67a3e32fcbbf65.png",
        "status_id": "TERDAFTAR",
        "sistem_elektronik_id": 1069
      }
    },
    {
      "type": "tdpseTerbit",
      "id": 1917,
      "attributes": {
        "nomor_pb_umku": null,
        "nama": "GCMS (Global Cash Management Service) PLUS",
        "website": "ebusiness.bk.mufg.jp",
        "sektor": "Sektor Teknologi Informasi dan Komunikasi",
        "nama_perusahaan": "BUT.MUFG BANK, LTD.",
        "tanggal_daftar": "2021-09-29",
        "nomor_tanda_daftar": "001274.07/DJAI.PSE/09/2021",
        "qr_code": "https://pse.kominfo.go.id/storage/images/qr_code/ec3beb74f9a066b35df95c7199f3750e.png",
        "status_id": "TERDAFTAR",
        "sistem_elektronik_id": 1068
      }
    },
    {
      "type": "tdpseTerbit",
      "id": 1916,
      "attributes": {
        "nomor_pb_umku": null,
        "nama": "Direct Debit",
        "website": "direct.mufg.co.id",
        "sektor": "Sektor Teknologi Informasi dan Komunikasi",
        "nama_perusahaan": "BUT.MUFG BANK, LTD.",
        "tanggal_daftar": "2021-09-29",
        "nomor_tanda_daftar": "001274.06/DJAI.PSE/09/2021",
        "qr_code": "https://pse.kominfo.go.id/storage/images/qr_code/a4a5488c3961f972a1faeb69f52ff90e.png",
        "status_id": "TERDAFTAR",
        "sistem_elektronik_id": 1067
      }
    },
    {
      "type": "tdpseTerbit",
      "id": 1915,
      "attributes": {
        "nomor_pb_umku": null,
        "nama": "COMSUITE Payable Finance",
        "website": "ebusiness.bk.mufg.jp",
        "sektor": "Sektor Teknologi Informasi dan Komunikasi",
        "nama_perusahaan": "BUT.MUFG BANK, LTD.",
        "tanggal_daftar": "2021-09-29",
        "nomor_tanda_daftar": "001274.05/DJAI.PSE/09/2021",
        "qr_code": "https://pse.kominfo.go.id/storage/images/qr_code/63b5fb0314b5d14dd339952f913d6887.png",
        "status_id": "TERDAFTAR",
        "sistem_elektronik_id": 1066
      }
    }
  ]
}