{
  "meta": {
    "page": {
      "currentPage": 813,
      "from": 8121,
      "lastPage": 970,
      "perPage": 10,
      "to": 8130,
      "total": 9692
    }
  },
  "data": [
    {
      "type": "tdpseTerbit",
      "id": 1050,
      "attributes": {
        "nomor_pb_umku": null,
        "nama": "siplah.jualin.co.id",
        "website": "jualin.co.id",
        "sektor": "Sektor Kesehatan, Sektor Pangan, Sektor Perdagangan, Sektor Teknologi Informasi dan Komunikasi",
        "nama_perusahaan": "PUSTAKA INSAN MADANI",
        "tanggal_daftar": "2021-05-21",
        "nomor_tanda_daftar": "000774.01/DJAI.PSE/05/2021",
        "qr_code": "https://pse.kominfo.go.id/storage/images/qr_code/0ef1b1d40e7eff68699aebd1ce3d1b80.png",
        "status_id": "TERDAFTAR",
        "sistem_elektronik_id": 335
      }
    },
    {
      "type": "tdpseTerbit",
      "id": 1299,
      "attributes": {
        "nomor_pb_umku": null,
        "nama": "Bunga Matahari",
        "website": "www.kspbungamatahariindonesia.co.id",
        "sektor": "Sektor Keuangan",
        "nama_perusahaan": "KOPERASI SIMPAN PINJAM BUNGA MATAHARI INDONESIA",
        "tanggal_daftar": "2021-06-02",
        "nomor_tanda_daftar": "000773.02/DJAI.PSE/06/2021",
        "qr_code": "https://pse.kominfo.go.id/storage/images/qr_code/29b2b0e6a7f0b9db9c60ae045947ce76.png",
        "status_id": "TERDAFTAR",
        "sistem_elektronik_id": 742
      }
    },
    {
      "type": "tdpseTerbit",
      "id": 1049,
      "attributes": {
        "nomor_pb_umku": null,
        "nama": "Bunga Matahari",
        "website": "www.kspbungamatahariindonesia.co.id",
        "sektor": "Sektor Keuangan",
        "nama_perusahaan": "KOPERASI SIMPAN PINJAM BUNGA MATAHARI INDONESIA",
        "tanggal_daftar": "2021-05-21",
        "nomor_tanda_daftar": "000773.01/DJAI.PSE/05/2021",
        "qr_code": "https://pse.kominfo.go.id/storage/images/qr_code/6456ae5247f379a5f08da4d72110c416.png",
        "status_id": "TERDAFTAR",
        "sistem_elektronik_id": 741
      }
    },
    {
      "type": "tdpseTerbit",
      "id": 1046,
      "attributes": {
        "nomor_pb_umku": null,
        "nama": "APLIKASI ANDROID JULO",
        "website": "HTTPS://WWW.JULO.CO.ID",
        "sektor": "Sektor Keuangan",
        "nama_perusahaan": "JULO TEKNOLOGI FINANSIAL",
        "tanggal_daftar": "2021-05-18",
        "nomor_tanda_daftar": "000772.01/DJAI.PSE/05/2021",
        "qr_code": "https://pse.kominfo.go.id/storage/images/qr_code/1a486553e00c8dc76cb4c5e2dfa9edd6.png",
        "status_id": "TERDAFTAR",
        "sistem_elektronik_id": 759
      }
    },
    {
      "type": "tdpseTerbit",
      "id": 5124,
      "attributes": {
        "nomor_pb_umku": "912000963110900020002",
        "nama": "FIS TRADING SERVER",
        "website": "-",
        "sektor": "Sektor Keuangan",
        "nama_perusahaan": "MACQUARIE SEKURITAS INDONESIA",
        "tanggal_daftar": "2022-07-06",
        "nomor_tanda_daftar": "000771.03/DJAI.PSE/07/2022",
        "qr_code": "https://pse.kominfo.go.id/storage/images/qr_code/3da8dd68204c8fbf41fa48cd3b1667f6.png",
        "status_id": "TERDAFTAR",
        "sistem_elektronik_id": 4987
      }
    },
    {
      "type": "tdpseTerbit",
      "id": 1040,
      "attributes": {
        "nomor_pb_umku": null,
        "nama": "SYN",
        "website": "-",
        "sektor": "Sektor Keuangan",
        "nama_perusahaan": "MACQUARIE SEKURITAS INDONESIA",
        "tanggal_daftar": "2021-05-18",
        "nomor_tanda_daftar": "000771.02/DJAI.PSE/05/2021",
        "qr_code": "https://pse.kominfo.go.id/storage/images/qr_code/0dcb56df16f2eacc495ef2b8b91ca475.png",
        "status_id": "TERDAFTAR",
        "sistem_elektronik_id": 713
      }
    },
    {
      "type": "tdpseTerbit",
      "id": 1039,
      "attributes": {
        "nomor_pb_umku": null,
        "nama": "FIDESSA AMMA",
        "website": "-",
        "sektor": "Sektor Keuangan",
        "nama_perusahaan": "MACQUARIE SEKURITAS INDONESIA",
        "tanggal_daftar": "2021-05-18",
        "nomor_tanda_daftar": "000771.01/DJAI.PSE/05/2021",
        "qr_code": "https://pse.kominfo.go.id/storage/images/qr_code/c382e440d4d1c68b8de64e151af7ade7.png",
        "status_id": "TERDAFTAR",
        "sistem_elektronik_id": 712
      }
    },
    {
      "type": "tdpseTerbit",
      "id": 1031,
      "attributes": {
        "nomor_pb_umku": null,
        "nama": "Ajaib Manajer Investasi",
        "website": "https://ajaib.co.id/",
        "sektor": "Sektor Keuangan",
        "nama_perusahaan": "AJAIB ASET MANAJEMEN",
        "tanggal_daftar": "2021-05-18",
        "nomor_tanda_daftar": "000770.01/DJAI.PSE/05/2021",
        "qr_code": "https://pse.kominfo.go.id/storage/images/qr_code/9e1465cf23ad89345cbefd7d78fbf966.png",
        "status_id": "TERDAFTAR",
        "sistem_elektronik_id": 740
      }
    },
    {
      "type": "tdpseTerbit",
      "id": 9972,
      "attributes": {
        "nomor_pb_umku": "022020573026600010002",
        "nama": "OMNE",
        "website": "-",
        "sektor": "Sektor Keuangan",
        "nama_perusahaan": "FWD INSURANCE INDONESIA",
        "tanggal_daftar": "2022-08-05",
        "nomor_tanda_daftar": "000769.12/DJAI.PSE/08/2022",
        "qr_code": "https://pse.kominfo.go.id/storage/images/qr_code/f1ba0e4e187d6d7b0c511d362eddb374.png",
        "status_id": "TERDAFTAR",
        "sistem_elektronik_id": 9860
      }
    },
    {
      "type": "tdpseTerbit",
      "id": 1045,
      "attributes": {
        "nomor_pb_umku": null,
        "nama": "FWDI Banca",
        "website": "https://services.fwdinsurance.co.id/bancassurance",
        "sektor": "Sektor Keuangan",
        "nama_perusahaan": "FWD INSURANCE INDONESIA",
        "tanggal_daftar": "2021-05-18",
        "nomor_tanda_daftar": "000769.11/DJAI.PSE/05/2021",
        "qr_code": "https://pse.kominfo.go.id/storage/images/qr_code/a78b1eddffd06678dbdf9974afd81bd2.png",
        "status_id": "TERDAFTAR",
        "sistem_elektronik_id": 580
      }
    }
  ]
}