{
  "meta": {
    "page": {
      "currentPage": 815,
      "from": 8141,
      "lastPage": 931,
      "perPage": 10,
      "to": 8150,
      "total": 9301
    }
  },
  "data": [
    {
      "type": "tdpseTerbit",
      "id": 6529,
      "attributes": {
        "nomor_pb_umku": "912010055238400000002",
        "nama": "PORTAL WEB/PLATOFRM DIGITAL",
        "website": "mainbro.co.id",
        "sektor": "Sektor Teknologi Informasi dan Komunikasi",
        "nama_perusahaan": "MELON INDONESIA",
        "tanggal_daftar": "2022-07-18",
        "nomor_tanda_daftar": "000583.03/DJAI.PSE/07/2022",
        "qr_code": "https://pse.kominfo.go.id/storage/images/qr_code/2d82e0ce69f6c8d04a579e5d93127379.png",
        "status_id": "TERDAFTAR",
        "sistem_elektronik_id": 6396
      }
    },
    {
      "type": "tdpseTerbit",
      "id": 6528,
      "attributes": {
        "nomor_pb_umku": "912010055238400000002",
        "nama": "PORTAL WEB/PLATFORM DIGITAL",
        "website": "imstore.co.id",
        "sektor": "Sektor Perdagangan, Sektor Teknologi Informasi dan Komunikasi",
        "nama_perusahaan": "MELON INDONESIA",
        "tanggal_daftar": "2022-07-18",
        "nomor_tanda_daftar": "000583.02/DJAI.PSE/07/2022",
        "qr_code": "https://pse.kominfo.go.id/storage/images/qr_code/af1e39cb7f68acac796851e51978fa52.png",
        "status_id": "TERDAFTAR",
        "sistem_elektronik_id": 6395
      }
    },
    {
      "type": "tdpseTerbit",
      "id": 721,
      "attributes": {
        "nomor_pb_umku": null,
        "nama": "Portal Web / Platform Digital",
        "website": "www.upoint.id dan www.tiketapasaja.com",
        "sektor": "Sektor Perdagangan, Sektor Teknologi Informasi dan Komunikasi",
        "nama_perusahaan": "MELON INDONESIA",
        "tanggal_daftar": "2021-05-07",
        "nomor_tanda_daftar": "000583.01/DJAI.PSE/05/2021",
        "qr_code": "https://pse.kominfo.go.id/storage/images/qr_code/646131e43892ab3fd5a83ebaee1c73eb.png",
        "status_id": "TERDAFTAR",
        "sistem_elektronik_id": 99
      }
    },
    {
      "type": "tdpseTerbit",
      "id": 720,
      "attributes": {
        "nomor_pb_umku": null,
        "nama": "Umroh.com",
        "website": "https://www.umroh.com/",
        "sektor": "Sektor Teknologi Informasi dan Komunikasi",
        "nama_perusahaan": "AMANAH UMROH HANDAL",
        "tanggal_daftar": "2021-04-26",
        "nomor_tanda_daftar": "000582.01/DJAI.PSE/04/2021",
        "qr_code": "https://pse.kominfo.go.id/storage/images/qr_code/f9dd26c2adf8df31ade52d40132f2061.png",
        "status_id": "TERDAFTAR",
        "sistem_elektronik_id": 357
      }
    },
    {
      "type": "tdpseTerbit",
      "id": 719,
      "attributes": {
        "nomor_pb_umku": null,
        "nama": "Sistem Informasi Manajemen Rumah Sakit (SIMRS) Trisna Medika",
        "website": "-",
        "sektor": "Sektor Kesehatan",
        "nama_perusahaan": "TRISNA YOGA PUTRA",
        "tanggal_daftar": "2021-04-26",
        "nomor_tanda_daftar": "000581.01/DJAI.PSE/04/2021",
        "qr_code": "https://pse.kominfo.go.id/storage/images/qr_code/7bcfde40a2fd6ad8fc24975b80ccc034.png",
        "status_id": "TERDAFTAR",
        "sistem_elektronik_id": 490
      }
    },
    {
      "type": "tdpseTerbit",
      "id": 2951,
      "attributes": {
        "nomor_pb_umku": null,
        "nama": "LAKUFIN LOS",
        "website": "lakufin.com",
        "sektor": "Sektor Teknologi Informasi dan Komunikasi",
        "nama_perusahaan": "NTT DATA INDONESIA",
        "tanggal_daftar": "2022-01-05",
        "nomor_tanda_daftar": "000580.02/DJAI.PSE/01/2022",
        "qr_code": "https://pse.kominfo.go.id/storage/images/qr_code/76d2fb243cc1049a3e5035b3da473e22.png",
        "status_id": "TERDAFTAR",
        "sistem_elektronik_id": 470
      }
    },
    {
      "type": "tdpseTerbit",
      "id": 718,
      "attributes": {
        "nomor_pb_umku": null,
        "nama": "HR ZERO",
        "website": "https://hrzero.id",
        "sektor": "Sektor Teknologi Informasi dan Komunikasi",
        "nama_perusahaan": "NTT DATA INDONESIA",
        "tanggal_daftar": "2021-04-26",
        "nomor_tanda_daftar": "000580.01/DJAI.PSE/04/2021",
        "qr_code": "https://pse.kominfo.go.id/storage/images/qr_code/9b3dad19a8ea496e0a7b56f1f9d8b69a.png",
        "status_id": "TERDAFTAR",
        "sistem_elektronik_id": 469
      }
    },
    {
      "type": "tdpseTerbit",
      "id": 716,
      "attributes": {
        "nomor_pb_umku": null,
        "nama": "AppOn",
        "website": "https://appon.id",
        "sektor": "Sektor Perdagangan, Sektor Teknologi Informasi dan Komunikasi",
        "nama_perusahaan": "ARMADA ENTITAS ONLINE",
        "tanggal_daftar": "2021-04-26",
        "nomor_tanda_daftar": "000579.01/DJAI.PSE/04/2021",
        "qr_code": "https://pse.kominfo.go.id/storage/images/qr_code/f3b14341aa782e2fcefaadcd0f1f6a6d.png",
        "status_id": "TERDAFTAR",
        "sistem_elektronik_id": 3403
      }
    },
    {
      "type": "tdpseTerbit",
      "id": 715,
      "attributes": {
        "nomor_pb_umku": null,
        "nama": "Dana Ligat",
        "website": "-",
        "sektor": "Sektor Keuangan",
        "nama_perusahaan": "NUSANTARA ABDI SEMESTA",
        "tanggal_daftar": "2021-04-26",
        "nomor_tanda_daftar": "000578.01/DJAI.PSE/04/2021",
        "qr_code": "https://pse.kominfo.go.id/storage/images/qr_code/fee7e79601765c3ecbbf255615dbe0b8.png",
        "status_id": "TERDAFTAR",
        "sistem_elektronik_id": 442
      }
    },
    {
      "type": "tdpseTerbit",
      "id": 907,
      "attributes": {
        "nomor_pb_umku": null,
        "nama": "DANA CAIR",
        "website": "Http://www.danacair.com",
        "sektor": "Sektor Teknologi Informasi dan Komunikasi",
        "nama_perusahaan": "SIMPAN PINJAM JAYA BERKAH AMAL",
        "tanggal_daftar": "2021-05-11",
        "nomor_tanda_daftar": "000577.02/DJAI.PSE/05/2021",
        "qr_code": "https://pse.kominfo.go.id/storage/images/qr_code/565cc6c8753d0c5bd10f0979bc6111b6.png",
        "status_id": "TERDAFTAR",
        "sistem_elektronik_id": 2402
      }
    }
  ]
}