{
  "meta": {
    "page": {
      "currentPage": 816,
      "from": 8151,
      "lastPage": 1070,
      "perPage": 10,
      "to": 8160,
      "total": 10698
    }
  },
  "data": [
    {
      "type": "tdpseTerbit",
      "id": 3079,
      "attributes": {
        "nomor_pb_umku": null,
        "nama": "www.ibox.co.id",
        "website": "ibox.co.id",
        "sektor": "Sektor Perdagangan, Sektor Teknologi Informasi dan Komunikasi",
        "nama_perusahaan": "DATA CITRA MANDIRI",
        "tanggal_daftar": "2022-01-19",
        "nomor_tanda_daftar": "001316.02/DJAI.PSE/01/2022",
        "qr_code": "https://pse.kominfo.go.id/storage/images/qr_code/f27cbe19c959d9c147025365f5b34df0.png",
        "status_id": "TERDAFTAR",
        "sistem_elektronik_id": 1444
      }
    },
    {
      "type": "tdpseTerbit",
      "id": 1969,
      "attributes": {
        "nomor_pb_umku": null,
        "nama": "http://www.ibox.co.id/",
        "website": "http://www.ibox.co.id/",
        "sektor": "Sektor Perdagangan",
        "nama_perusahaan": "DATA CITRA MANDIRI",
        "tanggal_daftar": "2021-10-04",
        "nomor_tanda_daftar": "001316.01/DJAI.PSE/10/2021",
        "qr_code": "https://pse.kominfo.go.id/storage/images/qr_code/0ad15b8f7815540dd0e7755c1e09bc04.png",
        "status_id": "TERDAFTAR",
        "sistem_elektronik_id": 1443
      }
    },
    {
      "type": "tdpseTerbit",
      "id": 2076,
      "attributes": {
        "nomor_pb_umku": null,
        "nama": "PNM DIGI",
        "website": "mtm.co.id",
        "sektor": "Sektor Teknologi Informasi dan Komunikasi",
        "nama_perusahaan": "MITRA TEKNO MADANI",
        "tanggal_daftar": "2021-10-26",
        "nomor_tanda_daftar": "001315.02/DJAI.PSE/10/2021",
        "qr_code": "https://pse.kominfo.go.id/storage/images/qr_code/b4673e79a1aff3463b30ce680706990b.png",
        "status_id": "TERDAFTAR",
        "sistem_elektronik_id": 1473
      }
    },
    {
      "type": "tdpseTerbit",
      "id": 1968,
      "attributes": {
        "nomor_pb_umku": null,
        "nama": "PNM DIGI",
        "website": "mtm.co.id",
        "sektor": "Sektor Teknologi Informasi dan Komunikasi",
        "nama_perusahaan": "MITRA TEKNO MADANI",
        "tanggal_daftar": "2021-10-04",
        "nomor_tanda_daftar": "001315.01/DJAI.PSE/10/2021",
        "qr_code": "https://pse.kominfo.go.id/storage/images/qr_code/deac1201bcdafaf0c707110cbad4f725.png",
        "status_id": "TERDAFTAR",
        "sistem_elektronik_id": 1472
      }
    },
    {
      "type": "tdpseTerbit",
      "id": 1965,
      "attributes": {
        "nomor_pb_umku": null,
        "nama": "DamoGO",
        "website": "damogo.co",
        "sektor": "Sektor Perdagangan, Sektor Teknologi Informasi dan Komunikasi",
        "nama_perusahaan": "SOLUSI CERDAS NUSANTARA",
        "tanggal_daftar": "2021-10-04",
        "nomor_tanda_daftar": "001314.01/DJAI.PSE/10/2021",
        "qr_code": "https://pse.kominfo.go.id/storage/images/qr_code/a95ba33d20a0d57c47ad2fb19e7611ab.png",
        "status_id": "TERDAFTAR",
        "sistem_elektronik_id": 1462
      }
    },
    {
      "type": "tdpseTerbit",
      "id": 1964,
      "attributes": {
        "nomor_pb_umku": null,
        "nama": "indocrypto.com",
        "website": "indocrypto.com",
        "sektor": "Sektor Teknologi Informasi dan Komunikasi",
        "nama_perusahaan": "NUANSA KRIPTO REPUBLIK INDONESIA",
        "tanggal_daftar": "2021-10-04",
        "nomor_tanda_daftar": "001313.01/DJAI.PSE/10/2021",
        "qr_code": "https://pse.kominfo.go.id/storage/images/qr_code/3c7976ca383517e39d0fe0e861fb8460.png",
        "status_id": "TERDAFTAR",
        "sistem_elektronik_id": 1424
      }
    },
    {
      "type": "tdpseTerbit",
      "id": 1963,
      "attributes": {
        "nomor_pb_umku": null,
        "nama": "www.oshop.co.id",
        "website": "www.oshop.co.id",
        "sektor": "Sektor Perdagangan",
        "nama_perusahaan": "ELANG PRIMA RETAILINDO",
        "tanggal_daftar": "2021-10-04",
        "nomor_tanda_daftar": "001312.01/DJAI.PSE/10/2021",
        "qr_code": "https://pse.kominfo.go.id/storage/images/qr_code/a0dfbbda1b2489516b000c2b105ec354.png",
        "status_id": "TERDAFTAR",
        "sistem_elektronik_id": 1460
      }
    },
    {
      "type": "tdpseTerbit",
      "id": 1962,
      "attributes": {
        "nomor_pb_umku": null,
        "nama": "M-TJEK",
        "website": "www.m-tjek.com",
        "sektor": "Sektor Transportasi",
        "nama_perusahaan": "ANDRI SUPRIYADI",
        "tanggal_daftar": "2021-10-04",
        "nomor_tanda_daftar": "001311.01/DJAI.PSE/10/2021",
        "qr_code": "https://pse.kominfo.go.id/storage/images/qr_code/6785d242b0389631fa2f429651c62d33.png",
        "status_id": "TERDAFTAR",
        "sistem_elektronik_id": 1459
      }
    },
    {
      "type": "tdpseTerbit",
      "id": 2036,
      "attributes": {
        "nomor_pb_umku": null,
        "nama": "SMARTAVATAR 2.1",
        "website": "VIRALBLASTGLOBAL.CO.ID",
        "sektor": "Sektor Perdagangan",
        "nama_perusahaan": "TRUST GLOBAL KARYA",
        "tanggal_daftar": "2021-10-26",
        "nomor_tanda_daftar": "001310.02/DJAI.PSE/10/2021",
        "qr_code": "https://pse.kominfo.go.id/storage/images/qr_code/abe3e6f1773adbc1c64fc9275bf85711.png",
        "status_id": "TERDAFTAR",
        "sistem_elektronik_id": 1432
      }
    },
    {
      "type": "tdpseTerbit",
      "id": 1958,
      "attributes": {
        "nomor_pb_umku": null,
        "nama": "HTTPS://VIRALBLASTGLOBAL.CO.ID",
        "website": "VIRALBLASTGLOBAL.CO.ID",
        "sektor": "Sektor Perdagangan",
        "nama_perusahaan": "TRUST GLOBAL KARYA",
        "tanggal_daftar": "2021-10-04",
        "nomor_tanda_daftar": "001310.01/DJAI.PSE/10/2021",
        "qr_code": "https://pse.kominfo.go.id/storage/images/qr_code/11bda09ac39fc29ad83bcd332f8f1136.png",
        "status_id": "TERDAFTAR",
        "sistem_elektronik_id": 1431
      }
    }
  ]
}