{
  "meta": {
    "page": {
      "currentPage": 817,
      "from": 8161,
      "lastPage": 931,
      "perPage": 10,
      "to": 8170,
      "total": 9301
    }
  },
  "data": [
    {
      "type": "tdpseTerbit",
      "id": 704,
      "attributes": {
        "nomor_pb_umku": null,
        "nama": "CARDS",
        "website": "https://cards.co.id",
        "sektor": "Sektor Perdagangan",
        "nama_perusahaan": "CAZH TEKNOLOGI INOVASI",
        "tanggal_daftar": "2021-04-26",
        "nomor_tanda_daftar": "000570.01/DJAI.PSE/04/2021",
        "qr_code": "https://pse.kominfo.go.id/storage/images/qr_code/dd2181e1d6447836578d178655c36f79.png",
        "status_id": "TERDAFTAR",
        "sistem_elektronik_id": 500
      }
    },
    {
      "type": "tdpseTerbit",
      "id": 703,
      "attributes": {
        "nomor_pb_umku": null,
        "nama": "INDOGOLD",
        "website": "www.indogold.id",
        "sektor": "Sektor Perdagangan",
        "nama_perusahaan": "INDOGOLD SOLUSI GADAI",
        "tanggal_daftar": "2021-04-26",
        "nomor_tanda_daftar": "000569.01/DJAI.PSE/04/2021",
        "qr_code": "https://pse.kominfo.go.id/storage/images/qr_code/8eb956ad4c08599f2b91e2c6f349a454.png",
        "status_id": "TERDAFTAR",
        "sistem_elektronik_id": 484
      }
    },
    {
      "type": "tdpseTerbit",
      "id": 1272,
      "attributes": {
        "nomor_pb_umku": null,
        "nama": "AKINA",
        "website": "www.akina.id",
        "sektor": "Sektor Perdagangan",
        "nama_perusahaan": "INDO CIPTA BANGSA",
        "tanggal_daftar": "2021-06-02",
        "nomor_tanda_daftar": "000568.02/DJAI.PSE/06/2021",
        "qr_code": "https://pse.kominfo.go.id/storage/images/qr_code/1bb13709a92b7eae408c84d78a9a84a0.png",
        "status_id": "TERDAFTAR",
        "sistem_elektronik_id": 468
      }
    },
    {
      "type": "tdpseTerbit",
      "id": 702,
      "attributes": {
        "nomor_pb_umku": null,
        "nama": "inChanger",
        "website": "www.inchanger.com",
        "sektor": "Sektor Teknologi Informasi dan Komunikasi",
        "nama_perusahaan": "INDO CIPTA BANGSA",
        "tanggal_daftar": "2021-04-26",
        "nomor_tanda_daftar": "000568.01/DJAI.PSE/04/2021",
        "qr_code": "https://pse.kominfo.go.id/storage/images/qr_code/26db9e18527d9f8a5cd06b0ccab0cd02.png",
        "status_id": "TERDAFTAR",
        "sistem_elektronik_id": 467
      }
    },
    {
      "type": "tdpseTerbit",
      "id": 701,
      "attributes": {
        "nomor_pb_umku": null,
        "nama": "SUPERMAMA",
        "website": "www.supermama.id",
        "sektor": "Sektor Perdagangan",
        "nama_perusahaan": "SUPERMAMA KARYA INDONESIA",
        "tanggal_daftar": "2021-04-26",
        "nomor_tanda_daftar": "000567.01/DJAI.PSE/04/2021",
        "qr_code": "https://pse.kominfo.go.id/storage/images/qr_code/df6d7593088d3293dd302214ff80faff.png",
        "status_id": "TERDAFTAR",
        "sistem_elektronik_id": 380
      }
    },
    {
      "type": "tdpseTerbit",
      "id": 699,
      "attributes": {
        "nomor_pb_umku": null,
        "nama": "Eloza",
        "website": "https://eloza.com",
        "sektor": "Sektor Perdagangan, Sektor Teknologi Informasi dan Komunikasi",
        "nama_perusahaan": "EXRUSH DIGITAL NUSANTARA",
        "tanggal_daftar": "2021-04-26",
        "nomor_tanda_daftar": "000566.01/DJAI.PSE/04/2021",
        "qr_code": "https://pse.kominfo.go.id/storage/images/qr_code/4cdfdb8ae353ffce68ca672203ed0054.png",
        "status_id": "TERDAFTAR",
        "sistem_elektronik_id": 498
      }
    },
    {
      "type": "tdpseTerbit",
      "id": 6099,
      "attributes": {
        "nomor_pb_umku": "912031209082500010001",
        "nama": "PINJAMYUK",
        "website": "pinjamyuk.co.id",
        "sektor": "Sektor Keuangan, Sektor Teknologi Informasi dan Komunikasi",
        "nama_perusahaan": "KUAIKUAI TECH INDONESIA",
        "tanggal_daftar": "2022-07-18",
        "nomor_tanda_daftar": "000565.02/DJAI.PSE/07/2022",
        "qr_code": "https://pse.kominfo.go.id/storage/images/qr_code/449c33af57e3a387fae6fbc942a8d518.png",
        "status_id": "TERDAFTAR",
        "sistem_elektronik_id": 5210
      }
    },
    {
      "type": "tdpseTerbit",
      "id": 696,
      "attributes": {
        "nomor_pb_umku": null,
        "nama": "Pinjam Yuk",
        "website": "www.pinjamyuk.co.id",
        "sektor": "Sektor Keuangan, Sektor Teknologi Informasi dan Komunikasi",
        "nama_perusahaan": "KUAIKUAI TECH INDONESIA",
        "tanggal_daftar": "2021-04-26",
        "nomor_tanda_daftar": "000565.01/DJAI.PSE/04/2021",
        "qr_code": "https://pse.kominfo.go.id/storage/images/qr_code/db5a8cb7abc3c4260a34349d7e1b3945.png",
        "status_id": "TERDAFTAR",
        "sistem_elektronik_id": 2388
      }
    },
    {
      "type": "tdpseTerbit",
      "id": 694,
      "attributes": {
        "nomor_pb_umku": null,
        "nama": "SANG FAJAR",
        "website": "https://sangfajar.com/",
        "sektor": "Sektor Transportasi",
        "nama_perusahaan": "PUNGGAWA NUSANTARA ABADI",
        "tanggal_daftar": "2021-04-26",
        "nomor_tanda_daftar": "000564.01/DJAI.PSE/04/2021",
        "qr_code": "https://pse.kominfo.go.id/storage/images/qr_code/1625cc9616a595f075538fd977283e08.png",
        "status_id": "TERDAFTAR",
        "sistem_elektronik_id": 492
      }
    },
    {
      "type": "tdpseTerbit",
      "id": 2004,
      "attributes": {
        "nomor_pb_umku": null,
        "nama": "BP App",
        "website": "-",
        "sektor": "Sektor Keuangan, Sektor Teknologi Informasi dan Komunikasi",
        "nama_perusahaan": "AMARTHA MIKRO FINTEK",
        "tanggal_daftar": "2021-10-26",
        "nomor_tanda_daftar": "000563.06/DJAI.PSE/10/2021",
        "qr_code": "https://pse.kominfo.go.id/storage/images/qr_code/684fc1c7304977840831b4113632e13f.png",
        "status_id": "TERDAFTAR",
        "sistem_elektronik_id": 481
      }
    }
  ]
}