{
  "meta": {
    "page": {
      "currentPage": 818,
      "from": 8171,
      "lastPage": 1068,
      "perPage": 10,
      "to": 8180,
      "total": 10675
    }
  },
  "data": [
    {
      "type": "tdpseTerbit",
      "id": 1927,
      "attributes": {
        "nomor_pb_umku": null,
        "nama": "Digigarda",
        "website": "https://digigarda.id",
        "sektor": "Sektor Perdagangan",
        "nama_perusahaan": "DIGIGARDA SOLUSI ASIA",
        "tanggal_daftar": "2021-09-29",
        "nomor_tanda_daftar": "001284.01/DJAI.PSE/09/2021",
        "qr_code": "https://pse.kominfo.go.id/storage/images/qr_code/ca962a17ff7384f521db0f024b0f2ce4.png",
        "status_id": "TERDAFTAR",
        "sistem_elektronik_id": 1410
      }
    },
    {
      "type": "tdpseTerbit",
      "id": 1926,
      "attributes": {
        "nomor_pb_umku": null,
        "nama": "Pinjam Gampang",
        "website": "www.kreditplusteknologi.id",
        "sektor": "Sektor Teknologi Informasi dan Komunikasi",
        "nama_perusahaan": "KREDIT PLUS TEKNOLOGI",
        "tanggal_daftar": "2021-09-29",
        "nomor_tanda_daftar": "001283.01/DJAI.PSE/09/2021",
        "qr_code": "https://pse.kominfo.go.id/storage/images/qr_code/d93c1215cb71ce907af113ce07b97d7c.png",
        "status_id": "TERDAFTAR",
        "sistem_elektronik_id": 1413
      }
    },
    {
      "type": "tdpseTerbit",
      "id": 1925,
      "attributes": {
        "nomor_pb_umku": null,
        "nama": "Pharmanet",
        "website": "-",
        "sektor": "Sektor Perdagangan",
        "nama_perusahaan": "CENTURY FRANCHISINDO UTAMA",
        "tanggal_daftar": "2021-09-29",
        "nomor_tanda_daftar": "001282.01/DJAI.PSE/09/2021",
        "qr_code": "https://pse.kominfo.go.id/storage/images/qr_code/f9ae3fa3538c852cd880b50e6e70b5a2.png",
        "status_id": "TERDAFTAR",
        "sistem_elektronik_id": 150
      }
    },
    {
      "type": "tdpseTerbit",
      "id": 1924,
      "attributes": {
        "nomor_pb_umku": null,
        "nama": "Century",
        "website": "-",
        "sektor": "Sektor Perdagangan",
        "nama_perusahaan": "PERINTIS PELAYANAN PARIPURNA",
        "tanggal_daftar": "2021-09-29",
        "nomor_tanda_daftar": "001281.01/DJAI.PSE/09/2021",
        "qr_code": "https://pse.kominfo.go.id/storage/images/qr_code/4eb39e4efe666e1c16a95557ebedd742.png",
        "status_id": "TERDAFTAR",
        "sistem_elektronik_id": 2638
      }
    },
    {
      "type": "tdpseTerbit",
      "id": 1923,
      "attributes": {
        "nomor_pb_umku": null,
        "nama": "Active Barn Go",
        "website": "www.activebarn.com",
        "sektor": "Sektor Perdagangan, Sektor Teknologi Informasi dan Komunikasi",
        "nama_perusahaan": "AKTIF BUGAR INDONESIA",
        "tanggal_daftar": "2021-09-29",
        "nomor_tanda_daftar": "001280.01/DJAI.PSE/09/2021",
        "qr_code": "https://pse.kominfo.go.id/storage/images/qr_code/b5888141a2821d1c9c3b3ba9b0f322a9.png",
        "status_id": "TERDAFTAR",
        "sistem_elektronik_id": 1211
      }
    },
    {
      "type": "tdpseTerbit",
      "id": 1922,
      "attributes": {
        "nomor_pb_umku": null,
        "nama": "YOURPAY",
        "website": "https://yourpay.co/",
        "sektor": "Sektor Teknologi Informasi dan Komunikasi",
        "nama_perusahaan": "RPAY FINANSIAL DIGITAL INDONESIA",
        "tanggal_daftar": "2021-09-29",
        "nomor_tanda_daftar": "001279.01/DJAI.PSE/09/2021",
        "qr_code": "https://pse.kominfo.go.id/storage/images/qr_code/cb664cfe44143caaa568fc801429d79c.png",
        "status_id": "TERDAFTAR",
        "sistem_elektronik_id": 989
      }
    },
    {
      "type": "tdpseTerbit",
      "id": 1921,
      "attributes": {
        "nomor_pb_umku": null,
        "nama": "ISONET.ID (Indonesia Social Net)",
        "website": "www.isonet.id",
        "sektor": "Sektor Teknologi Informasi dan Komunikasi",
        "nama_perusahaan": "INDONESIA SOSIAL NET",
        "tanggal_daftar": "2021-09-29",
        "nomor_tanda_daftar": "001278.01/DJAI.PSE/09/2021",
        "qr_code": "https://pse.kominfo.go.id/storage/images/qr_code/c7fc5250ed6b6fa5dcf0ae09b97c0c92.png",
        "status_id": "TERDAFTAR",
        "sistem_elektronik_id": 1308
      }
    },
    {
      "type": "tdpseTerbit",
      "id": 1920,
      "attributes": {
        "nomor_pb_umku": null,
        "nama": "Spakat.ID",
        "website": "https://spakat.id",
        "sektor": "Sektor Perdagangan",
        "nama_perusahaan": "SEPAKAT TEKNOLOGI NUSANTARA",
        "tanggal_daftar": "2021-09-29",
        "nomor_tanda_daftar": "001277.01/DJAI.PSE/09/2021",
        "qr_code": "https://pse.kominfo.go.id/storage/images/qr_code/ffc7ae332d2a6fc1d9ddcbfddbfdd6f8.png",
        "status_id": "TERDAFTAR",
        "sistem_elektronik_id": 1412
      }
    },
    {
      "type": "tdpseTerbit",
      "id": 11825,
      "attributes": {
        "nomor_pb_umku": "812010584298900000029",
        "nama": "LEXUS REACH MOBILE APP",
        "website": "cms.lexus.co.id",
        "sektor": "Sektor Perdagangan, Sektor Transportasi, Sektor Teknologi Informasi dan Komunikasi",
        "nama_perusahaan": "TOYOTA-ASTRA MOTOR",
        "tanggal_daftar": "2022-10-17",
        "nomor_tanda_daftar": "001276.08/DJAI.PSE/10/2022",
        "qr_code": "https://pse.kominfo.go.id/storage/images/qr_code/2fa1a926cf3131c5111e999058252bfb.png",
        "status_id": "TERDAFTAR",
        "sistem_elektronik_id": 11627
      }
    },
    {
      "type": "tdpseTerbit",
      "id": 11824,
      "attributes": {
        "nomor_pb_umku": "812010584298900000028",
        "nama": "WEBSITE LEXUS INDONESIA: LEXUS.CO.ID",
        "website": "lexus.co.id",
        "sektor": "Sektor Perdagangan, Sektor Teknologi Informasi dan Komunikasi",
        "nama_perusahaan": "TOYOTA-ASTRA MOTOR",
        "tanggal_daftar": "2022-10-17",
        "nomor_tanda_daftar": "001276.07/DJAI.PSE/10/2022",
        "qr_code": "https://pse.kominfo.go.id/storage/images/qr_code/10b87eea908916b4abe83e10aa99a1b2.png",
        "status_id": "TERDAFTAR",
        "sistem_elektronik_id": 11626
      }
    }
  ]
}