{
  "meta": {
    "page": {
      "currentPage": 820,
      "from": 8191,
      "lastPage": 931,
      "perPage": 10,
      "to": 8200,
      "total": 9301
    }
  },
  "data": [
    {
      "type": "tdpseTerbit",
      "id": 680,
      "attributes": {
        "nomor_pb_umku": null,
        "nama": "BIZONE",
        "website": "bizone.co.id",
        "sektor": "Sektor Perdagangan",
        "nama_perusahaan": "SANDIARTA SUKSES",
        "tanggal_daftar": "2021-04-26",
        "nomor_tanda_daftar": "000550.01/DJAI.PSE/04/2021",
        "qr_code": "https://pse.kominfo.go.id/storage/images/qr_code/101e7e7eb0cf5008a66afdfd898377db.png",
        "status_id": "TERDAFTAR",
        "sistem_elektronik_id": 2329
      }
    },
    {
      "type": "tdpseTerbit",
      "id": 678,
      "attributes": {
        "nomor_pb_umku": null,
        "nama": "jaalifestyle",
        "website": "https://jaalifestyle.com",
        "sektor": "Sektor Teknologi Informasi dan Komunikasi",
        "nama_perusahaan": "JAA LIFESTYLE INDONESIA",
        "tanggal_daftar": "2021-04-26",
        "nomor_tanda_daftar": "000549.01/DJAI.PSE/04/2021",
        "qr_code": "https://pse.kominfo.go.id/storage/images/qr_code/7763ed0f54014521e4d83b5a52185b27.png",
        "status_id": "TERDAFTAR",
        "sistem_elektronik_id": 2676
      }
    },
    {
      "type": "tdpseTerbit",
      "id": 677,
      "attributes": {
        "nomor_pb_umku": null,
        "nama": "AKULAKU",
        "website": "www.akulaku.com",
        "sektor": "Sektor Perdagangan, Sektor Teknologi Informasi dan Komunikasi",
        "nama_perusahaan": "AKULAKU SILVRR INDONESIA",
        "tanggal_daftar": "2021-04-26",
        "nomor_tanda_daftar": "000548.01/DJAI.PSE/04/2021",
        "qr_code": "https://pse.kominfo.go.id/storage/images/qr_code/244564ec74edcbdd1ee3ad41b36b0163.png",
        "status_id": "TERDAFTAR",
        "sistem_elektronik_id": 458
      }
    },
    {
      "type": "tdpseTerbit",
      "id": 676,
      "attributes": {
        "nomor_pb_umku": null,
        "nama": "Glints Indonesia",
        "website": "https://glints.com/id",
        "sektor": "Sektor Teknologi Informasi dan Komunikasi",
        "nama_perusahaan": "GLINTS INDONESIA GROUP",
        "tanggal_daftar": "2021-04-26",
        "nomor_tanda_daftar": "000547.01/DJAI.PSE/04/2021",
        "qr_code": "https://pse.kominfo.go.id/storage/images/qr_code/448c0bf306afd9c70b45b7d931e048a1.png",
        "status_id": "TERDAFTAR",
        "sistem_elektronik_id": 482
      }
    },
    {
      "type": "tdpseTerbit",
      "id": 1387,
      "attributes": {
        "nomor_pb_umku": null,
        "nama": "Chat Bot Melisha",
        "website": "www.mpmhondajatim.com",
        "sektor": "Sektor Teknologi Informasi dan Komunikasi",
        "nama_perusahaan": "MITRA PINASTHIKA MULIA",
        "tanggal_daftar": "2021-06-02",
        "nomor_tanda_daftar": "000546.04/DJAI.PSE/06/2021",
        "qr_code": "https://pse.kominfo.go.id/storage/images/qr_code/2bd5db07995bc6911163e010a6f5ec1e.png",
        "status_id": "TERDAFTAR",
        "sistem_elektronik_id": 3687
      }
    },
    {
      "type": "tdpseTerbit",
      "id": 1386,
      "attributes": {
        "nomor_pb_umku": null,
        "nama": "Brompit",
        "website": "-",
        "sektor": "Sektor Teknologi Informasi dan Komunikasi",
        "nama_perusahaan": "MITRA PINASTHIKA MULIA",
        "tanggal_daftar": "2021-06-02",
        "nomor_tanda_daftar": "000546.03/DJAI.PSE/06/2021",
        "qr_code": "https://pse.kominfo.go.id/storage/images/qr_code/af751e473eef3e8d11483184e262f064.png",
        "status_id": "TERDAFTAR",
        "sistem_elektronik_id": 3686
      }
    },
    {
      "type": "tdpseTerbit",
      "id": 679,
      "attributes": {
        "nomor_pb_umku": null,
        "nama": "Melisha",
        "website": "www.mpmhondajatim.com",
        "sektor": "Sektor Teknologi Informasi dan Komunikasi",
        "nama_perusahaan": "MITRA PINASTHIKA MULIA",
        "tanggal_daftar": "2021-04-26",
        "nomor_tanda_daftar": "000546.02/DJAI.PSE/04/2021",
        "qr_code": "https://pse.kominfo.go.id/storage/images/qr_code/7365be4f6fdd79f1a07d607e3186831c.png",
        "status_id": "TERDAFTAR",
        "sistem_elektronik_id": 3685
      }
    },
    {
      "type": "tdpseTerbit",
      "id": 675,
      "attributes": {
        "nomor_pb_umku": null,
        "nama": "Brompit",
        "website": "www.mpmhondajatim.com",
        "sektor": "Sektor Teknologi Informasi dan Komunikasi",
        "nama_perusahaan": "MITRA PINASTHIKA MULIA",
        "tanggal_daftar": "2021-04-26",
        "nomor_tanda_daftar": "000546.01/DJAI.PSE/04/2021",
        "qr_code": "https://pse.kominfo.go.id/storage/images/qr_code/9f6793dd276e83a1d9907484b018bdf1.png",
        "status_id": "TERDAFTAR",
        "sistem_elektronik_id": 3684
      }
    },
    {
      "type": "tdpseTerbit",
      "id": 674,
      "attributes": {
        "nomor_pb_umku": null,
        "nama": "INTERSKILL",
        "website": "www.interskill.id",
        "sektor": "Sektor Perdagangan, Sektor Teknologi Informasi dan Komunikasi",
        "nama_perusahaan": "INTERSKILL EDUKASI DIGITAL",
        "tanggal_daftar": "2021-04-26",
        "nomor_tanda_daftar": "000545.01/DJAI.PSE/04/2021",
        "qr_code": "https://pse.kominfo.go.id/storage/images/qr_code/17ba4b2c275bac2c80e1512a69fbae91.png",
        "status_id": "TERDAFTAR",
        "sistem_elektronik_id": 397
      }
    },
    {
      "type": "tdpseTerbit",
      "id": 673,
      "attributes": {
        "nomor_pb_umku": null,
        "nama": "www.sunfm.co.id",
        "website": "www.sunfm.co.id",
        "sektor": "Sektor Teknologi Informasi dan Komunikasi",
        "nama_perusahaan": "RADIO ALLINA PERDANA MEDIA",
        "tanggal_daftar": "2021-04-26",
        "nomor_tanda_daftar": "000544.01/DJAI.PSE/04/2021",
        "qr_code": "https://pse.kominfo.go.id/storage/images/qr_code/6db713b933a52ef354652f3c44155201.png",
        "status_id": "TERDAFTAR",
        "sistem_elektronik_id": 3281
      }
    }
  ]
}