{
  "meta": {
    "page": {
      "currentPage": 821,
      "from": 8201,
      "lastPage": 1040,
      "perPage": 10,
      "to": 8210,
      "total": 10398
    }
  },
  "data": [
    {
      "type": "tdpseTerbit",
      "id": 1677,
      "attributes": {
        "nomor_pb_umku": null,
        "nama": "Depository",
        "website": "https://depository.id",
        "sektor": "Sektor Keuangan",
        "nama_perusahaan": "TENNET DEPOSITORY INDONESIA",
        "tanggal_daftar": "2021-07-08",
        "nomor_tanda_daftar": "001101.01/DJAI.PSE/07/2021",
        "qr_code": "https://pse.kominfo.go.id/storage/images/qr_code/6b3f56f644c25004a8387c6e27886171.png",
        "status_id": "TERDAFTAR",
        "sistem_elektronik_id": 1237
      }
    },
    {
      "type": "tdpseTerbit",
      "id": 1675,
      "attributes": {
        "nomor_pb_umku": null,
        "nama": "broom.id",
        "website": "https://www.broom.id",
        "sektor": "Sektor Keuangan, Sektor Teknologi Informasi dan Komunikasi",
        "nama_perusahaan": "TEKNOLOGI USAHA NUSANTARA",
        "tanggal_daftar": "2021-07-08",
        "nomor_tanda_daftar": "001100.01/DJAI.PSE/07/2021",
        "qr_code": "https://pse.kominfo.go.id/storage/images/qr_code/077ce9e1f05542a0ebde72919be7b798.png",
        "status_id": "TERDAFTAR",
        "sistem_elektronik_id": 1224
      }
    },
    {
      "type": "tdpseTerbit",
      "id": 1674,
      "attributes": {
        "nomor_pb_umku": null,
        "nama": "Autentika Digital Solutions",
        "website": "www.autentika.id",
        "sektor": "Sektor Teknologi Informasi dan Komunikasi",
        "nama_perusahaan": "AUTENTIKA DIGITAL INDONESIA",
        "tanggal_daftar": "2021-07-08",
        "nomor_tanda_daftar": "001099.01/DJAI.PSE/07/2021",
        "qr_code": "https://pse.kominfo.go.id/storage/images/qr_code/dba32e849a124e667cd5751bf3c4de0b.png",
        "status_id": "TERDAFTAR",
        "sistem_elektronik_id": 1213
      }
    },
    {
      "type": "tdpseTerbit",
      "id": 1672,
      "attributes": {
        "nomor_pb_umku": null,
        "nama": "Zaapko.com",
        "website": "https://zaapko.com/",
        "sektor": "Sektor Perdagangan",
        "nama_perusahaan": "PASAR RAMAH BISNIS",
        "tanggal_daftar": "2021-07-08",
        "nomor_tanda_daftar": "001098.01/DJAI.PSE/07/2021",
        "qr_code": "https://pse.kominfo.go.id/storage/images/qr_code/c0566b5bf5da390b22a4563a1b056e20.png",
        "status_id": "TERDAFTAR",
        "sistem_elektronik_id": 609
      }
    },
    {
      "type": "tdpseTerbit",
      "id": 1670,
      "attributes": {
        "nomor_pb_umku": null,
        "nama": "daruma",
        "website": "www.daruma.co.id",
        "sektor": "Sektor Kesehatan, Sektor Perdagangan",
        "nama_perusahaan": "DARUMA ADIRA PRATAMA",
        "tanggal_daftar": "2021-07-08",
        "nomor_tanda_daftar": "001097.01/DJAI.PSE/07/2021",
        "qr_code": "https://pse.kominfo.go.id/storage/images/qr_code/e50a81dee1aeb2189fb01c1e64ab829e.png",
        "status_id": "TERDAFTAR",
        "sistem_elektronik_id": 1185
      }
    },
    {
      "type": "tdpseTerbit",
      "id": 1669,
      "attributes": {
        "nomor_pb_umku": null,
        "nama": "Mangoesky",
        "website": "www.mangoesky.com",
        "sektor": "Sektor Perdagangan, Sektor Teknologi Informasi dan Komunikasi",
        "nama_perusahaan": "TELKOM SATELIT INDONESIA",
        "tanggal_daftar": "2021-07-08",
        "nomor_tanda_daftar": "001096.02/DJAI.PSE/07/2021",
        "qr_code": "https://pse.kominfo.go.id/storage/images/qr_code/fe3c00e44ae57cd72d1345af62a3d696.png",
        "status_id": "TERDAFTAR",
        "sistem_elektronik_id": 356
      }
    },
    {
      "type": "tdpseTerbit",
      "id": 1668,
      "attributes": {
        "nomor_pb_umku": null,
        "nama": "Mangoesky",
        "website": "www.mangoesky.com",
        "sektor": "Sektor Perdagangan, Sektor Teknologi Informasi dan Komunikasi",
        "nama_perusahaan": "TELKOM SATELIT INDONESIA",
        "tanggal_daftar": "2021-07-08",
        "nomor_tanda_daftar": "001096.01/DJAI.PSE/07/2021",
        "qr_code": "https://pse.kominfo.go.id/storage/images/qr_code/2996c9071a33c07bef626d05fb817731.png",
        "status_id": "TERDAFTAR",
        "sistem_elektronik_id": 355
      }
    },
    {
      "type": "tdpseTerbit",
      "id": 1667,
      "attributes": {
        "nomor_pb_umku": null,
        "nama": "WorkFit",
        "website": "http://claim.fit",
        "sektor": "Sektor Kesehatan, Sektor Teknologi Informasi dan Komunikasi",
        "nama_perusahaan": "SEHAT SEMAR SAKTI",
        "tanggal_daftar": "2021-07-08",
        "nomor_tanda_daftar": "001095.01/DJAI.PSE/07/2021",
        "qr_code": "https://pse.kominfo.go.id/storage/images/qr_code/33de6cedc422f224a060a364dd86637b.png",
        "status_id": "TERDAFTAR",
        "sistem_elektronik_id": 1016
      }
    },
    {
      "type": "tdpseTerbit",
      "id": 1665,
      "attributes": {
        "nomor_pb_umku": null,
        "nama": "Rey",
        "website": "https://rey.id",
        "sektor": "Sektor Kesehatan, Sektor Keuangan, Sektor Teknologi Informasi dan Komunikasi",
        "nama_perusahaan": "VERTIKA TECHNOLOGIES NUSANTARA",
        "tanggal_daftar": "2021-07-08",
        "nomor_tanda_daftar": "001094.01/DJAI.PSE/07/2021",
        "qr_code": "https://pse.kominfo.go.id/storage/images/qr_code/e098d399ed278f17639efbd28551854e.png",
        "status_id": "TERDAFTAR",
        "sistem_elektronik_id": 1223
      }
    },
    {
      "type": "tdpseTerbit",
      "id": 1663,
      "attributes": {
        "nomor_pb_umku": null,
        "nama": "ksptesa",
        "website": "www.ksptesa.id",
        "sektor": "Sektor Perdagangan",
        "nama_perusahaan": "SIMPAN PINJAM TEKNOLOGI SEJAHTERA BERSAMA",
        "tanggal_daftar": "2021-07-08",
        "nomor_tanda_daftar": "001093.01/DJAI.PSE/07/2021",
        "qr_code": "https://pse.kominfo.go.id/storage/images/qr_code/1b40171acf7aab0374b169be0b42cb9d.png",
        "status_id": "TERDAFTAR",
        "sistem_elektronik_id": 1227
      }
    }
  ]
}