{
  "meta": {
    "page": {
      "currentPage": 822,
      "from": 8211,
      "lastPage": 1059,
      "perPage": 10,
      "to": 8220,
      "total": 10586
    }
  },
  "data": [
    {
      "type": "tdpseTerbit",
      "id": 1898,
      "attributes": {
        "nomor_pb_umku": null,
        "nama": "3i-Networks",
        "website": "https://3i-networks.com",
        "sektor": "Sektor Kesehatan",
        "nama_perusahaan": "ASURANSI JIWA CENTRAL ASIA RAYA",
        "tanggal_daftar": "2021-09-28",
        "nomor_tanda_daftar": "001212.06/DJAI.PSE/09/2021",
        "qr_code": "https://pse.kominfo.go.id/storage/images/qr_code/ea397595f4dc4682bb2bb7ba20f53d93.png",
        "status_id": "TERDAFTAR",
        "sistem_elektronik_id": 1368
      }
    },
    {
      "type": "tdpseTerbit",
      "id": 1897,
      "attributes": {
        "nomor_pb_umku": null,
        "nama": "SPAJ",
        "website": "-",
        "sektor": "Sektor Kesehatan",
        "nama_perusahaan": "ASURANSI JIWA CENTRAL ASIA RAYA",
        "tanggal_daftar": "2021-09-28",
        "nomor_tanda_daftar": "001212.05/DJAI.PSE/09/2021",
        "qr_code": "https://pse.kominfo.go.id/storage/images/qr_code/056930ea275167b5fdeda0b31fb72dbf.png",
        "status_id": "TERDAFTAR",
        "sistem_elektronik_id": 1367
      }
    },
    {
      "type": "tdpseTerbit",
      "id": 1896,
      "attributes": {
        "nomor_pb_umku": null,
        "nama": "Mobiss",
        "website": "-",
        "sektor": "Sektor Kesehatan",
        "nama_perusahaan": "ASURANSI JIWA CENTRAL ASIA RAYA",
        "tanggal_daftar": "2021-09-28",
        "nomor_tanda_daftar": "001212.04/DJAI.PSE/09/2021",
        "qr_code": "https://pse.kominfo.go.id/storage/images/qr_code/5abfcb79dc1da9174eed413291d6e028.png",
        "status_id": "TERDAFTAR",
        "sistem_elektronik_id": 1366
      }
    },
    {
      "type": "tdpseTerbit",
      "id": 1895,
      "attributes": {
        "nomor_pb_umku": null,
        "nama": "e-Benefit",
        "website": "-",
        "sektor": "Sektor Kesehatan",
        "nama_perusahaan": "ASURANSI JIWA CENTRAL ASIA RAYA",
        "tanggal_daftar": "2021-09-28",
        "nomor_tanda_daftar": "001212.03/DJAI.PSE/09/2021",
        "qr_code": "https://pse.kominfo.go.id/storage/images/qr_code/455f0a56bcdc0d766b0026976dc1600c.png",
        "status_id": "TERDAFTAR",
        "sistem_elektronik_id": 1365
      }
    },
    {
      "type": "tdpseTerbit",
      "id": 1831,
      "attributes": {
        "nomor_pb_umku": null,
        "nama": "i-CARe",
        "website": "https://icare.car.co.id/",
        "sektor": "Sektor Keuangan",
        "nama_perusahaan": "ASURANSI JIWA CENTRAL ASIA RAYA",
        "tanggal_daftar": "2021-08-03",
        "nomor_tanda_daftar": "001212.02/DJAI.PSE/08/2021",
        "qr_code": "https://pse.kominfo.go.id/storage/images/qr_code/64c8e2bc917a16b45b95fb4680334200.png",
        "status_id": "TERDAFTAR",
        "sistem_elektronik_id": 1364
      }
    },
    {
      "type": "tdpseTerbit",
      "id": 1815,
      "attributes": {
        "nomor_pb_umku": null,
        "nama": "CAR",
        "website": "https://www.car.co.id/",
        "sektor": "Sektor Keuangan",
        "nama_perusahaan": "ASURANSI JIWA CENTRAL ASIA RAYA",
        "tanggal_daftar": "2021-07-29",
        "nomor_tanda_daftar": "001212.01/DJAI.PSE/07/2021",
        "qr_code": "https://pse.kominfo.go.id/storage/images/qr_code/51930c8db5fd1c07d0abec335acc487e.png",
        "status_id": "TERDAFTAR",
        "sistem_elektronik_id": 1363
      }
    },
    {
      "type": "tdpseTerbit",
      "id": 2949,
      "attributes": {
        "nomor_pb_umku": null,
        "nama": "Provenos",
        "website": "www.provenos.co.id",
        "sektor": "Sektor Teknologi Informasi dan Komunikasi",
        "nama_perusahaan": "JARINGAN VNT INDONESIA",
        "tanggal_daftar": "2022-01-04",
        "nomor_tanda_daftar": "001211.03/DJAI.PSE/01/2022",
        "qr_code": "https://pse.kominfo.go.id/storage/images/qr_code/77338a82bd18390e4e671e37ccf9cfa0.png",
        "status_id": "TERDAFTAR",
        "sistem_elektronik_id": 3473
      }
    },
    {
      "type": "tdpseTerbit",
      "id": 1814,
      "attributes": {
        "nomor_pb_umku": null,
        "nama": "GIGA TV",
        "website": "www.gigafiber.net.id",
        "sektor": "Sektor Teknologi Informasi dan Komunikasi",
        "nama_perusahaan": "JARINGAN VNT INDONESIA",
        "tanggal_daftar": "2021-07-29",
        "nomor_tanda_daftar": "001211.02/DJAI.PSE/07/2021",
        "qr_code": "https://pse.kominfo.go.id/storage/images/qr_code/8b1818ad119eb0b63fa38958e6f70234.png",
        "status_id": "TERDAFTAR",
        "sistem_elektronik_id": 3472
      }
    },
    {
      "type": "tdpseTerbit",
      "id": 1812,
      "attributes": {
        "nomor_pb_umku": null,
        "nama": "Nomaden TV",
        "website": "www.nomaden.co.id",
        "sektor": "Sektor Teknologi Informasi dan Komunikasi",
        "nama_perusahaan": "JARINGAN VNT INDONESIA",
        "tanggal_daftar": "2021-07-29",
        "nomor_tanda_daftar": "001211.01/DJAI.PSE/07/2021",
        "qr_code": "https://pse.kominfo.go.id/storage/images/qr_code/a9bc73886dfeb04349e3e2c8b4ad6ece.png",
        "status_id": "TERDAFTAR",
        "sistem_elektronik_id": 3471
      }
    },
    {
      "type": "tdpseTerbit",
      "id": 1811,
      "attributes": {
        "nomor_pb_umku": null,
        "nama": "Udahlunas",
        "website": "www.udahlunas.com",
        "sektor": "Sektor Perdagangan",
        "nama_perusahaan": "PELANGI TERANG INDAH",
        "tanggal_daftar": "2021-07-29",
        "nomor_tanda_daftar": "001210.01/DJAI.PSE/07/2021",
        "qr_code": "https://pse.kominfo.go.id/storage/images/qr_code/f2af2e066773c85a491626aad97967a8.png",
        "status_id": "TERDAFTAR",
        "sistem_elektronik_id": 1385
      }
    }
  ]
}