{
  "meta": {
    "page": {
      "currentPage": 823,
      "from": 8221,
      "lastPage": 939,
      "perPage": 10,
      "to": 8230,
      "total": 9386
    }
  },
  "data": [
    {
      "type": "tdpseTerbit",
      "id": 724,
      "attributes": {
        "nomor_pb_umku": null,
        "nama": "Urunmodal",
        "website": "https://urunmodal.id/",
        "sektor": "Sektor Keuangan",
        "nama_perusahaan": "URUNMODAL DOT COM",
        "tanggal_daftar": "2021-05-07",
        "nomor_tanda_daftar": "000586.01/DJAI.PSE/05/2021",
        "qr_code": "https://pse.kominfo.go.id/storage/images/qr_code/c5567d3f416940d55d7dda88e3082a9e.png",
        "status_id": "TERDAFTAR",
        "sistem_elektronik_id": 437
      }
    },
    {
      "type": "tdpseTerbit",
      "id": 986,
      "attributes": {
        "nomor_pb_umku": null,
        "nama": "OLX Autos Dealer",
        "website": "https://dealer.olxautos.co.id/",
        "sektor": "Sektor Perdagangan",
        "nama_perusahaan": "TOKOBAGUS",
        "tanggal_daftar": "2021-05-17",
        "nomor_tanda_daftar": "000585.02/DJAI.PSE/05/2021",
        "qr_code": "https://pse.kominfo.go.id/storage/images/qr_code/dfddbf657d089a595ae795243623c852.png",
        "status_id": "TERDAFTAR",
        "sistem_elektronik_id": 212
      }
    },
    {
      "type": "tdpseTerbit",
      "id": 723,
      "attributes": {
        "nomor_pb_umku": null,
        "nama": "OLX",
        "website": "olx.co.id",
        "sektor": "Sektor Perdagangan",
        "nama_perusahaan": "TOKOBAGUS",
        "tanggal_daftar": "2021-05-07",
        "nomor_tanda_daftar": "000585.01/DJAI.PSE/05/2021",
        "qr_code": "https://pse.kominfo.go.id/storage/images/qr_code/2e6c3688f239ae15ccc868b7a1f7dc2c.png",
        "status_id": "TERDAFTAR",
        "sistem_elektronik_id": 211
      }
    },
    {
      "type": "tdpseTerbit",
      "id": 722,
      "attributes": {
        "nomor_pb_umku": null,
        "nama": "Web Portal dan Aplikasi Transaksi Digital",
        "website": "https://candi.id/",
        "sektor": "Sektor Perdagangan, Sektor Teknologi Informasi dan Komunikasi",
        "nama_perusahaan": "ARFADIA DIGITAL INDONESIA",
        "tanggal_daftar": "2021-05-07",
        "nomor_tanda_daftar": "000584.01/DJAI.PSE/05/2021",
        "qr_code": "https://pse.kominfo.go.id/storage/images/qr_code/50ae43f0f42474db7fc0e6efeb0b70a0.png",
        "status_id": "TERDAFTAR",
        "sistem_elektronik_id": 349
      }
    },
    {
      "type": "tdpseTerbit",
      "id": 6533,
      "attributes": {
        "nomor_pb_umku": "912010055238400000003",
        "nama": "PORTAL WEB / PLAFTORM DIGITAL",
        "website": "laguku.id",
        "sektor": "Sektor Perdagangan, Sektor Teknologi Informasi dan Komunikasi",
        "nama_perusahaan": "MELON INDONESIA",
        "tanggal_daftar": "2022-07-19",
        "nomor_tanda_daftar": "000583.04/DJAI.PSE/07/2022",
        "qr_code": "https://pse.kominfo.go.id/storage/images/qr_code/4ba86d1650d134e6e7303ba15c8c7960.png",
        "status_id": "TERDAFTAR",
        "sistem_elektronik_id": 6400
      }
    },
    {
      "type": "tdpseTerbit",
      "id": 6529,
      "attributes": {
        "nomor_pb_umku": "912010055238400000002",
        "nama": "PORTAL WEB/PLATOFRM DIGITAL",
        "website": "mainbro.co.id",
        "sektor": "Sektor Teknologi Informasi dan Komunikasi",
        "nama_perusahaan": "MELON INDONESIA",
        "tanggal_daftar": "2022-07-18",
        "nomor_tanda_daftar": "000583.03/DJAI.PSE/07/2022",
        "qr_code": "https://pse.kominfo.go.id/storage/images/qr_code/2d82e0ce69f6c8d04a579e5d93127379.png",
        "status_id": "TERDAFTAR",
        "sistem_elektronik_id": 6396
      }
    },
    {
      "type": "tdpseTerbit",
      "id": 6528,
      "attributes": {
        "nomor_pb_umku": "912010055238400000002",
        "nama": "PORTAL WEB/PLATFORM DIGITAL",
        "website": "imstore.co.id",
        "sektor": "Sektor Perdagangan, Sektor Teknologi Informasi dan Komunikasi",
        "nama_perusahaan": "MELON INDONESIA",
        "tanggal_daftar": "2022-07-18",
        "nomor_tanda_daftar": "000583.02/DJAI.PSE/07/2022",
        "qr_code": "https://pse.kominfo.go.id/storage/images/qr_code/af1e39cb7f68acac796851e51978fa52.png",
        "status_id": "TERDAFTAR",
        "sistem_elektronik_id": 6395
      }
    },
    {
      "type": "tdpseTerbit",
      "id": 721,
      "attributes": {
        "nomor_pb_umku": null,
        "nama": "Portal Web / Platform Digital",
        "website": "www.upoint.id dan www.tiketapasaja.com",
        "sektor": "Sektor Perdagangan, Sektor Teknologi Informasi dan Komunikasi",
        "nama_perusahaan": "MELON INDONESIA",
        "tanggal_daftar": "2021-05-07",
        "nomor_tanda_daftar": "000583.01/DJAI.PSE/05/2021",
        "qr_code": "https://pse.kominfo.go.id/storage/images/qr_code/646131e43892ab3fd5a83ebaee1c73eb.png",
        "status_id": "TERDAFTAR",
        "sistem_elektronik_id": 99
      }
    },
    {
      "type": "tdpseTerbit",
      "id": 720,
      "attributes": {
        "nomor_pb_umku": null,
        "nama": "Umroh.com",
        "website": "https://www.umroh.com/",
        "sektor": "Sektor Teknologi Informasi dan Komunikasi",
        "nama_perusahaan": "AMANAH UMROH HANDAL",
        "tanggal_daftar": "2021-04-26",
        "nomor_tanda_daftar": "000582.01/DJAI.PSE/04/2021",
        "qr_code": "https://pse.kominfo.go.id/storage/images/qr_code/f9dd26c2adf8df31ade52d40132f2061.png",
        "status_id": "TERDAFTAR",
        "sistem_elektronik_id": 357
      }
    },
    {
      "type": "tdpseTerbit",
      "id": 719,
      "attributes": {
        "nomor_pb_umku": null,
        "nama": "Sistem Informasi Manajemen Rumah Sakit (SIMRS) Trisna Medika",
        "website": "-",
        "sektor": "Sektor Kesehatan",
        "nama_perusahaan": "TRISNA YOGA PUTRA",
        "tanggal_daftar": "2021-04-26",
        "nomor_tanda_daftar": "000581.01/DJAI.PSE/04/2021",
        "qr_code": "https://pse.kominfo.go.id/storage/images/qr_code/7bcfde40a2fd6ad8fc24975b80ccc034.png",
        "status_id": "TERDAFTAR",
        "sistem_elektronik_id": 490
      }
    }
  ]
}