{
  "meta": {
    "page": {
      "currentPage": 824,
      "from": 8231,
      "lastPage": 1041,
      "perPage": 10,
      "to": 8240,
      "total": 10407
    }
  },
  "data": [
    {
      "type": "tdpseTerbit",
      "id": 1768,
      "attributes": {
        "nomor_pb_umku": null,
        "nama": "e-belajar",
        "website": "http://e-belajar.id",
        "sektor": "Sektor Perdagangan, Sektor Teknologi Informasi dan Komunikasi",
        "nama_perusahaan": "EBELAJAR SEMESTA RAYA",
        "tanggal_daftar": "2021-07-27",
        "nomor_tanda_daftar": "001087.03/DJAI.PSE/07/2021",
        "qr_code": "https://pse.kominfo.go.id/storage/images/qr_code/4e1763728d7cd37c77f225e3efdf3b5e.png",
        "status_id": "TERDAFTAR",
        "sistem_elektronik_id": 2747
      }
    },
    {
      "type": "tdpseTerbit",
      "id": 1673,
      "attributes": {
        "nomor_pb_umku": null,
        "nama": "TIDESA",
        "website": "tidesa.id",
        "sektor": "Sektor Teknologi Informasi dan Komunikasi",
        "nama_perusahaan": "EBELAJAR SEMESTA RAYA",
        "tanggal_daftar": "2021-07-08",
        "nomor_tanda_daftar": "001087.02/DJAI.PSE/07/2021",
        "qr_code": "https://pse.kominfo.go.id/storage/images/qr_code/0ea128df51bed0b5d751c817206ec68f.png",
        "status_id": "TERDAFTAR",
        "sistem_elektronik_id": 2746
      }
    },
    {
      "type": "tdpseTerbit",
      "id": 1654,
      "attributes": {
        "nomor_pb_umku": null,
        "nama": "E-Belajar",
        "website": "https://e-belajar.id/",
        "sektor": "Sektor Teknologi Informasi dan Komunikasi",
        "nama_perusahaan": "EBELAJAR SEMESTA RAYA",
        "tanggal_daftar": "2021-07-08",
        "nomor_tanda_daftar": "001087.01/DJAI.PSE/07/2021",
        "qr_code": "https://pse.kominfo.go.id/storage/images/qr_code/d6592a82bd7801fe78dfeeefb1b0da6c.png",
        "status_id": "TERDAFTAR",
        "sistem_elektronik_id": 2745
      }
    },
    {
      "type": "tdpseTerbit",
      "id": 1653,
      "attributes": {
        "nomor_pb_umku": null,
        "nama": "halopinjam",
        "website": "https://halopinjam.id/",
        "sektor": "Sektor Keuangan, Sektor Teknologi Informasi dan Komunikasi",
        "nama_perusahaan": "IMORTEK DIGICOM APLIKASI",
        "tanggal_daftar": "2021-07-05",
        "nomor_tanda_daftar": "001086.01/DJAI.PSE/07/2021",
        "qr_code": "https://pse.kominfo.go.id/storage/images/qr_code/46e3b7431795eec3ea27e67090a56a73.png",
        "status_id": "TERDAFTAR",
        "sistem_elektronik_id": 1209
      }
    },
    {
      "type": "tdpseTerbit",
      "id": 1652,
      "attributes": {
        "nomor_pb_umku": null,
        "nama": "Varash",
        "website": "www.saddannusantara.com",
        "sektor": "Sektor Perdagangan",
        "nama_perusahaan": "VARASH SADDAN NUSANTARA",
        "tanggal_daftar": "2021-07-05",
        "nomor_tanda_daftar": "001085.01/DJAI.PSE/07/2021",
        "qr_code": "https://pse.kominfo.go.id/storage/images/qr_code/27e9d8a5e70bb062f64b38b047a9770d.png",
        "status_id": "TERDAFTAR",
        "sistem_elektronik_id": 1225
      }
    },
    {
      "type": "tdpseTerbit",
      "id": 1651,
      "attributes": {
        "nomor_pb_umku": null,
        "nama": "wahyukartu",
        "website": "https://wahyukartu.com/",
        "sektor": "Sektor Teknologi Informasi dan Komunikasi",
        "nama_perusahaan": "WAHYU KARTUMASINDO INTERNATIONAL",
        "tanggal_daftar": "2021-07-05",
        "nomor_tanda_daftar": "001084.01/DJAI.PSE/07/2021",
        "qr_code": "https://pse.kominfo.go.id/storage/images/qr_code/af9182b29a18b6b3a417a049d63baaec.png",
        "status_id": "TERDAFTAR",
        "sistem_elektronik_id": 1171
      }
    },
    {
      "type": "tdpseTerbit",
      "id": 1649,
      "attributes": {
        "nomor_pb_umku": null,
        "nama": "www.prettyhabitscosmetics.com",
        "website": "www.prettyhabitscosmetics.com",
        "sektor": "Sektor Perdagangan, Sektor Teknologi Informasi dan Komunikasi",
        "nama_perusahaan": "BERKAH JAYA ALAMI",
        "tanggal_daftar": "2021-07-05",
        "nomor_tanda_daftar": "001083.01/DJAI.PSE/07/2021",
        "qr_code": "https://pse.kominfo.go.id/storage/images/qr_code/487889d384d1379d947d53c23113016a.png",
        "status_id": "TERDAFTAR",
        "sistem_elektronik_id": 2413
      }
    },
    {
      "type": "tdpseTerbit",
      "id": 1648,
      "attributes": {
        "nomor_pb_umku": null,
        "nama": "casfer.io",
        "website": "https://casfer.io",
        "sektor": "Sektor Keuangan, Sektor Teknologi Informasi dan Komunikasi",
        "nama_perusahaan": "TAMBANG ARTHA WISESA",
        "tanggal_daftar": "2021-07-05",
        "nomor_tanda_daftar": "001082.01/DJAI.PSE/07/2021",
        "qr_code": "https://pse.kominfo.go.id/storage/images/qr_code/8ab74d2ef2e3fc980da122f7a62068a2.png",
        "status_id": "TERDAFTAR",
        "sistem_elektronik_id": 1200
      }
    },
    {
      "type": "tdpseTerbit",
      "id": 8041,
      "attributes": {
        "nomor_pb_umku": "912050081291600020002",
        "nama": "WEBSITE SUPRA SEKURITAS",
        "website": "suprasekuritas.co.id",
        "sektor": "Sektor Keuangan",
        "nama_perusahaan": "SUPRA SEKURITAS INDONESIA",
        "tanggal_daftar": "2022-07-20",
        "nomor_tanda_daftar": "001081.02/DJAI.PSE/07/2022",
        "qr_code": "https://pse.kominfo.go.id/storage/images/qr_code/9b37f2fb2819766d3d515b07e60a9940.png",
        "status_id": "TERDAFTAR",
        "sistem_elektronik_id": 7963
      }
    },
    {
      "type": "tdpseTerbit",
      "id": 1647,
      "attributes": {
        "nomor_pb_umku": null,
        "nama": "SAS Back Office dan SAS Front Office",
        "website": "https://suprasekuritas.co.id",
        "sektor": "Sektor Keuangan",
        "nama_perusahaan": "SUPRA SEKURITAS INDONESIA",
        "tanggal_daftar": "2021-07-05",
        "nomor_tanda_daftar": "001081.01/DJAI.PSE/07/2021",
        "qr_code": "https://pse.kominfo.go.id/storage/images/qr_code/9d17aa5b1f024cacbfd7a12e8498d796.png",
        "status_id": "TERDAFTAR",
        "sistem_elektronik_id": 1197
      }
    }
  ]
}