{
  "meta": {
    "page": {
      "currentPage": 826,
      "from": 8251,
      "lastPage": 926,
      "perPage": 10,
      "to": 8260,
      "total": 9252
    }
  },
  "data": [
    {
      "type": "tdpseTerbit",
      "id": 607,
      "attributes": {
        "nomor_pb_umku": null,
        "nama": "kumparan.com",
        "website": "www.kumparan.com",
        "sektor": "Sektor Teknologi Informasi dan Komunikasi",
        "nama_perusahaan": "DYNAMO MEDIA NETWORK",
        "tanggal_daftar": "2021-04-26",
        "nomor_tanda_daftar": "000496.01/DJAI.PSE/04/2021",
        "qr_code": "https://pse.kominfo.go.id/storage/images/qr_code/6f23dbf3f7a4cf52557576033345f146.png",
        "status_id": "TERDAFTAR",
        "sistem_elektronik_id": 3262
      }
    },
    {
      "type": "tdpseTerbit",
      "id": 606,
      "attributes": {
        "nomor_pb_umku": null,
        "nama": "Orami.co.id",
        "website": "www.orami.co.id",
        "sektor": "Sektor Perdagangan, Sektor Teknologi Informasi dan Komunikasi",
        "nama_perusahaan": "BILNA",
        "tanggal_daftar": "2021-04-26",
        "nomor_tanda_daftar": "000495.01/DJAI.PSE/04/2021",
        "qr_code": "https://pse.kominfo.go.id/storage/images/qr_code/a79c1d6dd5d293c2efb65c97a79692f3.png",
        "status_id": "TERDAFTAR",
        "sistem_elektronik_id": 3261
      }
    },
    {
      "type": "tdpseTerbit",
      "id": 605,
      "attributes": {
        "nomor_pb_umku": null,
        "nama": "Registrasi Online VOLT",
        "website": "volt.valbury.co.id",
        "sektor": "Sektor Keuangan",
        "nama_perusahaan": "VALBURY SEKURITAS INDONESIA",
        "tanggal_daftar": "2021-04-26",
        "nomor_tanda_daftar": "000494.01/DJAI.PSE/04/2021",
        "qr_code": "https://pse.kominfo.go.id/storage/images/qr_code/08f8b7c1a750de43cac859e4d53d1326.png",
        "status_id": "TERDAFTAR",
        "sistem_elektronik_id": 3260
      }
    },
    {
      "type": "tdpseTerbit",
      "id": 602,
      "attributes": {
        "nomor_pb_umku": null,
        "nama": "Cari Tempat",
        "website": "www.caritempat.co.id",
        "sektor": "Sektor Perdagangan, Sektor Teknologi Informasi dan Komunikasi, Sektor Transportasi",
        "nama_perusahaan": "AKEZ ADAPHAN HOSPITALITI",
        "tanggal_daftar": "2021-04-26",
        "nomor_tanda_daftar": "000493.01/DJAI.PSE/04/2021",
        "qr_code": "https://pse.kominfo.go.id/storage/images/qr_code/8370eb6a30513e7d3c2375ed9275e131.png",
        "status_id": "TERDAFTAR",
        "sistem_elektronik_id": 3259
      }
    },
    {
      "type": "tdpseTerbit",
      "id": 601,
      "attributes": {
        "nomor_pb_umku": null,
        "nama": "PT Asia Collect Indonesia",
        "website": "www.flow-cares.ai",
        "sektor": "Sektor Perdagangan",
        "nama_perusahaan": "ASIA COLLECT INDONESIA",
        "tanggal_daftar": "2021-04-26",
        "nomor_tanda_daftar": "000492.01/DJAI.PSE/04/2021",
        "qr_code": "https://pse.kominfo.go.id/storage/images/qr_code/29e285c9a08dd3b4b0a474678a14c099.png",
        "status_id": "TERDAFTAR",
        "sistem_elektronik_id": 327
      }
    },
    {
      "type": "tdpseTerbit",
      "id": 599,
      "attributes": {
        "nomor_pb_umku": null,
        "nama": "TaniHub",
        "website": "HTTPS://TANIHUB.COM",
        "sektor": "Sektor Perdagangan",
        "nama_perusahaan": "TANI HUB INDONESIA",
        "tanggal_daftar": "2021-04-26",
        "nomor_tanda_daftar": "000491.01/DJAI.PSE/04/2021",
        "qr_code": "https://pse.kominfo.go.id/storage/images/qr_code/d40f2f79162ef993506f6a28601c1904.png",
        "status_id": "TERDAFTAR",
        "sistem_elektronik_id": 229
      }
    },
    {
      "type": "tdpseTerbit",
      "id": 4207,
      "attributes": {
        "nomor_pb_umku": "290522001292200000001",
        "nama": "KAWANUA DIGITAL MULTIVERSE",
        "website": "kawanuadigital.com",
        "sektor": "Sektor Teknologi Informasi dan Komunikasi",
        "nama_perusahaan": "MELKY TUMPIA",
        "tanggal_daftar": "2022-06-02",
        "nomor_tanda_daftar": "000490.01/DJAI.PSE/06/2022",
        "qr_code": "https://pse.kominfo.go.id/storage/images/qr_code/307f6c0e589a4841a569564516a16bcc.png",
        "status_id": "TERDAFTAR",
        "sistem_elektronik_id": 4206
      }
    },
    {
      "type": "tdpseTerbit",
      "id": 598,
      "attributes": {
        "nomor_pb_umku": null,
        "nama": "Convatex",
        "website": "www.convatex.com",
        "sektor": "Sektor Kesehatan",
        "nama_perusahaan": "TEKNOLOGI APLIKASI SEHAT",
        "tanggal_daftar": "2021-04-26",
        "nomor_tanda_daftar": "000490.01/DJAI.PSE/04/2021",
        "qr_code": "https://pse.kominfo.go.id/storage/images/qr_code/24b2465b16d1fd70b892ae5b887cb14a.png",
        "status_id": "TERDAFTAR",
        "sistem_elektronik_id": 3258
      }
    },
    {
      "type": "tdpseTerbit",
      "id": 3778,
      "attributes": {
        "nomor_pb_umku": null,
        "nama": "www.g2g.com",
        "website": "g2g.com",
        "sektor": "Sektor Perdagangan",
        "nama_perusahaan": "GAMERTOGAMER GLOBAL GROUP",
        "tanggal_daftar": "2022-04-05",
        "nomor_tanda_daftar": "000489.03/DJAI.PSE/04/2022",
        "qr_code": "https://pse.kominfo.go.id/storage/images/qr_code/b2a6fe9431c936d56a07cdf27f5b26c7.png",
        "status_id": "TERDAFTAR",
        "sistem_elektronik_id": 3704
      }
    },
    {
      "type": "tdpseTerbit",
      "id": 3749,
      "attributes": {
        "nomor_pb_umku": null,
        "nama": "G2G",
        "website": "g2g.com",
        "sektor": "Sektor Perdagangan",
        "nama_perusahaan": "GAMERTOGAMER GLOBAL GROUP",
        "tanggal_daftar": "2022-04-01",
        "nomor_tanda_daftar": "000489.02/DJAI.PSE/04/2022",
        "qr_code": "https://pse.kominfo.go.id/storage/images/qr_code/a9ff4eafc292e8d44b3c7fa245a1994d.png",
        "status_id": "TERDAFTAR",
        "sistem_elektronik_id": 3502
      }
    }
  ]
}