{
  "meta": {
    "page": {
      "currentPage": 830,
      "from": 8291,
      "lastPage": 885,
      "perPage": 10,
      "to": 8300,
      "total": 8844
    }
  },
  "data": [
    {
      "type": "tdpseTerbit",
      "id": 366,
      "attributes": {
        "nomor_pb_umku": null,
        "nama": "Viva Apotek",
        "website": "www.vivahealth.co.id",
        "sektor": "Sektor Kesehatan",
        "nama_perusahaan": "SUMBER HIDUP SEHAT",
        "tanggal_daftar": "2021-03-15",
        "nomor_tanda_daftar": "000299.01/DJAI.PSE/03/2021",
        "qr_code": "https://pse.kominfo.go.id/storage/images/qr_code/2444f148aa70104cab027d5f59358dd1.png",
        "status_id": "TERDAFTAR",
        "sistem_elektronik_id": 69
      }
    },
    {
      "type": "tdpseTerbit",
      "id": 4291,
      "attributes": {
        "nomor_pb_umku": "912000239300600030002",
        "nama": "WELLINGS INDONESIA",
        "website": "wellings.id",
        "sektor": "Sektor Perdagangan",
        "nama_perusahaan": "ERA FARMA INDONESIA",
        "tanggal_daftar": "2022-06-08",
        "nomor_tanda_daftar": "000298.02/DJAI.PSE/06/2022",
        "qr_code": "https://pse.kominfo.go.id/storage/images/qr_code/97f3fc69f817edbcc62cbd004c44a7df.png",
        "status_id": "TERDAFTAR",
        "sistem_elektronik_id": 4284
      }
    },
    {
      "type": "tdpseTerbit",
      "id": 4561,
      "attributes": {
        "nomor_pb_umku": "123800015230900000001",
        "nama": "NABITU.ID",
        "website": "nabitu.id",
        "sektor": "Sektor Keuangan",
        "nama_perusahaan": "NABITU TEKNOLOGI ISLAMI",
        "tanggal_daftar": "2022-06-16",
        "nomor_tanda_daftar": "000298.01/DJAI.PSE/06/2022",
        "qr_code": "https://pse.kominfo.go.id/storage/images/qr_code/e74860a5f606c84b39568443ea517900.png",
        "status_id": "TERDAFTAR",
        "sistem_elektronik_id": 4524
      }
    },
    {
      "type": "tdpseTerbit",
      "id": 4287,
      "attributes": {
        "nomor_pb_umku": "912000239300600030001",
        "nama": "WELLING INDONESIA",
        "website": "wellings.id",
        "sektor": "Sektor Perdagangan",
        "nama_perusahaan": "ERA FARMA INDONESIA",
        "tanggal_daftar": "2022-06-08",
        "nomor_tanda_daftar": "000298.01/DJAI.PSE/06/2022",
        "qr_code": "https://pse.kominfo.go.id/storage/images/qr_code/692265e9e5ec1ec5d33790c41a8be5b5.png",
        "status_id": "TERDAFTAR",
        "sistem_elektronik_id": 4280
      }
    },
    {
      "type": "tdpseTerbit",
      "id": 365,
      "attributes": {
        "nomor_pb_umku": null,
        "nama": "Bukalapak.com",
        "website": "Bukalapak.com",
        "sektor": "Sektor Teknologi Informasi dan Komunikasi",
        "nama_perusahaan": "BUKALAPAK.COM",
        "tanggal_daftar": "2021-03-10",
        "nomor_tanda_daftar": "000298.01/DJAI.PSE/03/2021",
        "qr_code": "https://pse.kominfo.go.id/storage/images/qr_code/95807d3b2a32229f7d826d7a2c3057a5.png",
        "status_id": "TERDAFTAR",
        "sistem_elektronik_id": 65
      }
    },
    {
      "type": "tdpseTerbit",
      "id": 4286,
      "attributes": {
        "nomor_pb_umku": "912000420109501930001",
        "nama": "KAI ACCESS",
        "website": "-",
        "sektor": "Sektor Perdagangan",
        "nama_perusahaan": "PERUSAHAAN PERSEROAN (PERSERO) PT. KERETA API INDONESIA",
        "tanggal_daftar": "2022-06-08",
        "nomor_tanda_daftar": "000297.01/DJAI.PSE/06/2022",
        "qr_code": "https://pse.kominfo.go.id/storage/images/qr_code/05a119bd0fa51118562ad0cd80702f82.png",
        "status_id": "TERDAFTAR",
        "sistem_elektronik_id": 4279
      }
    },
    {
      "type": "tdpseTerbit",
      "id": 364,
      "attributes": {
        "nomor_pb_umku": null,
        "nama": "Essenzo",
        "website": "www.essenzo.co.id",
        "sektor": "Sektor Perdagangan",
        "nama_perusahaan": "SINERGI REZEKI ANANTA",
        "tanggal_daftar": "2021-03-10",
        "nomor_tanda_daftar": "000297.01/DJAI.PSE/03/2021",
        "qr_code": "https://pse.kominfo.go.id/storage/images/qr_code/347daa657e2ef7275a9e63d24ee7e9e3.png",
        "status_id": "TERDAFTAR",
        "sistem_elektronik_id": 129
      }
    },
    {
      "type": "tdpseTerbit",
      "id": 4562,
      "attributes": {
        "nomor_pb_umku": "126200070048700000001",
        "nama": "PT. NUANSA UNGGUL BAHARI",
        "website": "nuansaunggul.co.id",
        "sektor": "Sektor Perdagangan, Sektor Transportasi",
        "nama_perusahaan": "NUANSA UNGGUL BAHARI",
        "tanggal_daftar": "2022-06-16",
        "nomor_tanda_daftar": "000296.01/DJAI.PSE/06/2022",
        "qr_code": "https://pse.kominfo.go.id/storage/images/qr_code/adf3a5048d4a3273407bb08533ad967a.png",
        "status_id": "TERDAFTAR",
        "sistem_elektronik_id": 4525
      }
    },
    {
      "type": "tdpseTerbit",
      "id": 363,
      "attributes": {
        "nomor_pb_umku": null,
        "nama": "Melindungi Impian",
        "website": "www.pfimegalife.co.id",
        "sektor": "Sektor Keuangan",
        "nama_perusahaan": "PFI MEGA LIFE INSURANCE",
        "tanggal_daftar": "2021-03-10",
        "nomor_tanda_daftar": "000296.01/DJAI.PSE/03/2021",
        "qr_code": "https://pse.kominfo.go.id/storage/images/qr_code/e368a26f20b03b8424f8c2341cb96784.png",
        "status_id": "TERDAFTAR",
        "sistem_elektronik_id": 112
      }
    },
    {
      "type": "tdpseTerbit",
      "id": 4564,
      "attributes": {
        "nomor_pb_umku": "031121000873300020001",
        "nama": "LECTRO ENERGI SEMESTA",
        "website": "Lectro.asia",
        "sektor": "Sektor Perdagangan, Sektor Energi dan Sumber Daya Mineral, Sektor Teknologi Informasi dan Komunikasi",
        "nama_perusahaan": "LECTRO ENERGI SEMESTA",
        "tanggal_daftar": "2022-06-16",
        "nomor_tanda_daftar": "000295.01/DJAI.PSE/06/2022",
        "qr_code": "https://pse.kominfo.go.id/storage/images/qr_code/83c87b795845bae12f6cdab23a44814e.png",
        "status_id": "TERDAFTAR",
        "sistem_elektronik_id": 4527
      }
    }
  ]
}