{
  "meta": {
    "page": {
      "currentPage": 84,
      "from": 831,
      "lastPage": 1097,
      "perPage": 10,
      "to": 840,
      "total": 10962
    }
  },
  "data": [
    {
      "type": "tdpseTerbit",
      "id": 10679,
      "attributes": {
        "nomor_pb_umku": "912030162278200040003",
        "nama": "ECKLIK",
        "website": "ecklik.com",
        "sektor": "Sektor Perdagangan",
        "nama_perusahaan": "BISMACINDO PERKASA",
        "tanggal_daftar": "2022-08-22",
        "nomor_tanda_daftar": "007426.01/DJAI.PSE/08/2022",
        "qr_code": "https://pse.kominfo.go.id/storage/images/qr_code/1e4593f8a29dcd762af15b9e4b409186.png",
        "status_id": "TERDAFTAR",
        "sistem_elektronik_id": 10510
      }
    },
    {
      "type": "tdpseTerbit",
      "id": 10676,
      "attributes": {
        "nomor_pb_umku": "220822006556600000001",
        "nama": "WWW.BINNEWSTV.COM",
        "website": "binnewstv.com",
        "sektor": "Sektor Teknologi Informasi dan Komunikasi",
        "nama_perusahaan": "BINTANG NUSANTARA FAMILY",
        "tanggal_daftar": "2022-08-22",
        "nomor_tanda_daftar": "007425.01/DJAI.PSE/08/2022",
        "qr_code": "https://pse.kominfo.go.id/storage/images/qr_code/2c66bb697ec5a24154fc3281fc90ebe4.png",
        "status_id": "TERDAFTAR",
        "sistem_elektronik_id": 10509
      }
    },
    {
      "type": "tdpseTerbit",
      "id": 10687,
      "attributes": {
        "nomor_pb_umku": "",
        "nama": "WEBSITE",
        "website": "bpram.co.id",
        "sektor": "Sektor Teknologi Informasi dan Komunikasi",
        "nama_perusahaan": "BANK PERKREDITAN RAKYAT ARTHA MERTOYUDAN",
        "tanggal_daftar": "2022-08-23",
        "nomor_tanda_daftar": "007424.01/DJAI.PSE/08/2022",
        "qr_code": "https://pse.kominfo.go.id/storage/images/qr_code/441129f06247593a07ea6b8104e86e26.png",
        "status_id": "TERDAFTAR",
        "sistem_elektronik_id": 10520
      }
    },
    {
      "type": "tdpseTerbit",
      "id": 10710,
      "attributes": {
        "nomor_pb_umku": "200822001434300000001",
        "nama": "BPR UKABIMA BMMS",
        "website": "ukabima-bmms.co.id",
        "sektor": "Sektor Keuangan",
        "nama_perusahaan": "BANK PERKREDITAN RAKYAT UKABIMA BMMS",
        "tanggal_daftar": "2022-08-23",
        "nomor_tanda_daftar": "007423.01/DJAI.PSE/08/2022",
        "qr_code": "https://pse.kominfo.go.id/storage/images/qr_code/7830567dc2fab2c25a30c4ed389eedac.png",
        "status_id": "TERDAFTAR",
        "sistem_elektronik_id": 10507
      }
    },
    {
      "type": "tdpseTerbit",
      "id": 10680,
      "attributes": {
        "nomor_pb_umku": "912020511148200000001",
        "nama": "INFINESSEGLOBAL.COM",
        "website": "infinesseglobal.com",
        "sektor": "Sektor Perdagangan",
        "nama_perusahaan": "INFINESSE SEMPURNA ABADI",
        "tanggal_daftar": "2022-08-22",
        "nomor_tanda_daftar": "007422.01/DJAI.PSE/08/2022",
        "qr_code": "https://pse.kominfo.go.id/storage/images/qr_code/af0b7bf5e22fa4ebf9e32e22746c701e.png",
        "status_id": "TERDAFTAR",
        "sistem_elektronik_id": 10513
      }
    },
    {
      "type": "tdpseTerbit",
      "id": 10730,
      "attributes": {
        "nomor_pb_umku": "120822004671100010007",
        "nama": "WEBSITE PILARMAS INVESTINDO SEKURITAS",
        "website": "pilarmas-investindo.co.id",
        "sektor": "Sektor Keuangan",
        "nama_perusahaan": "PILARMAS INVESTINDO SEKURITAS",
        "tanggal_daftar": "2022-08-23",
        "nomor_tanda_daftar": "007421.07/DJAI.PSE/08/2022",
        "qr_code": "https://pse.kominfo.go.id/storage/images/qr_code/4c08bff685d2b60828f93f284e92c69f.png",
        "status_id": "TERDAFTAR",
        "sistem_elektronik_id": 10562
      }
    },
    {
      "type": "tdpseTerbit",
      "id": 10728,
      "attributes": {
        "nomor_pb_umku": "120822004671100010006",
        "nama": "FORGOT PASSWORD PILARMAS INVESTINDO SEKURITAS",
        "website": "eform.pilarmas-investindo.co.id",
        "sektor": "Sektor Keuangan",
        "nama_perusahaan": "PILARMAS INVESTINDO SEKURITAS",
        "tanggal_daftar": "2022-08-23",
        "nomor_tanda_daftar": "007421.06/DJAI.PSE/08/2022",
        "qr_code": "https://pse.kominfo.go.id/storage/images/qr_code/1c659404bb4478858a1fec9acb35c358.png",
        "status_id": "TERDAFTAR",
        "sistem_elektronik_id": 10560
      }
    },
    {
      "type": "tdpseTerbit",
      "id": 10727,
      "attributes": {
        "nomor_pb_umku": "",
        "nama": "EFORM PILARMAS INVESTINDO SEKURITAS",
        "website": "eform.pilarmas-investindo.co.id",
        "sektor": "Sektor Keuangan",
        "nama_perusahaan": "PILARMAS INVESTINDO SEKURITAS",
        "tanggal_daftar": "2022-08-23",
        "nomor_tanda_daftar": "007421.05/DJAI.PSE/08/2022",
        "qr_code": "https://pse.kominfo.go.id/storage/images/qr_code/3e99c84426e0cb5c1a50b3312b6280b2.png",
        "status_id": "TERDAFTAR",
        "sistem_elektronik_id": 10559
      }
    },
    {
      "type": "tdpseTerbit",
      "id": 10722,
      "attributes": {
        "nomor_pb_umku": "120822004671100010004",
        "nama": "PILARMAS ONLINE TRADING DEKSTOP",
        "website": "-",
        "sektor": "Sektor Keuangan",
        "nama_perusahaan": "PILARMAS INVESTINDO SEKURITAS",
        "tanggal_daftar": "2022-08-23",
        "nomor_tanda_daftar": "007421.04/DJAI.PSE/08/2022",
        "qr_code": "https://pse.kominfo.go.id/storage/images/qr_code/98c5a7e42347b89a7323b853458079e9.png",
        "status_id": "TERDAFTAR",
        "sistem_elektronik_id": 10554
      }
    },
    {
      "type": "tdpseTerbit",
      "id": 10719,
      "attributes": {
        "nomor_pb_umku": "120822004671100010003",
        "nama": "POT2.PILARMAS-INVESTINDO.CO.ID",
        "website": "pot2.pilarmas-investindo.co.id",
        "sektor": "Sektor Keuangan",
        "nama_perusahaan": "PILARMAS INVESTINDO SEKURITAS",
        "tanggal_daftar": "2022-08-23",
        "nomor_tanda_daftar": "007421.03/DJAI.PSE/08/2022",
        "qr_code": "https://pse.kominfo.go.id/storage/images/qr_code/fcce0c9bd38ef72fb3067acfa5b49223.png",
        "status_id": "TERDAFTAR",
        "sistem_elektronik_id": 10551
      }
    }
  ]
}