{
  "meta": {
    "page": {
      "currentPage": 831,
      "from": 8301,
      "lastPage": 890,
      "perPage": 10,
      "to": 8310,
      "total": 8897
    }
  },
  "data": [
    {
      "type": "tdpseTerbit",
      "id": 4302,
      "attributes": {
        "nomor_pb_umku": "912020636202100070004",
        "nama": "HADEKAMULTISOLUTION",
        "website": "hdk-solution.id",
        "sektor": "Sektor Teknologi Informasi dan Komunikasi",
        "nama_perusahaan": "HADEKA MULTISOLUTION",
        "tanggal_daftar": "2022-06-09",
        "nomor_tanda_daftar": "000313.02/DJAI.PSE/06/2022",
        "qr_code": "https://pse.kominfo.go.id/storage/images/qr_code/051a5f84c572f654fd8d7499768f1080.png",
        "status_id": "TERDAFTAR",
        "sistem_elektronik_id": 4295
      }
    },
    {
      "type": "tdpseTerbit",
      "id": 4301,
      "attributes": {
        "nomor_pb_umku": "912020636202100070003",
        "nama": "HADEKA MULTISOLUTION",
        "website": "hdk-solution.id",
        "sektor": "Sektor Teknologi Informasi dan Komunikasi",
        "nama_perusahaan": "HADEKA MULTISOLUTION",
        "tanggal_daftar": "2022-06-09",
        "nomor_tanda_daftar": "000313.01/DJAI.PSE/06/2022",
        "qr_code": "https://pse.kominfo.go.id/storage/images/qr_code/a1f91c76b96044d9ccba2c832a8c6fbf.png",
        "status_id": "TERDAFTAR",
        "sistem_elektronik_id": 4294
      }
    },
    {
      "type": "tdpseTerbit",
      "id": 385,
      "attributes": {
        "nomor_pb_umku": null,
        "nama": "SAP",
        "website": "www.sejahterapratama.com",
        "sektor": "Sektor Perdagangan",
        "nama_perusahaan": "SEJAHTERA ANUGERAH PRATAMA",
        "tanggal_daftar": "2021-03-15",
        "nomor_tanda_daftar": "000313.01/DJAI.PSE/03/2021",
        "qr_code": "https://pse.kominfo.go.id/storage/images/qr_code/7adafc02b2a58165e9ea14c910bcf0d3.png",
        "status_id": "TERDAFTAR",
        "sistem_elektronik_id": 135
      }
    },
    {
      "type": "tdpseTerbit",
      "id": 4174,
      "attributes": {
        "nomor_pb_umku": "080422003082600000001",
        "nama": "HARMONIZ",
        "website": "harmoniz.id",
        "sektor": "Sektor Keuangan, Sektor Teknologi Informasi dan Komunikasi",
        "nama_perusahaan": "CIPTA KELUARGA HARMONIS",
        "tanggal_daftar": "2022-05-30",
        "nomor_tanda_daftar": "000312.01/DJAI.PSE/05/2022",
        "qr_code": "https://pse.kominfo.go.id/storage/images/qr_code/62a3d893f90a7d73c3197a0be92a6f49.png",
        "status_id": "TERDAFTAR",
        "sistem_elektronik_id": 4178
      }
    },
    {
      "type": "tdpseTerbit",
      "id": 384,
      "attributes": {
        "nomor_pb_umku": null,
        "nama": "Gumugu",
        "website": "https://www.gumugu.com",
        "sektor": "Sektor Keuangan, Sektor Perdagangan, Sektor Teknologi Informasi dan Komunikasi",
        "nama_perusahaan": "GUMUGU TEKNOLOGI KREATIF",
        "tanggal_daftar": "2021-03-15",
        "nomor_tanda_daftar": "000312.01/DJAI.PSE/03/2021",
        "qr_code": "https://pse.kominfo.go.id/storage/images/qr_code/6d3b9f1aed566bed38a6437f35ac5f7f.png",
        "status_id": "TERDAFTAR",
        "sistem_elektronik_id": 148
      }
    },
    {
      "type": "tdpseTerbit",
      "id": 8068,
      "attributes": {
        "nomor_pb_umku": "912040589091900030012",
        "nama": "KENDIXPRESS",
        "website": "kendixpress.com",
        "sektor": "Sektor Perdagangan",
        "nama_perusahaan": "REDKENDI ANDALAN MITRA",
        "tanggal_daftar": "2022-07-20",
        "nomor_tanda_daftar": "000311.02/DJAI.PSE/07/2022",
        "qr_code": "https://pse.kominfo.go.id/storage/images/qr_code/22a811a8ab0df01ebe2f12a44ffd5096.png",
        "status_id": "TERDAFTAR",
        "sistem_elektronik_id": 7988
      }
    },
    {
      "type": "tdpseTerbit",
      "id": 4197,
      "attributes": {
        "nomor_pb_umku": "250821002492300020001",
        "nama": "BEERU",
        "website": "beeru.co.id",
        "sektor": "Sektor Perdagangan, Sektor Teknologi Informasi dan Komunikasi",
        "nama_perusahaan": "BERKAT REZEKI UTAMA",
        "tanggal_daftar": "2022-05-31",
        "nomor_tanda_daftar": "000311.01/DJAI.PSE/05/2022",
        "qr_code": "https://pse.kominfo.go.id/storage/images/qr_code/094cc931a2c89623870154a060ef0e03.png",
        "status_id": "TERDAFTAR",
        "sistem_elektronik_id": 4199
      }
    },
    {
      "type": "tdpseTerbit",
      "id": 383,
      "attributes": {
        "nomor_pb_umku": null,
        "nama": "REDKENDI",
        "website": "www.redkendi.com",
        "sektor": "Sektor Perdagangan",
        "nama_perusahaan": "REDKENDI ANDALAN MITRA",
        "tanggal_daftar": "2021-03-15",
        "nomor_tanda_daftar": "000311.01/DJAI.PSE/03/2021",
        "qr_code": "https://pse.kominfo.go.id/storage/images/qr_code/2cd8c9051618b8766e821386d8ecd3b3.png",
        "status_id": "TERDAFTAR",
        "sistem_elektronik_id": 140
      }
    },
    {
      "type": "tdpseTerbit",
      "id": 4571,
      "attributes": {
        "nomor_pb_umku": "912040980232100000001",
        "nama": "WILKA STORE",
        "website": "wilkastore.co.id",
        "sektor": "Sektor Perdagangan, Sektor Energi dan Sumber Daya Mineral",
        "nama_perusahaan": "WILKA ENERGI SOLUSI",
        "tanggal_daftar": "2022-06-16",
        "nomor_tanda_daftar": "000310.02/DJAI.PSE/06/2022",
        "qr_code": "https://pse.kominfo.go.id/storage/images/qr_code/54b142284c7d369e3403547c35bb26a0.png",
        "status_id": "TERDAFTAR",
        "sistem_elektronik_id": 4535
      }
    },
    {
      "type": "tdpseTerbit",
      "id": 4577,
      "attributes": {
        "nomor_pb_umku": "912040980232100000001",
        "nama": "WILKASTORE.CO.ID",
        "website": "wilkapower.com",
        "sektor": "Sektor Perdagangan, Sektor Energi dan Sumber Daya Mineral",
        "nama_perusahaan": "WILKA ENERGI SOLUSI",
        "tanggal_daftar": "2022-06-17",
        "nomor_tanda_daftar": "000310.01/DJAI.PSE/06/2022",
        "qr_code": "https://pse.kominfo.go.id/storage/images/qr_code/f708734f3f2ca044a5475edb1e0581be.png",
        "status_id": "TERDAFTAR",
        "sistem_elektronik_id": 4534
      }
    }
  ]
}