{
  "meta": {
    "page": {
      "currentPage": 832,
      "from": 8311,
      "lastPage": 949,
      "perPage": 10,
      "to": 8320,
      "total": 9482
    }
  },
  "data": [
    {
      "type": "tdpseTerbit",
      "id": 726,
      "attributes": {
        "nomor_pb_umku": null,
        "nama": "Domykado",
        "website": "https://domykado.com/",
        "sektor": "Sektor Perdagangan",
        "nama_perusahaan": "TERRA INDO TECH",
        "tanggal_daftar": "2021-05-07",
        "nomor_tanda_daftar": "000588.01/DJAI.PSE/05/2021",
        "qr_code": "https://pse.kominfo.go.id/storage/images/qr_code/88c614704a5c9c3a030bd3de131e2b28.png",
        "status_id": "TERDAFTAR",
        "sistem_elektronik_id": 410
      }
    },
    {
      "type": "tdpseTerbit",
      "id": 725,
      "attributes": {
        "nomor_pb_umku": null,
        "nama": "asuransikapalku.com",
        "website": "asuransikapalku.com",
        "sektor": "Sektor Keuangan, Sektor Perdagangan, Sektor Teknologi Informasi dan Komunikasi, Sektor Transportasi",
        "nama_perusahaan": "MCM SERVICES",
        "tanggal_daftar": "2021-05-07",
        "nomor_tanda_daftar": "000587.01/DJAI.PSE/05/2021",
        "qr_code": "https://pse.kominfo.go.id/storage/images/qr_code/fd449eedb57c2345316437f7e5de4f4b.png",
        "status_id": "TERDAFTAR",
        "sistem_elektronik_id": 512
      }
    },
    {
      "type": "tdpseTerbit",
      "id": 724,
      "attributes": {
        "nomor_pb_umku": null,
        "nama": "Urunmodal",
        "website": "https://urunmodal.id/",
        "sektor": "Sektor Keuangan",
        "nama_perusahaan": "URUNMODAL DOT COM",
        "tanggal_daftar": "2021-05-07",
        "nomor_tanda_daftar": "000586.01/DJAI.PSE/05/2021",
        "qr_code": "https://pse.kominfo.go.id/storage/images/qr_code/c5567d3f416940d55d7dda88e3082a9e.png",
        "status_id": "TERDAFTAR",
        "sistem_elektronik_id": 437
      }
    },
    {
      "type": "tdpseTerbit",
      "id": 986,
      "attributes": {
        "nomor_pb_umku": null,
        "nama": "OLX Autos Dealer",
        "website": "https://dealer.olxautos.co.id/",
        "sektor": "Sektor Perdagangan",
        "nama_perusahaan": "TOKOBAGUS",
        "tanggal_daftar": "2021-05-17",
        "nomor_tanda_daftar": "000585.02/DJAI.PSE/05/2021",
        "qr_code": "https://pse.kominfo.go.id/storage/images/qr_code/dfddbf657d089a595ae795243623c852.png",
        "status_id": "TERDAFTAR",
        "sistem_elektronik_id": 212
      }
    },
    {
      "type": "tdpseTerbit",
      "id": 723,
      "attributes": {
        "nomor_pb_umku": null,
        "nama": "OLX",
        "website": "olx.co.id",
        "sektor": "Sektor Perdagangan",
        "nama_perusahaan": "TOKOBAGUS",
        "tanggal_daftar": "2021-05-07",
        "nomor_tanda_daftar": "000585.01/DJAI.PSE/05/2021",
        "qr_code": "https://pse.kominfo.go.id/storage/images/qr_code/2e6c3688f239ae15ccc868b7a1f7dc2c.png",
        "status_id": "TERDAFTAR",
        "sistem_elektronik_id": 211
      }
    },
    {
      "type": "tdpseTerbit",
      "id": 722,
      "attributes": {
        "nomor_pb_umku": null,
        "nama": "Web Portal dan Aplikasi Transaksi Digital",
        "website": "https://candi.id/",
        "sektor": "Sektor Perdagangan, Sektor Teknologi Informasi dan Komunikasi",
        "nama_perusahaan": "ARFADIA DIGITAL INDONESIA",
        "tanggal_daftar": "2021-05-07",
        "nomor_tanda_daftar": "000584.01/DJAI.PSE/05/2021",
        "qr_code": "https://pse.kominfo.go.id/storage/images/qr_code/50ae43f0f42474db7fc0e6efeb0b70a0.png",
        "status_id": "TERDAFTAR",
        "sistem_elektronik_id": 349
      }
    },
    {
      "type": "tdpseTerbit",
      "id": 6533,
      "attributes": {
        "nomor_pb_umku": "912010055238400000003",
        "nama": "PORTAL WEB / PLAFTORM DIGITAL",
        "website": "laguku.id",
        "sektor": "Sektor Perdagangan, Sektor Teknologi Informasi dan Komunikasi",
        "nama_perusahaan": "MELON INDONESIA",
        "tanggal_daftar": "2022-07-19",
        "nomor_tanda_daftar": "000583.04/DJAI.PSE/07/2022",
        "qr_code": "https://pse.kominfo.go.id/storage/images/qr_code/4ba86d1650d134e6e7303ba15c8c7960.png",
        "status_id": "TERDAFTAR",
        "sistem_elektronik_id": 6400
      }
    },
    {
      "type": "tdpseTerbit",
      "id": 6529,
      "attributes": {
        "nomor_pb_umku": "912010055238400000002",
        "nama": "PORTAL WEB/PLATOFRM DIGITAL",
        "website": "mainbro.co.id",
        "sektor": "Sektor Teknologi Informasi dan Komunikasi",
        "nama_perusahaan": "MELON INDONESIA",
        "tanggal_daftar": "2022-07-18",
        "nomor_tanda_daftar": "000583.03/DJAI.PSE/07/2022",
        "qr_code": "https://pse.kominfo.go.id/storage/images/qr_code/2d82e0ce69f6c8d04a579e5d93127379.png",
        "status_id": "TERDAFTAR",
        "sistem_elektronik_id": 6396
      }
    },
    {
      "type": "tdpseTerbit",
      "id": 6528,
      "attributes": {
        "nomor_pb_umku": "912010055238400000002",
        "nama": "PORTAL WEB/PLATFORM DIGITAL",
        "website": "imstore.co.id",
        "sektor": "Sektor Perdagangan, Sektor Teknologi Informasi dan Komunikasi",
        "nama_perusahaan": "MELON INDONESIA",
        "tanggal_daftar": "2022-07-18",
        "nomor_tanda_daftar": "000583.02/DJAI.PSE/07/2022",
        "qr_code": "https://pse.kominfo.go.id/storage/images/qr_code/af1e39cb7f68acac796851e51978fa52.png",
        "status_id": "TERDAFTAR",
        "sistem_elektronik_id": 6395
      }
    },
    {
      "type": "tdpseTerbit",
      "id": 721,
      "attributes": {
        "nomor_pb_umku": null,
        "nama": "Portal Web / Platform Digital",
        "website": "www.upoint.id dan www.tiketapasaja.com",
        "sektor": "Sektor Perdagangan, Sektor Teknologi Informasi dan Komunikasi",
        "nama_perusahaan": "MELON INDONESIA",
        "tanggal_daftar": "2021-05-07",
        "nomor_tanda_daftar": "000583.01/DJAI.PSE/05/2021",
        "qr_code": "https://pse.kominfo.go.id/storage/images/qr_code/646131e43892ab3fd5a83ebaee1c73eb.png",
        "status_id": "TERDAFTAR",
        "sistem_elektronik_id": 99
      }
    }
  ]
}