{
  "meta": {
    "page": {
      "currentPage": 833,
      "from": 8321,
      "lastPage": 1113,
      "perPage": 10,
      "to": 8330,
      "total": 11124
    }
  },
  "data": [
    {
      "type": "tdpseTerbit",
      "id": 3636,
      "attributes": {
        "nomor_pb_umku": null,
        "nama": "Aladinku",
        "website": "Aladinku.co.id",
        "sektor": "Sektor Keuangan",
        "nama_perusahaan": "INTEKNO RAYA",
        "tanggal_daftar": "2022-03-24",
        "nomor_tanda_daftar": "001417.03/DJAI.PSE/03/2022",
        "qr_code": "https://pse.kominfo.go.id/storage/images/qr_code/2c750e2bc92de583ee9ac28791e20a4e.png",
        "status_id": "TERDAFTAR",
        "sistem_elektronik_id": 3689
      }
    },
    {
      "type": "tdpseTerbit",
      "id": 3067,
      "attributes": {
        "nomor_pb_umku": null,
        "nama": "BOOSTER",
        "website": "boosterku.co.id",
        "sektor": "Sektor Keuangan",
        "nama_perusahaan": "INTEKNO RAYA",
        "tanggal_daftar": "2022-01-19",
        "nomor_tanda_daftar": "001417.02/DJAI.PSE/01/2022",
        "qr_code": "https://pse.kominfo.go.id/storage/images/qr_code/988e47a6c4945fe09ba2efd9b45d854f.png",
        "status_id": "TERDAFTAR",
        "sistem_elektronik_id": 3400
      }
    },
    {
      "type": "tdpseTerbit",
      "id": 2120,
      "attributes": {
        "nomor_pb_umku": null,
        "nama": "DANAMERDEKA",
        "website": "https://danamerdeka.co.id",
        "sektor": "Sektor Keuangan",
        "nama_perusahaan": "INTEKNO RAYA",
        "tanggal_daftar": "2021-10-26",
        "nomor_tanda_daftar": "001417.01/DJAI.PSE/10/2021",
        "qr_code": "https://pse.kominfo.go.id/storage/images/qr_code/41421237b725153cb4560af988009e4e.png",
        "status_id": "TERDAFTAR",
        "sistem_elektronik_id": 3399
      }
    },
    {
      "type": "tdpseTerbit",
      "id": 2119,
      "attributes": {
        "nomor_pb_umku": null,
        "nama": "MyIdScore",
        "website": "myidscore.id",
        "sektor": "Sektor Teknologi Informasi dan Komunikasi",
        "nama_perusahaan": "PT PEFINDO BIRO KREDIT",
        "tanggal_daftar": "2021-10-26",
        "nomor_tanda_daftar": "001416.01/DJAI.PSE/10/2021",
        "qr_code": "https://pse.kominfo.go.id/storage/images/qr_code/655efc37c98eba84a2b5996959b00b66.png",
        "status_id": "TERDAFTAR",
        "sistem_elektronik_id": 3034
      }
    },
    {
      "type": "tdpseTerbit",
      "id": 2118,
      "attributes": {
        "nomor_pb_umku": null,
        "nama": "Sitoen",
        "website": "https://www.sitoen.com",
        "sektor": "Sektor Perdagangan, Sektor Teknologi Informasi dan Komunikasi",
        "nama_perusahaan": "Sitoen Karya Abadi",
        "tanggal_daftar": "2021-10-26",
        "nomor_tanda_daftar": "001415.01/DJAI.PSE/10/2021",
        "qr_code": "https://pse.kominfo.go.id/storage/images/qr_code/eaf7a7bf2a7c7e786d196c15cccb0614.png",
        "status_id": "TERDAFTAR",
        "sistem_elektronik_id": 3033
      }
    },
    {
      "type": "tdpseTerbit",
      "id": 2117,
      "attributes": {
        "nomor_pb_umku": null,
        "nama": "ILAGAJAYA",
        "website": "www.ilagajaya.com",
        "sektor": "Sektor Perdagangan, Sektor Teknologi Informasi dan Komunikasi",
        "nama_perusahaan": "ILAGAJAYA DIGITAL INDONESIA",
        "tanggal_daftar": "2021-10-26",
        "nomor_tanda_daftar": "001414.01/DJAI.PSE/10/2021",
        "qr_code": "https://pse.kominfo.go.id/storage/images/qr_code/ba708853b9c9b41e48e229185c2b7239.png",
        "status_id": "TERDAFTAR",
        "sistem_elektronik_id": 1509
      }
    },
    {
      "type": "tdpseTerbit",
      "id": 4588,
      "attributes": {
        "nomor_pb_umku": null,
        "nama": "Halodoc",
        "website": "www.halodoc.co.id",
        "sektor": "Sektor Kesehatan, Sektor Perdagangan, Sektor Teknologi Informasi dan Komunikasi",
        "nama_perusahaan": "MEDIA DOKTER INVESTAMA",
        "tanggal_daftar": "2022-04-28",
        "nomor_tanda_daftar": "001413.02/DJAI.PSE/04/2022",
        "qr_code": "https://pse.kominfo.go.id/storage/images/qr_code/a9f211a398f083bf651eb8205b542ac9.png",
        "status_id": "TERDAFTAR",
        "sistem_elektronik_id": 4551
      }
    },
    {
      "type": "tdpseTerbit",
      "id": 2116,
      "attributes": {
        "nomor_pb_umku": null,
        "nama": "Halodoc",
        "website": "www.halodoc.com",
        "sektor": "Sektor Kesehatan, Sektor Teknologi Informasi dan Komunikasi",
        "nama_perusahaan": "MEDIA DOKTER INVESTAMA",
        "tanggal_daftar": "2021-10-26",
        "nomor_tanda_daftar": "001413.01/DJAI.PSE/10/2021",
        "qr_code": "https://pse.kominfo.go.id/storage/images/qr_code/85121b4db9452649e3bbfcfc1432db28.png",
        "status_id": "TERDAFTAR",
        "sistem_elektronik_id": 3398
      }
    },
    {
      "type": "tdpseTerbit",
      "id": 2114,
      "attributes": {
        "nomor_pb_umku": null,
        "nama": "PINJAMWINWIN",
        "website": "pinjamwinwin.com",
        "sektor": "Sektor Keuangan",
        "nama_perusahaan": "PT Progo Puncak Group",
        "tanggal_daftar": "2021-10-26",
        "nomor_tanda_daftar": "001412.01/DJAI.PSE/10/2021",
        "qr_code": "https://pse.kominfo.go.id/storage/images/qr_code/95f30643dc18c9009db6af6e8b23c546.png",
        "status_id": "TERDAFTAR",
        "sistem_elektronik_id": 3032
      }
    },
    {
      "type": "tdpseTerbit",
      "id": 5448,
      "attributes": {
        "nomor_pb_umku": "912030064238600020002",
        "nama": "MI PORTAL",
        "website": "miportal.inhealth.co.id",
        "sektor": "Sektor Kesehatan",
        "nama_perusahaan": "ASURANSI JIWA INHEALTH INDONESIA",
        "tanggal_daftar": "2022-07-13",
        "nomor_tanda_daftar": "001411.08/DJAI.PSE/07/2022",
        "qr_code": "https://pse.kominfo.go.id/storage/images/qr_code/a20f0184cf4e53902879d9d76869a951.png",
        "status_id": "TERDAFTAR",
        "sistem_elektronik_id": 5320
      }
    }
  ]
}