{
  "meta": {
    "page": {
      "currentPage": 834,
      "from": 8331,
      "lastPage": 903,
      "perPage": 10,
      "to": 8340,
      "total": 9025
    }
  },
  "data": [
    {
      "type": "tdpseTerbit",
      "id": 4120,
      "attributes": {
        "nomor_pb_umku": "912010087036500000001",
        "nama": "KETOKO.CO.ID",
        "website": "pos.ketoko.co.id",
        "sektor": "Sektor Teknologi Informasi dan Komunikasi",
        "nama_perusahaan": "INSPIRASI MEDIA KREATIF",
        "tanggal_daftar": "2022-05-24",
        "nomor_tanda_daftar": "000338.01/DJAI.PSE/05/2022",
        "qr_code": "https://pse.kominfo.go.id/storage/images/qr_code/d6166324742e163ebff23474c914d181.png",
        "status_id": "TERDAFTAR",
        "sistem_elektronik_id": 4121
      }
    },
    {
      "type": "tdpseTerbit",
      "id": 413,
      "attributes": {
        "nomor_pb_umku": null,
        "nama": "E-Commerce",
        "website": "https://www.niagahoster.co.id/",
        "sektor": "Sektor Perdagangan",
        "nama_perusahaan": "PELITA MEDIA INDONESIA",
        "tanggal_daftar": "2021-03-31",
        "nomor_tanda_daftar": "000338.01/DJAI.PSE/03/2021",
        "qr_code": "https://pse.kominfo.go.id/storage/images/qr_code/5352a42b3ab182b30cec7ab32b9e8af7.png",
        "status_id": "TERDAFTAR",
        "sistem_elektronik_id": 200
      }
    },
    {
      "type": "tdpseTerbit",
      "id": 8310,
      "attributes": {
        "nomor_pb_umku": "812011410320700830016",
        "nama": "NADA SAMBUNG PRIBADI [NSP]",
        "website": "nsp.telkomsel.com",
        "sektor": "Sektor Teknologi Informasi dan Komunikasi",
        "nama_perusahaan": "TELEKOMUNIKASI SELULAR",
        "tanggal_daftar": "2022-07-20",
        "nomor_tanda_daftar": "000337.40/DJAI.PSE/07/2022",
        "qr_code": "https://pse.kominfo.go.id/storage/images/qr_code/a75bfe3e81467ca66fc5be2fca1383a7.png",
        "status_id": "TERDAFTAR",
        "sistem_elektronik_id": 8231
      }
    },
    {
      "type": "tdpseTerbit",
      "id": 8284,
      "attributes": {
        "nomor_pb_umku": "812011410320700830015",
        "nama": "MYNSP ATAU NADA SAMBUNG PRIBADI KREASI",
        "website": "mynsp.langitmusik.co.id",
        "sektor": "Sektor Teknologi Informasi dan Komunikasi",
        "nama_perusahaan": "TELEKOMUNIKASI SELULAR",
        "tanggal_daftar": "2022-07-20",
        "nomor_tanda_daftar": "000337.39/DJAI.PSE/07/2022",
        "qr_code": "https://pse.kominfo.go.id/storage/images/qr_code/cf0911a02715cc61c10d048cb046c1f6.png",
        "status_id": "TERDAFTAR",
        "sistem_elektronik_id": 8200
      }
    },
    {
      "type": "tdpseTerbit",
      "id": 7164,
      "attributes": {
        "nomor_pb_umku": "812011410320700830014",
        "nama": "LANGIT MUSIK",
        "website": "langitmusik.co.id",
        "sektor": "Sektor Teknologi Informasi dan Komunikasi",
        "nama_perusahaan": "TELEKOMUNIKASI SELULAR",
        "tanggal_daftar": "2022-07-19",
        "nomor_tanda_daftar": "000337.38/DJAI.PSE/07/2022",
        "qr_code": "https://pse.kominfo.go.id/storage/images/qr_code/b9f679b10548d9df65935725b09ffca6.png",
        "status_id": "TERDAFTAR",
        "sistem_elektronik_id": 7043
      }
    },
    {
      "type": "tdpseTerbit",
      "id": 7159,
      "attributes": {
        "nomor_pb_umku": "812011410320700830013",
        "nama": "CONDOR HEROES",
        "website": "condorheroes.duniagames.co.id",
        "sektor": "Sektor Teknologi Informasi dan Komunikasi",
        "nama_perusahaan": "TELEKOMUNIKASI SELULAR",
        "tanggal_daftar": "2022-07-19",
        "nomor_tanda_daftar": "000337.37/DJAI.PSE/07/2022",
        "qr_code": "https://pse.kominfo.go.id/storage/images/qr_code/ef212e128d44e05b7436ad0e962e1fa1.png",
        "status_id": "TERDAFTAR",
        "sistem_elektronik_id": 7037
      }
    },
    {
      "type": "tdpseTerbit",
      "id": 7135,
      "attributes": {
        "nomor_pb_umku": "812011410320700830012",
        "nama": "SHELLFIRE",
        "website": "-",
        "sektor": "Sektor Teknologi Informasi dan Komunikasi",
        "nama_perusahaan": "TELEKOMUNIKASI SELULAR",
        "tanggal_daftar": "2022-07-19",
        "nomor_tanda_daftar": "000337.36/DJAI.PSE/07/2022",
        "qr_code": "https://pse.kominfo.go.id/storage/images/qr_code/f95f7066f9a753f9094efe4d31539012.png",
        "status_id": "TERDAFTAR",
        "sistem_elektronik_id": 7011
      }
    },
    {
      "type": "tdpseTerbit",
      "id": 4593,
      "attributes": {
        "nomor_pb_umku": null,
        "nama": "FEED",
        "website": "feed.co.id",
        "sektor": "Sektor Teknologi Informasi dan Komunikasi",
        "nama_perusahaan": "TELEKOMUNIKASI SELULAR",
        "tanggal_daftar": "2022-04-21",
        "nomor_tanda_daftar": "000337.35/DJAI.PSE/04/2022",
        "qr_code": "https://pse.kominfo.go.id/storage/images/qr_code/6760a908fd0bc092025a48e332f7eca7.png",
        "status_id": "TERDAFTAR",
        "sistem_elektronik_id": 4556
      }
    },
    {
      "type": "tdpseTerbit",
      "id": 2733,
      "attributes": {
        "nomor_pb_umku": null,
        "nama": "tSurvey",
        "website": "tsurvey.id",
        "sektor": "Sektor Teknologi Informasi dan Komunikasi",
        "nama_perusahaan": "TELEKOMUNIKASI SELULAR",
        "tanggal_daftar": "2021-12-13",
        "nomor_tanda_daftar": "000337.34/DJAI.PSE/12/2021",
        "qr_code": "https://pse.kominfo.go.id/storage/images/qr_code/c55a10c2fcb2da65f73087fbf7bfcde5.png",
        "status_id": "TERDAFTAR",
        "sistem_elektronik_id": 4049
      }
    },
    {
      "type": "tdpseTerbit",
      "id": 2639,
      "attributes": {
        "nomor_pb_umku": null,
        "nama": "CloudX Meeting",
        "website": "cloudxmeeting.com",
        "sektor": "Sektor Teknologi Informasi dan Komunikasi",
        "nama_perusahaan": "TELEKOMUNIKASI SELULAR",
        "tanggal_daftar": "2021-12-07",
        "nomor_tanda_daftar": "000337.33/DJAI.PSE/12/2021",
        "qr_code": "https://pse.kominfo.go.id/storage/images/qr_code/0da393972611fff64516e879e48cf873.png",
        "status_id": "TERDAFTAR",
        "sistem_elektronik_id": 4048
      }
    }
  ]
}