{
  "meta": {
    "page": {
      "currentPage": 835,
      "from": 8341,
      "lastPage": 873,
      "perPage": 10,
      "to": 8350,
      "total": 8721
    }
  },
  "data": [
    {
      "type": "tdpseTerbit",
      "id": 2083,
      "attributes": {
        "nomor_pb_umku": null,
        "nama": "iLearn",
        "website": "https://ilearn.generali.co.id",
        "sektor": "Sektor Keuangan",
        "nama_perusahaan": "ASURANSI JIWA GENERALI INDONESIA",
        "tanggal_daftar": "2021-10-26",
        "nomor_tanda_daftar": "000217.09/DJAI.PSE/10/2021",
        "qr_code": "https://pse.kominfo.go.id/storage/images/qr_code/7b0787d444d38703011ea2883e7f8b5b.png",
        "status_id": "TERDAFTAR",
        "sistem_elektronik_id": 2693
      }
    },
    {
      "type": "tdpseTerbit",
      "id": 1527,
      "attributes": {
        "nomor_pb_umku": null,
        "nama": "iservices.generali.co.id",
        "website": "https://iservices.generali.co.id",
        "sektor": "Sektor Keuangan",
        "nama_perusahaan": "ASURANSI JIWA GENERALI INDONESIA",
        "tanggal_daftar": "2021-06-24",
        "nomor_tanda_daftar": "000217.08/DJAI.PSE/06/2021",
        "qr_code": "https://pse.kominfo.go.id/storage/images/qr_code/d728fa5f0cab4ee02ae70dce8e5f4512.png",
        "status_id": "TERDAFTAR",
        "sistem_elektronik_id": 2692
      }
    },
    {
      "type": "tdpseTerbit",
      "id": 1526,
      "attributes": {
        "nomor_pb_umku": null,
        "nama": "iPropose",
        "website": "-",
        "sektor": "Sektor Keuangan",
        "nama_perusahaan": "ASURANSI JIWA GENERALI INDONESIA",
        "tanggal_daftar": "2021-06-24",
        "nomor_tanda_daftar": "000217.07/DJAI.PSE/06/2021",
        "qr_code": "https://pse.kominfo.go.id/storage/images/qr_code/0824f7fa9a967ccfc48b2384d577a234.png",
        "status_id": "TERDAFTAR",
        "sistem_elektronik_id": 2691
      }
    },
    {
      "type": "tdpseTerbit",
      "id": 1412,
      "attributes": {
        "nomor_pb_umku": null,
        "nama": "iclick.generali.co.id",
        "website": "https://iclick.generali.co.id",
        "sektor": "Sektor Keuangan",
        "nama_perusahaan": "ASURANSI JIWA GENERALI INDONESIA",
        "tanggal_daftar": "2021-06-09",
        "nomor_tanda_daftar": "000217.06/DJAI.PSE/06/2021",
        "qr_code": "https://pse.kominfo.go.id/storage/images/qr_code/7caa6f042a7c2f2c84c13b7a2797a1d2.png",
        "status_id": "TERDAFTAR",
        "sistem_elektronik_id": 2690
      }
    },
    {
      "type": "tdpseTerbit",
      "id": 1391,
      "attributes": {
        "nomor_pb_umku": null,
        "nama": "Gen iClick",
        "website": "-",
        "sektor": "Sektor Keuangan",
        "nama_perusahaan": "ASURANSI JIWA GENERALI INDONESIA",
        "tanggal_daftar": "2021-06-09",
        "nomor_tanda_daftar": "000217.05/DJAI.PSE/06/2021",
        "qr_code": "https://pse.kominfo.go.id/storage/images/qr_code/829fb83eab06114807751af156822f11.png",
        "status_id": "TERDAFTAR",
        "sistem_elektronik_id": 2689
      }
    },
    {
      "type": "tdpseTerbit",
      "id": 1390,
      "attributes": {
        "nomor_pb_umku": null,
        "nama": "iconnectagency.generali.co.id",
        "website": "https://iconnectagency.generali.co.id/",
        "sektor": "Sektor Keuangan",
        "nama_perusahaan": "ASURANSI JIWA GENERALI INDONESIA",
        "tanggal_daftar": "2021-06-02",
        "nomor_tanda_daftar": "000217.04/DJAI.PSE/06/2021",
        "qr_code": "https://pse.kominfo.go.id/storage/images/qr_code/bb06c8d61c3d305c318c01b0596e2dab.png",
        "status_id": "TERDAFTAR",
        "sistem_elektronik_id": 2688
      }
    },
    {
      "type": "tdpseTerbit",
      "id": 1381,
      "attributes": {
        "nomor_pb_umku": null,
        "nama": "Generali Agency - mConnect",
        "website": "-",
        "sektor": "Sektor Keuangan, Sektor Perdagangan",
        "nama_perusahaan": "ASURANSI JIWA GENERALI INDONESIA",
        "tanggal_daftar": "2021-06-02",
        "nomor_tanda_daftar": "000217.03/DJAI.PSE/06/2021",
        "qr_code": "https://pse.kominfo.go.id/storage/images/qr_code/3d45a8b7df30cf81eda26233ca7576c4.png",
        "status_id": "TERDAFTAR",
        "sistem_elektronik_id": 2687
      }
    },
    {
      "type": "tdpseTerbit",
      "id": 278,
      "attributes": {
        "nomor_pb_umku": null,
        "nama": "Sahabat Berbagi",
        "website": "-",
        "sektor": "Sektor Keuangan, Sektor Perdagangan",
        "nama_perusahaan": "ASURANSI JIWA GENERALI INDONESIA",
        "tanggal_daftar": "2021-03-04",
        "nomor_tanda_daftar": "000217.02/DJAI.PSE/03/2021",
        "qr_code": "https://pse.kominfo.go.id/storage/images/qr_code/51c12436e415ee40350e6a28367c1e52.png",
        "status_id": "TERDAFTAR",
        "sistem_elektronik_id": 2686
      }
    },
    {
      "type": "tdpseTerbit",
      "id": 255,
      "attributes": {
        "nomor_pb_umku": null,
        "nama": "Generali Website",
        "website": "www.generali.co.id",
        "sektor": "Sektor Keuangan, Sektor Perdagangan",
        "nama_perusahaan": "ASURANSI JIWA GENERALI INDONESIA",
        "tanggal_daftar": "2021-02-25",
        "nomor_tanda_daftar": "000217.01/DJAI.PSE/02/2021",
        "qr_code": "https://pse.kominfo.go.id/storage/images/qr_code/1584aa92a596ffcb7f00a47c204f291a.png",
        "status_id": "TERDAFTAR",
        "sistem_elektronik_id": 2685
      }
    },
    {
      "type": "tdpseTerbit",
      "id": 254,
      "attributes": {
        "nomor_pb_umku": null,
        "nama": "Aplikasi Grab",
        "website": "www.grab.com",
        "sektor": "Sektor Perdagangan",
        "nama_perusahaan": "GRAB TEKNOLOGI INDONESIA",
        "tanggal_daftar": "2021-02-25",
        "nomor_tanda_daftar": "000216.01/DJAI.PSE/02/2021",
        "qr_code": "https://pse.kominfo.go.id/storage/images/qr_code/5618bf268cb5e81b3835efbad3f810ab.png",
        "status_id": "TERDAFTAR",
        "sistem_elektronik_id": 2785
      }
    }
  ]
}