{
  "meta": {
    "page": {
      "currentPage": 836,
      "from": 8351,
      "lastPage": 1038,
      "perPage": 10,
      "to": 8360,
      "total": 10380
    }
  },
  "data": [
    {
      "type": "tdpseTerbit",
      "id": 1514,
      "attributes": {
        "nomor_pb_umku": null,
        "nama": "Daisi",
        "website": "https://daisi.id",
        "sektor": "Sektor Teknologi Informasi dan Komunikasi",
        "nama_perusahaan": "TIMKADO SEJAHTERA INDONESIA",
        "tanggal_daftar": "2021-06-24",
        "nomor_tanda_daftar": "000992.01/DJAI.PSE/06/2021",
        "qr_code": "https://pse.kominfo.go.id/storage/images/qr_code/76f0e318d0e662ff4b47a1a33b0bc726.png",
        "status_id": "TERDAFTAR",
        "sistem_elektronik_id": 1098
      }
    },
    {
      "type": "tdpseTerbit",
      "id": 4208,
      "attributes": {
        "nomor_pb_umku": "125000055234400010001",
        "nama": "BIGBOXASIA",
        "website": "bigboxasia.co.id",
        "sektor": "Sektor Perdagangan, Sektor Pangan",
        "nama_perusahaan": "DPO INDONESIA FMCG",
        "tanggal_daftar": "2022-06-02",
        "nomor_tanda_daftar": "000991.02/DJAI.PSE/06/2022",
        "qr_code": "https://pse.kominfo.go.id/storage/images/qr_code/8668885808c73a400b4d6643dc6029e8.png",
        "status_id": "TERDAFTAR",
        "sistem_elektronik_id": 4207
      }
    },
    {
      "type": "tdpseTerbit",
      "id": 1513,
      "attributes": {
        "nomor_pb_umku": null,
        "nama": "Nama Website : BIGboxAsia",
        "website": "bigboxasia.co.id",
        "sektor": "Sektor Pangan, Sektor Perdagangan",
        "nama_perusahaan": "DPO INDONESIA FMCG",
        "tanggal_daftar": "2021-06-24",
        "nomor_tanda_daftar": "000991.01/DJAI.PSE/06/2021",
        "qr_code": "https://pse.kominfo.go.id/storage/images/qr_code/62d4f2f0829bcfc3a1db8b0ce5d22270.png",
        "status_id": "TERDAFTAR",
        "sistem_elektronik_id": 951
      }
    },
    {
      "type": "tdpseTerbit",
      "id": 1512,
      "attributes": {
        "nomor_pb_umku": null,
        "nama": "Sahabatbangsa.com",
        "website": "www.sahabatbangsa.com",
        "sektor": "Sektor Keuangan, Sektor Pangan, Sektor Perdagangan, Sektor Teknologi Informasi dan Komunikasi",
        "nama_perusahaan": "SAHABAT SUKSES BANGSA",
        "tanggal_daftar": "2021-06-24",
        "nomor_tanda_daftar": "000990.01/DJAI.PSE/06/2021",
        "qr_code": "https://pse.kominfo.go.id/storage/images/qr_code/473c6f171ff75087175a3696028d4b01.png",
        "status_id": "TERDAFTAR",
        "sistem_elektronik_id": 1096
      }
    },
    {
      "type": "tdpseTerbit",
      "id": 1511,
      "attributes": {
        "nomor_pb_umku": null,
        "nama": "PT JEJARING CEPAT INDONESIA",
        "website": "https://www.goldenfast.net/index.html",
        "sektor": "Sektor Teknologi Informasi dan Komunikasi",
        "nama_perusahaan": "JEJARING CEPAT INDONESIA",
        "tanggal_daftar": "2021-06-24",
        "nomor_tanda_daftar": "000989.01/DJAI.PSE/06/2021",
        "qr_code": "https://pse.kominfo.go.id/storage/images/qr_code/04e967cc5221527b5c254cb7c99d0d24.png",
        "status_id": "TERDAFTAR",
        "sistem_elektronik_id": 1105
      }
    },
    {
      "type": "tdpseTerbit",
      "id": 1510,
      "attributes": {
        "nomor_pb_umku": null,
        "nama": "IndexQu",
        "website": "https://www.bankindex.co.id/",
        "sektor": "Sektor Keuangan",
        "nama_perusahaan": "BANK INDEX SELINDO",
        "tanggal_daftar": "2021-06-24",
        "nomor_tanda_daftar": "000988.03/DJAI.PSE/06/2021",
        "qr_code": "https://pse.kominfo.go.id/storage/images/qr_code/48c61033fb2605db29ecf49e7e80e083.png",
        "status_id": "TERDAFTAR",
        "sistem_elektronik_id": 909
      }
    },
    {
      "type": "tdpseTerbit",
      "id": 1509,
      "attributes": {
        "nomor_pb_umku": null,
        "nama": "IndexQu Business",
        "website": "https://www.bankindex.co.id/",
        "sektor": "Sektor Keuangan",
        "nama_perusahaan": "BANK INDEX SELINDO",
        "tanggal_daftar": "2021-06-24",
        "nomor_tanda_daftar": "000988.02/DJAI.PSE/06/2021",
        "qr_code": "https://pse.kominfo.go.id/storage/images/qr_code/319ea4dc2a2fb2baf9db8fb0b129b138.png",
        "status_id": "TERDAFTAR",
        "sistem_elektronik_id": 908
      }
    },
    {
      "type": "tdpseTerbit",
      "id": 1508,
      "attributes": {
        "nomor_pb_umku": null,
        "nama": "Website",
        "website": "https://www.bankindex.co.id/",
        "sektor": "Sektor Keuangan",
        "nama_perusahaan": "BANK INDEX SELINDO",
        "tanggal_daftar": "2021-06-24",
        "nomor_tanda_daftar": "000988.01/DJAI.PSE/06/2021",
        "qr_code": "https://pse.kominfo.go.id/storage/images/qr_code/2333eb2b5dfa2127907ffd27cdf31529.png",
        "status_id": "TERDAFTAR",
        "sistem_elektronik_id": 907
      }
    },
    {
      "type": "tdpseTerbit",
      "id": 1507,
      "attributes": {
        "nomor_pb_umku": null,
        "nama": "serscode",
        "website": "www.serscode.com",
        "sektor": "Sektor Teknologi Informasi dan Komunikasi",
        "nama_perusahaan": "GLOBAL SERSCODE TECH",
        "tanggal_daftar": "2021-06-24",
        "nomor_tanda_daftar": "000987.01/DJAI.PSE/06/2021",
        "qr_code": "https://pse.kominfo.go.id/storage/images/qr_code/3df3a9ddad24bb941bd7a43b91a3451c.png",
        "status_id": "TERDAFTAR",
        "sistem_elektronik_id": 726
      }
    },
    {
      "type": "tdpseTerbit",
      "id": 1506,
      "attributes": {
        "nomor_pb_umku": null,
        "nama": "komunitassahabatsehat.com",
        "website": "komunitassahabatsehat.com",
        "sektor": "Sektor Teknologi Informasi dan Komunikasi",
        "nama_perusahaan": "KOMUNITAS SAHABAT SEHAT",
        "tanggal_daftar": "2021-06-24",
        "nomor_tanda_daftar": "000986.01/DJAI.PSE/06/2021",
        "qr_code": "https://pse.kominfo.go.id/storage/images/qr_code/13e7565fb2f759f725ee63b5a544ee09.png",
        "status_id": "TERDAFTAR",
        "sistem_elektronik_id": 1089
      }
    }
  ]
}