{
  "meta": {
    "page": {
      "currentPage": 837,
      "from": 8361,
      "lastPage": 931,
      "perPage": 10,
      "to": 8370,
      "total": 9301
    }
  },
  "data": [
    {
      "type": "tdpseTerbit",
      "id": 2321,
      "attributes": {
        "nomor_pb_umku": null,
        "nama": "Wanipiro",
        "website": "wanipiro.com",
        "sektor": "Sektor Perdagangan, Sektor Teknologi Informasi dan Komunikasi",
        "nama_perusahaan": "GEMANUSA SENTRA TEKNOLOGI",
        "tanggal_daftar": "2021-11-08",
        "nomor_tanda_daftar": "000464.02/DJAI.PSE/11/2021",
        "qr_code": "https://pse.kominfo.go.id/storage/images/qr_code/7e9d463ea1482fd2111f81c696dc1eae.png",
        "status_id": "TERDAFTAR",
        "sistem_elektronik_id": 3250
      }
    },
    {
      "type": "tdpseTerbit",
      "id": 4193,
      "attributes": {
        "nomor_pb_umku": "022020063190900030002",
        "nama": "WINPAY",
        "website": "winpay.id",
        "sektor": "Sektor Keuangan",
        "nama_perusahaan": "BIMASAKTI MULTI SINERGI",
        "tanggal_daftar": "2022-05-31",
        "nomor_tanda_daftar": "000464.01/DJAI.PSE/05/2022",
        "qr_code": "https://pse.kominfo.go.id/storage/images/qr_code/f67bcae78e03f0ce137ca71b11fe92d3.png",
        "status_id": "TERDAFTAR",
        "sistem_elektronik_id": 4195
      }
    },
    {
      "type": "tdpseTerbit",
      "id": 569,
      "attributes": {
        "nomor_pb_umku": null,
        "nama": "SixtydB",
        "website": "www.sixtydb.com",
        "sektor": "Sektor Perdagangan, Sektor Teknologi Informasi dan Komunikasi",
        "nama_perusahaan": "GEMANUSA SENTRA TEKNOLOGI",
        "tanggal_daftar": "2021-04-26",
        "nomor_tanda_daftar": "000464.01/DJAI.PSE/04/2021",
        "qr_code": "https://pse.kominfo.go.id/storage/images/qr_code/237daa9cdc5be1035f50722332d6613e.png",
        "status_id": "TERDAFTAR",
        "sistem_elektronik_id": 3249
      }
    },
    {
      "type": "tdpseTerbit",
      "id": 4192,
      "attributes": {
        "nomor_pb_umku": "022000030241700000001",
        "nama": "IDOGO",
        "website": "ido-go.com",
        "sektor": "Sektor Teknologi Informasi dan Komunikasi",
        "nama_perusahaan": "MOBILE DATA INDONESIA",
        "tanggal_daftar": "2022-05-31",
        "nomor_tanda_daftar": "000463.01/DJAI.PSE/05/2022",
        "qr_code": "https://pse.kominfo.go.id/storage/images/qr_code/635153bf16901bf317943306d58596e4.png",
        "status_id": "TERDAFTAR",
        "sistem_elektronik_id": 4194
      }
    },
    {
      "type": "tdpseTerbit",
      "id": 568,
      "attributes": {
        "nomor_pb_umku": null,
        "nama": "Yodu",
        "website": "www.yodu.id",
        "sektor": "Sektor Keuangan, Sektor Perdagangan",
        "nama_perusahaan": "AKASANET BUMI NUSANTARA",
        "tanggal_daftar": "2021-04-26",
        "nomor_tanda_daftar": "000463.01/DJAI.PSE/04/2021",
        "qr_code": "https://pse.kominfo.go.id/storage/images/qr_code/46ab6dbc86dfc725d5bf207474e547f7.png",
        "status_id": "TERDAFTAR",
        "sistem_elektronik_id": 213
      }
    },
    {
      "type": "tdpseTerbit",
      "id": 567,
      "attributes": {
        "nomor_pb_umku": null,
        "nama": "Toko1001",
        "website": "www.toko1001.id",
        "sektor": "Sektor Perdagangan, Sektor Teknologi Informasi dan Komunikasi",
        "nama_perusahaan": "DELTAMAS MANDIRI SEJAHTERA",
        "tanggal_daftar": "2021-04-26",
        "nomor_tanda_daftar": "000462.01/DJAI.PSE/04/2021",
        "qr_code": "https://pse.kominfo.go.id/storage/images/qr_code/b0439341fea8719772c7aa49efe17eab.png",
        "status_id": "TERDAFTAR",
        "sistem_elektronik_id": 371
      }
    },
    {
      "type": "tdpseTerbit",
      "id": 566,
      "attributes": {
        "nomor_pb_umku": null,
        "nama": "sephora.co.id",
        "website": "sephora.co.id",
        "sektor": "Sektor Perdagangan",
        "nama_perusahaan": "PANEN WANGI ABADI",
        "tanggal_daftar": "2021-04-26",
        "nomor_tanda_daftar": "000461.01/DJAI.PSE/04/2021",
        "qr_code": "https://pse.kominfo.go.id/storage/images/qr_code/b92f645815e3b48bdb0e11d448c96f3c.png",
        "status_id": "TERDAFTAR",
        "sistem_elektronik_id": 377
      }
    },
    {
      "type": "tdpseTerbit",
      "id": 2763,
      "attributes": {
        "nomor_pb_umku": null,
        "nama": "OTTO",
        "website": "www.otto.id",
        "sektor": "Sektor Keuangan, Sektor Teknologi Informasi dan Komunikasi",
        "nama_perusahaan": "INDOARTHA PERKASA SUKSES",
        "tanggal_daftar": "2021-12-15",
        "nomor_tanda_daftar": "000460.02/DJAI.PSE/12/2021",
        "qr_code": "https://pse.kominfo.go.id/storage/images/qr_code/cf13dd99edfba228d6c6b6664d7a15c7.png",
        "status_id": "TERDAFTAR",
        "sistem_elektronik_id": 322
      }
    },
    {
      "type": "tdpseTerbit",
      "id": 565,
      "attributes": {
        "nomor_pb_umku": null,
        "nama": "PEDE",
        "website": "www.pede.id",
        "sektor": "Sektor Keuangan, Sektor Teknologi Informasi dan Komunikasi",
        "nama_perusahaan": "INDOARTHA PERKASA SUKSES",
        "tanggal_daftar": "2021-04-26",
        "nomor_tanda_daftar": "000460.01/DJAI.PSE/04/2021",
        "qr_code": "https://pse.kominfo.go.id/storage/images/qr_code/9d1dcd42b2370b9e5226e98eb78bc6ba.png",
        "status_id": "TERDAFTAR",
        "sistem_elektronik_id": 321
      }
    },
    {
      "type": "tdpseTerbit",
      "id": 564,
      "attributes": {
        "nomor_pb_umku": null,
        "nama": "UP",
        "website": "http://updigitaltransmilenial.co.id",
        "sektor": "Sektor Transportasi",
        "nama_perusahaan": "DIGITAL TRANS MILENIAL",
        "tanggal_daftar": "2021-04-26",
        "nomor_tanda_daftar": "000459.01/DJAI.PSE/04/2021",
        "qr_code": "https://pse.kominfo.go.id/storage/images/qr_code/116128dec7de30be90412cf5efc9f473.png",
        "status_id": "TERDAFTAR",
        "sistem_elektronik_id": 361
      }
    }
  ]
}