{
  "meta": {
    "page": {
      "currentPage": 838,
      "from": 8371,
      "lastPage": 944,
      "perPage": 10,
      "to": 8380,
      "total": 9434
    }
  },
  "data": [
    {
      "type": "tdpseTerbit",
      "id": 642,
      "attributes": {
        "nomor_pb_umku": null,
        "nama": "Website dan Aplikasi",
        "website": "https://shopee.co.id/",
        "sektor": "Sektor Perdagangan",
        "nama_perusahaan": "SHOPEE INTERNATIONAL INDONESIA",
        "tanggal_daftar": "2021-04-26",
        "nomor_tanda_daftar": "000525.01/DJAI.PSE/04/2021",
        "qr_code": "https://pse.kominfo.go.id/storage/images/qr_code/8588c44e1b8b3fadcb8f3988efe3ec99.png",
        "status_id": "TERDAFTAR",
        "sistem_elektronik_id": 2364
      }
    },
    {
      "type": "tdpseTerbit",
      "id": 641,
      "attributes": {
        "nomor_pb_umku": null,
        "nama": "Minasa Social Banking",
        "website": "https://socialbanking.id",
        "sektor": "Sektor Teknologi Informasi dan Komunikasi",
        "nama_perusahaan": "MINASA FINTEKNOLOGI SYARIAH",
        "tanggal_daftar": "2021-04-26",
        "nomor_tanda_daftar": "000524.01/DJAI.PSE/04/2021",
        "qr_code": "https://pse.kominfo.go.id/storage/images/qr_code/242bf062b70e2bcb87349d8c9dbb04a6.png",
        "status_id": "TERDAFTAR",
        "sistem_elektronik_id": 3271
      }
    },
    {
      "type": "tdpseTerbit",
      "id": 10186,
      "attributes": {
        "nomor_pb_umku": "912050280164600000001",
        "nama": "MOLA RADIO",
        "website": "-",
        "sektor": "Sektor Teknologi Informasi dan Komunikasi",
        "nama_perusahaan": "GLOBAL MEDIA VISUAL",
        "tanggal_daftar": "2022-08-10",
        "nomor_tanda_daftar": "000523.02/DJAI.PSE/08/2022",
        "qr_code": "https://pse.kominfo.go.id/storage/images/qr_code/1a0ed1c75c992bc7bd2628c41334c6f2.png",
        "status_id": "TERDAFTAR",
        "sistem_elektronik_id": 9981
      }
    },
    {
      "type": "tdpseTerbit",
      "id": 640,
      "attributes": {
        "nomor_pb_umku": null,
        "nama": "Mola TV",
        "website": "www.mola.tv",
        "sektor": "Sektor Teknologi Informasi dan Komunikasi",
        "nama_perusahaan": "GLOBAL MEDIA VISUAL",
        "tanggal_daftar": "2021-04-26",
        "nomor_tanda_daftar": "000523.01/DJAI.PSE/04/2021",
        "qr_code": "https://pse.kominfo.go.id/storage/images/qr_code/075db14bbae7b0267e70cd23983d3d45.png",
        "status_id": "TERDAFTAR",
        "sistem_elektronik_id": 2596
      }
    },
    {
      "type": "tdpseTerbit",
      "id": 639,
      "attributes": {
        "nomor_pb_umku": null,
        "nama": "Tree+",
        "website": "www.treeplus.co.id",
        "sektor": "Sektor Keuangan",
        "nama_perusahaan": "SATRIO JAYA PERSADA",
        "tanggal_daftar": "2021-04-26",
        "nomor_tanda_daftar": "000522.01/DJAI.PSE/04/2021",
        "qr_code": "https://pse.kominfo.go.id/storage/images/qr_code/3c4bc20d39b596149ffa6958e079d8b8.png",
        "status_id": "TERDAFTAR",
        "sistem_elektronik_id": 383
      }
    },
    {
      "type": "tdpseTerbit",
      "id": 9417,
      "attributes": {
        "nomor_pb_umku": "",
        "nama": "ADOPE INDONESIA",
        "website": "adope.co.id",
        "sektor": "Sektor Perdagangan, Sektor Teknologi Informasi dan Komunikasi",
        "nama_perusahaan": "ANDALAN DOMPET PUTERA INDONESIA",
        "tanggal_daftar": "2022-07-30",
        "nomor_tanda_daftar": "000521.06/DJAI.PSE/07/2022",
        "qr_code": "https://pse.kominfo.go.id/storage/images/qr_code/43a632b8a69d74a8a5a9a040525df251.png",
        "status_id": "TERDAFTAR",
        "sistem_elektronik_id": 9329
      }
    },
    {
      "type": "tdpseTerbit",
      "id": 8303,
      "attributes": {
        "nomor_pb_umku": "022201005088500060003",
        "nama": "INDOSALE.COM",
        "website": "indosale.com",
        "sektor": "Sektor Perdagangan, Sektor Teknologi Informasi dan Komunikasi",
        "nama_perusahaan": "ANDALAN DOMPET PUTERA INDONESIA",
        "tanggal_daftar": "2022-07-20",
        "nomor_tanda_daftar": "000521.05/DJAI.PSE/07/2022",
        "qr_code": "https://pse.kominfo.go.id/storage/images/qr_code/ed66eda6c9a264ca1f8aeb51889732b9.png",
        "status_id": "TERDAFTAR",
        "sistem_elektronik_id": 8224
      }
    },
    {
      "type": "tdpseTerbit",
      "id": 8280,
      "attributes": {
        "nomor_pb_umku": "022201005088500060002",
        "nama": "PT. ANDALAN DOMPET PUTERA INDONESIA",
        "website": "adope.co.id",
        "sektor": "Sektor Teknologi Informasi dan Komunikasi",
        "nama_perusahaan": "ANDALAN DOMPET PUTERA INDONESIA",
        "tanggal_daftar": "2022-07-20",
        "nomor_tanda_daftar": "000521.04/DJAI.PSE/07/2022",
        "qr_code": "https://pse.kominfo.go.id/storage/images/qr_code/bd9d7797903268de557fe5e09e81ac65.png",
        "status_id": "TERDAFTAR",
        "sistem_elektronik_id": 8196
      }
    },
    {
      "type": "tdpseTerbit",
      "id": 8263,
      "attributes": {
        "nomor_pb_umku": "022201005088500060001",
        "nama": "ANDALAN DOMPET PUTERA INDONESIA",
        "website": "adope.co.id",
        "sektor": "Sektor Perdagangan, Sektor Transportasi, Sektor Teknologi Informasi dan Komunikasi",
        "nama_perusahaan": "ANDALAN DOMPET PUTERA INDONESIA",
        "tanggal_daftar": "2022-07-20",
        "nomor_tanda_daftar": "000521.03/DJAI.PSE/07/2022",
        "qr_code": "https://pse.kominfo.go.id/storage/images/qr_code/add592233a974f76212c5fe83e6b7a4d.png",
        "status_id": "TERDAFTAR",
        "sistem_elektronik_id": 8180
      }
    },
    {
      "type": "tdpseTerbit",
      "id": 649,
      "attributes": {
        "nomor_pb_umku": null,
        "nama": "ADOPEJEK",
        "website": "www.adope.co.id",
        "sektor": "Sektor Perdagangan, Sektor Transportasi",
        "nama_perusahaan": "ANDALAN DOMPET PUTERA INDONESIA",
        "tanggal_daftar": "2021-04-26",
        "nomor_tanda_daftar": "000521.02/DJAI.PSE/04/2021",
        "qr_code": "https://pse.kominfo.go.id/storage/images/qr_code/de8c41d4fc3455ce3364d5838dd49fc2.png",
        "status_id": "TERDAFTAR",
        "sistem_elektronik_id": 3270
      }
    }
  ]
}