{
  "meta": {
    "page": {
      "currentPage": 839,
      "from": 8381,
      "lastPage": 896,
      "perPage": 10,
      "to": 8390,
      "total": 8957
    }
  },
  "data": [
    {
      "type": "tdpseTerbit",
      "id": 4295,
      "attributes": {
        "nomor_pb_umku": "250422004020500020001",
        "nama": "RINGKAS",
        "website": "ringkas.co.id",
        "sektor": "Sektor Perdagangan, Sektor Teknologi Informasi dan Komunikasi",
        "nama_perusahaan": "RINGKAS ASIA TECHNOLOGY",
        "tanggal_daftar": "2022-06-08",
        "nomor_tanda_daftar": "000307.01/DJAI.PSE/06/2022",
        "qr_code": "https://pse.kominfo.go.id/storage/images/qr_code/8aee64b875aeb0b239e8435bcc01d792.png",
        "status_id": "TERDAFTAR",
        "sistem_elektronik_id": 4289
      }
    },
    {
      "type": "tdpseTerbit",
      "id": 376,
      "attributes": {
        "nomor_pb_umku": null,
        "nama": "PINK MONEY",
        "website": "Http://www.pinkmoney.com",
        "sektor": "Sektor Teknologi Informasi dan Komunikasi",
        "nama_perusahaan": "SIMPAN PINJAM DANA LESTARI INDONESIA",
        "tanggal_daftar": "2021-03-15",
        "nomor_tanda_daftar": "000307.01/DJAI.PSE/03/2021",
        "qr_code": "https://pse.kominfo.go.id/storage/images/qr_code/1025b995595ea7814af45d9236bfee74.png",
        "status_id": "TERDAFTAR",
        "sistem_elektronik_id": 156
      }
    },
    {
      "type": "tdpseTerbit",
      "id": 375,
      "attributes": {
        "nomor_pb_umku": null,
        "nama": "DOMPET KITA",
        "website": "Http://www.dompetkita.com",
        "sektor": "Sektor Teknologi Informasi dan Komunikasi",
        "nama_perusahaan": "SIMPAN PINJAM RAYA PUTRA MANDIRI",
        "tanggal_daftar": "2021-03-15",
        "nomor_tanda_daftar": "000306.01/DJAI.PSE/03/2021",
        "qr_code": "https://pse.kominfo.go.id/storage/images/qr_code/5c59226a54d52a0d24d2d25594feab8c.png",
        "status_id": "TERDAFTAR",
        "sistem_elektronik_id": 145
      }
    },
    {
      "type": "tdpseTerbit",
      "id": 382,
      "attributes": {
        "nomor_pb_umku": null,
        "nama": "Website Sun Life Financial Indonesia",
        "website": "https://www.sunlife.co.id/",
        "sektor": "Sektor Keuangan",
        "nama_perusahaan": "SUN LIFE FINANCIAL INDONESIA",
        "tanggal_daftar": "2021-03-15",
        "nomor_tanda_daftar": "000305.04/DJAI.PSE/03/2021",
        "qr_code": "https://pse.kominfo.go.id/storage/images/qr_code/8bee8c3c1faf42521f0b13c61f68471c.png",
        "status_id": "TERDAFTAR",
        "sistem_elektronik_id": 2609
      }
    },
    {
      "type": "tdpseTerbit",
      "id": 381,
      "attributes": {
        "nomor_pb_umku": null,
        "nama": "My Sun Life",
        "website": "https://client.sunlife.co.id/",
        "sektor": "Sektor Keuangan",
        "nama_perusahaan": "SUN LIFE FINANCIAL INDONESIA",
        "tanggal_daftar": "2021-03-15",
        "nomor_tanda_daftar": "000305.03/DJAI.PSE/03/2021",
        "qr_code": "https://pse.kominfo.go.id/storage/images/qr_code/389847bbf2797a338097a179736bbc26.png",
        "status_id": "TERDAFTAR",
        "sistem_elektronik_id": 2608
      }
    },
    {
      "type": "tdpseTerbit",
      "id": 380,
      "attributes": {
        "nomor_pb_umku": null,
        "nama": "Sun Smart",
        "website": "-",
        "sektor": "Sektor Keuangan",
        "nama_perusahaan": "SUN LIFE FINANCIAL INDONESIA",
        "tanggal_daftar": "2021-03-15",
        "nomor_tanda_daftar": "000305.02/DJAI.PSE/03/2021",
        "qr_code": "https://pse.kominfo.go.id/storage/images/qr_code/e44884091d21ab76a47142ec488244b3.png",
        "status_id": "TERDAFTAR",
        "sistem_elektronik_id": 2607
      }
    },
    {
      "type": "tdpseTerbit",
      "id": 4105,
      "attributes": {
        "nomor_pb_umku": "022010178146900010001",
        "nama": "PERQARA",
        "website": "perqara.com",
        "sektor": "Sektor Perdagangan, Sektor Teknologi Informasi dan Komunikasi",
        "nama_perusahaan": "LIMA VENTURA INDONESIA",
        "tanggal_daftar": "2022-05-23",
        "nomor_tanda_daftar": "000305.01/DJAI.PSE/05/2022",
        "qr_code": "https://pse.kominfo.go.id/storage/images/qr_code/98e5c7f9998faf28f15dadcbf3737a9b.png",
        "status_id": "TERDAFTAR",
        "sistem_elektronik_id": 4104
      }
    },
    {
      "type": "tdpseTerbit",
      "id": 374,
      "attributes": {
        "nomor_pb_umku": null,
        "nama": "Sun Connect",
        "website": "https://b2b.sunlife.co.id/sun-connect-advisor/",
        "sektor": "Sektor Keuangan",
        "nama_perusahaan": "SUN LIFE FINANCIAL INDONESIA",
        "tanggal_daftar": "2021-03-15",
        "nomor_tanda_daftar": "000305.01/DJAI.PSE/03/2021",
        "qr_code": "https://pse.kominfo.go.id/storage/images/qr_code/b410141514493021bbe691ef7db8cf6c.png",
        "status_id": "TERDAFTAR",
        "sistem_elektronik_id": 2606
      }
    },
    {
      "type": "tdpseTerbit",
      "id": 4569,
      "attributes": {
        "nomor_pb_umku": "190522007657500010001",
        "nama": "SMARTCU",
        "website": "smartcu.id",
        "sektor": "Sektor Perdagangan",
        "nama_perusahaan": "PUSKOP CREDIT UNION INDONESIA",
        "tanggal_daftar": "2022-06-16",
        "nomor_tanda_daftar": "000304.01/DJAI.PSE/06/2022",
        "qr_code": "https://pse.kominfo.go.id/storage/images/qr_code/e3291dc07549bd249196de13d0848d5e.png",
        "status_id": "TERDAFTAR",
        "sistem_elektronik_id": 4532
      }
    },
    {
      "type": "tdpseTerbit",
      "id": 4106,
      "attributes": {
        "nomor_pb_umku": "912040526261600000001",
        "nama": "BUKAKIOS",
        "website": "bukakios.net",
        "sektor": "Sektor Teknologi Informasi dan Komunikasi",
        "nama_perusahaan": "APLIKASI KREASI INDONESIA",
        "tanggal_daftar": "2022-05-23",
        "nomor_tanda_daftar": "000304.01/DJAI.PSE/05/2022",
        "qr_code": "https://pse.kominfo.go.id/storage/images/qr_code/93141dafa195d01e881ce86cc4516003.png",
        "status_id": "TERDAFTAR",
        "sistem_elektronik_id": 4105
      }
    }
  ]
}