{
  "meta": {
    "page": {
      "currentPage": 840,
      "from": 8391,
      "lastPage": 994,
      "perPage": 10,
      "to": 8400,
      "total": 9936
    }
  },
  "data": [
    {
      "type": "tdpseTerbit",
      "id": 1027,
      "attributes": {
        "nomor_pb_umku": null,
        "nama": "Finmas",
        "website": "https://www.finmas.co.id",
        "sektor": "Sektor Keuangan",
        "nama_perusahaan": "ORIENTE MAS SEJAHTERA",
        "tanggal_daftar": "2021-05-18",
        "nomor_tanda_daftar": "000767.01/DJAI.PSE/05/2021",
        "qr_code": "https://pse.kominfo.go.id/storage/images/qr_code/84d588b1dc3bdc7ad30589dc3371c654.png",
        "status_id": "TERDAFTAR",
        "sistem_elektronik_id": 763
      }
    },
    {
      "type": "tdpseTerbit",
      "id": 1026,
      "attributes": {
        "nomor_pb_umku": null,
        "nama": "Wahana Honda",
        "website": "-",
        "sektor": "Sektor Perdagangan",
        "nama_perusahaan": "WAHANA MAKMUR SEJATI",
        "tanggal_daftar": "2021-05-18",
        "nomor_tanda_daftar": "000766.01/DJAI.PSE/05/2021",
        "qr_code": "https://pse.kominfo.go.id/storage/images/qr_code/58f94fd01f49de04701316e1da75478d.png",
        "status_id": "TERDAFTAR",
        "sistem_elektronik_id": 643
      }
    },
    {
      "type": "tdpseTerbit",
      "id": 2349,
      "attributes": {
        "nomor_pb_umku": null,
        "nama": "Bussan Auto Finance (BAF) Sandia",
        "website": "sandia.baf.id",
        "sektor": "Sektor Keuangan",
        "nama_perusahaan": "BUSSAN AUTO FINANCE",
        "tanggal_daftar": "2021-11-08",
        "nomor_tanda_daftar": "000765.04/DJAI.PSE/11/2021",
        "qr_code": "https://pse.kominfo.go.id/storage/images/qr_code/fd5ca653fa7e8608eddda0b270f591f7.png",
        "status_id": "TERDAFTAR",
        "sistem_elektronik_id": 749
      }
    },
    {
      "type": "tdpseTerbit",
      "id": 1080,
      "attributes": {
        "nomor_pb_umku": null,
        "nama": "Bussan Auto Finance (BAF) Website",
        "website": "http://www.baf.id",
        "sektor": "Sektor Keuangan",
        "nama_perusahaan": "BUSSAN AUTO FINANCE",
        "tanggal_daftar": "2021-06-02",
        "nomor_tanda_daftar": "000765.02/DJAI.PSE/06/2021",
        "qr_code": "https://pse.kominfo.go.id/storage/images/qr_code/b3e63fbf6df368861395af8606a728a5.png",
        "status_id": "TERDAFTAR",
        "sistem_elektronik_id": 748
      }
    },
    {
      "type": "tdpseTerbit",
      "id": 1022,
      "attributes": {
        "nomor_pb_umku": null,
        "nama": "Bussan Auto Finance (BAF) Mobile",
        "website": "http://sandia.baf.id",
        "sektor": "Sektor Keuangan",
        "nama_perusahaan": "BUSSAN AUTO FINANCE",
        "tanggal_daftar": "2021-05-18",
        "nomor_tanda_daftar": "000765.01/DJAI.PSE/05/2021",
        "qr_code": "https://pse.kominfo.go.id/storage/images/qr_code/c8242f05571ad07228a1e354fa14ccb0.png",
        "status_id": "TERDAFTAR",
        "sistem_elektronik_id": 747
      }
    },
    {
      "type": "tdpseTerbit",
      "id": 9018,
      "attributes": {
        "nomor_pb_umku": "912030798250700020002",
        "nama": "SPOT BY SUCOR SEKURITAS",
        "website": "sucorsekuritas.com",
        "sektor": "Sektor Keuangan",
        "nama_perusahaan": "SUCOR SEKURITAS",
        "tanggal_daftar": "2022-07-25",
        "nomor_tanda_daftar": "000764.04/DJAI.PSE/07/2022",
        "qr_code": "https://pse.kominfo.go.id/storage/images/qr_code/ff702bf2a6196770f5241ad609727690.png",
        "status_id": "TERDAFTAR",
        "sistem_elektronik_id": 8932
      }
    },
    {
      "type": "tdpseTerbit",
      "id": 1024,
      "attributes": {
        "nomor_pb_umku": null,
        "nama": "Eform Sucor Sekuritas",
        "website": "https://sucorsekuritas.com",
        "sektor": "Sektor Keuangan",
        "nama_perusahaan": "SUCOR SEKURITAS",
        "tanggal_daftar": "2021-05-18",
        "nomor_tanda_daftar": "000764.03/DJAI.PSE/05/2021",
        "qr_code": "https://pse.kominfo.go.id/storage/images/qr_code/5f0773f259aef65dd7f8dbffbac024a8.png",
        "status_id": "TERDAFTAR",
        "sistem_elektronik_id": 754
      }
    },
    {
      "type": "tdpseTerbit",
      "id": 1023,
      "attributes": {
        "nomor_pb_umku": null,
        "nama": "website",
        "website": "https://sucorsekuritas.com",
        "sektor": "Sektor Keuangan",
        "nama_perusahaan": "SUCOR SEKURITAS",
        "tanggal_daftar": "2021-05-18",
        "nomor_tanda_daftar": "000764.02/DJAI.PSE/05/2021",
        "qr_code": "https://pse.kominfo.go.id/storage/images/qr_code/3c54c00700db75c3a235dd0a1c0ead08.png",
        "status_id": "TERDAFTAR",
        "sistem_elektronik_id": 753
      }
    },
    {
      "type": "tdpseTerbit",
      "id": 1021,
      "attributes": {
        "nomor_pb_umku": null,
        "nama": "SPOT NEW GENERATION_Desktop _Mobile",
        "website": "https://sucorsekuritas.com",
        "sektor": "Sektor Keuangan",
        "nama_perusahaan": "SUCOR SEKURITAS",
        "tanggal_daftar": "2021-05-18",
        "nomor_tanda_daftar": "000764.01/DJAI.PSE/05/2021",
        "qr_code": "https://pse.kominfo.go.id/storage/images/qr_code/0a8e3a09f853b4dd181883635b54ecea.png",
        "status_id": "TERDAFTAR",
        "sistem_elektronik_id": 752
      }
    },
    {
      "type": "tdpseTerbit",
      "id": 1020,
      "attributes": {
        "nomor_pb_umku": null,
        "nama": "ASETKU",
        "website": "www.asetku.co.id",
        "sektor": "Sektor Keuangan",
        "nama_perusahaan": "PINTAR INOVASI DIGITAL",
        "tanggal_daftar": "2021-05-18",
        "nomor_tanda_daftar": "000763.01/DJAI.PSE/05/2021",
        "qr_code": "https://pse.kominfo.go.id/storage/images/qr_code/db16ff27b091eb7da383db34f4034747.png",
        "status_id": "TERDAFTAR",
        "sistem_elektronik_id": 594
      }
    }
  ]
}