{
  "meta": {
    "page": {
      "currentPage": 841,
      "from": 8401,
      "lastPage": 926,
      "perPage": 10,
      "to": 8410,
      "total": 9252
    }
  },
  "data": [
    {
      "type": "tdpseTerbit",
      "id": 515,
      "attributes": {
        "nomor_pb_umku": null,
        "nama": "VMX.id",
        "website": "www.vmx.id",
        "sektor": "Sektor Perdagangan",
        "nama_perusahaan": "VARIASI MX",
        "tanggal_daftar": "2021-04-20",
        "nomor_tanda_daftar": "000419.01/DJAI.PSE/04/2021",
        "qr_code": "https://pse.kominfo.go.id/storage/images/qr_code/21a519a2e9145e1967ec26626fa2b631.png",
        "status_id": "TERDAFTAR",
        "sistem_elektronik_id": 291
      }
    },
    {
      "type": "tdpseTerbit",
      "id": 4161,
      "attributes": {
        "nomor_pb_umku": "221021004309800100001",
        "nama": "INDONESIA TES DAN TELEFARMASI (INATTI)",
        "website": "inatti.id",
        "sektor": "Sektor Kesehatan, Sektor Teknologi Informasi dan Komunikasi",
        "nama_perusahaan": "WEDEET DIGITAL INDONESIA",
        "tanggal_daftar": "2022-05-28",
        "nomor_tanda_daftar": "000418.01/DJAI.PSE/05/2022",
        "qr_code": "https://pse.kominfo.go.id/storage/images/qr_code/7e59cf6f09e74955cfe3ed9c700a2bdb.png",
        "status_id": "TERDAFTAR",
        "sistem_elektronik_id": 4167
      }
    },
    {
      "type": "tdpseTerbit",
      "id": 514,
      "attributes": {
        "nomor_pb_umku": null,
        "nama": "88BANGUNAN/ BABA",
        "website": "http://www.88bangunan.co.id; http://indo1688.com",
        "sektor": "Sektor Perdagangan",
        "nama_perusahaan": "BABA BANGUNAN JAYA",
        "tanggal_daftar": "2021-04-20",
        "nomor_tanda_daftar": "000418.01/DJAI.PSE/04/2021",
        "qr_code": "https://pse.kominfo.go.id/storage/images/qr_code/3bd57e1243777ed74f8c8fa8f6e62ea1.png",
        "status_id": "TERDAFTAR",
        "sistem_elektronik_id": 352
      }
    },
    {
      "type": "tdpseTerbit",
      "id": 1492,
      "attributes": {
        "nomor_pb_umku": null,
        "nama": "K-MART",
        "website": "-",
        "sektor": "Sektor Perdagangan",
        "nama_perusahaan": "K-LINK NUSANTARA",
        "tanggal_daftar": "2021-06-14",
        "nomor_tanda_daftar": "000417.02/DJAI.PSE/06/2021",
        "qr_code": "https://pse.kominfo.go.id/storage/images/qr_code/c31d5f0080e89bf9bca5bf0aa5dacfcb.png",
        "status_id": "TERDAFTAR",
        "sistem_elektronik_id": 147
      }
    },
    {
      "type": "tdpseTerbit",
      "id": 513,
      "attributes": {
        "nomor_pb_umku": null,
        "nama": "K-LINK DIGITAL NETWORK MARKETING",
        "website": "https://www.k-net.co.id/",
        "sektor": "Sektor Perdagangan",
        "nama_perusahaan": "K-LINK NUSANTARA",
        "tanggal_daftar": "2021-04-20",
        "nomor_tanda_daftar": "000417.01/DJAI.PSE/04/2021",
        "qr_code": "https://pse.kominfo.go.id/storage/images/qr_code/fa752b0bb309500778c3948c7781023a.png",
        "status_id": "TERDAFTAR",
        "sistem_elektronik_id": 146
      }
    },
    {
      "type": "tdpseTerbit",
      "id": 551,
      "attributes": {
        "nomor_pb_umku": null,
        "nama": "coop access",
        "website": "www.coopaccess.co.id",
        "sektor": "Sektor Keuangan",
        "nama_perusahaan": "INDONESIA PAYMENT INCORPORATED",
        "tanggal_daftar": "2021-04-26",
        "nomor_tanda_daftar": "000416.02/DJAI.PSE/04/2021",
        "qr_code": "https://pse.kominfo.go.id/storage/images/qr_code/1c6f24abd3621a421038ae42d7387dbd.png",
        "status_id": "TERDAFTAR",
        "sistem_elektronik_id": 3241
      }
    },
    {
      "type": "tdpseTerbit",
      "id": 4177,
      "attributes": {
        "nomor_pb_umku": "080322004229900020001",
        "nama": "ROBOCRYP",
        "website": "robocryp.com",
        "sektor": "Sektor Keuangan",
        "nama_perusahaan": "ROBOCRYP TEKNOLOGI INVESTASI",
        "tanggal_daftar": "2022-05-30",
        "nomor_tanda_daftar": "000416.01/DJAI.PSE/05/2022",
        "qr_code": "https://pse.kominfo.go.id/storage/images/qr_code/e07b0f5e6a20c2da1bf38e8ed098a7a6.png",
        "status_id": "TERDAFTAR",
        "sistem_elektronik_id": 4180
      }
    },
    {
      "type": "tdpseTerbit",
      "id": 512,
      "attributes": {
        "nomor_pb_umku": null,
        "nama": "coop access",
        "website": "www.coopaccess.co.id",
        "sektor": "Sektor Keuangan",
        "nama_perusahaan": "INDONESIA PAYMENT INCORPORATED",
        "tanggal_daftar": "2021-04-20",
        "nomor_tanda_daftar": "000416.01/DJAI.PSE/04/2021",
        "qr_code": "https://pse.kominfo.go.id/storage/images/qr_code/1e653011017568c165ca03c9dd356afe.png",
        "status_id": "TERDAFTAR",
        "sistem_elektronik_id": 3240
      }
    },
    {
      "type": "tdpseTerbit",
      "id": 511,
      "attributes": {
        "nomor_pb_umku": null,
        "nama": "duithape",
        "website": "www.duithape.com",
        "sektor": "Sektor Perdagangan",
        "nama_perusahaan": "VIRTUAL ONLINE EXCHANGE",
        "tanggal_daftar": "2021-04-20",
        "nomor_tanda_daftar": "000415.01/DJAI.PSE/04/2021",
        "qr_code": "https://pse.kominfo.go.id/storage/images/qr_code/7dca91694b870eab7a614f23e76d8313.png",
        "status_id": "TERDAFTAR",
        "sistem_elektronik_id": 324
      }
    },
    {
      "type": "tdpseTerbit",
      "id": 510,
      "attributes": {
        "nomor_pb_umku": null,
        "nama": "https://pastech.id",
        "website": "https://wix.com https://google.com",
        "sektor": "Sektor Perdagangan",
        "nama_perusahaan": "PIONIR ALFA SEJAHTERA",
        "tanggal_daftar": "2021-04-20",
        "nomor_tanda_daftar": "000414.01/DJAI.PSE/04/2021",
        "qr_code": "https://pse.kominfo.go.id/storage/images/qr_code/514786a909f1d7d46968cfc5469686c3.png",
        "status_id": "TERDAFTAR",
        "sistem_elektronik_id": 290
      }
    }
  ]
}