{
  "meta": {
    "page": {
      "currentPage": 843,
      "from": 8421,
      "lastPage": 949,
      "perPage": 10,
      "to": 8430,
      "total": 9482
    }
  },
  "data": [
    {
      "type": "tdpseTerbit",
      "id": 9417,
      "attributes": {
        "nomor_pb_umku": "",
        "nama": "ADOPE INDONESIA",
        "website": "adope.co.id",
        "sektor": "Sektor Perdagangan, Sektor Teknologi Informasi dan Komunikasi",
        "nama_perusahaan": "ANDALAN DOMPET PUTERA INDONESIA",
        "tanggal_daftar": "2022-07-30",
        "nomor_tanda_daftar": "000521.06/DJAI.PSE/07/2022",
        "qr_code": "https://pse.kominfo.go.id/storage/images/qr_code/43a632b8a69d74a8a5a9a040525df251.png",
        "status_id": "TERDAFTAR",
        "sistem_elektronik_id": 9329
      }
    },
    {
      "type": "tdpseTerbit",
      "id": 8303,
      "attributes": {
        "nomor_pb_umku": "022201005088500060003",
        "nama": "INDOSALE.COM",
        "website": "indosale.com",
        "sektor": "Sektor Perdagangan, Sektor Teknologi Informasi dan Komunikasi",
        "nama_perusahaan": "ANDALAN DOMPET PUTERA INDONESIA",
        "tanggal_daftar": "2022-07-20",
        "nomor_tanda_daftar": "000521.05/DJAI.PSE/07/2022",
        "qr_code": "https://pse.kominfo.go.id/storage/images/qr_code/ed66eda6c9a264ca1f8aeb51889732b9.png",
        "status_id": "TERDAFTAR",
        "sistem_elektronik_id": 8224
      }
    },
    {
      "type": "tdpseTerbit",
      "id": 8280,
      "attributes": {
        "nomor_pb_umku": "022201005088500060002",
        "nama": "PT. ANDALAN DOMPET PUTERA INDONESIA",
        "website": "adope.co.id",
        "sektor": "Sektor Teknologi Informasi dan Komunikasi",
        "nama_perusahaan": "ANDALAN DOMPET PUTERA INDONESIA",
        "tanggal_daftar": "2022-07-20",
        "nomor_tanda_daftar": "000521.04/DJAI.PSE/07/2022",
        "qr_code": "https://pse.kominfo.go.id/storage/images/qr_code/bd9d7797903268de557fe5e09e81ac65.png",
        "status_id": "TERDAFTAR",
        "sistem_elektronik_id": 8196
      }
    },
    {
      "type": "tdpseTerbit",
      "id": 8263,
      "attributes": {
        "nomor_pb_umku": "022201005088500060001",
        "nama": "ANDALAN DOMPET PUTERA INDONESIA",
        "website": "adope.co.id",
        "sektor": "Sektor Perdagangan, Sektor Transportasi, Sektor Teknologi Informasi dan Komunikasi",
        "nama_perusahaan": "ANDALAN DOMPET PUTERA INDONESIA",
        "tanggal_daftar": "2022-07-20",
        "nomor_tanda_daftar": "000521.03/DJAI.PSE/07/2022",
        "qr_code": "https://pse.kominfo.go.id/storage/images/qr_code/add592233a974f76212c5fe83e6b7a4d.png",
        "status_id": "TERDAFTAR",
        "sistem_elektronik_id": 8180
      }
    },
    {
      "type": "tdpseTerbit",
      "id": 649,
      "attributes": {
        "nomor_pb_umku": null,
        "nama": "ADOPEJEK",
        "website": "www.adope.co.id",
        "sektor": "Sektor Perdagangan, Sektor Transportasi",
        "nama_perusahaan": "ANDALAN DOMPET PUTERA INDONESIA",
        "tanggal_daftar": "2021-04-26",
        "nomor_tanda_daftar": "000521.02/DJAI.PSE/04/2021",
        "qr_code": "https://pse.kominfo.go.id/storage/images/qr_code/de8c41d4fc3455ce3364d5838dd49fc2.png",
        "status_id": "TERDAFTAR",
        "sistem_elektronik_id": 3270
      }
    },
    {
      "type": "tdpseTerbit",
      "id": 638,
      "attributes": {
        "nomor_pb_umku": null,
        "nama": "TOKOADOPE",
        "website": "www.tokoadope.com",
        "sektor": "Sektor Perdagangan",
        "nama_perusahaan": "ANDALAN DOMPET PUTERA INDONESIA",
        "tanggal_daftar": "2021-04-26",
        "nomor_tanda_daftar": "000521.01/DJAI.PSE/04/2021",
        "qr_code": "https://pse.kominfo.go.id/storage/images/qr_code/c714f832bd14873ec853afe83bd0c78b.png",
        "status_id": "TERDAFTAR",
        "sistem_elektronik_id": 3269
      }
    },
    {
      "type": "tdpseTerbit",
      "id": 637,
      "attributes": {
        "nomor_pb_umku": null,
        "nama": "PT. Verdhana Sekuritas Indonesia website",
        "website": "http://www.verdhana.id  dan https://www.verdhana.id",
        "sektor": "Sektor Keuangan",
        "nama_perusahaan": "VERDHANA SEKURITAS INDONESIA",
        "tanggal_daftar": "2021-04-26",
        "nomor_tanda_daftar": "000520.01/DJAI.PSE/04/2021",
        "qr_code": "https://pse.kominfo.go.id/storage/images/qr_code/09fe2282257debbc92844601b07910b2.png",
        "status_id": "TERDAFTAR",
        "sistem_elektronik_id": 423
      }
    },
    {
      "type": "tdpseTerbit",
      "id": 636,
      "attributes": {
        "nomor_pb_umku": null,
        "nama": "MEDINA",
        "website": "https://www.med-ina.co.id/",
        "sektor": "Sektor Kesehatan, Sektor Perdagangan, Sektor Teknologi Informasi dan Komunikasi",
        "nama_perusahaan": "MEDINA TEKNIK ALKESINDO",
        "tanggal_daftar": "2021-04-26",
        "nomor_tanda_daftar": "000519.01/DJAI.PSE/04/2021",
        "qr_code": "https://pse.kominfo.go.id/storage/images/qr_code/b5b117176b6c78a068f269a3bf1cbbdb.png",
        "status_id": "TERDAFTAR",
        "sistem_elektronik_id": 3268
      }
    },
    {
      "type": "tdpseTerbit",
      "id": 633,
      "attributes": {
        "nomor_pb_umku": null,
        "nama": "Maatloob",
        "website": "www.maatloob.com",
        "sektor": "Sektor Perdagangan, Sektor Teknologi Informasi dan Komunikasi",
        "nama_perusahaan": "SMART ONLINE MARKETING",
        "tanggal_daftar": "2021-04-26",
        "nomor_tanda_daftar": "000518.01/DJAI.PSE/04/2021",
        "qr_code": "https://pse.kominfo.go.id/storage/images/qr_code/b7c6060b0abf044d5f19921ec40cbb07.png",
        "status_id": "TERDAFTAR",
        "sistem_elektronik_id": 2651
      }
    },
    {
      "type": "tdpseTerbit",
      "id": 632,
      "attributes": {
        "nomor_pb_umku": null,
        "nama": "Solusi Bayar",
        "website": "https://solusibayar.co.id/",
        "sektor": "Sektor Teknologi Informasi dan Komunikasi",
        "nama_perusahaan": "SOLUSI PAYMENT INDONESIA",
        "tanggal_daftar": "2021-04-26",
        "nomor_tanda_daftar": "000517.01/DJAI.PSE/04/2021",
        "qr_code": "https://pse.kominfo.go.id/storage/images/qr_code/c46d068d1a038396f90fd0c5855ad568.png",
        "status_id": "TERDAFTAR",
        "sistem_elektronik_id": 120
      }
    }
  ]
}