{
  "meta": {
    "page": {
      "currentPage": 844,
      "from": 8431,
      "lastPage": 957,
      "perPage": 10,
      "to": 8440,
      "total": 9563
    }
  },
  "data": [
    {
      "type": "tdpseTerbit",
      "id": 1676,
      "attributes": {
        "nomor_pb_umku": null,
        "nama": "koin-master",
        "website": "www.koin-master.id",
        "sektor": "Sektor Keuangan",
        "nama_perusahaan": "INDO FINTEK DIGITAL",
        "tanggal_daftar": "2021-07-08",
        "nomor_tanda_daftar": "000562.02/DJAI.PSE/07/2021",
        "qr_code": "https://pse.kominfo.go.id/storage/images/qr_code/c178d25670609d4bf672c6304fbcf502.png",
        "status_id": "TERDAFTAR",
        "sistem_elektronik_id": 218
      }
    },
    {
      "type": "tdpseTerbit",
      "id": 692,
      "attributes": {
        "nomor_pb_umku": null,
        "nama": "MODAL USAHA",
        "website": "www.modalusaha.id",
        "sektor": "Sektor Keuangan",
        "nama_perusahaan": "INDO FINTEK DIGITAL",
        "tanggal_daftar": "2021-04-26",
        "nomor_tanda_daftar": "000562.01/DJAI.PSE/04/2021",
        "qr_code": "https://pse.kominfo.go.id/storage/images/qr_code/8647b287229f96b78c3512053cbb5893.png",
        "status_id": "TERDAFTAR",
        "sistem_elektronik_id": 217
      }
    },
    {
      "type": "tdpseTerbit",
      "id": 691,
      "attributes": {
        "nomor_pb_umku": null,
        "nama": "AVK",
        "website": "avkindonesia.co.id",
        "sektor": "Sektor Perdagangan",
        "nama_perusahaan": "AVOKADO TEKNOLOGI INDONESIA",
        "tanggal_daftar": "2021-04-26",
        "nomor_tanda_daftar": "000561.01/DJAI.PSE/04/2021",
        "qr_code": "https://pse.kominfo.go.id/storage/images/qr_code/456d0d9640a86617a40886b882286ba8.png",
        "status_id": "TERDAFTAR",
        "sistem_elektronik_id": 406
      }
    },
    {
      "type": "tdpseTerbit",
      "id": 690,
      "attributes": {
        "nomor_pb_umku": null,
        "nama": "POSKOTA",
        "website": "https://poskota.co.id/",
        "sektor": "Sektor Teknologi Informasi dan Komunikasi",
        "nama_perusahaan": "MEDIA ANTARKOTA JAYA",
        "tanggal_daftar": "2021-04-26",
        "nomor_tanda_daftar": "000560.01/DJAI.PSE/04/2021",
        "qr_code": "https://pse.kominfo.go.id/storage/images/qr_code/8d369ca7b3d267801121c5f3dfe21bba.png",
        "status_id": "TERDAFTAR",
        "sistem_elektronik_id": 348
      }
    },
    {
      "type": "tdpseTerbit",
      "id": 689,
      "attributes": {
        "nomor_pb_umku": null,
        "nama": "Findaya (Platform Pinjaman)",
        "website": "www.findaya.com, www.findaya.co.id",
        "sektor": "Sektor Keuangan",
        "nama_perusahaan": "MAPAN GLOBAL REKSA",
        "tanggal_daftar": "2021-04-26",
        "nomor_tanda_daftar": "000559.01/DJAI.PSE/04/2021",
        "qr_code": "https://pse.kominfo.go.id/storage/images/qr_code/13aaf91dfe5576d3df5a5858a999ba80.png",
        "status_id": "TERDAFTAR",
        "sistem_elektronik_id": 2619
      }
    },
    {
      "type": "tdpseTerbit",
      "id": 2603,
      "attributes": {
        "nomor_pb_umku": null,
        "nama": "REWARD CITY",
        "website": "WWW.REWARDCITY.CO.ID",
        "sektor": "Sektor Perdagangan",
        "nama_perusahaan": "KOTA HADIAH INDONESIA",
        "tanggal_daftar": "2021-12-02",
        "nomor_tanda_daftar": "000558.02/DJAI.PSE/12/2021",
        "qr_code": "https://pse.kominfo.go.id/storage/images/qr_code/9bb73807c49ca0af7ec2dae1f468bc6e.png",
        "status_id": "TERDAFTAR",
        "sistem_elektronik_id": 457
      }
    },
    {
      "type": "tdpseTerbit",
      "id": 688,
      "attributes": {
        "nomor_pb_umku": null,
        "nama": "Vici",
        "website": "www.vici-dynamic.id",
        "sektor": "Sektor Perdagangan",
        "nama_perusahaan": "KOTA HADIAH INDONESIA",
        "tanggal_daftar": "2021-04-26",
        "nomor_tanda_daftar": "000558.01/DJAI.PSE/04/2021",
        "qr_code": "https://pse.kominfo.go.id/storage/images/qr_code/51b70ac965f57b7dec825c0e8798300e.png",
        "status_id": "TERDAFTAR",
        "sistem_elektronik_id": 456
      }
    },
    {
      "type": "tdpseTerbit",
      "id": 687,
      "attributes": {
        "nomor_pb_umku": null,
        "nama": "REC Indonesia",
        "website": "https://rec-indonesia.id/",
        "sektor": "Sektor Perdagangan",
        "nama_perusahaan": "SERTIFIKAT ENERGI BERSIH",
        "tanggal_daftar": "2021-04-26",
        "nomor_tanda_daftar": "000557.01/DJAI.PSE/04/2021",
        "qr_code": "https://pse.kominfo.go.id/storage/images/qr_code/738823e664dd0afc9920da837c2ac9ec.png",
        "status_id": "TERDAFTAR",
        "sistem_elektronik_id": 3283
      }
    },
    {
      "type": "tdpseTerbit",
      "id": 686,
      "attributes": {
        "nomor_pb_umku": null,
        "nama": "InfraDigitalNusantara (IDN)",
        "website": "www.infradigital.co.id",
        "sektor": "Sektor Teknologi Informasi dan Komunikasi",
        "nama_perusahaan": "INFRA DIGITAL NUSANTARA",
        "tanggal_daftar": "2021-04-26",
        "nomor_tanda_daftar": "000556.01/DJAI.PSE/04/2021",
        "qr_code": "https://pse.kominfo.go.id/storage/images/qr_code/319227aad1a2cefbed61fd2bb1f32e9c.png",
        "status_id": "TERDAFTAR",
        "sistem_elektronik_id": 3282
      }
    },
    {
      "type": "tdpseTerbit",
      "id": 685,
      "attributes": {
        "nomor_pb_umku": null,
        "nama": "premiro.com",
        "website": "https://www.premiro.com/ https://slim.premiro.com/",
        "sektor": "Sektor Keuangan",
        "nama_perusahaan": "MITRA IBISNIS TERAPAN",
        "tanggal_daftar": "2021-04-26",
        "nomor_tanda_daftar": "000555.01/DJAI.PSE/04/2021",
        "qr_code": "https://pse.kominfo.go.id/storage/images/qr_code/d0b59d05c362dce3a343c8e6bb5f2f05.png",
        "status_id": "TERDAFTAR",
        "sistem_elektronik_id": 303
      }
    }
  ]
}