{
  "meta": {
    "page": {
      "currentPage": 845,
      "from": 8441,
      "lastPage": 1044,
      "perPage": 10,
      "to": 8450,
      "total": 10437
    }
  },
  "data": [
    {
      "type": "tdpseTerbit",
      "id": 1450,
      "attributes": {
        "nomor_pb_umku": null,
        "nama": "Jaklingko",
        "website": "www.jaklingkoindonesia.com",
        "sektor": "Sektor Perdagangan, Sektor Teknologi Informasi dan Komunikasi, Sektor Transportasi",
        "nama_perusahaan": "JAKARTA LINGKO INDONESIA",
        "tanggal_daftar": "2021-06-09",
        "nomor_tanda_daftar": "000969.01/DJAI.PSE/06/2021",
        "qr_code": "https://pse.kominfo.go.id/storage/images/qr_code/6c55c39d5d8ee6119e044b347f3e6299.png",
        "status_id": "TERDAFTAR",
        "sistem_elektronik_id": 1049
      }
    },
    {
      "type": "tdpseTerbit",
      "id": 1449,
      "attributes": {
        "nomor_pb_umku": null,
        "nama": "maulagi.id",
        "website": "-",
        "sektor": "Sektor Perdagangan",
        "nama_perusahaan": "MAULAGI INDO SOLUSI",
        "tanggal_daftar": "2021-06-09",
        "nomor_tanda_daftar": "000968.01/DJAI.PSE/06/2021",
        "qr_code": "https://pse.kominfo.go.id/storage/images/qr_code/60c9be8c5ed4b711fa10fc1871697d66.png",
        "status_id": "TERDAFTAR",
        "sistem_elektronik_id": 1050
      }
    },
    {
      "type": "tdpseTerbit",
      "id": 1448,
      "attributes": {
        "nomor_pb_umku": null,
        "nama": "kasku digital tech media/APPay/APPay market/APMob/Klikappay.co.id/klikappay/Irma Orasal",
        "website": "www.klikappay.co.id",
        "sektor": "Sektor Perdagangan",
        "nama_perusahaan": "KASKU DIGITAL TECH MEDIA",
        "tanggal_daftar": "2021-06-09",
        "nomor_tanda_daftar": "000967.01/DJAI.PSE/06/2021",
        "qr_code": "https://pse.kominfo.go.id/storage/images/qr_code/c6491d201ed4362266233c13e919da23.png",
        "status_id": "TERDAFTAR",
        "sistem_elektronik_id": 1061
      }
    },
    {
      "type": "tdpseTerbit",
      "id": 1447,
      "attributes": {
        "nomor_pb_umku": null,
        "nama": "PT QWORDS COMPANY INTERNATIONAL",
        "website": "https://www.qwords.com/",
        "sektor": "Sektor Teknologi Informasi dan Komunikasi",
        "nama_perusahaan": "QWORDS COMPANY INTERNATIONAL",
        "tanggal_daftar": "2021-06-09",
        "nomor_tanda_daftar": "000966.01/DJAI.PSE/06/2021",
        "qr_code": "https://pse.kominfo.go.id/storage/images/qr_code/63e8e22b9614af25ce08c9138c4dd5f3.png",
        "status_id": "TERDAFTAR",
        "sistem_elektronik_id": 1043
      }
    },
    {
      "type": "tdpseTerbit",
      "id": 4540,
      "attributes": {
        "nomor_pb_umku": "912021622193600030002",
        "nama": "NUSAWORK HR",
        "website": "nusawork.com",
        "sektor": "Sektor Teknologi Informasi dan Komunikasi",
        "nama_perusahaan": "MEDIA ANTAR NUSA",
        "tanggal_daftar": "2022-06-16",
        "nomor_tanda_daftar": "000965.02/DJAI.PSE/06/2022",
        "qr_code": "https://pse.kominfo.go.id/storage/images/qr_code/f5323c8bc617224a724ec0290a0facb9.png",
        "status_id": "TERDAFTAR",
        "sistem_elektronik_id": 4519
      }
    },
    {
      "type": "tdpseTerbit",
      "id": 1446,
      "attributes": {
        "nomor_pb_umku": null,
        "nama": "Media Antar Nusa",
        "website": "https://www.nusa.id",
        "sektor": "Sektor Teknologi Informasi dan Komunikasi",
        "nama_perusahaan": "MEDIA ANTAR NUSA",
        "tanggal_daftar": "2021-06-09",
        "nomor_tanda_daftar": "000965.01/DJAI.PSE/06/2021",
        "qr_code": "https://pse.kominfo.go.id/storage/images/qr_code/aa534622c764222169e178e33ec65dc3.png",
        "status_id": "TERDAFTAR",
        "sistem_elektronik_id": 3402
      }
    },
    {
      "type": "tdpseTerbit",
      "id": 1572,
      "attributes": {
        "nomor_pb_umku": null,
        "nama": "www.cgs-cimb.co.id",
        "website": "www.cgs-cimb.co.id",
        "sektor": "Sektor Keuangan",
        "nama_perusahaan": "CGS-CIMB SEKURITAS INDONESIA",
        "tanggal_daftar": "2021-06-24",
        "nomor_tanda_daftar": "000964.05/DJAI.PSE/06/2021",
        "qr_code": "https://pse.kominfo.go.id/storage/images/qr_code/c775f6892aea17261e891b99e5a0854c.png",
        "status_id": "TERDAFTAR",
        "sistem_elektronik_id": 3409
      }
    },
    {
      "type": "tdpseTerbit",
      "id": 1469,
      "attributes": {
        "nomor_pb_umku": null,
        "nama": "web.itrade.cgs-cimb.co.id",
        "website": "https://web.itrade.cgs-cimb.co.id/",
        "sektor": "Sektor Keuangan",
        "nama_perusahaan": "CGS-CIMB SEKURITAS INDONESIA",
        "tanggal_daftar": "2021-06-14",
        "nomor_tanda_daftar": "000964.04/DJAI.PSE/06/2021",
        "qr_code": "https://pse.kominfo.go.id/storage/images/qr_code/abe521089f8326494d21ff6148f95202.png",
        "status_id": "TERDAFTAR",
        "sistem_elektronik_id": 3408
      }
    },
    {
      "type": "tdpseTerbit",
      "id": 1468,
      "attributes": {
        "nomor_pb_umku": null,
        "nama": "CGS-CIMB iTrade Mobile (iOS dan Android)",
        "website": "https://www.itradecimb.co.id/",
        "sektor": "Sektor Keuangan",
        "nama_perusahaan": "CGS-CIMB SEKURITAS INDONESIA",
        "tanggal_daftar": "2021-06-14",
        "nomor_tanda_daftar": "000964.03/DJAI.PSE/06/2021",
        "qr_code": "https://pse.kominfo.go.id/storage/images/qr_code/a7c560bf3f105626aa954198a3e243e3.png",
        "status_id": "TERDAFTAR",
        "sistem_elektronik_id": 3407
      }
    },
    {
      "type": "tdpseTerbit",
      "id": 1467,
      "attributes": {
        "nomor_pb_umku": null,
        "nama": "Online Client on Boarding (OCoB)",
        "website": "https://register.cgs-cimb.co.id/",
        "sektor": "Sektor Keuangan",
        "nama_perusahaan": "CGS-CIMB SEKURITAS INDONESIA",
        "tanggal_daftar": "2021-06-14",
        "nomor_tanda_daftar": "000964.02/DJAI.PSE/06/2021",
        "qr_code": "https://pse.kominfo.go.id/storage/images/qr_code/8296fc2768e6cee68321d21cce8d03fb.png",
        "status_id": "TERDAFTAR",
        "sistem_elektronik_id": 3406
      }
    }
  ]
}