{
  "meta": {
    "page": {
      "currentPage": 847,
      "from": 8461,
      "lastPage": 873,
      "perPage": 10,
      "to": 8470,
      "total": 8721
    }
  },
  "data": [
    {
      "type": "tdpseTerbit",
      "id": 4972,
      "attributes": {
        "nomor_pb_umku": "912030111272600010006",
        "nama": "METALGO",
        "website": "metalgo.co",
        "sektor": "Sektor Perdagangan",
        "nama_perusahaan": "BULLION ECOSYSTEM INTERNATIONAL",
        "tanggal_daftar": "2022-06-30",
        "nomor_tanda_daftar": "000155.08/DJAI.PSE/06/2022",
        "qr_code": "https://pse.kominfo.go.id/storage/images/qr_code/07b0cd701fdc94eca47d85391a74d3c7.png",
        "status_id": "TERDAFTAR",
        "sistem_elektronik_id": 4840
      }
    },
    {
      "type": "tdpseTerbit",
      "id": 3689,
      "attributes": {
        "nomor_pb_umku": null,
        "nama": "Pospay Gold",
        "website": "https://posgo.id/",
        "sektor": "Sektor Perdagangan",
        "nama_perusahaan": "BULLION ECOSYSTEM INTERNATIONAL",
        "tanggal_daftar": "2022-03-29",
        "nomor_tanda_daftar": "000155.07/DJAI.PSE/03/2022",
        "qr_code": "https://pse.kominfo.go.id/storage/images/qr_code/53e6fe05cd195d606d8b98891459c70c.png",
        "status_id": "TERDAFTAR",
        "sistem_elektronik_id": 3507
      }
    },
    {
      "type": "tdpseTerbit",
      "id": 3488,
      "attributes": {
        "nomor_pb_umku": null,
        "nama": "TokoHub",
        "website": "https://tokohub.bullionecosystem.com/",
        "sektor": "Sektor Perdagangan, Sektor Teknologi Informasi dan Komunikasi",
        "nama_perusahaan": "BULLION ECOSYSTEM INTERNATIONAL",
        "tanggal_daftar": "2022-03-09",
        "nomor_tanda_daftar": "000155.06/DJAI.PSE/03/2022",
        "qr_code": "https://pse.kominfo.go.id/storage/images/qr_code/131a24e6ecc2cd1a93d20e641d57dfe6.png",
        "status_id": "TERDAFTAR",
        "sistem_elektronik_id": 3195
      }
    },
    {
      "type": "tdpseTerbit",
      "id": 3231,
      "attributes": {
        "nomor_pb_umku": null,
        "nama": "Metalbank",
        "website": "https://bullionecosystem.com/metalbank/",
        "sektor": "Sektor Keuangan, Sektor Teknologi Informasi dan Komunikasi",
        "nama_perusahaan": "BULLION ECOSYSTEM INTERNATIONAL",
        "tanggal_daftar": "2022-02-11",
        "nomor_tanda_daftar": "000155.05/DJAI.PSE/02/2022",
        "qr_code": "https://pse.kominfo.go.id/storage/images/qr_code/877736136a93058db7d79a1896c0fe71.png",
        "status_id": "TERDAFTAR",
        "sistem_elektronik_id": 2644
      }
    },
    {
      "type": "tdpseTerbit",
      "id": 3219,
      "attributes": {
        "nomor_pb_umku": null,
        "nama": "Metaljek",
        "website": "https://metaljek.bullionecosystem.com/",
        "sektor": "Sektor Teknologi Informasi dan Komunikasi, Sektor Transportasi",
        "nama_perusahaan": "BULLION ECOSYSTEM INTERNATIONAL",
        "tanggal_daftar": "2022-02-10",
        "nomor_tanda_daftar": "000155.04/DJAI.PSE/02/2022",
        "qr_code": "https://pse.kominfo.go.id/storage/images/qr_code/9576d480f622b5f13384163558c6a74a.png",
        "status_id": "TERDAFTAR",
        "sistem_elektronik_id": 2643
      }
    },
    {
      "type": "tdpseTerbit",
      "id": 2565,
      "attributes": {
        "nomor_pb_umku": null,
        "nama": "Metal X",
        "website": "https://bullionecosystem.com/metal-x-mdx/",
        "sektor": "Sektor Perdagangan, Sektor Teknologi Informasi dan Komunikasi",
        "nama_perusahaan": "BULLION ECOSYSTEM INTERNATIONAL",
        "tanggal_daftar": "2021-12-01",
        "nomor_tanda_daftar": "000155.03/DJAI.PSE/12/2021",
        "qr_code": "https://pse.kominfo.go.id/storage/images/qr_code/827f779ef83bae3f19d96883b10af05d.png",
        "status_id": "TERDAFTAR",
        "sistem_elektronik_id": 2642
      }
    },
    {
      "type": "tdpseTerbit",
      "id": 2303,
      "attributes": {
        "nomor_pb_umku": null,
        "nama": "MetalPay",
        "website": "https://bullionecosystem.com/",
        "sektor": "Sektor Teknologi Informasi dan Komunikasi",
        "nama_perusahaan": "BULLION ECOSYSTEM INTERNATIONAL",
        "tanggal_daftar": "2021-11-08",
        "nomor_tanda_daftar": "000155.02/DJAI.PSE/11/2021",
        "qr_code": "https://pse.kominfo.go.id/storage/images/qr_code/e3e808a7409d851c41d934e864e0f821.png",
        "status_id": "TERDAFTAR",
        "sistem_elektronik_id": 2641
      }
    },
    {
      "type": "tdpseTerbit",
      "id": 174,
      "attributes": {
        "nomor_pb_umku": null,
        "nama": "PosGO Syariah",
        "website": "https://posgo.id/",
        "sektor": "Sektor Perdagangan",
        "nama_perusahaan": "BULLION ECOSYSTEM INTERNATIONAL",
        "tanggal_daftar": "2021-02-25",
        "nomor_tanda_daftar": "000155.01/DJAI.PSE/02/2021",
        "qr_code": "https://pse.kominfo.go.id/storage/images/qr_code/95fe1aa85084fab4c7326bf4b462acfa.png",
        "status_id": "TERDAFTAR",
        "sistem_elektronik_id": 2640
      }
    },
    {
      "type": "tdpseTerbit",
      "id": 173,
      "attributes": {
        "nomor_pb_umku": null,
        "nama": "Kredit Kita",
        "website": "https://kspdmb.com",
        "sektor": "Sektor Keuangan",
        "nama_perusahaan": "SIMPAN PINJAM DUNIA MAJU BERSAMA",
        "tanggal_daftar": "2021-02-25",
        "nomor_tanda_daftar": "000154.01/DJAI.PSE/02/2021",
        "qr_code": "https://pse.kominfo.go.id/storage/images/qr_code/2818b26909a53b7e26b5a217039ec736.png",
        "status_id": "TERDAFTAR",
        "sistem_elektronik_id": 2627
      }
    },
    {
      "type": "tdpseTerbit",
      "id": 179,
      "attributes": {
        "nomor_pb_umku": null,
        "nama": "LangsungBelanja.com",
        "website": "www.langsungbelanja.com",
        "sektor": "Sektor Perdagangan",
        "nama_perusahaan": "NUSANTARA SARANA OUTLET",
        "tanggal_daftar": "2021-02-25",
        "nomor_tanda_daftar": "000153.02/DJAI.PSE/02/2021",
        "qr_code": "https://pse.kominfo.go.id/storage/images/qr_code/e9a366211865ec59a500e378729c4987.png",
        "status_id": "TERDAFTAR",
        "sistem_elektronik_id": 2646
      }
    }
  ]
}