{
  "meta": {
    "page": {
      "currentPage": 849,
      "from": 8481,
      "lastPage": 908,
      "perPage": 10,
      "to": 8490,
      "total": 9074
    }
  },
  "data": [
    {
      "type": "tdpseTerbit",
      "id": 4197,
      "attributes": {
        "nomor_pb_umku": "250821002492300020001",
        "nama": "BEERU",
        "website": "beeru.co.id",
        "sektor": "Sektor Perdagangan, Sektor Teknologi Informasi dan Komunikasi",
        "nama_perusahaan": "BERKAT REZEKI UTAMA",
        "tanggal_daftar": "2022-05-31",
        "nomor_tanda_daftar": "000311.01/DJAI.PSE/05/2022",
        "qr_code": "https://pse.kominfo.go.id/storage/images/qr_code/094cc931a2c89623870154a060ef0e03.png",
        "status_id": "TERDAFTAR",
        "sistem_elektronik_id": 4199
      }
    },
    {
      "type": "tdpseTerbit",
      "id": 383,
      "attributes": {
        "nomor_pb_umku": null,
        "nama": "REDKENDI",
        "website": "www.redkendi.com",
        "sektor": "Sektor Perdagangan",
        "nama_perusahaan": "REDKENDI ANDALAN MITRA",
        "tanggal_daftar": "2021-03-15",
        "nomor_tanda_daftar": "000311.01/DJAI.PSE/03/2021",
        "qr_code": "https://pse.kominfo.go.id/storage/images/qr_code/2cd8c9051618b8766e821386d8ecd3b3.png",
        "status_id": "TERDAFTAR",
        "sistem_elektronik_id": 140
      }
    },
    {
      "type": "tdpseTerbit",
      "id": 4571,
      "attributes": {
        "nomor_pb_umku": "912040980232100000001",
        "nama": "WILKA STORE",
        "website": "wilkastore.co.id",
        "sektor": "Sektor Perdagangan, Sektor Energi dan Sumber Daya Mineral",
        "nama_perusahaan": "WILKA ENERGI SOLUSI",
        "tanggal_daftar": "2022-06-16",
        "nomor_tanda_daftar": "000310.02/DJAI.PSE/06/2022",
        "qr_code": "https://pse.kominfo.go.id/storage/images/qr_code/54b142284c7d369e3403547c35bb26a0.png",
        "status_id": "TERDAFTAR",
        "sistem_elektronik_id": 4535
      }
    },
    {
      "type": "tdpseTerbit",
      "id": 4577,
      "attributes": {
        "nomor_pb_umku": "912040980232100000001",
        "nama": "WILKASTORE.CO.ID",
        "website": "wilkapower.com",
        "sektor": "Sektor Perdagangan, Sektor Energi dan Sumber Daya Mineral",
        "nama_perusahaan": "WILKA ENERGI SOLUSI",
        "tanggal_daftar": "2022-06-17",
        "nomor_tanda_daftar": "000310.01/DJAI.PSE/06/2022",
        "qr_code": "https://pse.kominfo.go.id/storage/images/qr_code/f708734f3f2ca044a5475edb1e0581be.png",
        "status_id": "TERDAFTAR",
        "sistem_elektronik_id": 4534
      }
    },
    {
      "type": "tdpseTerbit",
      "id": 4299,
      "attributes": {
        "nomor_pb_umku": "140522000072700040001",
        "nama": "GOPOP",
        "website": "-",
        "sektor": "Sektor Transportasi",
        "nama_perusahaan": "GLOBAL ANUGRAH SARANA",
        "tanggal_daftar": "2022-06-08",
        "nomor_tanda_daftar": "000310.01/DJAI.PSE/06/2022",
        "qr_code": "https://pse.kominfo.go.id/storage/images/qr_code/3519dc1c39fbf89d5e10042fc0dd8e6a.png",
        "status_id": "TERDAFTAR",
        "sistem_elektronik_id": 4292
      }
    },
    {
      "type": "tdpseTerbit",
      "id": 4194,
      "attributes": {
        "nomor_pb_umku": "125700042247200000001",
        "nama": "WISBAYAR",
        "website": "wisbayar.id",
        "sektor": "Sektor Perdagangan",
        "nama_perusahaan": "SOLUSI DIGITAL CEPAT",
        "tanggal_daftar": "2022-05-31",
        "nomor_tanda_daftar": "000310.01/DJAI.PSE/05/2022",
        "qr_code": "https://pse.kominfo.go.id/storage/images/qr_code/ec4bfc23b97011b415fea8199237fd37.png",
        "status_id": "TERDAFTAR",
        "sistem_elektronik_id": 4197
      }
    },
    {
      "type": "tdpseTerbit",
      "id": 379,
      "attributes": {
        "nomor_pb_umku": null,
        "nama": "PT.Bursa Crypto indonesia ( Cryptoindex.id)",
        "website": "www.cryptoindex.id",
        "sektor": "Sektor Perdagangan",
        "nama_perusahaan": "BURSA CRYPTO INDONESIA",
        "tanggal_daftar": "2021-03-15",
        "nomor_tanda_daftar": "000310.01/DJAI.PSE/03/2021",
        "qr_code": "https://pse.kominfo.go.id/storage/images/qr_code/ba098bf066825248a16c62d7a514dcd5.png",
        "status_id": "TERDAFTAR",
        "sistem_elektronik_id": 154
      }
    },
    {
      "type": "tdpseTerbit",
      "id": 4300,
      "attributes": {
        "nomor_pb_umku": "912011318183600010002",
        "nama": "WATULINTANG MEDIA",
        "website": "watulintang.com",
        "sektor": "Sektor Perdagangan, Sektor Teknologi Informasi dan Komunikasi",
        "nama_perusahaan": "WATULINTANG MEDIA",
        "tanggal_daftar": "2022-06-08",
        "nomor_tanda_daftar": "000309.02/DJAI.PSE/06/2022",
        "qr_code": "https://pse.kominfo.go.id/storage/images/qr_code/c75e250de5c634710b0d825729071369.png",
        "status_id": "TERDAFTAR",
        "sistem_elektronik_id": 4293
      }
    },
    {
      "type": "tdpseTerbit",
      "id": 4298,
      "attributes": {
        "nomor_pb_umku": "912011318183600010001",
        "nama": "SEKOLAHKITA NET",
        "website": "sekolahkita.net",
        "sektor": "Sektor Teknologi Informasi dan Komunikasi",
        "nama_perusahaan": "WATULINTANG MEDIA",
        "tanggal_daftar": "2022-06-08",
        "nomor_tanda_daftar": "000309.01/DJAI.PSE/06/2022",
        "qr_code": "https://pse.kominfo.go.id/storage/images/qr_code/1ec19f11551f4bae1d2f0d1b5bc894a3.png",
        "status_id": "TERDAFTAR",
        "sistem_elektronik_id": 4291
      }
    },
    {
      "type": "tdpseTerbit",
      "id": 4107,
      "attributes": {
        "nomor_pb_umku": "912050370214200000001",
        "nama": "KONTAN",
        "website": "kontan.co.id",
        "sektor": "Sektor Perdagangan, Sektor Teknologi Informasi dan Komunikasi",
        "nama_perusahaan": "GRAHANUSA MEDIATAMA",
        "tanggal_daftar": "2022-05-23",
        "nomor_tanda_daftar": "000309.01/DJAI.PSE/05/2022",
        "qr_code": "https://pse.kominfo.go.id/storage/images/qr_code/08e2cb4ed5f4e1e509767fbdcc226379.png",
        "status_id": "TERDAFTAR",
        "sistem_elektronik_id": 4106
      }
    }
  ]
}