{
  "meta": {
    "page": {
      "currentPage": 850,
      "from": 8491,
      "lastPage": 1041,
      "perPage": 10,
      "to": 8500,
      "total": 10407
    }
  },
  "data": [
    {
      "type": "tdpseTerbit",
      "id": 1379,
      "attributes": {
        "nomor_pb_umku": null,
        "nama": "SIRCLO",
        "website": "sirclo.id",
        "sektor": "Sektor Perdagangan",
        "nama_perusahaan": "LINGKAR NIAGA SOLUSINDO",
        "tanggal_daftar": "2021-06-02",
        "nomor_tanda_daftar": "000918.01/DJAI.PSE/06/2021",
        "qr_code": "https://pse.kominfo.go.id/storage/images/qr_code/1a1b5560140272485433b94bffedb491.png",
        "status_id": "TERDAFTAR",
        "sistem_elektronik_id": 1012
      }
    },
    {
      "type": "tdpseTerbit",
      "id": 1378,
      "attributes": {
        "nomor_pb_umku": null,
        "nama": "Nu Skin Website",
        "website": "www.nuskin.com",
        "sektor": "Sektor Perdagangan",
        "nama_perusahaan": "NUSA SELARAS INDONESIA",
        "tanggal_daftar": "2021-06-02",
        "nomor_tanda_daftar": "000917.01/DJAI.PSE/06/2021",
        "qr_code": "https://pse.kominfo.go.id/storage/images/qr_code/5cd539b85ca264a9fda95319476dfaeb.png",
        "status_id": "TERDAFTAR",
        "sistem_elektronik_id": 545
      }
    },
    {
      "type": "tdpseTerbit",
      "id": 1377,
      "attributes": {
        "nomor_pb_umku": null,
        "nama": "AdaKami",
        "website": "https://www.adakami.id/",
        "sektor": "Sektor Keuangan",
        "nama_perusahaan": "PEMBIAYAAN DIGITAL INDONESIA",
        "tanggal_daftar": "2021-06-02",
        "nomor_tanda_daftar": "000916.01/DJAI.PSE/06/2021",
        "qr_code": "https://pse.kominfo.go.id/storage/images/qr_code/b36bf68151229de40042e61bb4b3a9d9.png",
        "status_id": "TERDAFTAR",
        "sistem_elektronik_id": 952
      }
    },
    {
      "type": "tdpseTerbit",
      "id": 1375,
      "attributes": {
        "nomor_pb_umku": null,
        "nama": "Mediakonomi.com",
        "website": "https://mediakonomi.com",
        "sektor": "Sektor Perdagangan",
        "nama_perusahaan": "MEDIAKONOMI NUSA PERSADA",
        "tanggal_daftar": "2021-06-02",
        "nomor_tanda_daftar": "000915.01/DJAI.PSE/06/2021",
        "qr_code": "https://pse.kominfo.go.id/storage/images/qr_code/246ee346717ada047211230f1979c054.png",
        "status_id": "TERDAFTAR",
        "sistem_elektronik_id": 996
      }
    },
    {
      "type": "tdpseTerbit",
      "id": 1374,
      "attributes": {
        "nomor_pb_umku": null,
        "nama": "SERBASELEB",
        "website": "www.serbaseleb.com",
        "sektor": "Sektor Perdagangan, Sektor Teknologi Informasi dan Komunikasi",
        "nama_perusahaan": "AKU KAMU DAN KITA SEMUA",
        "tanggal_daftar": "2021-06-02",
        "nomor_tanda_daftar": "000914.01/DJAI.PSE/06/2021",
        "qr_code": "https://pse.kominfo.go.id/storage/images/qr_code/e446923c8601d91c62115a26e857915a.png",
        "status_id": "TERDAFTAR",
        "sistem_elektronik_id": 832
      }
    },
    {
      "type": "tdpseTerbit",
      "id": 3722,
      "attributes": {
        "nomor_pb_umku": null,
        "nama": "Website Bank Capital",
        "website": "www.bankcapital.co.id",
        "sektor": "Sektor Keuangan",
        "nama_perusahaan": "BANK CAPITAL INDONESIA",
        "tanggal_daftar": "2022-03-31",
        "nomor_tanda_daftar": "000913.05/DJAI.PSE/03/2022",
        "qr_code": "https://pse.kominfo.go.id/storage/images/qr_code/9a91526f54f09193a15d29bd79786376.png",
        "status_id": "TERDAFTAR",
        "sistem_elektronik_id": 3541
      }
    },
    {
      "type": "tdpseTerbit",
      "id": 3719,
      "attributes": {
        "nomor_pb_umku": null,
        "nama": "Capital Mobile Banking",
        "website": "-",
        "sektor": "Sektor Keuangan",
        "nama_perusahaan": "BANK CAPITAL INDONESIA",
        "tanggal_daftar": "2022-03-31",
        "nomor_tanda_daftar": "000913.04/DJAI.PSE/03/2022",
        "qr_code": "https://pse.kominfo.go.id/storage/images/qr_code/8c9e28d2fa6aea0e49f8ce24cc220f00.png",
        "status_id": "TERDAFTAR",
        "sistem_elektronik_id": 3540
      }
    },
    {
      "type": "tdpseTerbit",
      "id": 3718,
      "attributes": {
        "nomor_pb_umku": null,
        "nama": "Internet Banking",
        "website": "capitalnet.bankcapital.co.id",
        "sektor": "Sektor Keuangan",
        "nama_perusahaan": "BANK CAPITAL INDONESIA",
        "tanggal_daftar": "2022-03-31",
        "nomor_tanda_daftar": "000913.03/DJAI.PSE/03/2022",
        "qr_code": "https://pse.kominfo.go.id/storage/images/qr_code/c73c068447e73c0a8b47d0fcef43c0dc.png",
        "status_id": "TERDAFTAR",
        "sistem_elektronik_id": 3539
      }
    },
    {
      "type": "tdpseTerbit",
      "id": 3717,
      "attributes": {
        "nomor_pb_umku": null,
        "nama": "Internet Banking Bisnis",
        "website": "capitalbiz.bankcapital.co.id",
        "sektor": "Sektor Keuangan",
        "nama_perusahaan": "BANK CAPITAL INDONESIA",
        "tanggal_daftar": "2022-03-31",
        "nomor_tanda_daftar": "000913.02/DJAI.PSE/03/2022",
        "qr_code": "https://pse.kominfo.go.id/storage/images/qr_code/48f1e0185ba2f6a9bc7318be7a99fd51.png",
        "status_id": "TERDAFTAR",
        "sistem_elektronik_id": 3538
      }
    },
    {
      "type": "tdpseTerbit",
      "id": 1373,
      "attributes": {
        "nomor_pb_umku": null,
        "nama": "Kartu ATM  (APMK)",
        "website": "www.bankcapital.co.id",
        "sektor": "Sektor Keuangan",
        "nama_perusahaan": "BANK CAPITAL INDONESIA",
        "tanggal_daftar": "2021-06-02",
        "nomor_tanda_daftar": "000913.01/DJAI.PSE/06/2021",
        "qr_code": "https://pse.kominfo.go.id/storage/images/qr_code/5e94ed7d9dd3394c3606f252c450a6c8.png",
        "status_id": "TERDAFTAR",
        "sistem_elektronik_id": 974
      }
    }
  ]
}