{
  "meta": {
    "page": {
      "currentPage": 851,
      "from": 8501,
      "lastPage": 1044,
      "perPage": 10,
      "to": 8510,
      "total": 10437
    }
  },
  "data": [
    {
      "type": "tdpseTerbit",
      "id": 1397,
      "attributes": {
        "nomor_pb_umku": null,
        "nama": "Plum",
        "website": "plum.id",
        "sektor": "Sektor Perdagangan",
        "nama_perusahaan": "KONSUMEN DIGITAL ASET NUSANTARA",
        "tanggal_daftar": "2021-06-09",
        "nomor_tanda_daftar": "000930.01/DJAI.PSE/06/2021",
        "qr_code": "https://pse.kominfo.go.id/storage/images/qr_code/723127e21eeef3f542ea081fdb39da21.png",
        "status_id": "TERDAFTAR",
        "sistem_elektronik_id": 3361
      }
    },
    {
      "type": "tdpseTerbit",
      "id": 1866,
      "attributes": {
        "nomor_pb_umku": null,
        "nama": "UNIQLO INDONESIA",
        "website": "uniqlo.com/id",
        "sektor": "Sektor Perdagangan",
        "nama_perusahaan": "FAST RETAILING INDONESIA",
        "tanggal_daftar": "2021-08-09",
        "nomor_tanda_daftar": "000929.02/DJAI.PSE/08/2021",
        "qr_code": "https://pse.kominfo.go.id/storage/images/qr_code/c6010c5c7a538988c04e4ccba9eef25f.png",
        "status_id": "TERDAFTAR",
        "sistem_elektronik_id": 1023
      }
    },
    {
      "type": "tdpseTerbit",
      "id": 1396,
      "attributes": {
        "nomor_pb_umku": null,
        "nama": "UNIQLO",
        "website": "https://uniqlo.com/id",
        "sektor": "Sektor Perdagangan",
        "nama_perusahaan": "FAST RETAILING INDONESIA",
        "tanggal_daftar": "2021-06-09",
        "nomor_tanda_daftar": "000929.01/DJAI.PSE/06/2021",
        "qr_code": "https://pse.kominfo.go.id/storage/images/qr_code/289547e423b9b2cec60310cb3b88704e.png",
        "status_id": "TERDAFTAR",
        "sistem_elektronik_id": 1022
      }
    },
    {
      "type": "tdpseTerbit",
      "id": 9971,
      "attributes": {
        "nomor_pb_umku": "912020553049100040004",
        "nama": "CHUBB LIFE- BALANCE",
        "website": "chubb.com",
        "sektor": "Sektor Keuangan",
        "nama_perusahaan": "CHUBB LIFE INSURANCE INDONESIA",
        "tanggal_daftar": "2022-08-05",
        "nomor_tanda_daftar": "000928.02/DJAI.PSE/08/2022",
        "qr_code": "https://pse.kominfo.go.id/storage/images/qr_code/7613421326c470dddd5e4231cabf9535.png",
        "status_id": "TERDAFTAR",
        "sistem_elektronik_id": 9859
      }
    },
    {
      "type": "tdpseTerbit",
      "id": 1395,
      "attributes": {
        "nomor_pb_umku": null,
        "nama": "Customer Corner",
        "website": "https://customercorner.chubblife.co.id/",
        "sektor": "Sektor Keuangan",
        "nama_perusahaan": "CHUBB LIFE INSURANCE INDONESIA",
        "tanggal_daftar": "2021-06-09",
        "nomor_tanda_daftar": "000928.01/DJAI.PSE/06/2021",
        "qr_code": "https://pse.kominfo.go.id/storage/images/qr_code/e9261651d1562fdc2e9b53a873dc8f4b.png",
        "status_id": "TERDAFTAR",
        "sistem_elektronik_id": 80
      }
    },
    {
      "type": "tdpseTerbit",
      "id": 1394,
      "attributes": {
        "nomor_pb_umku": null,
        "nama": "Dashboard DomaiNesia",
        "website": "www.domainesia.com",
        "sektor": "Sektor Teknologi Informasi dan Komunikasi",
        "nama_perusahaan": "DELTA NEVA ANGKASA",
        "tanggal_daftar": "2021-06-09",
        "nomor_tanda_daftar": "000927.01/DJAI.PSE/06/2021",
        "qr_code": "https://pse.kominfo.go.id/storage/images/qr_code/3b895f571f94587a3da8912d125b6fa2.png",
        "status_id": "TERDAFTAR",
        "sistem_elektronik_id": 3481
      }
    },
    {
      "type": "tdpseTerbit",
      "id": 1393,
      "attributes": {
        "nomor_pb_umku": null,
        "nama": "Turbo.co.id",
        "website": "https://turbo.co.id/",
        "sektor": "Sektor Perdagangan",
        "nama_perusahaan": "TURBO MITRA PERKASA",
        "tanggal_daftar": "2021-06-09",
        "nomor_tanda_daftar": "000926.01/DJAI.PSE/06/2021",
        "qr_code": "https://pse.kominfo.go.id/storage/images/qr_code/feadb6ec3bb486b059dcf72c78ca23e4.png",
        "status_id": "TERDAFTAR",
        "sistem_elektronik_id": 3334
      }
    },
    {
      "type": "tdpseTerbit",
      "id": 1545,
      "attributes": {
        "nomor_pb_umku": null,
        "nama": "Kerjaan",
        "website": "https://kerjaan.co.id/",
        "sektor": "Sektor Teknologi Informasi dan Komunikasi",
        "nama_perusahaan": "SAMPINGAN MITRA INDONESIA",
        "tanggal_daftar": "2021-06-24",
        "nomor_tanda_daftar": "000925.02/DJAI.PSE/06/2021",
        "qr_code": "https://pse.kominfo.go.id/storage/images/qr_code/0cb1e400f8781bb64b7d7ad203865497.png",
        "status_id": "TERDAFTAR",
        "sistem_elektronik_id": 3333
      }
    },
    {
      "type": "tdpseTerbit",
      "id": 1389,
      "attributes": {
        "nomor_pb_umku": null,
        "nama": "Sampingan",
        "website": "https://sampingan.co.id",
        "sektor": "Sektor Teknologi Informasi dan Komunikasi",
        "nama_perusahaan": "SAMPINGAN MITRA INDONESIA",
        "tanggal_daftar": "2021-06-02",
        "nomor_tanda_daftar": "000925.01/DJAI.PSE/06/2021",
        "qr_code": "https://pse.kominfo.go.id/storage/images/qr_code/83769a140294d1f9ce03347335104168.png",
        "status_id": "TERDAFTAR",
        "sistem_elektronik_id": 3332
      }
    },
    {
      "type": "tdpseTerbit",
      "id": 1388,
      "attributes": {
        "nomor_pb_umku": null,
        "nama": "SiMotor",
        "website": "https://simotor.id/",
        "sektor": "Sektor Perdagangan",
        "nama_perusahaan": "DIGITAL NAYAKA ABHINAYA",
        "tanggal_daftar": "2021-06-02",
        "nomor_tanda_daftar": "000924.01/DJAI.PSE/06/2021",
        "qr_code": "https://pse.kominfo.go.id/storage/images/qr_code/60c05be05e954860e1ced6309456bde3.png",
        "status_id": "TERDAFTAR",
        "sistem_elektronik_id": 1002
      }
    }
  ]
}