{
  "meta": {
    "page": {
      "currentPage": 852,
      "from": 8511,
      "lastPage": 1072,
      "perPage": 10,
      "to": 8520,
      "total": 10718
    }
  },
  "data": [
    {
      "type": "tdpseTerbit",
      "id": 1675,
      "attributes": {
        "nomor_pb_umku": null,
        "nama": "broom.id",
        "website": "https://www.broom.id",
        "sektor": "Sektor Keuangan, Sektor Teknologi Informasi dan Komunikasi",
        "nama_perusahaan": "TEKNOLOGI USAHA NUSANTARA",
        "tanggal_daftar": "2021-07-08",
        "nomor_tanda_daftar": "001100.01/DJAI.PSE/07/2021",
        "qr_code": "https://pse.kominfo.go.id/storage/images/qr_code/077ce9e1f05542a0ebde72919be7b798.png",
        "status_id": "TERDAFTAR",
        "sistem_elektronik_id": 1224
      }
    },
    {
      "type": "tdpseTerbit",
      "id": 11798,
      "attributes": {
        "nomor_pb_umku": "128200053187500020003",
        "nama": "UNOFACE",
        "website": "unoface.id",
        "sektor": "Sektor Teknologi Informasi dan Komunikasi",
        "nama_perusahaan": "AUTENTIKA DIGITAL INDONESIA",
        "tanggal_daftar": "2022-10-14",
        "nomor_tanda_daftar": "001099.03/DJAI.PSE/10/2022",
        "qr_code": "https://pse.kominfo.go.id/storage/images/qr_code/fb981a4fc5402bee726c447c22012589.png",
        "status_id": "TERDAFTAR",
        "sistem_elektronik_id": 11599
      }
    },
    {
      "type": "tdpseTerbit",
      "id": 11797,
      "attributes": {
        "nomor_pb_umku": "128200053187500020002",
        "nama": "UNOID",
        "website": "unoid.id",
        "sektor": "Sektor Teknologi Informasi dan Komunikasi",
        "nama_perusahaan": "AUTENTIKA DIGITAL INDONESIA",
        "tanggal_daftar": "2022-10-14",
        "nomor_tanda_daftar": "001099.02/DJAI.PSE/10/2022",
        "qr_code": "https://pse.kominfo.go.id/storage/images/qr_code/fa651448dcf730c7fefd394024efb500.png",
        "status_id": "TERDAFTAR",
        "sistem_elektronik_id": 11598
      }
    },
    {
      "type": "tdpseTerbit",
      "id": 1674,
      "attributes": {
        "nomor_pb_umku": null,
        "nama": "Autentika Digital Solutions",
        "website": "www.autentika.id",
        "sektor": "Sektor Teknologi Informasi dan Komunikasi",
        "nama_perusahaan": "AUTENTIKA DIGITAL INDONESIA",
        "tanggal_daftar": "2021-07-08",
        "nomor_tanda_daftar": "001099.01/DJAI.PSE/07/2021",
        "qr_code": "https://pse.kominfo.go.id/storage/images/qr_code/dba32e849a124e667cd5751bf3c4de0b.png",
        "status_id": "TERDAFTAR",
        "sistem_elektronik_id": 1213
      }
    },
    {
      "type": "tdpseTerbit",
      "id": 1672,
      "attributes": {
        "nomor_pb_umku": null,
        "nama": "Zaapko.com",
        "website": "https://zaapko.com/",
        "sektor": "Sektor Perdagangan",
        "nama_perusahaan": "PASAR RAMAH BISNIS",
        "tanggal_daftar": "2021-07-08",
        "nomor_tanda_daftar": "001098.01/DJAI.PSE/07/2021",
        "qr_code": "https://pse.kominfo.go.id/storage/images/qr_code/c0566b5bf5da390b22a4563a1b056e20.png",
        "status_id": "TERDAFTAR",
        "sistem_elektronik_id": 609
      }
    },
    {
      "type": "tdpseTerbit",
      "id": 1670,
      "attributes": {
        "nomor_pb_umku": null,
        "nama": "daruma",
        "website": "www.daruma.co.id",
        "sektor": "Sektor Kesehatan, Sektor Perdagangan",
        "nama_perusahaan": "DARUMA ADIRA PRATAMA",
        "tanggal_daftar": "2021-07-08",
        "nomor_tanda_daftar": "001097.01/DJAI.PSE/07/2021",
        "qr_code": "https://pse.kominfo.go.id/storage/images/qr_code/e50a81dee1aeb2189fb01c1e64ab829e.png",
        "status_id": "TERDAFTAR",
        "sistem_elektronik_id": 1185
      }
    },
    {
      "type": "tdpseTerbit",
      "id": 1669,
      "attributes": {
        "nomor_pb_umku": null,
        "nama": "Mangoesky",
        "website": "www.mangoesky.com",
        "sektor": "Sektor Perdagangan, Sektor Teknologi Informasi dan Komunikasi",
        "nama_perusahaan": "TELKOM SATELIT INDONESIA",
        "tanggal_daftar": "2021-07-08",
        "nomor_tanda_daftar": "001096.02/DJAI.PSE/07/2021",
        "qr_code": "https://pse.kominfo.go.id/storage/images/qr_code/fe3c00e44ae57cd72d1345af62a3d696.png",
        "status_id": "TERDAFTAR",
        "sistem_elektronik_id": 356
      }
    },
    {
      "type": "tdpseTerbit",
      "id": 1668,
      "attributes": {
        "nomor_pb_umku": null,
        "nama": "Mangoesky",
        "website": "www.mangoesky.com",
        "sektor": "Sektor Perdagangan, Sektor Teknologi Informasi dan Komunikasi",
        "nama_perusahaan": "TELKOM SATELIT INDONESIA",
        "tanggal_daftar": "2021-07-08",
        "nomor_tanda_daftar": "001096.01/DJAI.PSE/07/2021",
        "qr_code": "https://pse.kominfo.go.id/storage/images/qr_code/2996c9071a33c07bef626d05fb817731.png",
        "status_id": "TERDAFTAR",
        "sistem_elektronik_id": 355
      }
    },
    {
      "type": "tdpseTerbit",
      "id": 1667,
      "attributes": {
        "nomor_pb_umku": null,
        "nama": "WorkFit",
        "website": "http://claim.fit",
        "sektor": "Sektor Kesehatan, Sektor Teknologi Informasi dan Komunikasi",
        "nama_perusahaan": "SEHAT SEMAR SAKTI",
        "tanggal_daftar": "2021-07-08",
        "nomor_tanda_daftar": "001095.01/DJAI.PSE/07/2021",
        "qr_code": "https://pse.kominfo.go.id/storage/images/qr_code/33de6cedc422f224a060a364dd86637b.png",
        "status_id": "TERDAFTAR",
        "sistem_elektronik_id": 1016
      }
    },
    {
      "type": "tdpseTerbit",
      "id": 1665,
      "attributes": {
        "nomor_pb_umku": null,
        "nama": "Rey",
        "website": "https://rey.id",
        "sektor": "Sektor Kesehatan, Sektor Keuangan, Sektor Teknologi Informasi dan Komunikasi",
        "nama_perusahaan": "VERTIKA TECHNOLOGIES NUSANTARA",
        "tanggal_daftar": "2021-07-08",
        "nomor_tanda_daftar": "001094.01/DJAI.PSE/07/2021",
        "qr_code": "https://pse.kominfo.go.id/storage/images/qr_code/e098d399ed278f17639efbd28551854e.png",
        "status_id": "TERDAFTAR",
        "sistem_elektronik_id": 1223
      }
    }
  ]
}