{
  "meta": {
    "page": {
      "currentPage": 853,
      "from": 8521,
      "lastPage": 875,
      "perPage": 10,
      "to": 8530,
      "total": 8749
    }
  },
  "data": [
    {
      "type": "tdpseTerbit",
      "id": 151,
      "attributes": {
        "nomor_pb_umku": null,
        "nama": "PRODANA",
        "website": "https://prodana.id/",
        "sektor": "Sektor Keuangan",
        "nama_perusahaan": "PROTEMUS DANA BERSAMA",
        "tanggal_daftar": "2021-02-24",
        "nomor_tanda_daftar": "000133.01/DJAI.PSE/02/2021",
        "qr_code": "https://pse.kominfo.go.id/storage/images/qr_code/fe9467cfb9eda633da3c4afb60eb51d6.png",
        "status_id": "TERDAFTAR",
        "sistem_elektronik_id": 2616
      }
    },
    {
      "type": "tdpseTerbit",
      "id": 6434,
      "attributes": {
        "nomor_pb_umku": "812021927148600010009",
        "nama": "DEASY",
        "website": "kreditplus.com",
        "sektor": "Sektor Keuangan, Sektor Teknologi Informasi dan Komunikasi",
        "nama_perusahaan": "KB FINANSIA MULTI FINANCE",
        "tanggal_daftar": "2022-07-18",
        "nomor_tanda_daftar": "000132.12/DJAI.PSE/07/2022",
        "qr_code": "https://pse.kominfo.go.id/storage/images/qr_code/25f9931d4d61caca84284c6ff6784257.png",
        "status_id": "TERDAFTAR",
        "sistem_elektronik_id": 6305
      }
    },
    {
      "type": "tdpseTerbit",
      "id": 6419,
      "attributes": {
        "nomor_pb_umku": "812021927148600010008",
        "nama": "SALLY",
        "website": "kreditplus.com",
        "sektor": "Sektor Keuangan, Sektor Teknologi Informasi dan Komunikasi",
        "nama_perusahaan": "KB FINANSIA MULTI FINANCE",
        "tanggal_daftar": "2022-07-18",
        "nomor_tanda_daftar": "000132.11/DJAI.PSE/07/2022",
        "qr_code": "https://pse.kominfo.go.id/storage/images/qr_code/29a6496da9349be730666a144e33561f.png",
        "status_id": "TERDAFTAR",
        "sistem_elektronik_id": 6289
      }
    },
    {
      "type": "tdpseTerbit",
      "id": 6409,
      "attributes": {
        "nomor_pb_umku": "812021927148600010007",
        "nama": "KPHUB",
        "website": "Kreditplus.com",
        "sektor": "Sektor Keuangan, Sektor Teknologi Informasi dan Komunikasi",
        "nama_perusahaan": "KB FINANSIA MULTI FINANCE",
        "tanggal_daftar": "2022-07-18",
        "nomor_tanda_daftar": "000132.10/DJAI.PSE/07/2022",
        "qr_code": "https://pse.kominfo.go.id/storage/images/qr_code/f41d1d440c45e8cf071a105362289941.png",
        "status_id": "TERDAFTAR",
        "sistem_elektronik_id": 6272
      }
    },
    {
      "type": "tdpseTerbit",
      "id": 6362,
      "attributes": {
        "nomor_pb_umku": "812021927148600010006",
        "nama": "COLLECTION HUB",
        "website": "Kreditplus.com",
        "sektor": "Sektor Keuangan, Sektor Teknologi Informasi dan Komunikasi",
        "nama_perusahaan": "KB FINANSIA MULTI FINANCE",
        "tanggal_daftar": "2022-07-18",
        "nomor_tanda_daftar": "000132.09/DJAI.PSE/07/2022",
        "qr_code": "https://pse.kominfo.go.id/storage/images/qr_code/5933bbb3807f48f47eec982cf57d0379.png",
        "status_id": "TERDAFTAR",
        "sistem_elektronik_id": 6213
      }
    },
    {
      "type": "tdpseTerbit",
      "id": 5829,
      "attributes": {
        "nomor_pb_umku": "812021927148600010005",
        "nama": "EFORM KMB",
        "website": "eformcms.kreditplus.id",
        "sektor": "Sektor Keuangan, Sektor Teknologi Informasi dan Komunikasi",
        "nama_perusahaan": "KB FINANSIA MULTI FINANCE",
        "tanggal_daftar": "2022-07-15",
        "nomor_tanda_daftar": "000132.08/DJAI.PSE/07/2022",
        "qr_code": "https://pse.kominfo.go.id/storage/images/qr_code/78ce9a7ead81d94d84ff9a7b2b1f36be.png",
        "status_id": "TERDAFTAR",
        "sistem_elektronik_id": 5688
      }
    },
    {
      "type": "tdpseTerbit",
      "id": 5798,
      "attributes": {
        "nomor_pb_umku": "812021927148600010004",
        "nama": "MOBILE COLLECTION SYSTEM (MCS)",
        "website": "mcs.kreditplus.id",
        "sektor": "Sektor Keuangan, Sektor Teknologi Informasi dan Komunikasi",
        "nama_perusahaan": "KB FINANSIA MULTI FINANCE",
        "tanggal_daftar": "2022-07-15",
        "nomor_tanda_daftar": "000132.07/DJAI.PSE/07/2022",
        "qr_code": "https://pse.kominfo.go.id/storage/images/qr_code/cf5615f0987a8d43bf349904e5bcd792.png",
        "status_id": "TERDAFTAR",
        "sistem_elektronik_id": 5660
      }
    },
    {
      "type": "tdpseTerbit",
      "id": 5776,
      "attributes": {
        "nomor_pb_umku": "812021927148600010003",
        "nama": "EFORM WG",
        "website": "eformcms.kreditplus.id",
        "sektor": "Sektor Keuangan, Sektor Teknologi Informasi dan Komunikasi",
        "nama_perusahaan": "KB FINANSIA MULTI FINANCE",
        "tanggal_daftar": "2022-07-15",
        "nomor_tanda_daftar": "000132.06/DJAI.PSE/07/2022",
        "qr_code": "https://pse.kominfo.go.id/storage/images/qr_code/aacff9deeacd5e99c7496cdd436722d6.png",
        "status_id": "TERDAFTAR",
        "sistem_elektronik_id": 5639
      }
    },
    {
      "type": "tdpseTerbit",
      "id": 5768,
      "attributes": {
        "nomor_pb_umku": "812021927148600010002",
        "nama": "KPGATEWAY",
        "website": "kpgateway.kreditplus.id",
        "sektor": "Sektor Keuangan, Sektor Teknologi Informasi dan Komunikasi",
        "nama_perusahaan": "KB FINANSIA MULTI FINANCE",
        "tanggal_daftar": "2022-07-15",
        "nomor_tanda_daftar": "000132.05/DJAI.PSE/07/2022",
        "qr_code": "https://pse.kominfo.go.id/storage/images/qr_code/b0a8533f412c0d61b88be49c573b638c.png",
        "status_id": "TERDAFTAR",
        "sistem_elektronik_id": 5633
      }
    },
    {
      "type": "tdpseTerbit",
      "id": 5649,
      "attributes": {
        "nomor_pb_umku": "812021927148600010001",
        "nama": "KREDITPLUS.COM",
        "website": "kreditplus.com",
        "sektor": "Sektor Keuangan, Sektor Teknologi Informasi dan Komunikasi",
        "nama_perusahaan": "KB FINANSIA MULTI FINANCE",
        "tanggal_daftar": "2022-07-14",
        "nomor_tanda_daftar": "000132.04/DJAI.PSE/07/2022",
        "qr_code": "https://pse.kominfo.go.id/storage/images/qr_code/2a410ce3b01e093dc429f135f632d720.png",
        "status_id": "TERDAFTAR",
        "sistem_elektronik_id": 5508
      }
    }
  ]
}