{
  "meta": {
    "page": {
      "currentPage": 856,
      "from": 8551,
      "lastPage": 1063,
      "perPage": 10,
      "to": 8560,
      "total": 10630
    }
  },
  "data": [
    {
      "type": "tdpseTerbit",
      "id": 1555,
      "attributes": {
        "nomor_pb_umku": null,
        "nama": "PACOAJARA",
        "website": "www.kreditekfa.co.id",
        "sektor": "Sektor Keuangan, Sektor Teknologi Informasi dan Komunikasi",
        "nama_perusahaan": "KREDITEK FINANCIAL ACCESS",
        "tanggal_daftar": "2021-06-24",
        "nomor_tanda_daftar": "001022.01/DJAI.PSE/06/2021",
        "qr_code": "https://pse.kominfo.go.id/storage/images/qr_code/0e7be1b87a4a302b201691ccbc5c6c8b.png",
        "status_id": "TERDAFTAR",
        "sistem_elektronik_id": 1094
      }
    },
    {
      "type": "tdpseTerbit",
      "id": 1554,
      "attributes": {
        "nomor_pb_umku": null,
        "nama": "Commerce Finance",
        "website": "https://commerce-finance.com/",
        "sektor": "Sektor Keuangan",
        "nama_perusahaan": "COMMERCE FINANCE",
        "tanggal_daftar": "2021-06-24",
        "nomor_tanda_daftar": "001021.01/DJAI.PSE/06/2021",
        "qr_code": "https://pse.kominfo.go.id/storage/images/qr_code/5cd02093807bd87edadd19c68b4ec557.png",
        "status_id": "TERDAFTAR",
        "sistem_elektronik_id": 1060
      }
    },
    {
      "type": "tdpseTerbit",
      "id": 8390,
      "attributes": {
        "nomor_pb_umku": "912021828192600000004",
        "nama": "DRC (DISASTER RECOVERY CENTER)",
        "website": "ussi.co.id",
        "sektor": "Sektor Teknologi Informasi dan Komunikasi",
        "nama_perusahaan": "USSI",
        "tanggal_daftar": "2022-07-21",
        "nomor_tanda_daftar": "001020.04/DJAI.PSE/07/2022",
        "qr_code": "https://pse.kominfo.go.id/storage/images/qr_code/73336b8a5c0047649c70cdf2f2fddc64.png",
        "status_id": "TERDAFTAR",
        "sistem_elektronik_id": 8308
      }
    },
    {
      "type": "tdpseTerbit",
      "id": 8386,
      "attributes": {
        "nomor_pb_umku": "912021828192600000003",
        "nama": "VIRTUAL ACCOUNT",
        "website": "ussi.co.id",
        "sektor": "Sektor Teknologi Informasi dan Komunikasi",
        "nama_perusahaan": "USSI",
        "tanggal_daftar": "2022-07-21",
        "nomor_tanda_daftar": "001020.03/DJAI.PSE/07/2022",
        "qr_code": "https://pse.kominfo.go.id/storage/images/qr_code/061552a6c91b5871cd32821d03a3c161.png",
        "status_id": "TERDAFTAR",
        "sistem_elektronik_id": 8302
      }
    },
    {
      "type": "tdpseTerbit",
      "id": 7192,
      "attributes": {
        "nomor_pb_umku": "912021828192600000002",
        "nama": "IBSS CORE BANKING SYSTEM",
        "website": "ussipgs.com",
        "sektor": "Sektor Teknologi Informasi dan Komunikasi",
        "nama_perusahaan": "USSI",
        "tanggal_daftar": "2022-07-19",
        "nomor_tanda_daftar": "001020.02/DJAI.PSE/07/2022",
        "qr_code": "https://pse.kominfo.go.id/storage/images/qr_code/c506d0a0f3895952e9e76e6468f2e463.png",
        "status_id": "TERDAFTAR",
        "sistem_elektronik_id": 7058
      }
    },
    {
      "type": "tdpseTerbit",
      "id": 1552,
      "attributes": {
        "nomor_pb_umku": null,
        "nama": "IBS E-CHANNEL",
        "website": "https://ussi.co.id/",
        "sektor": "Sektor Teknologi Informasi dan Komunikasi",
        "nama_perusahaan": "USSI",
        "tanggal_daftar": "2021-06-24",
        "nomor_tanda_daftar": "001020.01/DJAI.PSE/06/2021",
        "qr_code": "https://pse.kominfo.go.id/storage/images/qr_code/0559f7b700203a6d9a8ad625cb20a4b0.png",
        "status_id": "TERDAFTAR",
        "sistem_elektronik_id": 165
      }
    },
    {
      "type": "tdpseTerbit",
      "id": 1551,
      "attributes": {
        "nomor_pb_umku": null,
        "nama": "jualbeliok.com",
        "website": "jualbeliok.com",
        "sektor": "Sektor Perdagangan",
        "nama_perusahaan": "JUAL BELI OKE",
        "tanggal_daftar": "2021-06-24",
        "nomor_tanda_daftar": "001019.01/DJAI.PSE/06/2021",
        "qr_code": "https://pse.kominfo.go.id/storage/images/qr_code/4ca43b4ff881a1bc8942f4fd1b656769.png",
        "status_id": "TERDAFTAR",
        "sistem_elektronik_id": 1026
      }
    },
    {
      "type": "tdpseTerbit",
      "id": 1550,
      "attributes": {
        "nomor_pb_umku": null,
        "nama": "MIMPI Movement",
        "website": "https://www.mimpimovement.com/",
        "sektor": "Sektor Perdagangan",
        "nama_perusahaan": "GERAKAN MIMPI INDONESIA",
        "tanggal_daftar": "2021-06-24",
        "nomor_tanda_daftar": "001018.01/DJAI.PSE/06/2021",
        "qr_code": "https://pse.kominfo.go.id/storage/images/qr_code/2050fc5966ad63c17121419ffc58af23.png",
        "status_id": "TERDAFTAR",
        "sistem_elektronik_id": 473
      }
    },
    {
      "type": "tdpseTerbit",
      "id": 1553,
      "attributes": {
        "nomor_pb_umku": null,
        "nama": "Hi App",
        "website": "hiapp.id",
        "sektor": "Sektor Teknologi Informasi dan Komunikasi",
        "nama_perusahaan": "HELLO KREASI INDONESIA",
        "tanggal_daftar": "2021-06-24",
        "nomor_tanda_daftar": "001017.02/DJAI.PSE/06/2021",
        "qr_code": "https://pse.kominfo.go.id/storage/images/qr_code/6849736f5fe1cc862b77b00eb4aeb7af.png",
        "status_id": "TERDAFTAR",
        "sistem_elektronik_id": 1076
      }
    },
    {
      "type": "tdpseTerbit",
      "id": 1549,
      "attributes": {
        "nomor_pb_umku": null,
        "nama": "Hi App",
        "website": "hiapp.id",
        "sektor": "Sektor Teknologi Informasi dan Komunikasi",
        "nama_perusahaan": "HELLO KREASI INDONESIA",
        "tanggal_daftar": "2021-06-24",
        "nomor_tanda_daftar": "001017.01/DJAI.PSE/06/2021",
        "qr_code": "https://pse.kominfo.go.id/storage/images/qr_code/e16b72e4cb2cf8c29fc204720ed02895.png",
        "status_id": "TERDAFTAR",
        "sistem_elektronik_id": 1075
      }
    }
  ]
}