{
  "meta": {
    "page": {
      "currentPage": 857,
      "from": 8561,
      "lastPage": 962,
      "perPage": 10,
      "to": 8570,
      "total": 9612
    }
  },
  "data": [
    {
      "type": "tdpseTerbit",
      "id": 9483,
      "attributes": {
        "nomor_pb_umku": "812011619289900530017",
        "nama": "PEGA HCC CLOUDHCC.SINARMAS.CO.ID",
        "website": "sinarmas.co.id",
        "sektor": "Sektor Keuangan",
        "nama_perusahaan": "ASURANSI SINAR MAS",
        "tanggal_daftar": "2022-08-01",
        "nomor_tanda_daftar": "000513.18/DJAI.PSE/08/2022",
        "qr_code": "https://pse.kominfo.go.id/storage/images/qr_code/23cd6316cbd991297eaffd59795d33f1.png",
        "status_id": "TERDAFTAR",
        "sistem_elektronik_id": 9389
      }
    },
    {
      "type": "tdpseTerbit",
      "id": 9482,
      "attributes": {
        "nomor_pb_umku": "812011619289900530016",
        "nama": "PEGA HCC HCC.SINARMAS.CO.ID",
        "website": "sinarmas.co.id",
        "sektor": "Sektor Keuangan",
        "nama_perusahaan": "ASURANSI SINAR MAS",
        "tanggal_daftar": "2022-08-01",
        "nomor_tanda_daftar": "000513.17/DJAI.PSE/08/2022",
        "qr_code": "https://pse.kominfo.go.id/storage/images/qr_code/012b7a8614e4b873a55683b4728b5ca3.png",
        "status_id": "TERDAFTAR",
        "sistem_elektronik_id": 9388
      }
    },
    {
      "type": "tdpseTerbit",
      "id": 9345,
      "attributes": {
        "nomor_pb_umku": "812011619289900530015",
        "nama": "APLIKASI PEGA TRAINING PEGATRAINING.SINARMAS.CO.ID",
        "website": "sinarmas.co.id",
        "sektor": "Sektor Keuangan",
        "nama_perusahaan": "ASURANSI SINAR MAS",
        "tanggal_daftar": "2022-07-29",
        "nomor_tanda_daftar": "000513.16/DJAI.PSE/07/2022",
        "qr_code": "https://pse.kominfo.go.id/storage/images/qr_code/3ff5de0b6978e45c317171621bdac140.png",
        "status_id": "TERDAFTAR",
        "sistem_elektronik_id": 9257
      }
    },
    {
      "type": "tdpseTerbit",
      "id": 9310,
      "attributes": {
        "nomor_pb_umku": "812011619289900530014",
        "nama": "APLIKASI GAMIFICATION GAME.SINARMAS.CO.ID",
        "website": "sinarmas.co.id",
        "sektor": "Sektor Keuangan",
        "nama_perusahaan": "ASURANSI SINAR MAS",
        "tanggal_daftar": "2022-07-28",
        "nomor_tanda_daftar": "000513.15/DJAI.PSE/07/2022",
        "qr_code": "https://pse.kominfo.go.id/storage/images/qr_code/df599e7180a504d733c17a4039035119.png",
        "status_id": "TERDAFTAR",
        "sistem_elektronik_id": 9223
      }
    },
    {
      "type": "tdpseTerbit",
      "id": 9309,
      "attributes": {
        "nomor_pb_umku": "812011619289900530013",
        "nama": "PEGA RISK SCORE EPEFINDO.SINARMAS.CO.ID",
        "website": "sinarmas.co.id",
        "sektor": "Sektor Keuangan",
        "nama_perusahaan": "ASURANSI SINAR MAS",
        "tanggal_daftar": "2022-07-28",
        "nomor_tanda_daftar": "000513.14/DJAI.PSE/07/2022",
        "qr_code": "https://pse.kominfo.go.id/storage/images/qr_code/e3429703e854ada72074afb5e0cc536d.png",
        "status_id": "TERDAFTAR",
        "sistem_elektronik_id": 9221
      }
    },
    {
      "type": "tdpseTerbit",
      "id": 9307,
      "attributes": {
        "nomor_pb_umku": "812011619289900530012",
        "nama": "WEBSITE KLAIM APP.SINARMAS.CO.ID",
        "website": "sinarmas.co.id",
        "sektor": "Sektor Keuangan",
        "nama_perusahaan": "ASURANSI SINAR MAS",
        "tanggal_daftar": "2022-07-28",
        "nomor_tanda_daftar": "000513.13/DJAI.PSE/07/2022",
        "qr_code": "https://pse.kominfo.go.id/storage/images/qr_code/0c950487a8e81aad0ef9fa8a93659883.png",
        "status_id": "TERDAFTAR",
        "sistem_elektronik_id": 9220
      }
    },
    {
      "type": "tdpseTerbit",
      "id": 9295,
      "attributes": {
        "nomor_pb_umku": "812011619289900530011",
        "nama": "APLIKASI PEGA BUSINESS PARTNER API.SINARMAS.CO.ID",
        "website": "sinarmas.co.id",
        "sektor": "Sektor Keuangan",
        "nama_perusahaan": "ASURANSI SINAR MAS",
        "tanggal_daftar": "2022-07-28",
        "nomor_tanda_daftar": "000513.12/DJAI.PSE/07/2022",
        "qr_code": "https://pse.kominfo.go.id/storage/images/qr_code/7beafbce94369b6c6136fcea4fa4c674.png",
        "status_id": "TERDAFTAR",
        "sistem_elektronik_id": 9206
      }
    },
    {
      "type": "tdpseTerbit",
      "id": 9290,
      "attributes": {
        "nomor_pb_umku": "812011619289900530010",
        "nama": "APLIKASI PEGA ASM PRO CLOUDPEGA.SINARMAS.CO.ID",
        "website": "sinarmas.co.id",
        "sektor": "Sektor Keuangan",
        "nama_perusahaan": "ASURANSI SINAR MAS",
        "tanggal_daftar": "2022-07-28",
        "nomor_tanda_daftar": "000513.11/DJAI.PSE/07/2022",
        "qr_code": "https://pse.kominfo.go.id/storage/images/qr_code/515b940ddfd9f057ff11bf1e04681a5a.png",
        "status_id": "TERDAFTAR",
        "sistem_elektronik_id": 9201
      }
    },
    {
      "type": "tdpseTerbit",
      "id": 9288,
      "attributes": {
        "nomor_pb_umku": "812011619289900530009",
        "nama": "PEGA ASM PRO PEGA.SINARMAS.CO.ID",
        "website": "sinarmas.co.id",
        "sektor": "Sektor Keuangan",
        "nama_perusahaan": "ASURANSI SINAR MAS",
        "tanggal_daftar": "2022-07-28",
        "nomor_tanda_daftar": "000513.10/DJAI.PSE/07/2022",
        "qr_code": "https://pse.kominfo.go.id/storage/images/qr_code/d34032cea24af5e32dbf087282bf164d.png",
        "status_id": "TERDAFTAR",
        "sistem_elektronik_id": 9198
      }
    },
    {
      "type": "tdpseTerbit",
      "id": 9284,
      "attributes": {
        "nomor_pb_umku": "812011619289900530008",
        "nama": "APLIKASI MOBILE PEGA ASM PRO PEGAMOBILE.SINARMAS.CO.ID",
        "website": "sinarmas.co.id",
        "sektor": "Sektor Keuangan",
        "nama_perusahaan": "ASURANSI SINAR MAS",
        "tanggal_daftar": "2022-07-28",
        "nomor_tanda_daftar": "000513.09/DJAI.PSE/07/2022",
        "qr_code": "https://pse.kominfo.go.id/storage/images/qr_code/ccf2f77242d04dfe767f1f20878ead4a.png",
        "status_id": "TERDAFTAR",
        "sistem_elektronik_id": 9196
      }
    }
  ]
}