{
  "meta": {
    "page": {
      "currentPage": 858,
      "from": 8571,
      "lastPage": 1005,
      "perPage": 10,
      "to": 8580,
      "total": 10048
    }
  },
  "data": [
    {
      "type": "tdpseTerbit",
      "id": 970,
      "attributes": {
        "nomor_pb_umku": null,
        "nama": "Sajiwa",
        "website": "sajiwafood.id",
        "sektor": "Sektor Keuangan, Sektor Pangan, Sektor Perdagangan, Sektor Teknologi Informasi dan Komunikasi",
        "nama_perusahaan": "MANDALIKA WILASITA SAJIWA",
        "tanggal_daftar": "2021-05-11",
        "nomor_tanda_daftar": "000729.01/DJAI.PSE/05/2021",
        "qr_code": "https://pse.kominfo.go.id/storage/images/qr_code/6b2820cc4b882f5a2e1e0575a1d66419.png",
        "status_id": "TERDAFTAR",
        "sistem_elektronik_id": 677
      }
    },
    {
      "type": "tdpseTerbit",
      "id": 969,
      "attributes": {
        "nomor_pb_umku": null,
        "nama": "DANA CAIR",
        "website": "http://www.danacair.com/",
        "sektor": "Sektor Teknologi Informasi dan Komunikasi",
        "nama_perusahaan": "SIMPAN PINJAM SIMPANAN DARURAT MERAKYAT",
        "tanggal_daftar": "2021-05-11",
        "nomor_tanda_daftar": "000728.01/DJAI.PSE/05/2021",
        "qr_code": "https://pse.kominfo.go.id/storage/images/qr_code/5dddba73bbadcea0add4b380b3c2f8f6.png",
        "status_id": "TERDAFTAR",
        "sistem_elektronik_id": 721
      }
    },
    {
      "type": "tdpseTerbit",
      "id": 968,
      "attributes": {
        "nomor_pb_umku": null,
        "nama": "APEKA.ID",
        "website": "https://apeka.id/",
        "sektor": "Sektor Perdagangan",
        "nama_perusahaan": "APEKA TECHNOLOGY",
        "tanggal_daftar": "2021-05-11",
        "nomor_tanda_daftar": "000727.01/DJAI.PSE/05/2021",
        "qr_code": "https://pse.kominfo.go.id/storage/images/qr_code/553c6688e06c438c1aea0ccf038382a3.png",
        "status_id": "TERDAFTAR",
        "sistem_elektronik_id": 3310
      }
    },
    {
      "type": "tdpseTerbit",
      "id": 967,
      "attributes": {
        "nomor_pb_umku": null,
        "nama": "KLIK KAMI",
        "website": "https://www.klikkami.co.id/",
        "sektor": "Sektor Keuangan",
        "nama_perusahaan": "HARAPAN FINTECH INDONESIA",
        "tanggal_daftar": "2021-05-11",
        "nomor_tanda_daftar": "000726.01/DJAI.PSE/05/2021",
        "qr_code": "https://pse.kominfo.go.id/storage/images/qr_code/548bc6297f064eab6536eb4891a5825a.png",
        "status_id": "TERDAFTAR",
        "sistem_elektronik_id": 483
      }
    },
    {
      "type": "tdpseTerbit",
      "id": 966,
      "attributes": {
        "nomor_pb_umku": null,
        "nama": "Kepoo",
        "website": "www.kepoo.id",
        "sektor": "Sektor Perdagangan, Sektor Teknologi Informasi dan Komunikasi",
        "nama_perusahaan": "KEPOO SOLUSI INDONESIA",
        "tanggal_daftar": "2021-05-11",
        "nomor_tanda_daftar": "000725.01/DJAI.PSE/05/2021",
        "qr_code": "https://pse.kominfo.go.id/storage/images/qr_code/3ab18fc05930725f2bc3b2b109c3c59c.png",
        "status_id": "TERDAFTAR",
        "sistem_elektronik_id": 73
      }
    },
    {
      "type": "tdpseTerbit",
      "id": 965,
      "attributes": {
        "nomor_pb_umku": null,
        "nama": "MyTaspenlife",
        "website": "https://my.taspenlife.com/",
        "sektor": "Sektor Teknologi Informasi dan Komunikasi",
        "nama_perusahaan": "ASURANSI JIWA TASPEN",
        "tanggal_daftar": "2021-05-11",
        "nomor_tanda_daftar": "000724.01/DJAI.PSE/05/2021",
        "qr_code": "https://pse.kominfo.go.id/storage/images/qr_code/d07b43b2026671529e9e7983fb5a2dcc.png",
        "status_id": "TERDAFTAR",
        "sistem_elektronik_id": 311
      }
    },
    {
      "type": "tdpseTerbit",
      "id": 963,
      "attributes": {
        "nomor_pb_umku": null,
        "nama": "Modal Uang",
        "website": "http://kspsinergimaju.id/",
        "sektor": "Sektor Keuangan, Sektor Perdagangan",
        "nama_perusahaan": "KONSUMEN SINERGI MAJU MAKMUR",
        "tanggal_daftar": "2021-05-11",
        "nomor_tanda_daftar": "000723.01/DJAI.PSE/05/2021",
        "qr_code": "https://pse.kominfo.go.id/storage/images/qr_code/592e2d3a4a531dada598a19fe778fea4.png",
        "status_id": "TERDAFTAR",
        "sistem_elektronik_id": 3309
      }
    },
    {
      "type": "tdpseTerbit",
      "id": 10118,
      "attributes": {
        "nomor_pb_umku": "912021901110400050002",
        "nama": "STRIVE",
        "website": "app.aldiracita.com",
        "sektor": "Sektor Keuangan",
        "nama_perusahaan": "ALDIRACITA SEKURITAS INDONESIA",
        "tanggal_daftar": "2022-08-09",
        "nomor_tanda_daftar": "000722.02/DJAI.PSE/08/2022",
        "qr_code": "https://pse.kominfo.go.id/storage/images/qr_code/4070f9a721c777f4ed0843e41b5c44fd.png",
        "status_id": "TERDAFTAR",
        "sistem_elektronik_id": 10000
      }
    },
    {
      "type": "tdpseTerbit",
      "id": 962,
      "attributes": {
        "nomor_pb_umku": null,
        "nama": "Sistem Brokerage Office System S21-Plus Aldiracita",
        "website": "www.aldiracita.com",
        "sektor": "Sektor Keuangan",
        "nama_perusahaan": "ALDIRACITA SEKURITAS INDONESIA",
        "tanggal_daftar": "2021-05-11",
        "nomor_tanda_daftar": "000722.01/DJAI.PSE/05/2021",
        "qr_code": "https://pse.kominfo.go.id/storage/images/qr_code/924a588d0214b778b697d053ea7e9179.png",
        "status_id": "TERDAFTAR",
        "sistem_elektronik_id": 715
      }
    },
    {
      "type": "tdpseTerbit",
      "id": 961,
      "attributes": {
        "nomor_pb_umku": null,
        "nama": "Edukasi MasaDepan",
        "website": "www.masadepan.com",
        "sektor": "Sektor Perdagangan",
        "nama_perusahaan": "EDUKASI MASA DEPAN",
        "tanggal_daftar": "2021-05-11",
        "nomor_tanda_daftar": "000721.01/DJAI.PSE/05/2021",
        "qr_code": "https://pse.kominfo.go.id/storage/images/qr_code/e590f96a3bac5d2b3532459381648223.png",
        "status_id": "TERDAFTAR",
        "sistem_elektronik_id": 3308
      }
    }
  ]
}