{
  "meta": {
    "page": {
      "currentPage": 859,
      "from": 8581,
      "lastPage": 896,
      "perPage": 10,
      "to": 8590,
      "total": 8957
    }
  },
  "data": [
    {
      "type": "tdpseTerbit",
      "id": 1412,
      "attributes": {
        "nomor_pb_umku": null,
        "nama": "iclick.generali.co.id",
        "website": "https://iclick.generali.co.id",
        "sektor": "Sektor Keuangan",
        "nama_perusahaan": "ASURANSI JIWA GENERALI INDONESIA",
        "tanggal_daftar": "2021-06-09",
        "nomor_tanda_daftar": "000217.06/DJAI.PSE/06/2021",
        "qr_code": "https://pse.kominfo.go.id/storage/images/qr_code/7caa6f042a7c2f2c84c13b7a2797a1d2.png",
        "status_id": "TERDAFTAR",
        "sistem_elektronik_id": 2690
      }
    },
    {
      "type": "tdpseTerbit",
      "id": 1391,
      "attributes": {
        "nomor_pb_umku": null,
        "nama": "Gen iClick",
        "website": "-",
        "sektor": "Sektor Keuangan",
        "nama_perusahaan": "ASURANSI JIWA GENERALI INDONESIA",
        "tanggal_daftar": "2021-06-09",
        "nomor_tanda_daftar": "000217.05/DJAI.PSE/06/2021",
        "qr_code": "https://pse.kominfo.go.id/storage/images/qr_code/829fb83eab06114807751af156822f11.png",
        "status_id": "TERDAFTAR",
        "sistem_elektronik_id": 2689
      }
    },
    {
      "type": "tdpseTerbit",
      "id": 1390,
      "attributes": {
        "nomor_pb_umku": null,
        "nama": "iconnectagency.generali.co.id",
        "website": "https://iconnectagency.generali.co.id/",
        "sektor": "Sektor Keuangan",
        "nama_perusahaan": "ASURANSI JIWA GENERALI INDONESIA",
        "tanggal_daftar": "2021-06-02",
        "nomor_tanda_daftar": "000217.04/DJAI.PSE/06/2021",
        "qr_code": "https://pse.kominfo.go.id/storage/images/qr_code/bb06c8d61c3d305c318c01b0596e2dab.png",
        "status_id": "TERDAFTAR",
        "sistem_elektronik_id": 2688
      }
    },
    {
      "type": "tdpseTerbit",
      "id": 1381,
      "attributes": {
        "nomor_pb_umku": null,
        "nama": "Generali Agency - mConnect",
        "website": "-",
        "sektor": "Sektor Keuangan, Sektor Perdagangan",
        "nama_perusahaan": "ASURANSI JIWA GENERALI INDONESIA",
        "tanggal_daftar": "2021-06-02",
        "nomor_tanda_daftar": "000217.03/DJAI.PSE/06/2021",
        "qr_code": "https://pse.kominfo.go.id/storage/images/qr_code/3d45a8b7df30cf81eda26233ca7576c4.png",
        "status_id": "TERDAFTAR",
        "sistem_elektronik_id": 2687
      }
    },
    {
      "type": "tdpseTerbit",
      "id": 278,
      "attributes": {
        "nomor_pb_umku": null,
        "nama": "Sahabat Berbagi",
        "website": "-",
        "sektor": "Sektor Keuangan, Sektor Perdagangan",
        "nama_perusahaan": "ASURANSI JIWA GENERALI INDONESIA",
        "tanggal_daftar": "2021-03-04",
        "nomor_tanda_daftar": "000217.02/DJAI.PSE/03/2021",
        "qr_code": "https://pse.kominfo.go.id/storage/images/qr_code/51c12436e415ee40350e6a28367c1e52.png",
        "status_id": "TERDAFTAR",
        "sistem_elektronik_id": 2686
      }
    },
    {
      "type": "tdpseTerbit",
      "id": 255,
      "attributes": {
        "nomor_pb_umku": null,
        "nama": "Generali Website",
        "website": "www.generali.co.id",
        "sektor": "Sektor Keuangan, Sektor Perdagangan",
        "nama_perusahaan": "ASURANSI JIWA GENERALI INDONESIA",
        "tanggal_daftar": "2021-02-25",
        "nomor_tanda_daftar": "000217.01/DJAI.PSE/02/2021",
        "qr_code": "https://pse.kominfo.go.id/storage/images/qr_code/1584aa92a596ffcb7f00a47c204f291a.png",
        "status_id": "TERDAFTAR",
        "sistem_elektronik_id": 2685
      }
    },
    {
      "type": "tdpseTerbit",
      "id": 254,
      "attributes": {
        "nomor_pb_umku": null,
        "nama": "Aplikasi Grab",
        "website": "www.grab.com",
        "sektor": "Sektor Perdagangan",
        "nama_perusahaan": "GRAB TEKNOLOGI INDONESIA",
        "tanggal_daftar": "2021-02-25",
        "nomor_tanda_daftar": "000216.01/DJAI.PSE/02/2021",
        "qr_code": "https://pse.kominfo.go.id/storage/images/qr_code/5618bf268cb5e81b3835efbad3f810ab.png",
        "status_id": "TERDAFTAR",
        "sistem_elektronik_id": 2785
      }
    },
    {
      "type": "tdpseTerbit",
      "id": 253,
      "attributes": {
        "nomor_pb_umku": null,
        "nama": "SOOPLAI",
        "website": "www.sooplai.com",
        "sektor": "Sektor Perdagangan",
        "nama_perusahaan": "SOOPLAI INDONESIA PRATAMA",
        "tanggal_daftar": "2021-02-25",
        "nomor_tanda_daftar": "000215.01/DJAI.PSE/02/2021",
        "qr_code": "https://pse.kominfo.go.id/storage/images/qr_code/5c8e4565b833f94560959903c5e81b55.png",
        "status_id": "TERDAFTAR",
        "sistem_elektronik_id": 2726
      }
    },
    {
      "type": "tdpseTerbit",
      "id": 4802,
      "attributes": {
        "nomor_pb_umku": "028600191047600350002",
        "nama": "LKP MASTER COURSE",
        "website": "mastercourse.ac.id",
        "sektor": "Sektor Perdagangan, Sektor Teknologi Informasi dan Komunikasi",
        "nama_perusahaan": "LKP MASTER COURSE",
        "tanggal_daftar": "2022-06-27",
        "nomor_tanda_daftar": "000214.03/DJAI.PSE/06/2022",
        "qr_code": "https://pse.kominfo.go.id/storage/images/qr_code/4a6462b5290de0854c583a7178ca65ec.png",
        "status_id": "TERDAFTAR",
        "sistem_elektronik_id": 4744
      }
    },
    {
      "type": "tdpseTerbit",
      "id": 2869,
      "attributes": {
        "nomor_pb_umku": null,
        "nama": "MASTER COURSE",
        "website": "www.mastercourse.ac.id",
        "sektor": "Sektor Perdagangan, Sektor Teknologi Informasi dan Komunikasi",
        "nama_perusahaan": "LKP MASTER COURSE",
        "tanggal_daftar": "2021-12-24",
        "nomor_tanda_daftar": "000214.02/DJAI.PSE/12/2021",
        "qr_code": "https://pse.kominfo.go.id/storage/images/qr_code/97efbf48ad3068551bcf584962bd39c6.png",
        "status_id": "TERDAFTAR",
        "sistem_elektronik_id": 2564
      }
    }
  ]
}