{
  "meta": {
    "page": {
      "currentPage": 861,
      "from": 8601,
      "lastPage": 1055,
      "perPage": 10,
      "to": 8610,
      "total": 10545
    }
  },
  "data": [
    {
      "type": "tdpseTerbit",
      "id": 1400,
      "attributes": {
        "nomor_pb_umku": null,
        "nama": "Tlusure",
        "website": "http://tlusure.com",
        "sektor": "Sektor Teknologi Informasi dan Komunikasi",
        "nama_perusahaan": "FANTASTIS ANAK BANGSA INDONESIA",
        "tanggal_daftar": "2021-06-09",
        "nomor_tanda_daftar": "000933.01/DJAI.PSE/06/2021",
        "qr_code": "https://pse.kominfo.go.id/storage/images/qr_code/6ab7d82bbb8c8b9dd0ae6f5523eb6efc.png",
        "status_id": "TERDAFTAR",
        "sistem_elektronik_id": 674
      }
    },
    {
      "type": "tdpseTerbit",
      "id": 1401,
      "attributes": {
        "nomor_pb_umku": null,
        "nama": "Smartyseller Indonesia",
        "website": "Https://www.smartyseller.id",
        "sektor": "Sektor Perdagangan",
        "nama_perusahaan": "SMARTY SEJAHTERA INDONESIA",
        "tanggal_daftar": "2021-06-09",
        "nomor_tanda_daftar": "000932.02/DJAI.PSE/06/2021",
        "qr_code": "https://pse.kominfo.go.id/storage/images/qr_code/8efdd9cfa09b32d5582f5cabe6d34a8d.png",
        "status_id": "TERDAFTAR",
        "sistem_elektronik_id": 1025
      }
    },
    {
      "type": "tdpseTerbit",
      "id": 1399,
      "attributes": {
        "nomor_pb_umku": null,
        "nama": "Smarty Platform",
        "website": "https://www.smartyshop.co.id",
        "sektor": "Sektor Perdagangan, Sektor Teknologi Informasi dan Komunikasi",
        "nama_perusahaan": "SMARTY SEJAHTERA INDONESIA",
        "tanggal_daftar": "2021-06-09",
        "nomor_tanda_daftar": "000932.01/DJAI.PSE/06/2021",
        "qr_code": "https://pse.kominfo.go.id/storage/images/qr_code/15b7966c2d8024433bf9a18a3c160c26.png",
        "status_id": "TERDAFTAR",
        "sistem_elektronik_id": 1024
      }
    },
    {
      "type": "tdpseTerbit",
      "id": 1398,
      "attributes": {
        "nomor_pb_umku": null,
        "nama": "Sayurbox",
        "website": "www.sayurbox.com",
        "sektor": "Sektor Perdagangan",
        "nama_perusahaan": "KREASI NOSTRA MANDIRI",
        "tanggal_daftar": "2021-06-09",
        "nomor_tanda_daftar": "000931.01/DJAI.PSE/06/2021",
        "qr_code": "https://pse.kominfo.go.id/storage/images/qr_code/8eae1baf0014350781ae58e69d30134a.png",
        "status_id": "TERDAFTAR",
        "sistem_elektronik_id": 1020
      }
    },
    {
      "type": "tdpseTerbit",
      "id": 1397,
      "attributes": {
        "nomor_pb_umku": null,
        "nama": "Plum",
        "website": "plum.id",
        "sektor": "Sektor Perdagangan",
        "nama_perusahaan": "KONSUMEN DIGITAL ASET NUSANTARA",
        "tanggal_daftar": "2021-06-09",
        "nomor_tanda_daftar": "000930.01/DJAI.PSE/06/2021",
        "qr_code": "https://pse.kominfo.go.id/storage/images/qr_code/723127e21eeef3f542ea081fdb39da21.png",
        "status_id": "TERDAFTAR",
        "sistem_elektronik_id": 3361
      }
    },
    {
      "type": "tdpseTerbit",
      "id": 1866,
      "attributes": {
        "nomor_pb_umku": null,
        "nama": "UNIQLO INDONESIA",
        "website": "uniqlo.com/id",
        "sektor": "Sektor Perdagangan",
        "nama_perusahaan": "FAST RETAILING INDONESIA",
        "tanggal_daftar": "2021-08-09",
        "nomor_tanda_daftar": "000929.02/DJAI.PSE/08/2021",
        "qr_code": "https://pse.kominfo.go.id/storage/images/qr_code/c6010c5c7a538988c04e4ccba9eef25f.png",
        "status_id": "TERDAFTAR",
        "sistem_elektronik_id": 1023
      }
    },
    {
      "type": "tdpseTerbit",
      "id": 1396,
      "attributes": {
        "nomor_pb_umku": null,
        "nama": "UNIQLO",
        "website": "https://uniqlo.com/id",
        "sektor": "Sektor Perdagangan",
        "nama_perusahaan": "FAST RETAILING INDONESIA",
        "tanggal_daftar": "2021-06-09",
        "nomor_tanda_daftar": "000929.01/DJAI.PSE/06/2021",
        "qr_code": "https://pse.kominfo.go.id/storage/images/qr_code/289547e423b9b2cec60310cb3b88704e.png",
        "status_id": "TERDAFTAR",
        "sistem_elektronik_id": 1022
      }
    },
    {
      "type": "tdpseTerbit",
      "id": 9971,
      "attributes": {
        "nomor_pb_umku": "912020553049100040004",
        "nama": "CHUBB LIFE- BALANCE",
        "website": "chubb.com",
        "sektor": "Sektor Keuangan",
        "nama_perusahaan": "CHUBB LIFE INSURANCE INDONESIA",
        "tanggal_daftar": "2022-08-05",
        "nomor_tanda_daftar": "000928.02/DJAI.PSE/08/2022",
        "qr_code": "https://pse.kominfo.go.id/storage/images/qr_code/7613421326c470dddd5e4231cabf9535.png",
        "status_id": "TERDAFTAR",
        "sistem_elektronik_id": 9859
      }
    },
    {
      "type": "tdpseTerbit",
      "id": 1395,
      "attributes": {
        "nomor_pb_umku": null,
        "nama": "Customer Corner",
        "website": "https://customercorner.chubblife.co.id/",
        "sektor": "Sektor Keuangan",
        "nama_perusahaan": "CHUBB LIFE INSURANCE INDONESIA",
        "tanggal_daftar": "2021-06-09",
        "nomor_tanda_daftar": "000928.01/DJAI.PSE/06/2021",
        "qr_code": "https://pse.kominfo.go.id/storage/images/qr_code/e9261651d1562fdc2e9b53a873dc8f4b.png",
        "status_id": "TERDAFTAR",
        "sistem_elektronik_id": 80
      }
    },
    {
      "type": "tdpseTerbit",
      "id": 1394,
      "attributes": {
        "nomor_pb_umku": null,
        "nama": "Dashboard DomaiNesia",
        "website": "www.domainesia.com",
        "sektor": "Sektor Teknologi Informasi dan Komunikasi",
        "nama_perusahaan": "DELTA NEVA ANGKASA",
        "tanggal_daftar": "2021-06-09",
        "nomor_tanda_daftar": "000927.01/DJAI.PSE/06/2021",
        "qr_code": "https://pse.kominfo.go.id/storage/images/qr_code/3b895f571f94587a3da8912d125b6fa2.png",
        "status_id": "TERDAFTAR",
        "sistem_elektronik_id": 3481
      }
    }
  ]
}