{
  "meta": {
    "page": {
      "currentPage": 862,
      "from": 8611,
      "lastPage": 1085,
      "perPage": 10,
      "to": 8620,
      "total": 10842
    }
  },
  "data": [
    {
      "type": "tdpseTerbit",
      "id": 1698,
      "attributes": {
        "nomor_pb_umku": null,
        "nama": "APLIKASI TRANSPORTASI ONLINE",
        "website": "rodaindonesia.site",
        "sektor": "Sektor Teknologi Informasi dan Komunikasi, Sektor Transportasi",
        "nama_perusahaan": "NGAASAN TAAS NIATEAN",
        "tanggal_daftar": "2021-07-15",
        "nomor_tanda_daftar": "001116.01/DJAI.PSE/07/2021",
        "qr_code": "https://pse.kominfo.go.id/storage/images/qr_code/19e6fd7c4e8c1bdd8e4c18b17bcd91d5.png",
        "status_id": "TERDAFTAR",
        "sistem_elektronik_id": 1249
      }
    },
    {
      "type": "tdpseTerbit",
      "id": 1697,
      "attributes": {
        "nomor_pb_umku": null,
        "nama": "Mahardikatekno",
        "website": "-",
        "sektor": "Sektor Teknologi Informasi dan Komunikasi",
        "nama_perusahaan": "MAHARDIKA TEKNOTAMA INTEGRASI",
        "tanggal_daftar": "2021-07-15",
        "nomor_tanda_daftar": "001115.01/DJAI.PSE/07/2021",
        "qr_code": "https://pse.kominfo.go.id/storage/images/qr_code/31fd248edf480fc7076b7437c31e533f.png",
        "status_id": "TERDAFTAR",
        "sistem_elektronik_id": 1248
      }
    },
    {
      "type": "tdpseTerbit",
      "id": 1696,
      "attributes": {
        "nomor_pb_umku": null,
        "nama": "jagi.id",
        "website": "Jagi.id",
        "sektor": "Sektor Teknologi Informasi dan Komunikasi",
        "nama_perusahaan": "INDI PLATFORM RAKSASA",
        "tanggal_daftar": "2021-07-15",
        "nomor_tanda_daftar": "001114.01/DJAI.PSE/07/2021",
        "qr_code": "https://pse.kominfo.go.id/storage/images/qr_code/020283a09abd2b1e6652fd50ac04fe5a.png",
        "status_id": "TERDAFTAR",
        "sistem_elektronik_id": 474
      }
    },
    {
      "type": "tdpseTerbit",
      "id": 1695,
      "attributes": {
        "nomor_pb_umku": null,
        "nama": "Zahir Online",
        "website": "www.zahironline.com",
        "sektor": "Sektor Teknologi Informasi dan Komunikasi",
        "nama_perusahaan": "ZAHIR INTERNASIONAL",
        "tanggal_daftar": "2021-07-15",
        "nomor_tanda_daftar": "001113.01/DJAI.PSE/07/2021",
        "qr_code": "https://pse.kominfo.go.id/storage/images/qr_code/4ffe64402211009f55b01d979ad2140d.png",
        "status_id": "TERDAFTAR",
        "sistem_elektronik_id": 1236
      }
    },
    {
      "type": "tdpseTerbit",
      "id": 1694,
      "attributes": {
        "nomor_pb_umku": null,
        "nama": "Rewata",
        "website": "https://rewata.id/",
        "sektor": "Sektor Perdagangan, Sektor Teknologi Informasi dan Komunikasi",
        "nama_perusahaan": "REWATA THERA INDONESIA",
        "tanggal_daftar": "2021-07-15",
        "nomor_tanda_daftar": "001112.01/DJAI.PSE/07/2021",
        "qr_code": "https://pse.kominfo.go.id/storage/images/qr_code/cd79ce57492abd6bbf8b93972dde76b6.png",
        "status_id": "TERDAFTAR",
        "sistem_elektronik_id": 3485
      }
    },
    {
      "type": "tdpseTerbit",
      "id": 1693,
      "attributes": {
        "nomor_pb_umku": null,
        "nama": "LINKITA",
        "website": "www.linkita.id",
        "sektor": "Sektor Teknologi Informasi dan Komunikasi",
        "nama_perusahaan": "GERBANG PEMBAYARAN INDONESIA",
        "tanggal_daftar": "2021-07-15",
        "nomor_tanda_daftar": "001111.01/DJAI.PSE/07/2021",
        "qr_code": "https://pse.kominfo.go.id/storage/images/qr_code/64cadaa7ccb4c4664f60f7fb2a0d6019.png",
        "status_id": "TERDAFTAR",
        "sistem_elektronik_id": 1240
      }
    },
    {
      "type": "tdpseTerbit",
      "id": 1692,
      "attributes": {
        "nomor_pb_umku": null,
        "nama": "GoCement",
        "website": "-",
        "sektor": "Sektor Perdagangan",
        "nama_perusahaan": "MITRA SEMEN ASIA",
        "tanggal_daftar": "2021-07-15",
        "nomor_tanda_daftar": "001110.01/DJAI.PSE/07/2021",
        "qr_code": "https://pse.kominfo.go.id/storage/images/qr_code/68cc5d96b90eed4e46ac874c5b2dd457.png",
        "status_id": "TERDAFTAR",
        "sistem_elektronik_id": 1250
      }
    },
    {
      "type": "tdpseTerbit",
      "id": 1691,
      "attributes": {
        "nomor_pb_umku": null,
        "nama": "Olimpus Teknologi Indonesia",
        "website": "olympusdax.com",
        "sektor": "Sektor Perdagangan",
        "nama_perusahaan": "OLIMPUS TEKNOLOGI INDONESIA",
        "tanggal_daftar": "2021-07-15",
        "nomor_tanda_daftar": "001109.01/DJAI.PSE/07/2021",
        "qr_code": "https://pse.kominfo.go.id/storage/images/qr_code/659246008cc27d613aa2fbe53b91e481.png",
        "status_id": "TERDAFTAR",
        "sistem_elektronik_id": 1253
      }
    },
    {
      "type": "tdpseTerbit",
      "id": 1690,
      "attributes": {
        "nomor_pb_umku": null,
        "nama": "nanovest.io",
        "website": "http://www.nanovest.io",
        "sektor": "Sektor Perdagangan",
        "nama_perusahaan": "TUMBUH BERSAMA NANO",
        "tanggal_daftar": "2021-07-15",
        "nomor_tanda_daftar": "001108.01/DJAI.PSE/07/2021",
        "qr_code": "https://pse.kominfo.go.id/storage/images/qr_code/d395ae60964ff2e368e71308befed6b4.png",
        "status_id": "TERDAFTAR",
        "sistem_elektronik_id": 1252
      }
    },
    {
      "type": "tdpseTerbit",
      "id": 1689,
      "attributes": {
        "nomor_pb_umku": null,
        "nama": "PINJAMARIA",
        "website": "Http://www.pinjamaria.com/",
        "sektor": "Sektor Keuangan",
        "nama_perusahaan": "SIMPAN PINJAM PINJAMARIA PINJAMARIA PLUS",
        "tanggal_daftar": "2021-07-15",
        "nomor_tanda_daftar": "001107.01/DJAI.PSE/07/2021",
        "qr_code": "https://pse.kominfo.go.id/storage/images/qr_code/17cca50dd43469952ad89c4aa148cc56.png",
        "status_id": "TERDAFTAR",
        "sistem_elektronik_id": 1245
      }
    }
  ]
}