{
  "meta": {
    "page": {
      "currentPage": 865,
      "from": 8641,
      "lastPage": 912,
      "perPage": 10,
      "to": 8650,
      "total": 9118
    }
  },
  "data": [
    {
      "type": "tdpseTerbit",
      "id": 4260,
      "attributes": {
        "nomor_pb_umku": "240522001585200020001",
        "nama": "94AI INTELLIGENT USER OPERATION PLATFORM",
        "website": "94ai.com",
        "sektor": "Sektor Perdagangan, Sektor Teknologi Informasi dan Komunikasi",
        "nama_perusahaan": "AISEMBILANEMPAT INFORMASI TECHNOLOGY",
        "tanggal_daftar": "2022-06-07",
        "nomor_tanda_daftar": "000265.01/DJAI.PSE/06/2022",
        "qr_code": "https://pse.kominfo.go.id/storage/images/qr_code/c0d07230329b5cdc5f289797ffa6bd0e.png",
        "status_id": "TERDAFTAR",
        "sistem_elektronik_id": 4255
      }
    },
    {
      "type": "tdpseTerbit",
      "id": 314,
      "attributes": {
        "nomor_pb_umku": null,
        "nama": "Tokocrypto",
        "website": "https://www.tokocrypto.com/",
        "sektor": "Sektor Perdagangan",
        "nama_perusahaan": "ASET DIGITAL BERKAT",
        "tanggal_daftar": "2021-03-04",
        "nomor_tanda_daftar": "000265.01/DJAI.PSE/03/2021",
        "qr_code": "https://pse.kominfo.go.id/storage/images/qr_code/c7f442e8e90637999e1ff7994b71445f.png",
        "status_id": "TERDAFTAR",
        "sistem_elektronik_id": 3509
      }
    },
    {
      "type": "tdpseTerbit",
      "id": 4315,
      "attributes": {
        "nomor_pb_umku": "081021001412400010001",
        "nama": "DUITCROWD",
        "website": "duitcrowd.id",
        "sektor": "Sektor Keuangan",
        "nama_perusahaan": "URUN DANA MAJU NUSANTARA",
        "tanggal_daftar": "2022-06-09",
        "nomor_tanda_daftar": "000264.01/DJAI.PSE/06/2022",
        "qr_code": "https://pse.kominfo.go.id/storage/images/qr_code/3d33e7a4147fc8c96f18ea8696e147cc.png",
        "status_id": "TERDAFTAR",
        "sistem_elektronik_id": 4308
      }
    },
    {
      "type": "tdpseTerbit",
      "id": 312,
      "attributes": {
        "nomor_pb_umku": null,
        "nama": "Gudang Game",
        "website": "https://gudanggame.id/",
        "sektor": "Sektor Perdagangan",
        "nama_perusahaan": "GUDANG INOVASI INDONESIA",
        "tanggal_daftar": "2021-03-04",
        "nomor_tanda_daftar": "000264.01/DJAI.PSE/03/2021",
        "qr_code": "https://pse.kominfo.go.id/storage/images/qr_code/89e0a0c340bb424c32aacb88263e422f.png",
        "status_id": "TERDAFTAR",
        "sistem_elektronik_id": 52
      }
    },
    {
      "type": "tdpseTerbit",
      "id": 311,
      "attributes": {
        "nomor_pb_umku": null,
        "nama": "Nono_Style",
        "website": "www.nonostyle.id",
        "sektor": "Sektor Perdagangan",
        "nama_perusahaan": "NONO STYLE INDONESIA",
        "tanggal_daftar": "2021-03-04",
        "nomor_tanda_daftar": "000263.01/DJAI.PSE/03/2021",
        "qr_code": "https://pse.kominfo.go.id/storage/images/qr_code/9822905554e59a6516aa9e121b93c78c.png",
        "status_id": "TERDAFTAR",
        "sistem_elektronik_id": 2731
      }
    },
    {
      "type": "tdpseTerbit",
      "id": 310,
      "attributes": {
        "nomor_pb_umku": null,
        "nama": "REERACOEN INDONESIA",
        "website": "www.reeracoen.co.id",
        "sektor": "Sektor Teknologi Informasi dan Komunikasi",
        "nama_perusahaan": "REERACOEN INDONESIA",
        "tanggal_daftar": "2021-03-04",
        "nomor_tanda_daftar": "000262.01/DJAI.PSE/03/2021",
        "qr_code": "https://pse.kominfo.go.id/storage/images/qr_code/517abaa78b7033b03b8ecd3e6d6a265f.png",
        "status_id": "TERDAFTAR",
        "sistem_elektronik_id": 21
      }
    },
    {
      "type": "tdpseTerbit",
      "id": 5824,
      "attributes": {
        "nomor_pb_umku": "912060175341900050001",
        "nama": "NAROBIL",
        "website": "ns1.optima-s.co.id",
        "sektor": "Sektor Teknologi Informasi dan Komunikasi",
        "nama_perusahaan": "JATELINDO PERKASA ABADI",
        "tanggal_daftar": "2022-07-15",
        "nomor_tanda_daftar": "000261.02/DJAI.PSE/07/2022",
        "qr_code": "https://pse.kominfo.go.id/storage/images/qr_code/e01e7a34b1c2cac340cd46e9c57dc645.png",
        "status_id": "TERDAFTAR",
        "sistem_elektronik_id": 5672
      }
    },
    {
      "type": "tdpseTerbit",
      "id": 309,
      "attributes": {
        "nomor_pb_umku": null,
        "nama": "Fello",
        "website": "fello.id",
        "sektor": "Sektor Keuangan, Sektor Perdagangan",
        "nama_perusahaan": "JATELINDO PERKASA ABADI",
        "tanggal_daftar": "2021-03-04",
        "nomor_tanda_daftar": "000261.01/DJAI.PSE/03/2021",
        "qr_code": "https://pse.kominfo.go.id/storage/images/qr_code/edc738250ed4776b6f7d2eda31c41f6d.png",
        "status_id": "TERDAFTAR",
        "sistem_elektronik_id": 79
      }
    },
    {
      "type": "tdpseTerbit",
      "id": 307,
      "attributes": {
        "nomor_pb_umku": null,
        "nama": "VIDIO",
        "website": "www.vidio.com",
        "sektor": "Sektor Teknologi Informasi dan Komunikasi",
        "nama_perusahaan": "VIDIO DOT COM",
        "tanggal_daftar": "2021-03-04",
        "nomor_tanda_daftar": "000260.01/DJAI.PSE/03/2021",
        "qr_code": "https://pse.kominfo.go.id/storage/images/qr_code/096a964b41712d71f010915572240b87.png",
        "status_id": "TERDAFTAR",
        "sistem_elektronik_id": 2667
      }
    },
    {
      "type": "tdpseTerbit",
      "id": 306,
      "attributes": {
        "nomor_pb_umku": null,
        "nama": "MotionPay",
        "website": "https://www.motionpay.id/",
        "sektor": "Sektor Keuangan",
        "nama_perusahaan": "MNC TEKNOLOGI NUSANTARA",
        "tanggal_daftar": "2021-03-04",
        "nomor_tanda_daftar": "000259.01/DJAI.PSE/03/2021",
        "qr_code": "https://pse.kominfo.go.id/storage/images/qr_code/5826df5e1e121ef3b4802b9ae0fbe53c.png",
        "status_id": "TERDAFTAR",
        "sistem_elektronik_id": 2319
      }
    }
  ]
}