{
  "meta": {
    "page": {
      "currentPage": 866,
      "from": 8651,
      "lastPage": 1085,
      "perPage": 10,
      "to": 8660,
      "total": 10842
    }
  },
  "data": [
    {
      "type": "tdpseTerbit",
      "id": 1657,
      "attributes": {
        "nomor_pb_umku": null,
        "nama": "LAUT SELATAN TEKNOLOGI",
        "website": "lautselatan.id",
        "sektor": "Sektor Perdagangan",
        "nama_perusahaan": "LAUT SELATAN TEKNOLOGI",
        "tanggal_daftar": "2021-07-08",
        "nomor_tanda_daftar": "001089.01/DJAI.PSE/07/2021",
        "qr_code": "https://pse.kominfo.go.id/storage/images/qr_code/172414401436bb06bebf29252f9f0b79.png",
        "status_id": "TERDAFTAR",
        "sistem_elektronik_id": 1210
      }
    },
    {
      "type": "tdpseTerbit",
      "id": 1903,
      "attributes": {
        "nomor_pb_umku": null,
        "nama": "website binus.edu",
        "website": "https://www.binus.edu/",
        "sektor": "Sektor Teknologi Informasi dan Komunikasi",
        "nama_perusahaan": "BINA NUSANTARA",
        "tanggal_daftar": "2021-09-28",
        "nomor_tanda_daftar": "001088.03/DJAI.PSE/09/2021",
        "qr_code": "https://pse.kominfo.go.id/storage/images/qr_code/be4d7e92b50580c2c59dcc9e4c58b951.png",
        "status_id": "TERDAFTAR",
        "sistem_elektronik_id": 403
      }
    },
    {
      "type": "tdpseTerbit",
      "id": 1656,
      "attributes": {
        "nomor_pb_umku": null,
        "nama": "website binus.sch.id",
        "website": "http://binus.sch.id",
        "sektor": "Sektor Teknologi Informasi dan Komunikasi",
        "nama_perusahaan": "BINA NUSANTARA",
        "tanggal_daftar": "2021-07-08",
        "nomor_tanda_daftar": "001088.02/DJAI.PSE/07/2021",
        "qr_code": "https://pse.kominfo.go.id/storage/images/qr_code/fd7b8c4bbe9596d6a62c7c2ecd37610a.png",
        "status_id": "TERDAFTAR",
        "sistem_elektronik_id": 402
      }
    },
    {
      "type": "tdpseTerbit",
      "id": 1655,
      "attributes": {
        "nomor_pb_umku": null,
        "nama": "website binus.ac.id",
        "website": "http://binus.ac.id",
        "sektor": "Sektor Teknologi Informasi dan Komunikasi",
        "nama_perusahaan": "BINA NUSANTARA",
        "tanggal_daftar": "2021-07-08",
        "nomor_tanda_daftar": "001088.01/DJAI.PSE/07/2021",
        "qr_code": "https://pse.kominfo.go.id/storage/images/qr_code/1836d4c7bef5f93c93e8334d672927e3.png",
        "status_id": "TERDAFTAR",
        "sistem_elektronik_id": 401
      }
    },
    {
      "type": "tdpseTerbit",
      "id": 1768,
      "attributes": {
        "nomor_pb_umku": null,
        "nama": "e-belajar",
        "website": "http://e-belajar.id",
        "sektor": "Sektor Perdagangan, Sektor Teknologi Informasi dan Komunikasi",
        "nama_perusahaan": "EBELAJAR SEMESTA RAYA",
        "tanggal_daftar": "2021-07-27",
        "nomor_tanda_daftar": "001087.03/DJAI.PSE/07/2021",
        "qr_code": "https://pse.kominfo.go.id/storage/images/qr_code/4e1763728d7cd37c77f225e3efdf3b5e.png",
        "status_id": "TERDAFTAR",
        "sistem_elektronik_id": 2747
      }
    },
    {
      "type": "tdpseTerbit",
      "id": 1673,
      "attributes": {
        "nomor_pb_umku": null,
        "nama": "TIDESA",
        "website": "tidesa.id",
        "sektor": "Sektor Teknologi Informasi dan Komunikasi",
        "nama_perusahaan": "EBELAJAR SEMESTA RAYA",
        "tanggal_daftar": "2021-07-08",
        "nomor_tanda_daftar": "001087.02/DJAI.PSE/07/2021",
        "qr_code": "https://pse.kominfo.go.id/storage/images/qr_code/0ea128df51bed0b5d751c817206ec68f.png",
        "status_id": "TERDAFTAR",
        "sistem_elektronik_id": 2746
      }
    },
    {
      "type": "tdpseTerbit",
      "id": 1654,
      "attributes": {
        "nomor_pb_umku": null,
        "nama": "E-Belajar",
        "website": "https://e-belajar.id/",
        "sektor": "Sektor Teknologi Informasi dan Komunikasi",
        "nama_perusahaan": "EBELAJAR SEMESTA RAYA",
        "tanggal_daftar": "2021-07-08",
        "nomor_tanda_daftar": "001087.01/DJAI.PSE/07/2021",
        "qr_code": "https://pse.kominfo.go.id/storage/images/qr_code/d6592a82bd7801fe78dfeeefb1b0da6c.png",
        "status_id": "TERDAFTAR",
        "sistem_elektronik_id": 2745
      }
    },
    {
      "type": "tdpseTerbit",
      "id": 1653,
      "attributes": {
        "nomor_pb_umku": null,
        "nama": "halopinjam",
        "website": "https://halopinjam.id/",
        "sektor": "Sektor Keuangan, Sektor Teknologi Informasi dan Komunikasi",
        "nama_perusahaan": "IMORTEK DIGICOM APLIKASI",
        "tanggal_daftar": "2021-07-05",
        "nomor_tanda_daftar": "001086.01/DJAI.PSE/07/2021",
        "qr_code": "https://pse.kominfo.go.id/storage/images/qr_code/46e3b7431795eec3ea27e67090a56a73.png",
        "status_id": "TERDAFTAR",
        "sistem_elektronik_id": 1209
      }
    },
    {
      "type": "tdpseTerbit",
      "id": 1652,
      "attributes": {
        "nomor_pb_umku": null,
        "nama": "Varash",
        "website": "www.saddannusantara.com",
        "sektor": "Sektor Perdagangan",
        "nama_perusahaan": "VARASH SADDAN NUSANTARA",
        "tanggal_daftar": "2021-07-05",
        "nomor_tanda_daftar": "001085.01/DJAI.PSE/07/2021",
        "qr_code": "https://pse.kominfo.go.id/storage/images/qr_code/27e9d8a5e70bb062f64b38b047a9770d.png",
        "status_id": "TERDAFTAR",
        "sistem_elektronik_id": 1225
      }
    },
    {
      "type": "tdpseTerbit",
      "id": 1651,
      "attributes": {
        "nomor_pb_umku": null,
        "nama": "wahyukartu",
        "website": "https://wahyukartu.com/",
        "sektor": "Sektor Teknologi Informasi dan Komunikasi",
        "nama_perusahaan": "WAHYU KARTUMASINDO INTERNATIONAL",
        "tanggal_daftar": "2021-07-05",
        "nomor_tanda_daftar": "001084.01/DJAI.PSE/07/2021",
        "qr_code": "https://pse.kominfo.go.id/storage/images/qr_code/af9182b29a18b6b3a417a049d63baaec.png",
        "status_id": "TERDAFTAR",
        "sistem_elektronik_id": 1171
      }
    }
  ]
}