{
  "meta": {
    "page": {
      "currentPage": 869,
      "from": 8681,
      "lastPage": 931,
      "perPage": 10,
      "to": 8690,
      "total": 9301
    }
  },
  "data": [
    {
      "type": "tdpseTerbit",
      "id": 4306,
      "attributes": {
        "nomor_pb_umku": "022000338138700000001",
        "nama": "KASKU",
        "website": "kasku.id",
        "sektor": "Sektor Keuangan, Sektor Teknologi Informasi dan Komunikasi",
        "nama_perusahaan": "SOMA KARYA GEMILANG",
        "tanggal_daftar": "2022-06-09",
        "nomor_tanda_daftar": "000319.01/DJAI.PSE/06/2022",
        "qr_code": "https://pse.kominfo.go.id/storage/images/qr_code/14e0b86733338ec5bbeb649ea1ee3340.png",
        "status_id": "TERDAFTAR",
        "sistem_elektronik_id": 4299
      }
    },
    {
      "type": "tdpseTerbit",
      "id": 392,
      "attributes": {
        "nomor_pb_umku": null,
        "nama": "Buka Investasi Bersama",
        "website": "www.bukainvestasi.com",
        "sektor": "Sektor Teknologi Informasi dan Komunikasi",
        "nama_perusahaan": "BUKA INVESTASI BERSAMA",
        "tanggal_daftar": "2021-03-15",
        "nomor_tanda_daftar": "000319.01/DJAI.PSE/03/2021",
        "qr_code": "https://pse.kominfo.go.id/storage/images/qr_code/b02999df9451aa883ef6eca118fa5f0e.png",
        "status_id": "TERDAFTAR",
        "sistem_elektronik_id": 184
      }
    },
    {
      "type": "tdpseTerbit",
      "id": 391,
      "attributes": {
        "nomor_pb_umku": null,
        "nama": "DETELNET",
        "website": "detelnetworks.id",
        "sektor": "Sektor Teknologi Informasi dan Komunikasi",
        "nama_perusahaan": "DEWATA TELEMATIKA",
        "tanggal_daftar": "2021-03-15",
        "nomor_tanda_daftar": "000318.01/DJAI.PSE/03/2021",
        "qr_code": "https://pse.kominfo.go.id/storage/images/qr_code/362bf55b6e025ce9a53a0c8758991dfe.png",
        "status_id": "TERDAFTAR",
        "sistem_elektronik_id": 185
      }
    },
    {
      "type": "tdpseTerbit",
      "id": 4305,
      "attributes": {
        "nomor_pb_umku": "022020582003800000001",
        "nama": "TRILOGIS.ID",
        "website": "trilogis.id",
        "sektor": "Sektor Teknologi Informasi dan Komunikasi",
        "nama_perusahaan": "PATIMURA MEDIA SIBER",
        "tanggal_daftar": "2022-06-09",
        "nomor_tanda_daftar": "000317.01/DJAI.PSE/06/2022",
        "qr_code": "https://pse.kominfo.go.id/storage/images/qr_code/3cb7163c3dbc3a0f9de4ff290e85fe4f.png",
        "status_id": "TERDAFTAR",
        "sistem_elektronik_id": 4298
      }
    },
    {
      "type": "tdpseTerbit",
      "id": 390,
      "attributes": {
        "nomor_pb_umku": null,
        "nama": "Legalforte.id",
        "website": "https://legalforte.id/",
        "sektor": "Sektor Perdagangan",
        "nama_perusahaan": "SYAREKAT LEGALFORTE INDONESIA",
        "tanggal_daftar": "2021-03-15",
        "nomor_tanda_daftar": "000317.01/DJAI.PSE/03/2021",
        "qr_code": "https://pse.kominfo.go.id/storage/images/qr_code/f949fd0c2d8da8ec6d0554183592cbd2.png",
        "status_id": "TERDAFTAR",
        "sistem_elektronik_id": 188
      }
    },
    {
      "type": "tdpseTerbit",
      "id": 4205,
      "attributes": {
        "nomor_pb_umku": "120422003898900000001",
        "nama": "WARKUM.COM",
        "website": "warkum.com",
        "sektor": "Sektor Perdagangan",
        "nama_perusahaan": "WARUNG GRUP DISTRIBUSI",
        "tanggal_daftar": "2022-06-02",
        "nomor_tanda_daftar": "000316.02/DJAI.PSE/06/2022",
        "qr_code": "https://pse.kominfo.go.id/storage/images/qr_code/62b610dc660fe0ddf1278f3dd622c1e4.png",
        "status_id": "TERDAFTAR",
        "sistem_elektronik_id": 4204
      }
    },
    {
      "type": "tdpseTerbit",
      "id": 4307,
      "attributes": {
        "nomor_pb_umku": "024601101250600000001",
        "nama": "NYMBI",
        "website": "copytrade.nymbi.id",
        "sektor": "Sektor Teknologi Informasi dan Komunikasi",
        "nama_perusahaan": "SOFIN TEKNOLOGI UTAMA",
        "tanggal_daftar": "2022-06-09",
        "nomor_tanda_daftar": "000316.01/DJAI.PSE/06/2022",
        "qr_code": "https://pse.kominfo.go.id/storage/images/qr_code/4f827e09afe593c5d314cd017817f9aa.png",
        "status_id": "TERDAFTAR",
        "sistem_elektronik_id": 4300
      }
    },
    {
      "type": "tdpseTerbit",
      "id": 389,
      "attributes": {
        "nomor_pb_umku": null,
        "nama": "Knowme",
        "website": "https://www.knowme.link",
        "sektor": "Sektor Teknologi Informasi dan Komunikasi",
        "nama_perusahaan": "SERTIFIKASI BIODATA DIRI",
        "tanggal_daftar": "2021-03-15",
        "nomor_tanda_daftar": "000316.01/DJAI.PSE/03/2021",
        "qr_code": "https://pse.kominfo.go.id/storage/images/qr_code/7f0bb393d8236dc91f66f92fa5fb20d4.png",
        "status_id": "TERDAFTAR",
        "sistem_elektronik_id": 163
      }
    },
    {
      "type": "tdpseTerbit",
      "id": 387,
      "attributes": {
        "nomor_pb_umku": null,
        "nama": "Mangdropship",
        "website": "mangdropship.id",
        "sektor": "Sektor Perdagangan, Sektor Teknologi Informasi dan Komunikasi",
        "nama_perusahaan": "MANGDROPSHIP KARYA INTERLOKA",
        "tanggal_daftar": "2021-03-15",
        "nomor_tanda_daftar": "000315.01/DJAI.PSE/03/2021",
        "qr_code": "https://pse.kominfo.go.id/storage/images/qr_code/81beac8e9949643b44636d2215c5e160.png",
        "status_id": "TERDAFTAR",
        "sistem_elektronik_id": 152
      }
    },
    {
      "type": "tdpseTerbit",
      "id": 7229,
      "attributes": {
        "nomor_pb_umku": "022020872134800000003",
        "nama": "EANTREAN ONLINE",
        "website": "eantrean.id",
        "sektor": "Sektor Kesehatan, Sektor Teknologi Informasi dan Komunikasi",
        "nama_perusahaan": "INFOKES INDONESIA",
        "tanggal_daftar": "2022-07-19",
        "nomor_tanda_daftar": "000314.11/DJAI.PSE/07/2022",
        "qr_code": "https://pse.kominfo.go.id/storage/images/qr_code/1b6f359ffc76dc1549f804419800e4eb.png",
        "status_id": "TERDAFTAR",
        "sistem_elektronik_id": 7118
      }
    }
  ]
}