{
  "meta": {
    "page": {
      "currentPage": 870,
      "from": 8691,
      "lastPage": 926,
      "perPage": 10,
      "to": 8700,
      "total": 9252
    }
  },
  "data": [
    {
      "type": "tdpseTerbit",
      "id": 4104,
      "attributes": {
        "nomor_pb_umku": "912000729116600000001",
        "nama": "FEEDLOOP",
        "website": "feedloop.io",
        "sektor": "Sektor Teknologi Informasi dan Komunikasi",
        "nama_perusahaan": "FEEDLOOP GLOBAL TEKNOLOGI",
        "tanggal_daftar": "2022-05-23",
        "nomor_tanda_daftar": "000301.01/DJAI.PSE/05/2022",
        "qr_code": "https://pse.kominfo.go.id/storage/images/qr_code/b8bdf57cc92220564580f1bb44f04478.png",
        "status_id": "TERDAFTAR",
        "sistem_elektronik_id": 4103
      }
    },
    {
      "type": "tdpseTerbit",
      "id": 369,
      "attributes": {
        "nomor_pb_umku": null,
        "nama": "pyfahealth.com",
        "website": "pyfa.co.id",
        "sektor": "Sektor Kesehatan, Sektor Perdagangan",
        "nama_perusahaan": "PYRIDAM FARMA",
        "tanggal_daftar": "2021-03-15",
        "nomor_tanda_daftar": "000301.01/DJAI.PSE/03/2021",
        "qr_code": "https://pse.kominfo.go.id/storage/images/qr_code/4047dff2343853431851404d25ea5dbf.png",
        "status_id": "TERDAFTAR",
        "sistem_elektronik_id": 2314
      }
    },
    {
      "type": "tdpseTerbit",
      "id": 4288,
      "attributes": {
        "nomor_pb_umku": "070322005473100000001",
        "nama": "MULTI KANAL",
        "website": "multikanal.online",
        "sektor": "Sektor Perdagangan",
        "nama_perusahaan": "MULTI MITRA BERJASA",
        "tanggal_daftar": "2022-06-08",
        "nomor_tanda_daftar": "000300.02/DJAI.PSE/06/2022",
        "qr_code": "https://pse.kominfo.go.id/storage/images/qr_code/622fc10ce8a145bf205f1df6ed85f658.png",
        "status_id": "TERDAFTAR",
        "sistem_elektronik_id": 4282
      }
    },
    {
      "type": "tdpseTerbit",
      "id": 368,
      "attributes": {
        "nomor_pb_umku": null,
        "nama": "QUICKQRIS",
        "website": "quickqris.id",
        "sektor": "Sektor Teknologi Informasi dan Komunikasi",
        "nama_perusahaan": "IDE DEF GHI",
        "tanggal_daftar": "2021-03-15",
        "nomor_tanda_daftar": "000300.01/DJAI.PSE/03/2021",
        "qr_code": "https://pse.kominfo.go.id/storage/images/qr_code/53c8134eba669c4403caffae1180535d.png",
        "status_id": "TERDAFTAR",
        "sistem_elektronik_id": 111
      }
    },
    {
      "type": "tdpseTerbit",
      "id": 366,
      "attributes": {
        "nomor_pb_umku": null,
        "nama": "Viva Apotek",
        "website": "www.vivahealth.co.id",
        "sektor": "Sektor Kesehatan",
        "nama_perusahaan": "SUMBER HIDUP SEHAT",
        "tanggal_daftar": "2021-03-15",
        "nomor_tanda_daftar": "000299.01/DJAI.PSE/03/2021",
        "qr_code": "https://pse.kominfo.go.id/storage/images/qr_code/2444f148aa70104cab027d5f59358dd1.png",
        "status_id": "TERDAFTAR",
        "sistem_elektronik_id": 69
      }
    },
    {
      "type": "tdpseTerbit",
      "id": 4291,
      "attributes": {
        "nomor_pb_umku": "912000239300600030002",
        "nama": "WELLINGS INDONESIA",
        "website": "wellings.id",
        "sektor": "Sektor Perdagangan",
        "nama_perusahaan": "ERA FARMA INDONESIA",
        "tanggal_daftar": "2022-06-08",
        "nomor_tanda_daftar": "000298.02/DJAI.PSE/06/2022",
        "qr_code": "https://pse.kominfo.go.id/storage/images/qr_code/97f3fc69f817edbcc62cbd004c44a7df.png",
        "status_id": "TERDAFTAR",
        "sistem_elektronik_id": 4284
      }
    },
    {
      "type": "tdpseTerbit",
      "id": 4561,
      "attributes": {
        "nomor_pb_umku": "123800015230900000001",
        "nama": "NABITU.ID",
        "website": "nabitu.id",
        "sektor": "Sektor Keuangan",
        "nama_perusahaan": "NABITU TEKNOLOGI ISLAMI",
        "tanggal_daftar": "2022-06-16",
        "nomor_tanda_daftar": "000298.01/DJAI.PSE/06/2022",
        "qr_code": "https://pse.kominfo.go.id/storage/images/qr_code/e74860a5f606c84b39568443ea517900.png",
        "status_id": "TERDAFTAR",
        "sistem_elektronik_id": 4524
      }
    },
    {
      "type": "tdpseTerbit",
      "id": 4287,
      "attributes": {
        "nomor_pb_umku": "912000239300600030001",
        "nama": "WELLING INDONESIA",
        "website": "wellings.id",
        "sektor": "Sektor Perdagangan",
        "nama_perusahaan": "ERA FARMA INDONESIA",
        "tanggal_daftar": "2022-06-08",
        "nomor_tanda_daftar": "000298.01/DJAI.PSE/06/2022",
        "qr_code": "https://pse.kominfo.go.id/storage/images/qr_code/692265e9e5ec1ec5d33790c41a8be5b5.png",
        "status_id": "TERDAFTAR",
        "sistem_elektronik_id": 4280
      }
    },
    {
      "type": "tdpseTerbit",
      "id": 365,
      "attributes": {
        "nomor_pb_umku": null,
        "nama": "Bukalapak.com",
        "website": "Bukalapak.com",
        "sektor": "Sektor Teknologi Informasi dan Komunikasi",
        "nama_perusahaan": "BUKALAPAK.COM",
        "tanggal_daftar": "2021-03-10",
        "nomor_tanda_daftar": "000298.01/DJAI.PSE/03/2021",
        "qr_code": "https://pse.kominfo.go.id/storage/images/qr_code/95807d3b2a32229f7d826d7a2c3057a5.png",
        "status_id": "TERDAFTAR",
        "sistem_elektronik_id": 65
      }
    },
    {
      "type": "tdpseTerbit",
      "id": 4286,
      "attributes": {
        "nomor_pb_umku": "912000420109501930001",
        "nama": "KAI ACCESS",
        "website": "-",
        "sektor": "Sektor Perdagangan",
        "nama_perusahaan": "PERUSAHAAN PERSEROAN (PERSERO) PT. KERETA API INDONESIA",
        "tanggal_daftar": "2022-06-08",
        "nomor_tanda_daftar": "000297.01/DJAI.PSE/06/2022",
        "qr_code": "https://pse.kominfo.go.id/storage/images/qr_code/05a119bd0fa51118562ad0cd80702f82.png",
        "status_id": "TERDAFTAR",
        "sistem_elektronik_id": 4279
      }
    }
  ]
}