{
  "meta": {
    "page": {
      "currentPage": 88,
      "from": 871,
      "lastPage": 1068,
      "perPage": 10,
      "to": 880,
      "total": 10675
    }
  },
  "data": [
    {
      "type": "tdpseTerbit",
      "id": 10279,
      "attributes": {
        "nomor_pb_umku": "122900013088200060001",
        "nama": "INDOLAB BY MAYAPADA HEALTHCARE",
        "website": "indolab.com",
        "sektor": "Sektor Kesehatan",
        "nama_perusahaan": "INDOLAB DIAGNOSTIK UTAMA",
        "tanggal_daftar": "2022-08-12",
        "nomor_tanda_daftar": "007213.01/DJAI.PSE/08/2022",
        "qr_code": "https://pse.kominfo.go.id/storage/images/qr_code/8c5a9faefb02f746919cba58d513653b.png",
        "status_id": "TERDAFTAR",
        "sistem_elektronik_id": 10160
      }
    },
    {
      "type": "tdpseTerbit",
      "id": 10278,
      "attributes": {
        "nomor_pb_umku": "125600240246900000001",
        "nama": "OPTIMUS TEKNOLOGI PRO",
        "website": "optimuspro.co.id",
        "sektor": "Sektor Teknologi Informasi dan Komunikasi",
        "nama_perusahaan": "OPTIMUS TEKNOLOGI PRO",
        "tanggal_daftar": "2022-08-12",
        "nomor_tanda_daftar": "007212.01/DJAI.PSE/08/2022",
        "qr_code": "https://pse.kominfo.go.id/storage/images/qr_code/a4244913aa999e0702bbd1143216bd4b.png",
        "status_id": "TERDAFTAR",
        "sistem_elektronik_id": 10159
      }
    },
    {
      "type": "tdpseTerbit",
      "id": 10277,
      "attributes": {
        "nomor_pb_umku": "021401001009200020001",
        "nama": "WEBSITE",
        "website": "bpradm.com",
        "sektor": "Sektor Teknologi Informasi dan Komunikasi",
        "nama_perusahaan": "BANK PERKREDITAN RAKYAT ASLI DANA MANDIRI",
        "tanggal_daftar": "2022-08-12",
        "nomor_tanda_daftar": "007210.01/DJAI.PSE/08/2022",
        "qr_code": "https://pse.kominfo.go.id/storage/images/qr_code/c815db0e059ea4efbc54a392a8746b7c.png",
        "status_id": "TERDAFTAR",
        "sistem_elektronik_id": 10158
      }
    },
    {
      "type": "tdpseTerbit",
      "id": 10276,
      "attributes": {
        "nomor_pb_umku": "912070671157700010001",
        "nama": "WEBSITE",
        "website": "bprprimamultimakmur.blogspot.com",
        "sektor": "Sektor Teknologi Informasi dan Komunikasi",
        "nama_perusahaan": "BANK PERKREDITAN RAKYAT PRIMA MULTI MAKMUR",
        "tanggal_daftar": "2022-08-12",
        "nomor_tanda_daftar": "007209.01/DJAI.PSE/08/2022",
        "qr_code": "https://pse.kominfo.go.id/storage/images/qr_code/dd6fc78a332f96796e2690744131c4ce.png",
        "status_id": "TERDAFTAR",
        "sistem_elektronik_id": 10157
      }
    },
    {
      "type": "tdpseTerbit",
      "id": 10392,
      "attributes": {
        "nomor_pb_umku": "912030898161900010001",
        "nama": "BPR KARUNIA KANAKA",
        "website": "bprkaruniakanaka.com",
        "sektor": "Sektor Keuangan",
        "nama_perusahaan": "BPR KARUNIA KANAKA",
        "tanggal_daftar": "2022-08-16",
        "nomor_tanda_daftar": "007207.01/DJAI.PSE/08/2022",
        "qr_code": "https://pse.kominfo.go.id/storage/images/qr_code/b57d869870c4494cccf63282aa4c9784.png",
        "status_id": "TERDAFTAR",
        "sistem_elektronik_id": 10237
      }
    },
    {
      "type": "tdpseTerbit",
      "id": 10367,
      "attributes": {
        "nomor_pb_umku": "180722003844900000001",
        "nama": "BYTEE",
        "website": "bytee.co.id",
        "sektor": "Sektor Keuangan",
        "nama_perusahaan": "LAUTAN KOIN MAKMUR",
        "tanggal_daftar": "2022-08-15",
        "nomor_tanda_daftar": "007206.01/DJAI.PSE/08/2022",
        "qr_code": "https://pse.kominfo.go.id/storage/images/qr_code/ab1e3d033d7582630625c784cf67e216.png",
        "status_id": "TERDAFTAR",
        "sistem_elektronik_id": 10222
      }
    },
    {
      "type": "tdpseTerbit",
      "id": 10270,
      "attributes": {
        "nomor_pb_umku": "110822000654600010001",
        "nama": "ECONOMICTRAVELLING.COM",
        "website": "Economictravelling.com",
        "sektor": "Sektor Teknologi Informasi dan Komunikasi",
        "nama_perusahaan": "FIKRI INDONESIA BERSAUDARA",
        "tanggal_daftar": "2022-08-12",
        "nomor_tanda_daftar": "007201.01/DJAI.PSE/08/2022",
        "qr_code": "https://pse.kominfo.go.id/storage/images/qr_code/0d853eb7b1182bf32457853d8cd32b52.png",
        "status_id": "TERDAFTAR",
        "sistem_elektronik_id": 10154
      }
    },
    {
      "type": "tdpseTerbit",
      "id": 10275,
      "attributes": {
        "nomor_pb_umku": "912001014017300060001",
        "nama": "SIMRS HOSPITADATA",
        "website": "-",
        "sektor": "Sektor Kesehatan, Sektor Teknologi Informasi dan Komunikasi",
        "nama_perusahaan": "BRILYAN TRIMATRA UTAMA",
        "tanggal_daftar": "2022-08-12",
        "nomor_tanda_daftar": "007200.01/DJAI.PSE/08/2022",
        "qr_code": "https://pse.kominfo.go.id/storage/images/qr_code/91b5f4a8f0ce520c3bf01df9dcd158eb.png",
        "status_id": "TERDAFTAR",
        "sistem_elektronik_id": 10155
      }
    },
    {
      "type": "tdpseTerbit",
      "id": 10654,
      "attributes": {
        "nomor_pb_umku": "812021114005900020001",
        "nama": "NEO PROCLICK",
        "website": "profindo.com",
        "sektor": "Sektor Keuangan",
        "nama_perusahaan": "PROFINDO SEKURITAS INDONESIA",
        "tanggal_daftar": "2022-08-22",
        "nomor_tanda_daftar": "007199.01/DJAI.PSE/08/2022",
        "qr_code": "https://pse.kominfo.go.id/storage/images/qr_code/e590cfd6bbfc3fa33eab95dfebcfd870.png",
        "status_id": "TERDAFTAR",
        "sistem_elektronik_id": 10152
      }
    },
    {
      "type": "tdpseTerbit",
      "id": 10269,
      "attributes": {
        "nomor_pb_umku": "020822000100800020001",
        "nama": "POC BIOTRASTH SRB",
        "website": "pocbiotrasthsrb.my.id",
        "sektor": "Sektor Perdagangan, Sektor Teknologi Informasi dan Komunikasi",
        "nama_perusahaan": "POC BIOTRASTH SRB",
        "tanggal_daftar": "2022-08-12",
        "nomor_tanda_daftar": "007198.01/DJAI.PSE/08/2022",
        "qr_code": "https://pse.kominfo.go.id/storage/images/qr_code/1515635a321fa5e27c9233547ef8c414.png",
        "status_id": "TERDAFTAR",
        "sistem_elektronik_id": 10153
      }
    }
  ]
}