{
  "meta": {
    "page": {
      "currentPage": 873,
      "from": 8721,
      "lastPage": 875,
      "perPage": 10,
      "to": 8730,
      "total": 8749
    }
  },
  "data": [
    {
      "type": "tdpseTerbit",
      "id": 12,
      "attributes": {
        "nomor_pb_umku": null,
        "nama": "ctrip360.com",
        "website": "www.ctrip360.com",
        "sektor": "Sektor Teknologi Informasi dan Komunikasi",
        "nama_perusahaan": "CTRIP TECHNOLOGY INDONESIA",
        "tanggal_daftar": "2021-02-18",
        "nomor_tanda_daftar": "000011.01/DJAI.PSE/02/2021",
        "qr_code": "https://pse.kominfo.go.id/storage/images/qr_code/d987de26c62ac6219157dee4ca0a69da.png",
        "status_id": "TERDAFTAR",
        "sistem_elektronik_id": 2368
      }
    },
    {
      "type": "tdpseTerbit",
      "id": 5188,
      "attributes": {
        "nomor_pb_umku": "812010484269600000003",
        "nama": "ELEVENIA MART (EMART)",
        "website": "-",
        "sektor": "Sektor Perdagangan",
        "nama_perusahaan": "XL PLANET",
        "tanggal_daftar": "2022-07-07",
        "nomor_tanda_daftar": "000010.04/DJAI.PSE/07/2022",
        "qr_code": "https://pse.kominfo.go.id/storage/images/qr_code/998814072dace5cddb582d0c3fcdeaf3.png",
        "status_id": "TERDAFTAR",
        "sistem_elektronik_id": 5057
      }
    },
    {
      "type": "tdpseTerbit",
      "id": 5186,
      "attributes": {
        "nomor_pb_umku": "812010484269600000002",
        "nama": "EPP.ELEVENIA.BIZ",
        "website": "elevenia.biz",
        "sektor": "Sektor Perdagangan",
        "nama_perusahaan": "XL PLANET",
        "tanggal_daftar": "2022-07-07",
        "nomor_tanda_daftar": "000010.03/DJAI.PSE/07/2022",
        "qr_code": "https://pse.kominfo.go.id/storage/images/qr_code/6fcd6d3f5a1c62808656424710217b60.png",
        "status_id": "TERDAFTAR",
        "sistem_elektronik_id": 5054
      }
    },
    {
      "type": "tdpseTerbit",
      "id": 5170,
      "attributes": {
        "nomor_pb_umku": "812010484269600000001",
        "nama": "OLEHOLEH.CO.ID",
        "website": "oleholeh.co.id",
        "sektor": "Sektor Perdagangan",
        "nama_perusahaan": "XL PLANET",
        "tanggal_daftar": "2022-07-07",
        "nomor_tanda_daftar": "000010.02/DJAI.PSE/07/2022",
        "qr_code": "https://pse.kominfo.go.id/storage/images/qr_code/987a46da86168d60a37937d1e837dea3.png",
        "status_id": "TERDAFTAR",
        "sistem_elektronik_id": 5036
      }
    },
    {
      "type": "tdpseTerbit",
      "id": 11,
      "attributes": {
        "nomor_pb_umku": null,
        "nama": "Elevenia",
        "website": "www.elevenia.co.id",
        "sektor": "Sektor Perdagangan",
        "nama_perusahaan": "XL PLANET",
        "tanggal_daftar": "2021-02-18",
        "nomor_tanda_daftar": "000010.01/DJAI.PSE/02/2021",
        "qr_code": "https://pse.kominfo.go.id/storage/images/qr_code/3882e60d94dff76d3842d2d07f4a1c7d.png",
        "status_id": "TERDAFTAR",
        "sistem_elektronik_id": 2336
      }
    },
    {
      "type": "tdpseTerbit",
      "id": 10,
      "attributes": {
        "nomor_pb_umku": null,
        "nama": "PRIVATE ZONE",
        "website": "https://id.leomaster.com",
        "sektor": "Sektor Teknologi Informasi dan Komunikasi",
        "nama_perusahaan": "LEO NETWORK TECH",
        "tanggal_daftar": "2021-02-18",
        "nomor_tanda_daftar": "000009.01/DJAI.PSE/02/2021",
        "qr_code": "https://pse.kominfo.go.id/storage/images/qr_code/42519fd6d9463a6f2bb5be15a27f52ae.png",
        "status_id": "TERDAFTAR",
        "sistem_elektronik_id": 2358
      }
    },
    {
      "type": "tdpseTerbit",
      "id": 361,
      "attributes": {
        "nomor_pb_umku": null,
        "nama": "Teman Sehat Mitra Kesehatan ( com.temansehat.tester and co.achiko.temansehat-tester)",
        "website": "https://tester.teman-sehat.co.id",
        "sektor": "Sektor Kesehatan, Sektor Perdagangan, Sektor Teknologi Informasi dan Komunikasi",
        "nama_perusahaan": "PROGRESSIVMEDIA INDONESIA",
        "tanggal_daftar": "2021-03-10",
        "nomor_tanda_daftar": "000008.03/DJAI.PSE/03/2021",
        "qr_code": "https://pse.kominfo.go.id/storage/images/qr_code/bb7d438b91d857a181dfdb56fb437a87.png",
        "status_id": "TERDAFTAR",
        "sistem_elektronik_id": 2324
      }
    },
    {
      "type": "tdpseTerbit",
      "id": 349,
      "attributes": {
        "nomor_pb_umku": null,
        "nama": "Teman sehat - Mitra Bisnis (com.temansehat.place, co.achiko.temansehat-place)",
        "website": "https://places.teman-sehat.co.id",
        "sektor": "Sektor Kesehatan, Sektor Perdagangan, Sektor Teknologi Informasi dan Komunikasi",
        "nama_perusahaan": "PROGRESSIVMEDIA INDONESIA",
        "tanggal_daftar": "2021-03-09",
        "nomor_tanda_daftar": "000008.02/DJAI.PSE/03/2021",
        "qr_code": "https://pse.kominfo.go.id/storage/images/qr_code/bfce3c79ab87975d2eab5542692e22c7.png",
        "status_id": "TERDAFTAR",
        "sistem_elektronik_id": 2323
      }
    },
    {
      "type": "tdpseTerbit",
      "id": 9,
      "attributes": {
        "nomor_pb_umku": null,
        "nama": "TEMAN SEHAT (com.temansehat.person, co.achiko.temansehat-person)",
        "website": "https://person-app.teman-sehat.co.id",
        "sektor": "Sektor Kesehatan, Sektor Perdagangan, Sektor Teknologi Informasi dan Komunikasi",
        "nama_perusahaan": "PROGRESSIVMEDIA INDONESIA",
        "tanggal_daftar": "2021-02-18",
        "nomor_tanda_daftar": "000008.01/DJAI.PSE/02/2021",
        "qr_code": "https://pse.kominfo.go.id/storage/images/qr_code/2d5eabccffee3880ac2413d322923bb3.png",
        "status_id": "TERDAFTAR",
        "sistem_elektronik_id": 2322
      }
    },
    {
      "type": "tdpseTerbit",
      "id": 7955,
      "attributes": {
        "nomor_pb_umku": "022201110082300010009",
        "nama": "AIA INDONESIA VYMO (BLAST)",
        "website": "aiablast.lms.getvymo.com",
        "sektor": "Sektor Keuangan",
        "nama_perusahaan": "AIA FINANCIAL",
        "tanggal_daftar": "2022-07-20",
        "nomor_tanda_daftar": "000007.09/DJAI.PSE/07/2022",
        "qr_code": "https://pse.kominfo.go.id/storage/images/qr_code/7216d31436b9d990c975913293c4aaba.png",
        "status_id": "TERDAFTAR",
        "sistem_elektronik_id": 7872
      }
    }
  ]
}