{
  "meta": {
    "page": {
      "currentPage": 874,
      "from": 8731,
      "lastPage": 1063,
      "perPage": 10,
      "to": 8740,
      "total": 10630
    }
  },
  "data": [
    {
      "type": "tdpseTerbit",
      "id": 1355,
      "attributes": {
        "nomor_pb_umku": null,
        "nama": "Moni - Catatan Keuangan Otomatis Gratis",
        "website": "moni.id",
        "sektor": "Sektor Teknologi Informasi dan Komunikasi",
        "nama_perusahaan": "MUDAH ATUR UANG",
        "tanggal_daftar": "2021-06-02",
        "nomor_tanda_daftar": "000904.01/DJAI.PSE/06/2021",
        "qr_code": "https://pse.kominfo.go.id/storage/images/qr_code/d0dcb51eb0cf67fc63cb42fdff1b43b8.png",
        "status_id": "TERDAFTAR",
        "sistem_elektronik_id": 257
      }
    },
    {
      "type": "tdpseTerbit",
      "id": 1353,
      "attributes": {
        "nomor_pb_umku": null,
        "nama": "Electronic Know Your Customer",
        "website": "www.rhbtradesmart.co.id",
        "sektor": "Sektor Keuangan",
        "nama_perusahaan": "RHB SEKURITAS INDONESIA",
        "tanggal_daftar": "2021-06-02",
        "nomor_tanda_daftar": "000903.02/DJAI.PSE/06/2021",
        "qr_code": "https://pse.kominfo.go.id/storage/images/qr_code/78112cc3e012ce2af36b27871078f0a9.png",
        "status_id": "TERDAFTAR",
        "sistem_elektronik_id": 981
      }
    },
    {
      "type": "tdpseTerbit",
      "id": 1352,
      "attributes": {
        "nomor_pb_umku": null,
        "nama": "RHB Tradesmart ID",
        "website": "www.rhbtradesmart.co.id",
        "sektor": "Sektor Keuangan",
        "nama_perusahaan": "RHB SEKURITAS INDONESIA",
        "tanggal_daftar": "2021-06-02",
        "nomor_tanda_daftar": "000903.01/DJAI.PSE/06/2021",
        "qr_code": "https://pse.kominfo.go.id/storage/images/qr_code/d977ee15bb79899179d30396c7d82e48.png",
        "status_id": "TERDAFTAR",
        "sistem_elektronik_id": 980
      }
    },
    {
      "type": "tdpseTerbit",
      "id": 1351,
      "attributes": {
        "nomor_pb_umku": null,
        "nama": "Mindtera",
        "website": "www.mindtera.com",
        "sektor": "Sektor Teknologi Informasi dan Komunikasi",
        "nama_perusahaan": "MINDTERA CITA INOVASI",
        "tanggal_daftar": "2021-06-02",
        "nomor_tanda_daftar": "000902.01/DJAI.PSE/06/2021",
        "qr_code": "https://pse.kominfo.go.id/storage/images/qr_code/c2264630c57567e3f828f05b3f31308b.png",
        "status_id": "TERDAFTAR",
        "sistem_elektronik_id": 983
      }
    },
    {
      "type": "tdpseTerbit",
      "id": 1350,
      "attributes": {
        "nomor_pb_umku": null,
        "nama": "Portal Swift Solutions",
        "website": "https://www.swiftsolutions.id/",
        "sektor": "Sektor Perdagangan, Sektor Teknologi Informasi dan Komunikasi, Sektor Transportasi",
        "nama_perusahaan": "SWIFT LOGISTICS SOLUTIONS",
        "tanggal_daftar": "2021-06-02",
        "nomor_tanda_daftar": "000901.01/DJAI.PSE/06/2021",
        "qr_code": "https://pse.kominfo.go.id/storage/images/qr_code/c289b5120dfde9dd9615e35796fdc655.png",
        "status_id": "TERDAFTAR",
        "sistem_elektronik_id": 398
      }
    },
    {
      "type": "tdpseTerbit",
      "id": 1349,
      "attributes": {
        "nomor_pb_umku": null,
        "nama": "99ninetynine.com",
        "website": "99ninetynine.com",
        "sektor": "Sektor Perdagangan, Sektor Teknologi Informasi dan Komunikasi",
        "nama_perusahaan": "MERAPI DUNIA TEKSTIL",
        "tanggal_daftar": "2021-06-02",
        "nomor_tanda_daftar": "000900.01/DJAI.PSE/06/2021",
        "qr_code": "https://pse.kominfo.go.id/storage/images/qr_code/973b7de88e50d8ed970adfa8630769b3.png",
        "status_id": "TERDAFTAR",
        "sistem_elektronik_id": 283
      }
    },
    {
      "type": "tdpseTerbit",
      "id": 1348,
      "attributes": {
        "nomor_pb_umku": null,
        "nama": "Universal Nikko Online Trading",
        "website": "www.nikko-online.com",
        "sektor": "Sektor Keuangan, Sektor Teknologi Informasi dan Komunikasi",
        "nama_perusahaan": "NIKKO SEKURITAS INDONESIA",
        "tanggal_daftar": "2021-06-02",
        "nomor_tanda_daftar": "000899.01/DJAI.PSE/06/2021",
        "qr_code": "https://pse.kominfo.go.id/storage/images/qr_code/2ffb062f3b18b1d314b0815be412f10d.png",
        "status_id": "TERDAFTAR",
        "sistem_elektronik_id": 987
      }
    },
    {
      "type": "tdpseTerbit",
      "id": 7163,
      "attributes": {
        "nomor_pb_umku": "912020073142800000003",
        "nama": "HSBCEVOLVE",
        "website": "fxclientui.gfx.id.gbm.hsbc.com",
        "sektor": "Sektor Keuangan",
        "nama_perusahaan": "BANK HSBC INDONESIA",
        "tanggal_daftar": "2022-07-19",
        "nomor_tanda_daftar": "000898.04/DJAI.PSE/07/2022",
        "qr_code": "https://pse.kominfo.go.id/storage/images/qr_code/5aeaf435e88ac5d325afd56db70a8c2f.png",
        "status_id": "TERDAFTAR",
        "sistem_elektronik_id": 7040
      }
    },
    {
      "type": "tdpseTerbit",
      "id": 7145,
      "attributes": {
        "nomor_pb_umku": "912020073142800000002",
        "nama": "CORPORATE INTERNET BANKING HSBCNET",
        "website": "hsbcnet.com",
        "sektor": "Sektor Keuangan",
        "nama_perusahaan": "BANK HSBC INDONESIA",
        "tanggal_daftar": "2022-07-19",
        "nomor_tanda_daftar": "000898.03/DJAI.PSE/07/2022",
        "qr_code": "https://pse.kominfo.go.id/storage/images/qr_code/3fd664caf48ab60b91f3a2b26fedce30.png",
        "status_id": "TERDAFTAR",
        "sistem_elektronik_id": 7025
      }
    },
    {
      "type": "tdpseTerbit",
      "id": 1347,
      "attributes": {
        "nomor_pb_umku": null,
        "nama": "HSBC Ritel Internet dan Mobile Banking",
        "website": "http://www.hsbc.co.id",
        "sektor": "Sektor Keuangan",
        "nama_perusahaan": "BANK HSBC INDONESIA",
        "tanggal_daftar": "2021-06-02",
        "nomor_tanda_daftar": "000898.01/DJAI.PSE/06/2021",
        "qr_code": "https://pse.kominfo.go.id/storage/images/qr_code/e86094e8cee5affa32ddbd444015ac7a.png",
        "status_id": "TERDAFTAR",
        "sistem_elektronik_id": 644
      }
    }
  ]
}