{
  "meta": {
    "page": {
      "currentPage": 875,
      "from": 8741,
      "lastPage": 1040,
      "perPage": 10,
      "to": 8750,
      "total": 10398
    }
  },
  "data": [
    {
      "type": "tdpseTerbit",
      "id": 1179,
      "attributes": {
        "nomor_pb_umku": null,
        "nama": "QNB Indonesia Mobile Banking",
        "website": "-",
        "sektor": "Sektor Keuangan",
        "nama_perusahaan": "BANK QNB INDONESIA",
        "tanggal_daftar": "2021-06-02",
        "nomor_tanda_daftar": "000838.03/DJAI.PSE/06/2021",
        "qr_code": "https://pse.kominfo.go.id/storage/images/qr_code/6761e3f4882382f4b4522a73c652f36e.png",
        "status_id": "TERDAFTAR",
        "sistem_elektronik_id": 817
      }
    },
    {
      "type": "tdpseTerbit",
      "id": 1178,
      "attributes": {
        "nomor_pb_umku": null,
        "nama": "Corporate Internet Banking",
        "website": "https://cib.qnb.co.id",
        "sektor": "Sektor Keuangan",
        "nama_perusahaan": "BANK QNB INDONESIA",
        "tanggal_daftar": "2021-06-02",
        "nomor_tanda_daftar": "000838.02/DJAI.PSE/06/2021",
        "qr_code": "https://pse.kominfo.go.id/storage/images/qr_code/f9d030d618ad73c378227f7dc0503d04.png",
        "status_id": "TERDAFTAR",
        "sistem_elektronik_id": 816
      }
    },
    {
      "type": "tdpseTerbit",
      "id": 1177,
      "attributes": {
        "nomor_pb_umku": null,
        "nama": "QNB Online Banking",
        "website": "https://ib.qnb.co.id",
        "sektor": "Sektor Keuangan",
        "nama_perusahaan": "BANK QNB INDONESIA",
        "tanggal_daftar": "2021-06-02",
        "nomor_tanda_daftar": "000838.01/DJAI.PSE/06/2021",
        "qr_code": "https://pse.kominfo.go.id/storage/images/qr_code/2675c2aa63e73f65155145f41902e3bc.png",
        "status_id": "TERDAFTAR",
        "sistem_elektronik_id": 815
      }
    },
    {
      "type": "tdpseTerbit",
      "id": 1176,
      "attributes": {
        "nomor_pb_umku": null,
        "nama": "Aplikasi POST.",
        "website": "www.post.app",
        "sektor": "Sektor Perdagangan",
        "nama_perusahaan": "FAZZMART TEKNOLOGI NUSANTARA",
        "tanggal_daftar": "2021-06-02",
        "nomor_tanda_daftar": "000837.01/DJAI.PSE/06/2021",
        "qr_code": "https://pse.kominfo.go.id/storage/images/qr_code/703178fb2e515f91efc3d6beb3a3b5ac.png",
        "status_id": "TERDAFTAR",
        "sistem_elektronik_id": 270
      }
    },
    {
      "type": "tdpseTerbit",
      "id": 1175,
      "attributes": {
        "nomor_pb_umku": null,
        "nama": "Dhanapala",
        "website": "www.dhanapala.id",
        "sektor": "Sektor Keuangan",
        "nama_perusahaan": "SEMANGAT GOTONG ROYONG",
        "tanggal_daftar": "2021-06-02",
        "nomor_tanda_daftar": "000836.01/DJAI.PSE/06/2021",
        "qr_code": "https://pse.kominfo.go.id/storage/images/qr_code/8abc472047eed78a309480d0b085a62b.png",
        "status_id": "TERDAFTAR",
        "sistem_elektronik_id": 354
      }
    },
    {
      "type": "tdpseTerbit",
      "id": 1171,
      "attributes": {
        "nomor_pb_umku": null,
        "nama": "blu",
        "website": "-",
        "sektor": "Sektor Keuangan",
        "nama_perusahaan": "BANK DIGITAL BCA",
        "tanggal_daftar": "2021-06-02",
        "nomor_tanda_daftar": "000835.01/DJAI.PSE/06/2021",
        "qr_code": "https://pse.kominfo.go.id/storage/images/qr_code/f7b872d0e3d6fb0995e32e727f88dcc2.png",
        "status_id": "TERDAFTAR",
        "sistem_elektronik_id": 515
      }
    },
    {
      "type": "tdpseTerbit",
      "id": 1169,
      "attributes": {
        "nomor_pb_umku": null,
        "nama": "koperasi beta serumpun setia",
        "website": "https://www.betaserumpun.id",
        "sektor": "Sektor Keuangan",
        "nama_perusahaan": "BETA SERUMPUN SETIA",
        "tanggal_daftar": "2021-06-02",
        "nomor_tanda_daftar": "000834.01/DJAI.PSE/06/2021",
        "qr_code": "https://pse.kominfo.go.id/storage/images/qr_code/fd46ec6e004d25b50551906c0535c10a.png",
        "status_id": "TERDAFTAR",
        "sistem_elektronik_id": 499
      }
    },
    {
      "type": "tdpseTerbit",
      "id": 1158,
      "attributes": {
        "nomor_pb_umku": null,
        "nama": "BBO",
        "website": "bbo.co.id",
        "sektor": "Sektor Keuangan, Sektor Teknologi Informasi dan Komunikasi",
        "nama_perusahaan": "BIZGITAL INDONESIA JAYA",
        "tanggal_daftar": "2021-06-02",
        "nomor_tanda_daftar": "000833.01/DJAI.PSE/06/2021",
        "qr_code": "https://pse.kominfo.go.id/storage/images/qr_code/002a511fa3ed4e9a2df03ea7d3bd456a.png",
        "status_id": "TERDAFTAR",
        "sistem_elektronik_id": 560
      }
    },
    {
      "type": "tdpseTerbit",
      "id": 7468,
      "attributes": {
        "nomor_pb_umku": "812001429187400010011",
        "nama": "MICROSITE ESG IDX",
        "website": "esg.idx.co.id",
        "sektor": "Sektor Keuangan",
        "nama_perusahaan": "BURSA EFEK INDONESIA",
        "tanggal_daftar": "2022-07-20",
        "nomor_tanda_daftar": "000832.23/DJAI.PSE/07/2022",
        "qr_code": "https://pse.kominfo.go.id/storage/images/qr_code/f817e1808afa1e9fe44dbd42852d09c9.png",
        "status_id": "TERDAFTAR",
        "sistem_elektronik_id": 7376
      }
    },
    {
      "type": "tdpseTerbit",
      "id": 7448,
      "attributes": {
        "nomor_pb_umku": "812001429187400010013",
        "nama": "WEBSITE PASAR MODAL SYARIAH",
        "website": "idxislamic.idx.co.id",
        "sektor": "Sektor Keuangan",
        "nama_perusahaan": "BURSA EFEK INDONESIA",
        "tanggal_daftar": "2022-08-22",
        "nomor_tanda_daftar": "000832.22/DJAI.PSE/07/2022",
        "qr_code": "https://pse.kominfo.go.id/storage/images/qr_code/9164c980ed3ab5b20e458474b4550cb2.png",
        "status_id": "TERDAFTAR",
        "sistem_elektronik_id": 7351
      }
    }
  ]
}