{
  "meta": {
    "page": {
      "currentPage": 876,
      "from": 8751,
      "lastPage": 1053,
      "perPage": 10,
      "to": 8760,
      "total": 10528
    }
  },
  "data": [
    {
      "type": "tdpseTerbit",
      "id": 8027,
      "attributes": {
        "nomor_pb_umku": "912010214198600160025",
        "nama": "IKURMA",
        "website": "-",
        "sektor": "Sektor Keuangan",
        "nama_perusahaan": "BANK SYARIAH INDONESIA",
        "tanggal_daftar": "2022-07-20",
        "nomor_tanda_daftar": "000863.40/DJAI.PSE/07/2022",
        "qr_code": "https://pse.kominfo.go.id/storage/images/qr_code/2df5244456b603531becddf9213bd917.png",
        "status_id": "TERDAFTAR",
        "sistem_elektronik_id": 7949
      }
    },
    {
      "type": "tdpseTerbit",
      "id": 8017,
      "attributes": {
        "nomor_pb_umku": "912010214198600160024",
        "nama": "MOBILE COLLECTION SYSTEM",
        "website": "mcs.bsm.co.id",
        "sektor": "Sektor Keuangan",
        "nama_perusahaan": "BANK SYARIAH INDONESIA",
        "tanggal_daftar": "2022-07-20",
        "nomor_tanda_daftar": "000863.39/DJAI.PSE/07/2022",
        "qr_code": "https://pse.kominfo.go.id/storage/images/qr_code/0a46b4b2daac9f1927697ade21798687.png",
        "status_id": "TERDAFTAR",
        "sistem_elektronik_id": 7938
      }
    },
    {
      "type": "tdpseTerbit",
      "id": 8006,
      "attributes": {
        "nomor_pb_umku": "912010214198600160023",
        "nama": "NEW ORIGINATION SYSTEM (NOS)",
        "website": "digitalform.bsm.co.id",
        "sektor": "Sektor Keuangan",
        "nama_perusahaan": "BANK SYARIAH INDONESIA",
        "tanggal_daftar": "2022-07-20",
        "nomor_tanda_daftar": "000863.38/DJAI.PSE/07/2022",
        "qr_code": "https://pse.kominfo.go.id/storage/images/qr_code/dd1a974e91dc20e510613e69c9642454.png",
        "status_id": "TERDAFTAR",
        "sistem_elektronik_id": 7925
      }
    },
    {
      "type": "tdpseTerbit",
      "id": 7988,
      "attributes": {
        "nomor_pb_umku": "912010214198600160022",
        "nama": "GO UMKM BY BSI",
        "website": "go-umkm.bankbsi.co.id",
        "sektor": "Sektor Keuangan",
        "nama_perusahaan": "BANK SYARIAH INDONESIA",
        "tanggal_daftar": "2022-07-20",
        "nomor_tanda_daftar": "000863.37/DJAI.PSE/07/2022",
        "qr_code": "https://pse.kominfo.go.id/storage/images/qr_code/2cad2adf73dd2906ad739afb11d50906.png",
        "status_id": "TERDAFTAR",
        "sistem_elektronik_id": 7906
      }
    },
    {
      "type": "tdpseTerbit",
      "id": 7973,
      "attributes": {
        "nomor_pb_umku": "912010214198600160021",
        "nama": "SIBER",
        "website": "pensiun.bankbsi.co.id",
        "sektor": "Sektor Keuangan",
        "nama_perusahaan": "BANK SYARIAH INDONESIA",
        "tanggal_daftar": "2022-07-20",
        "nomor_tanda_daftar": "000863.36/DJAI.PSE/07/2022",
        "qr_code": "https://pse.kominfo.go.id/storage/images/qr_code/e539743601bb99e966c2ee30d30015a0.png",
        "status_id": "TERDAFTAR",
        "sistem_elektronik_id": 7890
      }
    },
    {
      "type": "tdpseTerbit",
      "id": 7967,
      "attributes": {
        "nomor_pb_umku": "912010214198600160021",
        "nama": "LANDING PAGE PEMBUKAAN REKENING ONLINE",
        "website": "bsiapi.bankbsi.co.id",
        "sektor": "Sektor Keuangan",
        "nama_perusahaan": "BANK SYARIAH INDONESIA",
        "tanggal_daftar": "2022-07-20",
        "nomor_tanda_daftar": "000863.35/DJAI.PSE/07/2022",
        "qr_code": "https://pse.kominfo.go.id/storage/images/qr_code/d7f9ac512cff0d58d9dd2e3edbd33f99.png",
        "status_id": "TERDAFTAR",
        "sistem_elektronik_id": 7883
      }
    },
    {
      "type": "tdpseTerbit",
      "id": 7937,
      "attributes": {
        "nomor_pb_umku": "912010214198600160020",
        "nama": "RUMAHIMPIAN.ID",
        "website": "rumahimpian.id",
        "sektor": "Sektor Keuangan",
        "nama_perusahaan": "BANK SYARIAH INDONESIA",
        "tanggal_daftar": "2022-07-20",
        "nomor_tanda_daftar": "000863.34/DJAI.PSE/07/2022",
        "qr_code": "https://pse.kominfo.go.id/storage/images/qr_code/d6cc1d76a0026124588f3b6226998e8e.png",
        "status_id": "TERDAFTAR",
        "sistem_elektronik_id": 7855
      }
    },
    {
      "type": "tdpseTerbit",
      "id": 7849,
      "attributes": {
        "nomor_pb_umku": "912010214198600160019",
        "nama": "GRC COMPAS",
        "website": "bsm.compas.id",
        "sektor": "Sektor Keuangan",
        "nama_perusahaan": "BANK SYARIAH INDONESIA",
        "tanggal_daftar": "2022-07-20",
        "nomor_tanda_daftar": "000863.33/DJAI.PSE/07/2022",
        "qr_code": "https://pse.kominfo.go.id/storage/images/qr_code/66eea0573d61edb743063a67fffb7839.png",
        "status_id": "TERDAFTAR",
        "sistem_elektronik_id": 7768
      }
    },
    {
      "type": "tdpseTerbit",
      "id": 7707,
      "attributes": {
        "nomor_pb_umku": "912010214198600160018",
        "nama": "BSIMOBILE",
        "website": "bsmmobilethree.bsm.co.id",
        "sektor": "Sektor Keuangan",
        "nama_perusahaan": "BANK SYARIAH INDONESIA",
        "tanggal_daftar": "2022-07-20",
        "nomor_tanda_daftar": "000863.32/DJAI.PSE/07/2022",
        "qr_code": "https://pse.kominfo.go.id/storage/images/qr_code/6a9c41efd3a2570a06e832b5a0d7c9cf.png",
        "status_id": "TERDAFTAR",
        "sistem_elektronik_id": 7620
      }
    },
    {
      "type": "tdpseTerbit",
      "id": 7653,
      "attributes": {
        "nomor_pb_umku": "912010214198600160017",
        "nama": "SABI",
        "website": "sabihasanahku.bankbsi.co.id",
        "sektor": "Sektor Keuangan",
        "nama_perusahaan": "BANK SYARIAH INDONESIA",
        "tanggal_daftar": "2022-07-20",
        "nomor_tanda_daftar": "000863.31/DJAI.PSE/07/2022",
        "qr_code": "https://pse.kominfo.go.id/storage/images/qr_code/5ddb518524e90214983b4f79994a2734.png",
        "status_id": "TERDAFTAR",
        "sistem_elektronik_id": 7550
      }
    }
  ]
}