{
  "meta": {
    "page": {
      "currentPage": 877,
      "from": 8761,
      "lastPage": 1005,
      "perPage": 10,
      "to": 8770,
      "total": 10048
    }
  },
  "data": [
    {
      "type": "tdpseTerbit",
      "id": 1392,
      "attributes": {
        "nomor_pb_umku": null,
        "nama": "itemku",
        "website": "itemku.com",
        "sektor": "Sektor Perdagangan",
        "nama_perusahaan": "FIVE JACK",
        "tanggal_daftar": "2021-06-09",
        "nomor_tanda_daftar": "000643.02/DJAI.PSE/06/2021",
        "qr_code": "https://pse.kominfo.go.id/storage/images/qr_code/0a90e3c2497ba6d65a697842bddfd568.png",
        "status_id": "TERDAFTAR",
        "sistem_elektronik_id": 593
      }
    },
    {
      "type": "tdpseTerbit",
      "id": 803,
      "attributes": {
        "nomor_pb_umku": null,
        "nama": "itemku",
        "website": "itemku.com",
        "sektor": "Sektor Perdagangan, Sektor Teknologi Informasi dan Komunikasi",
        "nama_perusahaan": "FIVE JACK",
        "tanggal_daftar": "2021-05-07",
        "nomor_tanda_daftar": "000643.01/DJAI.PSE/05/2021",
        "qr_code": "https://pse.kominfo.go.id/storage/images/qr_code/d8133f41dbf46f3bbe694847cf949cc2.png",
        "status_id": "TERDAFTAR",
        "sistem_elektronik_id": 592
      }
    },
    {
      "type": "tdpseTerbit",
      "id": 802,
      "attributes": {
        "nomor_pb_umku": null,
        "nama": "CASHBIRD",
        "website": "http://www.cashbird.cn/",
        "sektor": "Sektor Teknologi Informasi dan Komunikasi",
        "nama_perusahaan": "SIMPAN PINJAM DANA BERKAH NIAGA",
        "tanggal_daftar": "2021-05-07",
        "nomor_tanda_daftar": "000642.01/DJAI.PSE/05/2021",
        "qr_code": "https://pse.kominfo.go.id/storage/images/qr_code/d0187ef46f926298f22c9d89a3513000.png",
        "status_id": "TERDAFTAR",
        "sistem_elektronik_id": 598
      }
    },
    {
      "type": "tdpseTerbit",
      "id": 1136,
      "attributes": {
        "nomor_pb_umku": null,
        "nama": "www.oranye.co.id",
        "website": "www.oranye.co.id",
        "sektor": "Sektor Teknologi Informasi dan Komunikasi",
        "nama_perusahaan": "MANJO TEKNOLOGI INDONESIA",
        "tanggal_daftar": "2021-06-02",
        "nomor_tanda_daftar": "000641.02/DJAI.PSE/06/2021",
        "qr_code": "https://pse.kominfo.go.id/storage/images/qr_code/4066669f400927307d88eed126508535.png",
        "status_id": "TERDAFTAR",
        "sistem_elektronik_id": 37
      }
    },
    {
      "type": "tdpseTerbit",
      "id": 801,
      "attributes": {
        "nomor_pb_umku": null,
        "nama": "Manjo",
        "website": "www.manjo.co.id",
        "sektor": "Sektor Keuangan",
        "nama_perusahaan": "MANJO TEKNOLOGI INDONESIA",
        "tanggal_daftar": "2021-05-07",
        "nomor_tanda_daftar": "000641.01/DJAI.PSE/05/2021",
        "qr_code": "https://pse.kominfo.go.id/storage/images/qr_code/0f61b0f1416dbdcdbca5a8d1e8bd3bcd.png",
        "status_id": "TERDAFTAR",
        "sistem_elektronik_id": 36
      }
    },
    {
      "type": "tdpseTerbit",
      "id": 2157,
      "attributes": {
        "nomor_pb_umku": null,
        "nama": "Importir.id",
        "website": "Importir.id",
        "sektor": "Sektor Perdagangan",
        "nama_perusahaan": "EDRUS STRATEGI DIGITAL",
        "tanggal_daftar": "2021-10-26",
        "nomor_tanda_daftar": "000640.03/DJAI.PSE/10/2021",
        "qr_code": "https://pse.kominfo.go.id/storage/images/qr_code/1c375ddc598b40c1b30a6645323e20a3.png",
        "status_id": "TERDAFTAR",
        "sistem_elektronik_id": 3292
      }
    },
    {
      "type": "tdpseTerbit",
      "id": 2026,
      "attributes": {
        "nomor_pb_umku": null,
        "nama": "Importir.org",
        "website": "Importir.org",
        "sektor": "Sektor Perdagangan",
        "nama_perusahaan": "EDRUS STRATEGI DIGITAL",
        "tanggal_daftar": "2021-10-26",
        "nomor_tanda_daftar": "000640.02/DJAI.PSE/10/2021",
        "qr_code": "https://pse.kominfo.go.id/storage/images/qr_code/71eebd7e3bf91544e0d60ead51a2bfb2.png",
        "status_id": "TERDAFTAR",
        "sistem_elektronik_id": 3291
      }
    },
    {
      "type": "tdpseTerbit",
      "id": 800,
      "attributes": {
        "nomor_pb_umku": null,
        "nama": "Importir.com",
        "website": "Importir.com",
        "sektor": "Sektor Perdagangan",
        "nama_perusahaan": "EDRUS STRATEGI DIGITAL",
        "tanggal_daftar": "2021-05-07",
        "nomor_tanda_daftar": "000640.01/DJAI.PSE/05/2021",
        "qr_code": "https://pse.kominfo.go.id/storage/images/qr_code/d95caebfb9bc9e89d99026339db0e075.png",
        "status_id": "TERDAFTAR",
        "sistem_elektronik_id": 3290
      }
    },
    {
      "type": "tdpseTerbit",
      "id": 799,
      "attributes": {
        "nomor_pb_umku": null,
        "nama": "Pahlawan Pinjaman",
        "website": "-",
        "sektor": "Sektor Keuangan",
        "nama_perusahaan": "KOPERASI SIMPAN PINJAM SUKSES INTI TERDEPAN INDONESIA",
        "tanggal_daftar": "2021-05-07",
        "nomor_tanda_daftar": "000639.01/DJAI.PSE/05/2021",
        "qr_code": "https://pse.kominfo.go.id/storage/images/qr_code/9ecd7481a058da5afab2301b48b977bc.png",
        "status_id": "TERDAFTAR",
        "sistem_elektronik_id": 3289
      }
    },
    {
      "type": "tdpseTerbit",
      "id": 797,
      "attributes": {
        "nomor_pb_umku": null,
        "nama": "Kunci Dana",
        "website": "-",
        "sektor": "Sektor Keuangan",
        "nama_perusahaan": "KOPERASI SIMPAN PINJAM SUKSES ANUGERAH BERSAMA INDONESIA",
        "tanggal_daftar": "2021-05-07",
        "nomor_tanda_daftar": "000638.01/DJAI.PSE/05/2021",
        "qr_code": "https://pse.kominfo.go.id/storage/images/qr_code/0ab7098ad0ec74cf8557984ccbcdfa15.png",
        "status_id": "TERDAFTAR",
        "sistem_elektronik_id": 3396
      }
    }
  ]
}