{
  "meta": {
    "page": {
      "currentPage": 878,
      "from": 8771,
      "lastPage": 1016,
      "perPage": 10,
      "to": 8780,
      "total": 10156
    }
  },
  "data": [
    {
      "type": "tdpseTerbit",
      "id": 924,
      "attributes": {
        "nomor_pb_umku": null,
        "nama": "Internet Banking Corporate",
        "website": "https://www.banksinarmas.com/businessbanking/ ",
        "sektor": "Sektor Keuangan",
        "nama_perusahaan": "BANK SINARMAS",
        "tanggal_daftar": "2021-05-11",
        "nomor_tanda_daftar": "000681.09/DJAI.PSE/05/2021",
        "qr_code": "https://pse.kominfo.go.id/storage/images/qr_code/a6bf899a226f4ab2dc032227db8bdf8c.png",
        "status_id": "TERDAFTAR",
        "sistem_elektronik_id": 661
      }
    },
    {
      "type": "tdpseTerbit",
      "id": 923,
      "attributes": {
        "nomor_pb_umku": null,
        "nama": "Internet Banking Personal",
        "website": "https://www.banksinarmas.com/id/personal",
        "sektor": "Sektor Keuangan",
        "nama_perusahaan": "BANK SINARMAS",
        "tanggal_daftar": "2021-05-11",
        "nomor_tanda_daftar": "000681.08/DJAI.PSE/05/2021",
        "qr_code": "https://pse.kominfo.go.id/storage/images/qr_code/8dab4b36758eda375d7b8a07966f719d.png",
        "status_id": "TERDAFTAR",
        "sistem_elektronik_id": 660
      }
    },
    {
      "type": "tdpseTerbit",
      "id": 922,
      "attributes": {
        "nomor_pb_umku": null,
        "nama": "Simobi",
        "website": "-",
        "sektor": "Sektor Keuangan",
        "nama_perusahaan": "BANK SINARMAS",
        "tanggal_daftar": "2021-05-11",
        "nomor_tanda_daftar": "000681.07/DJAI.PSE/05/2021",
        "qr_code": "https://pse.kominfo.go.id/storage/images/qr_code/2775877daf752ed30dd26bf575cfbb8a.png",
        "status_id": "TERDAFTAR",
        "sistem_elektronik_id": 659
      }
    },
    {
      "type": "tdpseTerbit",
      "id": 921,
      "attributes": {
        "nomor_pb_umku": null,
        "nama": "Simobi+ (Simobi Plus)",
        "website": "-",
        "sektor": "Sektor Keuangan",
        "nama_perusahaan": "BANK SINARMAS",
        "tanggal_daftar": "2021-05-11",
        "nomor_tanda_daftar": "000681.06/DJAI.PSE/05/2021",
        "qr_code": "https://pse.kominfo.go.id/storage/images/qr_code/4edef479476e89b0808b196fed8b874e.png",
        "status_id": "TERDAFTAR",
        "sistem_elektronik_id": 658
      }
    },
    {
      "type": "tdpseTerbit",
      "id": 895,
      "attributes": {
        "nomor_pb_umku": null,
        "nama": "Simas Merchant QRIS",
        "website": "https://www.banksinarmas.com/QRManager",
        "sektor": "Sektor Keuangan",
        "nama_perusahaan": "BANK SINARMAS",
        "tanggal_daftar": "2021-05-11",
        "nomor_tanda_daftar": "000681.05/DJAI.PSE/05/2021",
        "qr_code": "https://pse.kominfo.go.id/storage/images/qr_code/df37d3cfe0030973d7052566b9a07693.png",
        "status_id": "TERDAFTAR",
        "sistem_elektronik_id": 657
      }
    },
    {
      "type": "tdpseTerbit",
      "id": 893,
      "attributes": {
        "nomor_pb_umku": null,
        "nama": "Website  Bank Sinarmas (Sharia)",
        "website": "https://www.banksyariahsinarmas.com",
        "sektor": "Sektor Keuangan",
        "nama_perusahaan": "BANK SINARMAS",
        "tanggal_daftar": "2021-05-11",
        "nomor_tanda_daftar": "000681.04/DJAI.PSE/05/2021",
        "qr_code": "https://pse.kominfo.go.id/storage/images/qr_code/9c855bc0ca5dcc11fe8fa2eaf51b1ed9.png",
        "status_id": "TERDAFTAR",
        "sistem_elektronik_id": 656
      }
    },
    {
      "type": "tdpseTerbit",
      "id": 891,
      "attributes": {
        "nomor_pb_umku": null,
        "nama": "Website  Bank Sinarmas (Konven)",
        "website": "https://www.banksinarmas.com/id/",
        "sektor": "Sektor Keuangan",
        "nama_perusahaan": "BANK SINARMAS",
        "tanggal_daftar": "2021-05-11",
        "nomor_tanda_daftar": "000681.03/DJAI.PSE/05/2021",
        "qr_code": "https://pse.kominfo.go.id/storage/images/qr_code/921d2e51380315a643fe90b93f6b902d.png",
        "status_id": "TERDAFTAR",
        "sistem_elektronik_id": 655
      }
    },
    {
      "type": "tdpseTerbit",
      "id": 890,
      "attributes": {
        "nomor_pb_umku": null,
        "nama": "Smart Lending Platform ( Ping An) OneConnect",
        "website": "https://sat-simaspintar.banksinarmas.com - slp-simaspintar.banksinarmas.com",
        "sektor": "Sektor Keuangan",
        "nama_perusahaan": "BANK SINARMAS",
        "tanggal_daftar": "2021-05-11",
        "nomor_tanda_daftar": "000681.02/DJAI.PSE/05/2021",
        "qr_code": "https://pse.kominfo.go.id/storage/images/qr_code/1f9a722731c1b3793bcf13031ff7c147.png",
        "status_id": "TERDAFTAR",
        "sistem_elektronik_id": 654
      }
    },
    {
      "type": "tdpseTerbit",
      "id": 873,
      "attributes": {
        "nomor_pb_umku": null,
        "nama": "Sunline/Upgrade SIMOBI",
        "website": "Simobi1.banksinarmas.com",
        "sektor": "Sektor Keuangan",
        "nama_perusahaan": "BANK SINARMAS",
        "tanggal_daftar": "2021-05-11",
        "nomor_tanda_daftar": "000681.01/DJAI.PSE/05/2021",
        "qr_code": "https://pse.kominfo.go.id/storage/images/qr_code/da225a376aa4c8e093b7b872837fd3a9.png",
        "status_id": "TERDAFTAR",
        "sistem_elektronik_id": 653
      }
    },
    {
      "type": "tdpseTerbit",
      "id": 872,
      "attributes": {
        "nomor_pb_umku": null,
        "nama": "CredoLab",
        "website": "https://www.credolab.com/",
        "sektor": "Sektor Keuangan, Sektor Teknologi Informasi dan Komunikasi",
        "nama_perusahaan": "CREDOLAB INDONESIA SCORING",
        "tanggal_daftar": "2021-05-11",
        "nomor_tanda_daftar": "000680.01/DJAI.PSE/05/2021",
        "qr_code": "https://pse.kominfo.go.id/storage/images/qr_code/aacab9aa46eb9ff87412bd3e1ab3ce31.png",
        "status_id": "TERDAFTAR",
        "sistem_elektronik_id": 183
      }
    }
  ]
}