{
  "meta": {
    "page": {
      "currentPage": 879,
      "from": 8781,
      "lastPage": 1025,
      "perPage": 10,
      "to": 8790,
      "total": 10245
    }
  },
  "data": [
    {
      "type": "tdpseTerbit",
      "id": 952,
      "attributes": {
        "nomor_pb_umku": null,
        "nama": "Permatae-Business",
        "website": "https://www.permatae-business.com",
        "sektor": "Sektor Keuangan",
        "nama_perusahaan": "BANK PERMATA",
        "tanggal_daftar": "2021-05-11",
        "nomor_tanda_daftar": "000713.05/DJAI.PSE/05/2021",
        "qr_code": "https://pse.kominfo.go.id/storage/images/qr_code/c7b300b7b2f0b31945f83cec0d780dae.png",
        "status_id": "TERDAFTAR",
        "sistem_elektronik_id": 605
      }
    },
    {
      "type": "tdpseTerbit",
      "id": 951,
      "attributes": {
        "nomor_pb_umku": null,
        "nama": "Permata Bisnis Payment Point",
        "website": "https://pbpp.permatabank.com/retail/web/login",
        "sektor": "Sektor Keuangan",
        "nama_perusahaan": "BANK PERMATA",
        "tanggal_daftar": "2021-05-11",
        "nomor_tanda_daftar": "000713.04/DJAI.PSE/05/2021",
        "qr_code": "https://pse.kominfo.go.id/storage/images/qr_code/bc584a938eea2403fac83c0822ba1500.png",
        "status_id": "TERDAFTAR",
        "sistem_elektronik_id": 604
      }
    },
    {
      "type": "tdpseTerbit",
      "id": 950,
      "attributes": {
        "nomor_pb_umku": null,
        "nama": "PermataQR Merchant",
        "website": "https://qr.permatabank.com/portal-merchant",
        "sektor": "Sektor Keuangan",
        "nama_perusahaan": "BANK PERMATA",
        "tanggal_daftar": "2021-05-11",
        "nomor_tanda_daftar": "000713.03/DJAI.PSE/05/2021",
        "qr_code": "https://pse.kominfo.go.id/storage/images/qr_code/9f119191456d357e2e18f1470b10e672.png",
        "status_id": "TERDAFTAR",
        "sistem_elektronik_id": 603
      }
    },
    {
      "type": "tdpseTerbit",
      "id": 949,
      "attributes": {
        "nomor_pb_umku": null,
        "nama": "PermataNet",
        "website": "https://www.permatanet.com",
        "sektor": "Sektor Keuangan",
        "nama_perusahaan": "BANK PERMATA",
        "tanggal_daftar": "2021-05-11",
        "nomor_tanda_daftar": "000713.02/DJAI.PSE/05/2021",
        "qr_code": "https://pse.kominfo.go.id/storage/images/qr_code/dbd28e890ce0d2fd79397282a8c7d3e1.png",
        "status_id": "TERDAFTAR",
        "sistem_elektronik_id": 602
      }
    },
    {
      "type": "tdpseTerbit",
      "id": 946,
      "attributes": {
        "nomor_pb_umku": null,
        "nama": "PermataMobile X",
        "website": "-",
        "sektor": "Sektor Keuangan",
        "nama_perusahaan": "BANK PERMATA",
        "tanggal_daftar": "2021-05-11",
        "nomor_tanda_daftar": "000713.01/DJAI.PSE/05/2021",
        "qr_code": "https://pse.kominfo.go.id/storage/images/qr_code/e6db91982d782612a90ae3cf4dfd3fb1.png",
        "status_id": "TERDAFTAR",
        "sistem_elektronik_id": 601
      }
    },
    {
      "type": "tdpseTerbit",
      "id": 940,
      "attributes": {
        "nomor_pb_umku": null,
        "nama": "Progressive Web App - GajiGesa",
        "website": "https://app.gajigesa.com",
        "sektor": "Sektor Teknologi Informasi dan Komunikasi",
        "nama_perusahaan": "EASY MANAGEMENT SYSTEMS",
        "tanggal_daftar": "2021-05-11",
        "nomor_tanda_daftar": "000712.01/DJAI.PSE/05/2021",
        "qr_code": "https://pse.kominfo.go.id/storage/images/qr_code/5fef5ef770baad126ba518023987445e.png",
        "status_id": "TERDAFTAR",
        "sistem_elektronik_id": 41
      }
    },
    {
      "type": "tdpseTerbit",
      "id": 10955,
      "attributes": {
        "nomor_pb_umku": "022020012177800010002",
        "nama": "MITRA AKULAKU",
        "website": "akulakufinance.co.id",
        "sektor": "Sektor Keuangan",
        "nama_perusahaan": "AKULAKU FINANCE INDONESIA",
        "tanggal_daftar": "2022-09-02",
        "nomor_tanda_daftar": "000711.02/DJAI.PSE/09/2022",
        "qr_code": "https://pse.kominfo.go.id/storage/images/qr_code/469a3cd4003685b49965bc6007131920.png",
        "status_id": "TERDAFTAR",
        "sistem_elektronik_id": 10762
      }
    },
    {
      "type": "tdpseTerbit",
      "id": 939,
      "attributes": {
        "nomor_pb_umku": null,
        "nama": "AkuCicil",
        "website": "www.akulakufinance.co.id",
        "sektor": "Sektor Keuangan",
        "nama_perusahaan": "AKULAKU FINANCE INDONESIA",
        "tanggal_daftar": "2021-05-11",
        "nomor_tanda_daftar": "000711.01/DJAI.PSE/05/2021",
        "qr_code": "https://pse.kominfo.go.id/storage/images/qr_code/8d8e944d307f09c3719a648c886f71e9.png",
        "status_id": "TERDAFTAR",
        "sistem_elektronik_id": 2810
      }
    },
    {
      "type": "tdpseTerbit",
      "id": 10549,
      "attributes": {
        "nomor_pb_umku": "022010521024300090006",
        "nama": "KIRIMINAJA APLIKASI MULTI EKSPEDISI",
        "website": "kiriminaja.com",
        "sektor": "Sektor Teknologi Informasi dan Komunikasi",
        "nama_perusahaan": "SELALU SIAP SOLUSI",
        "tanggal_daftar": "2022-08-19",
        "nomor_tanda_daftar": "000710.09/DJAI.PSE/08/2022",
        "qr_code": "https://pse.kominfo.go.id/storage/images/qr_code/283ee534b1f06fe20eb30824dc63e101.png",
        "status_id": "TERDAFTAR",
        "sistem_elektronik_id": 10409
      }
    },
    {
      "type": "tdpseTerbit",
      "id": 5272,
      "attributes": {
        "nomor_pb_umku": "022010521024300090005",
        "nama": "KIRIMINAJA DOT COM",
        "website": "kiriminaja.com",
        "sektor": "Sektor Teknologi Informasi dan Komunikasi",
        "nama_perusahaan": "SELALU SIAP SOLUSI",
        "tanggal_daftar": "2022-07-11",
        "nomor_tanda_daftar": "000710.08/DJAI.PSE/07/2022",
        "qr_code": "https://pse.kominfo.go.id/storage/images/qr_code/fedfafdc06b11d559eeacb88f510d827.png",
        "status_id": "TERDAFTAR",
        "sistem_elektronik_id": 5140
      }
    }
  ]
}