{
  "meta": {
    "page": {
      "currentPage": 880,
      "from": 8791,
      "lastPage": 1063,
      "perPage": 10,
      "to": 8800,
      "total": 10630
    }
  },
  "data": [
    {
      "type": "tdpseTerbit",
      "id": 2971,
      "attributes": {
        "nomor_pb_umku": null,
        "nama": "One Portal for All",
        "website": "bnitbs.id",
        "sektor": "Sektor Keuangan",
        "nama_perusahaan": "PERUSAHAAN PERSEROAN (PERSERO) BANK NEGARA INDONESIA",
        "tanggal_daftar": "2022-01-06",
        "nomor_tanda_daftar": "000872.43/DJAI.PSE/01/2022",
        "qr_code": "https://pse.kominfo.go.id/storage/images/qr_code/13e47b533e718e5ab67e20729ab7a767.png",
        "status_id": "TERDAFTAR",
        "sistem_elektronik_id": 874
      }
    },
    {
      "type": "tdpseTerbit",
      "id": 2970,
      "attributes": {
        "nomor_pb_umku": null,
        "nama": "SPAN",
        "website": "spancms.bni.co.id",
        "sektor": "Sektor Keuangan",
        "nama_perusahaan": "PERUSAHAAN PERSEROAN (PERSERO) BANK NEGARA INDONESIA",
        "tanggal_daftar": "2022-01-06",
        "nomor_tanda_daftar": "000872.42/DJAI.PSE/01/2022",
        "qr_code": "https://pse.kominfo.go.id/storage/images/qr_code/22cfc0b2c30b3d70e5f6c1dab7996f20.png",
        "status_id": "TERDAFTAR",
        "sistem_elektronik_id": 873
      }
    },
    {
      "type": "tdpseTerbit",
      "id": 2391,
      "attributes": {
        "nomor_pb_umku": null,
        "nama": "Xpora",
        "website": "xpora.bni.co.id",
        "sektor": "Sektor Keuangan",
        "nama_perusahaan": "PERUSAHAAN PERSEROAN (PERSERO) BANK NEGARA INDONESIA",
        "tanggal_daftar": "2021-11-16",
        "nomor_tanda_daftar": "000872.41/DJAI.PSE/11/2021",
        "qr_code": "https://pse.kominfo.go.id/storage/images/qr_code/51a22fe041cc1cc2e3277400849308dd.png",
        "status_id": "TERDAFTAR",
        "sistem_elektronik_id": 872
      }
    },
    {
      "type": "tdpseTerbit",
      "id": 1709,
      "attributes": {
        "nomor_pb_umku": null,
        "nama": "Internet Banking Corporate",
        "website": "https://bnidirect.bni.co.id",
        "sektor": "Sektor Keuangan",
        "nama_perusahaan": "PERUSAHAAN PERSEROAN (PERSERO) BANK NEGARA INDONESIA",
        "tanggal_daftar": "2021-07-15",
        "nomor_tanda_daftar": "000872.40/DJAI.PSE/07/2021",
        "qr_code": "https://pse.kominfo.go.id/storage/images/qr_code/ab5d10444b3947d47217083cecba8a6f.png",
        "status_id": "TERDAFTAR",
        "sistem_elektronik_id": 871
      }
    },
    {
      "type": "tdpseTerbit",
      "id": 1708,
      "attributes": {
        "nomor_pb_umku": null,
        "nama": "BNI EduPatrol Guru",
        "website": "http://bni-edupatrol.com",
        "sektor": "Sektor Keuangan",
        "nama_perusahaan": "PERUSAHAAN PERSEROAN (PERSERO) BANK NEGARA INDONESIA",
        "tanggal_daftar": "2021-07-15",
        "nomor_tanda_daftar": "000872.39/DJAI.PSE/07/2021",
        "qr_code": "https://pse.kominfo.go.id/storage/images/qr_code/bc981110d495ed940d4b8afe68fb0860.png",
        "status_id": "TERDAFTAR",
        "sistem_elektronik_id": 870
      }
    },
    {
      "type": "tdpseTerbit",
      "id": 1488,
      "attributes": {
        "nomor_pb_umku": null,
        "nama": "Website BNI Simponi",
        "website": "https://dplk.bni.co.id",
        "sektor": "Sektor Keuangan",
        "nama_perusahaan": "PERUSAHAAN PERSEROAN (PERSERO) BANK NEGARA INDONESIA",
        "tanggal_daftar": "2021-06-14",
        "nomor_tanda_daftar": "000872.38/DJAI.PSE/06/2021",
        "qr_code": "https://pse.kominfo.go.id/storage/images/qr_code/73d619a73a4ba8e425e01b5bebc83582.png",
        "status_id": "TERDAFTAR",
        "sistem_elektronik_id": 869
      }
    },
    {
      "type": "tdpseTerbit",
      "id": 1487,
      "attributes": {
        "nomor_pb_umku": null,
        "nama": "BNI e-Collection",
        "website": "https://bni-ecollection.bni.co.id",
        "sektor": "Sektor Keuangan",
        "nama_perusahaan": "PERUSAHAAN PERSEROAN (PERSERO) BANK NEGARA INDONESIA",
        "tanggal_daftar": "2021-06-14",
        "nomor_tanda_daftar": "000872.37/DJAI.PSE/06/2021",
        "qr_code": "https://pse.kominfo.go.id/storage/images/qr_code/33a8b22626fb87b6dd5798ccd6a18a2b.png",
        "status_id": "TERDAFTAR",
        "sistem_elektronik_id": 868
      }
    },
    {
      "type": "tdpseTerbit",
      "id": 1486,
      "attributes": {
        "nomor_pb_umku": null,
        "nama": "BNI ASP",
        "website": "https://aspbni.bni.co.id",
        "sektor": "Sektor Keuangan",
        "nama_perusahaan": "PERUSAHAAN PERSEROAN (PERSERO) BANK NEGARA INDONESIA",
        "tanggal_daftar": "2021-06-14",
        "nomor_tanda_daftar": "000872.36/DJAI.PSE/06/2021",
        "qr_code": "https://pse.kominfo.go.id/storage/images/qr_code/e5d1c07d00f6daa87db1d6d4cc7d89da.png",
        "status_id": "TERDAFTAR",
        "sistem_elektronik_id": 867
      }
    },
    {
      "type": "tdpseTerbit",
      "id": 1485,
      "attributes": {
        "nomor_pb_umku": null,
        "nama": "BNI Kredit Digital e-Form",
        "website": "https://eform.bni.co.id",
        "sektor": "Sektor Keuangan",
        "nama_perusahaan": "PERUSAHAAN PERSEROAN (PERSERO) BANK NEGARA INDONESIA",
        "tanggal_daftar": "2021-06-14",
        "nomor_tanda_daftar": "000872.35/DJAI.PSE/06/2021",
        "qr_code": "https://pse.kominfo.go.id/storage/images/qr_code/379fc74d859529918d77d126d38aa891.png",
        "status_id": "TERDAFTAR",
        "sistem_elektronik_id": 866
      }
    },
    {
      "type": "tdpseTerbit",
      "id": 1484,
      "attributes": {
        "nomor_pb_umku": null,
        "nama": "BNI Digipro",
        "website": "https://digipay009.id",
        "sektor": "Sektor Keuangan",
        "nama_perusahaan": "PERUSAHAAN PERSEROAN (PERSERO) BANK NEGARA INDONESIA",
        "tanggal_daftar": "2021-06-14",
        "nomor_tanda_daftar": "000872.34/DJAI.PSE/06/2021",
        "qr_code": "https://pse.kominfo.go.id/storage/images/qr_code/4df45175e4cb6495f0ec4e70b3b06825.png",
        "status_id": "TERDAFTAR",
        "sistem_elektronik_id": 865
      }
    }
  ]
}