{
  "meta": {
    "page": {
      "currentPage": 881,
      "from": 8801,
      "lastPage": 1014,
      "perPage": 10,
      "to": 8810,
      "total": 10138
    }
  },
  "data": [
    {
      "type": "tdpseTerbit",
      "id": 976,
      "attributes": {
        "nomor_pb_umku": null,
        "nama": "Belibareng",
        "website": "https://belibareng.co.id/",
        "sektor": "Sektor Perdagangan",
        "nama_perusahaan": "ASTRA INTERNATIONAL",
        "tanggal_daftar": "2021-05-11",
        "nomor_tanda_daftar": "000654.11/DJAI.PSE/05/2021",
        "qr_code": "https://pse.kominfo.go.id/storage/images/qr_code/103c59f38db2ffc21293da5aa8e8603f.png",
        "status_id": "TERDAFTAR",
        "sistem_elektronik_id": 243
      }
    },
    {
      "type": "tdpseTerbit",
      "id": 975,
      "attributes": {
        "nomor_pb_umku": null,
        "nama": "AstraKu",
        "website": "-",
        "sektor": "Sektor Perdagangan",
        "nama_perusahaan": "ASTRA INTERNATIONAL",
        "tanggal_daftar": "2021-05-11",
        "nomor_tanda_daftar": "000654.10/DJAI.PSE/05/2021",
        "qr_code": "https://pse.kominfo.go.id/storage/images/qr_code/01a8ea9943afe656d4c26cf812879973.png",
        "status_id": "TERDAFTAR",
        "sistem_elektronik_id": 242
      }
    },
    {
      "type": "tdpseTerbit",
      "id": 974,
      "attributes": {
        "nomor_pb_umku": null,
        "nama": "Meta",
        "website": "-",
        "sektor": "Sektor Perdagangan, Sektor Teknologi Informasi dan Komunikasi",
        "nama_perusahaan": "ASTRA INTERNATIONAL",
        "tanggal_daftar": "2021-05-11",
        "nomor_tanda_daftar": "000654.09/DJAI.PSE/05/2021",
        "qr_code": "https://pse.kominfo.go.id/storage/images/qr_code/063bdc7ec89b66313328467d59143ccd.png",
        "status_id": "TERDAFTAR",
        "sistem_elektronik_id": 241
      }
    },
    {
      "type": "tdpseTerbit",
      "id": 909,
      "attributes": {
        "nomor_pb_umku": null,
        "nama": "DaihatsuKu",
        "website": "-",
        "sektor": "Sektor Perdagangan",
        "nama_perusahaan": "ASTRA INTERNATIONAL",
        "tanggal_daftar": "2021-05-11",
        "nomor_tanda_daftar": "000654.08/DJAI.PSE/05/2021",
        "qr_code": "https://pse.kominfo.go.id/storage/images/qr_code/ba01b645d3b0abb80245f0235f51dada.png",
        "status_id": "TERDAFTAR",
        "sistem_elektronik_id": 240
      }
    },
    {
      "type": "tdpseTerbit",
      "id": 908,
      "attributes": {
        "nomor_pb_umku": null,
        "nama": "Website Astra Daihatsu",
        "website": "https://www.astra-daihatsu.id/",
        "sektor": "Sektor Perdagangan",
        "nama_perusahaan": "ASTRA INTERNATIONAL",
        "tanggal_daftar": "2021-05-11",
        "nomor_tanda_daftar": "000654.07/DJAI.PSE/05/2021",
        "qr_code": "https://pse.kominfo.go.id/storage/images/qr_code/755f434e8b234f3a84a2da66efeb6d0e.png",
        "status_id": "TERDAFTAR",
        "sistem_elektronik_id": 239
      }
    },
    {
      "type": "tdpseTerbit",
      "id": 843,
      "attributes": {
        "nomor_pb_umku": null,
        "nama": "Website Astra Isuzu",
        "website": "https://astraisuzu.co.id/",
        "sektor": "Sektor Perdagangan",
        "nama_perusahaan": "ASTRA INTERNATIONAL",
        "tanggal_daftar": "2021-05-10",
        "nomor_tanda_daftar": "000654.06/DJAI.PSE/05/2021",
        "qr_code": "https://pse.kominfo.go.id/storage/images/qr_code/a37f67bffd2e3db6a07369f06109bd7f.png",
        "status_id": "TERDAFTAR",
        "sistem_elektronik_id": 238
      }
    },
    {
      "type": "tdpseTerbit",
      "id": 842,
      "attributes": {
        "nomor_pb_umku": null,
        "nama": "Website Astra Motor",
        "website": "https://www.astramotor.co.id/",
        "sektor": "Sektor Perdagangan",
        "nama_perusahaan": "ASTRA INTERNATIONAL",
        "tanggal_daftar": "2021-05-10",
        "nomor_tanda_daftar": "000654.05/DJAI.PSE/05/2021",
        "qr_code": "https://pse.kominfo.go.id/storage/images/qr_code/5f6a1044c73275d32e52d272bf7dc9f5.png",
        "status_id": "TERDAFTAR",
        "sistem_elektronik_id": 237
      }
    },
    {
      "type": "tdpseTerbit",
      "id": 841,
      "attributes": {
        "nomor_pb_umku": null,
        "nama": "Website AstraWorld",
        "website": "https://www.astraworld.com/",
        "sektor": "Sektor Perdagangan",
        "nama_perusahaan": "ASTRA INTERNATIONAL",
        "tanggal_daftar": "2021-05-10",
        "nomor_tanda_daftar": "000654.04/DJAI.PSE/05/2021",
        "qr_code": "https://pse.kominfo.go.id/storage/images/qr_code/b42238e962e0b53fe3ab5bdb055771f0.png",
        "status_id": "TERDAFTAR",
        "sistem_elektronik_id": 236
      }
    },
    {
      "type": "tdpseTerbit",
      "id": 840,
      "attributes": {
        "nomor_pb_umku": null,
        "nama": "Anavigo",
        "website": "-",
        "sektor": "Sektor Perdagangan",
        "nama_perusahaan": "ASTRA INTERNATIONAL",
        "tanggal_daftar": "2021-05-10",
        "nomor_tanda_daftar": "000654.03/DJAI.PSE/05/2021",
        "qr_code": "https://pse.kominfo.go.id/storage/images/qr_code/06b04377433fcdf6bde5269d00859132.png",
        "status_id": "TERDAFTAR",
        "sistem_elektronik_id": 235
      }
    },
    {
      "type": "tdpseTerbit",
      "id": 839,
      "attributes": {
        "nomor_pb_umku": null,
        "nama": "Auto2000 Digiroom",
        "website": "https://auto2000.co.id",
        "sektor": "Sektor Perdagangan",
        "nama_perusahaan": "ASTRA INTERNATIONAL",
        "tanggal_daftar": "2021-05-10",
        "nomor_tanda_daftar": "000654.02/DJAI.PSE/05/2021",
        "qr_code": "https://pse.kominfo.go.id/storage/images/qr_code/641cf4b46e220bd76ca0bd07027b8186.png",
        "status_id": "TERDAFTAR",
        "sistem_elektronik_id": 234
      }
    }
  ]
}