{
  "meta": {
    "page": {
      "currentPage": 882,
      "from": 8811,
      "lastPage": 970,
      "perPage": 10,
      "to": 8820,
      "total": 9692
    }
  },
  "data": [
    {
      "type": "tdpseTerbit",
      "id": 9140,
      "attributes": {
        "nomor_pb_umku": "912010427252300000001",
        "nama": "AYOOKLIK SIPLAH",
        "website": "siplah.ayooklik.id",
        "sektor": "Sektor Teknologi Informasi dan Komunikasi",
        "nama_perusahaan": "AIR MAS PERKASA",
        "tanggal_daftar": "2022-07-27",
        "nomor_tanda_daftar": "000428.02/DJAI.PSE/07/2022",
        "qr_code": "https://pse.kominfo.go.id/storage/images/qr_code/056e7bac7c4644aa7644f54b5abf3e2c.png",
        "status_id": "TERDAFTAR",
        "sistem_elektronik_id": 9049
      }
    },
    {
      "type": "tdpseTerbit",
      "id": 525,
      "attributes": {
        "nomor_pb_umku": null,
        "nama": "RAJA STORE",
        "website": "https://rajastore.id",
        "sektor": "Sektor Perdagangan, Sektor Teknologi Informasi dan Komunikasi",
        "nama_perusahaan": "AIR MAS PERKASA",
        "tanggal_daftar": "2021-04-21",
        "nomor_tanda_daftar": "000428.01/DJAI.PSE/04/2021",
        "qr_code": "https://pse.kominfo.go.id/storage/images/qr_code/ee6b9eb371f5573fc6f6b5c99d97a82d.png",
        "status_id": "TERDAFTAR",
        "sistem_elektronik_id": 3528
      }
    },
    {
      "type": "tdpseTerbit",
      "id": 4188,
      "attributes": {
        "nomor_pb_umku": "101121001708600020001",
        "nama": "SINERGI INDOMEDIA PERKASA",
        "website": "-",
        "sektor": "Sektor Teknologi Informasi dan Komunikasi",
        "nama_perusahaan": "SINERGI INDOMEDIA PERKASA",
        "tanggal_daftar": "2022-05-30",
        "nomor_tanda_daftar": "000427.01/DJAI.PSE/05/2022",
        "qr_code": "https://pse.kominfo.go.id/storage/images/qr_code/ebc8e9329bdcc136079a7e2b9b053406.png",
        "status_id": "TERDAFTAR",
        "sistem_elektronik_id": 4189
      }
    },
    {
      "type": "tdpseTerbit",
      "id": 524,
      "attributes": {
        "nomor_pb_umku": null,
        "nama": "CAIR LEKAS",
        "website": "http://www.cairlekas.com",
        "sektor": "Sektor Teknologi Informasi dan Komunikasi",
        "nama_perusahaan": "SIMPAN PINJAM CAIR LEKAS INDONESIA",
        "tanggal_daftar": "2021-04-21",
        "nomor_tanda_daftar": "000427.01/DJAI.PSE/04/2021",
        "qr_code": "https://pse.kominfo.go.id/storage/images/qr_code/d4ad31ef750bbcd3b08f14ac5b904396.png",
        "status_id": "TERDAFTAR",
        "sistem_elektronik_id": 358
      }
    },
    {
      "type": "tdpseTerbit",
      "id": 522,
      "attributes": {
        "nomor_pb_umku": null,
        "nama": "Portal Verifikasi Verihubs",
        "website": "https://verihubs.com/",
        "sektor": "Sektor Perdagangan, Sektor Teknologi Informasi dan Komunikasi",
        "nama_perusahaan": "VERIHUBS INTELIGENSIA NUSANTARA",
        "tanggal_daftar": "2021-04-20",
        "nomor_tanda_daftar": "000425.01/DJAI.PSE/04/2021",
        "qr_code": "https://pse.kominfo.go.id/storage/images/qr_code/a84ebf0eada9b5d943c0e3e1d04d4e4d.png",
        "status_id": "TERDAFTAR",
        "sistem_elektronik_id": 3527
      }
    },
    {
      "type": "tdpseTerbit",
      "id": 4166,
      "attributes": {
        "nomor_pb_umku": "122100071380900000001",
        "nama": "HOUMI",
        "website": "houmi.co.id",
        "sektor": "Sektor Perdagangan, Sektor Teknologi Informasi dan Komunikasi",
        "nama_perusahaan": "HOUMI DIGITAL PROPERTINDO",
        "tanggal_daftar": "2022-05-29",
        "nomor_tanda_daftar": "000424.01/DJAI.PSE/05/2022",
        "qr_code": "https://pse.kominfo.go.id/storage/images/qr_code/5631af55223ff55e30e25d65ae6ec8a6.png",
        "status_id": "TERDAFTAR",
        "sistem_elektronik_id": 4172
      }
    },
    {
      "type": "tdpseTerbit",
      "id": 521,
      "attributes": {
        "nomor_pb_umku": null,
        "nama": "Orbitin Bisnis",
        "website": "https://orbitinbisnis.com",
        "sektor": "Sektor Perdagangan, Sektor Teknologi Informasi dan Komunikasi",
        "nama_perusahaan": "ORBITIN BISNIS INDONESIA",
        "tanggal_daftar": "2021-04-20",
        "nomor_tanda_daftar": "000424.01/DJAI.PSE/04/2021",
        "qr_code": "https://pse.kominfo.go.id/storage/images/qr_code/874e73b8c49b913c92174a4b340690e8.png",
        "status_id": "TERDAFTAR",
        "sistem_elektronik_id": 277
      }
    },
    {
      "type": "tdpseTerbit",
      "id": 520,
      "attributes": {
        "nomor_pb_umku": null,
        "nama": "BInar",
        "website": "http://www.kspbinar.co.id/",
        "sektor": "Sektor Keuangan",
        "nama_perusahaan": "SIMPAN PINJAM BINA ANUGERAH PRIMA",
        "tanggal_daftar": "2021-04-20",
        "nomor_tanda_daftar": "000423.01/DJAI.PSE/04/2021",
        "qr_code": "https://pse.kominfo.go.id/storage/images/qr_code/49c667339e6832439a5194b9b0554a5d.png",
        "status_id": "TERDAFTAR",
        "sistem_elektronik_id": 4051
      }
    },
    {
      "type": "tdpseTerbit",
      "id": 2914,
      "attributes": {
        "nomor_pb_umku": null,
        "nama": "InterActive QRIS",
        "website": "interactiveholic.net",
        "sektor": "Sektor Teknologi Informasi dan Komunikasi",
        "nama_perusahaan": "INTERAKTIF INTERNASIONAL",
        "tanggal_daftar": "2021-12-29",
        "nomor_tanda_daftar": "000422.07/DJAI.PSE/12/2021",
        "qr_code": "https://pse.kominfo.go.id/storage/images/qr_code/b4b1f706533f39480616803c9713f6ff.png",
        "status_id": "TERDAFTAR",
        "sistem_elektronik_id": 2721
      }
    },
    {
      "type": "tdpseTerbit",
      "id": 2913,
      "attributes": {
        "nomor_pb_umku": null,
        "nama": "InterActive Attendance Cloud Terminologi",
        "website": "interactiveholic.net",
        "sektor": "Sektor Teknologi Informasi dan Komunikasi",
        "nama_perusahaan": "INTERAKTIF INTERNASIONAL",
        "tanggal_daftar": "2021-12-29",
        "nomor_tanda_daftar": "000422.06/DJAI.PSE/12/2021",
        "qr_code": "https://pse.kominfo.go.id/storage/images/qr_code/83c0c480941e79192a759d9eb2323106.png",
        "status_id": "TERDAFTAR",
        "sistem_elektronik_id": 2720
      }
    }
  ]
}