{
  "meta": {
    "page": {
      "currentPage": 883,
      "from": 8821,
      "lastPage": 945,
      "perPage": 10,
      "to": 8830,
      "total": 9449
    }
  },
  "data": [
    {
      "type": "tdpseTerbit",
      "id": 4317,
      "attributes": {
        "nomor_pb_umku": "812031112185100020001",
        "nama": "ANNORA JAYA ABADI",
        "website": "indonesiavisaservice.com",
        "sektor": "Sektor Perdagangan",
        "nama_perusahaan": "ANNORA JAYA ABADI",
        "tanggal_daftar": "2022-06-10",
        "nomor_tanda_daftar": "000324.01/DJAI.PSE/06/2022",
        "qr_code": "https://pse.kominfo.go.id/storage/images/qr_code/0d4306a2c8b0ca68d8998e5f531a3e1a.png",
        "status_id": "TERDAFTAR",
        "sistem_elektronik_id": 4310
      }
    },
    {
      "type": "tdpseTerbit",
      "id": 397,
      "attributes": {
        "nomor_pb_umku": null,
        "nama": "LAKULOKA",
        "website": "lakuloka.id",
        "sektor": "Sektor Keuangan, Sektor Perdagangan, Sektor Teknologi Informasi dan Komunikasi",
        "nama_perusahaan": "LAKULOKA DIGITAL INDONESIA",
        "tanggal_daftar": "2021-03-16",
        "nomor_tanda_daftar": "000324.01/DJAI.PSE/03/2021",
        "qr_code": "https://pse.kominfo.go.id/storage/images/qr_code/ae457685ef3b3dc55cacdec6d1529314.png",
        "status_id": "TERDAFTAR",
        "sistem_elektronik_id": 195
      }
    },
    {
      "type": "tdpseTerbit",
      "id": 2477,
      "attributes": {
        "nomor_pb_umku": null,
        "nama": "Intismac Intschool Academy System - IIAS",
        "website": "https://mobile.intismac.com",
        "sektor": "Sektor Teknologi Informasi dan Komunikasi",
        "nama_perusahaan": "TITO PRABOWO",
        "tanggal_daftar": "2021-11-29",
        "nomor_tanda_daftar": "000323.02/DJAI.PSE/11/2021",
        "qr_code": "https://pse.kominfo.go.id/storage/images/qr_code/46db558124696fc56256013743ca2984.png",
        "status_id": "TERDAFTAR",
        "sistem_elektronik_id": 193
      }
    },
    {
      "type": "tdpseTerbit",
      "id": 396,
      "attributes": {
        "nomor_pb_umku": null,
        "nama": "Intismac Intschool (IIAS 2.0)",
        "website": "https://mobile.intismac.com",
        "sektor": "Sektor Teknologi Informasi dan Komunikasi",
        "nama_perusahaan": "TITO PRABOWO",
        "tanggal_daftar": "2021-03-15",
        "nomor_tanda_daftar": "000323.01/DJAI.PSE/03/2021",
        "qr_code": "https://pse.kominfo.go.id/storage/images/qr_code/525a1e0c44b9d742010795beeeb2a8e5.png",
        "status_id": "TERDAFTAR",
        "sistem_elektronik_id": 192
      }
    },
    {
      "type": "tdpseTerbit",
      "id": 395,
      "attributes": {
        "nomor_pb_umku": null,
        "nama": "Vestora",
        "website": "https://vestora.id",
        "sektor": "Sektor Keuangan, Sektor Teknologi Informasi dan Komunikasi",
        "nama_perusahaan": "HALALVESTOR GLOBAL ASIA",
        "tanggal_daftar": "2021-03-15",
        "nomor_tanda_daftar": "000322.01/DJAI.PSE/03/2021",
        "qr_code": "https://pse.kominfo.go.id/storage/images/qr_code/a30fcc45e7fbb610e90c3e84f9b2851d.png",
        "status_id": "TERDAFTAR",
        "sistem_elektronik_id": 155
      }
    },
    {
      "type": "tdpseTerbit",
      "id": 394,
      "attributes": {
        "nomor_pb_umku": null,
        "nama": "Heytimmy",
        "website": "www.heytimmy.co.id",
        "sektor": "Sektor Perdagangan",
        "nama_perusahaan": "HEYBOY FASHION",
        "tanggal_daftar": "2021-03-15",
        "nomor_tanda_daftar": "000321.01/DJAI.PSE/03/2021",
        "qr_code": "https://pse.kominfo.go.id/storage/images/qr_code/c2a8887eefaa04b4f08f646d146bdb86.png",
        "status_id": "TERDAFTAR",
        "sistem_elektronik_id": 194
      }
    },
    {
      "type": "tdpseTerbit",
      "id": 4311,
      "attributes": {
        "nomor_pb_umku": "027701101272700010001",
        "nama": "SIMASBID",
        "website": "balailelangsimas.id",
        "sektor": "Sektor Perdagangan",
        "nama_perusahaan": "BALAI LELANG SINARMAS",
        "tanggal_daftar": "2022-06-09",
        "nomor_tanda_daftar": "000320.01/DJAI.PSE/06/2022",
        "qr_code": "https://pse.kominfo.go.id/storage/images/qr_code/8eb3d5f68bd3848f4b18980dfd6d20a7.png",
        "status_id": "TERDAFTAR",
        "sistem_elektronik_id": 4304
      }
    },
    {
      "type": "tdpseTerbit",
      "id": 393,
      "attributes": {
        "nomor_pb_umku": null,
        "nama": "TUNAI KODAK",
        "website": "http://www.tunaikodak.com",
        "sektor": "Sektor Teknologi Informasi dan Komunikasi",
        "nama_perusahaan": "SIMPAN PINJAM AIR EMAS INDONESIA",
        "tanggal_daftar": "2021-03-15",
        "nomor_tanda_daftar": "000320.01/DJAI.PSE/03/2021",
        "qr_code": "https://pse.kominfo.go.id/storage/images/qr_code/c68a182d5a90ac4277eaa843118fe13b.png",
        "status_id": "TERDAFTAR",
        "sistem_elektronik_id": 191
      }
    },
    {
      "type": "tdpseTerbit",
      "id": 4306,
      "attributes": {
        "nomor_pb_umku": "022000338138700000001",
        "nama": "KASKU",
        "website": "kasku.id",
        "sektor": "Sektor Keuangan, Sektor Teknologi Informasi dan Komunikasi",
        "nama_perusahaan": "SOMA KARYA GEMILANG",
        "tanggal_daftar": "2022-06-09",
        "nomor_tanda_daftar": "000319.01/DJAI.PSE/06/2022",
        "qr_code": "https://pse.kominfo.go.id/storage/images/qr_code/14e0b86733338ec5bbeb649ea1ee3340.png",
        "status_id": "TERDAFTAR",
        "sistem_elektronik_id": 4299
      }
    },
    {
      "type": "tdpseTerbit",
      "id": 392,
      "attributes": {
        "nomor_pb_umku": null,
        "nama": "Buka Investasi Bersama",
        "website": "www.bukainvestasi.com",
        "sektor": "Sektor Teknologi Informasi dan Komunikasi",
        "nama_perusahaan": "BUKA INVESTASI BERSAMA",
        "tanggal_daftar": "2021-03-15",
        "nomor_tanda_daftar": "000319.01/DJAI.PSE/03/2021",
        "qr_code": "https://pse.kominfo.go.id/storage/images/qr_code/b02999df9451aa883ef6eca118fa5f0e.png",
        "status_id": "TERDAFTAR",
        "sistem_elektronik_id": 184
      }
    }
  ]
}