{
  "meta": {
    "page": {
      "currentPage": 884,
      "from": 8831,
      "lastPage": 899,
      "perPage": 10,
      "to": 8840,
      "total": 8983
    }
  },
  "data": [
    {
      "type": "tdpseTerbit",
      "id": 103,
      "attributes": {
        "nomor_pb_umku": null,
        "nama": "MYKAS",
        "website": "https://www.mykas.co.id",
        "sektor": "Sektor Teknologi Informasi dan Komunikasi",
        "nama_perusahaan": "SOLUSI INFORMASI DIGITAL UTAMA",
        "tanggal_daftar": "2021-02-23",
        "nomor_tanda_daftar": "000093.01/DJAI.PSE/02/2021",
        "qr_code": "https://pse.kominfo.go.id/storage/images/qr_code/9b326a5607312f7377b425e65412efde.png",
        "status_id": "TERDAFTAR",
        "sistem_elektronik_id": 2514
      }
    },
    {
      "type": "tdpseTerbit",
      "id": 102,
      "attributes": {
        "nomor_pb_umku": null,
        "nama": "RNA Registrar Sistem",
        "website": "rna.id",
        "sektor": "Sektor Teknologi Informasi dan Komunikasi",
        "nama_perusahaan": "REGISTRASI NEVA ANGKASA",
        "tanggal_daftar": "2021-02-23",
        "nomor_tanda_daftar": "000092.01/DJAI.PSE/02/2021",
        "qr_code": "https://pse.kominfo.go.id/storage/images/qr_code/0449753835aca83e6d03368365a60667.png",
        "status_id": "TERDAFTAR",
        "sistem_elektronik_id": 2537
      }
    },
    {
      "type": "tdpseTerbit",
      "id": 163,
      "attributes": {
        "nomor_pb_umku": null,
        "nama": "DOMPETKU",
        "website": "-",
        "sektor": "Sektor Keuangan",
        "nama_perusahaan": "SIMPAN PINJAM BINA MAJU BESAR",
        "tanggal_daftar": "2021-02-24",
        "nomor_tanda_daftar": "000091.02/DJAI.PSE/02/2021",
        "qr_code": "https://pse.kominfo.go.id/storage/images/qr_code/7520ce417770c46b9d0581760f057e9f.png",
        "status_id": "TERDAFTAR",
        "sistem_elektronik_id": 2539
      }
    },
    {
      "type": "tdpseTerbit",
      "id": 101,
      "attributes": {
        "nomor_pb_umku": null,
        "nama": "DOMPETKU",
        "website": "-",
        "sektor": "Sektor Keuangan",
        "nama_perusahaan": "SIMPAN PINJAM BINA MAJU BESAR",
        "tanggal_daftar": "2021-02-23",
        "nomor_tanda_daftar": "000091.01/DJAI.PSE/02/2021",
        "qr_code": "https://pse.kominfo.go.id/storage/images/qr_code/ae77b7985706548344e497a6c19f2e93.png",
        "status_id": "TERDAFTAR",
        "sistem_elektronik_id": 2538
      }
    },
    {
      "type": "tdpseTerbit",
      "id": 100,
      "attributes": {
        "nomor_pb_umku": null,
        "nama": "DANA PLUS",
        "website": "-",
        "sektor": "Sektor Keuangan",
        "nama_perusahaan": "SIMPAN PINJAM DANA SINAR DUNIA",
        "tanggal_daftar": "2021-02-23",
        "nomor_tanda_daftar": "000090.01/DJAI.PSE/02/2021",
        "qr_code": "https://pse.kominfo.go.id/storage/images/qr_code/7a975e114a88087238db0154607b62b1.png",
        "status_id": "TERDAFTAR",
        "sistem_elektronik_id": 2536
      }
    },
    {
      "type": "tdpseTerbit",
      "id": 99,
      "attributes": {
        "nomor_pb_umku": null,
        "nama": "DANA RIBU",
        "website": "-",
        "sektor": "Sektor Keuangan",
        "nama_perusahaan": "SIMPAN PINJAM DANA BINTANG LIMA",
        "tanggal_daftar": "2021-02-23",
        "nomor_tanda_daftar": "000089.01/DJAI.PSE/02/2021",
        "qr_code": "https://pse.kominfo.go.id/storage/images/qr_code/0d92aecf2471578e353d23895f0beaa6.png",
        "status_id": "TERDAFTAR",
        "sistem_elektronik_id": 2535
      }
    },
    {
      "type": "tdpseTerbit",
      "id": 98,
      "attributes": {
        "nomor_pb_umku": null,
        "nama": "Bdrive",
        "website": "http://bdrive.id",
        "sektor": "Sektor Perdagangan, Sektor Transportasi",
        "nama_perusahaan": "MADEEL TEKHNOLOGI INDONESIA",
        "tanggal_daftar": "2021-02-23",
        "nomor_tanda_daftar": "000088.01/DJAI.PSE/02/2021",
        "qr_code": "https://pse.kominfo.go.id/storage/images/qr_code/487d4f66ab3cf93a8d56a2e9f94f4ba9.png",
        "status_id": "TERDAFTAR",
        "sistem_elektronik_id": 2454
      }
    },
    {
      "type": "tdpseTerbit",
      "id": 97,
      "attributes": {
        "nomor_pb_umku": null,
        "nama": "MONEY COME",
        "website": "-",
        "sektor": "Sektor Keuangan",
        "nama_perusahaan": "SIMPAN PINJAM LANSIR TARO NUSA",
        "tanggal_daftar": "2021-02-23",
        "nomor_tanda_daftar": "000087.01/DJAI.PSE/02/2021",
        "qr_code": "https://pse.kominfo.go.id/storage/images/qr_code/19448a25774f426c619758153dc90d31.png",
        "status_id": "TERDAFTAR",
        "sistem_elektronik_id": 2530
      }
    },
    {
      "type": "tdpseTerbit",
      "id": 96,
      "attributes": {
        "nomor_pb_umku": null,
        "nama": "SETOR TUNAI",
        "website": "-",
        "sektor": "Sektor Keuangan",
        "nama_perusahaan": "SIMPAN PINJAM MARDA RIMA ESA",
        "tanggal_daftar": "2021-02-23",
        "nomor_tanda_daftar": "000086.01/DJAI.PSE/02/2021",
        "qr_code": "https://pse.kominfo.go.id/storage/images/qr_code/2a20982d9a11e039e2f3bb6484d87309.png",
        "status_id": "TERDAFTAR",
        "sistem_elektronik_id": 2529
      }
    },
    {
      "type": "tdpseTerbit",
      "id": 95,
      "attributes": {
        "nomor_pb_umku": null,
        "nama": "Aplikasi KamiSatu",
        "website": "https://kamisatu.id/",
        "sektor": "Sektor Perdagangan, Sektor Teknologi Informasi dan Komunikasi, Sektor Transportasi",
        "nama_perusahaan": "KAMI SATU KARYA",
        "tanggal_daftar": "2021-02-23",
        "nomor_tanda_daftar": "000085.01/DJAI.PSE/02/2021",
        "qr_code": "https://pse.kominfo.go.id/storage/images/qr_code/2f47eafe8f9bd93363d0cbee891a9876.png",
        "status_id": "TERDAFTAR",
        "sistem_elektronik_id": 2526
      }
    }
  ]
}