{
  "meta": {
    "page": {
      "currentPage": 885,
      "from": 8841,
      "lastPage": 908,
      "perPage": 10,
      "to": 8850,
      "total": 9074
    }
  },
  "data": [
    {
      "type": "tdpseTerbit",
      "id": 155,
      "attributes": {
        "nomor_pb_umku": null,
        "nama": "BBXFintech.co.id",
        "website": "www.bbxfintech.co.id",
        "sektor": "Sektor Keuangan, Sektor Teknologi Informasi dan Komunikasi",
        "nama_perusahaan": "BBX DIGITAL TEKNOLOGI",
        "tanggal_daftar": "2021-02-24",
        "nomor_tanda_daftar": "000137.01/DJAI.PSE/02/2021",
        "qr_code": "https://pse.kominfo.go.id/storage/images/qr_code/3122786e65540bdd70f312533278222a.png",
        "status_id": "TERDAFTAR",
        "sistem_elektronik_id": 2573
      }
    },
    {
      "type": "tdpseTerbit",
      "id": 154,
      "attributes": {
        "nomor_pb_umku": null,
        "nama": "SISTEM JARINGAN MULTILEVEL MARKETING",
        "website": "https://kiens.co.id/",
        "sektor": "Sektor Perdagangan, Sektor Teknologi Informasi dan Komunikasi",
        "nama_perusahaan": "KIENS KAPUPON INTERNASIONAL",
        "tanggal_daftar": "2021-02-24",
        "nomor_tanda_daftar": "000136.01/DJAI.PSE/02/2021",
        "qr_code": "https://pse.kominfo.go.id/storage/images/qr_code/f1ed69a112a37dac4cdd35313dd46882.png",
        "status_id": "TERDAFTAR",
        "sistem_elektronik_id": 2590
      }
    },
    {
      "type": "tdpseTerbit",
      "id": 153,
      "attributes": {
        "nomor_pb_umku": null,
        "nama": "aquity",
        "website": "-",
        "sektor": "Sektor Teknologi Informasi dan Komunikasi",
        "nama_perusahaan": "DANA ASET NUSANTARA ANDALAN",
        "tanggal_daftar": "2021-02-24",
        "nomor_tanda_daftar": "000135.01/DJAI.PSE/02/2021",
        "qr_code": "https://pse.kominfo.go.id/storage/images/qr_code/80cdc62107e47e99c4e7a8de77d2f494.png",
        "status_id": "TERDAFTAR",
        "sistem_elektronik_id": 2412
      }
    },
    {
      "type": "tdpseTerbit",
      "id": 152,
      "attributes": {
        "nomor_pb_umku": null,
        "nama": "AIRUDDER AI ROBOT",
        "website": "https://calling.airudder.com/",
        "sektor": "Sektor Teknologi Informasi dan Komunikasi",
        "nama_perusahaan": "AIRUDDER INFORMATION TECHNOLOGY",
        "tanggal_daftar": "2021-02-24",
        "nomor_tanda_daftar": "000134.01/DJAI.PSE/02/2021",
        "qr_code": "https://pse.kominfo.go.id/storage/images/qr_code/38d268215c0fdaf5ada1d80722c962e0.png",
        "status_id": "TERDAFTAR",
        "sistem_elektronik_id": 2577
      }
    },
    {
      "type": "tdpseTerbit",
      "id": 151,
      "attributes": {
        "nomor_pb_umku": null,
        "nama": "PRODANA",
        "website": "https://prodana.id/",
        "sektor": "Sektor Keuangan",
        "nama_perusahaan": "PROTEMUS DANA BERSAMA",
        "tanggal_daftar": "2021-02-24",
        "nomor_tanda_daftar": "000133.01/DJAI.PSE/02/2021",
        "qr_code": "https://pse.kominfo.go.id/storage/images/qr_code/fe9467cfb9eda633da3c4afb60eb51d6.png",
        "status_id": "TERDAFTAR",
        "sistem_elektronik_id": 2616
      }
    },
    {
      "type": "tdpseTerbit",
      "id": 6434,
      "attributes": {
        "nomor_pb_umku": "812021927148600010009",
        "nama": "DEASY",
        "website": "kreditplus.com",
        "sektor": "Sektor Keuangan, Sektor Teknologi Informasi dan Komunikasi",
        "nama_perusahaan": "KB FINANSIA MULTI FINANCE",
        "tanggal_daftar": "2022-07-18",
        "nomor_tanda_daftar": "000132.12/DJAI.PSE/07/2022",
        "qr_code": "https://pse.kominfo.go.id/storage/images/qr_code/25f9931d4d61caca84284c6ff6784257.png",
        "status_id": "TERDAFTAR",
        "sistem_elektronik_id": 6305
      }
    },
    {
      "type": "tdpseTerbit",
      "id": 6419,
      "attributes": {
        "nomor_pb_umku": "812021927148600010008",
        "nama": "SALLY",
        "website": "kreditplus.com",
        "sektor": "Sektor Keuangan, Sektor Teknologi Informasi dan Komunikasi",
        "nama_perusahaan": "KB FINANSIA MULTI FINANCE",
        "tanggal_daftar": "2022-07-18",
        "nomor_tanda_daftar": "000132.11/DJAI.PSE/07/2022",
        "qr_code": "https://pse.kominfo.go.id/storage/images/qr_code/29a6496da9349be730666a144e33561f.png",
        "status_id": "TERDAFTAR",
        "sistem_elektronik_id": 6289
      }
    },
    {
      "type": "tdpseTerbit",
      "id": 6409,
      "attributes": {
        "nomor_pb_umku": "812021927148600010007",
        "nama": "KPHUB",
        "website": "Kreditplus.com",
        "sektor": "Sektor Keuangan, Sektor Teknologi Informasi dan Komunikasi",
        "nama_perusahaan": "KB FINANSIA MULTI FINANCE",
        "tanggal_daftar": "2022-07-18",
        "nomor_tanda_daftar": "000132.10/DJAI.PSE/07/2022",
        "qr_code": "https://pse.kominfo.go.id/storage/images/qr_code/f41d1d440c45e8cf071a105362289941.png",
        "status_id": "TERDAFTAR",
        "sistem_elektronik_id": 6272
      }
    },
    {
      "type": "tdpseTerbit",
      "id": 6362,
      "attributes": {
        "nomor_pb_umku": "812021927148600010006",
        "nama": "COLLECTION HUB",
        "website": "Kreditplus.com",
        "sektor": "Sektor Keuangan, Sektor Teknologi Informasi dan Komunikasi",
        "nama_perusahaan": "KB FINANSIA MULTI FINANCE",
        "tanggal_daftar": "2022-07-18",
        "nomor_tanda_daftar": "000132.09/DJAI.PSE/07/2022",
        "qr_code": "https://pse.kominfo.go.id/storage/images/qr_code/5933bbb3807f48f47eec982cf57d0379.png",
        "status_id": "TERDAFTAR",
        "sistem_elektronik_id": 6213
      }
    },
    {
      "type": "tdpseTerbit",
      "id": 5829,
      "attributes": {
        "nomor_pb_umku": "812021927148600010005",
        "nama": "EFORM KMB",
        "website": "eformcms.kreditplus.id",
        "sektor": "Sektor Keuangan, Sektor Teknologi Informasi dan Komunikasi",
        "nama_perusahaan": "KB FINANSIA MULTI FINANCE",
        "tanggal_daftar": "2022-07-15",
        "nomor_tanda_daftar": "000132.08/DJAI.PSE/07/2022",
        "qr_code": "https://pse.kominfo.go.id/storage/images/qr_code/78ce9a7ead81d94d84ff9a7b2b1f36be.png",
        "status_id": "TERDAFTAR",
        "sistem_elektronik_id": 5688
      }
    }
  ]
}