{
  "meta": {
    "page": {
      "currentPage": 886,
      "from": 8851,
      "lastPage": 937,
      "perPage": 10,
      "to": 8860,
      "total": 9366
    }
  },
  "data": [
    {
      "type": "tdpseTerbit",
      "id": 4580,
      "attributes": {
        "nomor_pb_umku": "310522005608900000001",
        "nama": "BANG JAMIN",
        "website": "-",
        "sektor": "Sektor Perdagangan",
        "nama_perusahaan": "ARKANA ADVANCE TECHNOLOGY",
        "tanggal_daftar": "2022-06-17",
        "nomor_tanda_daftar": "000282.01/DJAI.PSE/06/2022",
        "qr_code": "https://pse.kominfo.go.id/storage/images/qr_code/0fe66f0c00fcdce1139137dd09243ca4.png",
        "status_id": "TERDAFTAR",
        "sistem_elektronik_id": 4543
      }
    },
    {
      "type": "tdpseTerbit",
      "id": 4268,
      "attributes": {
        "nomor_pb_umku": "812011416095600000001",
        "nama": "HAKUHODO INDONESIA",
        "website": "hakuhodo.id",
        "sektor": "Sektor Perdagangan",
        "nama_perusahaan": "HAKUHODO INDONESIA",
        "tanggal_daftar": "2022-06-07",
        "nomor_tanda_daftar": "000282.01/DJAI.PSE/06/2022",
        "qr_code": "https://pse.kominfo.go.id/storage/images/qr_code/c9a1144b2dba71dea7a96159fa5084ae.png",
        "status_id": "TERDAFTAR",
        "sistem_elektronik_id": 4265
      }
    },
    {
      "type": "tdpseTerbit",
      "id": 337,
      "attributes": {
        "nomor_pb_umku": null,
        "nama": "eBuy",
        "website": "www.ebuy.com",
        "sektor": "Sektor Perdagangan",
        "nama_perusahaan": "ETOP GLOBAL TECHNOLOGY",
        "tanggal_daftar": "2021-03-08",
        "nomor_tanda_daftar": "000282.01/DJAI.PSE/03/2021",
        "qr_code": "https://pse.kominfo.go.id/storage/images/qr_code/f230a5634a0503ed45f4e790bd2642fb.png",
        "status_id": "TERDAFTAR",
        "sistem_elektronik_id": 2792
      }
    },
    {
      "type": "tdpseTerbit",
      "id": 4514,
      "attributes": {
        "nomor_pb_umku": "128800060143100000001",
        "nama": "ALESHAPUTRISHOP",
        "website": "-",
        "sektor": "Sektor Perdagangan",
        "nama_perusahaan": "EMA NUR LUTHFIYANI",
        "tanggal_daftar": "2022-06-15",
        "nomor_tanda_daftar": "000281.01/DJAI.PSE/06/2022",
        "qr_code": "https://pse.kominfo.go.id/storage/images/qr_code/902baf8212b9e2fff653f6d191b346cb.png",
        "status_id": "TERDAFTAR",
        "sistem_elektronik_id": 4497
      }
    },
    {
      "type": "tdpseTerbit",
      "id": 4267,
      "attributes": {
        "nomor_pb_umku": "250422004502300000001",
        "nama": "ERADIGITALCEMERLANG.COM",
        "website": "eradigitalcemerlang.com",
        "sektor": "Sektor Perdagangan",
        "nama_perusahaan": "ERA DIGITAL CEMERLANG",
        "tanggal_daftar": "2022-06-07",
        "nomor_tanda_daftar": "000281.01/DJAI.PSE/06/2022",
        "qr_code": "https://pse.kominfo.go.id/storage/images/qr_code/4b077b9b37ceba105b2c1a17595e0b22.png",
        "status_id": "TERDAFTAR",
        "sistem_elektronik_id": 4267
      }
    },
    {
      "type": "tdpseTerbit",
      "id": 336,
      "attributes": {
        "nomor_pb_umku": null,
        "nama": "Popaket",
        "website": "https://www.popaket.com/",
        "sektor": "Sektor Perdagangan, Sektor Teknologi Informasi dan Komunikasi, Sektor Transportasi",
        "nama_perusahaan": "TRADARU DIGITAL NIAGA",
        "tanggal_daftar": "2021-03-05",
        "nomor_tanda_daftar": "000281.01/DJAI.PSE/03/2021",
        "qr_code": "https://pse.kominfo.go.id/storage/images/qr_code/d00924acf5a58560ed778f20ac0d24b6.png",
        "status_id": "TERDAFTAR",
        "sistem_elektronik_id": 115
      }
    },
    {
      "type": "tdpseTerbit",
      "id": 2158,
      "attributes": {
        "nomor_pb_umku": null,
        "nama": "SMARTX Expert Analyzer Software for Trading",
        "website": "ptsmi.id",
        "sektor": "Sektor Teknologi Informasi dan Komunikasi",
        "nama_perusahaan": "SIMBIOTIK MULTITALENTA INDONESIA",
        "tanggal_daftar": "2021-10-26",
        "nomor_tanda_daftar": "000280.03/DJAI.PSE/10/2021",
        "qr_code": "https://pse.kominfo.go.id/storage/images/qr_code/71822b9bd0dde7a11c4096aa663cbc38.png",
        "status_id": "TERDAFTAR",
        "sistem_elektronik_id": 109
      }
    },
    {
      "type": "tdpseTerbit",
      "id": 334,
      "attributes": {
        "nomor_pb_umku": null,
        "nama": "NET89 EA Creator",
        "website": "ptsmi.id",
        "sektor": "Sektor Perdagangan",
        "nama_perusahaan": "SIMBIOTIK MULTITALENTA INDONESIA",
        "tanggal_daftar": "2021-03-05",
        "nomor_tanda_daftar": "000280.02/DJAI.PSE/03/2021",
        "qr_code": "https://pse.kominfo.go.id/storage/images/qr_code/b190a5303cf8c09829bf5d0d691af68b.png",
        "status_id": "TERDAFTAR",
        "sistem_elektronik_id": 108
      }
    },
    {
      "type": "tdpseTerbit",
      "id": 4520,
      "attributes": {
        "nomor_pb_umku": "812011904198500040043",
        "nama": "GPS TRACKER",
        "website": "menngroup.id",
        "sektor": "Sektor Transportasi, Sektor Teknologi Informasi dan Komunikasi",
        "nama_perusahaan": "MENN TEKNOLOGI INDONESIA",
        "tanggal_daftar": "2022-06-15",
        "nomor_tanda_daftar": "000280.01/DJAI.PSE/06/2022",
        "qr_code": "https://pse.kominfo.go.id/storage/images/qr_code/9e813ef265bcaec42d87e76564d8405e.png",
        "status_id": "TERDAFTAR",
        "sistem_elektronik_id": 4503
      }
    },
    {
      "type": "tdpseTerbit",
      "id": 332,
      "attributes": {
        "nomor_pb_umku": null,
        "nama": "EBook net89",
        "website": "https://net89.pro",
        "sektor": "Sektor Teknologi Informasi dan Komunikasi",
        "nama_perusahaan": "SIMBIOTIK MULTITALENTA INDONESIA",
        "tanggal_daftar": "2021-03-05",
        "nomor_tanda_daftar": "000280.01/DJAI.PSE/03/2021",
        "qr_code": "https://pse.kominfo.go.id/storage/images/qr_code/00952780d8cfee2e5fbf96e2288b8968.png",
        "status_id": "TERDAFTAR",
        "sistem_elektronik_id": 107
      }
    }
  ]
}