{
  "meta": {
    "page": {
      "currentPage": 887,
      "from": 8861,
      "lastPage": 1063,
      "perPage": 10,
      "to": 8870,
      "total": 10630
    }
  },
  "data": [
    {
      "type": "tdpseTerbit",
      "id": 7707,
      "attributes": {
        "nomor_pb_umku": "912010214198600160018",
        "nama": "BSIMOBILE",
        "website": "bsmmobilethree.bsm.co.id",
        "sektor": "Sektor Keuangan",
        "nama_perusahaan": "BANK SYARIAH INDONESIA",
        "tanggal_daftar": "2022-07-20",
        "nomor_tanda_daftar": "000863.32/DJAI.PSE/07/2022",
        "qr_code": "https://pse.kominfo.go.id/storage/images/qr_code/6a9c41efd3a2570a06e832b5a0d7c9cf.png",
        "status_id": "TERDAFTAR",
        "sistem_elektronik_id": 7620
      }
    },
    {
      "type": "tdpseTerbit",
      "id": 7653,
      "attributes": {
        "nomor_pb_umku": "912010214198600160017",
        "nama": "SABI",
        "website": "sabihasanahku.bankbsi.co.id",
        "sektor": "Sektor Keuangan",
        "nama_perusahaan": "BANK SYARIAH INDONESIA",
        "tanggal_daftar": "2022-07-20",
        "nomor_tanda_daftar": "000863.31/DJAI.PSE/07/2022",
        "qr_code": "https://pse.kominfo.go.id/storage/images/qr_code/5ddb518524e90214983b4f79994a2734.png",
        "status_id": "TERDAFTAR",
        "sistem_elektronik_id": 7550
      }
    },
    {
      "type": "tdpseTerbit",
      "id": 7614,
      "attributes": {
        "nomor_pb_umku": "912010214198600160016",
        "nama": "BG ONLINE",
        "website": "garansibsi.bankbsi.co.id",
        "sektor": "Sektor Keuangan",
        "nama_perusahaan": "BANK SYARIAH INDONESIA",
        "tanggal_daftar": "2022-07-20",
        "nomor_tanda_daftar": "000863.30/DJAI.PSE/07/2022",
        "qr_code": "https://pse.kominfo.go.id/storage/images/qr_code/bd7fdc64ff9ac49ca31ab82453e5322a.png",
        "status_id": "TERDAFTAR",
        "sistem_elektronik_id": 7507
      }
    },
    {
      "type": "tdpseTerbit",
      "id": 7572,
      "attributes": {
        "nomor_pb_umku": "912010214198600160015",
        "nama": "WEB EMAIL BANK BSI",
        "website": "email.bankbsi.co.id",
        "sektor": "Sektor Keuangan",
        "nama_perusahaan": "BANK SYARIAH INDONESIA",
        "tanggal_daftar": "2022-07-20",
        "nomor_tanda_daftar": "000863.29/DJAI.PSE/07/2022",
        "qr_code": "https://pse.kominfo.go.id/storage/images/qr_code/856f608feae22d02da8f7888ae2b04bf.png",
        "status_id": "TERDAFTAR",
        "sistem_elektronik_id": 7465
      }
    },
    {
      "type": "tdpseTerbit",
      "id": 7546,
      "attributes": {
        "nomor_pb_umku": "912010214198600160014",
        "nama": "CONTRIBUTION MARGIN (CM)",
        "website": "cm.bankbsi.co.id",
        "sektor": "Sektor Keuangan",
        "nama_perusahaan": "BANK SYARIAH INDONESIA",
        "tanggal_daftar": "2022-07-20",
        "nomor_tanda_daftar": "000863.28/DJAI.PSE/07/2022",
        "qr_code": "https://pse.kominfo.go.id/storage/images/qr_code/b99f4f4198b5a194d5605f1c8fa0cc66.png",
        "status_id": "TERDAFTAR",
        "sistem_elektronik_id": 7444
      }
    },
    {
      "type": "tdpseTerbit",
      "id": 7532,
      "attributes": {
        "nomor_pb_umku": "912010214198600160013",
        "nama": "CIS BSI",
        "website": "c19.bankbsi.co.id",
        "sektor": "Sektor Keuangan",
        "nama_perusahaan": "BANK SYARIAH INDONESIA",
        "tanggal_daftar": "2022-07-20",
        "nomor_tanda_daftar": "000863.27/DJAI.PSE/07/2022",
        "qr_code": "https://pse.kominfo.go.id/storage/images/qr_code/814001f21ee6227325617b5e24a44edc.png",
        "status_id": "TERDAFTAR",
        "sistem_elektronik_id": 7429
      }
    },
    {
      "type": "tdpseTerbit",
      "id": 7483,
      "attributes": {
        "nomor_pb_umku": "912010214198600160012",
        "nama": "APLIKASI BSI BISA",
        "website": "amlbisa.bankbsi.co.id",
        "sektor": "Sektor Keuangan",
        "nama_perusahaan": "BANK SYARIAH INDONESIA",
        "tanggal_daftar": "2022-07-20",
        "nomor_tanda_daftar": "000863.26/DJAI.PSE/07/2022",
        "qr_code": "https://pse.kominfo.go.id/storage/images/qr_code/7a354888422e284ff70d0474ec5613b8.png",
        "status_id": "TERDAFTAR",
        "sistem_elektronik_id": 7390
      }
    },
    {
      "type": "tdpseTerbit",
      "id": 7442,
      "attributes": {
        "nomor_pb_umku": "912010214198600160011",
        "nama": "WAIS (WHOLESALE ALLIANCE INTEGRATED SYSTEM)",
        "website": "wais.bankbsi.co.id",
        "sektor": "Sektor Keuangan",
        "nama_perusahaan": "BANK SYARIAH INDONESIA",
        "tanggal_daftar": "2022-07-20",
        "nomor_tanda_daftar": "000863.25/DJAI.PSE/07/2022",
        "qr_code": "https://pse.kominfo.go.id/storage/images/qr_code/969ef282c59bf63ba18f5fd7a58cb579.png",
        "status_id": "TERDAFTAR",
        "sistem_elektronik_id": 7346
      }
    },
    {
      "type": "tdpseTerbit",
      "id": 7414,
      "attributes": {
        "nomor_pb_umku": "912010214198600160010",
        "nama": "CUSTOMER ONLINE ONBOARDING BSI (COO BSI)",
        "website": "onboarding.bankbsi.co.id",
        "sektor": "Sektor Keuangan",
        "nama_perusahaan": "BANK SYARIAH INDONESIA",
        "tanggal_daftar": "2022-07-20",
        "nomor_tanda_daftar": "000863.24/DJAI.PSE/07/2022",
        "qr_code": "https://pse.kominfo.go.id/storage/images/qr_code/c6f167a5c23ceaedb4e123f65306996d.png",
        "status_id": "TERDAFTAR",
        "sistem_elektronik_id": 7315
      }
    },
    {
      "type": "tdpseTerbit",
      "id": 7241,
      "attributes": {
        "nomor_pb_umku": "912010214198600160009",
        "nama": "INFOLELANG BANK BSI",
        "website": "infolelang.bankbsi.co.id",
        "sektor": "Sektor Keuangan",
        "nama_perusahaan": "BANK SYARIAH INDONESIA",
        "tanggal_daftar": "2022-07-19",
        "nomor_tanda_daftar": "000863.23/DJAI.PSE/07/2022",
        "qr_code": "https://pse.kominfo.go.id/storage/images/qr_code/6dc1e9b53351b9c2dbe620e48a3e69e0.png",
        "status_id": "TERDAFTAR",
        "sistem_elektronik_id": 7133
      }
    }
  ]
}