{
  "meta": {
    "page": {
      "currentPage": 888,
      "from": 8871,
      "lastPage": 1086,
      "perPage": 10,
      "to": 8880,
      "total": 10851
    }
  },
  "data": [
    {
      "type": "tdpseTerbit",
      "id": 1429,
      "attributes": {
        "nomor_pb_umku": null,
        "nama": "Santara",
        "website": "https://santara.co.id/",
        "sektor": "Sektor Keuangan, Sektor Teknologi Informasi dan Komunikasi",
        "nama_perusahaan": "SANTARA DAYA INSPIRATAMA",
        "tanggal_daftar": "2021-06-09",
        "nomor_tanda_daftar": "000952.01/DJAI.PSE/06/2021",
        "qr_code": "https://pse.kominfo.go.id/storage/images/qr_code/3928ca9fb2f10fc619268a8d1be019bd.png",
        "status_id": "TERDAFTAR",
        "sistem_elektronik_id": 1034
      }
    },
    {
      "type": "tdpseTerbit",
      "id": 1428,
      "attributes": {
        "nomor_pb_umku": null,
        "nama": "SCOOTER VIP",
        "website": "https://www.scootervip.com",
        "sektor": "Sektor Perdagangan",
        "nama_perusahaan": "SCOOTER VICTORY INTER PART",
        "tanggal_daftar": "2021-06-09",
        "nomor_tanda_daftar": "000951.01/DJAI.PSE/06/2021",
        "qr_code": "https://pse.kominfo.go.id/storage/images/qr_code/6a47c8ef51f3df398a8bbe2aa9ff909a.png",
        "status_id": "TERDAFTAR",
        "sistem_elektronik_id": 1041
      }
    },
    {
      "type": "tdpseTerbit",
      "id": 11541,
      "attributes": {
        "nomor_pb_umku": "022010158115300020009",
        "nama": "EPREGNANCY",
        "website": "-",
        "sektor": "Sektor Keuangan",
        "nama_perusahaan": "ASURANSI ALLIANZ LIFE INDONESIA",
        "tanggal_daftar": "2022-10-05",
        "nomor_tanda_daftar": "000950.11/DJAI.PSE/10/2022",
        "qr_code": "https://pse.kominfo.go.id/storage/images/qr_code/8998797053ef5b0baf496d76389168e0.png",
        "status_id": "TERDAFTAR",
        "sistem_elektronik_id": 11356
      }
    },
    {
      "type": "tdpseTerbit",
      "id": 8963,
      "attributes": {
        "nomor_pb_umku": "022010158115300020008",
        "nama": "LEARNING MANAGEMENT SYSTEM (LMS) SABA",
        "website": "allianzlearn-in.sabacloud.com",
        "sektor": "Sektor Keuangan",
        "nama_perusahaan": "ASURANSI ALLIANZ LIFE INDONESIA",
        "tanggal_daftar": "2022-07-25",
        "nomor_tanda_daftar": "000950.10/DJAI.PSE/07/2022",
        "qr_code": "https://pse.kominfo.go.id/storage/images/qr_code/f1b3a7d51926dc959789acee2687bd0c.png",
        "status_id": "TERDAFTAR",
        "sistem_elektronik_id": 8604
      }
    },
    {
      "type": "tdpseTerbit",
      "id": 8502,
      "attributes": {
        "nomor_pb_umku": "022010158115300020007",
        "nama": "ASN PORTAL",
        "website": "allianzstarnetwork.com",
        "sektor": "Sektor Keuangan",
        "nama_perusahaan": "ASURANSI ALLIANZ LIFE INDONESIA",
        "tanggal_daftar": "2022-07-21",
        "nomor_tanda_daftar": "000950.09/DJAI.PSE/07/2022",
        "qr_code": "https://pse.kominfo.go.id/storage/images/qr_code/209c3cdf7f54647de9813ae02e28e7ac.png",
        "status_id": "TERDAFTAR",
        "sistem_elektronik_id": 8419
      }
    },
    {
      "type": "tdpseTerbit",
      "id": 8450,
      "attributes": {
        "nomor_pb_umku": "022010158115300020006",
        "nama": "SERVICES.ALLIANZ.CO.ID",
        "website": "services.allianz.co.id",
        "sektor": "Sektor Keuangan",
        "nama_perusahaan": "ASURANSI ALLIANZ LIFE INDONESIA",
        "tanggal_daftar": "2022-07-21",
        "nomor_tanda_daftar": "000950.08/DJAI.PSE/07/2022",
        "qr_code": "https://pse.kominfo.go.id/storage/images/qr_code/c12d5d5c17ef9861347e6a4aeebcd231.png",
        "status_id": "TERDAFTAR",
        "sistem_elektronik_id": 8342
      }
    },
    {
      "type": "tdpseTerbit",
      "id": 8414,
      "attributes": {
        "nomor_pb_umku": "022010158115300020005",
        "nama": "ALLIANZ SMART POINT",
        "website": "alacards.id",
        "sektor": "Sektor Keuangan",
        "nama_perusahaan": "ASURANSI ALLIANZ LIFE INDONESIA",
        "tanggal_daftar": "2022-07-21",
        "nomor_tanda_daftar": "000950.07/DJAI.PSE/07/2022",
        "qr_code": "https://pse.kominfo.go.id/storage/images/qr_code/77162ce1b6405ef2f5ea07a9bb827289.png",
        "status_id": "TERDAFTAR",
        "sistem_elektronik_id": 8328
      }
    },
    {
      "type": "tdpseTerbit",
      "id": 8317,
      "attributes": {
        "nomor_pb_umku": "022010158115300020004",
        "nama": "CISSONIUS MFT",
        "website": "cissonius.allianz.co.id",
        "sektor": "Sektor Keuangan",
        "nama_perusahaan": "ASURANSI ALLIANZ LIFE INDONESIA",
        "tanggal_daftar": "2022-07-20",
        "nomor_tanda_daftar": "000950.06/DJAI.PSE/07/2022",
        "qr_code": "https://pse.kominfo.go.id/storage/images/qr_code/23d7cd7768d469681f5ee2236f30a164.png",
        "status_id": "TERDAFTAR",
        "sistem_elektronik_id": 8230
      }
    },
    {
      "type": "tdpseTerbit",
      "id": 6499,
      "attributes": {
        "nomor_pb_umku": "022010158115300020003",
        "nama": "ALLIANZ LIFECHANGER PORTAL",
        "website": "allianzlifechanger.com",
        "sektor": "Sektor Keuangan",
        "nama_perusahaan": "ASURANSI ALLIANZ LIFE INDONESIA",
        "tanggal_daftar": "2022-07-18",
        "nomor_tanda_daftar": "000950.05/DJAI.PSE/07/2022",
        "qr_code": "https://pse.kominfo.go.id/storage/images/qr_code/484aefd9b9f786ca000f353fe52c8b31.png",
        "status_id": "TERDAFTAR",
        "sistem_elektronik_id": 6364
      }
    },
    {
      "type": "tdpseTerbit",
      "id": 6230,
      "attributes": {
        "nomor_pb_umku": "022010158115300020002",
        "nama": "CORPORATE WEBSITE",
        "website": "allianz.co.id",
        "sektor": "Sektor Keuangan",
        "nama_perusahaan": "ASURANSI ALLIANZ LIFE INDONESIA",
        "tanggal_daftar": "2022-07-18",
        "nomor_tanda_daftar": "000950.04/DJAI.PSE/07/2022",
        "qr_code": "https://pse.kominfo.go.id/storage/images/qr_code/1348d95dad4cf458748b7ed37e9b4ef2.png",
        "status_id": "TERDAFTAR",
        "sistem_elektronik_id": 6080
      }
    }
  ]
}