{
  "meta": {
    "page": {
      "currentPage": 890,
      "from": 8891,
      "lastPage": 1056,
      "perPage": 10,
      "to": 8900,
      "total": 10553
    }
  },
  "data": [
    {
      "type": "tdpseTerbit",
      "id": 1177,
      "attributes": {
        "nomor_pb_umku": null,
        "nama": "QNB Online Banking",
        "website": "https://ib.qnb.co.id",
        "sektor": "Sektor Keuangan",
        "nama_perusahaan": "BANK QNB INDONESIA",
        "tanggal_daftar": "2021-06-02",
        "nomor_tanda_daftar": "000838.01/DJAI.PSE/06/2021",
        "qr_code": "https://pse.kominfo.go.id/storage/images/qr_code/2675c2aa63e73f65155145f41902e3bc.png",
        "status_id": "TERDAFTAR",
        "sistem_elektronik_id": 815
      }
    },
    {
      "type": "tdpseTerbit",
      "id": 1176,
      "attributes": {
        "nomor_pb_umku": null,
        "nama": "Aplikasi POST.",
        "website": "www.post.app",
        "sektor": "Sektor Perdagangan",
        "nama_perusahaan": "FAZZMART TEKNOLOGI NUSANTARA",
        "tanggal_daftar": "2021-06-02",
        "nomor_tanda_daftar": "000837.01/DJAI.PSE/06/2021",
        "qr_code": "https://pse.kominfo.go.id/storage/images/qr_code/703178fb2e515f91efc3d6beb3a3b5ac.png",
        "status_id": "TERDAFTAR",
        "sistem_elektronik_id": 270
      }
    },
    {
      "type": "tdpseTerbit",
      "id": 1175,
      "attributes": {
        "nomor_pb_umku": null,
        "nama": "Dhanapala",
        "website": "www.dhanapala.id",
        "sektor": "Sektor Keuangan",
        "nama_perusahaan": "SEMANGAT GOTONG ROYONG",
        "tanggal_daftar": "2021-06-02",
        "nomor_tanda_daftar": "000836.01/DJAI.PSE/06/2021",
        "qr_code": "https://pse.kominfo.go.id/storage/images/qr_code/8abc472047eed78a309480d0b085a62b.png",
        "status_id": "TERDAFTAR",
        "sistem_elektronik_id": 354
      }
    },
    {
      "type": "tdpseTerbit",
      "id": 1171,
      "attributes": {
        "nomor_pb_umku": null,
        "nama": "blu",
        "website": "-",
        "sektor": "Sektor Keuangan",
        "nama_perusahaan": "BANK DIGITAL BCA",
        "tanggal_daftar": "2021-06-02",
        "nomor_tanda_daftar": "000835.01/DJAI.PSE/06/2021",
        "qr_code": "https://pse.kominfo.go.id/storage/images/qr_code/f7b872d0e3d6fb0995e32e727f88dcc2.png",
        "status_id": "TERDAFTAR",
        "sistem_elektronik_id": 515
      }
    },
    {
      "type": "tdpseTerbit",
      "id": 1169,
      "attributes": {
        "nomor_pb_umku": null,
        "nama": "koperasi beta serumpun setia",
        "website": "https://www.betaserumpun.id",
        "sektor": "Sektor Keuangan",
        "nama_perusahaan": "BETA SERUMPUN SETIA",
        "tanggal_daftar": "2021-06-02",
        "nomor_tanda_daftar": "000834.01/DJAI.PSE/06/2021",
        "qr_code": "https://pse.kominfo.go.id/storage/images/qr_code/fd46ec6e004d25b50551906c0535c10a.png",
        "status_id": "TERDAFTAR",
        "sistem_elektronik_id": 499
      }
    },
    {
      "type": "tdpseTerbit",
      "id": 1158,
      "attributes": {
        "nomor_pb_umku": null,
        "nama": "BBO",
        "website": "bbo.co.id",
        "sektor": "Sektor Keuangan, Sektor Teknologi Informasi dan Komunikasi",
        "nama_perusahaan": "BIZGITAL INDONESIA JAYA",
        "tanggal_daftar": "2021-06-02",
        "nomor_tanda_daftar": "000833.01/DJAI.PSE/06/2021",
        "qr_code": "https://pse.kominfo.go.id/storage/images/qr_code/002a511fa3ed4e9a2df03ea7d3bd456a.png",
        "status_id": "TERDAFTAR",
        "sistem_elektronik_id": 560
      }
    },
    {
      "type": "tdpseTerbit",
      "id": 7468,
      "attributes": {
        "nomor_pb_umku": "812001429187400010011",
        "nama": "MICROSITE ESG IDX",
        "website": "esg.idx.co.id",
        "sektor": "Sektor Keuangan",
        "nama_perusahaan": "BURSA EFEK INDONESIA",
        "tanggal_daftar": "2022-07-20",
        "nomor_tanda_daftar": "000832.23/DJAI.PSE/07/2022",
        "qr_code": "https://pse.kominfo.go.id/storage/images/qr_code/f817e1808afa1e9fe44dbd42852d09c9.png",
        "status_id": "TERDAFTAR",
        "sistem_elektronik_id": 7376
      }
    },
    {
      "type": "tdpseTerbit",
      "id": 7448,
      "attributes": {
        "nomor_pb_umku": "812001429187400010013",
        "nama": "WEBSITE PASAR MODAL SYARIAH",
        "website": "idxislamic.idx.co.id",
        "sektor": "Sektor Keuangan",
        "nama_perusahaan": "BURSA EFEK INDONESIA",
        "tanggal_daftar": "2022-08-22",
        "nomor_tanda_daftar": "000832.22/DJAI.PSE/07/2022",
        "qr_code": "https://pse.kominfo.go.id/storage/images/qr_code/9164c980ed3ab5b20e458474b4550cb2.png",
        "status_id": "TERDAFTAR",
        "sistem_elektronik_id": 7351
      }
    },
    {
      "type": "tdpseTerbit",
      "id": 7422,
      "attributes": {
        "nomor_pb_umku": "812001429187400010010",
        "nama": "INVESTOR DEVELOPMENT INFORMATION SYSTEM (IDIS)",
        "website": "idis.idx.co.id",
        "sektor": "Sektor Keuangan",
        "nama_perusahaan": "BURSA EFEK INDONESIA",
        "tanggal_daftar": "2022-07-20",
        "nomor_tanda_daftar": "000832.21/DJAI.PSE/07/2022",
        "qr_code": "https://pse.kominfo.go.id/storage/images/qr_code/c4fdc00ba1c55a3c2a0b36ac4858b62b.png",
        "status_id": "TERDAFTAR",
        "sistem_elektronik_id": 7324
      }
    },
    {
      "type": "tdpseTerbit",
      "id": 7397,
      "attributes": {
        "nomor_pb_umku": "812001429187400010009",
        "nama": "IDX INCUBATOR PORTAL",
        "website": "idxincubator.co.id",
        "sektor": "Sektor Keuangan",
        "nama_perusahaan": "BURSA EFEK INDONESIA",
        "tanggal_daftar": "2022-07-20",
        "nomor_tanda_daftar": "000832.20/DJAI.PSE/07/2022",
        "qr_code": "https://pse.kominfo.go.id/storage/images/qr_code/62fedd76cc130ac7f9f0e5d95e469e38.png",
        "status_id": "TERDAFTAR",
        "sistem_elektronik_id": 7287
      }
    }
  ]
}