{
  "meta": {
    "page": {
      "currentPage": 891,
      "from": 8901,
      "lastPage": 1012,
      "perPage": 10,
      "to": 8910,
      "total": 10114
    }
  },
  "data": [
    {
      "type": "tdpseTerbit",
      "id": 757,
      "attributes": {
        "nomor_pb_umku": null,
        "nama": "WAREHOUSE MANAGEMENT SYSTEM",
        "website": "https://invent-integrasi.co.id/",
        "sektor": "Sektor Teknologi Informasi dan Komunikasi",
        "nama_perusahaan": "INVENT INTEGRASI INDONESIA",
        "tanggal_daftar": "2021-05-07",
        "nomor_tanda_daftar": "000611.02/DJAI.PSE/05/2021",
        "qr_code": "https://pse.kominfo.go.id/storage/images/qr_code/beb889a53ceb5010b30403c5c1bb3fad.png",
        "status_id": "TERDAFTAR",
        "sistem_elektronik_id": 434
      }
    },
    {
      "type": "tdpseTerbit",
      "id": 756,
      "attributes": {
        "nomor_pb_umku": null,
        "nama": "FIELD FORCE MANAGEMENT SYSTEM",
        "website": "https://invent-integrasi.co.id/",
        "sektor": "Sektor Teknologi Informasi dan Komunikasi",
        "nama_perusahaan": "INVENT INTEGRASI INDONESIA",
        "tanggal_daftar": "2021-05-07",
        "nomor_tanda_daftar": "000611.01/DJAI.PSE/05/2021",
        "qr_code": "https://pse.kominfo.go.id/storage/images/qr_code/155a6d8c3c01ea37a1e0dfdaba075a4a.png",
        "status_id": "TERDAFTAR",
        "sistem_elektronik_id": 433
      }
    },
    {
      "type": "tdpseTerbit",
      "id": 754,
      "attributes": {
        "nomor_pb_umku": null,
        "nama": "Ternakbisnis.id",
        "website": "Ternakbisnis.id",
        "sektor": "Sektor Keuangan",
        "nama_perusahaan": "KANDANG KARYA TEKNOLOGI",
        "tanggal_daftar": "2021-05-07",
        "nomor_tanda_daftar": "000610.01/DJAI.PSE/05/2021",
        "qr_code": "https://pse.kominfo.go.id/storage/images/qr_code/230acbce47921c7e0558730df420e211.png",
        "status_id": "TERDAFTAR",
        "sistem_elektronik_id": 518
      }
    },
    {
      "type": "tdpseTerbit",
      "id": 3211,
      "attributes": {
        "nomor_pb_umku": null,
        "nama": "Dnapro Evolution EAST",
        "website": "digitalnetaset.com",
        "sektor": "Sektor Perdagangan",
        "nama_perusahaan": "DIGITAL NET ASET",
        "tanggal_daftar": "2022-02-09",
        "nomor_tanda_daftar": "000609.02/DJAI.PSE/02/2022",
        "qr_code": "https://pse.kominfo.go.id/storage/images/qr_code/78c6ea5624dc6865f1535b029b4cac0f.png",
        "status_id": "TERDAFTAR",
        "sistem_elektronik_id": 563
      }
    },
    {
      "type": "tdpseTerbit",
      "id": 753,
      "attributes": {
        "nomor_pb_umku": null,
        "nama": "https://www.digitalnetaset.com/",
        "website": "https://www.digitalnetaset.com/",
        "sektor": "Sektor Perdagangan",
        "nama_perusahaan": "DIGITAL NET ASET",
        "tanggal_daftar": "2021-05-07",
        "nomor_tanda_daftar": "000609.01/DJAI.PSE/05/2021",
        "qr_code": "https://pse.kominfo.go.id/storage/images/qr_code/4b2f05f0b021dc72d250fe51cb1646bc.png",
        "status_id": "TERDAFTAR",
        "sistem_elektronik_id": 562
      }
    },
    {
      "type": "tdpseTerbit",
      "id": 751,
      "attributes": {
        "nomor_pb_umku": null,
        "nama": "Sanders One Stop Solution",
        "website": "www.sanders.co.id",
        "sektor": "Sektor Keuangan",
        "nama_perusahaan": "SATUSTOP FINANSIAL SOLUSI",
        "tanggal_daftar": "2021-05-07",
        "nomor_tanda_daftar": "000608.01/DJAI.PSE/05/2021",
        "qr_code": "https://pse.kominfo.go.id/storage/images/qr_code/8af6ff2104223f651e8933f0542e7fdc.png",
        "status_id": "TERDAFTAR",
        "sistem_elektronik_id": 536
      }
    },
    {
      "type": "tdpseTerbit",
      "id": 750,
      "attributes": {
        "nomor_pb_umku": null,
        "nama": "Situs Web Perusahaan",
        "website": "www.otofinance.co.id",
        "sektor": "Sektor Keuangan",
        "nama_perusahaan": "SUMMIT OTO FINANCE",
        "tanggal_daftar": "2021-05-07",
        "nomor_tanda_daftar": "000607.01/DJAI.PSE/05/2021",
        "qr_code": "https://pse.kominfo.go.id/storage/images/qr_code/eb32e7c403881cbef5fd50110dfd03ee.png",
        "status_id": "TERDAFTAR",
        "sistem_elektronik_id": 223
      }
    },
    {
      "type": "tdpseTerbit",
      "id": 749,
      "attributes": {
        "nomor_pb_umku": null,
        "nama": "Principal ID",
        "website": "-",
        "sektor": "Sektor Keuangan",
        "nama_perusahaan": "PRINCIPAL ASSET MANAGEMENT",
        "tanggal_daftar": "2021-05-07",
        "nomor_tanda_daftar": "000606.01/DJAI.PSE/05/2021",
        "qr_code": "https://pse.kominfo.go.id/storage/images/qr_code/1e8528ed79e689cc76c17a1154596297.png",
        "status_id": "TERDAFTAR",
        "sistem_elektronik_id": 485
      }
    },
    {
      "type": "tdpseTerbit",
      "id": 748,
      "attributes": {
        "nomor_pb_umku": null,
        "nama": "Anak Bos Group (ABG)",
        "website": "www.abg.center",
        "sektor": "Sektor Perdagangan",
        "nama_perusahaan": "ANAK BOS GROUP",
        "tanggal_daftar": "2021-05-07",
        "nomor_tanda_daftar": "000605.01/DJAI.PSE/05/2021",
        "qr_code": "https://pse.kominfo.go.id/storage/images/qr_code/586e6ed4128674d8eec4b99114e5f4c7.png",
        "status_id": "TERDAFTAR",
        "sistem_elektronik_id": 548
      }
    },
    {
      "type": "tdpseTerbit",
      "id": 747,
      "attributes": {
        "nomor_pb_umku": null,
        "nama": "Richwell",
        "website": "www.richwell.id",
        "sektor": "Sektor Perdagangan",
        "nama_perusahaan": "HEKSA MAKMUR JAYA",
        "tanggal_daftar": "2021-05-07",
        "nomor_tanda_daftar": "000604.01/DJAI.PSE/05/2021",
        "qr_code": "https://pse.kominfo.go.id/storage/images/qr_code/55240a479d87753647af04e24bad967e.png",
        "status_id": "TERDAFTAR",
        "sistem_elektronik_id": 454
      }
    }
  ]
}