{
  "meta": {
    "page": {
      "currentPage": 893,
      "from": 8921,
      "lastPage": 1063,
      "perPage": 10,
      "to": 8930,
      "total": 10630
    }
  },
  "data": [
    {
      "type": "tdpseTerbit",
      "id": 1257,
      "attributes": {
        "nomor_pb_umku": null,
        "nama": "internet Banking Bisnis",
        "website": "https://vib.victoriabank.co.id",
        "sektor": "Sektor Keuangan",
        "nama_perusahaan": "BANK VICTORIA INTERNATIONAL",
        "tanggal_daftar": "2021-06-02",
        "nomor_tanda_daftar": "000859.02/DJAI.PSE/06/2021",
        "qr_code": "https://pse.kominfo.go.id/storage/images/qr_code/81710f0f5e3557e5d85cebd51f2882da.png",
        "status_id": "TERDAFTAR",
        "sistem_elektronik_id": 944
      }
    },
    {
      "type": "tdpseTerbit",
      "id": 1256,
      "attributes": {
        "nomor_pb_umku": null,
        "nama": "Internet Banking Perorangan",
        "website": "https://ib.victoriabank.co.id",
        "sektor": "Sektor Keuangan",
        "nama_perusahaan": "BANK VICTORIA INTERNATIONAL",
        "tanggal_daftar": "2021-06-02",
        "nomor_tanda_daftar": "000859.01/DJAI.PSE/06/2021",
        "qr_code": "https://pse.kominfo.go.id/storage/images/qr_code/672afa9b3584a9862da9fb8dedc66149.png",
        "status_id": "TERDAFTAR",
        "sistem_elektronik_id": 943
      }
    },
    {
      "type": "tdpseTerbit",
      "id": 1254,
      "attributes": {
        "nomor_pb_umku": null,
        "nama": "BCA Syariah Mobile; Klik BCA Syariah; Klik BCA Syariah Bisnis; Website BCA Syariah",
        "website": "https://www.bcasyariah.co.id/",
        "sektor": "Sektor Keuangan",
        "nama_perusahaan": "BANK BCA SYARIAH",
        "tanggal_daftar": "2021-06-02",
        "nomor_tanda_daftar": "000858.01/DJAI.PSE/06/2021",
        "qr_code": "https://pse.kominfo.go.id/storage/images/qr_code/b17758cf59f7ecc551ae9a996c999bd6.png",
        "status_id": "TERDAFTAR",
        "sistem_elektronik_id": 890
      }
    },
    {
      "type": "tdpseTerbit",
      "id": 1248,
      "attributes": {
        "nomor_pb_umku": null,
        "nama": "Website Perusahaan",
        "website": "www.mtf.co.id",
        "sektor": "Sektor Keuangan",
        "nama_perusahaan": "MANDIRI TUNAS FINANCE",
        "tanggal_daftar": "2021-06-02",
        "nomor_tanda_daftar": "000857.01/DJAI.PSE/06/2021",
        "qr_code": "https://pse.kominfo.go.id/storage/images/qr_code/6022186876389c6f76de22abc95ff197.png",
        "status_id": "TERDAFTAR",
        "sistem_elektronik_id": 950
      }
    },
    {
      "type": "tdpseTerbit",
      "id": 1255,
      "attributes": {
        "nomor_pb_umku": null,
        "nama": "Aplikasi MUFON",
        "website": "-",
        "sektor": "Sektor Keuangan",
        "nama_perusahaan": "MANDIRI UTAMA FINANCE",
        "tanggal_daftar": "2021-06-02",
        "nomor_tanda_daftar": "000856.06/DJAI.PSE/06/2021",
        "qr_code": "https://pse.kominfo.go.id/storage/images/qr_code/63892f6627251370deba647ea0a006e2.png",
        "status_id": "TERDAFTAR",
        "sistem_elektronik_id": 929
      }
    },
    {
      "type": "tdpseTerbit",
      "id": 1253,
      "attributes": {
        "nomor_pb_umku": null,
        "nama": "Portal MUF dan Dealer Rekanan",
        "website": "https://mufportal.muf.co.id",
        "sektor": "Sektor Keuangan",
        "nama_perusahaan": "MANDIRI UTAMA FINANCE",
        "tanggal_daftar": "2021-06-02",
        "nomor_tanda_daftar": "000856.05/DJAI.PSE/06/2021",
        "qr_code": "https://pse.kominfo.go.id/storage/images/qr_code/250fac6432d9883ca548b5b64b414d32.png",
        "status_id": "TERDAFTAR",
        "sistem_elektronik_id": 928
      }
    },
    {
      "type": "tdpseTerbit",
      "id": 1252,
      "attributes": {
        "nomor_pb_umku": null,
        "nama": "Website MUF Online Syariah",
        "website": "https://bsioto.muf.co.id/",
        "sektor": "Sektor Keuangan",
        "nama_perusahaan": "MANDIRI UTAMA FINANCE",
        "tanggal_daftar": "2021-06-02",
        "nomor_tanda_daftar": "000856.04/DJAI.PSE/06/2021",
        "qr_code": "https://pse.kominfo.go.id/storage/images/qr_code/641fe276bd8d407b340054eee4acc22e.png",
        "status_id": "TERDAFTAR",
        "sistem_elektronik_id": 927
      }
    },
    {
      "type": "tdpseTerbit",
      "id": 1251,
      "attributes": {
        "nomor_pb_umku": null,
        "nama": "Website MUF Dananow",
        "website": "https://dananow.muf.co.id",
        "sektor": "Sektor Keuangan",
        "nama_perusahaan": "MANDIRI UTAMA FINANCE",
        "tanggal_daftar": "2021-06-02",
        "nomor_tanda_daftar": "000856.03/DJAI.PSE/06/2021",
        "qr_code": "https://pse.kominfo.go.id/storage/images/qr_code/371bb53b76675f8054a59aafb1b893fa.png",
        "status_id": "TERDAFTAR",
        "sistem_elektronik_id": 926
      }
    },
    {
      "type": "tdpseTerbit",
      "id": 1249,
      "attributes": {
        "nomor_pb_umku": null,
        "nama": "Website MUF Online Auto Show",
        "website": "https://moas.muf.co.id",
        "sektor": "Sektor Keuangan",
        "nama_perusahaan": "MANDIRI UTAMA FINANCE",
        "tanggal_daftar": "2021-06-02",
        "nomor_tanda_daftar": "000856.02/DJAI.PSE/06/2021",
        "qr_code": "https://pse.kominfo.go.id/storage/images/qr_code/851b779e4b8d30780847db1d8ae4a72c.png",
        "status_id": "TERDAFTAR",
        "sistem_elektronik_id": 925
      }
    },
    {
      "type": "tdpseTerbit",
      "id": 1247,
      "attributes": {
        "nomor_pb_umku": null,
        "nama": "Website Corporate Mandiri Utama Finance",
        "website": "https://muf.co.id",
        "sektor": "Sektor Keuangan",
        "nama_perusahaan": "MANDIRI UTAMA FINANCE",
        "tanggal_daftar": "2021-06-02",
        "nomor_tanda_daftar": "000856.01/DJAI.PSE/06/2021",
        "qr_code": "https://pse.kominfo.go.id/storage/images/qr_code/c1e78fb322676f40ed663b62d4d7765a.png",
        "status_id": "TERDAFTAR",
        "sistem_elektronik_id": 924
      }
    }
  ]
}