{
  "meta": {
    "page": {
      "currentPage": 895,
      "from": 8941,
      "lastPage": 1113,
      "perPage": 10,
      "to": 8950,
      "total": 11124
    }
  },
  "data": [
    {
      "type": "tdpseTerbit",
      "id": 3230,
      "attributes": {
        "nomor_pb_umku": null,
        "nama": "Inapedia",
        "website": "www.inapedia.id",
        "sektor": "Sektor Kesehatan, Sektor Pangan, Sektor Perdagangan, Sektor Teknologi Informasi dan Komunikasi",
        "nama_perusahaan": "MAHAKARYA INTI TECHNOLOGY",
        "tanggal_daftar": "2022-02-11",
        "nomor_tanda_daftar": "001075.02/DJAI.PSE/02/2022",
        "qr_code": "https://pse.kominfo.go.id/storage/images/qr_code/2265adb7b2483d19c2436b3a209b39cc.png",
        "status_id": "TERDAFTAR",
        "sistem_elektronik_id": 1208
      }
    },
    {
      "type": "tdpseTerbit",
      "id": 1633,
      "attributes": {
        "nomor_pb_umku": null,
        "nama": "Yolori",
        "website": "www.yolori.com",
        "sektor": "Sektor Perdagangan, Sektor Teknologi Informasi dan Komunikasi",
        "nama_perusahaan": "MAHAKARYA INTI TECHNOLOGY",
        "tanggal_daftar": "2021-07-01",
        "nomor_tanda_daftar": "001075.01/DJAI.PSE/07/2021",
        "qr_code": "https://pse.kominfo.go.id/storage/images/qr_code/cde8a52615ee4be0d8ca5ca430048c9a.png",
        "status_id": "TERDAFTAR",
        "sistem_elektronik_id": 1207
      }
    },
    {
      "type": "tdpseTerbit",
      "id": 1630,
      "attributes": {
        "nomor_pb_umku": null,
        "nama": "www.pcinvestment.co.id, ww.pcinv.co.id",
        "website": "www.pcinvestment.co.id",
        "sektor": "Sektor Keuangan",
        "nama_perusahaan": "PACIFIC CAPITAL INVESTMENT",
        "tanggal_daftar": "2021-07-01",
        "nomor_tanda_daftar": "001074.01/DJAI.PSE/07/2021",
        "qr_code": "https://pse.kominfo.go.id/storage/images/qr_code/6fe404654a28187475a844482eb3f2a4.png",
        "status_id": "TERDAFTAR",
        "sistem_elektronik_id": 1198
      }
    },
    {
      "type": "tdpseTerbit",
      "id": 1628,
      "attributes": {
        "nomor_pb_umku": null,
        "nama": "SAMIR",
        "website": "samir.co.id",
        "sektor": "Sektor Keuangan",
        "nama_perusahaan": "SAHABAT MIKRO FINTEK",
        "tanggal_daftar": "2021-07-01",
        "nomor_tanda_daftar": "001073.01/DJAI.PSE/07/2021",
        "qr_code": "https://pse.kominfo.go.id/storage/images/qr_code/893f1a09cab43a2540faea471955a0c0.png",
        "status_id": "TERDAFTAR",
        "sistem_elektronik_id": 1199
      }
    },
    {
      "type": "tdpseTerbit",
      "id": 1627,
      "attributes": {
        "nomor_pb_umku": null,
        "nama": "OTIS - ONLINE TRADING INDOCAPITAL SEKURITAS",
        "website": "www.indocapital.co.id",
        "sektor": "Sektor Keuangan",
        "nama_perusahaan": "INDO CAPITAL SEKURITAS",
        "tanggal_daftar": "2021-07-01",
        "nomor_tanda_daftar": "001072.01/DJAI.PSE/07/2021",
        "qr_code": "https://pse.kominfo.go.id/storage/images/qr_code/5baff76fb95b2e0015692d603d8ea7d6.png",
        "status_id": "TERDAFTAR",
        "sistem_elektronik_id": 1201
      }
    },
    {
      "type": "tdpseTerbit",
      "id": 1624,
      "attributes": {
        "nomor_pb_umku": null,
        "nama": "BIONS - BNI Sekuritas Innovative Online Trading System",
        "website": "https://bions.id",
        "sektor": "Sektor Keuangan",
        "nama_perusahaan": "BNI SEKURITAS",
        "tanggal_daftar": "2021-07-01",
        "nomor_tanda_daftar": "001071.02/DJAI.PSE/07/2021",
        "qr_code": "https://pse.kominfo.go.id/storage/images/qr_code/5b64c980f27380ec0d0af7e2905fe7be.png",
        "status_id": "TERDAFTAR",
        "sistem_elektronik_id": 1204
      }
    },
    {
      "type": "tdpseTerbit",
      "id": 1623,
      "attributes": {
        "nomor_pb_umku": null,
        "nama": "BIONS - BNI Sekuritas Innovative Online Trading System",
        "website": "https://bions.id",
        "sektor": "Sektor Keuangan",
        "nama_perusahaan": "BNI SEKURITAS",
        "tanggal_daftar": "2021-07-01",
        "nomor_tanda_daftar": "001071.01/DJAI.PSE/07/2021",
        "qr_code": "https://pse.kominfo.go.id/storage/images/qr_code/0a17cd74c62d1f3fcdd0ec00e204369a.png",
        "status_id": "TERDAFTAR",
        "sistem_elektronik_id": 1203
      }
    },
    {
      "type": "tdpseTerbit",
      "id": 1622,
      "attributes": {
        "nomor_pb_umku": null,
        "nama": "SPISy SaaS",
        "website": "www.spisy.co.id",
        "sektor": "Sektor Teknologi Informasi dan Komunikasi",
        "nama_perusahaan": "SAKURA SYSTEM SOLUTIONS",
        "tanggal_daftar": "2021-07-01",
        "nomor_tanda_daftar": "001070.01/DJAI.PSE/07/2021",
        "qr_code": "https://pse.kominfo.go.id/storage/images/qr_code/060db6f7829fab2e3b8423854b0b3a2f.png",
        "status_id": "TERDAFTAR",
        "sistem_elektronik_id": 1058
      }
    },
    {
      "type": "tdpseTerbit",
      "id": 1620,
      "attributes": {
        "nomor_pb_umku": null,
        "nama": "sicepat.com",
        "website": "https://www.sicepat.com/",
        "sektor": "Sektor Teknologi Informasi dan Komunikasi",
        "nama_perusahaan": "SICEPAT EKSPRES INDONESIA",
        "tanggal_daftar": "2021-07-01",
        "nomor_tanda_daftar": "001069.01/DJAI.PSE/07/2021",
        "qr_code": "https://pse.kominfo.go.id/storage/images/qr_code/a45c78e164622bc0fda1340db67d5bbc.png",
        "status_id": "TERDAFTAR",
        "sistem_elektronik_id": 1173
      }
    },
    {
      "type": "tdpseTerbit",
      "id": 1642,
      "attributes": {
        "nomor_pb_umku": null,
        "nama": "SuperOne",
        "website": "www.super.one",
        "sektor": "Sektor Teknologi Informasi dan Komunikasi",
        "nama_perusahaan": "SUPER SATU INDONESIA",
        "tanggal_daftar": "2021-07-05",
        "nomor_tanda_daftar": "001068.02/DJAI.PSE/07/2021",
        "qr_code": "https://pse.kominfo.go.id/storage/images/qr_code/25ff56d85fca9184a6b65527b245c07f.png",
        "status_id": "TERDAFTAR",
        "sistem_elektronik_id": 3544
      }
    }
  ]
}