{
  "meta": {
    "page": {
      "currentPage": 896,
      "from": 8951,
      "lastPage": 962,
      "perPage": 10,
      "to": 8960,
      "total": 9612
    }
  },
  "data": [
    {
      "type": "tdpseTerbit",
      "id": 412,
      "attributes": {
        "nomor_pb_umku": null,
        "nama": "Telkomsel Redi",
        "website": "-",
        "sektor": "Sektor Teknologi Informasi dan Komunikasi",
        "nama_perusahaan": "TELEKOMUNIKASI SELULAR",
        "tanggal_daftar": "2021-03-31",
        "nomor_tanda_daftar": "000337.01/DJAI.PSE/03/2021",
        "qr_code": "https://pse.kominfo.go.id/storage/images/qr_code/ca8453af1870d63c4afddb2e5f4c4fe0.png",
        "status_id": "TERDAFTAR",
        "sistem_elektronik_id": 4016
      }
    },
    {
      "type": "tdpseTerbit",
      "id": 10214,
      "attributes": {
        "nomor_pb_umku": "912010125064800020003",
        "nama": "WWW.BOLA.NET",
        "website": "bola.net",
        "sektor": "Sektor Teknologi Informasi dan Komunikasi",
        "nama_perusahaan": "LIPUTAN ENAM DOT COM",
        "tanggal_daftar": "2022-08-11",
        "nomor_tanda_daftar": "000336.04/DJAI.PSE/08/2022",
        "qr_code": "https://pse.kominfo.go.id/storage/images/qr_code/8eb423b31447a2dd2c220a0b2fcf857f.png",
        "status_id": "TERDAFTAR",
        "sistem_elektronik_id": 10092
      }
    },
    {
      "type": "tdpseTerbit",
      "id": 10213,
      "attributes": {
        "nomor_pb_umku": "912010125064800020002",
        "nama": "WWW.BOLA.COM",
        "website": "bola.com",
        "sektor": "Sektor Teknologi Informasi dan Komunikasi",
        "nama_perusahaan": "LIPUTAN ENAM DOT COM",
        "tanggal_daftar": "2022-08-12",
        "nomor_tanda_daftar": "000336.03/DJAI.PSE/08/2022",
        "qr_code": "https://pse.kominfo.go.id/storage/images/qr_code/0063e89daef44a922bd26b9352cb9e84.png",
        "status_id": "TERDAFTAR",
        "sistem_elektronik_id": 10091
      }
    },
    {
      "type": "tdpseTerbit",
      "id": 732,
      "attributes": {
        "nomor_pb_umku": null,
        "nama": "www.liputan6.com",
        "website": "www.liputan6.com",
        "sektor": "Sektor Perdagangan, Sektor Teknologi Informasi dan Komunikasi",
        "nama_perusahaan": "LIPUTAN ENAM DOT COM",
        "tanggal_daftar": "2021-05-07",
        "nomor_tanda_daftar": "000336.02/DJAI.PSE/05/2021",
        "qr_code": "https://pse.kominfo.go.id/storage/images/qr_code/f8803f1feab3bc2eb57e24a07843d7cc.png",
        "status_id": "TERDAFTAR",
        "sistem_elektronik_id": 2734
      }
    },
    {
      "type": "tdpseTerbit",
      "id": 4146,
      "attributes": {
        "nomor_pb_umku": "128700020064700000002",
        "nama": "JEMPOL KIOS",
        "website": "jempolkios.co.id",
        "sektor": "Sektor Teknologi Informasi dan Komunikasi",
        "nama_perusahaan": "MITRA DISTRIBUSI UTAMA",
        "tanggal_daftar": "2022-05-25",
        "nomor_tanda_daftar": "000336.01/DJAI.PSE/05/2022",
        "qr_code": "https://pse.kominfo.go.id/storage/images/qr_code/4d9742ed49211eda63ae59a58792d403.png",
        "status_id": "TERDAFTAR",
        "sistem_elektronik_id": 4149
      }
    },
    {
      "type": "tdpseTerbit",
      "id": 411,
      "attributes": {
        "nomor_pb_umku": null,
        "nama": "KAPANLAGI YOUNIVERSE",
        "website": "www.kapanlagi.com , www.bola.net , www.otosia.com , www.merdeka.com , www.liputan6.com , www.bola.com , www.fimela.com",
        "sektor": "Sektor Teknologi Informasi dan Komunikasi",
        "nama_perusahaan": "LIPUTAN ENAM DOT COM",
        "tanggal_daftar": "2021-03-31",
        "nomor_tanda_daftar": "000336.01/DJAI.PSE/03/2021",
        "qr_code": "https://pse.kominfo.go.id/storage/images/qr_code/870155f053187ed87aaef0043856c8ec.png",
        "status_id": "TERDAFTAR",
        "sistem_elektronik_id": 2733
      }
    },
    {
      "type": "tdpseTerbit",
      "id": 410,
      "attributes": {
        "nomor_pb_umku": null,
        "nama": "Pizza Hut Indonesia",
        "website": "www.pizzahut.co.id",
        "sektor": "Sektor Perdagangan",
        "nama_perusahaan": "SARIMELATI KENCANA",
        "tanggal_daftar": "2021-03-31",
        "nomor_tanda_daftar": "000335.01/DJAI.PSE/03/2021",
        "qr_code": "https://pse.kominfo.go.id/storage/images/qr_code/13d5ccad658e91695be5fd281ec7a166.png",
        "status_id": "TERDAFTAR",
        "sistem_elektronik_id": 149
      }
    },
    {
      "type": "tdpseTerbit",
      "id": 409,
      "attributes": {
        "nomor_pb_umku": null,
        "nama": "Niagara Indonesia",
        "website": "www.niagara .my.id",
        "sektor": "Sektor Perdagangan",
        "nama_perusahaan": "PARTNER SEJATI ABADI",
        "tanggal_daftar": "2021-03-31",
        "nomor_tanda_daftar": "000334.01/DJAI.PSE/03/2021",
        "qr_code": "https://pse.kominfo.go.id/storage/images/qr_code/aced82d5a84e3d956079af5362b94088.png",
        "status_id": "TERDAFTAR",
        "sistem_elektronik_id": 138
      }
    },
    {
      "type": "tdpseTerbit",
      "id": 419,
      "attributes": {
        "nomor_pb_umku": null,
        "nama": "Tunaiku",
        "website": "tunaiku.com",
        "sektor": "Sektor Keuangan",
        "nama_perusahaan": "BANK AMAR INDONESIA",
        "tanggal_daftar": "2021-04-09",
        "nomor_tanda_daftar": "000333.02/DJAI.PSE/04/2021",
        "qr_code": "https://pse.kominfo.go.id/storage/images/qr_code/8093f500d6e746d97f125a4e97aaf71f.png",
        "status_id": "TERDAFTAR",
        "sistem_elektronik_id": 88
      }
    },
    {
      "type": "tdpseTerbit",
      "id": 4316,
      "attributes": {
        "nomor_pb_umku": "022020510300800160002",
        "nama": "JETHOSTING",
        "website": "jethosting.id",
        "sektor": "Sektor Perdagangan, Sektor Teknologi Informasi dan Komunikasi",
        "nama_perusahaan": "CELEBES CIPTA KARYA",
        "tanggal_daftar": "2022-06-09",
        "nomor_tanda_daftar": "000333.01/DJAI.PSE/06/2022",
        "qr_code": "https://pse.kominfo.go.id/storage/images/qr_code/89a97ae0981a3d5c2ebd743e316836c6.png",
        "status_id": "TERDAFTAR",
        "sistem_elektronik_id": 4309
      }
    }
  ]
}