{
  "meta": {
    "page": {
      "currentPage": 897,
      "from": 8961,
      "lastPage": 994,
      "perPage": 10,
      "to": 8970,
      "total": 9936
    }
  },
  "data": [
    {
      "type": "tdpseTerbit",
      "id": 582,
      "attributes": {
        "nomor_pb_umku": null,
        "nama": "JOB2GO",
        "website": "Job2go.net, job2go.id",
        "sektor": "Sektor Teknologi Informasi dan Komunikasi",
        "nama_perusahaan": "SINERGI TEKNO CIPTA",
        "tanggal_daftar": "2021-04-26",
        "nomor_tanda_daftar": "000476.01/DJAI.PSE/04/2021",
        "qr_code": "https://pse.kominfo.go.id/storage/images/qr_code/e8e6b4d0c437088548f2498ccc4dddaf.png",
        "status_id": "TERDAFTAR",
        "sistem_elektronik_id": 2337
      }
    },
    {
      "type": "tdpseTerbit",
      "id": 581,
      "attributes": {
        "nomor_pb_umku": null,
        "nama": "Kilat Digital Indonesia",
        "website": "sedang dalam pembuatan",
        "sektor": "Sektor Teknologi Informasi dan Komunikasi",
        "nama_perusahaan": "KILAT DIGITAL INDONESIA",
        "tanggal_daftar": "2021-04-26",
        "nomor_tanda_daftar": "000475.01/DJAI.PSE/04/2021",
        "qr_code": "https://pse.kominfo.go.id/storage/images/qr_code/b9a515435b1cc5d43a60119e12164903.png",
        "status_id": "TERDAFTAR",
        "sistem_elektronik_id": 382
      }
    },
    {
      "type": "tdpseTerbit",
      "id": 717,
      "attributes": {
        "nomor_pb_umku": null,
        "nama": "BukuKas",
        "website": "https://bukukas.co.id/",
        "sektor": "Sektor Perdagangan",
        "nama_perusahaan": "BEEGROUP FINANCIAL INDONESIA",
        "tanggal_daftar": "2021-04-26",
        "nomor_tanda_daftar": "000474.02/DJAI.PSE/04/2021",
        "qr_code": "https://pse.kominfo.go.id/storage/images/qr_code/2d8fda3c6ebbc319eeff77f4d2ff45ef.png",
        "status_id": "TERDAFTAR",
        "sistem_elektronik_id": 3254
      }
    },
    {
      "type": "tdpseTerbit",
      "id": 580,
      "attributes": {
        "nomor_pb_umku": null,
        "nama": "BukuKas",
        "website": "https://bukukas.co.id/",
        "sektor": "Sektor Perdagangan",
        "nama_perusahaan": "BEEGROUP FINANCIAL INDONESIA",
        "tanggal_daftar": "2021-04-26",
        "nomor_tanda_daftar": "000474.01/DJAI.PSE/04/2021",
        "qr_code": "https://pse.kominfo.go.id/storage/images/qr_code/6bcf4c1a31af7d6de7de647f42762be5.png",
        "status_id": "TERDAFTAR",
        "sistem_elektronik_id": 3253
      }
    },
    {
      "type": "tdpseTerbit",
      "id": 4895,
      "attributes": {
        "nomor_pb_umku": "812000284249100010006",
        "nama": "APPECTUAL IT SOLUTIONS LLP",
        "website": "lorealsalonshop.co.id",
        "sektor": "Sektor Perdagangan",
        "nama_perusahaan": "L`OREAL INDONESIA",
        "tanggal_daftar": "2022-06-28",
        "nomor_tanda_daftar": "000473.04/DJAI.PSE/06/2022",
        "qr_code": "https://pse.kominfo.go.id/storage/images/qr_code/0e27f5a617d04499214423410e1398ff.png",
        "status_id": "TERDAFTAR",
        "sistem_elektronik_id": 4765
      }
    },
    {
      "type": "tdpseTerbit",
      "id": 4621,
      "attributes": {
        "nomor_pb_umku": "812000284249100010005",
        "nama": "WEBSITE – SFCC PLATFORM",
        "website": "yslbeauty.co.id",
        "sektor": "Sektor Perdagangan",
        "nama_perusahaan": "L`OREAL INDONESIA",
        "tanggal_daftar": "2022-06-20",
        "nomor_tanda_daftar": "000473.03/DJAI.PSE/06/2022",
        "qr_code": "https://pse.kominfo.go.id/storage/images/qr_code/e936b1cf18474f00eca2c135a2fdfe0f.png",
        "status_id": "TERDAFTAR",
        "sistem_elektronik_id": 4582
      }
    },
    {
      "type": "tdpseTerbit",
      "id": 1433,
      "attributes": {
        "nomor_pb_umku": null,
        "nama": "L'OREAL INDONESIA ONLINE STORE",
        "website": "www.lancome.co.id",
        "sektor": "Sektor Perdagangan",
        "nama_perusahaan": "L`OREAL INDONESIA",
        "tanggal_daftar": "2021-06-09",
        "nomor_tanda_daftar": "000473.02/DJAI.PSE/06/2021",
        "qr_code": "https://pse.kominfo.go.id/storage/images/qr_code/3aae7db0066db7966cfb05bd45e221c4.png",
        "status_id": "TERDAFTAR",
        "sistem_elektronik_id": 180
      }
    },
    {
      "type": "tdpseTerbit",
      "id": 579,
      "attributes": {
        "nomor_pb_umku": null,
        "nama": "L'OREAL INDONESIA ONLINE STORE",
        "website": "www.kiehls.co.id",
        "sektor": "Sektor Perdagangan",
        "nama_perusahaan": "L`OREAL INDONESIA",
        "tanggal_daftar": "2021-04-26",
        "nomor_tanda_daftar": "000473.01/DJAI.PSE/04/2021",
        "qr_code": "https://pse.kominfo.go.id/storage/images/qr_code/9ad8719ccd1993f793aa37bd68d17748.png",
        "status_id": "TERDAFTAR",
        "sistem_elektronik_id": 179
      }
    },
    {
      "type": "tdpseTerbit",
      "id": 1782,
      "attributes": {
        "nomor_pb_umku": null,
        "nama": "AegisPOC",
        "website": "-",
        "sektor": "Sektor Kesehatan",
        "nama_perusahaan": "ALERE HEALTH",
        "tanggal_daftar": "2021-07-27",
        "nomor_tanda_daftar": "000472.02/DJAI.PSE/07/2021",
        "qr_code": "https://pse.kominfo.go.id/storage/images/qr_code/07bc76b5206235c09ea18a6b3068f395.png",
        "status_id": "TERDAFTAR",
        "sistem_elektronik_id": 127
      }
    },
    {
      "type": "tdpseTerbit",
      "id": 578,
      "attributes": {
        "nomor_pb_umku": null,
        "nama": "Sympheos",
        "website": "Sympheos.abbott.com",
        "sektor": "Sektor Kesehatan",
        "nama_perusahaan": "ALERE HEALTH",
        "tanggal_daftar": "2021-04-26",
        "nomor_tanda_daftar": "000472.01/DJAI.PSE/04/2021",
        "qr_code": "https://pse.kominfo.go.id/storage/images/qr_code/c715091b579b1b6f02e87f3f3e4dcccf.png",
        "status_id": "TERDAFTAR",
        "sistem_elektronik_id": 126
      }
    }
  ]
}