{
  "meta": {
    "page": {
      "currentPage": 900,
      "from": 8991,
      "lastPage": 997,
      "perPage": 10,
      "to": 9000,
      "total": 9961
    }
  },
  "data": [
    {
      "type": "tdpseTerbit",
      "id": 4621,
      "attributes": {
        "nomor_pb_umku": "812000284249100010005",
        "nama": "WEBSITE – SFCC PLATFORM",
        "website": "yslbeauty.co.id",
        "sektor": "Sektor Perdagangan",
        "nama_perusahaan": "L`OREAL INDONESIA",
        "tanggal_daftar": "2022-06-20",
        "nomor_tanda_daftar": "000473.03/DJAI.PSE/06/2022",
        "qr_code": "https://pse.kominfo.go.id/storage/images/qr_code/e936b1cf18474f00eca2c135a2fdfe0f.png",
        "status_id": "TERDAFTAR",
        "sistem_elektronik_id": 4582
      }
    },
    {
      "type": "tdpseTerbit",
      "id": 1433,
      "attributes": {
        "nomor_pb_umku": null,
        "nama": "L'OREAL INDONESIA ONLINE STORE",
        "website": "www.lancome.co.id",
        "sektor": "Sektor Perdagangan",
        "nama_perusahaan": "L`OREAL INDONESIA",
        "tanggal_daftar": "2021-06-09",
        "nomor_tanda_daftar": "000473.02/DJAI.PSE/06/2021",
        "qr_code": "https://pse.kominfo.go.id/storage/images/qr_code/3aae7db0066db7966cfb05bd45e221c4.png",
        "status_id": "TERDAFTAR",
        "sistem_elektronik_id": 180
      }
    },
    {
      "type": "tdpseTerbit",
      "id": 579,
      "attributes": {
        "nomor_pb_umku": null,
        "nama": "L'OREAL INDONESIA ONLINE STORE",
        "website": "www.kiehls.co.id",
        "sektor": "Sektor Perdagangan",
        "nama_perusahaan": "L`OREAL INDONESIA",
        "tanggal_daftar": "2021-04-26",
        "nomor_tanda_daftar": "000473.01/DJAI.PSE/04/2021",
        "qr_code": "https://pse.kominfo.go.id/storage/images/qr_code/9ad8719ccd1993f793aa37bd68d17748.png",
        "status_id": "TERDAFTAR",
        "sistem_elektronik_id": 179
      }
    },
    {
      "type": "tdpseTerbit",
      "id": 1782,
      "attributes": {
        "nomor_pb_umku": null,
        "nama": "AegisPOC",
        "website": "-",
        "sektor": "Sektor Kesehatan",
        "nama_perusahaan": "ALERE HEALTH",
        "tanggal_daftar": "2021-07-27",
        "nomor_tanda_daftar": "000472.02/DJAI.PSE/07/2021",
        "qr_code": "https://pse.kominfo.go.id/storage/images/qr_code/07bc76b5206235c09ea18a6b3068f395.png",
        "status_id": "TERDAFTAR",
        "sistem_elektronik_id": 127
      }
    },
    {
      "type": "tdpseTerbit",
      "id": 578,
      "attributes": {
        "nomor_pb_umku": null,
        "nama": "Sympheos",
        "website": "Sympheos.abbott.com",
        "sektor": "Sektor Kesehatan",
        "nama_perusahaan": "ALERE HEALTH",
        "tanggal_daftar": "2021-04-26",
        "nomor_tanda_daftar": "000472.01/DJAI.PSE/04/2021",
        "qr_code": "https://pse.kominfo.go.id/storage/images/qr_code/c715091b579b1b6f02e87f3f3e4dcccf.png",
        "status_id": "TERDAFTAR",
        "sistem_elektronik_id": 126
      }
    },
    {
      "type": "tdpseTerbit",
      "id": 577,
      "attributes": {
        "nomor_pb_umku": null,
        "nama": "SolusiKita",
        "website": "www.jayindo.id",
        "sektor": "Sektor Keuangan",
        "nama_perusahaan": "JAYINDO FINTEK PRATAMA",
        "tanggal_daftar": "2021-04-26",
        "nomor_tanda_daftar": "000471.01/DJAI.PSE/04/2021",
        "qr_code": "https://pse.kominfo.go.id/storage/images/qr_code/4d1666291b927822523b74279c60c7b9.png",
        "status_id": "TERDAFTAR",
        "sistem_elektronik_id": 395
      }
    },
    {
      "type": "tdpseTerbit",
      "id": 4189,
      "attributes": {
        "nomor_pb_umku": "912011208254300010001",
        "nama": "LUMMOSHOP",
        "website": "lummoshop.co.id",
        "sektor": "Sektor Teknologi Informasi dan Komunikasi",
        "nama_perusahaan": "BEEGROUP FINANCIAL INDONESIA",
        "tanggal_daftar": "2022-05-31",
        "nomor_tanda_daftar": "00047.03/DJAI.PSE/05/2022",
        "qr_code": "https://pse.kominfo.go.id/storage/images/qr_code/5200854d6fe223985effc804f1bca795.png",
        "status_id": "TERDAFTAR",
        "sistem_elektronik_id": 4190
      }
    },
    {
      "type": "tdpseTerbit",
      "id": 953,
      "attributes": {
        "nomor_pb_umku": null,
        "nama": "Tri Website",
        "website": "http://www.tri.co.id",
        "sektor": "Sektor Perdagangan, Sektor Teknologi Informasi dan Komunikasi",
        "nama_perusahaan": "HUTCHISON 3 INDONESIA",
        "tanggal_daftar": "2021-05-11",
        "nomor_tanda_daftar": "000470.02/DJAI.PSE/05/2021",
        "qr_code": "https://pse.kominfo.go.id/storage/images/qr_code/bbeafedd7caa6a012f99e619d3120bde.png",
        "status_id": "TERDAFTAR",
        "sistem_elektronik_id": 2360
      }
    },
    {
      "type": "tdpseTerbit",
      "id": 4190,
      "attributes": {
        "nomor_pb_umku": "812010791224500050179",
        "nama": "HOME CENTER INDONESIA - COMPANY PROFILE",
        "website": "informa.co.id",
        "sektor": "Sektor Perdagangan",
        "nama_perusahaan": "HOME CENTER INDONESIA",
        "tanggal_daftar": "2022-05-31",
        "nomor_tanda_daftar": "000470.01/DJAI.PSE/05/2022",
        "qr_code": "https://pse.kominfo.go.id/storage/images/qr_code/8daf27b74a4084a2b69871b6a8ab1fa7.png",
        "status_id": "TERDAFTAR",
        "sistem_elektronik_id": 4192
      }
    },
    {
      "type": "tdpseTerbit",
      "id": 576,
      "attributes": {
        "nomor_pb_umku": null,
        "nama": "bima+",
        "website": "mytri.tri.co.id, bima.tri.co.id, my.tri.co.id, internet.tri.co.id, bimaplus.tri.co.id",
        "sektor": "Sektor Perdagangan, Sektor Teknologi Informasi dan Komunikasi",
        "nama_perusahaan": "HUTCHISON 3 INDONESIA",
        "tanggal_daftar": "2021-04-26",
        "nomor_tanda_daftar": "000470.01/DJAI.PSE/04/2021",
        "qr_code": "https://pse.kominfo.go.id/storage/images/qr_code/dd19794246908b456e898db71beb666d.png",
        "status_id": "TERDAFTAR",
        "sistem_elektronik_id": 2359
      }
    }
  ]
}