{
  "meta": {
    "page": {
      "currentPage": 10,
      "from": 91,
      "lastPage": 1038,
      "perPage": 10,
      "to": 100,
      "total": 10380
    }
  },
  "data": [
    {
      "type": "tdpseTerbit",
      "id": 11199,
      "attributes": {
        "nomor_pb_umku": "022020976223300010002",
        "nama": "AMININ",
        "website": "aminin.com",
        "sektor": "Sektor Teknologi Informasi dan Komunikasi",
        "nama_perusahaan": "INDONESIA MAJU AAMIIN",
        "tanggal_daftar": "2022-09-16",
        "nomor_tanda_daftar": "007763.01/DJAI.PSE/09/2022",
        "qr_code": "https://pse.kominfo.go.id/storage/images/qr_code/1ed8d3562e8329f925212508825cfe0f.png",
        "status_id": "TERDAFTAR",
        "sistem_elektronik_id": 11007
      }
    },
    {
      "type": "tdpseTerbit",
      "id": 11198,
      "attributes": {
        "nomor_pb_umku": "170822001118800020001",
        "nama": "TAXIJEK OL1416",
        "website": "-",
        "sektor": "Sektor Transportasi, Sektor Teknologi Informasi dan Komunikasi",
        "nama_perusahaan": "VICTOR NOVELLO KELPITNA",
        "tanggal_daftar": "2022-09-14",
        "nomor_tanda_daftar": "007762.01/DJAI.PSE/09/2022",
        "qr_code": "https://pse.kominfo.go.id/storage/images/qr_code/9769c4ff1758a6dcc1ddc958e840eaf9.png",
        "status_id": "TERDAFTAR",
        "sistem_elektronik_id": 11005
      }
    },
    {
      "type": "tdpseTerbit",
      "id": 11197,
      "attributes": {
        "nomor_pb_umku": "125600143104400000001",
        "nama": "ENEVTI.COM",
        "website": "enevti.com",
        "sektor": "Sektor Teknologi Informasi dan Komunikasi",
        "nama_perusahaan": "KOLABORASI KERJA INDONESIA",
        "tanggal_daftar": "2022-09-14",
        "nomor_tanda_daftar": "007761.01/DJAI.PSE/09/2022",
        "qr_code": "https://pse.kominfo.go.id/storage/images/qr_code/6ad23f5720ffdcb09b84cfcb34a9ce7e.png",
        "status_id": "TERDAFTAR",
        "sistem_elektronik_id": 11004
      }
    },
    {
      "type": "tdpseTerbit",
      "id": 11232,
      "attributes": {
        "nomor_pb_umku": "912030774269200020002",
        "nama": "SPHAIRA",
        "website": "qprosm.com",
        "sektor": "Sektor Perdagangan, Sektor Kesehatan, Sektor Teknologi Informasi dan Komunikasi",
        "nama_perusahaan": "QPRO SUKSES MANDIRI",
        "tanggal_daftar": "2022-09-16",
        "nomor_tanda_daftar": "007760.01/DJAI.PSE/09/2022",
        "qr_code": "https://pse.kominfo.go.id/storage/images/qr_code/f5cbab9b54fe842e996a6d3bad1c2f07.png",
        "status_id": "TERDAFTAR",
        "sistem_elektronik_id": 11006
      }
    },
    {
      "type": "tdpseTerbit",
      "id": 11200,
      "attributes": {
        "nomor_pb_umku": "140922009035300060001",
        "nama": "SIMKES KHANZA",
        "website": "yaski.or.id",
        "sektor": "Sektor Kesehatan",
        "nama_perusahaan": "SIMRS KHANZA INDONESIA",
        "tanggal_daftar": "2022-09-14",
        "nomor_tanda_daftar": "007758.01/DJAI.PSE/09/2022",
        "qr_code": "https://pse.kominfo.go.id/storage/images/qr_code/6d5ea440250c2239a870dda5c7027f83.png",
        "status_id": "TERDAFTAR",
        "sistem_elektronik_id": 11008
      }
    },
    {
      "type": "tdpseTerbit",
      "id": 11191,
      "attributes": {
        "nomor_pb_umku": "912001227263300010001",
        "nama": "LAPAKITA",
        "website": "-",
        "sektor": "Sektor Perdagangan",
        "nama_perusahaan": "AULIA PRATAMA",
        "tanggal_daftar": "2022-09-14",
        "nomor_tanda_daftar": "007757.01/DJAI.PSE/09/2022",
        "qr_code": "https://pse.kominfo.go.id/storage/images/qr_code/cee3bd1c700eff42c8670bb645ad2273.png",
        "status_id": "TERDAFTAR",
        "sistem_elektronik_id": 10998
      }
    },
    {
      "type": "tdpseTerbit",
      "id": 11190,
      "attributes": {
        "nomor_pb_umku": "190322000304800010001",
        "nama": "MEDIFY",
        "website": "medify.id",
        "sektor": "Sektor Kesehatan",
        "nama_perusahaan": "GLOBAL MEDIKA DIGITAMA",
        "tanggal_daftar": "2022-09-14",
        "nomor_tanda_daftar": "007756.01/DJAI.PSE/09/2022",
        "qr_code": "https://pse.kominfo.go.id/storage/images/qr_code/5ab0daa22e603bb3234c6086ce0e1cef.png",
        "status_id": "TERDAFTAR",
        "sistem_elektronik_id": 10997
      }
    },
    {
      "type": "tdpseTerbit",
      "id": 11196,
      "attributes": {
        "nomor_pb_umku": "080722005016800010001",
        "nama": "REFINITIV FX TRANSACTIONS",
        "website": "refinitiv.com",
        "sektor": "Sektor Teknologi Informasi dan Komunikasi",
        "nama_perusahaan": "LSEG TRANSACTION SERVICES INDONESIA",
        "tanggal_daftar": "2022-09-14",
        "nomor_tanda_daftar": "007755.01/DJAI.PSE/09/2022",
        "qr_code": "https://pse.kominfo.go.id/storage/images/qr_code/01b31842b09121df1da53367876ad872.png",
        "status_id": "TERDAFTAR",
        "sistem_elektronik_id": 11000
      }
    },
    {
      "type": "tdpseTerbit",
      "id": 11255,
      "attributes": {
        "nomor_pb_umku": "120900050264600000001",
        "nama": "JORNE",
        "website": "MyJorne.com",
        "sektor": "Sektor Perdagangan",
        "nama_perusahaan": "SETIONO PHANTASIA JORNE",
        "tanggal_daftar": "2022-09-20",
        "nomor_tanda_daftar": "007754.01/DJAI.PSE/09/2022",
        "qr_code": "https://pse.kominfo.go.id/storage/images/qr_code/0d1d85419ca5b88049228f24ca876401.png",
        "status_id": "TERDAFTAR",
        "sistem_elektronik_id": 11064
      }
    },
    {
      "type": "tdpseTerbit",
      "id": 11251,
      "attributes": {
        "nomor_pb_umku": "070922014694500000001",
        "nama": "BAKOOL",
        "website": "-",
        "sektor": "Sektor Perdagangan",
        "nama_perusahaan": "BAKOOL NUSANTARA JAYA",
        "tanggal_daftar": "2022-09-20",
        "nomor_tanda_daftar": "007753.01/DJAI.PSE/09/2022",
        "qr_code": "https://pse.kominfo.go.id/storage/images/qr_code/d0924ebd02bb4e3435300699481364ad.png",
        "status_id": "TERDAFTAR",
        "sistem_elektronik_id": 11060
      }
    }
  ]
}