{
  "meta": {
    "page": {
      "currentPage": 91,
      "from": 901,
      "lastPage": 949,
      "perPage": 10,
      "to": 910,
      "total": 9482
    }
  },
  "data": [
    {
      "type": "tdpseTerbit",
      "id": 8737,
      "attributes": {
        "nomor_pb_umku": "170322001526600000001",
        "nama": "ALKADEMI",
        "website": "alkademi.id",
        "sektor": "Sektor Teknologi Informasi dan Komunikasi",
        "nama_perusahaan": "RADITYA ALKADEMI DIGITAL",
        "tanggal_daftar": "2022-07-22",
        "nomor_tanda_daftar": "006112.01/DJAI.PSE/07/2022",
        "qr_code": "https://pse.kominfo.go.id/storage/images/qr_code/b982ca3063ec94740fa577c28e5b95a1.png",
        "status_id": "TERDAFTAR",
        "sistem_elektronik_id": 8656
      }
    },
    {
      "type": "tdpseTerbit",
      "id": 8867,
      "attributes": {
        "nomor_pb_umku": "040322002880600010001",
        "nama": "RADYA LAB TEKNOLOGI",
        "website": "radyadigital.com",
        "sektor": "Sektor Teknologi Informasi dan Komunikasi",
        "nama_perusahaan": "RADYA LAB TEKNOLOGI",
        "tanggal_daftar": "2022-07-22",
        "nomor_tanda_daftar": "006111.01/DJAI.PSE/07/2022",
        "qr_code": "https://pse.kominfo.go.id/storage/images/qr_code/7062a8584ae09f40496598907d0767e4.png",
        "status_id": "TERDAFTAR",
        "sistem_elektronik_id": 8670
      }
    },
    {
      "type": "tdpseTerbit",
      "id": 8763,
      "attributes": {
        "nomor_pb_umku": "022030413145900020001",
        "nama": "CITRA PERSADA",
        "website": "citrapersada.org",
        "sektor": "Sektor Perdagangan",
        "nama_perusahaan": "CITRA PERSADA",
        "tanggal_daftar": "2022-07-22",
        "nomor_tanda_daftar": "006110.01/DJAI.PSE/07/2022",
        "qr_code": "https://pse.kominfo.go.id/storage/images/qr_code/d1f21970136998c324fb6ba791c47ac1.png",
        "status_id": "TERDAFTAR",
        "sistem_elektronik_id": 8678
      }
    },
    {
      "type": "tdpseTerbit",
      "id": 8748,
      "attributes": {
        "nomor_pb_umku": "022000866187100000002",
        "nama": "DUTAWAKAF",
        "website": "pasifamal.id",
        "sektor": "Sektor Teknologi Informasi dan Komunikasi",
        "nama_perusahaan": "HASANAH JARIYAH APLIKANUSA",
        "tanggal_daftar": "2022-07-22",
        "nomor_tanda_daftar": "006109.02/DJAI.PSE/07/2022",
        "qr_code": "https://pse.kominfo.go.id/storage/images/qr_code/70f9c21d3cfef297759954e55e5690f1.png",
        "status_id": "TERDAFTAR",
        "sistem_elektronik_id": 8666
      }
    },
    {
      "type": "tdpseTerbit",
      "id": 8738,
      "attributes": {
        "nomor_pb_umku": "",
        "nama": "PASIFAMAL",
        "website": "pasifamal.id",
        "sektor": "Sektor Teknologi Informasi dan Komunikasi",
        "nama_perusahaan": "HASANAH JARIYAH APLIKANUSA",
        "tanggal_daftar": "2022-07-22",
        "nomor_tanda_daftar": "006109.01/DJAI.PSE/07/2022",
        "qr_code": "https://pse.kominfo.go.id/storage/images/qr_code/8cf959ace6f8519d6b272c7e26be1f0f.png",
        "status_id": "TERDAFTAR",
        "sistem_elektronik_id": 8657
      }
    },
    {
      "type": "tdpseTerbit",
      "id": 9073,
      "attributes": {
        "nomor_pb_umku": "812011615057500000007",
        "nama": "IMOULIFE",
        "website": "-",
        "sektor": "Sektor Teknologi Informasi dan Komunikasi",
        "nama_perusahaan": "DAHUA VISION TECHNOLOGY INDONESIA",
        "tanggal_daftar": "2022-07-26",
        "nomor_tanda_daftar": "006108.02/DJAI.PSE/07/2022",
        "qr_code": "https://pse.kominfo.go.id/storage/images/qr_code/fee636cbf634399aa2cddfa40a5210b2.png",
        "status_id": "TERDAFTAR",
        "sistem_elektronik_id": 8979
      }
    },
    {
      "type": "tdpseTerbit",
      "id": 9033,
      "attributes": {
        "nomor_pb_umku": "812011615057500000006",
        "nama": "DMSS",
        "website": "-",
        "sektor": "Sektor Teknologi Informasi dan Komunikasi",
        "nama_perusahaan": "DAHUA VISION TECHNOLOGY INDONESIA",
        "tanggal_daftar": "2022-07-26",
        "nomor_tanda_daftar": "006108.01/DJAI.PSE/07/2022",
        "qr_code": "https://pse.kominfo.go.id/storage/images/qr_code/fad455fe28465e350d6321aebd3e538d.png",
        "status_id": "TERDAFTAR",
        "sistem_elektronik_id": 8906
      }
    },
    {
      "type": "tdpseTerbit",
      "id": 8734,
      "attributes": {
        "nomor_pb_umku": "912010771019600010001",
        "nama": "DARMAWISATA INDONESIA",
        "website": "darmawisataindonesia.co.id",
        "sektor": "Sektor Transportasi",
        "nama_perusahaan": "DARMAWISATA INDONESIA",
        "tanggal_daftar": "2022-07-22",
        "nomor_tanda_daftar": "006105.01/DJAI.PSE/07/2022",
        "qr_code": "https://pse.kominfo.go.id/storage/images/qr_code/ba9a6d1416e74e8a0dd16862adcc3c05.png",
        "status_id": "TERDAFTAR",
        "sistem_elektronik_id": 8652
      }
    },
    {
      "type": "tdpseTerbit",
      "id": 8726,
      "attributes": {
        "nomor_pb_umku": "912050074141200000001",
        "nama": "PT BANK PERKREDITAN RAKYAT NUSAMBA MENGWI",
        "website": "bprnusamba-mengwi.com",
        "sektor": "Sektor Keuangan",
        "nama_perusahaan": "BANK PERKREDITAN RAKYAT NUSAMBA MENGWI",
        "tanggal_daftar": "2022-07-22",
        "nomor_tanda_daftar": "006102.01/DJAI.PSE/07/2022",
        "qr_code": "https://pse.kominfo.go.id/storage/images/qr_code/6d99e465d41c0d99ef4f90838b29348c.png",
        "status_id": "TERDAFTAR",
        "sistem_elektronik_id": 8640
      }
    },
    {
      "type": "tdpseTerbit",
      "id": 8800,
      "attributes": {
        "nomor_pb_umku": "022000340231100010001",
        "nama": "BPR CARUBAN INDAH",
        "website": "-",
        "sektor": "Sektor Keuangan",
        "nama_perusahaan": "BANK PERKREDITAN RAKYAT CARUBAN INDAH",
        "tanggal_daftar": "2022-07-22",
        "nomor_tanda_daftar": "006101.01/DJAI.PSE/07/2022",
        "qr_code": "https://pse.kominfo.go.id/storage/images/qr_code/bd3689a192d4133db33b37220afb8023.png",
        "status_id": "TERDAFTAR",
        "sistem_elektronik_id": 8717
      }
    }
  ]
}