{
  "meta": {
    "page": {
      "currentPage": 901,
      "from": 9001,
      "lastPage": 1097,
      "perPage": 10,
      "to": 9010,
      "total": 10962
    }
  },
  "data": [
    {
      "type": "tdpseTerbit",
      "id": 1418,
      "attributes": {
        "nomor_pb_umku": null,
        "nama": "Guru Kreator",
        "website": "https://www.gurukreator.id/",
        "sektor": "Sektor Teknologi Informasi dan Komunikasi",
        "nama_perusahaan": "CAHAYA MITRA HARAPAN",
        "tanggal_daftar": "2021-06-09",
        "nomor_tanda_daftar": "000942.01/DJAI.PSE/06/2021",
        "qr_code": "https://pse.kominfo.go.id/storage/images/qr_code/bb7f3c051f3f8e02447953f17e53fac9.png",
        "status_id": "TERDAFTAR",
        "sistem_elektronik_id": 1033
      }
    },
    {
      "type": "tdpseTerbit",
      "id": 1417,
      "attributes": {
        "nomor_pb_umku": null,
        "nama": "Kokikit Indonesia Teknologi",
        "website": "https://www.kokikit.com",
        "sektor": "Sektor Pangan, Sektor Perdagangan, Sektor Teknologi Informasi dan Komunikasi",
        "nama_perusahaan": "KOKIKIT INDONESIA TEKNOLOGI",
        "tanggal_daftar": "2021-06-09",
        "nomor_tanda_daftar": "000941.01/DJAI.PSE/06/2021",
        "qr_code": "https://pse.kominfo.go.id/storage/images/qr_code/1bddca8b3ec01f3a6d1c95481935d608.png",
        "status_id": "TERDAFTAR",
        "sistem_elektronik_id": 1037
      }
    },
    {
      "type": "tdpseTerbit",
      "id": 1414,
      "attributes": {
        "nomor_pb_umku": null,
        "nama": "Sah! Ya",
        "website": "https://www.sahya.co.id/",
        "sektor": "Sektor Teknologi Informasi dan Komunikasi",
        "nama_perusahaan": "SAH INDONESIA JAYA",
        "tanggal_daftar": "2021-06-09",
        "nomor_tanda_daftar": "000940.01/DJAI.PSE/06/2021",
        "qr_code": "https://pse.kominfo.go.id/storage/images/qr_code/bb34f84cb3f0785d547f8fe7f4479935.png",
        "status_id": "TERDAFTAR",
        "sistem_elektronik_id": 810
      }
    },
    {
      "type": "tdpseTerbit",
      "id": 1413,
      "attributes": {
        "nomor_pb_umku": null,
        "nama": "Hans Tekno Internasional",
        "website": "-",
        "sektor": "Sektor Keuangan",
        "nama_perusahaan": "HANS TEKNO INTERNASIONAL",
        "tanggal_daftar": "2021-06-09",
        "nomor_tanda_daftar": "000939.01/DJAI.PSE/06/2021",
        "qr_code": "https://pse.kominfo.go.id/storage/images/qr_code/29528f21388f060960c9d4c36994a2a2.png",
        "status_id": "TERDAFTAR",
        "sistem_elektronik_id": 1021
      }
    },
    {
      "type": "tdpseTerbit",
      "id": 1410,
      "attributes": {
        "nomor_pb_umku": null,
        "nama": "gotomalls.com",
        "website": "www.digiprimatera.co.id",
        "sektor": "Sektor Teknologi Informasi dan Komunikasi",
        "nama_perusahaan": "DIGITAL PRIMA SEJAHTERA",
        "tanggal_daftar": "2021-06-09",
        "nomor_tanda_daftar": "000938.01/DJAI.PSE/06/2021",
        "qr_code": "https://pse.kominfo.go.id/storage/images/qr_code/11572c975567caad2f7e72ea750c4a8f.png",
        "status_id": "TERDAFTAR",
        "sistem_elektronik_id": 1027
      }
    },
    {
      "type": "tdpseTerbit",
      "id": 1409,
      "attributes": {
        "nomor_pb_umku": null,
        "nama": "RUPIAH KILAT",
        "website": "http://www.rupiahkilat.com/",
        "sektor": "Sektor Teknologi Informasi dan Komunikasi",
        "nama_perusahaan": "SIMPAN PINJAM SATU BERKAH MULIA",
        "tanggal_daftar": "2021-06-09",
        "nomor_tanda_daftar": "000937.01/DJAI.PSE/06/2021",
        "qr_code": "https://pse.kominfo.go.id/storage/images/qr_code/bf8a5a242819f62ecc2b13372ea37d36.png",
        "status_id": "TERDAFTAR",
        "sistem_elektronik_id": 1035
      }
    },
    {
      "type": "tdpseTerbit",
      "id": 1406,
      "attributes": {
        "nomor_pb_umku": null,
        "nama": "ASET - Artha Sekuritas Eletronik Trading",
        "website": "-",
        "sektor": "Sektor Keuangan",
        "nama_perusahaan": "ARTHA SEKURITAS INDONESIA",
        "tanggal_daftar": "2021-06-09",
        "nomor_tanda_daftar": "000936.01/DJAI.PSE/06/2021",
        "qr_code": "https://pse.kominfo.go.id/storage/images/qr_code/c7e1cf819df5f61d11850ab8e91d049f.png",
        "status_id": "TERDAFTAR",
        "sistem_elektronik_id": 958
      }
    },
    {
      "type": "tdpseTerbit",
      "id": 1405,
      "attributes": {
        "nomor_pb_umku": null,
        "nama": "GERBANGAKSES",
        "website": "gerbangakses.id",
        "sektor": "Sektor Teknologi Informasi dan Komunikasi",
        "nama_perusahaan": "GERBANG AKSES INDONESIA",
        "tanggal_daftar": "2021-06-09",
        "nomor_tanda_daftar": "000935.01/DJAI.PSE/06/2021",
        "qr_code": "https://pse.kominfo.go.id/storage/images/qr_code/0f839086980b940d40a80e5f0a488ab7.png",
        "status_id": "TERDAFTAR",
        "sistem_elektronik_id": 2812
      }
    },
    {
      "type": "tdpseTerbit",
      "id": 1402,
      "attributes": {
        "nomor_pb_umku": null,
        "nama": "Aku Pintar Indonesia",
        "website": "https://akupintar.id",
        "sektor": "Sektor Teknologi Informasi dan Komunikasi",
        "nama_perusahaan": "AKU PINTAR INDONESIA",
        "tanggal_daftar": "2021-06-09",
        "nomor_tanda_daftar": "000934.01/DJAI.PSE/06/2021",
        "qr_code": "https://pse.kominfo.go.id/storage/images/qr_code/ca4999aab50e86da833bbede2079d4b6.png",
        "status_id": "TERDAFTAR",
        "sistem_elektronik_id": 978
      }
    },
    {
      "type": "tdpseTerbit",
      "id": 1942,
      "attributes": {
        "nomor_pb_umku": null,
        "nama": "Komuno",
        "website": "http://komuno.id/",
        "sektor": "Sektor Teknologi Informasi dan Komunikasi",
        "nama_perusahaan": "FANTASTIS ANAK BANGSA INDONESIA",
        "tanggal_daftar": "2021-10-04",
        "nomor_tanda_daftar": "000933.02/DJAI.PSE/10/2021",
        "qr_code": "https://pse.kominfo.go.id/storage/images/qr_code/c7ebbd0e89cfafa54f56643b3ec94609.png",
        "status_id": "TERDAFTAR",
        "sistem_elektronik_id": 675
      }
    }
  ]
}