{
  "meta": {
    "page": {
      "currentPage": 903,
      "from": 9021,
      "lastPage": 1028,
      "perPage": 10,
      "to": 9030,
      "total": 10273
    }
  },
  "data": [
    {
      "type": "tdpseTerbit",
      "id": 879,
      "attributes": {
        "nomor_pb_umku": null,
        "nama": "Rachel",
        "website": "taytb.com/rachel",
        "sektor": "Sektor Teknologi Informasi dan Komunikasi",
        "nama_perusahaan": "BANK OCBC NISP Tbk",
        "tanggal_daftar": "2021-05-11",
        "nomor_tanda_daftar": "000627.07/DJAI.PSE/05/2021",
        "qr_code": "https://pse.kominfo.go.id/storage/images/qr_code/19393d31ac6e2077fc03e514384fe7ae.png",
        "status_id": "TERDAFTAR",
        "sistem_elektronik_id": 28
      }
    },
    {
      "type": "tdpseTerbit",
      "id": 878,
      "attributes": {
        "nomor_pb_umku": null,
        "nama": "Raih.id",
        "website": "https://raih.id/",
        "sektor": "Sektor Keuangan, Sektor Teknologi Informasi dan Komunikasi",
        "nama_perusahaan": "BANK OCBC NISP Tbk",
        "tanggal_daftar": "2021-05-11",
        "nomor_tanda_daftar": "000627.06/DJAI.PSE/05/2021",
        "qr_code": "https://pse.kominfo.go.id/storage/images/qr_code/f8b5fd62a9937f3f6d2f8c3613b57bac.png",
        "status_id": "TERDAFTAR",
        "sistem_elektronik_id": 3697
      }
    },
    {
      "type": "tdpseTerbit",
      "id": 877,
      "attributes": {
        "nomor_pb_umku": null,
        "nama": "One DNA",
        "website": "https://ktaonline.ocbcnisp.com",
        "sektor": "Sektor Keuangan",
        "nama_perusahaan": "BANK OCBC NISP Tbk",
        "tanggal_daftar": "2021-05-11",
        "nomor_tanda_daftar": "000627.05/DJAI.PSE/05/2021",
        "qr_code": "https://pse.kominfo.go.id/storage/images/qr_code/4715826c0eb0af039533e1e849c70791.png",
        "status_id": "TERDAFTAR",
        "sistem_elektronik_id": 27
      }
    },
    {
      "type": "tdpseTerbit",
      "id": 876,
      "attributes": {
        "nomor_pb_umku": null,
        "nama": "Whistleblowing",
        "website": "https://whistleblowing.ocbcnisp.com/",
        "sektor": "Sektor Teknologi Informasi dan Komunikasi",
        "nama_perusahaan": "BANK OCBC NISP Tbk",
        "tanggal_daftar": "2021-05-11",
        "nomor_tanda_daftar": "000627.04/DJAI.PSE/05/2021",
        "qr_code": "https://pse.kominfo.go.id/storage/images/qr_code/3e455b79821310a47172d9a0412792d0.png",
        "status_id": "TERDAFTAR",
        "sistem_elektronik_id": 26
      }
    },
    {
      "type": "tdpseTerbit",
      "id": 875,
      "attributes": {
        "nomor_pb_umku": null,
        "nama": "Onboarding Website",
        "website": "https://onestore.ocbcnisp.com/",
        "sektor": "Sektor Keuangan",
        "nama_perusahaan": "BANK OCBC NISP Tbk",
        "tanggal_daftar": "2021-05-11",
        "nomor_tanda_daftar": "000627.03/DJAI.PSE/05/2021",
        "qr_code": "https://pse.kominfo.go.id/storage/images/qr_code/52345ff06e10e2b94f08553b8eb08302.png",
        "status_id": "TERDAFTAR",
        "sistem_elektronik_id": 3696
      }
    },
    {
      "type": "tdpseTerbit",
      "id": 874,
      "attributes": {
        "nomor_pb_umku": null,
        "nama": "Velocity@ocbcnisp Versi Mobile",
        "website": "-",
        "sektor": "Sektor Keuangan",
        "nama_perusahaan": "BANK OCBC NISP Tbk",
        "tanggal_daftar": "2021-05-11",
        "nomor_tanda_daftar": "000627.02/DJAI.PSE/05/2021",
        "qr_code": "https://pse.kominfo.go.id/storage/images/qr_code/13ea1103e36f6189270ae8fc456fc400.png",
        "status_id": "TERDAFTAR",
        "sistem_elektronik_id": 25
      }
    },
    {
      "type": "tdpseTerbit",
      "id": 777,
      "attributes": {
        "nomor_pb_umku": null,
        "nama": "Velocity@ocbcnisp",
        "website": "https://newvelocity.ocbcnisp.com/",
        "sektor": "Sektor Keuangan",
        "nama_perusahaan": "BANK OCBC NISP Tbk",
        "tanggal_daftar": "2021-05-07",
        "nomor_tanda_daftar": "000627.01/DJAI.PSE/05/2021",
        "qr_code": "https://pse.kominfo.go.id/storage/images/qr_code/50b5a3c489dde77330d9c010bb3b58cf.png",
        "status_id": "TERDAFTAR",
        "sistem_elektronik_id": 24
      }
    },
    {
      "type": "tdpseTerbit",
      "id": 775,
      "attributes": {
        "nomor_pb_umku": null,
        "nama": "PT DAVID SISTEM GROUP",
        "website": "davidgroup.co.id",
        "sektor": "Sektor Teknologi Informasi dan Komunikasi",
        "nama_perusahaan": "DAVID SISTEM GROUP",
        "tanggal_daftar": "2021-05-07",
        "nomor_tanda_daftar": "000626.01/DJAI.PSE/05/2021",
        "qr_code": "https://pse.kominfo.go.id/storage/images/qr_code/6e68875aaab757382a07251ded09e1ff.png",
        "status_id": "TERDAFTAR",
        "sistem_elektronik_id": 2421
      }
    },
    {
      "type": "tdpseTerbit",
      "id": 773,
      "attributes": {
        "nomor_pb_umku": null,
        "nama": "Gigacover Indonesia",
        "website": "https://gigacover.com/",
        "sektor": "Sektor Perdagangan",
        "nama_perusahaan": "GIGACOVER TECHNOLOGIES INDONESIA",
        "tanggal_daftar": "2021-05-07",
        "nomor_tanda_daftar": "000625.01/DJAI.PSE/05/2021",
        "qr_code": "https://pse.kominfo.go.id/storage/images/qr_code/c0075a78242a0e6b9bf574bf5800c2dc.png",
        "status_id": "TERDAFTAR",
        "sistem_elektronik_id": 496
      }
    },
    {
      "type": "tdpseTerbit",
      "id": 771,
      "attributes": {
        "nomor_pb_umku": null,
        "nama": "TRUSTIQ",
        "website": "www.trustiq.id",
        "sektor": "Sektor Keuangan",
        "nama_perusahaan": "TRUST TEKNOLOGI FINANSIAL",
        "tanggal_daftar": "2021-05-07",
        "nomor_tanda_daftar": "000624.01/DJAI.PSE/05/2021",
        "qr_code": "https://pse.kominfo.go.id/storage/images/qr_code/3a8c47459cb9f2834f2573478c44f073.png",
        "status_id": "TERDAFTAR",
        "sistem_elektronik_id": 588
      }
    }
  ]
}