{
  "meta": {
    "page": {
      "currentPage": 905,
      "from": 9041,
      "lastPage": 1001,
      "perPage": 10,
      "to": 9050,
      "total": 10002
    }
  },
  "data": [
    {
      "type": "tdpseTerbit",
      "id": 575,
      "attributes": {
        "nomor_pb_umku": null,
        "nama": "paydollar.co.id",
        "website": "https://www.paydollar.co.id/",
        "sektor": "Sektor Keuangan",
        "nama_perusahaan": "ASIAPAY TECHNOLOGY INDONESIA",
        "tanggal_daftar": "2021-04-26",
        "nomor_tanda_daftar": "000469.01/DJAI.PSE/04/2021",
        "qr_code": "https://pse.kominfo.go.id/storage/images/qr_code/ab79fca7c7200dde8cea36deb8cc2c7e.png",
        "status_id": "TERDAFTAR",
        "sistem_elektronik_id": 2560
      }
    },
    {
      "type": "tdpseTerbit",
      "id": 2828,
      "attributes": {
        "nomor_pb_umku": null,
        "nama": "Boost",
        "website": "myboost.co.id",
        "sektor": "Sektor Keuangan",
        "nama_perusahaan": "CREATIVE MOBILE ADVENTURE",
        "tanggal_daftar": "2021-12-21",
        "nomor_tanda_daftar": "000468.02/DJAI.PSE/12/2021",
        "qr_code": "https://pse.kominfo.go.id/storage/images/qr_code/c1f816369dd8500dd3a46efc76a5b488.png",
        "status_id": "TERDAFTAR",
        "sistem_elektronik_id": 2800
      }
    },
    {
      "type": "tdpseTerbit",
      "id": 4191,
      "attributes": {
        "nomor_pb_umku": "040422002988900000001",
        "nama": "PAKETINDO",
        "website": "paketindo.id",
        "sektor": "Sektor Teknologi Informasi dan Komunikasi",
        "nama_perusahaan": "TECHINDO SENTOSA RAYA",
        "tanggal_daftar": "2022-05-31",
        "nomor_tanda_daftar": "000468.01/DJAI.PSE/05/2022",
        "qr_code": "https://pse.kominfo.go.id/storage/images/qr_code/e8b3cde75d6c731717cd1353f3c77178.png",
        "status_id": "TERDAFTAR",
        "sistem_elektronik_id": 4193
      }
    },
    {
      "type": "tdpseTerbit",
      "id": 574,
      "attributes": {
        "nomor_pb_umku": null,
        "nama": "Aspirasi",
        "website": "aspirasi.co.id",
        "sektor": "Sektor Keuangan",
        "nama_perusahaan": "CREATIVE MOBILE ADVENTURE",
        "tanggal_daftar": "2021-04-26",
        "nomor_tanda_daftar": "000468.01/DJAI.PSE/04/2021",
        "qr_code": "https://pse.kominfo.go.id/storage/images/qr_code/4bf8243acd6a5bd643da5a1db1180023.png",
        "status_id": "TERDAFTAR",
        "sistem_elektronik_id": 2799
      }
    },
    {
      "type": "tdpseTerbit",
      "id": 4198,
      "attributes": {
        "nomor_pb_umku": "010422002678900000001",
        "nama": "BEBAS",
        "website": "bebasinvestasi.com",
        "sektor": "Sektor Teknologi Informasi dan Komunikasi",
        "nama_perusahaan": "BEBAS INVESTAMA GLOBAL",
        "tanggal_daftar": "2022-05-31",
        "nomor_tanda_daftar": "000467.01/DJAI.PSE/05/2022",
        "qr_code": "https://pse.kominfo.go.id/storage/images/qr_code/4b12cbb5132ba943f2b4509fc633bac1.png",
        "status_id": "TERDAFTAR",
        "sistem_elektronik_id": 4196
      }
    },
    {
      "type": "tdpseTerbit",
      "id": 572,
      "attributes": {
        "nomor_pb_umku": null,
        "nama": "NEU",
        "website": "-",
        "sektor": "Sektor Perdagangan",
        "nama_perusahaan": "NEU INKLUSI KEUANGAN",
        "tanggal_daftar": "2021-04-26",
        "nomor_tanda_daftar": "000467.01/DJAI.PSE/04/2021",
        "qr_code": "https://pse.kominfo.go.id/storage/images/qr_code/27396d3c490307242ca7841d35f60a61.png",
        "status_id": "TERDAFTAR",
        "sistem_elektronik_id": 144
      }
    },
    {
      "type": "tdpseTerbit",
      "id": 573,
      "attributes": {
        "nomor_pb_umku": null,
        "nama": "FlashJob",
        "website": "flashjob.blue",
        "sektor": "Sektor Teknologi Informasi dan Komunikasi",
        "nama_perusahaan": "FORTUNA PLATINA INDONESIA",
        "tanggal_daftar": "2021-04-26",
        "nomor_tanda_daftar": "000466.02/DJAI.PSE/04/2021",
        "qr_code": "https://pse.kominfo.go.id/storage/images/qr_code/f840d8f7f134bf94b505020b0439fc82.png",
        "status_id": "TERDAFTAR",
        "sistem_elektronik_id": 2648
      }
    },
    {
      "type": "tdpseTerbit",
      "id": 571,
      "attributes": {
        "nomor_pb_umku": null,
        "nama": "Licorice Indonesia",
        "website": "licorice.pink/?locale=indo",
        "sektor": "Sektor Teknologi Informasi dan Komunikasi",
        "nama_perusahaan": "FORTUNA PLATINA INDONESIA",
        "tanggal_daftar": "2021-04-26",
        "nomor_tanda_daftar": "000466.01/DJAI.PSE/04/2021",
        "qr_code": "https://pse.kominfo.go.id/storage/images/qr_code/46d97b208b6e61f68ebd7122a743d968.png",
        "status_id": "TERDAFTAR",
        "sistem_elektronik_id": 2647
      }
    },
    {
      "type": "tdpseTerbit",
      "id": 4206,
      "attributes": {
        "nomor_pb_umku": "041121001530200010001",
        "nama": "AYOCONNECT INSIGHT",
        "website": "-",
        "sektor": "Sektor Keuangan, Sektor Teknologi Informasi dan Komunikasi",
        "nama_perusahaan": "INSIGHT INOVASI INDONESIA",
        "tanggal_daftar": "2022-06-02",
        "nomor_tanda_daftar": "000465.01/DJAI.PSE/06/2022",
        "qr_code": "https://pse.kominfo.go.id/storage/images/qr_code/afcaa793e9c002381927b532e95647f3.png",
        "status_id": "TERDAFTAR",
        "sistem_elektronik_id": 4205
      }
    },
    {
      "type": "tdpseTerbit",
      "id": 570,
      "attributes": {
        "nomor_pb_umku": null,
        "nama": "Amazon Data Services Indonesia",
        "website": "https://aws.amazon.com/id/",
        "sektor": "Sektor Teknologi Informasi dan Komunikasi",
        "nama_perusahaan": "AMAZON DATA SERVICES INDONESIA",
        "tanggal_daftar": "2021-04-26",
        "nomor_tanda_daftar": "000465.01/DJAI.PSE/04/2021",
        "qr_code": "https://pse.kominfo.go.id/storage/images/qr_code/d9d496913d8ac7601a265e64ebcd1b5e.png",
        "status_id": "TERDAFTAR",
        "sistem_elektronik_id": 3252
      }
    }
  ]
}