{
  "meta": {
    "page": {
      "currentPage": 906,
      "from": 9051,
      "lastPage": 1046,
      "perPage": 10,
      "to": 9060,
      "total": 10457
    }
  },
  "data": [
    {
      "type": "tdpseTerbit",
      "id": 1002,
      "attributes": {
        "nomor_pb_umku": null,
        "nama": "Finfini",
        "website": "https://finfini.com/",
        "sektor": "Sektor Perdagangan",
        "nama_perusahaan": "LUNARIA ANNUA INVESTASI",
        "tanggal_daftar": "2021-05-17",
        "nomor_tanda_daftar": "000746.01/DJAI.PSE/05/2021",
        "qr_code": "https://pse.kominfo.go.id/storage/images/qr_code/ff485f65d0186f5b41d9afe56c03ae93.png",
        "status_id": "TERDAFTAR",
        "sistem_elektronik_id": 411
      }
    },
    {
      "type": "tdpseTerbit",
      "id": 1001,
      "attributes": {
        "nomor_pb_umku": null,
        "nama": "XSaver - Aplikasi Reksa Dana,  XDana Pro - Aplikasi Reksa Dana,  XDana Syariah - Aplikasi Reksa Dana, Web - Reksa Dana Online",
        "website": "www.xdana.com",
        "sektor": "Sektor Keuangan",
        "nama_perusahaan": "XDANA INVESTA INDONESIA",
        "tanggal_daftar": "2021-05-17",
        "nomor_tanda_daftar": "000745.01/DJAI.PSE/05/2021",
        "qr_code": "https://pse.kominfo.go.id/storage/images/qr_code/26a90b3d332e308c4d6d652b9eae7495.png",
        "status_id": "TERDAFTAR",
        "sistem_elektronik_id": 3315
      }
    },
    {
      "type": "tdpseTerbit",
      "id": 1719,
      "attributes": {
        "nomor_pb_umku": null,
        "nama": "www.hypermart.co.id (Website Hypermart)",
        "website": "www.hypermart.co.id",
        "sektor": "Sektor Perdagangan",
        "nama_perusahaan": "MATAHARI PUTRA PRIMA",
        "tanggal_daftar": "2021-07-15",
        "nomor_tanda_daftar": "000744.03/DJAI.PSE/07/2021",
        "qr_code": "https://pse.kominfo.go.id/storage/images/qr_code/620d130cc95cdac28548aff29a566901.png",
        "status_id": "TERDAFTAR",
        "sistem_elektronik_id": 315
      }
    },
    {
      "type": "tdpseTerbit",
      "id": 1000,
      "attributes": {
        "nomor_pb_umku": null,
        "nama": "hypermart",
        "website": "-",
        "sektor": "Sektor Perdagangan",
        "nama_perusahaan": "MATAHARI PUTRA PRIMA",
        "tanggal_daftar": "2021-05-17",
        "nomor_tanda_daftar": "000744.02/DJAI.PSE/05/2021",
        "qr_code": "https://pse.kominfo.go.id/storage/images/qr_code/a03abf993ad11ee4c3c9a1725cb7f675.png",
        "status_id": "TERDAFTAR",
        "sistem_elektronik_id": 314
      }
    },
    {
      "type": "tdpseTerbit",
      "id": 999,
      "attributes": {
        "nomor_pb_umku": null,
        "nama": "https://shop.hypermart.co.id/hypermart/",
        "website": "shop.hypermart.co.id",
        "sektor": "Sektor Perdagangan",
        "nama_perusahaan": "MATAHARI PUTRA PRIMA",
        "tanggal_daftar": "2021-05-17",
        "nomor_tanda_daftar": "000744.01/DJAI.PSE/05/2021",
        "qr_code": "https://pse.kominfo.go.id/storage/images/qr_code/7c9744e0927fbeb22754daf11f96f882.png",
        "status_id": "TERDAFTAR",
        "sistem_elektronik_id": 313
      }
    },
    {
      "type": "tdpseTerbit",
      "id": 998,
      "attributes": {
        "nomor_pb_umku": null,
        "nama": "Ngorder",
        "website": "https://ngorder.id",
        "sektor": "Sektor Teknologi Informasi dan Komunikasi",
        "nama_perusahaan": "AYO TECHNO IDEA",
        "tanggal_daftar": "2021-05-17",
        "nomor_tanda_daftar": "000743.01/DJAI.PSE/05/2021",
        "qr_code": "https://pse.kominfo.go.id/storage/images/qr_code/2c531deaa38fc63edd834fd860196156.png",
        "status_id": "TERDAFTAR",
        "sistem_elektronik_id": 724
      }
    },
    {
      "type": "tdpseTerbit",
      "id": 997,
      "attributes": {
        "nomor_pb_umku": null,
        "nama": "DARWIN CLAIM MANAGEMENT SYSTEM",
        "website": "URL https://darwinprod.sg.sedgwick.com",
        "sektor": "Sektor Keuangan",
        "nama_perusahaan": "CUNNINGHAM LINDSEY INDONESIA",
        "tanggal_daftar": "2021-05-17",
        "nomor_tanda_daftar": "000742.01/DJAI.PSE/05/2021",
        "qr_code": "https://pse.kominfo.go.id/storage/images/qr_code/f25ed44833ef79534581097c8d94d20d.png",
        "status_id": "TERDAFTAR",
        "sistem_elektronik_id": 743
      }
    },
    {
      "type": "tdpseTerbit",
      "id": 995,
      "attributes": {
        "nomor_pb_umku": null,
        "nama": "Website Corporate",
        "website": "www.arthagraha.com",
        "sektor": "Sektor Keuangan",
        "nama_perusahaan": "BANK ARTHA GRAHA INTERNASIONAL",
        "tanggal_daftar": "2021-05-17",
        "nomor_tanda_daftar": "000741.06/DJAI.PSE/05/2021",
        "qr_code": "https://pse.kominfo.go.id/storage/images/qr_code/c9ac9cb7e011bdedcf0b1bfac2643920.png",
        "status_id": "TERDAFTAR",
        "sistem_elektronik_id": 738
      }
    },
    {
      "type": "tdpseTerbit",
      "id": 994,
      "attributes": {
        "nomor_pb_umku": null,
        "nama": "AGI Pay",
        "website": "-",
        "sektor": "Sektor Keuangan",
        "nama_perusahaan": "BANK ARTHA GRAHA INTERNASIONAL",
        "tanggal_daftar": "2021-05-17",
        "nomor_tanda_daftar": "000741.05/DJAI.PSE/05/2021",
        "qr_code": "https://pse.kominfo.go.id/storage/images/qr_code/0f47e02e0813009d4eea22d711e28759.png",
        "status_id": "TERDAFTAR",
        "sistem_elektronik_id": 737
      }
    },
    {
      "type": "tdpseTerbit",
      "id": 993,
      "attributes": {
        "nomor_pb_umku": null,
        "nama": "Laku Pandai",
        "website": "-",
        "sektor": "Sektor Keuangan",
        "nama_perusahaan": "BANK ARTHA GRAHA INTERNASIONAL",
        "tanggal_daftar": "2021-05-17",
        "nomor_tanda_daftar": "000741.04/DJAI.PSE/05/2021",
        "qr_code": "https://pse.kominfo.go.id/storage/images/qr_code/d0dc665c25bc76dc850362860b4797a7.png",
        "status_id": "TERDAFTAR",
        "sistem_elektronik_id": 736
      }
    }
  ]
}