{
  "meta": {
    "page": {
      "currentPage": 908,
      "from": 9071,
      "lastPage": 970,
      "perPage": 10,
      "to": 9080,
      "total": 9692
    }
  },
  "data": [
    {
      "type": "tdpseTerbit",
      "id": 4307,
      "attributes": {
        "nomor_pb_umku": "024601101250600000001",
        "nama": "NYMBI",
        "website": "copytrade.nymbi.id",
        "sektor": "Sektor Teknologi Informasi dan Komunikasi",
        "nama_perusahaan": "SOFIN TEKNOLOGI UTAMA",
        "tanggal_daftar": "2022-06-09",
        "nomor_tanda_daftar": "000316.01/DJAI.PSE/06/2022",
        "qr_code": "https://pse.kominfo.go.id/storage/images/qr_code/4f827e09afe593c5d314cd017817f9aa.png",
        "status_id": "TERDAFTAR",
        "sistem_elektronik_id": 4300
      }
    },
    {
      "type": "tdpseTerbit",
      "id": 389,
      "attributes": {
        "nomor_pb_umku": null,
        "nama": "Knowme",
        "website": "https://www.knowme.link",
        "sektor": "Sektor Teknologi Informasi dan Komunikasi",
        "nama_perusahaan": "SERTIFIKASI BIODATA DIRI",
        "tanggal_daftar": "2021-03-15",
        "nomor_tanda_daftar": "000316.01/DJAI.PSE/03/2021",
        "qr_code": "https://pse.kominfo.go.id/storage/images/qr_code/7f0bb393d8236dc91f66f92fa5fb20d4.png",
        "status_id": "TERDAFTAR",
        "sistem_elektronik_id": 163
      }
    },
    {
      "type": "tdpseTerbit",
      "id": 387,
      "attributes": {
        "nomor_pb_umku": null,
        "nama": "Mangdropship",
        "website": "mangdropship.id",
        "sektor": "Sektor Perdagangan, Sektor Teknologi Informasi dan Komunikasi",
        "nama_perusahaan": "MANGDROPSHIP KARYA INTERLOKA",
        "tanggal_daftar": "2021-03-15",
        "nomor_tanda_daftar": "000315.01/DJAI.PSE/03/2021",
        "qr_code": "https://pse.kominfo.go.id/storage/images/qr_code/81beac8e9949643b44636d2215c5e160.png",
        "status_id": "TERDAFTAR",
        "sistem_elektronik_id": 152
      }
    },
    {
      "type": "tdpseTerbit",
      "id": 7229,
      "attributes": {
        "nomor_pb_umku": "022020872134800000003",
        "nama": "EANTREAN ONLINE",
        "website": "eantrean.id",
        "sektor": "Sektor Kesehatan, Sektor Teknologi Informasi dan Komunikasi",
        "nama_perusahaan": "INFOKES INDONESIA",
        "tanggal_daftar": "2022-07-19",
        "nomor_tanda_daftar": "000314.11/DJAI.PSE/07/2022",
        "qr_code": "https://pse.kominfo.go.id/storage/images/qr_code/1b6f359ffc76dc1549f804419800e4eb.png",
        "status_id": "TERDAFTAR",
        "sistem_elektronik_id": 7118
      }
    },
    {
      "type": "tdpseTerbit",
      "id": 7218,
      "attributes": {
        "nomor_pb_umku": "022020872134800000002",
        "nama": "EPOSYANDU",
        "website": "eposyandu.id",
        "sektor": "Sektor Kesehatan, Sektor Teknologi Informasi dan Komunikasi",
        "nama_perusahaan": "INFOKES INDONESIA",
        "tanggal_daftar": "2022-07-19",
        "nomor_tanda_daftar": "000314.10/DJAI.PSE/07/2022",
        "qr_code": "https://pse.kominfo.go.id/storage/images/qr_code/ac74cee3c948113820d281673b248c8d.png",
        "status_id": "TERDAFTAR",
        "sistem_elektronik_id": 7104
      }
    },
    {
      "type": "tdpseTerbit",
      "id": 7190,
      "attributes": {
        "nomor_pb_umku": "022020872134800000001",
        "nama": "EPOSKESTREN",
        "website": "eposkestren.id",
        "sektor": "Sektor Kesehatan, Sektor Teknologi Informasi dan Komunikasi",
        "nama_perusahaan": "INFOKES INDONESIA",
        "tanggal_daftar": "2022-07-19",
        "nomor_tanda_daftar": "000314.09/DJAI.PSE/07/2022",
        "qr_code": "https://pse.kominfo.go.id/storage/images/qr_code/879e2f841855b03636c5678a1ebbaa69.png",
        "status_id": "TERDAFTAR",
        "sistem_elektronik_id": 7077
      }
    },
    {
      "type": "tdpseTerbit",
      "id": 1416,
      "attributes": {
        "nomor_pb_umku": null,
        "nama": "ePustu",
        "website": "epuskesmas.id",
        "sektor": "Sektor Kesehatan, Sektor Teknologi Informasi dan Komunikasi",
        "nama_perusahaan": "INFOKES INDONESIA",
        "tanggal_daftar": "2021-06-09",
        "nomor_tanda_daftar": "000314.08/DJAI.PSE/06/2021",
        "qr_code": "https://pse.kominfo.go.id/storage/images/qr_code/bedbcd019436b945c32cf5e1c992c0a3.png",
        "status_id": "TERDAFTAR",
        "sistem_elektronik_id": 2511
      }
    },
    {
      "type": "tdpseTerbit",
      "id": 1415,
      "attributes": {
        "nomor_pb_umku": null,
        "nama": "eBidan",
        "website": "ebidan.id",
        "sektor": "Sektor Kesehatan, Sektor Teknologi Informasi dan Komunikasi",
        "nama_perusahaan": "INFOKES INDONESIA",
        "tanggal_daftar": "2021-06-09",
        "nomor_tanda_daftar": "000314.07/DJAI.PSE/06/2021",
        "qr_code": "https://pse.kominfo.go.id/storage/images/qr_code/94922e4859370496e568786f1073c13f.png",
        "status_id": "TERDAFTAR",
        "sistem_elektronik_id": 2510
      }
    },
    {
      "type": "tdpseTerbit",
      "id": 1408,
      "attributes": {
        "nomor_pb_umku": null,
        "nama": "eHospital",
        "website": "ehospital.id",
        "sektor": "Sektor Kesehatan, Sektor Teknologi Informasi dan Komunikasi",
        "nama_perusahaan": "INFOKES INDONESIA",
        "tanggal_daftar": "2021-06-09",
        "nomor_tanda_daftar": "000314.06/DJAI.PSE/06/2021",
        "qr_code": "https://pse.kominfo.go.id/storage/images/qr_code/f3bb48a31261c61ce2f71dfefb399635.png",
        "status_id": "TERDAFTAR",
        "sistem_elektronik_id": 2509
      }
    },
    {
      "type": "tdpseTerbit",
      "id": 1407,
      "attributes": {
        "nomor_pb_umku": null,
        "nama": "eAntrean",
        "website": "eantrian.id",
        "sektor": "Sektor Kesehatan, Sektor Teknologi Informasi dan Komunikasi",
        "nama_perusahaan": "INFOKES INDONESIA",
        "tanggal_daftar": "2021-06-09",
        "nomor_tanda_daftar": "000314.05/DJAI.PSE/06/2021",
        "qr_code": "https://pse.kominfo.go.id/storage/images/qr_code/dfa646ac674c01478221264fecc49b9b.png",
        "status_id": "TERDAFTAR",
        "sistem_elektronik_id": 2508
      }
    }
  ]
}