{
  "meta": {
    "page": {
      "currentPage": 909,
      "from": 9081,
      "lastPage": 1047,
      "perPage": 10,
      "to": 9090,
      "total": 10470
    }
  },
  "data": [
    {
      "type": "tdpseTerbit",
      "id": 984,
      "attributes": {
        "nomor_pb_umku": null,
        "nama": "RCTI+",
        "website": "www.rctiplus.com",
        "sektor": "Sektor Teknologi Informasi dan Komunikasi",
        "nama_perusahaan": "MNC DIGITAL INDONESIA",
        "tanggal_daftar": "2021-05-17",
        "nomor_tanda_daftar": "000738.01/DJAI.PSE/05/2021",
        "qr_code": "https://pse.kominfo.go.id/storage/images/qr_code/a1baf37a3ec225614a6e955f391a6f5f.png",
        "status_id": "TERDAFTAR",
        "sistem_elektronik_id": 2475
      }
    },
    {
      "type": "tdpseTerbit",
      "id": 983,
      "attributes": {
        "nomor_pb_umku": null,
        "nama": "Mastore.co.id",
        "website": "http://mastore.co.id/",
        "sektor": "Sektor Perdagangan",
        "nama_perusahaan": "MASTORE SINERGI UTAMA",
        "tanggal_daftar": "2021-05-17",
        "nomor_tanda_daftar": "000737.01/DJAI.PSE/05/2021",
        "qr_code": "https://pse.kominfo.go.id/storage/images/qr_code/b8d684aa029b25e5d485885c6a17957c.png",
        "status_id": "TERDAFTAR",
        "sistem_elektronik_id": 2567
      }
    },
    {
      "type": "tdpseTerbit",
      "id": 11238,
      "attributes": {
        "nomor_pb_umku": "812001315215600010004",
        "nama": "MOFASA",
        "website": "mofasa.id",
        "sektor": "Sektor Perdagangan",
        "nama_perusahaan": "SETIAP HARI DIPAKAI",
        "tanggal_daftar": "2022-09-19",
        "nomor_tanda_daftar": "000736.05/DJAI.PSE/09/2022",
        "qr_code": "https://pse.kominfo.go.id/storage/images/qr_code/c8c719e11967dcdb3d469ea26399f39b.png",
        "status_id": "TERDAFTAR",
        "sistem_elektronik_id": 11045
      }
    },
    {
      "type": "tdpseTerbit",
      "id": 11237,
      "attributes": {
        "nomor_pb_umku": "812001315215600010003",
        "nama": "EVERPRO",
        "website": "everpro.id",
        "sektor": "Sektor Perdagangan, Sektor Transportasi",
        "nama_perusahaan": "SETIAP HARI DIPAKAI",
        "tanggal_daftar": "2022-09-19",
        "nomor_tanda_daftar": "000736.04/DJAI.PSE/09/2022",
        "qr_code": "https://pse.kominfo.go.id/storage/images/qr_code/1dd462781f234d73878211dc1363ee3b.png",
        "status_id": "TERDAFTAR",
        "sistem_elektronik_id": 11044
      }
    },
    {
      "type": "tdpseTerbit",
      "id": 11236,
      "attributes": {
        "nomor_pb_umku": "812001315215600010002",
        "nama": "MOFASA (MANAGEMENT OFFLINE SALES & AGENT)",
        "website": "mofasa.id",
        "sektor": "Sektor Perdagangan",
        "nama_perusahaan": "SETIAP HARI DIPAKAI",
        "tanggal_daftar": "2022-09-19",
        "nomor_tanda_daftar": "000736.03/DJAI.PSE/09/2022",
        "qr_code": "https://pse.kominfo.go.id/storage/images/qr_code/6987ab64935fc5f3b4123ccedf7af78d.png",
        "status_id": "TERDAFTAR",
        "sistem_elektronik_id": 11043
      }
    },
    {
      "type": "tdpseTerbit",
      "id": 3405,
      "attributes": {
        "nomor_pb_umku": null,
        "nama": "Evermos",
        "website": "evermos.com",
        "sektor": "Sektor Perdagangan",
        "nama_perusahaan": "SETIAP HARI DIPAKAI",
        "tanggal_daftar": "2022-03-01",
        "nomor_tanda_daftar": "000736.02/DJAI.PSE/03/2022",
        "qr_code": "https://pse.kominfo.go.id/storage/images/qr_code/307af8945e63b963278e9b79bd6ded40.png",
        "status_id": "TERDAFTAR",
        "sistem_elektronik_id": 3185
      }
    },
    {
      "type": "tdpseTerbit",
      "id": 982,
      "attributes": {
        "nomor_pb_umku": null,
        "nama": "Evermos",
        "website": "https://www.evermos.com",
        "sektor": "Sektor Perdagangan",
        "nama_perusahaan": "SETIAP HARI DIPAKAI",
        "tanggal_daftar": "2021-05-11",
        "nomor_tanda_daftar": "000736.01/DJAI.PSE/05/2021",
        "qr_code": "https://pse.kominfo.go.id/storage/images/qr_code/33833c9e75f6eea6600ac3ed6a6f34c0.png",
        "status_id": "TERDAFTAR",
        "sistem_elektronik_id": 607
      }
    },
    {
      "type": "tdpseTerbit",
      "id": 4377,
      "attributes": {
        "nomor_pb_umku": "022010965168100020003",
        "nama": "JAGA2GO",
        "website": "-",
        "sektor": "Sektor Keuangan",
        "nama_perusahaan": "CENTRAL ASIA FINANCIAL",
        "tanggal_daftar": "2022-06-14",
        "nomor_tanda_daftar": "000735.04/DJAI.PSE/06/2022",
        "qr_code": "https://pse.kominfo.go.id/storage/images/qr_code/6c1481e84f80c3b82c2a6127e32a2a05.png",
        "status_id": "TERDAFTAR",
        "sistem_elektronik_id": 4362
      }
    },
    {
      "type": "tdpseTerbit",
      "id": 4334,
      "attributes": {
        "nomor_pb_umku": "022010965168100020002",
        "nama": "JAGA HUJAN",
        "website": "jagahujan.co.id",
        "sektor": "Sektor Keuangan",
        "nama_perusahaan": "CENTRAL ASIA FINANCIAL",
        "tanggal_daftar": "2022-06-13",
        "nomor_tanda_daftar": "000735.03/DJAI.PSE/06/2022",
        "qr_code": "https://pse.kominfo.go.id/storage/images/qr_code/ad9b9518b669dff1e9a4e53f5f3a0a21.png",
        "status_id": "TERDAFTAR",
        "sistem_elektronik_id": 4321
      }
    },
    {
      "type": "tdpseTerbit",
      "id": 2590,
      "attributes": {
        "nomor_pb_umku": null,
        "nama": "Jagawisata",
        "website": "jagawisata.com",
        "sektor": "Sektor Keuangan",
        "nama_perusahaan": "CENTRAL ASIA FINANCIAL",
        "tanggal_daftar": "2021-12-02",
        "nomor_tanda_daftar": "000735.02/DJAI.PSE/12/2021",
        "qr_code": "https://pse.kominfo.go.id/storage/images/qr_code/646e0a51cdbe049de1363addfe4b76f1.png",
        "status_id": "TERDAFTAR",
        "sistem_elektronik_id": 3314
      }
    }
  ]
}