{
  "meta": {
    "page": {
      "currentPage": 910,
      "from": 9091,
      "lastPage": 937,
      "perPage": 10,
      "to": 9100,
      "total": 9366
    }
  },
  "data": [
    {
      "type": "tdpseTerbit",
      "id": 5726,
      "attributes": {
        "nomor_pb_umku": "812021017278900030002",
        "nama": "PROTEKSI PINTAR (SI PINTAR)",
        "website": "mnc-insurance.com",
        "sektor": "Sektor Keuangan",
        "nama_perusahaan": "MNC ASURANSI INDONESIA",
        "tanggal_daftar": "2022-07-15",
        "nomor_tanda_daftar": "000158.05/DJAI.PSE/07/2022",
        "qr_code": "https://pse.kominfo.go.id/storage/images/qr_code/b34e2bf1457ed0a0e4a0c28f5dafd847.png",
        "status_id": "TERDAFTAR",
        "sistem_elektronik_id": 5590
      }
    },
    {
      "type": "tdpseTerbit",
      "id": 2991,
      "attributes": {
        "nomor_pb_umku": null,
        "nama": "Motion Sure",
        "website": "motion-sure.id",
        "sektor": "Sektor Keuangan",
        "nama_perusahaan": "MNC ASURANSI INDONESIA",
        "tanggal_daftar": "2022-01-07",
        "nomor_tanda_daftar": "000158.04/DJAI.PSE/01/2022",
        "qr_code": "https://pse.kominfo.go.id/storage/images/qr_code/33ca621a7e87157b50a4d34ecbc23329.png",
        "status_id": "TERDAFTAR",
        "sistem_elektronik_id": 2350
      }
    },
    {
      "type": "tdpseTerbit",
      "id": 371,
      "attributes": {
        "nomor_pb_umku": null,
        "nama": "MNCi Agent Mobile Application",
        "website": "-",
        "sektor": "Sektor Keuangan",
        "nama_perusahaan": "MNC ASURANSI INDONESIA",
        "tanggal_daftar": "2021-03-15",
        "nomor_tanda_daftar": "000158.03/DJAI.PSE/03/2021",
        "qr_code": "https://pse.kominfo.go.id/storage/images/qr_code/1856f96580385ef60947c4a29d6c6313.png",
        "status_id": "TERDAFTAR",
        "sistem_elektronik_id": 2349
      }
    },
    {
      "type": "tdpseTerbit",
      "id": 181,
      "attributes": {
        "nomor_pb_umku": null,
        "nama": "MNCi Mobile Application",
        "website": "-",
        "sektor": "Sektor Keuangan",
        "nama_perusahaan": "MNC ASURANSI INDONESIA",
        "tanggal_daftar": "2021-02-25",
        "nomor_tanda_daftar": "000158.02/DJAI.PSE/02/2021",
        "qr_code": "https://pse.kominfo.go.id/storage/images/qr_code/7d1c351f64eece9a4da15f2b50788277.png",
        "status_id": "TERDAFTAR",
        "sistem_elektronik_id": 2348
      }
    },
    {
      "type": "tdpseTerbit",
      "id": 180,
      "attributes": {
        "nomor_pb_umku": null,
        "nama": "MNCi-Net",
        "website": "https://www.mnci-net.id/epolicy/",
        "sektor": "Sektor Keuangan",
        "nama_perusahaan": "MNC ASURANSI INDONESIA",
        "tanggal_daftar": "2021-02-25",
        "nomor_tanda_daftar": "000158.01/DJAI.PSE/02/2021",
        "qr_code": "https://pse.kominfo.go.id/storage/images/qr_code/fcf197bf11f49863e310fa723ec24788.png",
        "status_id": "TERDAFTAR",
        "sistem_elektronik_id": 2347
      }
    },
    {
      "type": "tdpseTerbit",
      "id": 178,
      "attributes": {
        "nomor_pb_umku": null,
        "nama": "BLUE E-MART",
        "website": "https://id.mart.blue/id",
        "sektor": "Sektor Perdagangan",
        "nama_perusahaan": "MOBIL BIRU INTERNASIONAL",
        "tanggal_daftar": "2021-02-25",
        "nomor_tanda_daftar": "000157.01/DJAI.PSE/02/2021",
        "qr_code": "https://pse.kominfo.go.id/storage/images/qr_code/dcdf9ef4992ff15b38d75f30193686a9.png",
        "status_id": "TERDAFTAR",
        "sistem_elektronik_id": 2652
      }
    },
    {
      "type": "tdpseTerbit",
      "id": 1666,
      "attributes": {
        "nomor_pb_umku": null,
        "nama": "All In One",
        "website": "www.syde.co",
        "sektor": "Sektor Teknologi Informasi dan Komunikasi",
        "nama_perusahaan": "SYDECO",
        "tanggal_daftar": "2021-07-08",
        "nomor_tanda_daftar": "000156.04/DJAI.PSE/07/2021",
        "qr_code": "https://pse.kominfo.go.id/storage/images/qr_code/fa06ccb16ccd60afcbd948315ec2c8d3.png",
        "status_id": "TERDAFTAR",
        "sistem_elektronik_id": 2660
      }
    },
    {
      "type": "tdpseTerbit",
      "id": 177,
      "attributes": {
        "nomor_pb_umku": null,
        "nama": "sydecloud",
        "website": "sydeloud.com",
        "sektor": "Sektor Teknologi Informasi dan Komunikasi",
        "nama_perusahaan": "SYDECO",
        "tanggal_daftar": "2021-02-25",
        "nomor_tanda_daftar": "000156.03/DJAI.PSE/02/2021",
        "qr_code": "https://pse.kominfo.go.id/storage/images/qr_code/1724c9abc8c25c7afacad8755e5f752e.png",
        "status_id": "TERDAFTAR",
        "sistem_elektronik_id": 2659
      }
    },
    {
      "type": "tdpseTerbit",
      "id": 176,
      "attributes": {
        "nomor_pb_umku": null,
        "nama": "SST (Secure Sistem of Transmition)",
        "website": "www.syde.co",
        "sektor": "Sektor Teknologi Informasi dan Komunikasi",
        "nama_perusahaan": "SYDECO",
        "tanggal_daftar": "2021-02-25",
        "nomor_tanda_daftar": "000156.02/DJAI.PSE/02/2021",
        "qr_code": "https://pse.kominfo.go.id/storage/images/qr_code/f4c374d5eafed33bb1474ea872daab4c.png",
        "status_id": "TERDAFTAR",
        "sistem_elektronik_id": 2658
      }
    },
    {
      "type": "tdpseTerbit",
      "id": 175,
      "attributes": {
        "nomor_pb_umku": null,
        "nama": "SP-ONE",
        "website": "www.syde.co",
        "sektor": "Sektor Teknologi Informasi dan Komunikasi",
        "nama_perusahaan": "SYDECO",
        "tanggal_daftar": "2021-02-25",
        "nomor_tanda_daftar": "000156.01/DJAI.PSE/02/2021",
        "qr_code": "https://pse.kominfo.go.id/storage/images/qr_code/de426ea429333cae1e60447e266538db.png",
        "status_id": "TERDAFTAR",
        "sistem_elektronik_id": 2657
      }
    }
  ]
}