{
  "meta": {
    "page": {
      "currentPage": 92,
      "from": 911,
      "lastPage": 906,
      "perPage": 10,
      "to": 920,
      "total": 9060
    }
  },
  "data": [
    {
      "type": "tdpseTerbit",
      "id": 8073,
      "attributes": {
        "nomor_pb_umku": "912030376125900010001",
        "nama": "WWW.SATYAARTHA.CO.ID",
        "website": "satyaartha.co.id",
        "sektor": "Sektor Keuangan",
        "nama_perusahaan": "BANK PERKREDITAN RAKYAT SATYA ARTHA",
        "tanggal_daftar": "2022-07-20",
        "nomor_tanda_daftar": "005755.01/DJAI.PSE/07/2022",
        "qr_code": "https://pse.kominfo.go.id/storage/images/qr_code/6a68db8f3029b38f4a3df241bee8902c.png",
        "status_id": "TERDAFTAR",
        "sistem_elektronik_id": 7999
      }
    },
    {
      "type": "tdpseTerbit",
      "id": 8101,
      "attributes": {
        "nomor_pb_umku": "041121004306600010001",
        "nama": " WEBSITE PT BTPN SYARIAH VENTURA",
        "website": "btpnsyariahventura.com",
        "sektor": "Sektor Keuangan",
        "nama_perusahaan": "BTPN SYARIAH VENTURA",
        "tanggal_daftar": "2022-07-20",
        "nomor_tanda_daftar": "005754.01/DJAI.PSE/07/2022",
        "qr_code": "https://pse.kominfo.go.id/storage/images/qr_code/e9ea7583324b494205680c73c7ff012a.png",
        "status_id": "TERDAFTAR",
        "sistem_elektronik_id": 8021
      }
    },
    {
      "type": "tdpseTerbit",
      "id": 8089,
      "attributes": {
        "nomor_pb_umku": "022020085063500000001",
        "nama": "APLIKASI RETAIL BPR",
        "website": "-",
        "sektor": "Sektor Keuangan",
        "nama_perusahaan": "BANK PERKREDITAN RAKYAT MANGATUR GANDA",
        "tanggal_daftar": "2022-07-20",
        "nomor_tanda_daftar": "005753.01/DJAI.PSE/07/2022",
        "qr_code": "https://pse.kominfo.go.id/storage/images/qr_code/bfe89e8bf805b517729282ecdd9e9865.png",
        "status_id": "TERDAFTAR",
        "sistem_elektronik_id": 8010
      }
    },
    {
      "type": "tdpseTerbit",
      "id": 9757,
      "attributes": {
        "nomor_pb_umku": "812030483022100500030",
        "nama": "WARUNG PANGAN",
        "website": "warungpangan.com",
        "sektor": "Sektor Perdagangan, Sektor Pangan",
        "nama_perusahaan": "PERUSAHAAN PERDAGANGAN INDONESIA",
        "tanggal_daftar": "2022-08-03",
        "nomor_tanda_daftar": "005750.01/DJAI.PSE/08/2022",
        "qr_code": "https://pse.kominfo.go.id/storage/images/qr_code/49008a92c1511de01e344da93f1ebe54.png",
        "status_id": "TERDAFTAR",
        "sistem_elektronik_id": 9634
      }
    },
    {
      "type": "tdpseTerbit",
      "id": 8052,
      "attributes": {
        "nomor_pb_umku": "912030439228400000001",
        "nama": "WEBSITE",
        "website": "-",
        "sektor": "Sektor Keuangan",
        "nama_perusahaan": "BANK PERKREDITAN RAKYAT MAKMUR MERATA",
        "tanggal_daftar": "2022-07-20",
        "nomor_tanda_daftar": "005748.01/DJAI.PSE/07/2022",
        "qr_code": "https://pse.kominfo.go.id/storage/images/qr_code/1ebe1da2a41bb0da241e53c25d8423ef.png",
        "status_id": "TERDAFTAR",
        "sistem_elektronik_id": 7976
      }
    },
    {
      "type": "tdpseTerbit",
      "id": 8083,
      "attributes": {
        "nomor_pb_umku": "912010580175900010001",
        "nama": "WEBSITE PT BPR PRABUMEGAH KENCANA",
        "website": "bprprabumegahkencana.co.id",
        "sektor": "Sektor Teknologi Informasi dan Komunikasi",
        "nama_perusahaan": "BANK PERKREDITAN RAKYAT PRABUMEGAH KENCANA",
        "tanggal_daftar": "2022-07-20",
        "nomor_tanda_daftar": "005747.01/DJAI.PSE/07/2022",
        "qr_code": "https://pse.kominfo.go.id/storage/images/qr_code/99e8279f4e928fe5ccd6e43393b8f82c.png",
        "status_id": "TERDAFTAR",
        "sistem_elektronik_id": 8005
      }
    },
    {
      "type": "tdpseTerbit",
      "id": 8050,
      "attributes": {
        "nomor_pb_umku": "130622004515600000001",
        "nama": "SIMASIF! LEGAL TECH",
        "website": "somasikan.com",
        "sektor": "Sektor Perdagangan",
        "nama_perusahaan": "KARISMA LEGALINDO UTAMA",
        "tanggal_daftar": "2022-07-20",
        "nomor_tanda_daftar": "005746.01/DJAI.PSE/07/2022",
        "qr_code": "https://pse.kominfo.go.id/storage/images/qr_code/de86bf9ed1b1d250a90410005cb106b8.png",
        "status_id": "TERDAFTAR",
        "sistem_elektronik_id": 7946
      }
    },
    {
      "type": "tdpseTerbit",
      "id": 8392,
      "attributes": {
        "nomor_pb_umku": "812031210219700010001",
        "nama": "BPRMAM.COM",
        "website": "bprmetroasiamandiri.com",
        "sektor": "Sektor Keuangan",
        "nama_perusahaan": "BANK PERKREDITAN RAKYAT METRO ASIA MANDIRI",
        "tanggal_daftar": "2022-07-21",
        "nomor_tanda_daftar": "005744.02/DJAI.PSE/07/2022",
        "qr_code": "https://pse.kominfo.go.id/storage/images/qr_code/5d8ce6d68f4fa2ebf0c9bac145819bf4.png",
        "status_id": "TERDAFTAR",
        "sistem_elektronik_id": 8307
      }
    },
    {
      "type": "tdpseTerbit",
      "id": 8094,
      "attributes": {
        "nomor_pb_umku": "812031210219700010001",
        "nama": "BPRMETROASIAMANDIRI.COM",
        "website": "Bprmetroasiamandiri.com",
        "sektor": "Sektor Keuangan",
        "nama_perusahaan": "BANK PERKREDITAN RAKYAT METRO ASIA MANDIRI",
        "tanggal_daftar": "2022-07-20",
        "nomor_tanda_daftar": "005744.01/DJAI.PSE/07/2022",
        "qr_code": "https://pse.kominfo.go.id/storage/images/qr_code/fc4f014e8753bfe8e0e3646985a7535f.png",
        "status_id": "TERDAFTAR",
        "sistem_elektronik_id": 7990
      }
    },
    {
      "type": "tdpseTerbit",
      "id": 8032,
      "attributes": {
        "nomor_pb_umku": "912020085252400000001",
        "nama": "APLIKASI",
        "website": "-",
        "sektor": "Sektor Keuangan",
        "nama_perusahaan": "GADAIKU PASTI JAYA",
        "tanggal_daftar": "2022-07-20",
        "nomor_tanda_daftar": "005743.01/DJAI.PSE/07/2022",
        "qr_code": "https://pse.kominfo.go.id/storage/images/qr_code/c5dc55ba1680bc82b1c6d1d97c6758aa.png",
        "status_id": "TERDAFTAR",
        "sistem_elektronik_id": 7953
      }
    }
  ]
}