{
  "meta": {
    "page": {
      "currentPage": 911,
      "from": 9101,
      "lastPage": 1111,
      "perPage": 10,
      "to": 9110,
      "total": 11105
    }
  },
  "data": [
    {
      "type": "tdpseTerbit",
      "id": 6976,
      "attributes": {
        "nomor_pb_umku": "812020093240800020001",
        "nama": "WEBSITE DAN APLIKASI SHOPEE PARTNER",
        "website": "partner.business.accounts.shopee.co.id",
        "sektor": "Sektor Keuangan",
        "nama_perusahaan": "AIRPAY INTERNATIONAL INDONESIA",
        "tanggal_daftar": "2022-07-19",
        "nomor_tanda_daftar": "000963.02/DJAI.PSE/07/2022",
        "qr_code": "https://pse.kominfo.go.id/storage/images/qr_code/5b849d03795d9df6f5407ff2f9172ce3.png",
        "status_id": "TERDAFTAR",
        "sistem_elektronik_id": 6830
      }
    },
    {
      "type": "tdpseTerbit",
      "id": 1444,
      "attributes": {
        "nomor_pb_umku": null,
        "nama": "PT AirPay International Indonesia (\"ShopeePay\")",
        "website": "https://shopeepay.co.id/",
        "sektor": "Sektor Keuangan",
        "nama_perusahaan": "AIRPAY INTERNATIONAL INDONESIA",
        "tanggal_daftar": "2021-06-09",
        "nomor_tanda_daftar": "000963.01/DJAI.PSE/06/2021",
        "qr_code": "https://pse.kominfo.go.id/storage/images/qr_code/6ee27ab684fdfe130d453cbcbfea3f08.png",
        "status_id": "TERDAFTAR",
        "sistem_elektronik_id": 1056
      }
    },
    {
      "type": "tdpseTerbit",
      "id": 1443,
      "attributes": {
        "nomor_pb_umku": null,
        "nama": "Transfez",
        "website": "www.transfez.com",
        "sektor": "Sektor Keuangan",
        "nama_perusahaan": "INDO KOALA REMITTANCE",
        "tanggal_daftar": "2021-06-09",
        "nomor_tanda_daftar": "000962.01/DJAI.PSE/06/2021",
        "qr_code": "https://pse.kominfo.go.id/storage/images/qr_code/44c1a3963957acc6b5bbe70d5b957d52.png",
        "status_id": "TERDAFTAR",
        "sistem_elektronik_id": 505
      }
    },
    {
      "type": "tdpseTerbit",
      "id": 1442,
      "attributes": {
        "nomor_pb_umku": null,
        "nama": "Qara’a",
        "website": "http://sahabatibadah.com/",
        "sektor": "Sektor Teknologi Informasi dan Komunikasi",
        "nama_perusahaan": "KREASI PUTRA HOTAMA",
        "tanggal_daftar": "2021-06-09",
        "nomor_tanda_daftar": "000961.01/DJAI.PSE/06/2021",
        "qr_code": "https://pse.kominfo.go.id/storage/images/qr_code/5e9cbafea8daaf38377cb047d807d846.png",
        "status_id": "TERDAFTAR",
        "sistem_elektronik_id": 1036
      }
    },
    {
      "type": "tdpseTerbit",
      "id": 1441,
      "attributes": {
        "nomor_pb_umku": null,
        "nama": "Prixa",
        "website": "www.prixa.ai",
        "sektor": "Sektor Kesehatan",
        "nama_perusahaan": "PINTAR DATA GROUP",
        "tanggal_daftar": "2021-06-09",
        "nomor_tanda_daftar": "000960.01/DJAI.PSE/06/2021",
        "qr_code": "https://pse.kominfo.go.id/storage/images/qr_code/dfe107b6fcf1d72bb9117ac0355f57db.png",
        "status_id": "TERDAFTAR",
        "sistem_elektronik_id": 986
      }
    },
    {
      "type": "tdpseTerbit",
      "id": 1439,
      "attributes": {
        "nomor_pb_umku": null,
        "nama": "ULA",
        "website": "https://landing.ula.app/id/index.html",
        "sektor": "Sektor Teknologi Informasi dan Komunikasi",
        "nama_perusahaan": "JEMBATAN AKAR TEKNOLOGI",
        "tanggal_daftar": "2021-06-09",
        "nomor_tanda_daftar": "000959.01/DJAI.PSE/06/2021",
        "qr_code": "https://pse.kominfo.go.id/storage/images/qr_code/360bcd8678b2ccb187c0e74f2ffcd808.png",
        "status_id": "TERDAFTAR",
        "sistem_elektronik_id": 323
      }
    },
    {
      "type": "tdpseTerbit",
      "id": 1438,
      "attributes": {
        "nomor_pb_umku": null,
        "nama": "gajikuapp",
        "website": "https://gajikuapp.com",
        "sektor": "Sektor Teknologi Informasi dan Komunikasi",
        "nama_perusahaan": "VARA TECHNOLOGIES CORP",
        "tanggal_daftar": "2021-06-09",
        "nomor_tanda_daftar": "000958.01/DJAI.PSE/06/2021",
        "qr_code": "https://pse.kominfo.go.id/storage/images/qr_code/1cbf64b14953cdf7869415759841af53.png",
        "status_id": "TERDAFTAR",
        "sistem_elektronik_id": 351
      }
    },
    {
      "type": "tdpseTerbit",
      "id": 1437,
      "attributes": {
        "nomor_pb_umku": null,
        "nama": "SAKUMAS",
        "website": "https://sakumas.com",
        "sektor": "Sektor Perdagangan",
        "nama_perusahaan": "SEHATI INDONESIA SEJAHTERA",
        "tanggal_daftar": "2021-06-09",
        "nomor_tanda_daftar": "000957.01/DJAI.PSE/06/2021",
        "qr_code": "https://pse.kominfo.go.id/storage/images/qr_code/6093599075be163fa7856cba6408168d.png",
        "status_id": "TERDAFTAR",
        "sistem_elektronik_id": 1010
      }
    },
    {
      "type": "tdpseTerbit",
      "id": 1436,
      "attributes": {
        "nomor_pb_umku": null,
        "nama": "aiskor",
        "website": "https://aiskor.co.id/",
        "sektor": "Sektor Teknologi Informasi dan Komunikasi",
        "nama_perusahaan": "AISKOR TEKNOLOGI INDONESIA",
        "tanggal_daftar": "2021-06-09",
        "nomor_tanda_daftar": "000956.01/DJAI.PSE/06/2021",
        "qr_code": "https://pse.kominfo.go.id/storage/images/qr_code/40cc2ac4f90c698e4f84683ad50bc9c1.png",
        "status_id": "TERDAFTAR",
        "sistem_elektronik_id": 2410
      }
    },
    {
      "type": "tdpseTerbit",
      "id": 1435,
      "attributes": {
        "nomor_pb_umku": null,
        "nama": "TAMPIL",
        "website": "https://tampil.id",
        "sektor": "Sektor Teknologi Informasi dan Komunikasi",
        "nama_perusahaan": "BISA ARTIFISIAL INDONESIA",
        "tanggal_daftar": "2021-06-09",
        "nomor_tanda_daftar": "000955.02/DJAI.PSE/06/2021",
        "qr_code": "https://pse.kominfo.go.id/storage/images/qr_code/1c319e6fd300291a969ba3ffac4eeefd.png",
        "status_id": "TERDAFTAR",
        "sistem_elektronik_id": 1045
      }
    }
  ]
}