{
  "meta": {
    "page": {
      "currentPage": 912,
      "from": 9111,
      "lastPage": 1085,
      "perPage": 10,
      "to": 9120,
      "total": 10842
    }
  },
  "data": [
    {
      "type": "tdpseTerbit",
      "id": 5011,
      "attributes": {
        "nomor_pb_umku": "912020553197500050002",
        "nama": "D-BANK REGISTRATION",
        "website": "register.dbank.co.id",
        "sektor": "Sektor Keuangan",
        "nama_perusahaan": "BANK DANAMON INDONESIA",
        "tanggal_daftar": "2022-07-01",
        "nomor_tanda_daftar": "000861.11/DJAI.PSE/07/2022",
        "qr_code": "https://pse.kominfo.go.id/storage/images/qr_code/64c1e80fcd2e59b32af1f29bc01e42d0.png",
        "status_id": "TERDAFTAR",
        "sistem_elektronik_id": 4881
      }
    },
    {
      "type": "tdpseTerbit",
      "id": 5010,
      "attributes": {
        "nomor_pb_umku": "912020553197500050002",
        "nama": "DANAMON ONLINE BANKING",
        "website": "danamonline.com",
        "sektor": "Sektor Keuangan",
        "nama_perusahaan": "BANK DANAMON INDONESIA",
        "tanggal_daftar": "2022-07-01",
        "nomor_tanda_daftar": "000861.10/DJAI.PSE/07/2022",
        "qr_code": "https://pse.kominfo.go.id/storage/images/qr_code/7d00bfb57245fe3c36a206335d5f6d46.png",
        "status_id": "TERDAFTAR",
        "sistem_elektronik_id": 4880
      }
    },
    {
      "type": "tdpseTerbit",
      "id": 5003,
      "attributes": {
        "nomor_pb_umku": "912020553197500050001",
        "nama": "DANAMON CHAT",
        "website": "-",
        "sektor": "Sektor Keuangan",
        "nama_perusahaan": "BANK DANAMON INDONESIA",
        "tanggal_daftar": "2022-07-01",
        "nomor_tanda_daftar": "000861.09/DJAI.PSE/07/2022",
        "qr_code": "https://pse.kominfo.go.id/storage/images/qr_code/187ba633ad7322dd1bb421779f76ae70.png",
        "status_id": "TERDAFTAR",
        "sistem_elektronik_id": 4860
      }
    },
    {
      "type": "tdpseTerbit",
      "id": 1278,
      "attributes": {
        "nomor_pb_umku": null,
        "nama": "API Central",
        "website": "https://developer.danamon.co.id  https://api.danamon.co.id  https://sandbox.danamon.co.id",
        "sektor": "Sektor Keuangan",
        "nama_perusahaan": "BANK DANAMON INDONESIA",
        "tanggal_daftar": "2021-06-02",
        "nomor_tanda_daftar": "000861.08/DJAI.PSE/06/2021",
        "qr_code": "https://pse.kominfo.go.id/storage/images/qr_code/8d961ccc3a2592e3842a3213aaf6e717.png",
        "status_id": "TERDAFTAR",
        "sistem_elektronik_id": 920
      }
    },
    {
      "type": "tdpseTerbit",
      "id": 1277,
      "attributes": {
        "nomor_pb_umku": null,
        "nama": "Aplikasi Jaminan Online",
        "website": "https://outsys.danamon.co.id/BDIAJO/",
        "sektor": "Sektor Keuangan",
        "nama_perusahaan": "BANK DANAMON INDONESIA",
        "tanggal_daftar": "2021-06-02",
        "nomor_tanda_daftar": "000861.07/DJAI.PSE/06/2021",
        "qr_code": "https://pse.kominfo.go.id/storage/images/qr_code/30dc5d3b2d5fa655310ec271040b6dc6.png",
        "status_id": "TERDAFTAR",
        "sistem_elektronik_id": 919
      }
    },
    {
      "type": "tdpseTerbit",
      "id": 1276,
      "attributes": {
        "nomor_pb_umku": null,
        "nama": "Trade Connect",
        "website": "https://tradeconnect.danamon.co.id/BDICT/ClientTrade",
        "sektor": "Sektor Keuangan",
        "nama_perusahaan": "BANK DANAMON INDONESIA",
        "tanggal_daftar": "2021-06-02",
        "nomor_tanda_daftar": "000861.06/DJAI.PSE/06/2021",
        "qr_code": "https://pse.kominfo.go.id/storage/images/qr_code/fce60ec3ade98f2daa87dcee71901dee.png",
        "status_id": "TERDAFTAR",
        "sistem_elektronik_id": 918
      }
    },
    {
      "type": "tdpseTerbit",
      "id": 1274,
      "attributes": {
        "nomor_pb_umku": null,
        "nama": "DBismart",
        "website": "https://outsys.danamon.co.id/DBisMart_Web/",
        "sektor": "Sektor Keuangan",
        "nama_perusahaan": "BANK DANAMON INDONESIA",
        "tanggal_daftar": "2021-06-02",
        "nomor_tanda_daftar": "000861.05/DJAI.PSE/06/2021",
        "qr_code": "https://pse.kominfo.go.id/storage/images/qr_code/cd828913ac58080ad2b0c1a50f5087d3.png",
        "status_id": "TERDAFTAR",
        "sistem_elektronik_id": 917
      }
    },
    {
      "type": "tdpseTerbit",
      "id": 1271,
      "attributes": {
        "nomor_pb_umku": null,
        "nama": "Danamon Cash Connect",
        "website": "https://cashconnect.danamon.co.id https://h2h.cashconnect.danamon.co.id",
        "sektor": "Sektor Keuangan",
        "nama_perusahaan": "BANK DANAMON INDONESIA",
        "tanggal_daftar": "2021-06-02",
        "nomor_tanda_daftar": "000861.04/DJAI.PSE/06/2021",
        "qr_code": "https://pse.kominfo.go.id/storage/images/qr_code/e88138c6de7fc11f19ee27e800d0a38d.png",
        "status_id": "TERDAFTAR",
        "sistem_elektronik_id": 916
      }
    },
    {
      "type": "tdpseTerbit",
      "id": 1270,
      "attributes": {
        "nomor_pb_umku": null,
        "nama": "D-Bank PRO",
        "website": "-",
        "sektor": "Sektor Keuangan",
        "nama_perusahaan": "BANK DANAMON INDONESIA",
        "tanggal_daftar": "2021-06-02",
        "nomor_tanda_daftar": "000861.03/DJAI.PSE/06/2021",
        "qr_code": "https://pse.kominfo.go.id/storage/images/qr_code/a83a24b533e3f19674ef296970d7de88.png",
        "status_id": "TERDAFTAR",
        "sistem_elektronik_id": 915
      }
    },
    {
      "type": "tdpseTerbit",
      "id": 1266,
      "attributes": {
        "nomor_pb_umku": null,
        "nama": "D-Bank PRO",
        "website": "https://www.dbank.co.id",
        "sektor": "Sektor Keuangan",
        "nama_perusahaan": "BANK DANAMON INDONESIA",
        "tanggal_daftar": "2021-06-02",
        "nomor_tanda_daftar": "000861.02/DJAI.PSE/06/2021",
        "qr_code": "https://pse.kominfo.go.id/storage/images/qr_code/f523b8aaf64f63abf66c798328f3efe7.png",
        "status_id": "TERDAFTAR",
        "sistem_elektronik_id": 914
      }
    }
  ]
}