{
  "meta": {
    "page": {
      "currentPage": 913,
      "from": 9121,
      "lastPage": 1072,
      "perPage": 10,
      "to": 9130,
      "total": 10718
    }
  },
  "data": [
    {
      "type": "tdpseTerbit",
      "id": 1154,
      "attributes": {
        "nomor_pb_umku": null,
        "nama": "Fixed Income Trading System",
        "website": "https://fitsonline.binaartha.com/",
        "sektor": "Sektor Keuangan",
        "nama_perusahaan": "BINAARTHA SEKURITAS",
        "tanggal_daftar": "2021-06-02",
        "nomor_tanda_daftar": "000813.03/DJAI.PSE/06/2021",
        "qr_code": "https://pse.kominfo.go.id/storage/images/qr_code/3bc07630b548b4c52c60cbccb24f1d23.png",
        "status_id": "TERDAFTAR",
        "sistem_elektronik_id": 806
      }
    },
    {
      "type": "tdpseTerbit",
      "id": 1117,
      "attributes": {
        "nomor_pb_umku": null,
        "nama": "Binaartha Online Trading",
        "website": "https://onlinetrading.binaartha.com",
        "sektor": "Sektor Keuangan",
        "nama_perusahaan": "BINAARTHA SEKURITAS",
        "tanggal_daftar": "2021-06-02",
        "nomor_tanda_daftar": "000813.02/DJAI.PSE/06/2021",
        "qr_code": "https://pse.kominfo.go.id/storage/images/qr_code/696c507a4c625e7b3333a4ccf52508e9.png",
        "status_id": "TERDAFTAR",
        "sistem_elektronik_id": 805
      }
    },
    {
      "type": "tdpseTerbit",
      "id": 1112,
      "attributes": {
        "nomor_pb_umku": null,
        "nama": "Website Binaartha Sekuritas",
        "website": "http://www.binaartha.com",
        "sektor": "Sektor Keuangan",
        "nama_perusahaan": "BINAARTHA SEKURITAS",
        "tanggal_daftar": "2021-06-02",
        "nomor_tanda_daftar": "000813.01/DJAI.PSE/06/2021",
        "qr_code": "https://pse.kominfo.go.id/storage/images/qr_code/4c82cbcc760c46c0419a0021417961c9.png",
        "status_id": "TERDAFTAR",
        "sistem_elektronik_id": 804
      }
    },
    {
      "type": "tdpseTerbit",
      "id": 1111,
      "attributes": {
        "nomor_pb_umku": null,
        "nama": "F-Switch",
        "website": "https://fortuna-mediatama.co.id/",
        "sektor": "Sektor Teknologi Informasi dan Komunikasi",
        "nama_perusahaan": "FORTUNA MEDIATAMA",
        "tanggal_daftar": "2021-06-02",
        "nomor_tanda_daftar": "000812.01/DJAI.PSE/06/2021",
        "qr_code": "https://pse.kominfo.go.id/storage/images/qr_code/6a93e3c0b6b6d8152dc131beeaccfb4c.png",
        "status_id": "TERDAFTAR",
        "sistem_elektronik_id": 782
      }
    },
    {
      "type": "tdpseTerbit",
      "id": 8660,
      "attributes": {
        "nomor_pb_umku": "912030443214100030001",
        "nama": "BUKUERLANGGA.COM",
        "website": "bukuerlangga.com",
        "sektor": "Sektor Perdagangan",
        "nama_perusahaan": "EUREKA BOOKHOUSE",
        "tanggal_daftar": "2022-07-21",
        "nomor_tanda_daftar": "000811.09/DJAI.PSE/07/2022",
        "qr_code": "https://pse.kominfo.go.id/storage/images/qr_code/acbd0a1dff35f28a2793374da620c6cc.png",
        "status_id": "TERDAFTAR",
        "sistem_elektronik_id": 8579
      }
    },
    {
      "type": "tdpseTerbit",
      "id": 1465,
      "attributes": {
        "nomor_pb_umku": null,
        "nama": "Eureka Logistics",
        "website": "https://eurekalogistics.co.id",
        "sektor": "Sektor Perdagangan, Sektor Transportasi",
        "nama_perusahaan": "EUREKA BOOKHOUSE",
        "tanggal_daftar": "2021-06-14",
        "nomor_tanda_daftar": "000811.08/DJAI.PSE/06/2021",
        "qr_code": "https://pse.kominfo.go.id/storage/images/qr_code/0434718605b6baafc6c5be48fd57fe28.png",
        "status_id": "TERDAFTAR",
        "sistem_elektronik_id": 793
      }
    },
    {
      "type": "tdpseTerbit",
      "id": 1464,
      "attributes": {
        "nomor_pb_umku": null,
        "nama": "Kata & Rasa",
        "website": "https://katarasa.id",
        "sektor": "Sektor Perdagangan",
        "nama_perusahaan": "EUREKA BOOKHOUSE",
        "tanggal_daftar": "2021-06-14",
        "nomor_tanda_daftar": "000811.07/DJAI.PSE/06/2021",
        "qr_code": "https://pse.kominfo.go.id/storage/images/qr_code/4f18b8516148298c0c5b0a8ca38ab52b.png",
        "status_id": "TERDAFTAR",
        "sistem_elektronik_id": 792
      }
    },
    {
      "type": "tdpseTerbit",
      "id": 1463,
      "attributes": {
        "nomor_pb_umku": null,
        "nama": "Master Diskon",
        "website": "https://masterdiskon.com",
        "sektor": "Sektor Perdagangan, Sektor Teknologi Informasi dan Komunikasi",
        "nama_perusahaan": "EUREKA BOOKHOUSE",
        "tanggal_daftar": "2021-06-14",
        "nomor_tanda_daftar": "000811.06/DJAI.PSE/06/2021",
        "qr_code": "https://pse.kominfo.go.id/storage/images/qr_code/ce5b3e1aa594c709a52e9dbfe111528c.png",
        "status_id": "TERDAFTAR",
        "sistem_elektronik_id": 791
      }
    },
    {
      "type": "tdpseTerbit",
      "id": 1462,
      "attributes": {
        "nomor_pb_umku": null,
        "nama": "Raja Cepat",
        "website": "https://rajacepat.com",
        "sektor": "Sektor Perdagangan, Sektor Transportasi",
        "nama_perusahaan": "EUREKA BOOKHOUSE",
        "tanggal_daftar": "2021-06-14",
        "nomor_tanda_daftar": "000811.05/DJAI.PSE/06/2021",
        "qr_code": "https://pse.kominfo.go.id/storage/images/qr_code/b21516006318880edf8ae063d1fabef5.png",
        "status_id": "TERDAFTAR",
        "sistem_elektronik_id": 790
      }
    },
    {
      "type": "tdpseTerbit",
      "id": 1123,
      "attributes": {
        "nomor_pb_umku": null,
        "nama": "jaja.id",
        "website": "https://jaja.id",
        "sektor": "Sektor Perdagangan",
        "nama_perusahaan": "EUREKA BOOKHOUSE",
        "tanggal_daftar": "2021-06-02",
        "nomor_tanda_daftar": "000811.04/DJAI.PSE/06/2021",
        "qr_code": "https://pse.kominfo.go.id/storage/images/qr_code/59260ac01da1382d2487b0bd7a0d34e6.png",
        "status_id": "TERDAFTAR",
        "sistem_elektronik_id": 789
      }
    }
  ]
}