{
  "meta": {
    "page": {
      "currentPage": 915,
      "from": 9141,
      "lastPage": 1089,
      "perPage": 10,
      "to": 9150,
      "total": 10885
    }
  },
  "data": [
    {
      "type": "tdpseTerbit",
      "id": 1269,
      "attributes": {
        "nomor_pb_umku": null,
        "nama": "BSI Mobile",
        "website": "www.bsimobile.co.id",
        "sektor": "Sektor Keuangan",
        "nama_perusahaan": "BANK SYARIAH INDONESIA",
        "tanggal_daftar": "2021-06-02",
        "nomor_tanda_daftar": "000863.03/DJAI.PSE/06/2021",
        "qr_code": "https://pse.kominfo.go.id/storage/images/qr_code/d142c21f62c47f6294f766bfb85b835f.png",
        "status_id": "TERDAFTAR",
        "sistem_elektronik_id": 902
      }
    },
    {
      "type": "tdpseTerbit",
      "id": 1268,
      "attributes": {
        "nomor_pb_umku": null,
        "nama": "BSI Net Banking",
        "website": "www.bsinet.bankbsi.co.id",
        "sektor": "Sektor Keuangan",
        "nama_perusahaan": "BANK SYARIAH INDONESIA",
        "tanggal_daftar": "2021-06-02",
        "nomor_tanda_daftar": "000863.02/DJAI.PSE/06/2021",
        "qr_code": "https://pse.kominfo.go.id/storage/images/qr_code/bfb9a092a12c3e6d89858aa5a318e386.png",
        "status_id": "TERDAFTAR",
        "sistem_elektronik_id": 901
      }
    },
    {
      "type": "tdpseTerbit",
      "id": 1267,
      "attributes": {
        "nomor_pb_umku": null,
        "nama": "Website Bank Syariah Indonesia",
        "website": "www.bankbsi.co.id",
        "sektor": "Sektor Keuangan",
        "nama_perusahaan": "BANK SYARIAH INDONESIA",
        "tanggal_daftar": "2021-06-02",
        "nomor_tanda_daftar": "000863.01/DJAI.PSE/06/2021",
        "qr_code": "https://pse.kominfo.go.id/storage/images/qr_code/9e0e793f60772cef84b6fdd141637f69.png",
        "status_id": "TERDAFTAR",
        "sistem_elektronik_id": 900
      }
    },
    {
      "type": "tdpseTerbit",
      "id": 1265,
      "attributes": {
        "nomor_pb_umku": null,
        "nama": "Kredivo",
        "website": "www.kredivo.id",
        "sektor": "Sektor Keuangan",
        "nama_perusahaan": "FINACCEL FINANCE INDONESIA",
        "tanggal_daftar": "2021-06-02",
        "nomor_tanda_daftar": "000862.01/DJAI.PSE/06/2021",
        "qr_code": "https://pse.kominfo.go.id/storage/images/qr_code/eeaf0bc268227af53f8b00d161b9b503.png",
        "status_id": "TERDAFTAR",
        "sistem_elektronik_id": 825
      }
    },
    {
      "type": "tdpseTerbit",
      "id": 7799,
      "attributes": {
        "nomor_pb_umku": "912020553197500100011",
        "nama": "CASH@WORK HOST TO HOST",
        "website": "direct.danamon.co.id",
        "sektor": "Sektor Keuangan",
        "nama_perusahaan": "BANK DANAMON INDONESIA",
        "tanggal_daftar": "2022-07-20",
        "nomor_tanda_daftar": "000861.19/DJAI.PSE/07/2022",
        "qr_code": "https://pse.kominfo.go.id/storage/images/qr_code/52b14ef0682541baabbc6a92c2c1aabd.png",
        "status_id": "TERDAFTAR",
        "sistem_elektronik_id": 7719
      }
    },
    {
      "type": "tdpseTerbit",
      "id": 7740,
      "attributes": {
        "nomor_pb_umku": "912020553197500100010",
        "nama": "QR DANAMON",
        "website": "-",
        "sektor": "Sektor Keuangan",
        "nama_perusahaan": "BANK DANAMON INDONESIA",
        "tanggal_daftar": "2022-07-20",
        "nomor_tanda_daftar": "000861.18/DJAI.PSE/07/2022",
        "qr_code": "https://pse.kominfo.go.id/storage/images/qr_code/fe33adf4649501abcacf455d9881f1ae.png",
        "status_id": "TERDAFTAR",
        "sistem_elektronik_id": 7644
      }
    },
    {
      "type": "tdpseTerbit",
      "id": 7209,
      "attributes": {
        "nomor_pb_umku": "912020553197500100009",
        "nama": "DCARD MOBILE",
        "website": "-",
        "sektor": "Sektor Keuangan",
        "nama_perusahaan": "BANK DANAMON INDONESIA",
        "tanggal_daftar": "2022-07-19",
        "nomor_tanda_daftar": "000861.17/DJAI.PSE/07/2022",
        "qr_code": "https://pse.kominfo.go.id/storage/images/qr_code/e5c0a9ac22e84c545da47201c2418334.png",
        "status_id": "TERDAFTAR",
        "sistem_elektronik_id": 7075
      }
    },
    {
      "type": "tdpseTerbit",
      "id": 7206,
      "attributes": {
        "nomor_pb_umku": "912020553197500100007",
        "nama": "D-WALLET",
        "website": "-",
        "sektor": "Sektor Keuangan",
        "nama_perusahaan": "BANK DANAMON INDONESIA",
        "tanggal_daftar": "2022-07-19",
        "nomor_tanda_daftar": "000861.16/DJAI.PSE/07/2022",
        "qr_code": "https://pse.kominfo.go.id/storage/images/qr_code/90600b1de56054583a18df60daf0a10f.png",
        "status_id": "TERDAFTAR",
        "sistem_elektronik_id": 7066
      }
    },
    {
      "type": "tdpseTerbit",
      "id": 7207,
      "attributes": {
        "nomor_pb_umku": "912020553197500100008",
        "nama": "CASH@WORK",
        "website": "icashatwork.danamon.co.id",
        "sektor": "Sektor Keuangan",
        "nama_perusahaan": "BANK DANAMON INDONESIA",
        "tanggal_daftar": "2022-07-19",
        "nomor_tanda_daftar": "000861.15/DJAI.PSE/07/2022",
        "qr_code": "https://pse.kominfo.go.id/storage/images/qr_code/978c568a80939bd1ddca01981a19b779.png",
        "status_id": "TERDAFTAR",
        "sistem_elektronik_id": 7049
      }
    },
    {
      "type": "tdpseTerbit",
      "id": 7177,
      "attributes": {
        "nomor_pb_umku": "912020553197500100006",
        "nama": "D-POINT",
        "website": "dpoint.id",
        "sektor": "Sektor Keuangan",
        "nama_perusahaan": "BANK DANAMON INDONESIA",
        "tanggal_daftar": "2022-07-19",
        "nomor_tanda_daftar": "000861.14/DJAI.PSE/07/2022",
        "qr_code": "https://pse.kominfo.go.id/storage/images/qr_code/ccff2490eceaf5afce601fb252a81f33.png",
        "status_id": "TERDAFTAR",
        "sistem_elektronik_id": 7044
      }
    }
  ]
}