{
  "meta": {
    "page": {
      "currentPage": 916,
      "from": 9151,
      "lastPage": 931,
      "perPage": 10,
      "to": 9160,
      "total": 9301
    }
  },
  "data": [
    {
      "type": "tdpseTerbit",
      "id": 163,
      "attributes": {
        "nomor_pb_umku": null,
        "nama": "DOMPETKU",
        "website": "-",
        "sektor": "Sektor Keuangan",
        "nama_perusahaan": "SIMPAN PINJAM BINA MAJU BESAR",
        "tanggal_daftar": "2021-02-24",
        "nomor_tanda_daftar": "000091.02/DJAI.PSE/02/2021",
        "qr_code": "https://pse.kominfo.go.id/storage/images/qr_code/7520ce417770c46b9d0581760f057e9f.png",
        "status_id": "TERDAFTAR",
        "sistem_elektronik_id": 2539
      }
    },
    {
      "type": "tdpseTerbit",
      "id": 101,
      "attributes": {
        "nomor_pb_umku": null,
        "nama": "DOMPETKU",
        "website": "-",
        "sektor": "Sektor Keuangan",
        "nama_perusahaan": "SIMPAN PINJAM BINA MAJU BESAR",
        "tanggal_daftar": "2021-02-23",
        "nomor_tanda_daftar": "000091.01/DJAI.PSE/02/2021",
        "qr_code": "https://pse.kominfo.go.id/storage/images/qr_code/ae77b7985706548344e497a6c19f2e93.png",
        "status_id": "TERDAFTAR",
        "sistem_elektronik_id": 2538
      }
    },
    {
      "type": "tdpseTerbit",
      "id": 100,
      "attributes": {
        "nomor_pb_umku": null,
        "nama": "DANA PLUS",
        "website": "-",
        "sektor": "Sektor Keuangan",
        "nama_perusahaan": "SIMPAN PINJAM DANA SINAR DUNIA",
        "tanggal_daftar": "2021-02-23",
        "nomor_tanda_daftar": "000090.01/DJAI.PSE/02/2021",
        "qr_code": "https://pse.kominfo.go.id/storage/images/qr_code/7a975e114a88087238db0154607b62b1.png",
        "status_id": "TERDAFTAR",
        "sistem_elektronik_id": 2536
      }
    },
    {
      "type": "tdpseTerbit",
      "id": 99,
      "attributes": {
        "nomor_pb_umku": null,
        "nama": "DANA RIBU",
        "website": "-",
        "sektor": "Sektor Keuangan",
        "nama_perusahaan": "SIMPAN PINJAM DANA BINTANG LIMA",
        "tanggal_daftar": "2021-02-23",
        "nomor_tanda_daftar": "000089.01/DJAI.PSE/02/2021",
        "qr_code": "https://pse.kominfo.go.id/storage/images/qr_code/0d92aecf2471578e353d23895f0beaa6.png",
        "status_id": "TERDAFTAR",
        "sistem_elektronik_id": 2535
      }
    },
    {
      "type": "tdpseTerbit",
      "id": 98,
      "attributes": {
        "nomor_pb_umku": null,
        "nama": "Bdrive",
        "website": "http://bdrive.id",
        "sektor": "Sektor Perdagangan, Sektor Transportasi",
        "nama_perusahaan": "MADEEL TEKHNOLOGI INDONESIA",
        "tanggal_daftar": "2021-02-23",
        "nomor_tanda_daftar": "000088.01/DJAI.PSE/02/2021",
        "qr_code": "https://pse.kominfo.go.id/storage/images/qr_code/487d4f66ab3cf93a8d56a2e9f94f4ba9.png",
        "status_id": "TERDAFTAR",
        "sistem_elektronik_id": 2454
      }
    },
    {
      "type": "tdpseTerbit",
      "id": 97,
      "attributes": {
        "nomor_pb_umku": null,
        "nama": "MONEY COME",
        "website": "-",
        "sektor": "Sektor Keuangan",
        "nama_perusahaan": "SIMPAN PINJAM LANSIR TARO NUSA",
        "tanggal_daftar": "2021-02-23",
        "nomor_tanda_daftar": "000087.01/DJAI.PSE/02/2021",
        "qr_code": "https://pse.kominfo.go.id/storage/images/qr_code/19448a25774f426c619758153dc90d31.png",
        "status_id": "TERDAFTAR",
        "sistem_elektronik_id": 2530
      }
    },
    {
      "type": "tdpseTerbit",
      "id": 96,
      "attributes": {
        "nomor_pb_umku": null,
        "nama": "SETOR TUNAI",
        "website": "-",
        "sektor": "Sektor Keuangan",
        "nama_perusahaan": "SIMPAN PINJAM MARDA RIMA ESA",
        "tanggal_daftar": "2021-02-23",
        "nomor_tanda_daftar": "000086.01/DJAI.PSE/02/2021",
        "qr_code": "https://pse.kominfo.go.id/storage/images/qr_code/2a20982d9a11e039e2f3bb6484d87309.png",
        "status_id": "TERDAFTAR",
        "sistem_elektronik_id": 2529
      }
    },
    {
      "type": "tdpseTerbit",
      "id": 95,
      "attributes": {
        "nomor_pb_umku": null,
        "nama": "Aplikasi KamiSatu",
        "website": "https://kamisatu.id/",
        "sektor": "Sektor Perdagangan, Sektor Teknologi Informasi dan Komunikasi, Sektor Transportasi",
        "nama_perusahaan": "KAMI SATU KARYA",
        "tanggal_daftar": "2021-02-23",
        "nomor_tanda_daftar": "000085.01/DJAI.PSE/02/2021",
        "qr_code": "https://pse.kominfo.go.id/storage/images/qr_code/2f47eafe8f9bd93363d0cbee891a9876.png",
        "status_id": "TERDAFTAR",
        "sistem_elektronik_id": 2526
      }
    },
    {
      "type": "tdpseTerbit",
      "id": 94,
      "attributes": {
        "nomor_pb_umku": null,
        "nama": "MONEY YOU",
        "website": "-",
        "sektor": "Sektor Keuangan",
        "nama_perusahaan": "SIMPAN PINJAM BUANA SATU TIGA",
        "tanggal_daftar": "2021-02-23",
        "nomor_tanda_daftar": "000084.01/DJAI.PSE/02/2021",
        "qr_code": "https://pse.kominfo.go.id/storage/images/qr_code/551d3b458e9e49efa907e2e7b2c3c261.png",
        "status_id": "TERDAFTAR",
        "sistem_elektronik_id": 2528
      }
    },
    {
      "type": "tdpseTerbit",
      "id": 93,
      "attributes": {
        "nomor_pb_umku": null,
        "nama": "GOOD DANA",
        "website": "-",
        "sektor": "Sektor Keuangan",
        "nama_perusahaan": "SIMPAN PINJAM BIMA EKA NUSA",
        "tanggal_daftar": "2021-02-23",
        "nomor_tanda_daftar": "000083.01/DJAI.PSE/02/2021",
        "qr_code": "https://pse.kominfo.go.id/storage/images/qr_code/03ff8f01203b0adf90ca30e76ee7dcd3.png",
        "status_id": "TERDAFTAR",
        "sistem_elektronik_id": 2527
      }
    }
  ]
}