{
  "meta": {
    "page": {
      "currentPage": 917,
      "from": 9161,
      "lastPage": 1097,
      "perPage": 10,
      "to": 9170,
      "total": 10962
    }
  },
  "data": [
    {
      "type": "tdpseTerbit",
      "id": 1285,
      "attributes": {
        "nomor_pb_umku": null,
        "nama": "PAPER FINANCE SOLUTION",
        "website": "www.paper.id",
        "sektor": "Sektor Keuangan",
        "nama_perusahaan": "PAKAR FINANSIAL GLOBAL",
        "tanggal_daftar": "2021-06-02",
        "nomor_tanda_daftar": "000868.01/DJAI.PSE/06/2021",
        "qr_code": "https://pse.kominfo.go.id/storage/images/qr_code/9d981ca59485aab197144434e66da37e.png",
        "status_id": "TERDAFTAR",
        "sistem_elektronik_id": 3681
      }
    },
    {
      "type": "tdpseTerbit",
      "id": 1284,
      "attributes": {
        "nomor_pb_umku": null,
        "nama": "PAPER.ID",
        "website": "www.paper.id",
        "sektor": "Sektor Keuangan, Sektor Teknologi Informasi dan Komunikasi",
        "nama_perusahaan": "PAKAR DIGITAL GLOBAL",
        "tanggal_daftar": "2021-06-02",
        "nomor_tanda_daftar": "000867.01/DJAI.PSE/06/2021",
        "qr_code": "https://pse.kominfo.go.id/storage/images/qr_code/1019a0086b52d4578e027c57fa4b19fd.png",
        "status_id": "TERDAFTAR",
        "sistem_elektronik_id": 957
      }
    },
    {
      "type": "tdpseTerbit",
      "id": 12195,
      "attributes": {
        "nomor_pb_umku": "912020237125200030003",
        "nama": "INDODANA MITRA",
        "website": "-",
        "sektor": "Sektor Keuangan",
        "nama_perusahaan": "ARTHA DANA TEKNOLOGI",
        "tanggal_daftar": "2022-11-09",
        "nomor_tanda_daftar": "000866.03/DJAI.PSE/11/2022",
        "qr_code": "https://pse.kominfo.go.id/storage/images/qr_code/db61393817749f8baa3645f783b370fc.png",
        "status_id": "TERDAFTAR",
        "sistem_elektronik_id": 11991
      }
    },
    {
      "type": "tdpseTerbit",
      "id": 12192,
      "attributes": {
        "nomor_pb_umku": "912020237125200030002",
        "nama": "INDODANA MERCHANT",
        "website": "merchant.indodana.id",
        "sektor": "Sektor Keuangan",
        "nama_perusahaan": "ARTHA DANA TEKNOLOGI",
        "tanggal_daftar": "2022-11-09",
        "nomor_tanda_daftar": "000866.02/DJAI.PSE/11/2022",
        "qr_code": "https://pse.kominfo.go.id/storage/images/qr_code/5589733a40e5529e265468c223cafaea.png",
        "status_id": "TERDAFTAR",
        "sistem_elektronik_id": 11986
      }
    },
    {
      "type": "tdpseTerbit",
      "id": 1283,
      "attributes": {
        "nomor_pb_umku": null,
        "nama": "Indodana",
        "website": "-",
        "sektor": "Sektor Keuangan",
        "nama_perusahaan": "ARTHA DANA TEKNOLOGI",
        "tanggal_daftar": "2021-06-02",
        "nomor_tanda_daftar": "000866.01/DJAI.PSE/06/2021",
        "qr_code": "https://pse.kominfo.go.id/storage/images/qr_code/fdc417d523bfb6eef5095977d05b273e.png",
        "status_id": "TERDAFTAR",
        "sistem_elektronik_id": 956
      }
    },
    {
      "type": "tdpseTerbit",
      "id": 1536,
      "attributes": {
        "nomor_pb_umku": null,
        "nama": "Aplikasi Modal Rakyat (iOS)",
        "website": "https://www.modalrakyat.id",
        "sektor": "Sektor Keuangan, Sektor Teknologi Informasi dan Komunikasi",
        "nama_perusahaan": "MODAL RAKYAT INDONESIA",
        "tanggal_daftar": "2021-06-24",
        "nomor_tanda_daftar": "000865.03/DJAI.PSE/06/2021",
        "qr_code": "https://pse.kominfo.go.id/storage/images/qr_code/b53c0c2d47d1e3acce8f8508bb3138af.png",
        "status_id": "TERDAFTAR",
        "sistem_elektronik_id": 899
      }
    },
    {
      "type": "tdpseTerbit",
      "id": 1535,
      "attributes": {
        "nomor_pb_umku": null,
        "nama": "Aplikasi Modal Rakyat (Android)",
        "website": "https://www.modalrakyat.id",
        "sektor": "Sektor Keuangan, Sektor Teknologi Informasi dan Komunikasi",
        "nama_perusahaan": "MODAL RAKYAT INDONESIA",
        "tanggal_daftar": "2021-06-24",
        "nomor_tanda_daftar": "000865.02/DJAI.PSE/06/2021",
        "qr_code": "https://pse.kominfo.go.id/storage/images/qr_code/72b884bf8b90e8d356523dfe04803150.png",
        "status_id": "TERDAFTAR",
        "sistem_elektronik_id": 898
      }
    },
    {
      "type": "tdpseTerbit",
      "id": 897,
      "attributes": {
        "nomor_pb_umku": null,
        "nama": "Aplikasi dan Sistem Elektronik Modal Rakyat",
        "website": "https://www.modalrakyat.id",
        "sektor": "Sektor Keuangan, Sektor Teknologi Informasi dan Komunikasi",
        "nama_perusahaan": "MODAL RAKYAT INDONESIA",
        "tanggal_daftar": "2021-06-02",
        "nomor_tanda_daftar": "000865.01/DJAI.PSE/06/2021",
        "qr_code": "https://pse.kominfo.go.id/storage/images/qr_code/97db103a2e3cdbcd4818b9684a9b35d5.png",
        "status_id": "TERDAFTAR",
        "sistem_elektronik_id": 897
      }
    },
    {
      "type": "tdpseTerbit",
      "id": 1273,
      "attributes": {
        "nomor_pb_umku": null,
        "nama": "Gandengtangan",
        "website": "www.gandengtangan.co.id",
        "sektor": "Sektor Keuangan",
        "nama_perusahaan": "KREASI ANAK INDONESIA",
        "tanggal_daftar": "2021-06-02",
        "nomor_tanda_daftar": "000864.01/DJAI.PSE/06/2021",
        "qr_code": "https://pse.kominfo.go.id/storage/images/qr_code/930639d1f39a40843c27bd6ca699ab0a.png",
        "status_id": "TERDAFTAR",
        "sistem_elektronik_id": 933
      }
    },
    {
      "type": "tdpseTerbit",
      "id": 8881,
      "attributes": {
        "nomor_pb_umku": "912010214198600170035",
        "nama": "WEBSITE MILAD BSI",
        "website": "miladbankbsi.id",
        "sektor": "Sektor Keuangan",
        "nama_perusahaan": "BANK SYARIAH INDONESIA",
        "tanggal_daftar": "2022-07-22",
        "nomor_tanda_daftar": "000863.50/DJAI.PSE/07/2022",
        "qr_code": "https://pse.kominfo.go.id/storage/images/qr_code/0d3840cbdfc932dd0f92ee0c5bde4843.png",
        "status_id": "TERDAFTAR",
        "sistem_elektronik_id": 8786
      }
    }
  ]
}