{
  "meta": {
    "page": {
      "currentPage": 922,
      "from": 9211,
      "lastPage": 981,
      "perPage": 10,
      "to": 9220,
      "total": 9802
    }
  },
  "data": [
    {
      "type": "tdpseTerbit",
      "id": 4298,
      "attributes": {
        "nomor_pb_umku": "912011318183600010001",
        "nama": "SEKOLAHKITA NET",
        "website": "sekolahkita.net",
        "sektor": "Sektor Teknologi Informasi dan Komunikasi",
        "nama_perusahaan": "WATULINTANG MEDIA",
        "tanggal_daftar": "2022-06-08",
        "nomor_tanda_daftar": "000309.01/DJAI.PSE/06/2022",
        "qr_code": "https://pse.kominfo.go.id/storage/images/qr_code/1ec19f11551f4bae1d2f0d1b5bc894a3.png",
        "status_id": "TERDAFTAR",
        "sistem_elektronik_id": 4291
      }
    },
    {
      "type": "tdpseTerbit",
      "id": 4107,
      "attributes": {
        "nomor_pb_umku": "912050370214200000001",
        "nama": "KONTAN",
        "website": "kontan.co.id",
        "sektor": "Sektor Perdagangan, Sektor Teknologi Informasi dan Komunikasi",
        "nama_perusahaan": "GRAHANUSA MEDIATAMA",
        "tanggal_daftar": "2022-05-23",
        "nomor_tanda_daftar": "000309.01/DJAI.PSE/05/2022",
        "qr_code": "https://pse.kominfo.go.id/storage/images/qr_code/08e2cb4ed5f4e1e509767fbdcc226379.png",
        "status_id": "TERDAFTAR",
        "sistem_elektronik_id": 4106
      }
    },
    {
      "type": "tdpseTerbit",
      "id": 378,
      "attributes": {
        "nomor_pb_umku": null,
        "nama": "Konsultanku",
        "website": "https://www.konsultanku.co.id",
        "sektor": "Sektor Perdagangan",
        "nama_perusahaan": "KONSULTANKU NUSANTARA DIGITAL",
        "tanggal_daftar": "2021-03-15",
        "nomor_tanda_daftar": "000309.01/DJAI.PSE/03/2021",
        "qr_code": "https://pse.kominfo.go.id/storage/images/qr_code/6119223c5ff7c72951de02089694a21c.png",
        "status_id": "TERDAFTAR",
        "sistem_elektronik_id": 161
      }
    },
    {
      "type": "tdpseTerbit",
      "id": 377,
      "attributes": {
        "nomor_pb_umku": null,
        "nama": "DANA KU",
        "website": "Http://www.danaku.com",
        "sektor": "Sektor Teknologi Informasi dan Komunikasi",
        "nama_perusahaan": "SIMPAN PINJAM DANA PANDAWA LIMA",
        "tanggal_daftar": "2021-03-15",
        "nomor_tanda_daftar": "000308.01/DJAI.PSE/03/2021",
        "qr_code": "https://pse.kominfo.go.id/storage/images/qr_code/d55eed8e3f0d53a2ca07db3d6c59e273.png",
        "status_id": "TERDAFTAR",
        "sistem_elektronik_id": 143
      }
    },
    {
      "type": "tdpseTerbit",
      "id": 4297,
      "attributes": {
        "nomor_pb_umku": "250422004020500020002",
        "nama": "RINGKAS.",
        "website": "ringkas.co.id",
        "sektor": "Sektor Perdagangan, Sektor Teknologi Informasi dan Komunikasi",
        "nama_perusahaan": "RINGKAS ASIA TECHNOLOGY",
        "tanggal_daftar": "2022-06-08",
        "nomor_tanda_daftar": "000307.02/DJAI.PSE/06/2022",
        "qr_code": "https://pse.kominfo.go.id/storage/images/qr_code/eee23a3348551567277200872badf2cf.png",
        "status_id": "TERDAFTAR",
        "sistem_elektronik_id": 4290
      }
    },
    {
      "type": "tdpseTerbit",
      "id": 4570,
      "attributes": {
        "nomor_pb_umku": "310122004227800000001",
        "nama": "ZAHSY ALESHA DIGITAL & TECH",
        "website": "-",
        "sektor": "Sektor Teknologi Informasi dan Komunikasi",
        "nama_perusahaan": "RULLY SIREY",
        "tanggal_daftar": "2022-06-16",
        "nomor_tanda_daftar": "000307.01/DJAI.PSE/06/2022",
        "qr_code": "https://pse.kominfo.go.id/storage/images/qr_code/6c9912fcdfa17adde801c293d0b234ae.png",
        "status_id": "TERDAFTAR",
        "sistem_elektronik_id": 4533
      }
    },
    {
      "type": "tdpseTerbit",
      "id": 4295,
      "attributes": {
        "nomor_pb_umku": "250422004020500020001",
        "nama": "RINGKAS",
        "website": "ringkas.co.id",
        "sektor": "Sektor Perdagangan, Sektor Teknologi Informasi dan Komunikasi",
        "nama_perusahaan": "RINGKAS ASIA TECHNOLOGY",
        "tanggal_daftar": "2022-06-08",
        "nomor_tanda_daftar": "000307.01/DJAI.PSE/06/2022",
        "qr_code": "https://pse.kominfo.go.id/storage/images/qr_code/8aee64b875aeb0b239e8435bcc01d792.png",
        "status_id": "TERDAFTAR",
        "sistem_elektronik_id": 4289
      }
    },
    {
      "type": "tdpseTerbit",
      "id": 376,
      "attributes": {
        "nomor_pb_umku": null,
        "nama": "PINK MONEY",
        "website": "Http://www.pinkmoney.com",
        "sektor": "Sektor Teknologi Informasi dan Komunikasi",
        "nama_perusahaan": "SIMPAN PINJAM DANA LESTARI INDONESIA",
        "tanggal_daftar": "2021-03-15",
        "nomor_tanda_daftar": "000307.01/DJAI.PSE/03/2021",
        "qr_code": "https://pse.kominfo.go.id/storage/images/qr_code/1025b995595ea7814af45d9236bfee74.png",
        "status_id": "TERDAFTAR",
        "sistem_elektronik_id": 156
      }
    },
    {
      "type": "tdpseTerbit",
      "id": 375,
      "attributes": {
        "nomor_pb_umku": null,
        "nama": "DOMPET KITA",
        "website": "Http://www.dompetkita.com",
        "sektor": "Sektor Teknologi Informasi dan Komunikasi",
        "nama_perusahaan": "SIMPAN PINJAM RAYA PUTRA MANDIRI",
        "tanggal_daftar": "2021-03-15",
        "nomor_tanda_daftar": "000306.01/DJAI.PSE/03/2021",
        "qr_code": "https://pse.kominfo.go.id/storage/images/qr_code/5c59226a54d52a0d24d2d25594feab8c.png",
        "status_id": "TERDAFTAR",
        "sistem_elektronik_id": 145
      }
    },
    {
      "type": "tdpseTerbit",
      "id": 382,
      "attributes": {
        "nomor_pb_umku": null,
        "nama": "Website Sun Life Financial Indonesia",
        "website": "https://www.sunlife.co.id/",
        "sektor": "Sektor Keuangan",
        "nama_perusahaan": "SUN LIFE FINANCIAL INDONESIA",
        "tanggal_daftar": "2021-03-15",
        "nomor_tanda_daftar": "000305.04/DJAI.PSE/03/2021",
        "qr_code": "https://pse.kominfo.go.id/storage/images/qr_code/8bee8c3c1faf42521f0b13c61f68471c.png",
        "status_id": "TERDAFTAR",
        "sistem_elektronik_id": 2609
      }
    }
  ]
}