{
  "meta": {
    "page": {
      "currentPage": 923,
      "from": 9221,
      "lastPage": 1111,
      "perPage": 10,
      "to": 9230,
      "total": 11105
    }
  },
  "data": [
    {
      "type": "tdpseTerbit",
      "id": 1328,
      "attributes": {
        "nomor_pb_umku": null,
        "nama": "Jago",
        "website": "-",
        "sektor": "Sektor Keuangan",
        "nama_perusahaan": "BANK JAGO",
        "tanggal_daftar": "2021-06-02",
        "nomor_tanda_daftar": "000885.01/DJAI.PSE/06/2021",
        "qr_code": "https://pse.kominfo.go.id/storage/images/qr_code/996788522f1834a591ccac804798bd7c.png",
        "status_id": "TERDAFTAR",
        "sistem_elektronik_id": 934
      }
    },
    {
      "type": "tdpseTerbit",
      "id": 1326,
      "attributes": {
        "nomor_pb_umku": null,
        "nama": "ROBICOMSTORE",
        "website": "https://robicomstore.id/",
        "sektor": "Sektor Perdagangan",
        "nama_perusahaan": "ROBICOM CIPTA SOLUSINDO",
        "tanggal_daftar": "2021-06-02",
        "nomor_tanda_daftar": "000883.01/DJAI.PSE/06/2021",
        "qr_code": "https://pse.kominfo.go.id/storage/images/qr_code/30315334a9ed0a112af767c1d7aa059b.png",
        "status_id": "TERDAFTAR",
        "sistem_elektronik_id": 2490
      }
    },
    {
      "type": "tdpseTerbit",
      "id": 1325,
      "attributes": {
        "nomor_pb_umku": null,
        "nama": "PT. Cerdas Solusi Indonesia",
        "website": "http://www.cs-indonesia.com/",
        "sektor": "Sektor Teknologi Informasi dan Komunikasi",
        "nama_perusahaan": "CERDAS SOLUSI INDONESIA",
        "tanggal_daftar": "2021-06-02",
        "nomor_tanda_daftar": "000882.01/DJAI.PSE/06/2021",
        "qr_code": "https://pse.kominfo.go.id/storage/images/qr_code/cce9383a154327a982aabb288762c724.png",
        "status_id": "TERDAFTAR",
        "sistem_elektronik_id": 972
      }
    },
    {
      "type": "tdpseTerbit",
      "id": 5749,
      "attributes": {
        "nomor_pb_umku": "912011911026100050001",
        "nama": "MITRA PAJAKKU",
        "website": "pajakku.com",
        "sektor": "Sektor Teknologi Informasi dan Komunikasi",
        "nama_perusahaan": "MITRA PAJAKKU",
        "tanggal_daftar": "2022-07-15",
        "nomor_tanda_daftar": "000881.02/DJAI.PSE/07/2022",
        "qr_code": "https://pse.kominfo.go.id/storage/images/qr_code/aa317cbc55dc64229ce71f71f482c32d.png",
        "status_id": "TERDAFTAR",
        "sistem_elektronik_id": 5613
      }
    },
    {
      "type": "tdpseTerbit",
      "id": 1324,
      "attributes": {
        "nomor_pb_umku": null,
        "nama": "Pajakku",
        "website": "www.pajakku.com",
        "sektor": "Sektor Teknologi Informasi dan Komunikasi",
        "nama_perusahaan": "MITRA PAJAKKU",
        "tanggal_daftar": "2021-06-02",
        "nomor_tanda_daftar": "000881.01/DJAI.PSE/06/2021",
        "qr_code": "https://pse.kominfo.go.id/storage/images/qr_code/36474027b6053398bbfd0db9f841781d.png",
        "status_id": "TERDAFTAR",
        "sistem_elektronik_id": 2576
      }
    },
    {
      "type": "tdpseTerbit",
      "id": 1323,
      "attributes": {
        "nomor_pb_umku": null,
        "nama": "BAGO",
        "website": "www.bago.co.id",
        "sektor": "Sektor Keuangan, Sektor Teknologi Informasi dan Komunikasi, Sektor Transportasi",
        "nama_perusahaan": "BADUNG LANGIT SATU",
        "tanggal_daftar": "2021-06-02",
        "nomor_tanda_daftar": "000880.01/DJAI.PSE/06/2021",
        "qr_code": "https://pse.kominfo.go.id/storage/images/qr_code/d2b0e63e3c3760e5e71d3c3ab028159f.png",
        "status_id": "TERDAFTAR",
        "sistem_elektronik_id": 976
      }
    },
    {
      "type": "tdpseTerbit",
      "id": 1318,
      "attributes": {
        "nomor_pb_umku": null,
        "nama": "UANG GESIT",
        "website": "http://www.uanggesit.id/",
        "sektor": "Sektor Teknologi Informasi dan Komunikasi",
        "nama_perusahaan": "SIMPAN PINJAM MITRA DANA SEJATI",
        "tanggal_daftar": "2021-06-02",
        "nomor_tanda_daftar": "000879.01/DJAI.PSE/06/2021",
        "qr_code": "https://pse.kominfo.go.id/storage/images/qr_code/0c984cd87a13592ca0e83e01103590ca.png",
        "status_id": "TERDAFTAR",
        "sistem_elektronik_id": 4005
      }
    },
    {
      "type": "tdpseTerbit",
      "id": 1312,
      "attributes": {
        "nomor_pb_umku": null,
        "nama": "POHON DANA",
        "website": "www.pohondana.id",
        "sektor": "Sektor Keuangan",
        "nama_perusahaan": "POHON DANA INDONESIA",
        "tanggal_daftar": "2021-06-02",
        "nomor_tanda_daftar": "000878.01/DJAI.PSE/06/2021",
        "qr_code": "https://pse.kominfo.go.id/storage/images/qr_code/e0cb910085b60288a36c52e80a569866.png",
        "status_id": "TERDAFTAR",
        "sistem_elektronik_id": 975
      }
    },
    {
      "type": "tdpseTerbit",
      "id": 1311,
      "attributes": {
        "nomor_pb_umku": null,
        "nama": "Digital Korlantas",
        "website": "digitalkorlantas.id",
        "sektor": "Sektor Teknologi Informasi dan Komunikasi",
        "nama_perusahaan": "LINTAS TJIPTA SOLUSI",
        "tanggal_daftar": "2021-06-02",
        "nomor_tanda_daftar": "000877.01/DJAI.PSE/06/2021",
        "qr_code": "https://pse.kominfo.go.id/storage/images/qr_code/fca54111d1c96a11e695695a7beb820f.png",
        "status_id": "TERDAFTAR",
        "sistem_elektronik_id": 714
      }
    },
    {
      "type": "tdpseTerbit",
      "id": 1310,
      "attributes": {
        "nomor_pb_umku": null,
        "nama": "LinkAja",
        "website": "https://www.linkaja.id/",
        "sektor": "Sektor Keuangan, Sektor Perdagangan, Sektor Teknologi Informasi dan Komunikasi",
        "nama_perusahaan": "FINTEK KARYA NUSANTARA",
        "tanggal_daftar": "2021-06-02",
        "nomor_tanda_daftar": "000876.01/DJAI.PSE/06/2021",
        "qr_code": "https://pse.kominfo.go.id/storage/images/qr_code/e3ae2f0af4d3ba62b457ef9f5f991861.png",
        "status_id": "TERDAFTAR",
        "sistem_elektronik_id": 119
      }
    }
  ]
}