{
  "meta": {
    "page": {
      "currentPage": 925,
      "from": 9241,
      "lastPage": 1008,
      "perPage": 10,
      "to": 9250,
      "total": 10073
    }
  },
  "data": [
    {
      "type": "tdpseTerbit",
      "id": 498,
      "attributes": {
        "nomor_pb_umku": null,
        "nama": "Otten Coffee",
        "website": "ottencoffee.co.id",
        "sektor": "Sektor Pangan, Sektor Perdagangan",
        "nama_perusahaan": "OTTEN COFFEE INDONESIA",
        "tanggal_daftar": "2021-04-20",
        "nomor_tanda_daftar": "000404.01/DJAI.PSE/04/2021",
        "qr_code": "https://pse.kominfo.go.id/storage/images/qr_code/110b733ffa1bd024e79c0d85b7e56ccb.png",
        "status_id": "TERDAFTAR",
        "sistem_elektronik_id": 3520
      }
    },
    {
      "type": "tdpseTerbit",
      "id": 497,
      "attributes": {
        "nomor_pb_umku": null,
        "nama": "Vtube",
        "website": "www.fvtech.id",
        "sektor": "Sektor Teknologi Informasi dan Komunikasi",
        "nama_perusahaan": "FUTURE VIEW TECH",
        "tanggal_daftar": "2021-04-20",
        "nomor_tanda_daftar": "000403.01/DJAI.PSE/04/2021",
        "qr_code": "https://pse.kominfo.go.id/storage/images/qr_code/d6f748819a9fe0d30face84709c2a51e.png",
        "status_id": "TERDAFTAR",
        "sistem_elektronik_id": 164
      }
    },
    {
      "type": "tdpseTerbit",
      "id": 499,
      "attributes": {
        "nomor_pb_umku": null,
        "nama": "Yukepo",
        "website": "https://www.yukepo.com/",
        "sektor": "Sektor Teknologi Informasi dan Komunikasi",
        "nama_perusahaan": "MEDIA MULIA NUSANTARA",
        "tanggal_daftar": "2021-04-20",
        "nomor_tanda_daftar": "000402.02/DJAI.PSE/04/2021",
        "qr_code": "https://pse.kominfo.go.id/storage/images/qr_code/677b88c736d5e82aec429890bab19f52.png",
        "status_id": "TERDAFTAR",
        "sistem_elektronik_id": 326
      }
    },
    {
      "type": "tdpseTerbit",
      "id": 4156,
      "attributes": {
        "nomor_pb_umku": "912030138015100090001",
        "nama": "SIPLAH MITRA MEDIA",
        "website": "-",
        "sektor": "Sektor Perdagangan, Sektor Teknologi Informasi dan Komunikasi",
        "nama_perusahaan": "MITRA MEDIA",
        "tanggal_daftar": "2022-05-27",
        "nomor_tanda_daftar": "000402.01/DJAI.PSE/05/2022",
        "qr_code": "https://pse.kominfo.go.id/storage/images/qr_code/63a3196c8d6b94ce7655a88e18cc2ee6.png",
        "status_id": "TERDAFTAR",
        "sistem_elektronik_id": 4162
      }
    },
    {
      "type": "tdpseTerbit",
      "id": 496,
      "attributes": {
        "nomor_pb_umku": null,
        "nama": "Keepo",
        "website": "keepo.me",
        "sektor": "Sektor Teknologi Informasi dan Komunikasi",
        "nama_perusahaan": "MEDIA MULIA NUSANTARA",
        "tanggal_daftar": "2021-04-20",
        "nomor_tanda_daftar": "000402.01/DJAI.PSE/04/2021",
        "qr_code": "https://pse.kominfo.go.id/storage/images/qr_code/3e83a7c429e5d504e90bfa3643d848b3.png",
        "status_id": "TERDAFTAR",
        "sistem_elektronik_id": 325
      }
    },
    {
      "type": "tdpseTerbit",
      "id": 495,
      "attributes": {
        "nomor_pb_umku": null,
        "nama": "ELIT    Erdikha Online Trading",
        "website": "https://www.erdikha.com",
        "sektor": "Sektor Keuangan",
        "nama_perusahaan": "ERDIKHA ELIT SEKURITAS",
        "tanggal_daftar": "2021-04-20",
        "nomor_tanda_daftar": "000401.01/DJAI.PSE/04/2021",
        "qr_code": "https://pse.kominfo.go.id/storage/images/qr_code/b909ab7498b5022712669ea64f64bbe5.png",
        "status_id": "TERDAFTAR",
        "sistem_elektronik_id": 319
      }
    },
    {
      "type": "tdpseTerbit",
      "id": 2865,
      "attributes": {
        "nomor_pb_umku": null,
        "nama": "PINVA",
        "website": "PINVA.ID",
        "sektor": "Sektor Keuangan, Sektor Teknologi Informasi dan Komunikasi",
        "nama_perusahaan": "INVESNOW FINANSIAL TEKNOLOGI",
        "tanggal_daftar": "2021-12-23",
        "nomor_tanda_daftar": "000400.03/DJAI.PSE/12/2021",
        "qr_code": "https://pse.kominfo.go.id/storage/images/qr_code/dfb50b336d439de86774ba1cec0d9e48.png",
        "status_id": "TERDAFTAR",
        "sistem_elektronik_id": 296
      }
    },
    {
      "type": "tdpseTerbit",
      "id": 494,
      "attributes": {
        "nomor_pb_umku": null,
        "nama": "INVESNOW.ID",
        "website": "https://invesnow.id/",
        "sektor": "Sektor Keuangan, Sektor Teknologi Informasi dan Komunikasi",
        "nama_perusahaan": "INVESNOW FINANSIAL TEKNOLOGI",
        "tanggal_daftar": "2021-04-20",
        "nomor_tanda_daftar": "000400.02/DJAI.PSE/04/2021",
        "qr_code": "https://pse.kominfo.go.id/storage/images/qr_code/e7fdaf17f8cb5191d6b565dedfdac03f.png",
        "status_id": "TERDAFTAR",
        "sistem_elektronik_id": 295
      }
    },
    {
      "type": "tdpseTerbit",
      "id": 4154,
      "attributes": {
        "nomor_pb_umku": "270522002107500010001",
        "nama": "OXYMAS",
        "website": "oxymas.info",
        "sektor": "Sektor Perdagangan, Sektor Kesehatan",
        "nama_perusahaan": "IMAM SUBANDI",
        "tanggal_daftar": "2022-05-27",
        "nomor_tanda_daftar": "000400.01/DJAI.PSE/05/2022",
        "qr_code": "https://pse.kominfo.go.id/storage/images/qr_code/030dd4c2ca8af225a707035db46bec09.png",
        "status_id": "TERDAFTAR",
        "sistem_elektronik_id": 4160
      }
    },
    {
      "type": "tdpseTerbit",
      "id": 492,
      "attributes": {
        "nomor_pb_umku": null,
        "nama": "INVESNOW.ID",
        "website": "https://invesnow.id/",
        "sektor": "Sektor Keuangan, Sektor Teknologi Informasi dan Komunikasi",
        "nama_perusahaan": "INVESNOW FINANSIAL TEKNOLOGI",
        "tanggal_daftar": "2021-04-20",
        "nomor_tanda_daftar": "000400.01/DJAI.PSE/04/2021",
        "qr_code": "https://pse.kominfo.go.id/storage/images/qr_code/fe48953849be1bdaac10ece088e4ddec.png",
        "status_id": "TERDAFTAR",
        "sistem_elektronik_id": 294
      }
    }
  ]
}