{
  "meta": {
    "page": {
      "currentPage": 926,
      "from": 9251,
      "lastPage": 937,
      "perPage": 10,
      "to": 9260,
      "total": 9366
    }
  },
  "data": [
    {
      "type": "tdpseTerbit",
      "id": 68,
      "attributes": {
        "nomor_pb_umku": null,
        "nama": "BUTUH DANA",
        "website": "-",
        "sektor": "Sektor Keuangan",
        "nama_perusahaan": "SIMPAN PINJAM NUSA RIBU DUA",
        "tanggal_daftar": "2021-02-23",
        "nomor_tanda_daftar": "000059.01/DJAI.PSE/02/2021",
        "qr_code": "https://pse.kominfo.go.id/storage/images/qr_code/d5ca2e852f2b0aa4d4a95981dd1489b5.png",
        "status_id": "TERDAFTAR",
        "sistem_elektronik_id": 2491
      }
    },
    {
      "type": "tdpseTerbit",
      "id": 67,
      "attributes": {
        "nomor_pb_umku": null,
        "nama": "BETA CASH",
        "website": "-",
        "sektor": "Sektor Keuangan",
        "nama_perusahaan": "SIMPAN PINJAM NUSA DUA TIGA",
        "tanggal_daftar": "2021-02-23",
        "nomor_tanda_daftar": "000058.01/DJAI.PSE/02/2021",
        "qr_code": "https://pse.kominfo.go.id/storage/images/qr_code/0659e9cf2f9153269337803f85460ef6.png",
        "status_id": "TERDAFTAR",
        "sistem_elektronik_id": 2484
      }
    },
    {
      "type": "tdpseTerbit",
      "id": 66,
      "attributes": {
        "nomor_pb_umku": null,
        "nama": "Employee Activity Tracking System",
        "website": "http://www.mediainovasi.id/",
        "sektor": "Sektor Teknologi Informasi dan Komunikasi",
        "nama_perusahaan": "MEDIA INOVASI INDONESIA",
        "tanggal_daftar": "2021-02-23",
        "nomor_tanda_daftar": "000057.01/DJAI.PSE/02/2021",
        "qr_code": "https://pse.kominfo.go.id/storage/images/qr_code/6813976f530dbf1c1aeaa363a07d2d04.png",
        "status_id": "TERDAFTAR",
        "sistem_elektronik_id": 2363
      }
    },
    {
      "type": "tdpseTerbit",
      "id": 65,
      "attributes": {
        "nomor_pb_umku": null,
        "nama": "Nmc Borneo",
        "website": "www.nmcborneo.com",
        "sektor": "Sektor Teknologi Informasi dan Komunikasi",
        "nama_perusahaan": "PRIMA ANUGERAH PASER",
        "tanggal_daftar": "2021-02-23",
        "nomor_tanda_daftar": "000056.01/DJAI.PSE/02/2021",
        "qr_code": "https://pse.kominfo.go.id/storage/images/qr_code/75f5c27a833526a168f21c47d256fa6f.png",
        "status_id": "TERDAFTAR",
        "sistem_elektronik_id": 2440
      }
    },
    {
      "type": "tdpseTerbit",
      "id": 64,
      "attributes": {
        "nomor_pb_umku": null,
        "nama": "Dolpheen",
        "website": "www.dolpheen.id",
        "sektor": "Sektor Teknologi Informasi dan Komunikasi",
        "nama_perusahaan": "SCOREX TEKNOLOGI INDONESIA",
        "tanggal_daftar": "2021-02-23",
        "nomor_tanda_daftar": "000055.01/DJAI.PSE/02/2021",
        "qr_code": "https://pse.kominfo.go.id/storage/images/qr_code/64ddd3857e67ce31a896ca5a38136a2c.png",
        "status_id": "TERDAFTAR",
        "sistem_elektronik_id": 2489
      }
    },
    {
      "type": "tdpseTerbit",
      "id": 5032,
      "attributes": {
        "nomor_pb_umku": "021000192150500050002",
        "nama": "DESTY.PAGE",
        "website": "desty.app",
        "sektor": "Sektor Teknologi Informasi dan Komunikasi",
        "nama_perusahaan": "DESTY KARSA WESYA",
        "tanggal_daftar": "2022-07-02",
        "nomor_tanda_daftar": "000054.04/DJAI.PSE/07/2022",
        "qr_code": "https://pse.kominfo.go.id/storage/images/qr_code/66b97464fd8b617194634114dd369169.png",
        "status_id": "TERDAFTAR",
        "sistem_elektronik_id": 4904
      }
    },
    {
      "type": "tdpseTerbit",
      "id": 4343,
      "attributes": {
        "nomor_pb_umku": null,
        "nama": "Desty.app",
        "website": "Desty.app",
        "sektor": "Sektor Perdagangan",
        "nama_perusahaan": "DESTY KARSA WESYA",
        "tanggal_daftar": "2022-04-28",
        "nomor_tanda_daftar": "000054.03/DJAI.PSE/04/2022",
        "qr_code": "https://pse.kominfo.go.id/storage/images/qr_code/091b91edc47475c85746e7a84edf661a.png",
        "status_id": "TERDAFTAR",
        "sistem_elektronik_id": 4329
      }
    },
    {
      "type": "tdpseTerbit",
      "id": 63,
      "attributes": {
        "nomor_pb_umku": null,
        "nama": "desty",
        "website": "https://www.desty.app/",
        "sektor": "Sektor Perdagangan, Sektor Teknologi Informasi dan Komunikasi",
        "nama_perusahaan": "DESTY KARSA WESYA",
        "tanggal_daftar": "2021-02-23",
        "nomor_tanda_daftar": "000054.02/DJAI.PSE/02/2021",
        "qr_code": "https://pse.kominfo.go.id/storage/images/qr_code/6657d93dafab8448cd57fcf5e6194eb6.png",
        "status_id": "TERDAFTAR",
        "sistem_elektronik_id": 2451
      }
    },
    {
      "type": "tdpseTerbit",
      "id": 62,
      "attributes": {
        "nomor_pb_umku": null,
        "nama": "desty",
        "website": "https://www.desty.app/",
        "sektor": "Sektor Perdagangan, Sektor Teknologi Informasi dan Komunikasi",
        "nama_perusahaan": "DESTY KARSA WESYA",
        "tanggal_daftar": "2021-02-23",
        "nomor_tanda_daftar": "000054.01/DJAI.PSE/02/2021",
        "qr_code": "https://pse.kominfo.go.id/storage/images/qr_code/80e36e7f6c2ffc87aa01125e848738a8.png",
        "status_id": "TERDAFTAR",
        "sistem_elektronik_id": 2450
      }
    },
    {
      "type": "tdpseTerbit",
      "id": 61,
      "attributes": {
        "nomor_pb_umku": null,
        "nama": "KREDIT NOW",
        "website": "-",
        "sektor": "Sektor Keuangan",
        "nama_perusahaan": "SIMPAN PINJAM PERMATA INDAH BERSAMA",
        "tanggal_daftar": "2021-02-23",
        "nomor_tanda_daftar": "000053.01/DJAI.PSE/02/2021",
        "qr_code": "https://pse.kominfo.go.id/storage/images/qr_code/a0d20e362f523389cd24b5e14318c5a3.png",
        "status_id": "TERDAFTAR",
        "sistem_elektronik_id": 2485
      }
    }
  ]
}