{
  "meta": {
    "page": {
      "currentPage": 927,
      "from": 9261,
      "lastPage": 970,
      "perPage": 10,
      "to": 9270,
      "total": 9692
    }
  },
  "data": [
    {
      "type": "tdpseTerbit",
      "id": 3491,
      "attributes": {
        "nomor_pb_umku": null,
        "nama": "SITUANSAN",
        "website": "Alamat Website: situansan.com, situansan.id, situansan.co.id",
        "sektor": "Sektor Perdagangan",
        "nama_perusahaan": "SITU PESAN SINI ANTAR",
        "tanggal_daftar": "2022-03-09",
        "nomor_tanda_daftar": "000231.02/DJAI.PSE/03/2022",
        "qr_code": "https://pse.kominfo.go.id/storage/images/qr_code/b414678f14e66bffe23809ff6c319df7.png",
        "status_id": "TERDAFTAR",
        "sistem_elektronik_id": 3196
      }
    },
    {
      "type": "tdpseTerbit",
      "id": 270,
      "attributes": {
        "nomor_pb_umku": null,
        "nama": "Situansan",
        "website": "Situansan",
        "sektor": "Sektor Perdagangan",
        "nama_perusahaan": "SITU PESAN SINI ANTAR",
        "tanggal_daftar": "2021-02-26",
        "nomor_tanda_daftar": "000231.01/DJAI.PSE/02/2021",
        "qr_code": "https://pse.kominfo.go.id/storage/images/qr_code/778bd7397142be46c5750cf7ee100595.png",
        "status_id": "TERDAFTAR",
        "sistem_elektronik_id": 2774
      }
    },
    {
      "type": "tdpseTerbit",
      "id": 269,
      "attributes": {
        "nomor_pb_umku": null,
        "nama": "SHAFIQ",
        "website": "https://www.shafiq.id/",
        "sektor": "Sektor Keuangan",
        "nama_perusahaan": "SHAFIQ DIGITAL INDONESIA",
        "tanggal_daftar": "2021-02-26",
        "nomor_tanda_daftar": "000230.01/DJAI.PSE/02/2021",
        "qr_code": "https://pse.kominfo.go.id/storage/images/qr_code/27f94c4abe0738b584f3021de1322d6d.png",
        "status_id": "TERDAFTAR",
        "sistem_elektronik_id": 2303
      }
    },
    {
      "type": "tdpseTerbit",
      "id": 321,
      "attributes": {
        "nomor_pb_umku": null,
        "nama": "Sistem Teknologi Informasi Desa (STID)",
        "website": "https://demosid.karyabangun.co.id/",
        "sektor": "Sektor Teknologi Informasi dan Komunikasi",
        "nama_perusahaan": "KARYA BANGUN INFORMASI",
        "tanggal_daftar": "2021-03-04",
        "nomor_tanda_daftar": "000229.02/DJAI.PSE/03/2021",
        "qr_code": "https://pse.kominfo.go.id/storage/images/qr_code/c11460b8ce7f5d17058c5f288899e68f.png",
        "status_id": "TERDAFTAR",
        "sistem_elektronik_id": 8
      }
    },
    {
      "type": "tdpseTerbit",
      "id": 268,
      "attributes": {
        "nomor_pb_umku": null,
        "nama": "Karya Bangun Informasi",
        "website": "https://karyabangun.co.id/, https://karyabangun.co.id/e-shop/",
        "sektor": "Sektor Perdagangan, Sektor Teknologi Informasi dan Komunikasi",
        "nama_perusahaan": "KARYA BANGUN INFORMASI",
        "tanggal_daftar": "2021-02-26",
        "nomor_tanda_daftar": "000229.01/DJAI.PSE/02/2021",
        "qr_code": "https://pse.kominfo.go.id/storage/images/qr_code/8744db30a938c94ea129dc5596a84254.png",
        "status_id": "TERDAFTAR",
        "sistem_elektronik_id": 7
      }
    },
    {
      "type": "tdpseTerbit",
      "id": 279,
      "attributes": {
        "nomor_pb_umku": null,
        "nama": "KIOSBANK",
        "website": "www.kiosbank.id",
        "sektor": "Sektor Teknologi Informasi dan Komunikasi",
        "nama_perusahaan": "DESIGN JAYA INDONESIA",
        "tanggal_daftar": "2021-03-04",
        "nomor_tanda_daftar": "000228.02/DJAI.PSE/03/2021",
        "qr_code": "https://pse.kominfo.go.id/storage/images/qr_code/ba9e48272c70554b7a9dc0a4a29cadbb.png",
        "status_id": "TERDAFTAR",
        "sistem_elektronik_id": 13
      }
    },
    {
      "type": "tdpseTerbit",
      "id": 267,
      "attributes": {
        "nomor_pb_umku": null,
        "nama": "KIOSBANK",
        "website": "www.kiosbank.id",
        "sektor": "Sektor Teknologi Informasi dan Komunikasi",
        "nama_perusahaan": "DESIGN JAYA INDONESIA",
        "tanggal_daftar": "2021-02-26",
        "nomor_tanda_daftar": "000228.01/DJAI.PSE/02/2021",
        "qr_code": "https://pse.kominfo.go.id/storage/images/qr_code/902d296e934c2e76aa989a76abd7aa50.png",
        "status_id": "TERDAFTAR",
        "sistem_elektronik_id": 12
      }
    },
    {
      "type": "tdpseTerbit",
      "id": 266,
      "attributes": {
        "nomor_pb_umku": null,
        "nama": "Grivy",
        "website": "https://business.grivy.com/",
        "sektor": "Sektor Teknologi Informasi dan Komunikasi",
        "nama_perusahaan": "GRIVY DOTCOM",
        "tanggal_daftar": "2021-02-26",
        "nomor_tanda_daftar": "000227.01/DJAI.PSE/02/2021",
        "qr_code": "https://pse.kominfo.go.id/storage/images/qr_code/f8a2ba38fb99ea7ea86fd0241e087091.png",
        "status_id": "TERDAFTAR",
        "sistem_elektronik_id": 6
      }
    },
    {
      "type": "tdpseTerbit",
      "id": 265,
      "attributes": {
        "nomor_pb_umku": null,
        "nama": "Situs Web PT Asianet Media Teknologi",
        "website": "https://asianet.co.id/",
        "sektor": "Sektor Perdagangan",
        "nama_perusahaan": "ASIANET MEDIA TEKNOLOGI",
        "tanggal_daftar": "2021-02-26",
        "nomor_tanda_daftar": "000226.01/DJAI.PSE/02/2021",
        "qr_code": "https://pse.kominfo.go.id/storage/images/qr_code/f5bd38cb981cffeee257f69059933407.png",
        "status_id": "TERDAFTAR",
        "sistem_elektronik_id": 2662
      }
    },
    {
      "type": "tdpseTerbit",
      "id": 264,
      "attributes": {
        "nomor_pb_umku": null,
        "nama": "EMPAT KALI INDONESIA",
        "website": "https://empatkali.co.id",
        "sektor": "Sektor Teknologi Informasi dan Komunikasi",
        "nama_perusahaan": "EMPAT KALI INDONESIA",
        "tanggal_daftar": "2021-02-26",
        "nomor_tanda_daftar": "000225.01/DJAI.PSE/02/2021",
        "qr_code": "https://pse.kominfo.go.id/storage/images/qr_code/83df1b7c05a1d7bf88c8b788bcefe115.png",
        "status_id": "TERDAFTAR",
        "sistem_elektronik_id": 2698
      }
    }
  ]
}