{
  "meta": {
    "page": {
      "currentPage": 930,
      "from": 9291,
      "lastPage": 1072,
      "perPage": 10,
      "to": 9300,
      "total": 10718
    }
  },
  "data": [
    {
      "type": "tdpseTerbit",
      "id": 3946,
      "attributes": {
        "nomor_pb_umku": null,
        "nama": "eCampuz Suite",
        "website": "https://suite.ecampuz.com/",
        "sektor": "Sektor Teknologi Informasi dan Komunikasi",
        "nama_perusahaan": "SOLUSI KAMPUS INDONESIA",
        "tanggal_daftar": "2022-04-20",
        "nomor_tanda_daftar": "000753.05/DJAI.PSE/04/2022",
        "qr_code": "https://pse.kominfo.go.id/storage/images/qr_code/4371ffb56d8cd4f60587a85aa619dd8f.png",
        "status_id": "TERDAFTAR",
        "sistem_elektronik_id": 3988
      }
    },
    {
      "type": "tdpseTerbit",
      "id": 3945,
      "attributes": {
        "nomor_pb_umku": null,
        "nama": "eSPMI",
        "website": "https://suite.ecampuz.com/",
        "sektor": "Sektor Teknologi Informasi dan Komunikasi",
        "nama_perusahaan": "SOLUSI KAMPUS INDONESIA",
        "tanggal_daftar": "2022-04-20",
        "nomor_tanda_daftar": "000753.04/DJAI.PSE/04/2022",
        "qr_code": "https://pse.kominfo.go.id/storage/images/qr_code/9f89d4b05ad3101438327f2ce033bf1c.png",
        "status_id": "TERDAFTAR",
        "sistem_elektronik_id": 3987
      }
    },
    {
      "type": "tdpseTerbit",
      "id": 1048,
      "attributes": {
        "nomor_pb_umku": null,
        "nama": "eCampuz",
        "website": "cloud.eCampuz.com",
        "sektor": "Sektor Teknologi Informasi dan Komunikasi",
        "nama_perusahaan": "SOLUSI KAMPUS INDONESIA",
        "tanggal_daftar": "2021-05-21",
        "nomor_tanda_daftar": "000753.03/DJAI.PSE/05/2021",
        "qr_code": "https://pse.kominfo.go.id/storage/images/qr_code/d9da238c263e2c4fdbfd95a5ff8326ea.png",
        "status_id": "TERDAFTAR",
        "sistem_elektronik_id": 556
      }
    },
    {
      "type": "tdpseTerbit",
      "id": 1025,
      "attributes": {
        "nomor_pb_umku": null,
        "nama": "eCampuz",
        "website": "cloud.eCampuz.com",
        "sektor": "Sektor Teknologi Informasi dan Komunikasi",
        "nama_perusahaan": "SOLUSI KAMPUS INDONESIA",
        "tanggal_daftar": "2021-05-18",
        "nomor_tanda_daftar": "000753.02/DJAI.PSE/05/2021",
        "qr_code": "https://pse.kominfo.go.id/storage/images/qr_code/a92008f83e5a35a08767cd6ef674637a.png",
        "status_id": "TERDAFTAR",
        "sistem_elektronik_id": 555
      }
    },
    {
      "type": "tdpseTerbit",
      "id": 1009,
      "attributes": {
        "nomor_pb_umku": null,
        "nama": "eCampuz",
        "website": "cloud.eCampuz.com",
        "sektor": "Sektor Teknologi Informasi dan Komunikasi",
        "nama_perusahaan": "SOLUSI KAMPUS INDONESIA",
        "tanggal_daftar": "2021-05-18",
        "nomor_tanda_daftar": "000753.01/DJAI.PSE/05/2021",
        "qr_code": "https://pse.kominfo.go.id/storage/images/qr_code/b2bd57ffc5b4bde55ea0d99acdc7fc82.png",
        "status_id": "TERDAFTAR",
        "sistem_elektronik_id": 554
      }
    },
    {
      "type": "tdpseTerbit",
      "id": 1008,
      "attributes": {
        "nomor_pb_umku": null,
        "nama": "VIDA (https://www.vida.id/)",
        "website": "https://www.vida.id/",
        "sektor": "Sektor Teknologi Informasi dan Komunikasi",
        "nama_perusahaan": "INDONESIA DIGITAL IDENTITY",
        "tanggal_daftar": "2021-05-18",
        "nomor_tanda_daftar": "000752.01/DJAI.PSE/05/2021",
        "qr_code": "https://pse.kominfo.go.id/storage/images/qr_code/991900d7d4dd56bc7f6e5fbec872fd2e.png",
        "status_id": "TERDAFTAR",
        "sistem_elektronik_id": 727
      }
    },
    {
      "type": "tdpseTerbit",
      "id": 1007,
      "attributes": {
        "nomor_pb_umku": null,
        "nama": "Holiday Gift Hunter",
        "website": "https://www.holidaygifthunter.com/",
        "sektor": "Sektor Perdagangan",
        "nama_perusahaan": "NITIFESE GLOBAL HORIZON",
        "tanggal_daftar": "2021-05-18",
        "nomor_tanda_daftar": "000751.01/DJAI.PSE/05/2021",
        "qr_code": "https://pse.kominfo.go.id/storage/images/qr_code/4a4cab7d5e4f6e24014277533a856361.png",
        "status_id": "TERDAFTAR",
        "sistem_elektronik_id": 718
      }
    },
    {
      "type": "tdpseTerbit",
      "id": 1006,
      "attributes": {
        "nomor_pb_umku": null,
        "nama": "Halmall",
        "website": "halmall.id",
        "sektor": "Sektor Perdagangan",
        "nama_perusahaan": "HARMONI NIAGA INFORMATIKA",
        "tanggal_daftar": "2021-05-18",
        "nomor_tanda_daftar": "000750.01/DJAI.PSE/05/2021",
        "qr_code": "https://pse.kominfo.go.id/storage/images/qr_code/75513c23a8e1df5098e558105dc2fbdf.png",
        "status_id": "TERDAFTAR",
        "sistem_elektronik_id": 534
      }
    },
    {
      "type": "tdpseTerbit",
      "id": 1005,
      "attributes": {
        "nomor_pb_umku": null,
        "nama": "IZIDATA",
        "website": "https://creditizi.id/",
        "sektor": "Sektor Teknologi Informasi dan Komunikasi",
        "nama_perusahaan": "IZI DATA INDONESIA",
        "tanggal_daftar": "2021-05-18",
        "nomor_tanda_daftar": "000749.01/DJAI.PSE/05/2021",
        "qr_code": "https://pse.kominfo.go.id/storage/images/qr_code/469ba7734f0564b5d58b01cbb88ccac6.png",
        "status_id": "TERDAFTAR",
        "sistem_elektronik_id": 523
      }
    },
    {
      "type": "tdpseTerbit",
      "id": 10920,
      "attributes": {
        "nomor_pb_umku": "912001623003400010003",
        "nama": "CROWDDANA APLIKASI",
        "website": "crowddana.id",
        "sektor": "Sektor Keuangan",
        "nama_perusahaan": "CROWDDANA TEKNOLOGI INDONUSA",
        "tanggal_daftar": "2022-08-31",
        "nomor_tanda_daftar": "000748.03/DJAI.PSE/08/2022",
        "qr_code": "https://pse.kominfo.go.id/storage/images/qr_code/3a82ed3938da894a10c2d04e4ccc1f3e.png",
        "status_id": "TERDAFTAR",
        "sistem_elektronik_id": 10730
      }
    }
  ]
}