{
  "meta": {
    "page": {
      "currentPage": 932,
      "from": 9311,
      "lastPage": 991,
      "perPage": 10,
      "to": 9320,
      "total": 9907
    }
  },
  "data": [
    {
      "type": "tdpseTerbit",
      "id": 4577,
      "attributes": {
        "nomor_pb_umku": "912040980232100000001",
        "nama": "WILKASTORE.CO.ID",
        "website": "wilkapower.com",
        "sektor": "Sektor Perdagangan, Sektor Energi dan Sumber Daya Mineral",
        "nama_perusahaan": "WILKA ENERGI SOLUSI",
        "tanggal_daftar": "2022-06-17",
        "nomor_tanda_daftar": "000310.01/DJAI.PSE/06/2022",
        "qr_code": "https://pse.kominfo.go.id/storage/images/qr_code/f708734f3f2ca044a5475edb1e0581be.png",
        "status_id": "TERDAFTAR",
        "sistem_elektronik_id": 4534
      }
    },
    {
      "type": "tdpseTerbit",
      "id": 4194,
      "attributes": {
        "nomor_pb_umku": "125700042247200000001",
        "nama": "WISBAYAR",
        "website": "wisbayar.id",
        "sektor": "Sektor Perdagangan",
        "nama_perusahaan": "SOLUSI DIGITAL CEPAT",
        "tanggal_daftar": "2022-05-31",
        "nomor_tanda_daftar": "000310.01/DJAI.PSE/05/2022",
        "qr_code": "https://pse.kominfo.go.id/storage/images/qr_code/ec4bfc23b97011b415fea8199237fd37.png",
        "status_id": "TERDAFTAR",
        "sistem_elektronik_id": 4197
      }
    },
    {
      "type": "tdpseTerbit",
      "id": 379,
      "attributes": {
        "nomor_pb_umku": null,
        "nama": "PT.Bursa Crypto indonesia ( Cryptoindex.id)",
        "website": "www.cryptoindex.id",
        "sektor": "Sektor Perdagangan",
        "nama_perusahaan": "BURSA CRYPTO INDONESIA",
        "tanggal_daftar": "2021-03-15",
        "nomor_tanda_daftar": "000310.01/DJAI.PSE/03/2021",
        "qr_code": "https://pse.kominfo.go.id/storage/images/qr_code/ba098bf066825248a16c62d7a514dcd5.png",
        "status_id": "TERDAFTAR",
        "sistem_elektronik_id": 154
      }
    },
    {
      "type": "tdpseTerbit",
      "id": 4300,
      "attributes": {
        "nomor_pb_umku": "912011318183600010002",
        "nama": "WATULINTANG MEDIA",
        "website": "watulintang.com",
        "sektor": "Sektor Perdagangan, Sektor Teknologi Informasi dan Komunikasi",
        "nama_perusahaan": "WATULINTANG MEDIA",
        "tanggal_daftar": "2022-06-08",
        "nomor_tanda_daftar": "000309.02/DJAI.PSE/06/2022",
        "qr_code": "https://pse.kominfo.go.id/storage/images/qr_code/c75e250de5c634710b0d825729071369.png",
        "status_id": "TERDAFTAR",
        "sistem_elektronik_id": 4293
      }
    },
    {
      "type": "tdpseTerbit",
      "id": 4298,
      "attributes": {
        "nomor_pb_umku": "912011318183600010001",
        "nama": "SEKOLAHKITA NET",
        "website": "sekolahkita.net",
        "sektor": "Sektor Teknologi Informasi dan Komunikasi",
        "nama_perusahaan": "WATULINTANG MEDIA",
        "tanggal_daftar": "2022-06-08",
        "nomor_tanda_daftar": "000309.01/DJAI.PSE/06/2022",
        "qr_code": "https://pse.kominfo.go.id/storage/images/qr_code/1ec19f11551f4bae1d2f0d1b5bc894a3.png",
        "status_id": "TERDAFTAR",
        "sistem_elektronik_id": 4291
      }
    },
    {
      "type": "tdpseTerbit",
      "id": 4107,
      "attributes": {
        "nomor_pb_umku": "912050370214200000001",
        "nama": "KONTAN",
        "website": "kontan.co.id",
        "sektor": "Sektor Perdagangan, Sektor Teknologi Informasi dan Komunikasi",
        "nama_perusahaan": "GRAHANUSA MEDIATAMA",
        "tanggal_daftar": "2022-05-23",
        "nomor_tanda_daftar": "000309.01/DJAI.PSE/05/2022",
        "qr_code": "https://pse.kominfo.go.id/storage/images/qr_code/08e2cb4ed5f4e1e509767fbdcc226379.png",
        "status_id": "TERDAFTAR",
        "sistem_elektronik_id": 4106
      }
    },
    {
      "type": "tdpseTerbit",
      "id": 378,
      "attributes": {
        "nomor_pb_umku": null,
        "nama": "Konsultanku",
        "website": "https://www.konsultanku.co.id",
        "sektor": "Sektor Perdagangan",
        "nama_perusahaan": "KONSULTANKU NUSANTARA DIGITAL",
        "tanggal_daftar": "2021-03-15",
        "nomor_tanda_daftar": "000309.01/DJAI.PSE/03/2021",
        "qr_code": "https://pse.kominfo.go.id/storage/images/qr_code/6119223c5ff7c72951de02089694a21c.png",
        "status_id": "TERDAFTAR",
        "sistem_elektronik_id": 161
      }
    },
    {
      "type": "tdpseTerbit",
      "id": 377,
      "attributes": {
        "nomor_pb_umku": null,
        "nama": "DANA KU",
        "website": "Http://www.danaku.com",
        "sektor": "Sektor Teknologi Informasi dan Komunikasi",
        "nama_perusahaan": "SIMPAN PINJAM DANA PANDAWA LIMA",
        "tanggal_daftar": "2021-03-15",
        "nomor_tanda_daftar": "000308.01/DJAI.PSE/03/2021",
        "qr_code": "https://pse.kominfo.go.id/storage/images/qr_code/d55eed8e3f0d53a2ca07db3d6c59e273.png",
        "status_id": "TERDAFTAR",
        "sistem_elektronik_id": 143
      }
    },
    {
      "type": "tdpseTerbit",
      "id": 4297,
      "attributes": {
        "nomor_pb_umku": "250422004020500020002",
        "nama": "RINGKAS.",
        "website": "ringkas.co.id",
        "sektor": "Sektor Perdagangan, Sektor Teknologi Informasi dan Komunikasi",
        "nama_perusahaan": "RINGKAS ASIA TECHNOLOGY",
        "tanggal_daftar": "2022-06-08",
        "nomor_tanda_daftar": "000307.02/DJAI.PSE/06/2022",
        "qr_code": "https://pse.kominfo.go.id/storage/images/qr_code/eee23a3348551567277200872badf2cf.png",
        "status_id": "TERDAFTAR",
        "sistem_elektronik_id": 4290
      }
    },
    {
      "type": "tdpseTerbit",
      "id": 4570,
      "attributes": {
        "nomor_pb_umku": "310122004227800000001",
        "nama": "ZAHSY ALESHA DIGITAL & TECH",
        "website": "-",
        "sektor": "Sektor Teknologi Informasi dan Komunikasi",
        "nama_perusahaan": "RULLY SIREY",
        "tanggal_daftar": "2022-06-16",
        "nomor_tanda_daftar": "000307.01/DJAI.PSE/06/2022",
        "qr_code": "https://pse.kominfo.go.id/storage/images/qr_code/6c9912fcdfa17adde801c293d0b234ae.png",
        "status_id": "TERDAFTAR",
        "sistem_elektronik_id": 4533
      }
    }
  ]
}