{
  "meta": {
    "page": {
      "currentPage": 933,
      "from": 9321,
      "lastPage": 1008,
      "perPage": 10,
      "to": 9330,
      "total": 10073
    }
  },
  "data": [
    {
      "type": "tdpseTerbit",
      "id": 7664,
      "attributes": {
        "nomor_pb_umku": "123300014256400020007",
        "nama": "SUPER HEROES MOBILE APPLICATION (ANDROID & IOS)",
        "website": "-",
        "sektor": "Sektor Keuangan",
        "nama_perusahaan": "HANWHA LIFE INSURANCE INDONESIA",
        "tanggal_daftar": "2022-07-20",
        "nomor_tanda_daftar": "000359.08/DJAI.PSE/07/2022",
        "qr_code": "https://pse.kominfo.go.id/storage/images/qr_code/72d6919ff2b8e21ee1958dcdf7ee1bb4.png",
        "status_id": "TERDAFTAR",
        "sistem_elektronik_id": 7559
      }
    },
    {
      "type": "tdpseTerbit",
      "id": 7644,
      "attributes": {
        "nomor_pb_umku": "123300014256400020006",
        "nama": "HANWHA SMART MOBILE APPLICATION (ANDROID & IOS)",
        "website": "-",
        "sektor": "Sektor Keuangan",
        "nama_perusahaan": "HANWHA LIFE INSURANCE INDONESIA",
        "tanggal_daftar": "2022-07-20",
        "nomor_tanda_daftar": "000359.07/DJAI.PSE/07/2022",
        "qr_code": "https://pse.kominfo.go.id/storage/images/qr_code/d804aa020fce518a5c3f0855e63f86e1.png",
        "status_id": "TERDAFTAR",
        "sistem_elektronik_id": 7538
      }
    },
    {
      "type": "tdpseTerbit",
      "id": 7471,
      "attributes": {
        "nomor_pb_umku": "123300014256400020005",
        "nama": "GROUP HEALTH PIC REPORTING",
        "website": "health.hanwhalife.co.id",
        "sektor": "Sektor Keuangan",
        "nama_perusahaan": "HANWHA LIFE INSURANCE INDONESIA",
        "tanggal_daftar": "2022-07-20",
        "nomor_tanda_daftar": "000359.06/DJAI.PSE/07/2022",
        "qr_code": "https://pse.kominfo.go.id/storage/images/qr_code/45429e57c844de85b890c713c9168b3e.png",
        "status_id": "TERDAFTAR",
        "sistem_elektronik_id": 7363
      }
    },
    {
      "type": "tdpseTerbit",
      "id": 7409,
      "attributes": {
        "nomor_pb_umku": "123300014256400020004",
        "nama": "E-SUBMISSION",
        "website": "registrasi.hanwhalife.co.id",
        "sektor": "Sektor Keuangan",
        "nama_perusahaan": "HANWHA LIFE INSURANCE INDONESIA",
        "tanggal_daftar": "2022-07-20",
        "nomor_tanda_daftar": "000359.05/DJAI.PSE/07/2022",
        "qr_code": "https://pse.kominfo.go.id/storage/images/qr_code/695ceddae312fdadbbd0700a175743a4.png",
        "status_id": "TERDAFTAR",
        "sistem_elektronik_id": 7305
      }
    },
    {
      "type": "tdpseTerbit",
      "id": 7373,
      "attributes": {
        "nomor_pb_umku": "123300014256400020003",
        "nama": "CORPORATE WEB PT HANWHA LIFE INSURANCE INDONESIA",
        "website": "hanwhalife.co.id",
        "sektor": "Sektor Keuangan",
        "nama_perusahaan": "HANWHA LIFE INSURANCE INDONESIA",
        "tanggal_daftar": "2022-07-20",
        "nomor_tanda_daftar": "000359.04/DJAI.PSE/07/2022",
        "qr_code": "https://pse.kominfo.go.id/storage/images/qr_code/5746dc77fa2b7427d3e0d75899748695.png",
        "status_id": "TERDAFTAR",
        "sistem_elektronik_id": 7269
      }
    },
    {
      "type": "tdpseTerbit",
      "id": 7336,
      "attributes": {
        "nomor_pb_umku": "123300014256400020002",
        "nama": "SALES ILUSTRATION SYSTEM",
        "website": "sis.hanwhalife.co.id",
        "sektor": "Sektor Keuangan",
        "nama_perusahaan": "HANWHA LIFE INSURANCE INDONESIA",
        "tanggal_daftar": "2022-07-20",
        "nomor_tanda_daftar": "000359.03/DJAI.PSE/07/2022",
        "qr_code": "https://pse.kominfo.go.id/storage/images/qr_code/3561ed7eda6f440e30ac814dfa506891.png",
        "status_id": "TERDAFTAR",
        "sistem_elektronik_id": 7230
      }
    },
    {
      "type": "tdpseTerbit",
      "id": 528,
      "attributes": {
        "nomor_pb_umku": null,
        "nama": "Bucket List Plan",
        "website": "https://bucketlistplan.co.id",
        "sektor": "Sektor Keuangan",
        "nama_perusahaan": "HANWHA LIFE INSURANCE INDONESIA",
        "tanggal_daftar": "2021-04-21",
        "nomor_tanda_daftar": "000359.02/DJAI.PSE/04/2021",
        "qr_code": "https://pse.kominfo.go.id/storage/images/qr_code/5ac78b8df9fcafe6728964b397b8f194.png",
        "status_id": "TERDAFTAR",
        "sistem_elektronik_id": 190
      }
    },
    {
      "type": "tdpseTerbit",
      "id": 440,
      "attributes": {
        "nomor_pb_umku": null,
        "nama": "Korea Versi Kamu",
        "website": "https://koreaversikamu.co.id",
        "sektor": "Sektor Keuangan",
        "nama_perusahaan": "HANWHA LIFE INSURANCE INDONESIA",
        "tanggal_daftar": "2021-04-14",
        "nomor_tanda_daftar": "000359.01/DJAI.PSE/04/2021",
        "qr_code": "https://pse.kominfo.go.id/storage/images/qr_code/23541195cf1a5c175915e9376dae1964.png",
        "status_id": "TERDAFTAR",
        "sistem_elektronik_id": 189
      }
    },
    {
      "type": "tdpseTerbit",
      "id": 4181,
      "attributes": {
        "nomor_pb_umku": "190522005282400000001",
        "nama": "GLOBAL CAREER",
        "website": "globalcareer.id",
        "sektor": "Sektor Teknologi Informasi dan Komunikasi",
        "nama_perusahaan": "GLOBAL KARIR MANAJEMEN",
        "tanggal_daftar": "2022-05-30",
        "nomor_tanda_daftar": "000358.01/DJAI.PSE/05/2022",
        "qr_code": "https://pse.kominfo.go.id/storage/images/qr_code/81572cf90205163966cec1287cdd8edf.png",
        "status_id": "TERDAFTAR",
        "sistem_elektronik_id": 4182
      }
    },
    {
      "type": "tdpseTerbit",
      "id": 439,
      "attributes": {
        "nomor_pb_umku": null,
        "nama": "OSLE INDONESIA",
        "website": "www.osleindonesia.com",
        "sektor": "Sektor Teknologi Informasi dan Komunikasi",
        "nama_perusahaan": "OSLE INDONESIA",
        "tanggal_daftar": "2021-04-14",
        "nomor_tanda_daftar": "000358.01/DJAI.PSE/04/2021",
        "qr_code": "https://pse.kominfo.go.id/storage/images/qr_code/d8d0413b663b8eb062b5d5c666ddad02.png",
        "status_id": "TERDAFTAR",
        "sistem_elektronik_id": 3510
      }
    }
  ]
}