{
  "meta": {
    "page": {
      "currentPage": 934,
      "from": 9331,
      "lastPage": 1113,
      "perPage": 10,
      "to": 9340,
      "total": 11124
    }
  },
  "data": [
    {
      "type": "tdpseTerbit",
      "id": 8120,
      "attributes": {
        "nomor_pb_umku": "912010214198600160029",
        "nama": "HUJAN REZEKI BSI MOBILE",
        "website": "bsimobileinternal.id",
        "sektor": "Sektor Keuangan",
        "nama_perusahaan": "BANK SYARIAH INDONESIA",
        "tanggal_daftar": "2022-07-20",
        "nomor_tanda_daftar": "000863.44/DJAI.PSE/07/2022",
        "qr_code": "https://pse.kominfo.go.id/storage/images/qr_code/f8e44bc1181023097e3680e85c9e1088.png",
        "status_id": "TERDAFTAR",
        "sistem_elektronik_id": 8042
      }
    },
    {
      "type": "tdpseTerbit",
      "id": 8087,
      "attributes": {
        "nomor_pb_umku": "912010214198600160028",
        "nama": "BSI QRIS MERCHANT",
        "website": "-",
        "sektor": "Sektor Keuangan",
        "nama_perusahaan": "BANK SYARIAH INDONESIA",
        "tanggal_daftar": "2022-07-20",
        "nomor_tanda_daftar": "000863.43/DJAI.PSE/07/2022",
        "qr_code": "https://pse.kominfo.go.id/storage/images/qr_code/e867baa26b935a7f0a4000f7ba591917.png",
        "status_id": "TERDAFTAR",
        "sistem_elektronik_id": 8008
      }
    },
    {
      "type": "tdpseTerbit",
      "id": 8057,
      "attributes": {
        "nomor_pb_umku": "912010214198600160027",
        "nama": "BSIMOBILE DEV",
        "website": "bsinewdev.bankbsi.co.id",
        "sektor": "Sektor Keuangan",
        "nama_perusahaan": "BANK SYARIAH INDONESIA",
        "tanggal_daftar": "2022-07-20",
        "nomor_tanda_daftar": "000863.42/DJAI.PSE/07/2022",
        "qr_code": "https://pse.kominfo.go.id/storage/images/qr_code/38cee0a1249c5db1f3ad0f3d68403d22.png",
        "status_id": "TERDAFTAR",
        "sistem_elektronik_id": 7981
      }
    },
    {
      "type": "tdpseTerbit",
      "id": 8036,
      "attributes": {
        "nomor_pb_umku": "912010214198600160026",
        "nama": "CUSTOMER ONLINE ONBOARDING VIDEOSTREAMING (COO VB)",
        "website": "videostream.bankbsi.co.id",
        "sektor": "Sektor Keuangan",
        "nama_perusahaan": "BANK SYARIAH INDONESIA",
        "tanggal_daftar": "2022-07-20",
        "nomor_tanda_daftar": "000863.41/DJAI.PSE/07/2022",
        "qr_code": "https://pse.kominfo.go.id/storage/images/qr_code/4061f8f03a87e1a0f7519728959bc4ee.png",
        "status_id": "TERDAFTAR",
        "sistem_elektronik_id": 7961
      }
    },
    {
      "type": "tdpseTerbit",
      "id": 8027,
      "attributes": {
        "nomor_pb_umku": "912010214198600160025",
        "nama": "IKURMA",
        "website": "-",
        "sektor": "Sektor Keuangan",
        "nama_perusahaan": "BANK SYARIAH INDONESIA",
        "tanggal_daftar": "2022-07-20",
        "nomor_tanda_daftar": "000863.40/DJAI.PSE/07/2022",
        "qr_code": "https://pse.kominfo.go.id/storage/images/qr_code/2df5244456b603531becddf9213bd917.png",
        "status_id": "TERDAFTAR",
        "sistem_elektronik_id": 7949
      }
    },
    {
      "type": "tdpseTerbit",
      "id": 8017,
      "attributes": {
        "nomor_pb_umku": "912010214198600160024",
        "nama": "MOBILE COLLECTION SYSTEM",
        "website": "mcs.bsm.co.id",
        "sektor": "Sektor Keuangan",
        "nama_perusahaan": "BANK SYARIAH INDONESIA",
        "tanggal_daftar": "2022-07-20",
        "nomor_tanda_daftar": "000863.39/DJAI.PSE/07/2022",
        "qr_code": "https://pse.kominfo.go.id/storage/images/qr_code/0a46b4b2daac9f1927697ade21798687.png",
        "status_id": "TERDAFTAR",
        "sistem_elektronik_id": 7938
      }
    },
    {
      "type": "tdpseTerbit",
      "id": 8006,
      "attributes": {
        "nomor_pb_umku": "912010214198600160023",
        "nama": "NEW ORIGINATION SYSTEM (NOS)",
        "website": "digitalform.bsm.co.id",
        "sektor": "Sektor Keuangan",
        "nama_perusahaan": "BANK SYARIAH INDONESIA",
        "tanggal_daftar": "2022-07-20",
        "nomor_tanda_daftar": "000863.38/DJAI.PSE/07/2022",
        "qr_code": "https://pse.kominfo.go.id/storage/images/qr_code/dd1a974e91dc20e510613e69c9642454.png",
        "status_id": "TERDAFTAR",
        "sistem_elektronik_id": 7925
      }
    },
    {
      "type": "tdpseTerbit",
      "id": 7988,
      "attributes": {
        "nomor_pb_umku": "912010214198600160022",
        "nama": "GO UMKM BY BSI",
        "website": "go-umkm.bankbsi.co.id",
        "sektor": "Sektor Keuangan",
        "nama_perusahaan": "BANK SYARIAH INDONESIA",
        "tanggal_daftar": "2022-07-20",
        "nomor_tanda_daftar": "000863.37/DJAI.PSE/07/2022",
        "qr_code": "https://pse.kominfo.go.id/storage/images/qr_code/2cad2adf73dd2906ad739afb11d50906.png",
        "status_id": "TERDAFTAR",
        "sistem_elektronik_id": 7906
      }
    },
    {
      "type": "tdpseTerbit",
      "id": 7973,
      "attributes": {
        "nomor_pb_umku": "912010214198600160021",
        "nama": "SIBER",
        "website": "pensiun.bankbsi.co.id",
        "sektor": "Sektor Keuangan",
        "nama_perusahaan": "BANK SYARIAH INDONESIA",
        "tanggal_daftar": "2022-07-20",
        "nomor_tanda_daftar": "000863.36/DJAI.PSE/07/2022",
        "qr_code": "https://pse.kominfo.go.id/storage/images/qr_code/e539743601bb99e966c2ee30d30015a0.png",
        "status_id": "TERDAFTAR",
        "sistem_elektronik_id": 7890
      }
    },
    {
      "type": "tdpseTerbit",
      "id": 7967,
      "attributes": {
        "nomor_pb_umku": "912010214198600160021",
        "nama": "LANDING PAGE PEMBUKAAN REKENING ONLINE",
        "website": "bsiapi.bankbsi.co.id",
        "sektor": "Sektor Keuangan",
        "nama_perusahaan": "BANK SYARIAH INDONESIA",
        "tanggal_daftar": "2022-07-20",
        "nomor_tanda_daftar": "000863.35/DJAI.PSE/07/2022",
        "qr_code": "https://pse.kominfo.go.id/storage/images/qr_code/d7f9ac512cff0d58d9dd2e3edbd33f99.png",
        "status_id": "TERDAFTAR",
        "sistem_elektronik_id": 7883
      }
    }
  ]
}