{
  "meta": {
    "page": {
      "currentPage": 935,
      "from": 9341,
      "lastPage": 1111,
      "perPage": 10,
      "to": 9350,
      "total": 11105
    }
  },
  "data": [
    {
      "type": "tdpseTerbit",
      "id": 6891,
      "attributes": {
        "nomor_pb_umku": "912010214198600160002",
        "nama": "BANK SYARIAH INDONESIA CASH MANAGEMENT SYSTEM (BSI CMS)",
        "website": "cms.bankbsi.co.id",
        "sektor": "Sektor Keuangan",
        "nama_perusahaan": "BANK SYARIAH INDONESIA",
        "tanggal_daftar": "2022-07-19",
        "nomor_tanda_daftar": "000863.16/DJAI.PSE/07/2022",
        "qr_code": "https://pse.kominfo.go.id/storage/images/qr_code/00a1461d9059c5fef9c72de7f3850e59.png",
        "status_id": "TERDAFTAR",
        "sistem_elektronik_id": 6738
      }
    },
    {
      "type": "tdpseTerbit",
      "id": 6794,
      "attributes": {
        "nomor_pb_umku": "912010214198600160002",
        "nama": "SERVICE ULTIMATE RACE DASHBOARD",
        "website": "serviceultimaterace.bankbsi.co.id",
        "sektor": "Sektor Keuangan",
        "nama_perusahaan": "BANK SYARIAH INDONESIA",
        "tanggal_daftar": "2022-07-19",
        "nomor_tanda_daftar": "000863.15/DJAI.PSE/07/2022",
        "qr_code": "https://pse.kominfo.go.id/storage/images/qr_code/ce7ebf7aec3396f4afaa67779846c8f0.png",
        "status_id": "TERDAFTAR",
        "sistem_elektronik_id": 6644
      }
    },
    {
      "type": "tdpseTerbit",
      "id": 6769,
      "attributes": {
        "nomor_pb_umku": "912010214198600160002",
        "nama": "CUSTOMER SATISFACTION SURVEY BSI (CSS BSI)",
        "website": "serviceultimaterace.bankbsi.co.id",
        "sektor": "Sektor Keuangan",
        "nama_perusahaan": "BANK SYARIAH INDONESIA",
        "tanggal_daftar": "2022-07-19",
        "nomor_tanda_daftar": "000863.14/DJAI.PSE/07/2022",
        "qr_code": "https://pse.kominfo.go.id/storage/images/qr_code/ce6e61dbb17c7c3bb2bafc3819474a45.png",
        "status_id": "TERDAFTAR",
        "sistem_elektronik_id": 6620
      }
    },
    {
      "type": "tdpseTerbit",
      "id": 6747,
      "attributes": {
        "nomor_pb_umku": "912010214198600160002",
        "nama": "WEBFORM BSI",
        "website": "webform.bankbsi.co.id",
        "sektor": "Sektor Keuangan",
        "nama_perusahaan": "BANK SYARIAH INDONESIA",
        "tanggal_daftar": "2022-07-19",
        "nomor_tanda_daftar": "000863.13/DJAI.PSE/07/2022",
        "qr_code": "https://pse.kominfo.go.id/storage/images/qr_code/fe527be7119e726e0e929cce6df6110d.png",
        "status_id": "TERDAFTAR",
        "sistem_elektronik_id": 6595
      }
    },
    {
      "type": "tdpseTerbit",
      "id": 6719,
      "attributes": {
        "nomor_pb_umku": "912010214198600160002",
        "nama": "BSI SMART",
        "website": "smartagent.bankbsi.co.id",
        "sektor": "Sektor Keuangan",
        "nama_perusahaan": "BANK SYARIAH INDONESIA",
        "tanggal_daftar": "2022-07-19",
        "nomor_tanda_daftar": "000863.12/DJAI.PSE/07/2022",
        "qr_code": "https://pse.kominfo.go.id/storage/images/qr_code/d41ff4e46b5bcdaa0f2d83e8d5a7235e.png",
        "status_id": "TERDAFTAR",
        "sistem_elektronik_id": 6568
      }
    },
    {
      "type": "tdpseTerbit",
      "id": 6720,
      "attributes": {
        "nomor_pb_umku": "912010214198600160002",
        "nama": "DASHBOARD KEMENTERIAN 2 (THRU ACCOUNT)",
        "website": "dmkl2.bankbsi.co.id",
        "sektor": "Sektor Keuangan",
        "nama_perusahaan": "BANK SYARIAH INDONESIA",
        "tanggal_daftar": "2022-07-19",
        "nomor_tanda_daftar": "000863.11/DJAI.PSE/07/2022",
        "qr_code": "https://pse.kominfo.go.id/storage/images/qr_code/e68cb9b6346bed0ab2fa643d65618a7a.png",
        "status_id": "TERDAFTAR",
        "sistem_elektronik_id": 6552
      }
    },
    {
      "type": "tdpseTerbit",
      "id": 6694,
      "attributes": {
        "nomor_pb_umku": "912010214198600160002",
        "nama": "DASHBOARD KEMENTERIAN (THRU ACCOUNT)",
        "website": "dmkl.bankbsi.co.id",
        "sektor": "Sektor Keuangan",
        "nama_perusahaan": "BANK SYARIAH INDONESIA",
        "tanggal_daftar": "2022-07-19",
        "nomor_tanda_daftar": "000863.10/DJAI.PSE/07/2022",
        "qr_code": "https://pse.kominfo.go.id/storage/images/qr_code/20393b11c5c9b4580c6db19e8f5b8ee1.png",
        "status_id": "TERDAFTAR",
        "sistem_elektronik_id": 6547
      }
    },
    {
      "type": "tdpseTerbit",
      "id": 6680,
      "attributes": {
        "nomor_pb_umku": "912010214198600160002",
        "nama": "BANK SYARIAH INDONESIA THRU ACCOUNT (BSI THRU ACCOUNT)",
        "website": "vaportal.bankbsi.co.id",
        "sektor": "Sektor Keuangan",
        "nama_perusahaan": "BANK SYARIAH INDONESIA",
        "tanggal_daftar": "2022-07-19",
        "nomor_tanda_daftar": "000863.09/DJAI.PSE/07/2022",
        "qr_code": "https://pse.kominfo.go.id/storage/images/qr_code/63780cacc53d2e45016f97a4a76e8b37.png",
        "status_id": "TERDAFTAR",
        "sistem_elektronik_id": 6531
      }
    },
    {
      "type": "tdpseTerbit",
      "id": 5211,
      "attributes": {
        "nomor_pb_umku": "912010214198600140001",
        "nama": "CUSTOMER PORTFOLIO MANAGEMENT (CPM)",
        "website": "cpm.bankbsi.co.id",
        "sektor": "Sektor Keuangan",
        "nama_perusahaan": "BANK SYARIAH INDONESIA",
        "tanggal_daftar": "2022-07-08",
        "nomor_tanda_daftar": "000863.08/DJAI.PSE/07/2022",
        "qr_code": "https://pse.kominfo.go.id/storage/images/qr_code/ab22864eecf5f56b30744116cd6408be.png",
        "status_id": "TERDAFTAR",
        "sistem_elektronik_id": 5081
      }
    },
    {
      "type": "tdpseTerbit",
      "id": 1282,
      "attributes": {
        "nomor_pb_umku": null,
        "nama": "Chatbot Aisyah",
        "website": "www.bankbsi.co.id",
        "sektor": "Sektor Keuangan, Sektor Pangan",
        "nama_perusahaan": "BANK SYARIAH INDONESIA",
        "tanggal_daftar": "2021-06-02",
        "nomor_tanda_daftar": "000863.07/DJAI.PSE/06/2021",
        "qr_code": "https://pse.kominfo.go.id/storage/images/qr_code/db328b3ef38cc86fe9d307158a995df4.png",
        "status_id": "TERDAFTAR",
        "sistem_elektronik_id": 906
      }
    }
  ]
}