{
  "meta": {
    "page": {
      "currentPage": 936,
      "from": 9351,
      "lastPage": 1012,
      "perPage": 10,
      "to": 9360,
      "total": 10114
    }
  },
  "data": [
    {
      "type": "tdpseTerbit",
      "id": 4143,
      "attributes": {
        "nomor_pb_umku": "912000633132700000001",
        "nama": "SIPLAH MEDIATEK INTERNUSA",
        "website": "-",
        "sektor": "Sektor Perdagangan, Sektor Teknologi Informasi dan Komunikasi",
        "nama_perusahaan": "MEDIATEK INTERNUSA",
        "tanggal_daftar": "2022-05-25",
        "nomor_tanda_daftar": "000364.01/DJAI.PSE/05/2022",
        "qr_code": "https://pse.kominfo.go.id/storage/images/qr_code/fed32f9fc6afab4ffd8b6c45d7499a71.png",
        "status_id": "TERDAFTAR",
        "sistem_elektronik_id": 4145
      }
    },
    {
      "type": "tdpseTerbit",
      "id": 448,
      "attributes": {
        "nomor_pb_umku": null,
        "nama": "DITOKO DIBELI DIJUAL",
        "website": "https://ditoko.com/",
        "sektor": "Sektor Perdagangan",
        "nama_perusahaan": "DITOKO DIBELI DIJUAL",
        "tanggal_daftar": "2021-04-14",
        "nomor_tanda_daftar": "000364.01/DJAI.PSE/04/2021",
        "qr_code": "https://pse.kominfo.go.id/storage/images/qr_code/8314b3eab3ffa0dae40bc55b0f163753.png",
        "status_id": "TERDAFTAR",
        "sistem_elektronik_id": 3511
      }
    },
    {
      "type": "tdpseTerbit",
      "id": 447,
      "attributes": {
        "nomor_pb_umku": null,
        "nama": "Fundtastic",
        "website": "www.fundtastic.co.id",
        "sektor": "Sektor Keuangan",
        "nama_perusahaan": "CHANDHARWEALTH MANDIRI INDONESIA",
        "tanggal_daftar": "2021-04-14",
        "nomor_tanda_daftar": "000363.01/DJAI.PSE/04/2021",
        "qr_code": "https://pse.kominfo.go.id/storage/images/qr_code/58d4e1b847b644a09ad9b67af6617784.png",
        "status_id": "TERDAFTAR",
        "sistem_elektronik_id": 72
      }
    },
    {
      "type": "tdpseTerbit",
      "id": 6369,
      "attributes": {
        "nomor_pb_umku": "023401102252600020003",
        "nama": "STARME",
        "website": "starmakerstudios.com",
        "sektor": "Sektor Perdagangan, Sektor Teknologi Informasi dan Komunikasi",
        "nama_perusahaan": "KARYA BINTANG TEKNOLOGI",
        "tanggal_daftar": "2022-07-18",
        "nomor_tanda_daftar": "000362.03/DJAI.PSE/07/2022",
        "qr_code": "https://pse.kominfo.go.id/storage/images/qr_code/f9311ca0c7a2a9e785e270c7c5d124f7.png",
        "status_id": "TERDAFTAR",
        "sistem_elektronik_id": 6162
      }
    },
    {
      "type": "tdpseTerbit",
      "id": 5884,
      "attributes": {
        "nomor_pb_umku": "023401102252600020002",
        "nama": "STARFM",
        "website": "starfm.app",
        "sektor": "Sektor Perdagangan, Sektor Teknologi Informasi dan Komunikasi",
        "nama_perusahaan": "KARYA BINTANG TEKNOLOGI",
        "tanggal_daftar": "2022-07-15",
        "nomor_tanda_daftar": "000362.02/DJAI.PSE/07/2022",
        "qr_code": "https://pse.kominfo.go.id/storage/images/qr_code/7f825cad4fc928d4ebdd01170224232e.png",
        "status_id": "TERDAFTAR",
        "sistem_elektronik_id": 5722
      }
    },
    {
      "type": "tdpseTerbit",
      "id": 444,
      "attributes": {
        "nomor_pb_umku": null,
        "nama": "StarMaker",
        "website": "https://www.starmakerstudios.com/",
        "sektor": "Sektor Teknologi Informasi dan Komunikasi",
        "nama_perusahaan": "KARYA BINTANG TEKNOLOGI",
        "tanggal_daftar": "2021-04-14",
        "nomor_tanda_daftar": "000362.01/DJAI.PSE/04/2021",
        "qr_code": "https://pse.kominfo.go.id/storage/images/qr_code/5310af2d717da47955bfb5b388de13ab.png",
        "status_id": "TERDAFTAR",
        "sistem_elektronik_id": 224
      }
    },
    {
      "type": "tdpseTerbit",
      "id": 4127,
      "attributes": {
        "nomor_pb_umku": "027201000151300030001",
        "nama": "HEAD HUNTER",
        "website": "-",
        "sektor": "Sektor Perdagangan",
        "nama_perusahaan": "WIDDY FERDIANSYAH",
        "tanggal_daftar": "2022-05-25",
        "nomor_tanda_daftar": "000361.01/DJAI.PSE/05/2022",
        "qr_code": "https://pse.kominfo.go.id/storage/images/qr_code/f1be01352cdebcc340608adfd188ca9c.png",
        "status_id": "TERDAFTAR",
        "sistem_elektronik_id": 4129
      }
    },
    {
      "type": "tdpseTerbit",
      "id": 443,
      "attributes": {
        "nomor_pb_umku": null,
        "nama": "ViBiCloud",
        "website": "https://vibicloud.com/",
        "sektor": "Sektor Perdagangan, Sektor Teknologi Informasi dan Komunikasi",
        "nama_perusahaan": "AWAN INTEGRASI SANDIDATA",
        "tanggal_daftar": "2021-04-14",
        "nomor_tanda_daftar": "000361.01/DJAI.PSE/04/2021",
        "qr_code": "https://pse.kominfo.go.id/storage/images/qr_code/0d5e9fead3fd05bed6e1da33e99ccf72.png",
        "status_id": "TERDAFTAR",
        "sistem_elektronik_id": 57
      }
    },
    {
      "type": "tdpseTerbit",
      "id": 4165,
      "attributes": {
        "nomor_pb_umku": "230322005918300000001",
        "nama": "SAHABATBISNIS.ID",
        "website": "sahabatbisnis.id",
        "sektor": "Sektor Perdagangan",
        "nama_perusahaan": "SAHABAT BISNIS INOVASI",
        "tanggal_daftar": "2022-05-29",
        "nomor_tanda_daftar": "000360.01/DJAI.PSE/05/2022",
        "qr_code": "https://pse.kominfo.go.id/storage/images/qr_code/c2d1f9b5e795dc6012e8ca1c468d7f50.png",
        "status_id": "TERDAFTAR",
        "sistem_elektronik_id": 4171
      }
    },
    {
      "type": "tdpseTerbit",
      "id": 441,
      "attributes": {
        "nomor_pb_umku": null,
        "nama": "JELAS BERSAMA",
        "website": "-",
        "sektor": "Sektor Keuangan",
        "nama_perusahaan": "SIMPAN PINJAM ALPUKAT SEJAHTERA INDONESIA",
        "tanggal_daftar": "2021-04-14",
        "nomor_tanda_daftar": "000360.01/DJAI.PSE/04/2021",
        "qr_code": "https://pse.kominfo.go.id/storage/images/qr_code/5b3fd4dfa2296e6c3731971420feb9da.png",
        "status_id": "TERDAFTAR",
        "sistem_elektronik_id": 2739
      }
    }
  ]
}