{
  "meta": {
    "page": {
      "currentPage": 937,
      "from": 9361,
      "lastPage": 1080,
      "perPage": 10,
      "to": 9370,
      "total": 10793
    }
  },
  "data": [
    {
      "type": "tdpseTerbit",
      "id": 1013,
      "attributes": {
        "nomor_pb_umku": null,
        "nama": "AnyDigital",
        "website": "http://anydigital.co.id/",
        "sektor": "Sektor Teknologi Informasi dan Komunikasi",
        "nama_perusahaan": "ADASIA TECHNOLOGY INDONESIA",
        "tanggal_daftar": "2021-05-18",
        "nomor_tanda_daftar": "000756.01/DJAI.PSE/05/2021",
        "qr_code": "https://pse.kominfo.go.id/storage/images/qr_code/99a576001dc8d338adaa8de6b46f14bd.png",
        "status_id": "TERDAFTAR",
        "sistem_elektronik_id": 2801
      }
    },
    {
      "type": "tdpseTerbit",
      "id": 1011,
      "attributes": {
        "nomor_pb_umku": null,
        "nama": "Ponny Beaute",
        "website": "https://ponnybeaute.co.id/",
        "sektor": "Sektor Perdagangan",
        "nama_perusahaan": "PONNY BEAUTE INDONESIA",
        "tanggal_daftar": "2021-05-18",
        "nomor_tanda_daftar": "000755.01/DJAI.PSE/05/2021",
        "qr_code": "https://pse.kominfo.go.id/storage/images/qr_code/96975ead0765de21a7aa2647be91a52d.png",
        "status_id": "TERDAFTAR",
        "sistem_elektronik_id": 746
      }
    },
    {
      "type": "tdpseTerbit",
      "id": 1010,
      "attributes": {
        "nomor_pb_umku": null,
        "nama": "Hni.id",
        "website": "hni.id",
        "sektor": "Sektor Perdagangan",
        "nama_perusahaan": "HERBA PENAWAR ALWAHIDA INDONESIA",
        "tanggal_daftar": "2021-05-18",
        "nomor_tanda_daftar": "000754.01/DJAI.PSE/05/2021",
        "qr_code": "https://pse.kominfo.go.id/storage/images/qr_code/aed56ababf047e8c988bc8ad8605b1b3.png",
        "status_id": "TERDAFTAR",
        "sistem_elektronik_id": 527
      }
    },
    {
      "type": "tdpseTerbit",
      "id": 11253,
      "attributes": {
        "nomor_pb_umku": "912030336131900000003",
        "nama": "JAMITU.ID",
        "website": "jamitu.id",
        "sektor": "Sektor Teknologi Informasi dan Komunikasi",
        "nama_perusahaan": "SOLUSI KAMPUS INDONESIA",
        "tanggal_daftar": "2022-09-20",
        "nomor_tanda_daftar": "000753.06/DJAI.PSE/09/2022",
        "qr_code": "https://pse.kominfo.go.id/storage/images/qr_code/bf4de31f8a3358ce883f5e03ae38503c.png",
        "status_id": "TERDAFTAR",
        "sistem_elektronik_id": 11062
      }
    },
    {
      "type": "tdpseTerbit",
      "id": 3946,
      "attributes": {
        "nomor_pb_umku": null,
        "nama": "eCampuz Suite",
        "website": "https://suite.ecampuz.com/",
        "sektor": "Sektor Teknologi Informasi dan Komunikasi",
        "nama_perusahaan": "SOLUSI KAMPUS INDONESIA",
        "tanggal_daftar": "2022-04-20",
        "nomor_tanda_daftar": "000753.05/DJAI.PSE/04/2022",
        "qr_code": "https://pse.kominfo.go.id/storage/images/qr_code/4371ffb56d8cd4f60587a85aa619dd8f.png",
        "status_id": "TERDAFTAR",
        "sistem_elektronik_id": 3988
      }
    },
    {
      "type": "tdpseTerbit",
      "id": 3945,
      "attributes": {
        "nomor_pb_umku": null,
        "nama": "eSPMI",
        "website": "https://suite.ecampuz.com/",
        "sektor": "Sektor Teknologi Informasi dan Komunikasi",
        "nama_perusahaan": "SOLUSI KAMPUS INDONESIA",
        "tanggal_daftar": "2022-04-20",
        "nomor_tanda_daftar": "000753.04/DJAI.PSE/04/2022",
        "qr_code": "https://pse.kominfo.go.id/storage/images/qr_code/9f89d4b05ad3101438327f2ce033bf1c.png",
        "status_id": "TERDAFTAR",
        "sistem_elektronik_id": 3987
      }
    },
    {
      "type": "tdpseTerbit",
      "id": 1048,
      "attributes": {
        "nomor_pb_umku": null,
        "nama": "eCampuz",
        "website": "cloud.eCampuz.com",
        "sektor": "Sektor Teknologi Informasi dan Komunikasi",
        "nama_perusahaan": "SOLUSI KAMPUS INDONESIA",
        "tanggal_daftar": "2021-05-21",
        "nomor_tanda_daftar": "000753.03/DJAI.PSE/05/2021",
        "qr_code": "https://pse.kominfo.go.id/storage/images/qr_code/d9da238c263e2c4fdbfd95a5ff8326ea.png",
        "status_id": "TERDAFTAR",
        "sistem_elektronik_id": 556
      }
    },
    {
      "type": "tdpseTerbit",
      "id": 1025,
      "attributes": {
        "nomor_pb_umku": null,
        "nama": "eCampuz",
        "website": "cloud.eCampuz.com",
        "sektor": "Sektor Teknologi Informasi dan Komunikasi",
        "nama_perusahaan": "SOLUSI KAMPUS INDONESIA",
        "tanggal_daftar": "2021-05-18",
        "nomor_tanda_daftar": "000753.02/DJAI.PSE/05/2021",
        "qr_code": "https://pse.kominfo.go.id/storage/images/qr_code/a92008f83e5a35a08767cd6ef674637a.png",
        "status_id": "TERDAFTAR",
        "sistem_elektronik_id": 555
      }
    },
    {
      "type": "tdpseTerbit",
      "id": 1009,
      "attributes": {
        "nomor_pb_umku": null,
        "nama": "eCampuz",
        "website": "cloud.eCampuz.com",
        "sektor": "Sektor Teknologi Informasi dan Komunikasi",
        "nama_perusahaan": "SOLUSI KAMPUS INDONESIA",
        "tanggal_daftar": "2021-05-18",
        "nomor_tanda_daftar": "000753.01/DJAI.PSE/05/2021",
        "qr_code": "https://pse.kominfo.go.id/storage/images/qr_code/b2bd57ffc5b4bde55ea0d99acdc7fc82.png",
        "status_id": "TERDAFTAR",
        "sistem_elektronik_id": 554
      }
    },
    {
      "type": "tdpseTerbit",
      "id": 1008,
      "attributes": {
        "nomor_pb_umku": null,
        "nama": "VIDA (https://www.vida.id/)",
        "website": "https://www.vida.id/",
        "sektor": "Sektor Teknologi Informasi dan Komunikasi",
        "nama_perusahaan": "INDONESIA DIGITAL IDENTITY",
        "tanggal_daftar": "2021-05-18",
        "nomor_tanda_daftar": "000752.01/DJAI.PSE/05/2021",
        "qr_code": "https://pse.kominfo.go.id/storage/images/qr_code/991900d7d4dd56bc7f6e5fbec872fd2e.png",
        "status_id": "TERDAFTAR",
        "sistem_elektronik_id": 727
      }
    }
  ]
}