{
  "meta": {
    "page": {
      "currentPage": 939,
      "from": 9381,
      "lastPage": 1020,
      "perPage": 10,
      "to": 9390,
      "total": 10192
    }
  },
  "data": [
    {
      "type": "tdpseTerbit",
      "id": 486,
      "attributes": {
        "nomor_pb_umku": null,
        "nama": "V-Tax",
        "website": "https://v-tax.id/",
        "sektor": "Sektor Teknologi Informasi dan Komunikasi",
        "nama_perusahaan": "MUTIARA BINTANG ABADI",
        "tanggal_daftar": "2021-04-20",
        "nomor_tanda_daftar": "000395.01/DJAI.PSE/04/2021",
        "qr_code": "https://pse.kominfo.go.id/storage/images/qr_code/8ff1b72ae127b801a69bb48c4b1de80d.png",
        "status_id": "TERDAFTAR",
        "sistem_elektronik_id": 312
      }
    },
    {
      "type": "tdpseTerbit",
      "id": 4600,
      "attributes": {
        "nomor_pb_umku": null,
        "nama": "DANA",
        "website": "dana.id",
        "sektor": "Sektor Keuangan",
        "nama_perusahaan": "ESPAY DEBIT INDONESIA KOE",
        "tanggal_daftar": "2021-04-20",
        "nomor_tanda_daftar": "000394.01/DJAI.PSE/04/2021",
        "qr_code": "https://pse.kominfo.go.id/storage/images/qr_code/a8bc2d3e88cf73c7acdd50a65f2685b0.png",
        "status_id": "TERDAFTAR",
        "sistem_elektronik_id": 4563
      }
    },
    {
      "type": "tdpseTerbit",
      "id": 484,
      "attributes": {
        "nomor_pb_umku": null,
        "nama": "Sijago",
        "website": "sijago.pnmim.com",
        "sektor": "Sektor Keuangan",
        "nama_perusahaan": "PNM INVESTMENT MANAGEMENT",
        "tanggal_daftar": "2021-04-20",
        "nomor_tanda_daftar": "000393.01/DJAI.PSE/04/2021",
        "qr_code": "https://pse.kominfo.go.id/storage/images/qr_code/9d5e5824f27f835ee8e99a5e481a6d28.png",
        "status_id": "TERDAFTAR",
        "sistem_elektronik_id": 2570
      }
    },
    {
      "type": "tdpseTerbit",
      "id": 483,
      "attributes": {
        "nomor_pb_umku": null,
        "nama": "AdaModal",
        "website": "adamodal.co.id",
        "sektor": "Sektor Keuangan",
        "nama_perusahaan": "SOLID FINTEK INDONESIA",
        "tanggal_daftar": "2021-04-20",
        "nomor_tanda_daftar": "000392.01/DJAI.PSE/04/2021",
        "qr_code": "https://pse.kominfo.go.id/storage/images/qr_code/9fbfcfca2be32c085529d4d549b5c355.png",
        "status_id": "TERDAFTAR",
        "sistem_elektronik_id": 3516
      }
    },
    {
      "type": "tdpseTerbit",
      "id": 482,
      "attributes": {
        "nomor_pb_umku": null,
        "nama": "Ojire AnyWhere",
        "website": "www.ojire.co.id",
        "sektor": "Sektor Keuangan, Sektor Teknologi Informasi dan Komunikasi",
        "nama_perusahaan": "OJIRE TEKNOLOGI INFORMASI",
        "tanggal_daftar": "2021-04-20",
        "nomor_tanda_daftar": "000391.01/DJAI.PSE/04/2021",
        "qr_code": "https://pse.kominfo.go.id/storage/images/qr_code/1490ca32847933245414d25d5249e3ef.png",
        "status_id": "TERDAFTAR",
        "sistem_elektronik_id": 284
      }
    },
    {
      "type": "tdpseTerbit",
      "id": 481,
      "attributes": {
        "nomor_pb_umku": null,
        "nama": "LOGOL",
        "website": "https://logol.co.id/",
        "sektor": "Sektor Teknologi Informasi dan Komunikasi, Sektor Transportasi",
        "nama_perusahaan": "LOGOL JAKARTA MITRAINDO",
        "tanggal_daftar": "2021-04-20",
        "nomor_tanda_daftar": "000390.01/DJAI.PSE/04/2021",
        "qr_code": "https://pse.kominfo.go.id/storage/images/qr_code/e61338fc9200ee259704dc228605fb2b.png",
        "status_id": "TERDAFTAR",
        "sistem_elektronik_id": 302
      }
    },
    {
      "type": "tdpseTerbit",
      "id": 477,
      "attributes": {
        "nomor_pb_umku": null,
        "nama": "BLUE E-MART",
        "website": "https://id.mart.blue/id",
        "sektor": "Sektor Perdagangan",
        "nama_perusahaan": "BALON INDOTEKNOLOGI TELEKOMUNIKASI",
        "tanggal_daftar": "2021-04-20",
        "nomor_tanda_daftar": "000389.01/DJAI.PSE/04/2021",
        "qr_code": "https://pse.kominfo.go.id/storage/images/qr_code/7a09f1cefad752a91bd94427b183a23c.png",
        "status_id": "TERDAFTAR",
        "sistem_elektronik_id": 2595
      }
    },
    {
      "type": "tdpseTerbit",
      "id": 476,
      "attributes": {
        "nomor_pb_umku": null,
        "nama": "BLUE E-MART",
        "website": "https://id.mart.blue/id",
        "sektor": "Sektor Perdagangan",
        "nama_perusahaan": "BLUEMART TECHNOLOGY INDONESIA",
        "tanggal_daftar": "2021-04-20",
        "nomor_tanda_daftar": "000388.01/DJAI.PSE/04/2021",
        "qr_code": "https://pse.kominfo.go.id/storage/images/qr_code/155ec56702796f2c469b62cc4b90f448.png",
        "status_id": "TERDAFTAR",
        "sistem_elektronik_id": 186
      }
    },
    {
      "type": "tdpseTerbit",
      "id": 475,
      "attributes": {
        "nomor_pb_umku": null,
        "nama": "Fanita Health",
        "website": "https://getfanita.com",
        "sektor": "Sektor Kesehatan",
        "nama_perusahaan": "PANACEA TEKNOLOGI PERAWATAN KESEHATAN",
        "tanggal_daftar": "2021-04-20",
        "nomor_tanda_daftar": "000387.01/DJAI.PSE/04/2021",
        "qr_code": "https://pse.kominfo.go.id/storage/images/qr_code/7000b6ef2b3681a697c0bbbd19b2e074.png",
        "status_id": "TERDAFTAR",
        "sistem_elektronik_id": 282
      }
    },
    {
      "type": "tdpseTerbit",
      "id": 474,
      "attributes": {
        "nomor_pb_umku": null,
        "nama": "BUSSR",
        "website": "www.bussr.co.id",
        "sektor": "Sektor Teknologi Informasi dan Komunikasi",
        "nama_perusahaan": "BUSSR TECHNOLOGIES INDONESIA",
        "tanggal_daftar": "2021-04-20",
        "nomor_tanda_daftar": "000386.01/DJAI.PSE/04/2021",
        "qr_code": "https://pse.kominfo.go.id/storage/images/qr_code/4afbad826e925a3e50125a9a5cc11b7b.png",
        "status_id": "TERDAFTAR",
        "sistem_elektronik_id": 249
      }
    }
  ]
}