{
  "meta": {
    "page": {
      "currentPage": 941,
      "from": 9401,
      "lastPage": 1061,
      "perPage": 10,
      "to": 9410,
      "total": 10601
    }
  },
  "data": [
    {
      "type": "tdpseTerbit",
      "id": 9618,
      "attributes": {
        "nomor_pb_umku": "812021129139900020012",
        "nama": "EBCLICK  DANA PENSIUN LEMBAGA KEUANGAN",
        "website": "ebclick.manulife.co.id",
        "sektor": "Sektor Keuangan",
        "nama_perusahaan": "ASURANSI JIWA MANULIFE INDONESIA",
        "tanggal_daftar": "2022-08-02",
        "nomor_tanda_daftar": "000645.12/DJAI.PSE/08/2022",
        "qr_code": "https://pse.kominfo.go.id/storage/images/qr_code/f545de1d935037f4eaa21b592f53a567.png",
        "status_id": "TERDAFTAR",
        "sistem_elektronik_id": 9509
      }
    },
    {
      "type": "tdpseTerbit",
      "id": 9615,
      "attributes": {
        "nomor_pb_umku": "812021129139900020011",
        "nama": "MANULIFE DIRECT ACCESS",
        "website": "webapp.manulife.co.id",
        "sektor": "Sektor Keuangan",
        "nama_perusahaan": "ASURANSI JIWA MANULIFE INDONESIA",
        "tanggal_daftar": "2022-08-02",
        "nomor_tanda_daftar": "000645.10/DJAI.PSE/08/2022",
        "qr_code": "https://pse.kominfo.go.id/storage/images/qr_code/a4ad6a35f61dbb3a5ac92cc9882bb99c.png",
        "status_id": "TERDAFTAR",
        "sistem_elektronik_id": 9505
      }
    },
    {
      "type": "tdpseTerbit",
      "id": 9614,
      "attributes": {
        "nomor_pb_umku": "812021129139900020010",
        "nama": "MANULIFE DIRECT ACCESS DPLK",
        "website": "webapp.manulife.co.id",
        "sektor": "Sektor Keuangan",
        "nama_perusahaan": "ASURANSI JIWA MANULIFE INDONESIA",
        "tanggal_daftar": "2022-08-02",
        "nomor_tanda_daftar": "000645.09/DJAI.PSE/08/2022",
        "qr_code": "https://pse.kominfo.go.id/storage/images/qr_code/d4439abd3c6d997267d773053d11a1f0.png",
        "status_id": "TERDAFTAR",
        "sistem_elektronik_id": 9504
      }
    },
    {
      "type": "tdpseTerbit",
      "id": 9613,
      "attributes": {
        "nomor_pb_umku": "812021129139900020009",
        "nama": "AGENCYLINK",
        "website": "agencylink.manulife.co.id",
        "sektor": "Sektor Keuangan",
        "nama_perusahaan": "ASURANSI JIWA MANULIFE INDONESIA",
        "tanggal_daftar": "2022-08-02",
        "nomor_tanda_daftar": "000645.08/DJAI.PSE/08/2022",
        "qr_code": "https://pse.kominfo.go.id/storage/images/qr_code/0788afeb41960aa42d46680295c6ae73.png",
        "status_id": "TERDAFTAR",
        "sistem_elektronik_id": 9502
      }
    },
    {
      "type": "tdpseTerbit",
      "id": 9611,
      "attributes": {
        "nomor_pb_umku": "812021129139900020008",
        "nama": "PARTNERLINK",
        "website": "partnerlink.manulife.co.id",
        "sektor": "Sektor Keuangan",
        "nama_perusahaan": "ASURANSI JIWA MANULIFE INDONESIA",
        "tanggal_daftar": "2022-08-02",
        "nomor_tanda_daftar": "000645.07/DJAI.PSE/08/2022",
        "qr_code": "https://pse.kominfo.go.id/storage/images/qr_code/1d85187d4ecaac76272fea895b8c2dfe.png",
        "status_id": "TERDAFTAR",
        "sistem_elektronik_id": 9501
      }
    },
    {
      "type": "tdpseTerbit",
      "id": 9610,
      "attributes": {
        "nomor_pb_umku": "812021129139900020007",
        "nama": "PUBLIC WEBSITE (PWS) MANULIFE INDONESIA",
        "website": "manulife.co.id",
        "sektor": "Sektor Keuangan",
        "nama_perusahaan": "ASURANSI JIWA MANULIFE INDONESIA",
        "tanggal_daftar": "2022-08-02",
        "nomor_tanda_daftar": "000645.06/DJAI.PSE/08/2022",
        "qr_code": "https://pse.kominfo.go.id/storage/images/qr_code/272281048806626d51f9e86ba5157945.png",
        "status_id": "TERDAFTAR",
        "sistem_elektronik_id": 9499
      }
    },
    {
      "type": "tdpseTerbit",
      "id": 7069,
      "attributes": {
        "nomor_pb_umku": "812021129139900020004",
        "nama": "MIPOS",
        "website": "manulife.com",
        "sektor": "Sektor Keuangan",
        "nama_perusahaan": "ASURANSI JIWA MANULIFE INDONESIA",
        "tanggal_daftar": "2022-07-19",
        "nomor_tanda_daftar": "000645.05/DJAI.PSE/07/2022",
        "qr_code": "https://pse.kominfo.go.id/storage/images/qr_code/1af1f888502473b667675588e7c7ceb5.png",
        "status_id": "TERDAFTAR",
        "sistem_elektronik_id": 6938
      }
    },
    {
      "type": "tdpseTerbit",
      "id": 5469,
      "attributes": {
        "nomor_pb_umku": "",
        "nama": "MIE-CLAIM",
        "website": "eclaim.manulife.co.id",
        "sektor": "Sektor Keuangan",
        "nama_perusahaan": "ASURANSI JIWA MANULIFE INDONESIA",
        "tanggal_daftar": "2022-07-13",
        "nomor_tanda_daftar": "000645.04/DJAI.PSE/07/2022",
        "qr_code": "https://pse.kominfo.go.id/storage/images/qr_code/43c82674befa8a8f97d90a733a8dcf98.png",
        "status_id": "TERDAFTAR",
        "sistem_elektronik_id": 5341
      }
    },
    {
      "type": "tdpseTerbit",
      "id": 1012,
      "attributes": {
        "nomor_pb_umku": null,
        "nama": "MiInfo",
        "website": "https://miinfo.manulife.co.id/idcws/login",
        "sektor": "Sektor Keuangan",
        "nama_perusahaan": "ASURANSI JIWA MANULIFE INDONESIA",
        "tanggal_daftar": "2021-05-18",
        "nomor_tanda_daftar": "000645.02/DJAI.PSE/05/2021",
        "qr_code": "https://pse.kominfo.go.id/storage/images/qr_code/20f8d24b69f45de3959ef4ac736ad722.png",
        "status_id": "TERDAFTAR",
        "sistem_elektronik_id": 526
      }
    },
    {
      "type": "tdpseTerbit",
      "id": 805,
      "attributes": {
        "nomor_pb_umku": null,
        "nama": "MiRecruit",
        "website": "https://mirecruit.manulife.co.id/",
        "sektor": "Sektor Keuangan",
        "nama_perusahaan": "ASURANSI JIWA MANULIFE INDONESIA",
        "tanggal_daftar": "2021-05-07",
        "nomor_tanda_daftar": "000645.01/DJAI.PSE/05/2021",
        "qr_code": "https://pse.kominfo.go.id/storage/images/qr_code/7da2389300dc0d232d16c7cdd58f9ee4.png",
        "status_id": "TERDAFTAR",
        "sistem_elektronik_id": 525
      }
    }
  ]
}