{
  "meta": {
    "page": {
      "currentPage": 942,
      "from": 9411,
      "lastPage": 1113,
      "perPage": 10,
      "to": 9420,
      "total": 11124
    }
  },
  "data": [
    {
      "type": "tdpseTerbit",
      "id": 1249,
      "attributes": {
        "nomor_pb_umku": null,
        "nama": "Website MUF Online Auto Show",
        "website": "https://moas.muf.co.id",
        "sektor": "Sektor Keuangan",
        "nama_perusahaan": "MANDIRI UTAMA FINANCE",
        "tanggal_daftar": "2021-06-02",
        "nomor_tanda_daftar": "000856.02/DJAI.PSE/06/2021",
        "qr_code": "https://pse.kominfo.go.id/storage/images/qr_code/851b779e4b8d30780847db1d8ae4a72c.png",
        "status_id": "TERDAFTAR",
        "sistem_elektronik_id": 925
      }
    },
    {
      "type": "tdpseTerbit",
      "id": 1247,
      "attributes": {
        "nomor_pb_umku": null,
        "nama": "Website Corporate Mandiri Utama Finance",
        "website": "https://muf.co.id",
        "sektor": "Sektor Keuangan",
        "nama_perusahaan": "MANDIRI UTAMA FINANCE",
        "tanggal_daftar": "2021-06-02",
        "nomor_tanda_daftar": "000856.01/DJAI.PSE/06/2021",
        "qr_code": "https://pse.kominfo.go.id/storage/images/qr_code/c1e78fb322676f40ed663b62d4d7765a.png",
        "status_id": "TERDAFTAR",
        "sistem_elektronik_id": 924
      }
    },
    {
      "type": "tdpseTerbit",
      "id": 1243,
      "attributes": {
        "nomor_pb_umku": null,
        "nama": "EzeePasar",
        "website": "www.ezeepasar.com",
        "sektor": "Sektor Perdagangan",
        "nama_perusahaan": "EZEE TUNTAS SEJAHTERA",
        "tanggal_daftar": "2021-06-02",
        "nomor_tanda_daftar": "000855.01/DJAI.PSE/06/2021",
        "qr_code": "https://pse.kominfo.go.id/storage/images/qr_code/09bbb94a896e7c6c1a35748681a74e6a.png",
        "status_id": "TERDAFTAR",
        "sistem_elektronik_id": 935
      }
    },
    {
      "type": "tdpseTerbit",
      "id": 1246,
      "attributes": {
        "nomor_pb_umku": null,
        "nama": "Bank Mayora",
        "website": "https://bankmayora.com",
        "sektor": "Sektor Keuangan",
        "nama_perusahaan": "BANK MAYORA",
        "tanggal_daftar": "2021-06-02",
        "nomor_tanda_daftar": "000854.03/DJAI.PSE/06/2021",
        "qr_code": "https://pse.kominfo.go.id/storage/images/qr_code/77642c3089b047e6567631554294a79e.png",
        "status_id": "TERDAFTAR",
        "sistem_elektronik_id": 893
      }
    },
    {
      "type": "tdpseTerbit",
      "id": 1244,
      "attributes": {
        "nomor_pb_umku": null,
        "nama": "Internet Banking",
        "website": "https://clickmayora.com/",
        "sektor": "Sektor Keuangan",
        "nama_perusahaan": "BANK MAYORA",
        "tanggal_daftar": "2021-06-02",
        "nomor_tanda_daftar": "000854.02/DJAI.PSE/06/2021",
        "qr_code": "https://pse.kominfo.go.id/storage/images/qr_code/6f35738cdfaf04e6860c2e0637b39dc1.png",
        "status_id": "TERDAFTAR",
        "sistem_elektronik_id": 892
      }
    },
    {
      "type": "tdpseTerbit",
      "id": 1242,
      "attributes": {
        "nomor_pb_umku": null,
        "nama": "Mobile Banking",
        "website": "https://clickmayora.com/",
        "sektor": "Sektor Keuangan",
        "nama_perusahaan": "BANK MAYORA",
        "tanggal_daftar": "2021-06-02",
        "nomor_tanda_daftar": "000854.01/DJAI.PSE/06/2021",
        "qr_code": "https://pse.kominfo.go.id/storage/images/qr_code/d84e6cdfdff35213e70d01bd3059f869.png",
        "status_id": "TERDAFTAR",
        "sistem_elektronik_id": 891
      }
    },
    {
      "type": "tdpseTerbit",
      "id": 1528,
      "attributes": {
        "nomor_pb_umku": null,
        "nama": "LANCAR",
        "website": "https://www.lancar.id/",
        "sektor": "Sektor Keuangan",
        "nama_perusahaan": "PASAR DANA PINJAMAN",
        "tanggal_daftar": "2021-06-24",
        "nomor_tanda_daftar": "000853.02/DJAI.PSE/06/2021",
        "qr_code": "https://pse.kominfo.go.id/storage/images/qr_code/d1b58b3ef1f2469eedff14f2d1c5ff7e.png",
        "status_id": "TERDAFTAR",
        "sistem_elektronik_id": 912
      }
    },
    {
      "type": "tdpseTerbit",
      "id": 1241,
      "attributes": {
        "nomor_pb_umku": null,
        "nama": "DANAMAS",
        "website": "https://danamas.co.id",
        "sektor": "Sektor Keuangan",
        "nama_perusahaan": "PASAR DANA PINJAMAN",
        "tanggal_daftar": "2021-06-02",
        "nomor_tanda_daftar": "000853.01/DJAI.PSE/06/2021",
        "qr_code": "https://pse.kominfo.go.id/storage/images/qr_code/22c70a3542de401e5d75c3758fe871ef.png",
        "status_id": "TERDAFTAR",
        "sistem_elektronik_id": 911
      }
    },
    {
      "type": "tdpseTerbit",
      "id": 1245,
      "attributes": {
        "nomor_pb_umku": null,
        "nama": "www.peternco.com",
        "website": "www.peternco.com",
        "sektor": "Sektor Teknologi Informasi dan Komunikasi",
        "nama_perusahaan": "ARTE KREASI INDONESIA",
        "tanggal_daftar": "2021-06-02",
        "nomor_tanda_daftar": "000852.02/DJAI.PSE/06/2021",
        "qr_code": "https://pse.kominfo.go.id/storage/images/qr_code/4f5c6aadea056c7e2fa09799500f12f7.png",
        "status_id": "TERDAFTAR",
        "sistem_elektronik_id": 827
      }
    },
    {
      "type": "tdpseTerbit",
      "id": 1240,
      "attributes": {
        "nomor_pb_umku": null,
        "nama": "www.peternco.com",
        "website": "www.peternco.com",
        "sektor": "Sektor Teknologi Informasi dan Komunikasi",
        "nama_perusahaan": "ARTE KREASI INDONESIA",
        "tanggal_daftar": "2021-06-02",
        "nomor_tanda_daftar": "000852.01/DJAI.PSE/06/2021",
        "qr_code": "https://pse.kominfo.go.id/storage/images/qr_code/0c2df514a0151127a821b4760c51e569.png",
        "status_id": "TERDAFTAR",
        "sistem_elektronik_id": 826
      }
    }
  ]
}