{
  "meta": {
    "page": {
      "currentPage": 943,
      "from": 9421,
      "lastPage": 1040,
      "perPage": 10,
      "to": 9430,
      "total": 10398
    }
  },
  "data": [
    {
      "type": "tdpseTerbit",
      "id": 653,
      "attributes": {
        "nomor_pb_umku": null,
        "nama": "BANDINGIN",
        "website": "https://www.bandingin.com",
        "sektor": "Sektor Teknologi Informasi dan Komunikasi",
        "nama_perusahaan": "SPARK INTEGRATED SOLUTIONS",
        "tanggal_daftar": "2021-04-26",
        "nomor_tanda_daftar": "000532.01/DJAI.PSE/04/2021",
        "qr_code": "https://pse.kominfo.go.id/storage/images/qr_code/4b5fd2c71509dde7803c8bce903bb9c2.png",
        "status_id": "TERDAFTAR",
        "sistem_elektronik_id": 453
      }
    },
    {
      "type": "tdpseTerbit",
      "id": 654,
      "attributes": {
        "nomor_pb_umku": null,
        "nama": "https://www.indopremier.com/",
        "website": "https://www.indopremier.com/",
        "sektor": "Sektor Keuangan",
        "nama_perusahaan": "INDO PREMIER SEKURITAS",
        "tanggal_daftar": "2021-04-26",
        "nomor_tanda_daftar": "000531.02/DJAI.PSE/04/2021",
        "qr_code": "https://pse.kominfo.go.id/storage/images/qr_code/e46d0cb128e4f8f00ccbb92b23533c89.png",
        "status_id": "TERDAFTAR",
        "sistem_elektronik_id": 3274
      }
    },
    {
      "type": "tdpseTerbit",
      "id": 652,
      "attributes": {
        "nomor_pb_umku": null,
        "nama": "IPOT - Investing, News, Education, Financial Plan",
        "website": "https://www.indopremier.com/",
        "sektor": "Sektor Keuangan",
        "nama_perusahaan": "INDO PREMIER SEKURITAS",
        "tanggal_daftar": "2021-04-26",
        "nomor_tanda_daftar": "000531.01/DJAI.PSE/04/2021",
        "qr_code": "https://pse.kominfo.go.id/storage/images/qr_code/5db91d07a1dfebbe69ff8841f757af37.png",
        "status_id": "TERDAFTAR",
        "sistem_elektronik_id": 3273
      }
    },
    {
      "type": "tdpseTerbit",
      "id": 651,
      "attributes": {
        "nomor_pb_umku": null,
        "nama": "SFAST",
        "website": "SFSEKURITAS.CO.ID",
        "sektor": "Sektor Keuangan",
        "nama_perusahaan": "SURYA FAJAR SEKURITAS",
        "tanggal_daftar": "2021-04-26",
        "nomor_tanda_daftar": "000530.01/DJAI.PSE/04/2021",
        "qr_code": "https://pse.kominfo.go.id/storage/images/qr_code/7a87ee3b301a77f0bb143393e5ec35ff.png",
        "status_id": "TERDAFTAR",
        "sistem_elektronik_id": 450
      }
    },
    {
      "type": "tdpseTerbit",
      "id": 650,
      "attributes": {
        "nomor_pb_umku": null,
        "nama": "KALCare.com",
        "website": "https://www.kalcare.com/",
        "sektor": "Sektor Kesehatan, Sektor Perdagangan, Sektor Teknologi Informasi dan Komunikasi",
        "nama_perusahaan": "KARYA HASTA DINAMIKA",
        "tanggal_daftar": "2021-04-26",
        "nomor_tanda_daftar": "000529.01/DJAI.PSE/04/2021",
        "qr_code": "https://pse.kominfo.go.id/storage/images/qr_code/e41f9789e4e4bd25c9bfc6c884306290.png",
        "status_id": "TERDAFTAR",
        "sistem_elektronik_id": 2404
      }
    },
    {
      "type": "tdpseTerbit",
      "id": 648,
      "attributes": {
        "nomor_pb_umku": null,
        "nama": "www.jeunesseglobal.com",
        "website": "www.jeunesseglobal.com",
        "sektor": "Sektor Perdagangan",
        "nama_perusahaan": "JEUNESSE GLOBAL",
        "tanggal_daftar": "2021-04-26",
        "nomor_tanda_daftar": "000528.01/DJAI.PSE/04/2021",
        "qr_code": "https://pse.kominfo.go.id/storage/images/qr_code/a2c0fa234e1ca805ef5ad0059dcfd028.png",
        "status_id": "TERDAFTAR",
        "sistem_elektronik_id": 422
      }
    },
    {
      "type": "tdpseTerbit",
      "id": 645,
      "attributes": {
        "nomor_pb_umku": null,
        "nama": "VMEDIS",
        "website": "https://vmedis.com/",
        "sektor": "Sektor Perdagangan",
        "nama_perusahaan": "VIRTUAL MEDIS INTERNASIONAL",
        "tanggal_daftar": "2021-04-26",
        "nomor_tanda_daftar": "000527.01/DJAI.PSE/04/2021",
        "qr_code": "https://pse.kominfo.go.id/storage/images/qr_code/eeb52d116da8ef38f2449f0b72c85323.png",
        "status_id": "TERDAFTAR",
        "sistem_elektronik_id": 3272
      }
    },
    {
      "type": "tdpseTerbit",
      "id": 2002,
      "attributes": {
        "nomor_pb_umku": null,
        "nama": "AlteaCare",
        "website": "alteacare.id",
        "sektor": "Sektor Kesehatan",
        "nama_perusahaan": "SEHAT DIGITAL NUSANTARA",
        "tanggal_daftar": "2021-10-26",
        "nomor_tanda_daftar": "000526.02/DJAI.PSE/10/2021",
        "qr_code": "https://pse.kominfo.go.id/storage/images/qr_code/5dea06060c5aa38c7997c4e410288199.png",
        "status_id": "TERDAFTAR",
        "sistem_elektronik_id": 414
      }
    },
    {
      "type": "tdpseTerbit",
      "id": 643,
      "attributes": {
        "nomor_pb_umku": null,
        "nama": "AlteaCare",
        "website": "alteacare.id",
        "sektor": "Sektor Kesehatan",
        "nama_perusahaan": "SEHAT DIGITAL NUSANTARA",
        "tanggal_daftar": "2021-04-26",
        "nomor_tanda_daftar": "000526.01/DJAI.PSE/04/2021",
        "qr_code": "https://pse.kominfo.go.id/storage/images/qr_code/d7cad1785f38d57478167c190c94e5cb.png",
        "status_id": "TERDAFTAR",
        "sistem_elektronik_id": 413
      }
    },
    {
      "type": "tdpseTerbit",
      "id": 5747,
      "attributes": {
        "nomor_pb_umku": "812000583267300020003",
        "nama": "WEBSITE DAN APLIKASI SHOPEEFOOD DRIVER",
        "website": "shopeefood.co.id",
        "sektor": "Sektor Keuangan",
        "nama_perusahaan": "SHOPEE INTERNATIONAL INDONESIA",
        "tanggal_daftar": "2022-07-15",
        "nomor_tanda_daftar": "000525.03/DJAI.PSE/07/2022",
        "qr_code": "https://pse.kominfo.go.id/storage/images/qr_code/7ec759b4d65969df7344d96ff1892e74.png",
        "status_id": "TERDAFTAR",
        "sistem_elektronik_id": 5612
      }
    }
  ]
}