{
  "meta": {
    "page": {
      "currentPage": 945,
      "from": 9441,
      "lastPage": 1056,
      "perPage": 10,
      "to": 9450,
      "total": 10553
    }
  },
  "data": [
    {
      "type": "tdpseTerbit",
      "id": 761,
      "attributes": {
        "nomor_pb_umku": null,
        "nama": "CKSB GROUP",
        "website": "https://cksbgroup.com/",
        "sektor": "Sektor Perdagangan",
        "nama_perusahaan": "ZAHRA IDE KOMUNIKASI",
        "tanggal_daftar": "2021-05-07",
        "nomor_tanda_daftar": "000614.01/DJAI.PSE/05/2021",
        "qr_code": "https://pse.kominfo.go.id/storage/images/qr_code/9519d308993acdc53c8400dd3e30fc55.png",
        "status_id": "TERDAFTAR",
        "sistem_elektronik_id": 520
      }
    },
    {
      "type": "tdpseTerbit",
      "id": 760,
      "attributes": {
        "nomor_pb_umku": null,
        "nama": "Cash Heat",
        "website": "www.cashheat.cn",
        "sektor": "Sektor Keuangan",
        "nama_perusahaan": "SIMPAN PINJAM TERANG MULIA UTAMA",
        "tanggal_daftar": "2021-05-07",
        "nomor_tanda_daftar": "000613.01/DJAI.PSE/05/2021",
        "qr_code": "https://pse.kominfo.go.id/storage/images/qr_code/0339888232cb7b02a2338422df0bb09d.png",
        "status_id": "TERDAFTAR",
        "sistem_elektronik_id": 491
      }
    },
    {
      "type": "tdpseTerbit",
      "id": 2003,
      "attributes": {
        "nomor_pb_umku": null,
        "nama": "Mitra Mapan Sejahtera",
        "website": "www.belionline.id",
        "sektor": "Sektor Perdagangan, Sektor Teknologi Informasi dan Komunikasi",
        "nama_perusahaan": "MITRA MAPAN SEJAHTERA",
        "tanggal_daftar": "2021-10-26",
        "nomor_tanda_daftar": "000612.02/DJAI.PSE/10/2021",
        "qr_code": "https://pse.kominfo.go.id/storage/images/qr_code/a3b103d1014668039ed2c2be050708d6.png",
        "status_id": "TERDAFTAR",
        "sistem_elektronik_id": 466
      }
    },
    {
      "type": "tdpseTerbit",
      "id": 759,
      "attributes": {
        "nomor_pb_umku": null,
        "nama": "Mitra Mapan Sejahtera",
        "website": "www.belionline.id",
        "sektor": "Sektor Perdagangan, Sektor Teknologi Informasi dan Komunikasi",
        "nama_perusahaan": "MITRA MAPAN SEJAHTERA",
        "tanggal_daftar": "2021-05-07",
        "nomor_tanda_daftar": "000612.01/DJAI.PSE/05/2021",
        "qr_code": "https://pse.kominfo.go.id/storage/images/qr_code/295bb7f8789020afabe89b2ae60db128.png",
        "status_id": "TERDAFTAR",
        "sistem_elektronik_id": 465
      }
    },
    {
      "type": "tdpseTerbit",
      "id": 758,
      "attributes": {
        "nomor_pb_umku": null,
        "nama": "DELIVERY MANAGEMENT SYSTEM",
        "website": "https://invent-integrasi.co.id/",
        "sektor": "Sektor Teknologi Informasi dan Komunikasi",
        "nama_perusahaan": "INVENT INTEGRASI INDONESIA",
        "tanggal_daftar": "2021-05-07",
        "nomor_tanda_daftar": "000611.03/DJAI.PSE/05/2021",
        "qr_code": "https://pse.kominfo.go.id/storage/images/qr_code/e81c81fff5c386a8326a624f78f5f61e.png",
        "status_id": "TERDAFTAR",
        "sistem_elektronik_id": 435
      }
    },
    {
      "type": "tdpseTerbit",
      "id": 757,
      "attributes": {
        "nomor_pb_umku": null,
        "nama": "WAREHOUSE MANAGEMENT SYSTEM",
        "website": "https://invent-integrasi.co.id/",
        "sektor": "Sektor Teknologi Informasi dan Komunikasi",
        "nama_perusahaan": "INVENT INTEGRASI INDONESIA",
        "tanggal_daftar": "2021-05-07",
        "nomor_tanda_daftar": "000611.02/DJAI.PSE/05/2021",
        "qr_code": "https://pse.kominfo.go.id/storage/images/qr_code/beb889a53ceb5010b30403c5c1bb3fad.png",
        "status_id": "TERDAFTAR",
        "sistem_elektronik_id": 434
      }
    },
    {
      "type": "tdpseTerbit",
      "id": 756,
      "attributes": {
        "nomor_pb_umku": null,
        "nama": "FIELD FORCE MANAGEMENT SYSTEM",
        "website": "https://invent-integrasi.co.id/",
        "sektor": "Sektor Teknologi Informasi dan Komunikasi",
        "nama_perusahaan": "INVENT INTEGRASI INDONESIA",
        "tanggal_daftar": "2021-05-07",
        "nomor_tanda_daftar": "000611.01/DJAI.PSE/05/2021",
        "qr_code": "https://pse.kominfo.go.id/storage/images/qr_code/155a6d8c3c01ea37a1e0dfdaba075a4a.png",
        "status_id": "TERDAFTAR",
        "sistem_elektronik_id": 433
      }
    },
    {
      "type": "tdpseTerbit",
      "id": 754,
      "attributes": {
        "nomor_pb_umku": null,
        "nama": "Ternakbisnis.id",
        "website": "Ternakbisnis.id",
        "sektor": "Sektor Keuangan",
        "nama_perusahaan": "KANDANG KARYA TEKNOLOGI",
        "tanggal_daftar": "2021-05-07",
        "nomor_tanda_daftar": "000610.01/DJAI.PSE/05/2021",
        "qr_code": "https://pse.kominfo.go.id/storage/images/qr_code/230acbce47921c7e0558730df420e211.png",
        "status_id": "TERDAFTAR",
        "sistem_elektronik_id": 518
      }
    },
    {
      "type": "tdpseTerbit",
      "id": 3211,
      "attributes": {
        "nomor_pb_umku": null,
        "nama": "Dnapro Evolution EAST",
        "website": "digitalnetaset.com",
        "sektor": "Sektor Perdagangan",
        "nama_perusahaan": "DIGITAL NET ASET",
        "tanggal_daftar": "2022-02-09",
        "nomor_tanda_daftar": "000609.02/DJAI.PSE/02/2022",
        "qr_code": "https://pse.kominfo.go.id/storage/images/qr_code/78c6ea5624dc6865f1535b029b4cac0f.png",
        "status_id": "TERDAFTAR",
        "sistem_elektronik_id": 563
      }
    },
    {
      "type": "tdpseTerbit",
      "id": 753,
      "attributes": {
        "nomor_pb_umku": null,
        "nama": "https://www.digitalnetaset.com/",
        "website": "https://www.digitalnetaset.com/",
        "sektor": "Sektor Perdagangan",
        "nama_perusahaan": "DIGITAL NET ASET",
        "tanggal_daftar": "2021-05-07",
        "nomor_tanda_daftar": "000609.01/DJAI.PSE/05/2021",
        "qr_code": "https://pse.kominfo.go.id/storage/images/qr_code/4b2f05f0b021dc72d250fe51cb1646bc.png",
        "status_id": "TERDAFTAR",
        "sistem_elektronik_id": 562
      }
    }
  ]
}