{
  "meta": {
    "page": {
      "currentPage": 946,
      "from": 9451,
      "lastPage": 1055,
      "perPage": 10,
      "to": 9460,
      "total": 10545
    }
  },
  "data": [
    {
      "type": "tdpseTerbit",
      "id": 746,
      "attributes": {
        "nomor_pb_umku": null,
        "nama": "BUDDIES",
        "website": "https://mndsvr2.net/buddies/auth",
        "sektor": "Sektor Keuangan",
        "nama_perusahaan": "ASURANSI JIWA ASTRA",
        "tanggal_daftar": "2021-05-07",
        "nomor_tanda_daftar": "000603.02/DJAI.PSE/05/2021",
        "qr_code": "https://pse.kominfo.go.id/storage/images/qr_code/6418abbcf5a3e0dcb1019d169cc4d53d.png",
        "status_id": "TERDAFTAR",
        "sistem_elektronik_id": 2709
      }
    },
    {
      "type": "tdpseTerbit",
      "id": 745,
      "attributes": {
        "nomor_pb_umku": null,
        "nama": "ILOVELIFE.CO.ID",
        "website": "https://ilovelife.co.id",
        "sektor": "Sektor Keuangan",
        "nama_perusahaan": "ASURANSI JIWA ASTRA",
        "tanggal_daftar": "2021-05-07",
        "nomor_tanda_daftar": "000603.01/DJAI.PSE/05/2021",
        "qr_code": "https://pse.kominfo.go.id/storage/images/qr_code/6f5945b11213308c18b9871c5ed5b673.png",
        "status_id": "TERDAFTAR",
        "sistem_elektronik_id": 2708
      }
    },
    {
      "type": "tdpseTerbit",
      "id": 744,
      "attributes": {
        "nomor_pb_umku": null,
        "nama": "ANZ Online dan ANZ Transactive",
        "website": "https://tscid.online.anz.com/portal/SSOWebAgentLogon.jsp?organization=ANZ;  https://logon.online.anz.com;  https://anz.com;  https://anz.co.id",
        "sektor": "Sektor Keuangan",
        "nama_perusahaan": "BANK ANZ INDONESIA",
        "tanggal_daftar": "2021-05-07",
        "nomor_tanda_daftar": "000602.01/DJAI.PSE/05/2021",
        "qr_code": "https://pse.kominfo.go.id/storage/images/qr_code/56832dfeadfe4a6ecb46cff3a4ad8cde.png",
        "status_id": "TERDAFTAR",
        "sistem_elektronik_id": 493
      }
    },
    {
      "type": "tdpseTerbit",
      "id": 743,
      "attributes": {
        "nomor_pb_umku": null,
        "nama": "Mapclub.com",
        "website": "https://www.mapclub.com/",
        "sektor": "Sektor Perdagangan",
        "nama_perusahaan": "GCOMMERCE DIGITAL ASIA",
        "tanggal_daftar": "2021-05-07",
        "nomor_tanda_daftar": "000601.01/DJAI.PSE/05/2021",
        "qr_code": "https://pse.kominfo.go.id/storage/images/qr_code/4f8a54b82bc054a6fe0131114f91a352.png",
        "status_id": "TERDAFTAR",
        "sistem_elektronik_id": 42
      }
    },
    {
      "type": "tdpseTerbit",
      "id": 742,
      "attributes": {
        "nomor_pb_umku": null,
        "nama": "eSyirkah",
        "website": "esyirkah.id",
        "sektor": "Sektor Keuangan, Sektor Teknologi Informasi dan Komunikasi",
        "nama_perusahaan": "SYIRKAH DANA INVESTAMA",
        "tanggal_daftar": "2021-05-07",
        "nomor_tanda_daftar": "000600.01/DJAI.PSE/05/2021",
        "qr_code": "https://pse.kominfo.go.id/storage/images/qr_code/00191c1fda9b9bcc784ef8eb41f3e481.png",
        "status_id": "TERDAFTAR",
        "sistem_elektronik_id": 3288
      }
    },
    {
      "type": "tdpseTerbit",
      "id": 741,
      "attributes": {
        "nomor_pb_umku": null,
        "nama": "Jakartanotebook.com",
        "website": "https://www.jakartanotebook.com/",
        "sektor": "Sektor Perdagangan",
        "nama_perusahaan": "JAKARTA DIGITAL NUSANTARA",
        "tanggal_daftar": "2021-05-07",
        "nomor_tanda_daftar": "000599.01/DJAI.PSE/05/2021",
        "qr_code": "https://pse.kominfo.go.id/storage/images/qr_code/dd9809556b0bf88926db090682b028d5.png",
        "status_id": "TERDAFTAR",
        "sistem_elektronik_id": 3475
      }
    },
    {
      "type": "tdpseTerbit",
      "id": 740,
      "attributes": {
        "nomor_pb_umku": null,
        "nama": "HumanCloudz",
        "website": "www.humancloudz.com",
        "sektor": "Sektor Teknologi Informasi dan Komunikasi",
        "nama_perusahaan": "HUMAN CLOUDZ INDONESIA",
        "tanggal_daftar": "2021-05-07",
        "nomor_tanda_daftar": "000598.01/DJAI.PSE/05/2021",
        "qr_code": "https://pse.kominfo.go.id/storage/images/qr_code/a52eb8d4b8c532338c7be73e5f50495c.png",
        "status_id": "TERDAFTAR",
        "sistem_elektronik_id": 544
      }
    },
    {
      "type": "tdpseTerbit",
      "id": 739,
      "attributes": {
        "nomor_pb_umku": null,
        "nama": "DARBELINK",
        "website": "darbelink.id",
        "sektor": "Sektor Keuangan, Sektor Teknologi Informasi dan Komunikasi",
        "nama_perusahaan": "RISNA DARBE LINK",
        "tanggal_daftar": "2021-05-07",
        "nomor_tanda_daftar": "000597.01/DJAI.PSE/05/2021",
        "qr_code": "https://pse.kominfo.go.id/storage/images/qr_code/80e3c1468a93b086683a098f2af1cc93.png",
        "status_id": "TERDAFTAR",
        "sistem_elektronik_id": 531
      }
    },
    {
      "type": "tdpseTerbit",
      "id": 738,
      "attributes": {
        "nomor_pb_umku": null,
        "nama": "Virgoku",
        "website": "www.virgoku.id",
        "sektor": "Sektor Teknologi Informasi dan Komunikasi",
        "nama_perusahaan": "CAPITAL NET INDONESIA",
        "tanggal_daftar": "2021-05-07",
        "nomor_tanda_daftar": "000596.01/DJAI.PSE/05/2021",
        "qr_code": "https://pse.kominfo.go.id/storage/images/qr_code/3fd265ac2d546171160b4654c2667f09.png",
        "status_id": "TERDAFTAR",
        "sistem_elektronik_id": 539
      }
    },
    {
      "type": "tdpseTerbit",
      "id": 737,
      "attributes": {
        "nomor_pb_umku": null,
        "nama": "MITRA P2P LENDING",
        "website": "mitrapendanaan.co.id",
        "sektor": "Sektor Keuangan",
        "nama_perusahaan": "MITRA PENDANAAN MANDIRI",
        "tanggal_daftar": "2021-05-07",
        "nomor_tanda_daftar": "000595.01/DJAI.PSE/05/2021",
        "qr_code": "https://pse.kominfo.go.id/storage/images/qr_code/f9b5777e976d228ef10dce5ac45cf063.png",
        "status_id": "TERDAFTAR",
        "sistem_elektronik_id": 537
      }
    }
  ]
}