{
  "meta": {
    "page": {
      "currentPage": 947,
      "from": 9461,
      "lastPage": 1070,
      "perPage": 10,
      "to": 9470,
      "total": 10698
    }
  },
  "data": [
    {
      "type": "tdpseTerbit",
      "id": 1174,
      "attributes": {
        "nomor_pb_umku": null,
        "nama": "Astra Integrated System (ASSIST)",
        "website": "-",
        "sektor": "Sektor Perdagangan",
        "nama_perusahaan": "ASTRA INTERNATIONAL",
        "tanggal_daftar": "2021-06-02",
        "nomor_tanda_daftar": "000654.16/DJAI.PSE/06/2021",
        "qr_code": "https://pse.kominfo.go.id/storage/images/qr_code/415cadb71b72cd33f459cf38b4bfd072.png",
        "status_id": "TERDAFTAR",
        "sistem_elektronik_id": 248
      }
    },
    {
      "type": "tdpseTerbit",
      "id": 1173,
      "attributes": {
        "nomor_pb_umku": null,
        "nama": "Astra Dealer Management System",
        "website": "-",
        "sektor": "Sektor Perdagangan",
        "nama_perusahaan": "ASTRA INTERNATIONAL",
        "tanggal_daftar": "2021-06-02",
        "nomor_tanda_daftar": "000654.15/DJAI.PSE/06/2021",
        "qr_code": "https://pse.kominfo.go.id/storage/images/qr_code/f331045a11f8584cfc677d824a8f1eca.png",
        "status_id": "TERDAFTAR",
        "sistem_elektronik_id": 247
      }
    },
    {
      "type": "tdpseTerbit",
      "id": 1172,
      "attributes": {
        "nomor_pb_umku": null,
        "nama": "Astra Workshop System (Home Service)",
        "website": "-",
        "sektor": "Sektor Perdagangan",
        "nama_perusahaan": "ASTRA INTERNATIONAL",
        "tanggal_daftar": "2021-06-02",
        "nomor_tanda_daftar": "000654.14/DJAI.PSE/06/2021",
        "qr_code": "https://pse.kominfo.go.id/storage/images/qr_code/4ebee7282916c65972e1b41042c47b71.png",
        "status_id": "TERDAFTAR",
        "sistem_elektronik_id": 246
      }
    },
    {
      "type": "tdpseTerbit",
      "id": 978,
      "attributes": {
        "nomor_pb_umku": null,
        "nama": "Motorku X",
        "website": "-",
        "sektor": "Sektor Perdagangan",
        "nama_perusahaan": "ASTRA INTERNATIONAL",
        "tanggal_daftar": "2021-05-11",
        "nomor_tanda_daftar": "000654.13/DJAI.PSE/05/2021",
        "qr_code": "https://pse.kominfo.go.id/storage/images/qr_code/bff43c87d311bc74d2689825da09ba21.png",
        "status_id": "TERDAFTAR",
        "sistem_elektronik_id": 245
      }
    },
    {
      "type": "tdpseTerbit",
      "id": 977,
      "attributes": {
        "nomor_pb_umku": null,
        "nama": "Orion",
        "website": "https://orion.astra.co.id/",
        "sektor": "Sektor Perdagangan, Sektor Teknologi Informasi dan Komunikasi",
        "nama_perusahaan": "ASTRA INTERNATIONAL",
        "tanggal_daftar": "2021-05-11",
        "nomor_tanda_daftar": "000654.12/DJAI.PSE/05/2021",
        "qr_code": "https://pse.kominfo.go.id/storage/images/qr_code/141a14a7ba7cb2fd5e7a448a424e8e47.png",
        "status_id": "TERDAFTAR",
        "sistem_elektronik_id": 244
      }
    },
    {
      "type": "tdpseTerbit",
      "id": 976,
      "attributes": {
        "nomor_pb_umku": null,
        "nama": "Belibareng",
        "website": "https://belibareng.co.id/",
        "sektor": "Sektor Perdagangan",
        "nama_perusahaan": "ASTRA INTERNATIONAL",
        "tanggal_daftar": "2021-05-11",
        "nomor_tanda_daftar": "000654.11/DJAI.PSE/05/2021",
        "qr_code": "https://pse.kominfo.go.id/storage/images/qr_code/103c59f38db2ffc21293da5aa8e8603f.png",
        "status_id": "TERDAFTAR",
        "sistem_elektronik_id": 243
      }
    },
    {
      "type": "tdpseTerbit",
      "id": 975,
      "attributes": {
        "nomor_pb_umku": null,
        "nama": "AstraKu",
        "website": "-",
        "sektor": "Sektor Perdagangan",
        "nama_perusahaan": "ASTRA INTERNATIONAL",
        "tanggal_daftar": "2021-05-11",
        "nomor_tanda_daftar": "000654.10/DJAI.PSE/05/2021",
        "qr_code": "https://pse.kominfo.go.id/storage/images/qr_code/01a8ea9943afe656d4c26cf812879973.png",
        "status_id": "TERDAFTAR",
        "sistem_elektronik_id": 242
      }
    },
    {
      "type": "tdpseTerbit",
      "id": 974,
      "attributes": {
        "nomor_pb_umku": null,
        "nama": "Meta",
        "website": "-",
        "sektor": "Sektor Perdagangan, Sektor Teknologi Informasi dan Komunikasi",
        "nama_perusahaan": "ASTRA INTERNATIONAL",
        "tanggal_daftar": "2021-05-11",
        "nomor_tanda_daftar": "000654.09/DJAI.PSE/05/2021",
        "qr_code": "https://pse.kominfo.go.id/storage/images/qr_code/063bdc7ec89b66313328467d59143ccd.png",
        "status_id": "TERDAFTAR",
        "sistem_elektronik_id": 241
      }
    },
    {
      "type": "tdpseTerbit",
      "id": 909,
      "attributes": {
        "nomor_pb_umku": null,
        "nama": "DaihatsuKu",
        "website": "-",
        "sektor": "Sektor Perdagangan",
        "nama_perusahaan": "ASTRA INTERNATIONAL",
        "tanggal_daftar": "2021-05-11",
        "nomor_tanda_daftar": "000654.08/DJAI.PSE/05/2021",
        "qr_code": "https://pse.kominfo.go.id/storage/images/qr_code/ba01b645d3b0abb80245f0235f51dada.png",
        "status_id": "TERDAFTAR",
        "sistem_elektronik_id": 240
      }
    },
    {
      "type": "tdpseTerbit",
      "id": 908,
      "attributes": {
        "nomor_pb_umku": null,
        "nama": "Website Astra Daihatsu",
        "website": "https://www.astra-daihatsu.id/",
        "sektor": "Sektor Perdagangan",
        "nama_perusahaan": "ASTRA INTERNATIONAL",
        "tanggal_daftar": "2021-05-11",
        "nomor_tanda_daftar": "000654.07/DJAI.PSE/05/2021",
        "qr_code": "https://pse.kominfo.go.id/storage/images/qr_code/755f434e8b234f3a84a2da66efeb6d0e.png",
        "status_id": "TERDAFTAR",
        "sistem_elektronik_id": 239
      }
    }
  ]
}