{
  "meta": {
    "page": {
      "currentPage": 949,
      "from": 9481,
      "lastPage": 1005,
      "perPage": 10,
      "to": 9490,
      "total": 10048
    }
  },
  "data": [
    {
      "type": "tdpseTerbit",
      "id": 10436,
      "attributes": {
        "nomor_pb_umku": "022101005006100000004",
        "nama": "NUPOS",
        "website": "nupos.id",
        "sektor": "Sektor Teknologi Informasi dan Komunikasi",
        "nama_perusahaan": "IDE DEF GHI",
        "tanggal_daftar": "2022-08-16",
        "nomor_tanda_daftar": "000300.04/DJAI.PSE/08/2022",
        "qr_code": "https://pse.kominfo.go.id/storage/images/qr_code/7e79f929ebec9bf970ae32e0b6eafe1d.png",
        "status_id": "TERDAFTAR",
        "sistem_elektronik_id": 10293
      }
    },
    {
      "type": "tdpseTerbit",
      "id": 10432,
      "attributes": {
        "nomor_pb_umku": "022101005006100000003",
        "nama": "RUANG ORTU INDONESIA",
        "website": "ROI.ruangortu.id",
        "sektor": "Sektor Teknologi Informasi dan Komunikasi",
        "nama_perusahaan": "IDE DEF GHI",
        "tanggal_daftar": "2022-08-16",
        "nomor_tanda_daftar": "000300.03/DJAI.PSE/08/2022",
        "qr_code": "https://pse.kominfo.go.id/storage/images/qr_code/c155a029cb5e7f2261870e6242b2a8f3.png",
        "status_id": "TERDAFTAR",
        "sistem_elektronik_id": 10289
      }
    },
    {
      "type": "tdpseTerbit",
      "id": 10426,
      "attributes": {
        "nomor_pb_umku": "022101005006100000002",
        "nama": "RUANG ORTU BY ASIA",
        "website": "asia.ruangortu.id",
        "sektor": "Sektor Teknologi Informasi dan Komunikasi",
        "nama_perusahaan": "IDE DEF GHI",
        "tanggal_daftar": "2022-08-16",
        "nomor_tanda_daftar": "000300.02/DJAI.PSE/08/2022",
        "qr_code": "https://pse.kominfo.go.id/storage/images/qr_code/a145c45145c888e6972149d7e16d8c32.png",
        "status_id": "TERDAFTAR",
        "sistem_elektronik_id": 10283
      }
    },
    {
      "type": "tdpseTerbit",
      "id": 4288,
      "attributes": {
        "nomor_pb_umku": "070322005473100000001",
        "nama": "MULTI KANAL",
        "website": "multikanal.online",
        "sektor": "Sektor Perdagangan",
        "nama_perusahaan": "MULTI MITRA BERJASA",
        "tanggal_daftar": "2022-06-08",
        "nomor_tanda_daftar": "000300.02/DJAI.PSE/06/2022",
        "qr_code": "https://pse.kominfo.go.id/storage/images/qr_code/622fc10ce8a145bf205f1df6ed85f658.png",
        "status_id": "TERDAFTAR",
        "sistem_elektronik_id": 4282
      }
    },
    {
      "type": "tdpseTerbit",
      "id": 368,
      "attributes": {
        "nomor_pb_umku": null,
        "nama": "QUICKQRIS",
        "website": "quickqris.id",
        "sektor": "Sektor Teknologi Informasi dan Komunikasi",
        "nama_perusahaan": "IDE DEF GHI",
        "tanggal_daftar": "2021-03-15",
        "nomor_tanda_daftar": "000300.01/DJAI.PSE/03/2021",
        "qr_code": "https://pse.kominfo.go.id/storage/images/qr_code/53c8134eba669c4403caffae1180535d.png",
        "status_id": "TERDAFTAR",
        "sistem_elektronik_id": 111
      }
    },
    {
      "type": "tdpseTerbit",
      "id": 366,
      "attributes": {
        "nomor_pb_umku": null,
        "nama": "Viva Apotek",
        "website": "www.vivahealth.co.id",
        "sektor": "Sektor Kesehatan",
        "nama_perusahaan": "SUMBER HIDUP SEHAT",
        "tanggal_daftar": "2021-03-15",
        "nomor_tanda_daftar": "000299.01/DJAI.PSE/03/2021",
        "qr_code": "https://pse.kominfo.go.id/storage/images/qr_code/2444f148aa70104cab027d5f59358dd1.png",
        "status_id": "TERDAFTAR",
        "sistem_elektronik_id": 69
      }
    },
    {
      "type": "tdpseTerbit",
      "id": 4291,
      "attributes": {
        "nomor_pb_umku": "912000239300600030002",
        "nama": "WELLINGS INDONESIA",
        "website": "wellings.id",
        "sektor": "Sektor Perdagangan",
        "nama_perusahaan": "ERA FARMA INDONESIA",
        "tanggal_daftar": "2022-06-08",
        "nomor_tanda_daftar": "000298.02/DJAI.PSE/06/2022",
        "qr_code": "https://pse.kominfo.go.id/storage/images/qr_code/97f3fc69f817edbcc62cbd004c44a7df.png",
        "status_id": "TERDAFTAR",
        "sistem_elektronik_id": 4284
      }
    },
    {
      "type": "tdpseTerbit",
      "id": 4561,
      "attributes": {
        "nomor_pb_umku": "123800015230900000001",
        "nama": "NABITU.ID",
        "website": "nabitu.id",
        "sektor": "Sektor Keuangan",
        "nama_perusahaan": "NABITU TEKNOLOGI ISLAMI",
        "tanggal_daftar": "2022-06-16",
        "nomor_tanda_daftar": "000298.01/DJAI.PSE/06/2022",
        "qr_code": "https://pse.kominfo.go.id/storage/images/qr_code/e74860a5f606c84b39568443ea517900.png",
        "status_id": "TERDAFTAR",
        "sistem_elektronik_id": 4524
      }
    },
    {
      "type": "tdpseTerbit",
      "id": 4287,
      "attributes": {
        "nomor_pb_umku": "912000239300600030001",
        "nama": "WELLING INDONESIA",
        "website": "wellings.id",
        "sektor": "Sektor Perdagangan",
        "nama_perusahaan": "ERA FARMA INDONESIA",
        "tanggal_daftar": "2022-06-08",
        "nomor_tanda_daftar": "000298.01/DJAI.PSE/06/2022",
        "qr_code": "https://pse.kominfo.go.id/storage/images/qr_code/692265e9e5ec1ec5d33790c41a8be5b5.png",
        "status_id": "TERDAFTAR",
        "sistem_elektronik_id": 4280
      }
    },
    {
      "type": "tdpseTerbit",
      "id": 365,
      "attributes": {
        "nomor_pb_umku": null,
        "nama": "Bukalapak.com",
        "website": "Bukalapak.com",
        "sektor": "Sektor Teknologi Informasi dan Komunikasi",
        "nama_perusahaan": "BUKALAPAK.COM",
        "tanggal_daftar": "2021-03-10",
        "nomor_tanda_daftar": "000298.01/DJAI.PSE/03/2021",
        "qr_code": "https://pse.kominfo.go.id/storage/images/qr_code/95807d3b2a32229f7d826d7a2c3057a5.png",
        "status_id": "TERDAFTAR",
        "sistem_elektronik_id": 65
      }
    }
  ]
}