{
  "meta": {
    "page": {
      "currentPage": 951,
      "from": 9501,
      "lastPage": 962,
      "perPage": 10,
      "to": 9510,
      "total": 9612
    }
  },
  "data": [
    {
      "type": "tdpseTerbit",
      "id": 4343,
      "attributes": {
        "nomor_pb_umku": null,
        "nama": "Desty.app",
        "website": "Desty.app",
        "sektor": "Sektor Perdagangan",
        "nama_perusahaan": "DESTY KARSA WESYA",
        "tanggal_daftar": "2022-04-28",
        "nomor_tanda_daftar": "000054.03/DJAI.PSE/04/2022",
        "qr_code": "https://pse.kominfo.go.id/storage/images/qr_code/091b91edc47475c85746e7a84edf661a.png",
        "status_id": "TERDAFTAR",
        "sistem_elektronik_id": 4329
      }
    },
    {
      "type": "tdpseTerbit",
      "id": 63,
      "attributes": {
        "nomor_pb_umku": null,
        "nama": "desty",
        "website": "https://www.desty.app/",
        "sektor": "Sektor Perdagangan, Sektor Teknologi Informasi dan Komunikasi",
        "nama_perusahaan": "DESTY KARSA WESYA",
        "tanggal_daftar": "2021-02-23",
        "nomor_tanda_daftar": "000054.02/DJAI.PSE/02/2021",
        "qr_code": "https://pse.kominfo.go.id/storage/images/qr_code/6657d93dafab8448cd57fcf5e6194eb6.png",
        "status_id": "TERDAFTAR",
        "sistem_elektronik_id": 2451
      }
    },
    {
      "type": "tdpseTerbit",
      "id": 62,
      "attributes": {
        "nomor_pb_umku": null,
        "nama": "desty",
        "website": "https://www.desty.app/",
        "sektor": "Sektor Perdagangan, Sektor Teknologi Informasi dan Komunikasi",
        "nama_perusahaan": "DESTY KARSA WESYA",
        "tanggal_daftar": "2021-02-23",
        "nomor_tanda_daftar": "000054.01/DJAI.PSE/02/2021",
        "qr_code": "https://pse.kominfo.go.id/storage/images/qr_code/80e36e7f6c2ffc87aa01125e848738a8.png",
        "status_id": "TERDAFTAR",
        "sistem_elektronik_id": 2450
      }
    },
    {
      "type": "tdpseTerbit",
      "id": 61,
      "attributes": {
        "nomor_pb_umku": null,
        "nama": "KREDIT NOW",
        "website": "-",
        "sektor": "Sektor Keuangan",
        "nama_perusahaan": "SIMPAN PINJAM PERMATA INDAH BERSAMA",
        "tanggal_daftar": "2021-02-23",
        "nomor_tanda_daftar": "000053.01/DJAI.PSE/02/2021",
        "qr_code": "https://pse.kominfo.go.id/storage/images/qr_code/a0d20e362f523389cd24b5e14318c5a3.png",
        "status_id": "TERDAFTAR",
        "sistem_elektronik_id": 2485
      }
    },
    {
      "type": "tdpseTerbit",
      "id": 60,
      "attributes": {
        "nomor_pb_umku": null,
        "nama": "catchadeal.id",
        "website": "https://catchadeal.id",
        "sektor": "Sektor Teknologi Informasi dan Komunikasi",
        "nama_perusahaan": "CATCHA LINTAS MEDIA",
        "tanggal_daftar": "2021-02-23",
        "nomor_tanda_daftar": "000052.01/DJAI.PSE/02/2021",
        "qr_code": "https://pse.kominfo.go.id/storage/images/qr_code/7d74d05489528a5ae2870a83305f8cb7.png",
        "status_id": "TERDAFTAR",
        "sistem_elektronik_id": 2378
      }
    },
    {
      "type": "tdpseTerbit",
      "id": 59,
      "attributes": {
        "nomor_pb_umku": null,
        "nama": "Bekal Hidup",
        "website": "www.bekalhidup.com",
        "sektor": "Sektor Keuangan",
        "nama_perusahaan": "PANIN DAI-ICHI LIFE",
        "tanggal_daftar": "2021-02-23",
        "nomor_tanda_daftar": "000051.01/DJAI.PSE/02/2021",
        "qr_code": "https://pse.kominfo.go.id/storage/images/qr_code/a6410e52e4584865e838c657fad317e7.png",
        "status_id": "TERDAFTAR",
        "sistem_elektronik_id": 2477
      }
    },
    {
      "type": "tdpseTerbit",
      "id": 10349,
      "attributes": {
        "nomor_pb_umku": "912020177088600020005",
        "nama": "SOVERA",
        "website": "sovera.sequis.co.id",
        "sektor": "Sektor Keuangan",
        "nama_perusahaan": "ASURANSI JIWA SEQUIS LIFE",
        "tanggal_daftar": "2022-08-15",
        "nomor_tanda_daftar": "000050.10/DJAI.PSE/08/2022",
        "qr_code": "https://pse.kominfo.go.id/storage/images/qr_code/1a8341df771dfdd2b96d41428cdd0ad9.png",
        "status_id": "TERDAFTAR",
        "sistem_elektronik_id": 10197
      }
    },
    {
      "type": "tdpseTerbit",
      "id": 10347,
      "attributes": {
        "nomor_pb_umku": "912020177088600020004",
        "nama": "PORTAL MIKRO SEQUIS SEJAHTERA",
        "website": "mikrosejahtera.sequis.co.id",
        "sektor": "Sektor Keuangan",
        "nama_perusahaan": "ASURANSI JIWA SEQUIS LIFE",
        "tanggal_daftar": "2022-08-15",
        "nomor_tanda_daftar": "000050.09/DJAI.PSE/08/2022",
        "qr_code": "https://pse.kominfo.go.id/storage/images/qr_code/3a3680676915374349673a33f19f04ea.png",
        "status_id": "TERDAFTAR",
        "sistem_elektronik_id": 10195
      }
    },
    {
      "type": "tdpseTerbit",
      "id": 5820,
      "attributes": {
        "nomor_pb_umku": "912020177088600020003",
        "nama": "EPOLICY SEQUIS",
        "website": "epolicy.sequis.co.id",
        "sektor": "Sektor Keuangan",
        "nama_perusahaan": "ASURANSI JIWA SEQUIS LIFE",
        "tanggal_daftar": "2022-07-15",
        "nomor_tanda_daftar": "000050.08/DJAI.PSE/07/2022",
        "qr_code": "https://pse.kominfo.go.id/storage/images/qr_code/c9b61a50289c5e6067f6341641bd01b2.png",
        "status_id": "TERDAFTAR",
        "sistem_elektronik_id": 5680
      }
    },
    {
      "type": "tdpseTerbit",
      "id": 5812,
      "attributes": {
        "nomor_pb_umku": "912020177088600020003",
        "nama": "TELEBUDDY",
        "website": "telebuddy.sequis.co.id",
        "sektor": "Sektor Keuangan",
        "nama_perusahaan": "ASURANSI JIWA SEQUIS LIFE",
        "tanggal_daftar": "2022-07-15",
        "nomor_tanda_daftar": "000050.07/DJAI.PSE/07/2022",
        "qr_code": "https://pse.kominfo.go.id/storage/images/qr_code/b9f58d225a7079af63d1cb7ea03a9efa.png",
        "status_id": "TERDAFTAR",
        "sistem_elektronik_id": 5673
      }
    }
  ]
}