{
  "meta": {
    "page": {
      "currentPage": 953,
      "from": 9521,
      "lastPage": 1097,
      "perPage": 10,
      "to": 9530,
      "total": 10962
    }
  },
  "data": [
    {
      "type": "tdpseTerbit",
      "id": 1017,
      "attributes": {
        "nomor_pb_umku": null,
        "nama": "eliteproxy.co.id",
        "website": "www.eliteproxy.co.id",
        "sektor": "Sektor Perdagangan, Sektor Teknologi Informasi dan Komunikasi",
        "nama_perusahaan": "ELITE PROXY SISTEM",
        "tanggal_daftar": "2021-05-18",
        "nomor_tanda_daftar": "000760.01/DJAI.PSE/05/2021",
        "qr_code": "https://pse.kominfo.go.id/storage/images/qr_code/39daf5a25f07d3ae9c1eb627a2b6fe5d.png",
        "status_id": "TERDAFTAR",
        "sistem_elektronik_id": 720
      }
    },
    {
      "type": "tdpseTerbit",
      "id": 1016,
      "attributes": {
        "nomor_pb_umku": null,
        "nama": "powersistem.co.id",
        "website": "www.powersistem.co.id",
        "sektor": "Sektor Perdagangan, Sektor Teknologi Informasi dan Komunikasi",
        "nama_perusahaan": "POWER SISTEM INTEGRASI",
        "tanggal_daftar": "2021-05-18",
        "nomor_tanda_daftar": "000759.01/DJAI.PSE/05/2021",
        "qr_code": "https://pse.kominfo.go.id/storage/images/qr_code/38a424d81ff755826487012c40c00639.png",
        "status_id": "TERDAFTAR",
        "sistem_elektronik_id": 719
      }
    },
    {
      "type": "tdpseTerbit",
      "id": 1015,
      "attributes": {
        "nomor_pb_umku": null,
        "nama": "DUNIAPERKAKAS.CO.ID",
        "website": "www.duniaperkakas.co.id",
        "sektor": "Sektor Perdagangan, Sektor Teknologi Informasi dan Komunikasi",
        "nama_perusahaan": "PERSADA SENTRA SERVISINDO",
        "tanggal_daftar": "2021-05-18",
        "nomor_tanda_daftar": "000758.01/DJAI.PSE/05/2021",
        "qr_code": "https://pse.kominfo.go.id/storage/images/qr_code/7db7048bbcdc67232eb5534d67ed30a9.png",
        "status_id": "TERDAFTAR",
        "sistem_elektronik_id": 3316
      }
    },
    {
      "type": "tdpseTerbit",
      "id": 4376,
      "attributes": {
        "nomor_pb_umku": "912040792044300000001",
        "nama": "JIWA +",
        "website": "-",
        "sektor": "Sektor Perdagangan",
        "nama_perusahaan": "JIWA TRI BOGA",
        "tanggal_daftar": "2022-06-14",
        "nomor_tanda_daftar": "000757.02/DJAI.PSE/06/2022",
        "qr_code": "https://pse.kominfo.go.id/storage/images/qr_code/d4b51316f212464bef9a9b6898fcd4db.png",
        "status_id": "TERDAFTAR",
        "sistem_elektronik_id": 4361
      }
    },
    {
      "type": "tdpseTerbit",
      "id": 1014,
      "attributes": {
        "nomor_pb_umku": null,
        "nama": "JIWA+",
        "website": "-",
        "sektor": "Sektor Perdagangan",
        "nama_perusahaan": "JIWA TRI BOGA",
        "tanggal_daftar": "2021-05-18",
        "nomor_tanda_daftar": "000757.01/DJAI.PSE/05/2021",
        "qr_code": "https://pse.kominfo.go.id/storage/images/qr_code/9589dcac5873e1a5559a92e681462ba8.png",
        "status_id": "TERDAFTAR",
        "sistem_elektronik_id": 374
      }
    },
    {
      "type": "tdpseTerbit",
      "id": 2653,
      "attributes": {
        "nomor_pb_umku": null,
        "nama": "Anymind Group",
        "website": "anymindgroup.com",
        "sektor": "Sektor Teknologi Informasi dan Komunikasi",
        "nama_perusahaan": "ADASIA TECHNOLOGY INDONESIA",
        "tanggal_daftar": "2021-12-07",
        "nomor_tanda_daftar": "000756.04/DJAI.PSE/12/2021",
        "qr_code": "https://pse.kominfo.go.id/storage/images/qr_code/fd97c3677c763dd76f754edc9ec4514b.png",
        "status_id": "TERDAFTAR",
        "sistem_elektronik_id": 2804
      }
    },
    {
      "type": "tdpseTerbit",
      "id": 1096,
      "attributes": {
        "nomor_pb_umku": null,
        "nama": "AnyTag",
        "website": "www.anytag.co.id",
        "sektor": "Sektor Teknologi Informasi dan Komunikasi",
        "nama_perusahaan": "ADASIA TECHNOLOGY INDONESIA",
        "tanggal_daftar": "2021-06-02",
        "nomor_tanda_daftar": "000756.03/DJAI.PSE/06/2021",
        "qr_code": "https://pse.kominfo.go.id/storage/images/qr_code/779acfeaf9ec1ed431e48a6edf1a5268.png",
        "status_id": "TERDAFTAR",
        "sistem_elektronik_id": 2803
      }
    },
    {
      "type": "tdpseTerbit",
      "id": 1095,
      "attributes": {
        "nomor_pb_umku": null,
        "nama": "AnyFactory",
        "website": "www.anyfactory.co.id",
        "sektor": "Sektor Teknologi Informasi dan Komunikasi",
        "nama_perusahaan": "ADASIA TECHNOLOGY INDONESIA",
        "tanggal_daftar": "2021-06-02",
        "nomor_tanda_daftar": "000756.02/DJAI.PSE/06/2021",
        "qr_code": "https://pse.kominfo.go.id/storage/images/qr_code/ea110c18e752a875b6b6b225142ea22b.png",
        "status_id": "TERDAFTAR",
        "sistem_elektronik_id": 2802
      }
    },
    {
      "type": "tdpseTerbit",
      "id": 1013,
      "attributes": {
        "nomor_pb_umku": null,
        "nama": "AnyDigital",
        "website": "http://anydigital.co.id/",
        "sektor": "Sektor Teknologi Informasi dan Komunikasi",
        "nama_perusahaan": "ADASIA TECHNOLOGY INDONESIA",
        "tanggal_daftar": "2021-05-18",
        "nomor_tanda_daftar": "000756.01/DJAI.PSE/05/2021",
        "qr_code": "https://pse.kominfo.go.id/storage/images/qr_code/99a576001dc8d338adaa8de6b46f14bd.png",
        "status_id": "TERDAFTAR",
        "sistem_elektronik_id": 2801
      }
    },
    {
      "type": "tdpseTerbit",
      "id": 1011,
      "attributes": {
        "nomor_pb_umku": null,
        "nama": "Ponny Beaute",
        "website": "https://ponnybeaute.co.id/",
        "sektor": "Sektor Perdagangan",
        "nama_perusahaan": "PONNY BEAUTE INDONESIA",
        "tanggal_daftar": "2021-05-18",
        "nomor_tanda_daftar": "000755.01/DJAI.PSE/05/2021",
        "qr_code": "https://pse.kominfo.go.id/storage/images/qr_code/96975ead0765de21a7aa2647be91a52d.png",
        "status_id": "TERDAFTAR",
        "sistem_elektronik_id": 746
      }
    }
  ]
}