{
  "meta": {
    "page": {
      "currentPage": 954,
      "from": 9531,
      "lastPage": 970,
      "perPage": 10,
      "to": 9540,
      "total": 9692
    }
  },
  "data": [
    {
      "type": "tdpseTerbit",
      "id": 108,
      "attributes": {
        "nomor_pb_umku": null,
        "nama": "RUN System",
        "website": "https://runsystem.id/",
        "sektor": "Sektor Perdagangan, Sektor Teknologi Informasi dan Komunikasi",
        "nama_perusahaan": "GLOBAL SUKSES SOLUSI",
        "tanggal_daftar": "2021-02-23",
        "nomor_tanda_daftar": "000098.01/DJAI.PSE/02/2021",
        "qr_code": "https://pse.kominfo.go.id/storage/images/qr_code/ecc69b1a80793be4223dc1c6696232f3.png",
        "status_id": "TERDAFTAR",
        "sistem_elektronik_id": 2534
      }
    },
    {
      "type": "tdpseTerbit",
      "id": 107,
      "attributes": {
        "nomor_pb_umku": null,
        "nama": "GOODEDU PLATFORM PEMBELAJARAN DARING SATU PINTU",
        "website": "https://goodedu.id/",
        "sektor": "Sektor Perdagangan, Sektor Teknologi Informasi dan Komunikasi",
        "nama_perusahaan": "KITA SUPER TIM",
        "tanggal_daftar": "2021-02-23",
        "nomor_tanda_daftar": "000097.01/DJAI.PSE/02/2021",
        "qr_code": "https://pse.kominfo.go.id/storage/images/qr_code/5af40e3a6e73d9d3b18ba57cf8723dc0.png",
        "status_id": "TERDAFTAR",
        "sistem_elektronik_id": 2486
      }
    },
    {
      "type": "tdpseTerbit",
      "id": 2314,
      "attributes": {
        "nomor_pb_umku": null,
        "nama": "BLoB",
        "website": "blob.id",
        "sektor": "Sektor Teknologi Informasi dan Komunikasi",
        "nama_perusahaan": "DUTA BLOK CHAININDO",
        "tanggal_daftar": "2021-11-08",
        "nomor_tanda_daftar": "000096.02/DJAI.PSE/11/2021",
        "qr_code": "https://pse.kominfo.go.id/storage/images/qr_code/7304c1026fb4aed34f1a4e79298024c5.png",
        "status_id": "TERDAFTAR",
        "sistem_elektronik_id": 2543
      }
    },
    {
      "type": "tdpseTerbit",
      "id": 106,
      "attributes": {
        "nomor_pb_umku": null,
        "nama": "BLoB",
        "website": "blob.id",
        "sektor": "Sektor Teknologi Informasi dan Komunikasi",
        "nama_perusahaan": "DUTA BLOK CHAININDO",
        "tanggal_daftar": "2021-02-23",
        "nomor_tanda_daftar": "000096.01/DJAI.PSE/02/2021",
        "qr_code": "https://pse.kominfo.go.id/storage/images/qr_code/9c5d9baae9597db1b3dd8af8839439aa.png",
        "status_id": "TERDAFTAR",
        "sistem_elektronik_id": 2542
      }
    },
    {
      "type": "tdpseTerbit",
      "id": 105,
      "attributes": {
        "nomor_pb_umku": null,
        "nama": "YOMARI INTERNATIONAL",
        "website": "www.yomariinternational.com",
        "sektor": "Sektor Perdagangan",
        "nama_perusahaan": "YOMARI EKSIS SERENTAK",
        "tanggal_daftar": "2021-02-23",
        "nomor_tanda_daftar": "000095.01/DJAI.PSE/02/2021",
        "qr_code": "https://pse.kominfo.go.id/storage/images/qr_code/5283ba74fba74e05bc8a3db045ee0049.png",
        "status_id": "TERDAFTAR",
        "sistem_elektronik_id": 2414
      }
    },
    {
      "type": "tdpseTerbit",
      "id": 104,
      "attributes": {
        "nomor_pb_umku": null,
        "nama": "KUPU",
        "website": "Top-level domain: https://www.kupu.id; Second-level domain: https://employer.kupu.id; https://man.kupu.id; https://teach.kupu.id",
        "sektor": "Sektor Teknologi Informasi dan Komunikasi",
        "nama_perusahaan": "DALLIGENT SOLUSI INDONESIA",
        "tanggal_daftar": "2021-02-23",
        "nomor_tanda_daftar": "000094.01/DJAI.PSE/02/2021",
        "qr_code": "https://pse.kominfo.go.id/storage/images/qr_code/04886206adaccbf21d5fa7f075a5b235.png",
        "status_id": "TERDAFTAR",
        "sistem_elektronik_id": 2306
      }
    },
    {
      "type": "tdpseTerbit",
      "id": 1999,
      "attributes": {
        "nomor_pb_umku": null,
        "nama": "MYKAS",
        "website": "https://www.mykas.co.id",
        "sektor": "Sektor Teknologi Informasi dan Komunikasi",
        "nama_perusahaan": "SOLUSI INFORMASI DIGITAL UTAMA",
        "tanggal_daftar": "2021-10-26",
        "nomor_tanda_daftar": "000093.02/DJAI.PSE/10/2021",
        "qr_code": "https://pse.kominfo.go.id/storage/images/qr_code/70988ccdce92277456ad66e65a711d2b.png",
        "status_id": "TERDAFTAR",
        "sistem_elektronik_id": 2515
      }
    },
    {
      "type": "tdpseTerbit",
      "id": 103,
      "attributes": {
        "nomor_pb_umku": null,
        "nama": "MYKAS",
        "website": "https://www.mykas.co.id",
        "sektor": "Sektor Teknologi Informasi dan Komunikasi",
        "nama_perusahaan": "SOLUSI INFORMASI DIGITAL UTAMA",
        "tanggal_daftar": "2021-02-23",
        "nomor_tanda_daftar": "000093.01/DJAI.PSE/02/2021",
        "qr_code": "https://pse.kominfo.go.id/storage/images/qr_code/9b326a5607312f7377b425e65412efde.png",
        "status_id": "TERDAFTAR",
        "sistem_elektronik_id": 2514
      }
    },
    {
      "type": "tdpseTerbit",
      "id": 102,
      "attributes": {
        "nomor_pb_umku": null,
        "nama": "RNA Registrar Sistem",
        "website": "rna.id",
        "sektor": "Sektor Teknologi Informasi dan Komunikasi",
        "nama_perusahaan": "REGISTRASI NEVA ANGKASA",
        "tanggal_daftar": "2021-02-23",
        "nomor_tanda_daftar": "000092.01/DJAI.PSE/02/2021",
        "qr_code": "https://pse.kominfo.go.id/storage/images/qr_code/0449753835aca83e6d03368365a60667.png",
        "status_id": "TERDAFTAR",
        "sistem_elektronik_id": 2537
      }
    },
    {
      "type": "tdpseTerbit",
      "id": 163,
      "attributes": {
        "nomor_pb_umku": null,
        "nama": "DOMPETKU",
        "website": "-",
        "sektor": "Sektor Keuangan",
        "nama_perusahaan": "SIMPAN PINJAM BINA MAJU BESAR",
        "tanggal_daftar": "2021-02-24",
        "nomor_tanda_daftar": "000091.02/DJAI.PSE/02/2021",
        "qr_code": "https://pse.kominfo.go.id/storage/images/qr_code/7520ce417770c46b9d0581760f057e9f.png",
        "status_id": "TERDAFTAR",
        "sistem_elektronik_id": 2539
      }
    }
  ]
}