{
  "meta": {
    "page": {
      "currentPage": 956,
      "from": 9551,
      "lastPage": 1038,
      "perPage": 10,
      "to": 9560,
      "total": 10380
    }
  },
  "data": [
    {
      "type": "tdpseTerbit",
      "id": 5015,
      "attributes": {
        "nomor_pb_umku": "912050589239700010001",
        "nama": "WEBSITE PT BANK MNC INTERNASIONAL TBK",
        "website": "mncbank.co.id",
        "sektor": "Sektor Keuangan",
        "nama_perusahaan": "BANK MNC INTERNASIONAL",
        "tanggal_daftar": "2022-07-01",
        "nomor_tanda_daftar": "000453.02/DJAI.PSE/07/2022",
        "qr_code": "https://pse.kominfo.go.id/storage/images/qr_code/8dbebcab5759fcd3222b1e037d896eb3.png",
        "status_id": "TERDAFTAR",
        "sistem_elektronik_id": 4876
      }
    },
    {
      "type": "tdpseTerbit",
      "id": 557,
      "attributes": {
        "nomor_pb_umku": null,
        "nama": "Motion dan eBiz",
        "website": "ebiz : https://cms.mncbank.co.id",
        "sektor": "Sektor Keuangan",
        "nama_perusahaan": "BANK MNC INTERNASIONAL",
        "tanggal_daftar": "2021-04-26",
        "nomor_tanda_daftar": "000453.01/DJAI.PSE/04/2021",
        "qr_code": "https://pse.kominfo.go.id/storage/images/qr_code/d1454bb756267d6454e7b85d700c8bf1.png",
        "status_id": "TERDAFTAR",
        "sistem_elektronik_id": 3356
      }
    },
    {
      "type": "tdpseTerbit",
      "id": 556,
      "attributes": {
        "nomor_pb_umku": null,
        "nama": "Wahed Invest",
        "website": "www.wahedinvest.co.id",
        "sektor": "Sektor Keuangan",
        "nama_perusahaan": "WAHED INVESTASI INDONESIA",
        "tanggal_daftar": "2021-04-26",
        "nomor_tanda_daftar": "000452.01/DJAI.PSE/04/2021",
        "qr_code": "https://pse.kominfo.go.id/storage/images/qr_code/506cd66cde856fd7a10afd53d44ac2f7.png",
        "status_id": "TERDAFTAR",
        "sistem_elektronik_id": 267
      }
    },
    {
      "type": "tdpseTerbit",
      "id": 555,
      "attributes": {
        "nomor_pb_umku": null,
        "nama": "klikUMKM",
        "website": "https://www.klikumkm.co.id/",
        "sektor": "Sektor Keuangan",
        "nama_perusahaan": "PINJAMAN KEMAKMURAN RAKYAT",
        "tanggal_daftar": "2021-04-26",
        "nomor_tanda_daftar": "000451.01/DJAI.PSE/04/2021",
        "qr_code": "https://pse.kominfo.go.id/storage/images/qr_code/95f6bd5aa5e2ec2c8390f66425096f22.png",
        "status_id": "TERDAFTAR",
        "sistem_elektronik_id": 337
      }
    },
    {
      "type": "tdpseTerbit",
      "id": 705,
      "attributes": {
        "nomor_pb_umku": null,
        "nama": "Smart Store Indonesia (SSI)",
        "website": "www.smartstoreindonesia.com",
        "sektor": "Sektor Perdagangan, Sektor Teknologi Informasi dan Komunikasi",
        "nama_perusahaan": "SANGKURIANG SAKTI INDONESIA",
        "tanggal_daftar": "2021-04-26",
        "nomor_tanda_daftar": "000450.02/DJAI.PSE/04/2021",
        "qr_code": "https://pse.kominfo.go.id/storage/images/qr_code/0f695e1ce220c395de80e4cf5d419328.png",
        "status_id": "TERDAFTAR",
        "sistem_elektronik_id": 3243
      }
    },
    {
      "type": "tdpseTerbit",
      "id": 554,
      "attributes": {
        "nomor_pb_umku": null,
        "nama": "Smart Store Indonesia (SSI)",
        "website": "www.smartstoreindonesia.com",
        "sektor": "Sektor Perdagangan, Sektor Teknologi Informasi dan Komunikasi",
        "nama_perusahaan": "SANGKURIANG SAKTI INDONESIA",
        "tanggal_daftar": "2021-04-26",
        "nomor_tanda_daftar": "000450.01/DJAI.PSE/04/2021",
        "qr_code": "https://pse.kominfo.go.id/storage/images/qr_code/d6838cc583f9dacbea62bd06c44ef7fb.png",
        "status_id": "TERDAFTAR",
        "sistem_elektronik_id": 3242
      }
    },
    {
      "type": "tdpseTerbit",
      "id": 553,
      "attributes": {
        "nomor_pb_umku": null,
        "nama": "Daya Auto",
        "website": "https://www.dayaauto.co.id/",
        "sektor": "Sektor Perdagangan",
        "nama_perusahaan": "DAYA ADICIPTA MUSTIKA",
        "tanggal_daftar": "2021-04-26",
        "nomor_tanda_daftar": "000449.01/DJAI.PSE/04/2021",
        "qr_code": "https://pse.kominfo.go.id/storage/images/qr_code/04c5767d0e58c7a869afdac071c88e4a.png",
        "status_id": "TERDAFTAR",
        "sistem_elektronik_id": 262
      }
    },
    {
      "type": "tdpseTerbit",
      "id": 549,
      "attributes": {
        "nomor_pb_umku": null,
        "nama": "Smart Academy Indonesia",
        "website": "www.smartacademyindonesia.com",
        "sektor": "Sektor Teknologi Informasi dan Komunikasi",
        "nama_perusahaan": "SINERGI AKADEMI INDONESIA",
        "tanggal_daftar": "2021-04-26",
        "nomor_tanda_daftar": "000447.01/DJAI.PSE/04/2021",
        "qr_code": "https://pse.kominfo.go.id/storage/images/qr_code/b736caf6b5ccbfa06c9d41b6f460c80a.png",
        "status_id": "TERDAFTAR",
        "sistem_elektronik_id": 363
      }
    },
    {
      "type": "tdpseTerbit",
      "id": 548,
      "attributes": {
        "nomor_pb_umku": null,
        "nama": "KSP SUKU PLANET",
        "website": "Http://www.sukuplanetapp.com",
        "sektor": "Sektor Teknologi Informasi dan Komunikasi",
        "nama_perusahaan": "SIMPAN PINJAM SIMPANAN LANCAR INDONESIA",
        "tanggal_daftar": "2021-04-26",
        "nomor_tanda_daftar": "000446.01/DJAI.PSE/04/2021",
        "qr_code": "https://pse.kominfo.go.id/storage/images/qr_code/2eb1b08221c028536cb0f73b384ec7b5.png",
        "status_id": "TERDAFTAR",
        "sistem_elektronik_id": 381
      }
    },
    {
      "type": "tdpseTerbit",
      "id": 547,
      "attributes": {
        "nomor_pb_umku": null,
        "nama": "balimall.id",
        "website": "https://balimall.id",
        "sektor": "Sektor Perdagangan",
        "nama_perusahaan": "BALI UNGGUL SEJAHTERA",
        "tanggal_daftar": "2021-04-26",
        "nomor_tanda_daftar": "000445.02/DJAI.PSE/04/2021",
        "qr_code": "https://pse.kominfo.go.id/storage/images/qr_code/9c5db6c16b72a97f705279e0ef357794.png",
        "status_id": "TERDAFTAR",
        "sistem_elektronik_id": 228
      }
    }
  ]
}