{
  "meta": {
    "page": {
      "currentPage": 957,
      "from": 9561,
      "lastPage": 1040,
      "perPage": 10,
      "to": 9570,
      "total": 10398
    }
  },
  "data": [
    {
      "type": "tdpseTerbit",
      "id": 560,
      "attributes": {
        "nomor_pb_umku": null,
        "nama": "SwipeRx",
        "website": "-",
        "sektor": "Sektor Teknologi Informasi dan Komunikasi",
        "nama_perusahaan": "MCLINICA HEALTH SOLUTIONS",
        "tanggal_daftar": "2021-04-26",
        "nomor_tanda_daftar": "000456.01/DJAI.PSE/04/2021",
        "qr_code": "https://pse.kominfo.go.id/storage/images/qr_code/3ebbf0e3f6808976f980c8aeae8a299f.png",
        "status_id": "TERDAFTAR",
        "sistem_elektronik_id": 359
      }
    },
    {
      "type": "tdpseTerbit",
      "id": 559,
      "attributes": {
        "nomor_pb_umku": null,
        "nama": "OTOBAYAR",
        "website": "otobayar.com",
        "sektor": "Sektor Keuangan, Sektor Teknologi Informasi dan Komunikasi",
        "nama_perusahaan": "BINDERBYTE INDONESIA",
        "tanggal_daftar": "2021-04-26",
        "nomor_tanda_daftar": "000455.01/DJAI.PSE/04/2021",
        "qr_code": "https://pse.kominfo.go.id/storage/images/qr_code/b8a1c73e5fe8500fc013f61ef2fbd587.png",
        "status_id": "TERDAFTAR",
        "sistem_elektronik_id": 385
      }
    },
    {
      "type": "tdpseTerbit",
      "id": 634,
      "attributes": {
        "nomor_pb_umku": null,
        "nama": "PAPRIKA",
        "website": "https://paprika.co.id/",
        "sektor": "Sektor Keuangan",
        "nama_perusahaan": "PAPRIKA MULTI MEDIA",
        "tanggal_daftar": "2021-04-26",
        "nomor_tanda_daftar": "000454.05/DJAI.PSE/04/2021",
        "qr_code": "https://pse.kominfo.go.id/storage/images/qr_code/80cf3e6045d036af21738f5953dabbbb.png",
        "status_id": "TERDAFTAR",
        "sistem_elektronik_id": 3248
      }
    },
    {
      "type": "tdpseTerbit",
      "id": 604,
      "attributes": {
        "nomor_pb_umku": null,
        "nama": "PAPRIKA",
        "website": "https://paprika.co.id/",
        "sektor": "Sektor Keuangan",
        "nama_perusahaan": "PAPRIKA MULTI MEDIA",
        "tanggal_daftar": "2021-04-26",
        "nomor_tanda_daftar": "000454.04/DJAI.PSE/04/2021",
        "qr_code": "https://pse.kominfo.go.id/storage/images/qr_code/e27b0cd361c90977de52b17adc7a03d3.png",
        "status_id": "TERDAFTAR",
        "sistem_elektronik_id": 3247
      }
    },
    {
      "type": "tdpseTerbit",
      "id": 603,
      "attributes": {
        "nomor_pb_umku": null,
        "nama": "PAPRIKA",
        "website": "https://paprika.co.id/",
        "sektor": "Sektor Keuangan",
        "nama_perusahaan": "PAPRIKA MULTI MEDIA",
        "tanggal_daftar": "2021-04-26",
        "nomor_tanda_daftar": "000454.03/DJAI.PSE/04/2021",
        "qr_code": "https://pse.kominfo.go.id/storage/images/qr_code/80e03fcd404071ec80b704229722938f.png",
        "status_id": "TERDAFTAR",
        "sistem_elektronik_id": 3246
      }
    },
    {
      "type": "tdpseTerbit",
      "id": 583,
      "attributes": {
        "nomor_pb_umku": null,
        "nama": "PAPRIKA",
        "website": "https://paprika.co.id/",
        "sektor": "Sektor Keuangan",
        "nama_perusahaan": "PAPRIKA MULTI MEDIA",
        "tanggal_daftar": "2021-04-26",
        "nomor_tanda_daftar": "000454.02/DJAI.PSE/04/2021",
        "qr_code": "https://pse.kominfo.go.id/storage/images/qr_code/89360e07e2bffad7f17a71e37ce053db.png",
        "status_id": "TERDAFTAR",
        "sistem_elektronik_id": 3245
      }
    },
    {
      "type": "tdpseTerbit",
      "id": 558,
      "attributes": {
        "nomor_pb_umku": null,
        "nama": "PAPRIKA",
        "website": "https://paprika.co.id/",
        "sektor": "Sektor Keuangan",
        "nama_perusahaan": "PAPRIKA MULTI MEDIA",
        "tanggal_daftar": "2021-04-26",
        "nomor_tanda_daftar": "000454.01/DJAI.PSE/04/2021",
        "qr_code": "https://pse.kominfo.go.id/storage/images/qr_code/4c4006cc3070c8682edd398dc073f208.png",
        "status_id": "TERDAFTAR",
        "sistem_elektronik_id": 3244
      }
    },
    {
      "type": "tdpseTerbit",
      "id": 5024,
      "attributes": {
        "nomor_pb_umku": "912050589239700010002",
        "nama": "MOTIONBANKING.ID",
        "website": "motionbanking.id",
        "sektor": "Sektor Keuangan",
        "nama_perusahaan": "BANK MNC INTERNASIONAL",
        "tanggal_daftar": "2022-07-01",
        "nomor_tanda_daftar": "000453.03/DJAI.PSE/07/2022",
        "qr_code": "https://pse.kominfo.go.id/storage/images/qr_code/1c008d167b8567d464cc9a77fa683fd5.png",
        "status_id": "TERDAFTAR",
        "sistem_elektronik_id": 4877
      }
    },
    {
      "type": "tdpseTerbit",
      "id": 5015,
      "attributes": {
        "nomor_pb_umku": "912050589239700010001",
        "nama": "WEBSITE PT BANK MNC INTERNASIONAL TBK",
        "website": "mncbank.co.id",
        "sektor": "Sektor Keuangan",
        "nama_perusahaan": "BANK MNC INTERNASIONAL",
        "tanggal_daftar": "2022-07-01",
        "nomor_tanda_daftar": "000453.02/DJAI.PSE/07/2022",
        "qr_code": "https://pse.kominfo.go.id/storage/images/qr_code/8dbebcab5759fcd3222b1e037d896eb3.png",
        "status_id": "TERDAFTAR",
        "sistem_elektronik_id": 4876
      }
    },
    {
      "type": "tdpseTerbit",
      "id": 557,
      "attributes": {
        "nomor_pb_umku": null,
        "nama": "Motion dan eBiz",
        "website": "ebiz : https://cms.mncbank.co.id",
        "sektor": "Sektor Keuangan",
        "nama_perusahaan": "BANK MNC INTERNASIONAL",
        "tanggal_daftar": "2021-04-26",
        "nomor_tanda_daftar": "000453.01/DJAI.PSE/04/2021",
        "qr_code": "https://pse.kominfo.go.id/storage/images/qr_code/d1454bb756267d6454e7b85d700c8bf1.png",
        "status_id": "TERDAFTAR",
        "sistem_elektronik_id": 3356
      }
    }
  ]
}