{
  "meta": {
    "page": {
      "currentPage": 958,
      "from": 9571,
      "lastPage": 1085,
      "perPage": 10,
      "to": 9580,
      "total": 10842
    }
  },
  "data": [
    {
      "type": "tdpseTerbit",
      "id": 6600,
      "attributes": {
        "nomor_pb_umku": "812021413136900060003",
        "nama": "ALTERNATE CBS",
        "website": "-",
        "sektor": "Sektor Teknologi Informasi dan Komunikasi",
        "nama_perusahaan": "ANUGERAH LESTARI TEKNOKREASI",
        "tanggal_daftar": "2022-07-19",
        "nomor_tanda_daftar": "000679.03/DJAI.PSE/07/2022",
        "qr_code": "https://pse.kominfo.go.id/storage/images/qr_code/ab342667d9c2f68c77dd09299dba3f05.png",
        "status_id": "TERDAFTAR",
        "sistem_elektronik_id": 6457
      }
    },
    {
      "type": "tdpseTerbit",
      "id": 1354,
      "attributes": {
        "nomor_pb_umku": null,
        "nama": "Alternate Apps",
        "website": "www.anugerahlestariteknokreasi.id",
        "sektor": "Sektor Teknologi Informasi dan Komunikasi",
        "nama_perusahaan": "ANUGERAH LESTARI TEKNOKREASI",
        "tanggal_daftar": "2021-06-02",
        "nomor_tanda_daftar": "000679.02/DJAI.PSE/06/2021",
        "qr_code": "https://pse.kominfo.go.id/storage/images/qr_code/e02e1bd0813eaa2da663bad10971438f.png",
        "status_id": "TERDAFTAR",
        "sistem_elektronik_id": 3302
      }
    },
    {
      "type": "tdpseTerbit",
      "id": 871,
      "attributes": {
        "nomor_pb_umku": null,
        "nama": "Alternate Apps",
        "website": "www.anugerahlestariteknokreasi.id",
        "sektor": "Sektor Teknologi Informasi dan Komunikasi",
        "nama_perusahaan": "ANUGERAH LESTARI TEKNOKREASI",
        "tanggal_daftar": "2021-05-11",
        "nomor_tanda_daftar": "000679.01/DJAI.PSE/05/2021",
        "qr_code": "https://pse.kominfo.go.id/storage/images/qr_code/22a32f8557d21c4182a3698d827bfab8.png",
        "status_id": "TERDAFTAR",
        "sistem_elektronik_id": 3301
      }
    },
    {
      "type": "tdpseTerbit",
      "id": 870,
      "attributes": {
        "nomor_pb_umku": null,
        "nama": "PINTU",
        "website": "https://pintu.co.id/",
        "sektor": "Sektor Perdagangan",
        "nama_perusahaan": "PINTU KEMANA SAJA",
        "tanggal_daftar": "2021-05-11",
        "nomor_tanda_daftar": "000678.01/DJAI.PSE/05/2021",
        "qr_code": "https://pse.kominfo.go.id/storage/images/qr_code/6a2bb7df9abc4a4286584feb3e0149ee.png",
        "status_id": "TERDAFTAR",
        "sistem_elektronik_id": 648
      }
    },
    {
      "type": "tdpseTerbit",
      "id": 869,
      "attributes": {
        "nomor_pb_umku": null,
        "nama": "Qampus",
        "website": "https://www.infraedukasi.com/",
        "sektor": "Sektor Teknologi Informasi dan Komunikasi",
        "nama_perusahaan": "INFRASTRUKTUR DIGITAL EDUKASI",
        "tanggal_daftar": "2021-05-11",
        "nomor_tanda_daftar": "000677.02/DJAI.PSE/05/2021",
        "qr_code": "https://pse.kominfo.go.id/storage/images/qr_code/3b7df52bb5b988a56b3887b75d3d1585.png",
        "status_id": "TERDAFTAR",
        "sistem_elektronik_id": 547
      }
    },
    {
      "type": "tdpseTerbit",
      "id": 868,
      "attributes": {
        "nomor_pb_umku": null,
        "nama": "Myscool",
        "website": "https://www.infraedukasi.com/",
        "sektor": "Sektor Teknologi Informasi dan Komunikasi",
        "nama_perusahaan": "INFRASTRUKTUR DIGITAL EDUKASI",
        "tanggal_daftar": "2021-05-11",
        "nomor_tanda_daftar": "000677.01/DJAI.PSE/05/2021",
        "qr_code": "https://pse.kominfo.go.id/storage/images/qr_code/3708c18979350d7447a5c880e632bd36.png",
        "status_id": "TERDAFTAR",
        "sistem_elektronik_id": 546
      }
    },
    {
      "type": "tdpseTerbit",
      "id": 867,
      "attributes": {
        "nomor_pb_umku": null,
        "nama": "AdaPundi",
        "website": "https://www.adapundi.com/",
        "sektor": "Sektor Keuangan",
        "nama_perusahaan": "INFO TEKNO SIAGA",
        "tanggal_daftar": "2021-05-11",
        "nomor_tanda_daftar": "000676.01/DJAI.PSE/05/2021",
        "qr_code": "https://pse.kominfo.go.id/storage/images/qr_code/e886d8ed1e174babcde64ff8bccc1b70.png",
        "status_id": "TERDAFTAR",
        "sistem_elektronik_id": 494
      }
    },
    {
      "type": "tdpseTerbit",
      "id": 866,
      "attributes": {
        "nomor_pb_umku": null,
        "nama": "WebApp & MobileApp Aksoro yang menyediakan layanan pembelian buku & kelas online",
        "website": "aksoro.co.id",
        "sektor": "Sektor Perdagangan, Sektor Teknologi Informasi dan Komunikasi",
        "nama_perusahaan": "AKSORO SABDA NUSANTARA",
        "tanggal_daftar": "2021-05-11",
        "nomor_tanda_daftar": "000675.01/DJAI.PSE/05/2021",
        "qr_code": "https://pse.kominfo.go.id/storage/images/qr_code/fd6bb28478d032be0626dbb078cb1244.png",
        "status_id": "TERDAFTAR",
        "sistem_elektronik_id": 3300
      }
    },
    {
      "type": "tdpseTerbit",
      "id": 865,
      "attributes": {
        "nomor_pb_umku": null,
        "nama": "Click 2000",
        "website": "www.pacific2000.co.id",
        "sektor": "Sektor Keuangan",
        "nama_perusahaan": "PACIFIC 2000 SEKURITAS",
        "tanggal_daftar": "2021-05-11",
        "nomor_tanda_daftar": "000674.01/DJAI.PSE/05/2021",
        "qr_code": "https://pse.kominfo.go.id/storage/images/qr_code/1e3c1888e81ceeca4106e5f9dbb14f2b.png",
        "status_id": "TERDAFTAR",
        "sistem_elektronik_id": 645
      }
    },
    {
      "type": "tdpseTerbit",
      "id": 864,
      "attributes": {
        "nomor_pb_umku": null,
        "nama": "Lentera Dana Nusantara",
        "website": "https://www.lenteradana.co.id/",
        "sektor": "Sektor Keuangan",
        "nama_perusahaan": "LENTERA DANA NUSANTARA",
        "tanggal_daftar": "2021-05-11",
        "nomor_tanda_daftar": "000673.01/DJAI.PSE/05/2021",
        "qr_code": "https://pse.kominfo.go.id/storage/images/qr_code/52aff24f6918fac2893e938e5b8b8d73.png",
        "status_id": "TERDAFTAR",
        "sistem_elektronik_id": 2351
      }
    }
  ]
}