{
  "meta": {
    "page": {
      "currentPage": 961,
      "from": 9601,
      "lastPage": 1038,
      "perPage": 10,
      "to": 9610,
      "total": 10380
    }
  },
  "data": [
    {
      "type": "tdpseTerbit",
      "id": 518,
      "attributes": {
        "nomor_pb_umku": null,
        "nama": "https://www.dna-ku.com/",
        "website": "https://www.dna-ku.com/",
        "sektor": "Sektor Perdagangan, Sektor Teknologi Informasi dan Komunikasi",
        "nama_perusahaan": "DNA PRO AKADEMI",
        "tanggal_daftar": "2021-04-20",
        "nomor_tanda_daftar": "000421.01/DJAI.PSE/04/2021",
        "qr_code": "https://pse.kominfo.go.id/storage/images/qr_code/feea48270b1591ac66d914c26d94ccc3.png",
        "status_id": "TERDAFTAR",
        "sistem_elektronik_id": 328
      }
    },
    {
      "type": "tdpseTerbit",
      "id": 517,
      "attributes": {
        "nomor_pb_umku": null,
        "nama": "HWI Mobile",
        "website": "www. healthwealthint.com",
        "sektor": "Sektor Perdagangan",
        "nama_perusahaan": "HEALTH WEALTH INTERNATIONAL",
        "tanggal_daftar": "2021-04-20",
        "nomor_tanda_daftar": "000420.02/DJAI.PSE/04/2021",
        "qr_code": "https://pse.kominfo.go.id/storage/images/qr_code/d02a483c133a77a0b8d86bbce44852fb.png",
        "status_id": "TERDAFTAR",
        "sistem_elektronik_id": 330
      }
    },
    {
      "type": "tdpseTerbit",
      "id": 516,
      "attributes": {
        "nomor_pb_umku": null,
        "nama": "Website / Web Portal HWI",
        "website": "www.healthwealthint.com/",
        "sektor": "Sektor Perdagangan",
        "nama_perusahaan": "HEALTH WEALTH INTERNATIONAL",
        "tanggal_daftar": "2021-04-20",
        "nomor_tanda_daftar": "000420.01/DJAI.PSE/04/2021",
        "qr_code": "https://pse.kominfo.go.id/storage/images/qr_code/447688a29282ca668768a82a677eaa0c.png",
        "status_id": "TERDAFTAR",
        "sistem_elektronik_id": 329
      }
    },
    {
      "type": "tdpseTerbit",
      "id": 515,
      "attributes": {
        "nomor_pb_umku": null,
        "nama": "VMX.id",
        "website": "www.vmx.id",
        "sektor": "Sektor Perdagangan",
        "nama_perusahaan": "VARIASI MX",
        "tanggal_daftar": "2021-04-20",
        "nomor_tanda_daftar": "000419.01/DJAI.PSE/04/2021",
        "qr_code": "https://pse.kominfo.go.id/storage/images/qr_code/21a519a2e9145e1967ec26626fa2b631.png",
        "status_id": "TERDAFTAR",
        "sistem_elektronik_id": 291
      }
    },
    {
      "type": "tdpseTerbit",
      "id": 514,
      "attributes": {
        "nomor_pb_umku": null,
        "nama": "88BANGUNAN/ BABA",
        "website": "http://www.88bangunan.co.id; http://indo1688.com",
        "sektor": "Sektor Perdagangan",
        "nama_perusahaan": "BABA BANGUNAN JAYA",
        "tanggal_daftar": "2021-04-20",
        "nomor_tanda_daftar": "000418.01/DJAI.PSE/04/2021",
        "qr_code": "https://pse.kominfo.go.id/storage/images/qr_code/3bd57e1243777ed74f8c8fa8f6e62ea1.png",
        "status_id": "TERDAFTAR",
        "sistem_elektronik_id": 352
      }
    },
    {
      "type": "tdpseTerbit",
      "id": 1492,
      "attributes": {
        "nomor_pb_umku": null,
        "nama": "K-MART",
        "website": "-",
        "sektor": "Sektor Perdagangan",
        "nama_perusahaan": "K-LINK NUSANTARA",
        "tanggal_daftar": "2021-06-14",
        "nomor_tanda_daftar": "000417.02/DJAI.PSE/06/2021",
        "qr_code": "https://pse.kominfo.go.id/storage/images/qr_code/c31d5f0080e89bf9bca5bf0aa5dacfcb.png",
        "status_id": "TERDAFTAR",
        "sistem_elektronik_id": 147
      }
    },
    {
      "type": "tdpseTerbit",
      "id": 513,
      "attributes": {
        "nomor_pb_umku": null,
        "nama": "K-LINK DIGITAL NETWORK MARKETING",
        "website": "https://www.k-net.co.id/",
        "sektor": "Sektor Perdagangan",
        "nama_perusahaan": "K-LINK NUSANTARA",
        "tanggal_daftar": "2021-04-20",
        "nomor_tanda_daftar": "000417.01/DJAI.PSE/04/2021",
        "qr_code": "https://pse.kominfo.go.id/storage/images/qr_code/fa752b0bb309500778c3948c7781023a.png",
        "status_id": "TERDAFTAR",
        "sistem_elektronik_id": 146
      }
    },
    {
      "type": "tdpseTerbit",
      "id": 551,
      "attributes": {
        "nomor_pb_umku": null,
        "nama": "coop access",
        "website": "www.coopaccess.co.id",
        "sektor": "Sektor Keuangan",
        "nama_perusahaan": "INDONESIA PAYMENT INCORPORATED",
        "tanggal_daftar": "2021-04-26",
        "nomor_tanda_daftar": "000416.02/DJAI.PSE/04/2021",
        "qr_code": "https://pse.kominfo.go.id/storage/images/qr_code/1c6f24abd3621a421038ae42d7387dbd.png",
        "status_id": "TERDAFTAR",
        "sistem_elektronik_id": 3241
      }
    },
    {
      "type": "tdpseTerbit",
      "id": 512,
      "attributes": {
        "nomor_pb_umku": null,
        "nama": "coop access",
        "website": "www.coopaccess.co.id",
        "sektor": "Sektor Keuangan",
        "nama_perusahaan": "INDONESIA PAYMENT INCORPORATED",
        "tanggal_daftar": "2021-04-20",
        "nomor_tanda_daftar": "000416.01/DJAI.PSE/04/2021",
        "qr_code": "https://pse.kominfo.go.id/storage/images/qr_code/1e653011017568c165ca03c9dd356afe.png",
        "status_id": "TERDAFTAR",
        "sistem_elektronik_id": 3240
      }
    },
    {
      "type": "tdpseTerbit",
      "id": 511,
      "attributes": {
        "nomor_pb_umku": null,
        "nama": "duithape",
        "website": "www.duithape.com",
        "sektor": "Sektor Perdagangan",
        "nama_perusahaan": "VIRTUAL ONLINE EXCHANGE",
        "tanggal_daftar": "2021-04-20",
        "nomor_tanda_daftar": "000415.01/DJAI.PSE/04/2021",
        "qr_code": "https://pse.kominfo.go.id/storage/images/qr_code/7dca91694b870eab7a614f23e76d8313.png",
        "status_id": "TERDAFTAR",
        "sistem_elektronik_id": 324
      }
    }
  ]
}