{
  "meta": {
    "page": {
      "currentPage": 963,
      "from": 9621,
      "lastPage": 1032,
      "perPage": 10,
      "to": 9630,
      "total": 10315
    }
  },
  "data": [
    {
      "type": "tdpseTerbit",
      "id": 899,
      "attributes": {
        "nomor_pb_umku": null,
        "nama": "FITA",
        "website": "https://www.fitaapp.com/ dan https://www.myfita.com/ (new website, will redirect the traffic to this one)",
        "sektor": "Sektor Teknologi Informasi dan Komunikasi",
        "nama_perusahaan": "TELEKOMUNIKASI SELULAR",
        "tanggal_daftar": "2021-05-11",
        "nomor_tanda_daftar": "000337.27/DJAI.PSE/05/2021",
        "qr_code": "https://pse.kominfo.go.id/storage/images/qr_code/6e7611ed731ca6588ee17d0f65c47481.png",
        "status_id": "TERDAFTAR",
        "sistem_elektronik_id": 4042
      }
    },
    {
      "type": "tdpseTerbit",
      "id": 896,
      "attributes": {
        "nomor_pb_umku": null,
        "nama": "Kuncie",
        "website": "https://www.kuncie.com/ (main website) dan https://www.kuncie.id/",
        "sektor": "Sektor Teknologi Informasi dan Komunikasi",
        "nama_perusahaan": "TELEKOMUNIKASI SELULAR",
        "tanggal_daftar": "2021-05-11",
        "nomor_tanda_daftar": "000337.26/DJAI.PSE/05/2021",
        "qr_code": "https://pse.kominfo.go.id/storage/images/qr_code/f6cb9a796c366bcf88b3b3511f6f930e.png",
        "status_id": "TERDAFTAR",
        "sistem_elektronik_id": 4041
      }
    },
    {
      "type": "tdpseTerbit",
      "id": 860,
      "attributes": {
        "nomor_pb_umku": null,
        "nama": "Cascade",
        "website": "https://cascade.telkomsel.com/",
        "sektor": "Sektor Teknologi Informasi dan Komunikasi",
        "nama_perusahaan": "TELEKOMUNIKASI SELULAR",
        "tanggal_daftar": "2021-05-11",
        "nomor_tanda_daftar": "000337.25/DJAI.PSE/05/2021",
        "qr_code": "https://pse.kominfo.go.id/storage/images/qr_code/fb4ae79b906ec1fbee55f858d035cbee.png",
        "status_id": "TERDAFTAR",
        "sistem_elektronik_id": 4040
      }
    },
    {
      "type": "tdpseTerbit",
      "id": 837,
      "attributes": {
        "nomor_pb_umku": null,
        "nama": "Telkomsel IoT",
        "website": "https://telkomseliot.com/",
        "sektor": "Sektor Teknologi Informasi dan Komunikasi",
        "nama_perusahaan": "TELEKOMUNIKASI SELULAR",
        "tanggal_daftar": "2021-05-10",
        "nomor_tanda_daftar": "000337.24/DJAI.PSE/05/2021",
        "qr_code": "https://pse.kominfo.go.id/storage/images/qr_code/f9fcf59ccc0558369372406b782cbb7e.png",
        "status_id": "TERDAFTAR",
        "sistem_elektronik_id": 4039
      }
    },
    {
      "type": "tdpseTerbit",
      "id": 836,
      "attributes": {
        "nomor_pb_umku": null,
        "nama": "Call Manager",
        "website": "-",
        "sektor": "Sektor Teknologi Informasi dan Komunikasi",
        "nama_perusahaan": "TELEKOMUNIKASI SELULAR",
        "tanggal_daftar": "2021-05-10",
        "nomor_tanda_daftar": "000337.23/DJAI.PSE/05/2021",
        "qr_code": "https://pse.kominfo.go.id/storage/images/qr_code/3480828c3e268a4493dec63a7758df36.png",
        "status_id": "TERDAFTAR",
        "sistem_elektronik_id": 4038
      }
    },
    {
      "type": "tdpseTerbit",
      "id": 835,
      "attributes": {
        "nomor_pb_umku": null,
        "nama": "Telkomsel Digital Advertising (Digiads)",
        "website": "https://digiads.co.id/",
        "sektor": "Sektor Teknologi Informasi dan Komunikasi",
        "nama_perusahaan": "TELEKOMUNIKASI SELULAR",
        "tanggal_daftar": "2021-05-10",
        "nomor_tanda_daftar": "000337.22/DJAI.PSE/05/2021",
        "qr_code": "https://pse.kominfo.go.id/storage/images/qr_code/fe6ea1bad99c8186bce7e6d350876d07.png",
        "status_id": "TERDAFTAR",
        "sistem_elektronik_id": 4037
      }
    },
    {
      "type": "tdpseTerbit",
      "id": 834,
      "attributes": {
        "nomor_pb_umku": null,
        "nama": "API Gateway Digicore",
        "website": "-",
        "sektor": "Sektor Teknologi Informasi dan Komunikasi",
        "nama_perusahaan": "TELEKOMUNIKASI SELULAR",
        "tanggal_daftar": "2021-05-10",
        "nomor_tanda_daftar": "000337.21/DJAI.PSE/05/2021",
        "qr_code": "https://pse.kominfo.go.id/storage/images/qr_code/88d980deeb73d6d9e11f2c1c7532e9c9.png",
        "status_id": "TERDAFTAR",
        "sistem_elektronik_id": 4036
      }
    },
    {
      "type": "tdpseTerbit",
      "id": 833,
      "attributes": {
        "nomor_pb_umku": null,
        "nama": "MSIGHT Dashboard",
        "website": "https://msight.telkomsel.com/dashboard",
        "sektor": "Sektor Teknologi Informasi dan Komunikasi",
        "nama_perusahaan": "TELEKOMUNIKASI SELULAR",
        "tanggal_daftar": "2021-05-07",
        "nomor_tanda_daftar": "000337.20/DJAI.PSE/05/2021",
        "qr_code": "https://pse.kominfo.go.id/storage/images/qr_code/f14364a50c7fcf89521a6c304a64b052.png",
        "status_id": "TERDAFTAR",
        "sistem_elektronik_id": 4035
      }
    },
    {
      "type": "tdpseTerbit",
      "id": 832,
      "attributes": {
        "nomor_pb_umku": null,
        "nama": "Klop Telkomsel",
        "website": "https://klop.telkomsel.com/",
        "sektor": "Sektor Teknologi Informasi dan Komunikasi",
        "nama_perusahaan": "TELEKOMUNIKASI SELULAR",
        "tanggal_daftar": "2021-05-07",
        "nomor_tanda_daftar": "000337.19/DJAI.PSE/05/2021",
        "qr_code": "https://pse.kominfo.go.id/storage/images/qr_code/c7c54c6d203d27d089e1a876833207e7.png",
        "status_id": "TERDAFTAR",
        "sistem_elektronik_id": 4034
      }
    },
    {
      "type": "tdpseTerbit",
      "id": 831,
      "attributes": {
        "nomor_pb_umku": null,
        "nama": "TadeX",
        "website": "https://www.tadex.id/",
        "sektor": "Sektor Teknologi Informasi dan Komunikasi",
        "nama_perusahaan": "TELEKOMUNIKASI SELULAR",
        "tanggal_daftar": "2021-05-07",
        "nomor_tanda_daftar": "000337.18/DJAI.PSE/05/2021",
        "qr_code": "https://pse.kominfo.go.id/storage/images/qr_code/7d8f32402611fed86e3617f84abc3e96.png",
        "status_id": "TERDAFTAR",
        "sistem_elektronik_id": 4033
      }
    }
  ]
}