{
  "meta": {
    "page": {
      "currentPage": 968,
      "from": 9671,
      "lastPage": 1056,
      "perPage": 10,
      "to": 9680,
      "total": 10553
    }
  },
  "data": [
    {
      "type": "tdpseTerbit",
      "id": 587,
      "attributes": {
        "nomor_pb_umku": null,
        "nama": "KOTAK KOIN",
        "website": "https://www.kotakkoin.id/",
        "sektor": "Sektor Teknologi Informasi dan Komunikasi",
        "nama_perusahaan": "COCO DIGITAL TECHNOLOGY",
        "tanggal_daftar": "2021-04-26",
        "nomor_tanda_daftar": "000480.01/DJAI.PSE/04/2021",
        "qr_code": "https://pse.kominfo.go.id/storage/images/qr_code/9cc243e7e2939507cd556a2f471ea8e8.png",
        "status_id": "TERDAFTAR",
        "sistem_elektronik_id": 400
      }
    },
    {
      "type": "tdpseTerbit",
      "id": 586,
      "attributes": {
        "nomor_pb_umku": null,
        "nama": "LegalBro",
        "website": "-",
        "sektor": "Sektor Perdagangan",
        "nama_perusahaan": "LEX NOBILE INDONESIA",
        "tanggal_daftar": "2021-04-26",
        "nomor_tanda_daftar": "000479.01/DJAI.PSE/04/2021",
        "qr_code": "https://pse.kominfo.go.id/storage/images/qr_code/689c54a6bab82edecb7422d33d683bea.png",
        "status_id": "TERDAFTAR",
        "sistem_elektronik_id": 399
      }
    },
    {
      "type": "tdpseTerbit",
      "id": 585,
      "attributes": {
        "nomor_pb_umku": null,
        "nama": "MoneyGram Money Transfer System",
        "website": "-",
        "sektor": "Sektor Keuangan",
        "nama_perusahaan": "MONEYGRAM PAYMENT SYSTEMS INDONESIA",
        "tanggal_daftar": "2021-04-26",
        "nomor_tanda_daftar": "000478.01/DJAI.PSE/04/2021",
        "qr_code": "https://pse.kominfo.go.id/storage/images/qr_code/cc4ac442e319f2d1b6f46e5010277799.png",
        "status_id": "TERDAFTAR",
        "sistem_elektronik_id": 81
      }
    },
    {
      "type": "tdpseTerbit",
      "id": 625,
      "attributes": {
        "nomor_pb_umku": null,
        "nama": "Alomedika",
        "website": "www.alomedika.com",
        "sektor": "Sektor Kesehatan",
        "nama_perusahaan": "ALODOKTER TEKNOLOGI SOLUSI",
        "tanggal_daftar": "2021-04-26",
        "nomor_tanda_daftar": "000477.02/DJAI.PSE/04/2021",
        "qr_code": "https://pse.kominfo.go.id/storage/images/qr_code/926ce33d7123fbe27ec4cf015da6d533.png",
        "status_id": "TERDAFTAR",
        "sistem_elektronik_id": 47
      }
    },
    {
      "type": "tdpseTerbit",
      "id": 584,
      "attributes": {
        "nomor_pb_umku": null,
        "nama": "Alodokter",
        "website": "www.alodokter.com",
        "sektor": "Sektor Kesehatan",
        "nama_perusahaan": "ALODOKTER TEKNOLOGI SOLUSI",
        "tanggal_daftar": "2021-04-26",
        "nomor_tanda_daftar": "000477.01/DJAI.PSE/04/2021",
        "qr_code": "https://pse.kominfo.go.id/storage/images/qr_code/20ebc5206a33843cd965b35a17ea54d1.png",
        "status_id": "TERDAFTAR",
        "sistem_elektronik_id": 46
      }
    },
    {
      "type": "tdpseTerbit",
      "id": 582,
      "attributes": {
        "nomor_pb_umku": null,
        "nama": "JOB2GO",
        "website": "Job2go.net, job2go.id",
        "sektor": "Sektor Teknologi Informasi dan Komunikasi",
        "nama_perusahaan": "SINERGI TEKNO CIPTA",
        "tanggal_daftar": "2021-04-26",
        "nomor_tanda_daftar": "000476.01/DJAI.PSE/04/2021",
        "qr_code": "https://pse.kominfo.go.id/storage/images/qr_code/e8e6b4d0c437088548f2498ccc4dddaf.png",
        "status_id": "TERDAFTAR",
        "sistem_elektronik_id": 2337
      }
    },
    {
      "type": "tdpseTerbit",
      "id": 581,
      "attributes": {
        "nomor_pb_umku": null,
        "nama": "Kilat Digital Indonesia",
        "website": "sedang dalam pembuatan",
        "sektor": "Sektor Teknologi Informasi dan Komunikasi",
        "nama_perusahaan": "KILAT DIGITAL INDONESIA",
        "tanggal_daftar": "2021-04-26",
        "nomor_tanda_daftar": "000475.01/DJAI.PSE/04/2021",
        "qr_code": "https://pse.kominfo.go.id/storage/images/qr_code/b9a515435b1cc5d43a60119e12164903.png",
        "status_id": "TERDAFTAR",
        "sistem_elektronik_id": 382
      }
    },
    {
      "type": "tdpseTerbit",
      "id": 10965,
      "attributes": {
        "nomor_pb_umku": "",
        "nama": "DONUT.CX",
        "website": "donut.cx",
        "sektor": "Sektor Teknologi Informasi dan Komunikasi",
        "nama_perusahaan": "BEEGROUP FINANCIAL INDONESIA",
        "tanggal_daftar": "2022-09-01",
        "nomor_tanda_daftar": "000474.04/DJAI.PSE/09/2022",
        "qr_code": "https://pse.kominfo.go.id/storage/images/qr_code/2329922cb1614ae00b829da5e3ae343b.png",
        "status_id": "TERDAFTAR",
        "sistem_elektronik_id": 10773
      }
    },
    {
      "type": "tdpseTerbit",
      "id": 4189,
      "attributes": {
        "nomor_pb_umku": "912011208254300010001",
        "nama": "LUMMOSHOP",
        "website": "lummoshop.co.id",
        "sektor": "Sektor Teknologi Informasi dan Komunikasi",
        "nama_perusahaan": "BEEGROUP FINANCIAL INDONESIA",
        "tanggal_daftar": "2022-05-31",
        "nomor_tanda_daftar": "000474.03/DJAI.PSE/05/2022",
        "qr_code": "https://pse.kominfo.go.id/storage/images/qr_code/5200854d6fe223985effc804f1bca795.png",
        "status_id": "TERDAFTAR",
        "sistem_elektronik_id": 4190
      }
    },
    {
      "type": "tdpseTerbit",
      "id": 717,
      "attributes": {
        "nomor_pb_umku": null,
        "nama": "BukuKas",
        "website": "https://bukukas.co.id/",
        "sektor": "Sektor Perdagangan",
        "nama_perusahaan": "BEEGROUP FINANCIAL INDONESIA",
        "tanggal_daftar": "2021-04-26",
        "nomor_tanda_daftar": "000474.02/DJAI.PSE/04/2021",
        "qr_code": "https://pse.kominfo.go.id/storage/images/qr_code/2d8fda3c6ebbc319eeff77f4d2ff45ef.png",
        "status_id": "TERDAFTAR",
        "sistem_elektronik_id": 3254
      }
    }
  ]
}