{
  "meta": {
    "page": {
      "currentPage": 970,
      "from": 9691,
      "lastPage": 1032,
      "perPage": 10,
      "to": 9700,
      "total": 10315
    }
  },
  "data": [
    {
      "type": "tdpseTerbit",
      "id": 7229,
      "attributes": {
        "nomor_pb_umku": "022020872134800000003",
        "nama": "EANTREAN ONLINE",
        "website": "eantrean.id",
        "sektor": "Sektor Kesehatan, Sektor Teknologi Informasi dan Komunikasi",
        "nama_perusahaan": "INFOKES INDONESIA",
        "tanggal_daftar": "2022-07-19",
        "nomor_tanda_daftar": "000314.11/DJAI.PSE/07/2022",
        "qr_code": "https://pse.kominfo.go.id/storage/images/qr_code/1b6f359ffc76dc1549f804419800e4eb.png",
        "status_id": "TERDAFTAR",
        "sistem_elektronik_id": 7118
      }
    },
    {
      "type": "tdpseTerbit",
      "id": 7218,
      "attributes": {
        "nomor_pb_umku": "022020872134800000002",
        "nama": "EPOSYANDU",
        "website": "eposyandu.id",
        "sektor": "Sektor Kesehatan, Sektor Teknologi Informasi dan Komunikasi",
        "nama_perusahaan": "INFOKES INDONESIA",
        "tanggal_daftar": "2022-07-19",
        "nomor_tanda_daftar": "000314.10/DJAI.PSE/07/2022",
        "qr_code": "https://pse.kominfo.go.id/storage/images/qr_code/ac74cee3c948113820d281673b248c8d.png",
        "status_id": "TERDAFTAR",
        "sistem_elektronik_id": 7104
      }
    },
    {
      "type": "tdpseTerbit",
      "id": 7190,
      "attributes": {
        "nomor_pb_umku": "022020872134800000001",
        "nama": "EPOSKESTREN",
        "website": "eposkestren.id",
        "sektor": "Sektor Kesehatan, Sektor Teknologi Informasi dan Komunikasi",
        "nama_perusahaan": "INFOKES INDONESIA",
        "tanggal_daftar": "2022-07-19",
        "nomor_tanda_daftar": "000314.09/DJAI.PSE/07/2022",
        "qr_code": "https://pse.kominfo.go.id/storage/images/qr_code/879e2f841855b03636c5678a1ebbaa69.png",
        "status_id": "TERDAFTAR",
        "sistem_elektronik_id": 7077
      }
    },
    {
      "type": "tdpseTerbit",
      "id": 1416,
      "attributes": {
        "nomor_pb_umku": null,
        "nama": "ePustu",
        "website": "epuskesmas.id",
        "sektor": "Sektor Kesehatan, Sektor Teknologi Informasi dan Komunikasi",
        "nama_perusahaan": "INFOKES INDONESIA",
        "tanggal_daftar": "2021-06-09",
        "nomor_tanda_daftar": "000314.08/DJAI.PSE/06/2021",
        "qr_code": "https://pse.kominfo.go.id/storage/images/qr_code/bedbcd019436b945c32cf5e1c992c0a3.png",
        "status_id": "TERDAFTAR",
        "sistem_elektronik_id": 2511
      }
    },
    {
      "type": "tdpseTerbit",
      "id": 1415,
      "attributes": {
        "nomor_pb_umku": null,
        "nama": "eBidan",
        "website": "ebidan.id",
        "sektor": "Sektor Kesehatan, Sektor Teknologi Informasi dan Komunikasi",
        "nama_perusahaan": "INFOKES INDONESIA",
        "tanggal_daftar": "2021-06-09",
        "nomor_tanda_daftar": "000314.07/DJAI.PSE/06/2021",
        "qr_code": "https://pse.kominfo.go.id/storage/images/qr_code/94922e4859370496e568786f1073c13f.png",
        "status_id": "TERDAFTAR",
        "sistem_elektronik_id": 2510
      }
    },
    {
      "type": "tdpseTerbit",
      "id": 1408,
      "attributes": {
        "nomor_pb_umku": null,
        "nama": "eHospital",
        "website": "ehospital.id",
        "sektor": "Sektor Kesehatan, Sektor Teknologi Informasi dan Komunikasi",
        "nama_perusahaan": "INFOKES INDONESIA",
        "tanggal_daftar": "2021-06-09",
        "nomor_tanda_daftar": "000314.06/DJAI.PSE/06/2021",
        "qr_code": "https://pse.kominfo.go.id/storage/images/qr_code/f3bb48a31261c61ce2f71dfefb399635.png",
        "status_id": "TERDAFTAR",
        "sistem_elektronik_id": 2509
      }
    },
    {
      "type": "tdpseTerbit",
      "id": 1407,
      "attributes": {
        "nomor_pb_umku": null,
        "nama": "eAntrean",
        "website": "eantrian.id",
        "sektor": "Sektor Kesehatan, Sektor Teknologi Informasi dan Komunikasi",
        "nama_perusahaan": "INFOKES INDONESIA",
        "tanggal_daftar": "2021-06-09",
        "nomor_tanda_daftar": "000314.05/DJAI.PSE/06/2021",
        "qr_code": "https://pse.kominfo.go.id/storage/images/qr_code/dfa646ac674c01478221264fecc49b9b.png",
        "status_id": "TERDAFTAR",
        "sistem_elektronik_id": 2508
      }
    },
    {
      "type": "tdpseTerbit",
      "id": 1404,
      "attributes": {
        "nomor_pb_umku": null,
        "nama": "eFarmasi",
        "website": "efarmasi.id",
        "sektor": "Sektor Kesehatan, Sektor Teknologi Informasi dan Komunikasi",
        "nama_perusahaan": "INFOKES INDONESIA",
        "tanggal_daftar": "2021-06-09",
        "nomor_tanda_daftar": "000314.04/DJAI.PSE/06/2021",
        "qr_code": "https://pse.kominfo.go.id/storage/images/qr_code/a4f0f477647d4618b706032bda1a664d.png",
        "status_id": "TERDAFTAR",
        "sistem_elektronik_id": 2507
      }
    },
    {
      "type": "tdpseTerbit",
      "id": 1403,
      "attributes": {
        "nomor_pb_umku": null,
        "nama": "eClinic",
        "website": "eclinic.id",
        "sektor": "Sektor Kesehatan, Sektor Teknologi Informasi dan Komunikasi",
        "nama_perusahaan": "INFOKES INDONESIA",
        "tanggal_daftar": "2021-06-09",
        "nomor_tanda_daftar": "000314.03/DJAI.PSE/06/2021",
        "qr_code": "https://pse.kominfo.go.id/storage/images/qr_code/c34dd009f64ce8e27beaedba26a2cb02.png",
        "status_id": "TERDAFTAR",
        "sistem_elektronik_id": 2506
      }
    },
    {
      "type": "tdpseTerbit",
      "id": 388,
      "attributes": {
        "nomor_pb_umku": null,
        "nama": "Infokes Mobile",
        "website": "infokes.id",
        "sektor": "Sektor Kesehatan, Sektor Teknologi Informasi dan Komunikasi",
        "nama_perusahaan": "INFOKES INDONESIA",
        "tanggal_daftar": "2021-03-15",
        "nomor_tanda_daftar": "000314.02/DJAI.PSE/03/2021",
        "qr_code": "https://pse.kominfo.go.id/storage/images/qr_code/21896ed2379035da403b24f6f1087ddc.png",
        "status_id": "TERDAFTAR",
        "sistem_elektronik_id": 2505
      }
    }
  ]
}