{
  "meta": {
    "page": {
      "currentPage": 971,
      "from": 9701,
      "lastPage": 1111,
      "perPage": 10,
      "to": 9710,
      "total": 11105
    }
  },
  "data": [
    {
      "type": "tdpseTerbit",
      "id": 988,
      "attributes": {
        "nomor_pb_umku": null,
        "nama": "www.tugu.com",
        "website": "www.tugu.com",
        "sektor": "Sektor Keuangan",
        "nama_perusahaan": "ASURANSI TUGU PRATAMA INDONESIA",
        "tanggal_daftar": "2021-05-17",
        "nomor_tanda_daftar": "000740.01/DJAI.PSE/05/2021",
        "qr_code": "https://pse.kominfo.go.id/storage/images/qr_code/a44e1bb1384279c6b6f2aed4e7af1cfd.png",
        "status_id": "TERDAFTAR",
        "sistem_elektronik_id": 220
      }
    },
    {
      "type": "tdpseTerbit",
      "id": 987,
      "attributes": {
        "nomor_pb_umku": null,
        "nama": "KOINP2P",
        "website": "www.koinp2p.com",
        "sektor": "Sektor Keuangan",
        "nama_perusahaan": "LUNARIA ANNUA TEKNOLOGI",
        "tanggal_daftar": "2021-05-17",
        "nomor_tanda_daftar": "000739.01/DJAI.PSE/05/2021",
        "qr_code": "https://pse.kominfo.go.id/storage/images/qr_code/cb12634c9cd9236cfd16ed65b8dc8a7a.png",
        "status_id": "TERDAFTAR",
        "sistem_elektronik_id": 739
      }
    },
    {
      "type": "tdpseTerbit",
      "id": 984,
      "attributes": {
        "nomor_pb_umku": null,
        "nama": "RCTI+",
        "website": "www.rctiplus.com",
        "sektor": "Sektor Teknologi Informasi dan Komunikasi",
        "nama_perusahaan": "MNC DIGITAL INDONESIA",
        "tanggal_daftar": "2021-05-17",
        "nomor_tanda_daftar": "000738.01/DJAI.PSE/05/2021",
        "qr_code": "https://pse.kominfo.go.id/storage/images/qr_code/a1baf37a3ec225614a6e955f391a6f5f.png",
        "status_id": "TERDAFTAR",
        "sistem_elektronik_id": 2475
      }
    },
    {
      "type": "tdpseTerbit",
      "id": 983,
      "attributes": {
        "nomor_pb_umku": null,
        "nama": "Mastore.co.id",
        "website": "http://mastore.co.id/",
        "sektor": "Sektor Perdagangan",
        "nama_perusahaan": "MASTORE SINERGI UTAMA",
        "tanggal_daftar": "2021-05-17",
        "nomor_tanda_daftar": "000737.01/DJAI.PSE/05/2021",
        "qr_code": "https://pse.kominfo.go.id/storage/images/qr_code/b8d684aa029b25e5d485885c6a17957c.png",
        "status_id": "TERDAFTAR",
        "sistem_elektronik_id": 2567
      }
    },
    {
      "type": "tdpseTerbit",
      "id": 11491,
      "attributes": {
        "nomor_pb_umku": "812001315215600010006",
        "nama": "EVERPRO - KIRIM PAKET & COD",
        "website": "everpro.id",
        "sektor": "Sektor Perdagangan, Sektor Transportasi",
        "nama_perusahaan": "SETIAP HARI DIPAKAI",
        "tanggal_daftar": "2022-10-04",
        "nomor_tanda_daftar": "000736.07/DJAI.PSE/10/2022",
        "qr_code": "https://pse.kominfo.go.id/storage/images/qr_code/bbbb9468fabaab74489738b86feab4eb.png",
        "status_id": "TERDAFTAR",
        "sistem_elektronik_id": 11307
      }
    },
    {
      "type": "tdpseTerbit",
      "id": 11489,
      "attributes": {
        "nomor_pb_umku": "812001315215600010005",
        "nama": "POPAKET",
        "website": "popaket.com",
        "sektor": "Sektor Transportasi",
        "nama_perusahaan": "SETIAP HARI DIPAKAI",
        "tanggal_daftar": "2022-10-04",
        "nomor_tanda_daftar": "000736.06/DJAI.PSE/10/2022",
        "qr_code": "https://pse.kominfo.go.id/storage/images/qr_code/87c073dc435ae33db912571cff6efe0a.png",
        "status_id": "TERDAFTAR",
        "sistem_elektronik_id": 11305
      }
    },
    {
      "type": "tdpseTerbit",
      "id": 11238,
      "attributes": {
        "nomor_pb_umku": "812001315215600010004",
        "nama": "MOFASA",
        "website": "mofasa.id",
        "sektor": "Sektor Perdagangan",
        "nama_perusahaan": "SETIAP HARI DIPAKAI",
        "tanggal_daftar": "2022-09-19",
        "nomor_tanda_daftar": "000736.05/DJAI.PSE/09/2022",
        "qr_code": "https://pse.kominfo.go.id/storage/images/qr_code/c8c719e11967dcdb3d469ea26399f39b.png",
        "status_id": "TERDAFTAR",
        "sistem_elektronik_id": 11045
      }
    },
    {
      "type": "tdpseTerbit",
      "id": 11237,
      "attributes": {
        "nomor_pb_umku": "812001315215600010003",
        "nama": "EVERPRO",
        "website": "everpro.id",
        "sektor": "Sektor Perdagangan, Sektor Transportasi",
        "nama_perusahaan": "SETIAP HARI DIPAKAI",
        "tanggal_daftar": "2022-09-19",
        "nomor_tanda_daftar": "000736.04/DJAI.PSE/09/2022",
        "qr_code": "https://pse.kominfo.go.id/storage/images/qr_code/1dd462781f234d73878211dc1363ee3b.png",
        "status_id": "TERDAFTAR",
        "sistem_elektronik_id": 11044
      }
    },
    {
      "type": "tdpseTerbit",
      "id": 11236,
      "attributes": {
        "nomor_pb_umku": "812001315215600010002",
        "nama": "MOFASA (MANAGEMENT OFFLINE SALES & AGENT)",
        "website": "mofasa.id",
        "sektor": "Sektor Perdagangan",
        "nama_perusahaan": "SETIAP HARI DIPAKAI",
        "tanggal_daftar": "2022-09-19",
        "nomor_tanda_daftar": "000736.03/DJAI.PSE/09/2022",
        "qr_code": "https://pse.kominfo.go.id/storage/images/qr_code/6987ab64935fc5f3b4123ccedf7af78d.png",
        "status_id": "TERDAFTAR",
        "sistem_elektronik_id": 11043
      }
    },
    {
      "type": "tdpseTerbit",
      "id": 3405,
      "attributes": {
        "nomor_pb_umku": null,
        "nama": "Evermos",
        "website": "evermos.com",
        "sektor": "Sektor Perdagangan",
        "nama_perusahaan": "SETIAP HARI DIPAKAI",
        "tanggal_daftar": "2022-03-01",
        "nomor_tanda_daftar": "000736.02/DJAI.PSE/03/2022",
        "qr_code": "https://pse.kominfo.go.id/storage/images/qr_code/307af8945e63b963278e9b79bd6ded40.png",
        "status_id": "TERDAFTAR",
        "sistem_elektronik_id": 3185
      }
    }
  ]
}