{
  "meta": {
    "page": {
      "currentPage": 973,
      "from": 9721,
      "lastPage": 1008,
      "perPage": 10,
      "to": 9730,
      "total": 10073
    }
  },
  "data": [
    {
      "type": "tdpseTerbit",
      "id": 240,
      "attributes": {
        "nomor_pb_umku": null,
        "nama": "PAPITUPI SYARIAH",
        "website": "www.papitupisyariah.com",
        "sektor": "Sektor Keuangan",
        "nama_perusahaan": "PIRANTI ALPHABET PERKASA",
        "tanggal_daftar": "2021-02-25",
        "nomor_tanda_daftar": "000203.01/DJAI.PSE/02/2021",
        "qr_code": "https://pse.kominfo.go.id/storage/images/qr_code/3ffb987b4d68a2cae9e300e15fc8dee4.png",
        "status_id": "TERDAFTAR",
        "sistem_elektronik_id": 2750
      }
    },
    {
      "type": "tdpseTerbit",
      "id": 239,
      "attributes": {
        "nomor_pb_umku": null,
        "nama": "BURSAKU.ID",
        "website": "www.bursaku.id",
        "sektor": "Sektor Perdagangan, Sektor Teknologi Informasi dan Komunikasi",
        "nama_perusahaan": "BURSAKU TEKNOLOGI FINANSIAL",
        "tanggal_daftar": "2021-02-25",
        "nomor_tanda_daftar": "000202.01/DJAI.PSE/02/2021",
        "qr_code": "https://pse.kominfo.go.id/storage/images/qr_code/39a7e58a20f3afb76a5fae90d960fdd2.png",
        "status_id": "TERDAFTAR",
        "sistem_elektronik_id": 2695
      }
    },
    {
      "type": "tdpseTerbit",
      "id": 2648,
      "attributes": {
        "nomor_pb_umku": null,
        "nama": "JUALAN KITA .COM",
        "website": "www.dwidajayatama.com",
        "sektor": "Sektor Energi dan Sumber Daya Mineral, Sektor Kesehatan, Sektor Keuangan, Sektor Perdagangan, Sektor Teknologi Informasi dan Komunikasi",
        "nama_perusahaan": "DWIDA JAYA TAMA",
        "tanggal_daftar": "2021-12-07",
        "nomor_tanda_daftar": "000201.02/DJAI.PSE/12/2021",
        "qr_code": "https://pse.kominfo.go.id/storage/images/qr_code/a649bd68690539fbf61cdca3992ac5f6.png",
        "status_id": "TERDAFTAR",
        "sistem_elektronik_id": 2605
      }
    },
    {
      "type": "tdpseTerbit",
      "id": 238,
      "attributes": {
        "nomor_pb_umku": null,
        "nama": "jualankita.com",
        "website": "www.dwidajayatama.com",
        "sektor": "Sektor Perdagangan",
        "nama_perusahaan": "DWIDA JAYA TAMA",
        "tanggal_daftar": "2021-02-25",
        "nomor_tanda_daftar": "000201.01/DJAI.PSE/02/2021",
        "qr_code": "https://pse.kominfo.go.id/storage/images/qr_code/ba2203b81a0cd314f4400118d992be65.png",
        "status_id": "TERDAFTAR",
        "sistem_elektronik_id": 2604
      }
    },
    {
      "type": "tdpseTerbit",
      "id": 5096,
      "attributes": {
        "nomor_pb_umku": "912000251118700020005",
        "nama": "BOOST SUPPLIER PORTAL",
        "website": "portal.kedai.boost.id",
        "sektor": "Sektor Perdagangan, Sektor Teknologi Informasi dan Komunikasi",
        "nama_perusahaan": "AXIATA DIGITAL SERVICES INDONESIA",
        "tanggal_daftar": "2022-07-05",
        "nomor_tanda_daftar": "000200.03/DJAI.PSE/07/2022",
        "qr_code": "https://pse.kominfo.go.id/storage/images/qr_code/581d19d34343f9137d728e21ac565056.png",
        "status_id": "TERDAFTAR",
        "sistem_elektronik_id": 4959
      }
    },
    {
      "type": "tdpseTerbit",
      "id": 5094,
      "attributes": {
        "nomor_pb_umku": "912000251118700020004",
        "nama": "BOOST KEDAI",
        "website": "app.kedai.boost.id",
        "sektor": "Sektor Teknologi Informasi dan Komunikasi",
        "nama_perusahaan": "AXIATA DIGITAL SERVICES INDONESIA",
        "tanggal_daftar": "2022-07-05",
        "nomor_tanda_daftar": "000200.02/DJAI.PSE/07/2022",
        "qr_code": "https://pse.kominfo.go.id/storage/images/qr_code/dc3da7c7bc6cf236ddb1d3f7b5e77937.png",
        "status_id": "TERDAFTAR",
        "sistem_elektronik_id": 4957
      }
    },
    {
      "type": "tdpseTerbit",
      "id": 237,
      "attributes": {
        "nomor_pb_umku": null,
        "nama": "www.myboost.id",
        "website": "www.myboost.id",
        "sektor": "Sektor Perdagangan",
        "nama_perusahaan": "AXIATA DIGITAL SERVICES INDONESIA",
        "tanggal_daftar": "2021-02-25",
        "nomor_tanda_daftar": "000200.01/DJAI.PSE/02/2021",
        "qr_code": "https://pse.kominfo.go.id/storage/images/qr_code/a6452aae6172fbbc0b7e17566521805a.png",
        "status_id": "TERDAFTAR",
        "sistem_elektronik_id": 2737
      }
    },
    {
      "type": "tdpseTerbit",
      "id": 236,
      "attributes": {
        "nomor_pb_umku": null,
        "nama": "Benih Bersama",
        "website": "www.benihbersama.id",
        "sektor": "Sektor Keuangan",
        "nama_perusahaan": "MODAL ANAK BANGSA",
        "tanggal_daftar": "2021-02-25",
        "nomor_tanda_daftar": "000199.01/DJAI.PSE/02/2021",
        "qr_code": "https://pse.kominfo.go.id/storage/images/qr_code/c4eb9465a89e99c0e1b604ce04064631.png",
        "status_id": "TERDAFTAR",
        "sistem_elektronik_id": 2768
      }
    },
    {
      "type": "tdpseTerbit",
      "id": 235,
      "attributes": {
        "nomor_pb_umku": null,
        "nama": "Xaham",
        "website": "xaham.id",
        "sektor": "Sektor Keuangan, Sektor Teknologi Informasi dan Komunikasi",
        "nama_perusahaan": "XAHAM FINTEK EKUITAS",
        "tanggal_daftar": "2021-02-25",
        "nomor_tanda_daftar": "000198.01/DJAI.PSE/02/2021",
        "qr_code": "https://pse.kominfo.go.id/storage/images/qr_code/7483c20f7c7051bf8b55a41104d4c7da.png",
        "status_id": "TERDAFTAR",
        "sistem_elektronik_id": 2665
      }
    },
    {
      "type": "tdpseTerbit",
      "id": 234,
      "attributes": {
        "nomor_pb_umku": null,
        "nama": "Payuung",
        "website": "www.payuung.com",
        "sektor": "Sektor Perdagangan, Sektor Teknologi Informasi dan Komunikasi",
        "nama_perusahaan": "BENEFIDE SEJAHTERA BERKARYA",
        "tanggal_daftar": "2021-02-25",
        "nomor_tanda_daftar": "000197.01/DJAI.PSE/02/2021",
        "qr_code": "https://pse.kominfo.go.id/storage/images/qr_code/3e43d00b871624eb30e90257ff6eafd6.png",
        "status_id": "TERDAFTAR",
        "sistem_elektronik_id": 2680
      }
    }
  ]
}