{
  "meta": {
    "page": {
      "currentPage": 975,
      "from": 9741,
      "lastPage": 1052,
      "perPage": 10,
      "to": 9750,
      "total": 10513
    }
  },
  "data": [
    {
      "type": "tdpseTerbit",
      "id": 1451,
      "attributes": {
        "nomor_pb_umku": null,
        "nama": "GREDU Student",
        "website": "Gredu.Asia",
        "sektor": "Sektor Teknologi Informasi dan Komunikasi",
        "nama_perusahaan": "SUMBER KREATIF INDONESIA",
        "tanggal_daftar": "2021-06-09",
        "nomor_tanda_daftar": "000413.03/DJAI.PSE/06/2021",
        "qr_code": "https://pse.kominfo.go.id/storage/images/qr_code/47811d8c6f7b80bf5bc2608b9b3cc9de.png",
        "status_id": "TERDAFTAR",
        "sistem_elektronik_id": 340
      }
    },
    {
      "type": "tdpseTerbit",
      "id": 1424,
      "attributes": {
        "nomor_pb_umku": null,
        "nama": "GREDU School Management System",
        "website": "Gredu.Asia",
        "sektor": "Sektor Teknologi Informasi dan Komunikasi",
        "nama_perusahaan": "SUMBER KREATIF INDONESIA",
        "tanggal_daftar": "2021-06-09",
        "nomor_tanda_daftar": "000413.02/DJAI.PSE/06/2021",
        "qr_code": "https://pse.kominfo.go.id/storage/images/qr_code/6a442932c1a010b302184affe20a3021.png",
        "status_id": "TERDAFTAR",
        "sistem_elektronik_id": 339
      }
    },
    {
      "type": "tdpseTerbit",
      "id": 509,
      "attributes": {
        "nomor_pb_umku": null,
        "nama": "GREDU Teacher",
        "website": "Gredu. Asia",
        "sektor": "Sektor Teknologi Informasi dan Komunikasi",
        "nama_perusahaan": "SUMBER KREATIF INDONESIA",
        "tanggal_daftar": "2021-04-20",
        "nomor_tanda_daftar": "000413.01/DJAI.PSE/04/2021",
        "qr_code": "https://pse.kominfo.go.id/storage/images/qr_code/a78533c135ca31a127335bcdff1b0d44.png",
        "status_id": "TERDAFTAR",
        "sistem_elektronik_id": 338
      }
    },
    {
      "type": "tdpseTerbit",
      "id": 2423,
      "attributes": {
        "nomor_pb_umku": null,
        "nama": "BAMMS",
        "website": "www.bybamms.com",
        "sektor": "Sektor Teknologi Informasi dan Komunikasi",
        "nama_perusahaan": "TEKNOLOGI OPTIMAL PRIMA",
        "tanggal_daftar": "2021-11-22",
        "nomor_tanda_daftar": "000412.03/DJAI.PSE/11/2021",
        "qr_code": "https://pse.kominfo.go.id/storage/images/qr_code/8eaf6cd11a35774e2ae6eb205cdc3345.png",
        "status_id": "TERDAFTAR",
        "sistem_elektronik_id": 3525
      }
    },
    {
      "type": "tdpseTerbit",
      "id": 628,
      "attributes": {
        "nomor_pb_umku": null,
        "nama": "Propel by bamms",
        "website": "bybamms.com",
        "sektor": "Sektor Perdagangan, Sektor Teknologi Informasi dan Komunikasi",
        "nama_perusahaan": "TEKNOLOGI OPTIMAL PRIMA",
        "tanggal_daftar": "2021-04-26",
        "nomor_tanda_daftar": "000412.02/DJAI.PSE/04/2021",
        "qr_code": "https://pse.kominfo.go.id/storage/images/qr_code/9ba48a2e8e79d718395fa468634a6e7c.png",
        "status_id": "TERDAFTAR",
        "sistem_elektronik_id": 3524
      }
    },
    {
      "type": "tdpseTerbit",
      "id": 508,
      "attributes": {
        "nomor_pb_umku": null,
        "nama": "bamms",
        "website": "bybamms.com",
        "sektor": "Sektor Perdagangan, Sektor Teknologi Informasi dan Komunikasi",
        "nama_perusahaan": "TEKNOLOGI OPTIMAL PRIMA",
        "tanggal_daftar": "2021-04-20",
        "nomor_tanda_daftar": "000412.01/DJAI.PSE/04/2021",
        "qr_code": "https://pse.kominfo.go.id/storage/images/qr_code/f44c0af231bf0ebf3d77ad8a98cebbdf.png",
        "status_id": "TERDAFTAR",
        "sistem_elektronik_id": 3523
      }
    },
    {
      "type": "tdpseTerbit",
      "id": 507,
      "attributes": {
        "nomor_pb_umku": null,
        "nama": "Volvo Telematics System – Dynafleet / Volvo Connect",
        "website": "https://www.dynafleetonline.com/",
        "sektor": "Sektor Teknologi Informasi dan Komunikasi, Sektor Transportasi",
        "nama_perusahaan": "VOLVO INDONESIA",
        "tanggal_daftar": "2021-04-20",
        "nomor_tanda_daftar": "000411.02/DJAI.PSE/04/2021",
        "qr_code": "https://pse.kominfo.go.id/storage/images/qr_code/e9a2f506a4d8984544fe25322d79cb71.png",
        "status_id": "TERDAFTAR",
        "sistem_elektronik_id": 132
      }
    },
    {
      "type": "tdpseTerbit",
      "id": 506,
      "attributes": {
        "nomor_pb_umku": null,
        "nama": "Volvo Telematics System – Caretrack",
        "website": "https://www.caretrackvolvo.com/caretrack/",
        "sektor": "Sektor Teknologi Informasi dan Komunikasi",
        "nama_perusahaan": "VOLVO INDONESIA",
        "tanggal_daftar": "2021-04-20",
        "nomor_tanda_daftar": "000411.01/DJAI.PSE/04/2021",
        "qr_code": "https://pse.kominfo.go.id/storage/images/qr_code/425ef24e87ed20696ad7dd251a678c3c.png",
        "status_id": "TERDAFTAR",
        "sistem_elektronik_id": 131
      }
    },
    {
      "type": "tdpseTerbit",
      "id": 505,
      "attributes": {
        "nomor_pb_umku": null,
        "nama": "Fundtastic+ (Plus)",
        "website": "www.fundtasticplus.co.id",
        "sektor": "Sektor Keuangan",
        "nama_perusahaan": "NUSANTARA SEJAHTERA INVESTAMA",
        "tanggal_daftar": "2021-04-20",
        "nomor_tanda_daftar": "000410.01/DJAI.PSE/04/2021",
        "qr_code": "https://pse.kominfo.go.id/storage/images/qr_code/825d5d6fd20e0aab49ed0ce6f94dd45d.png",
        "status_id": "TERDAFTAR",
        "sistem_elektronik_id": 3522
      }
    },
    {
      "type": "tdpseTerbit",
      "id": 504,
      "attributes": {
        "nomor_pb_umku": null,
        "nama": "SCF-Securities Crowd Funding System emerging technology",
        "website": "www.aindo.co.id",
        "sektor": "Sektor Keuangan",
        "nama_perusahaan": "ANGEL INVESTOR INDONESIA",
        "tanggal_daftar": "2021-04-20",
        "nomor_tanda_daftar": "000409.01/DJAI.PSE/04/2021",
        "qr_code": "https://pse.kominfo.go.id/storage/images/qr_code/25509a093caeba6cd21e2fb6576cc971.png",
        "status_id": "TERDAFTAR",
        "sistem_elektronik_id": 231
      }
    }
  ]
}