{
  "meta": {
    "page": {
      "currentPage": 976,
      "from": 9751,
      "lastPage": 1085,
      "perPage": 10,
      "to": 9760,
      "total": 10842
    }
  },
  "data": [
    {
      "type": "tdpseTerbit",
      "id": 741,
      "attributes": {
        "nomor_pb_umku": null,
        "nama": "Jakartanotebook.com",
        "website": "https://www.jakartanotebook.com/",
        "sektor": "Sektor Perdagangan",
        "nama_perusahaan": "JAKARTA DIGITAL NUSANTARA",
        "tanggal_daftar": "2021-05-07",
        "nomor_tanda_daftar": "000599.01/DJAI.PSE/05/2021",
        "qr_code": "https://pse.kominfo.go.id/storage/images/qr_code/dd9809556b0bf88926db090682b028d5.png",
        "status_id": "TERDAFTAR",
        "sistem_elektronik_id": 3475
      }
    },
    {
      "type": "tdpseTerbit",
      "id": 740,
      "attributes": {
        "nomor_pb_umku": null,
        "nama": "HumanCloudz",
        "website": "www.humancloudz.com",
        "sektor": "Sektor Teknologi Informasi dan Komunikasi",
        "nama_perusahaan": "HUMAN CLOUDZ INDONESIA",
        "tanggal_daftar": "2021-05-07",
        "nomor_tanda_daftar": "000598.01/DJAI.PSE/05/2021",
        "qr_code": "https://pse.kominfo.go.id/storage/images/qr_code/a52eb8d4b8c532338c7be73e5f50495c.png",
        "status_id": "TERDAFTAR",
        "sistem_elektronik_id": 544
      }
    },
    {
      "type": "tdpseTerbit",
      "id": 739,
      "attributes": {
        "nomor_pb_umku": null,
        "nama": "DARBELINK",
        "website": "darbelink.id",
        "sektor": "Sektor Keuangan, Sektor Teknologi Informasi dan Komunikasi",
        "nama_perusahaan": "RISNA DARBE LINK",
        "tanggal_daftar": "2021-05-07",
        "nomor_tanda_daftar": "000597.01/DJAI.PSE/05/2021",
        "qr_code": "https://pse.kominfo.go.id/storage/images/qr_code/80e3c1468a93b086683a098f2af1cc93.png",
        "status_id": "TERDAFTAR",
        "sistem_elektronik_id": 531
      }
    },
    {
      "type": "tdpseTerbit",
      "id": 738,
      "attributes": {
        "nomor_pb_umku": null,
        "nama": "Virgoku",
        "website": "www.virgoku.id",
        "sektor": "Sektor Teknologi Informasi dan Komunikasi",
        "nama_perusahaan": "CAPITAL NET INDONESIA",
        "tanggal_daftar": "2021-05-07",
        "nomor_tanda_daftar": "000596.01/DJAI.PSE/05/2021",
        "qr_code": "https://pse.kominfo.go.id/storage/images/qr_code/3fd265ac2d546171160b4654c2667f09.png",
        "status_id": "TERDAFTAR",
        "sistem_elektronik_id": 539
      }
    },
    {
      "type": "tdpseTerbit",
      "id": 737,
      "attributes": {
        "nomor_pb_umku": null,
        "nama": "MITRA P2P LENDING",
        "website": "mitrapendanaan.co.id",
        "sektor": "Sektor Keuangan",
        "nama_perusahaan": "MITRA PENDANAAN MANDIRI",
        "tanggal_daftar": "2021-05-07",
        "nomor_tanda_daftar": "000595.01/DJAI.PSE/05/2021",
        "qr_code": "https://pse.kominfo.go.id/storage/images/qr_code/f9b5777e976d228ef10dce5ac45cf063.png",
        "status_id": "TERDAFTAR",
        "sistem_elektronik_id": 537
      }
    },
    {
      "type": "tdpseTerbit",
      "id": 736,
      "attributes": {
        "nomor_pb_umku": null,
        "nama": "Panin Asset Management",
        "website": "https://www.panin-am.co.id/",
        "sektor": "Sektor Keuangan",
        "nama_perusahaan": "PANIN ASSET MANAGEMENT",
        "tanggal_daftar": "2021-05-07",
        "nomor_tanda_daftar": "000594.01/DJAI.PSE/05/2021",
        "qr_code": "https://pse.kominfo.go.id/storage/images/qr_code/e1a25c1357362dec0409344b033e6a56.png",
        "status_id": "TERDAFTAR",
        "sistem_elektronik_id": 451
      }
    },
    {
      "type": "tdpseTerbit",
      "id": 734,
      "attributes": {
        "nomor_pb_umku": null,
        "nama": "Cekkeuanganku",
        "website": "https://cekkeuanganku.com",
        "sektor": "Sektor Perdagangan, Sektor Teknologi Informasi dan Komunikasi",
        "nama_perusahaan": "CIPTA EDUKASI KEUANGAN",
        "tanggal_daftar": "2021-05-07",
        "nomor_tanda_daftar": "000593.01/DJAI.PSE/05/2021",
        "qr_code": "https://pse.kominfo.go.id/storage/images/qr_code/4cf4220c3e4c89449b2da58052fd0902.png",
        "status_id": "TERDAFTAR",
        "sistem_elektronik_id": 514
      }
    },
    {
      "type": "tdpseTerbit",
      "id": 733,
      "attributes": {
        "nomor_pb_umku": null,
        "nama": "Yo! Inves",
        "website": "https://yoinves.id/",
        "sektor": "Sektor Keuangan",
        "nama_perusahaan": "SYAILENDRA CAPITAL",
        "tanggal_daftar": "2021-05-07",
        "nomor_tanda_daftar": "000592.01/DJAI.PSE/05/2021",
        "qr_code": "https://pse.kominfo.go.id/storage/images/qr_code/210d1283e6fa2dfa24d3fcd33b09cfd5.png",
        "status_id": "TERDAFTAR",
        "sistem_elektronik_id": 2422
      }
    },
    {
      "type": "tdpseTerbit",
      "id": 11010,
      "attributes": {
        "nomor_pb_umku": "022000387260700000003",
        "nama": "SAFARIMULIA",
        "website": "Www.safarimulia.id",
        "sektor": "Sektor Perdagangan",
        "nama_perusahaan": "REKAN SUKSES USAHAMU",
        "tanggal_daftar": "2022-09-04",
        "nomor_tanda_daftar": "000591.03/DJAI.PSE/09/2022",
        "qr_code": "https://pse.kominfo.go.id/storage/images/qr_code/b89d555dd98e84f47a83cdd329ebcb55.png",
        "status_id": "TERDAFTAR",
        "sistem_elektronik_id": 10813
      }
    },
    {
      "type": "tdpseTerbit",
      "id": 11004,
      "attributes": {
        "nomor_pb_umku": "022000387260700000002",
        "nama": "SAFARIMULIA.ID",
        "website": "server.sbks.co.id",
        "sektor": "Sektor Perdagangan",
        "nama_perusahaan": "REKAN SUKSES USAHAMU",
        "tanggal_daftar": "2022-09-03",
        "nomor_tanda_daftar": "000591.02/DJAI.PSE/09/2022",
        "qr_code": "https://pse.kominfo.go.id/storage/images/qr_code/189105808cd2e4a5152d2911292b15f1.png",
        "status_id": "TERDAFTAR",
        "sistem_elektronik_id": 10807
      }
    }
  ]
}