{
  "meta": {
    "page": {
      "currentPage": 977,
      "from": 9761,
      "lastPage": 1052,
      "perPage": 10,
      "to": 9770,
      "total": 10513
    }
  },
  "data": [
    {
      "type": "tdpseTerbit",
      "id": 495,
      "attributes": {
        "nomor_pb_umku": null,
        "nama": "ELIT    Erdikha Online Trading",
        "website": "https://www.erdikha.com",
        "sektor": "Sektor Keuangan",
        "nama_perusahaan": "ERDIKHA ELIT SEKURITAS",
        "tanggal_daftar": "2021-04-20",
        "nomor_tanda_daftar": "000401.01/DJAI.PSE/04/2021",
        "qr_code": "https://pse.kominfo.go.id/storage/images/qr_code/b909ab7498b5022712669ea64f64bbe5.png",
        "status_id": "TERDAFTAR",
        "sistem_elektronik_id": 319
      }
    },
    {
      "type": "tdpseTerbit",
      "id": 2865,
      "attributes": {
        "nomor_pb_umku": null,
        "nama": "PINVA",
        "website": "PINVA.ID",
        "sektor": "Sektor Keuangan, Sektor Teknologi Informasi dan Komunikasi",
        "nama_perusahaan": "INVESNOW FINANSIAL TEKNOLOGI",
        "tanggal_daftar": "2021-12-23",
        "nomor_tanda_daftar": "000400.03/DJAI.PSE/12/2021",
        "qr_code": "https://pse.kominfo.go.id/storage/images/qr_code/dfb50b336d439de86774ba1cec0d9e48.png",
        "status_id": "TERDAFTAR",
        "sistem_elektronik_id": 296
      }
    },
    {
      "type": "tdpseTerbit",
      "id": 494,
      "attributes": {
        "nomor_pb_umku": null,
        "nama": "INVESNOW.ID",
        "website": "https://invesnow.id/",
        "sektor": "Sektor Keuangan, Sektor Teknologi Informasi dan Komunikasi",
        "nama_perusahaan": "INVESNOW FINANSIAL TEKNOLOGI",
        "tanggal_daftar": "2021-04-20",
        "nomor_tanda_daftar": "000400.02/DJAI.PSE/04/2021",
        "qr_code": "https://pse.kominfo.go.id/storage/images/qr_code/e7fdaf17f8cb5191d6b565dedfdac03f.png",
        "status_id": "TERDAFTAR",
        "sistem_elektronik_id": 295
      }
    },
    {
      "type": "tdpseTerbit",
      "id": 492,
      "attributes": {
        "nomor_pb_umku": null,
        "nama": "INVESNOW.ID",
        "website": "https://invesnow.id/",
        "sektor": "Sektor Keuangan, Sektor Teknologi Informasi dan Komunikasi",
        "nama_perusahaan": "INVESNOW FINANSIAL TEKNOLOGI",
        "tanggal_daftar": "2021-04-20",
        "nomor_tanda_daftar": "000400.01/DJAI.PSE/04/2021",
        "qr_code": "https://pse.kominfo.go.id/storage/images/qr_code/fe48953849be1bdaac10ece088e4ddec.png",
        "status_id": "TERDAFTAR",
        "sistem_elektronik_id": 294
      }
    },
    {
      "type": "tdpseTerbit",
      "id": 491,
      "attributes": {
        "nomor_pb_umku": null,
        "nama": "Nicepay Payment API",
        "website": "nicepay.co.id",
        "sektor": "Sektor Keuangan, Sektor Teknologi Informasi dan Komunikasi",
        "nama_perusahaan": "IONPAY NETWORKS",
        "tanggal_daftar": "2021-04-20",
        "nomor_tanda_daftar": "000399.01/DJAI.PSE/04/2021",
        "qr_code": "https://pse.kominfo.go.id/storage/images/qr_code/80c264d9912d18a78b609585a76bf337.png",
        "status_id": "TERDAFTAR",
        "sistem_elektronik_id": 2781
      }
    },
    {
      "type": "tdpseTerbit",
      "id": 5168,
      "attributes": {
        "nomor_pb_umku": "023500090370600010001",
        "nama": "OTTOCASH",
        "website": "ottocash.id",
        "sektor": "Sektor Keuangan, Sektor Teknologi Informasi dan Komunikasi",
        "nama_perusahaan": "TRANSAKSI ARTHA GEMILANG",
        "tanggal_daftar": "2022-07-07",
        "nomor_tanda_daftar": "000398.02/DJAI.PSE/07/2022",
        "qr_code": "https://pse.kominfo.go.id/storage/images/qr_code/6f40feeaa28ed4760719bb0c8473d383.png",
        "status_id": "TERDAFTAR",
        "sistem_elektronik_id": 5033
      }
    },
    {
      "type": "tdpseTerbit",
      "id": 490,
      "attributes": {
        "nomor_pb_umku": null,
        "nama": "OTTO",
        "website": "www.ottocash.id",
        "sektor": "Sektor Teknologi Informasi dan Komunikasi",
        "nama_perusahaan": "TRANSAKSI ARTHA GEMILANG",
        "tanggal_daftar": "2021-04-20",
        "nomor_tanda_daftar": "000398.01/DJAI.PSE/04/2021",
        "qr_code": "https://pse.kominfo.go.id/storage/images/qr_code/486655cb86f644126b464bc9446efcfb.png",
        "status_id": "TERDAFTAR",
        "sistem_elektronik_id": 3519
      }
    },
    {
      "type": "tdpseTerbit",
      "id": 493,
      "attributes": {
        "nomor_pb_umku": null,
        "nama": "Aplikasi Kawan K-Vision",
        "website": "-",
        "sektor": "Sektor Teknologi Informasi dan Komunikasi",
        "nama_perusahaan": "DIGITAL VISION NUSANTARA",
        "tanggal_daftar": "2021-04-20",
        "nomor_tanda_daftar": "000397.02/DJAI.PSE/04/2021",
        "qr_code": "https://pse.kominfo.go.id/storage/images/qr_code/b6cad99e3396d929359896cc68850a01.png",
        "status_id": "TERDAFTAR",
        "sistem_elektronik_id": 3518
      }
    },
    {
      "type": "tdpseTerbit",
      "id": 489,
      "attributes": {
        "nomor_pb_umku": null,
        "nama": "Website Portal K-Vision",
        "website": "www.k-vision,tv",
        "sektor": "Sektor Teknologi Informasi dan Komunikasi",
        "nama_perusahaan": "DIGITAL VISION NUSANTARA",
        "tanggal_daftar": "2021-04-20",
        "nomor_tanda_daftar": "000397.01/DJAI.PSE/04/2021",
        "qr_code": "https://pse.kominfo.go.id/storage/images/qr_code/498ccae61428945ec6500738de90d57d.png",
        "status_id": "TERDAFTAR",
        "sistem_elektronik_id": 3517
      }
    },
    {
      "type": "tdpseTerbit",
      "id": 1359,
      "attributes": {
        "nomor_pb_umku": null,
        "nama": "Aplikasi McDonald’s",
        "website": "http://www.plexure.com/",
        "sektor": "Sektor Perdagangan",
        "nama_perusahaan": "REKSO NASIONAL FOOD",
        "tanggal_daftar": "2021-06-02",
        "nomor_tanda_daftar": "000396.05/DJAI.PSE/06/2021",
        "qr_code": "https://pse.kominfo.go.id/storage/images/qr_code/430065a88236f0e172bd6eef7801904e.png",
        "status_id": "TERDAFTAR",
        "sistem_elektronik_id": 309
      }
    }
  ]
}