{
  "meta": {
    "page": {
      "currentPage": 982,
      "from": 9811,
      "lastPage": 985,
      "perPage": 10,
      "to": 9820,
      "total": 9842
    }
  },
  "data": [
    {
      "type": "tdpseTerbit",
      "id": 1671,
      "attributes": {
        "nomor_pb_umku": null,
        "nama": "Zenius untuk Guru (ZenRu)",
        "website": "https://www.guru.zenius.com atau https://www.guru.zenius.net",
        "sektor": "Sektor Perdagangan",
        "nama_perusahaan": "ZONA EDUKASI NUSANTARA",
        "tanggal_daftar": "2021-07-08",
        "nomor_tanda_daftar": "000012.03/DJAI.PSE/07/2021",
        "qr_code": "https://pse.kominfo.go.id/storage/images/qr_code/370d38842cd0d862f20047fee9f6cd0a.png",
        "status_id": "TERDAFTAR",
        "sistem_elektronik_id": 2341
      }
    },
    {
      "type": "tdpseTerbit",
      "id": 1532,
      "attributes": {
        "nomor_pb_umku": null,
        "nama": "ZeniusLand",
        "website": "-",
        "sektor": "Sektor Perdagangan",
        "nama_perusahaan": "ZONA EDUKASI NUSANTARA",
        "tanggal_daftar": "2021-06-24",
        "nomor_tanda_daftar": "000012.02/DJAI.PSE/06/2021",
        "qr_code": "https://pse.kominfo.go.id/storage/images/qr_code/f61770142632a2d12e35c966eb0ec277.png",
        "status_id": "TERDAFTAR",
        "sistem_elektronik_id": 2340
      }
    },
    {
      "type": "tdpseTerbit",
      "id": 13,
      "attributes": {
        "nomor_pb_umku": null,
        "nama": "Zenius.net dan Aplikasi Mobile Zenius Belajar online",
        "website": "www.zenius.net",
        "sektor": "Sektor Perdagangan",
        "nama_perusahaan": "ZONA EDUKASI NUSANTARA",
        "tanggal_daftar": "2021-02-19",
        "nomor_tanda_daftar": "000012.01/DJAI.PSE/02/2021",
        "qr_code": "https://pse.kominfo.go.id/storage/images/qr_code/844f7f0a98e011ffc0afa8b90870bd25.png",
        "status_id": "TERDAFTAR",
        "sistem_elektronik_id": 2339
      }
    },
    {
      "type": "tdpseTerbit",
      "id": 12,
      "attributes": {
        "nomor_pb_umku": null,
        "nama": "ctrip360.com",
        "website": "www.ctrip360.com",
        "sektor": "Sektor Teknologi Informasi dan Komunikasi",
        "nama_perusahaan": "CTRIP TECHNOLOGY INDONESIA",
        "tanggal_daftar": "2021-02-18",
        "nomor_tanda_daftar": "000011.01/DJAI.PSE/02/2021",
        "qr_code": "https://pse.kominfo.go.id/storage/images/qr_code/d987de26c62ac6219157dee4ca0a69da.png",
        "status_id": "TERDAFTAR",
        "sistem_elektronik_id": 2368
      }
    },
    {
      "type": "tdpseTerbit",
      "id": 5188,
      "attributes": {
        "nomor_pb_umku": "812010484269600000003",
        "nama": "ELEVENIA MART (EMART)",
        "website": "-",
        "sektor": "Sektor Perdagangan",
        "nama_perusahaan": "XL PLANET",
        "tanggal_daftar": "2022-07-07",
        "nomor_tanda_daftar": "000010.04/DJAI.PSE/07/2022",
        "qr_code": "https://pse.kominfo.go.id/storage/images/qr_code/998814072dace5cddb582d0c3fcdeaf3.png",
        "status_id": "TERDAFTAR",
        "sistem_elektronik_id": 5057
      }
    },
    {
      "type": "tdpseTerbit",
      "id": 5186,
      "attributes": {
        "nomor_pb_umku": "812010484269600000002",
        "nama": "EPP.ELEVENIA.BIZ",
        "website": "elevenia.biz",
        "sektor": "Sektor Perdagangan",
        "nama_perusahaan": "XL PLANET",
        "tanggal_daftar": "2022-07-07",
        "nomor_tanda_daftar": "000010.03/DJAI.PSE/07/2022",
        "qr_code": "https://pse.kominfo.go.id/storage/images/qr_code/6fcd6d3f5a1c62808656424710217b60.png",
        "status_id": "TERDAFTAR",
        "sistem_elektronik_id": 5054
      }
    },
    {
      "type": "tdpseTerbit",
      "id": 5170,
      "attributes": {
        "nomor_pb_umku": "812010484269600000001",
        "nama": "OLEHOLEH.CO.ID",
        "website": "oleholeh.co.id",
        "sektor": "Sektor Perdagangan",
        "nama_perusahaan": "XL PLANET",
        "tanggal_daftar": "2022-07-07",
        "nomor_tanda_daftar": "000010.02/DJAI.PSE/07/2022",
        "qr_code": "https://pse.kominfo.go.id/storage/images/qr_code/987a46da86168d60a37937d1e837dea3.png",
        "status_id": "TERDAFTAR",
        "sistem_elektronik_id": 5036
      }
    },
    {
      "type": "tdpseTerbit",
      "id": 11,
      "attributes": {
        "nomor_pb_umku": null,
        "nama": "Elevenia",
        "website": "www.elevenia.co.id",
        "sektor": "Sektor Perdagangan",
        "nama_perusahaan": "XL PLANET",
        "tanggal_daftar": "2021-02-18",
        "nomor_tanda_daftar": "000010.01/DJAI.PSE/02/2021",
        "qr_code": "https://pse.kominfo.go.id/storage/images/qr_code/3882e60d94dff76d3842d2d07f4a1c7d.png",
        "status_id": "TERDAFTAR",
        "sistem_elektronik_id": 2336
      }
    },
    {
      "type": "tdpseTerbit",
      "id": 10,
      "attributes": {
        "nomor_pb_umku": null,
        "nama": "PRIVATE ZONE",
        "website": "https://id.leomaster.com",
        "sektor": "Sektor Teknologi Informasi dan Komunikasi",
        "nama_perusahaan": "LEO NETWORK TECH",
        "tanggal_daftar": "2021-02-18",
        "nomor_tanda_daftar": "000009.01/DJAI.PSE/02/2021",
        "qr_code": "https://pse.kominfo.go.id/storage/images/qr_code/42519fd6d9463a6f2bb5be15a27f52ae.png",
        "status_id": "TERDAFTAR",
        "sistem_elektronik_id": 2358
      }
    },
    {
      "type": "tdpseTerbit",
      "id": 361,
      "attributes": {
        "nomor_pb_umku": null,
        "nama": "Teman Sehat Mitra Kesehatan ( com.temansehat.tester and co.achiko.temansehat-tester)",
        "website": "https://tester.teman-sehat.co.id",
        "sektor": "Sektor Kesehatan, Sektor Perdagangan, Sektor Teknologi Informasi dan Komunikasi",
        "nama_perusahaan": "PROGRESSIVMEDIA INDONESIA",
        "tanggal_daftar": "2021-03-10",
        "nomor_tanda_daftar": "000008.03/DJAI.PSE/03/2021",
        "qr_code": "https://pse.kominfo.go.id/storage/images/qr_code/bb7d438b91d857a181dfdb56fb437a87.png",
        "status_id": "TERDAFTAR",
        "sistem_elektronik_id": 2324
      }
    }
  ]
}