{
  "meta": {
    "page": {
      "currentPage": 983,
      "from": 9821,
      "lastPage": 997,
      "perPage": 10,
      "to": 9830,
      "total": 9961
    }
  },
  "data": [
    {
      "type": "tdpseTerbit",
      "id": 445,
      "attributes": {
        "nomor_pb_umku": null,
        "nama": "Hallobumil",
        "website": "www.hallobumil.id",
        "sektor": "Sektor Kesehatan, Sektor Teknologi Informasi dan Komunikasi",
        "nama_perusahaan": "MEDIKA KOMUNIKA TEKNOLOGI",
        "tanggal_daftar": "2021-04-14",
        "nomor_tanda_daftar": "000081.02/DJAI.PSE/04/2021",
        "qr_code": "https://pse.kominfo.go.id/storage/images/qr_code/5b3e1e3a2bf73c741186958a26f0c854.png",
        "status_id": "TERDAFTAR",
        "sistem_elektronik_id": 2426
      }
    },
    {
      "type": "tdpseTerbit",
      "id": 91,
      "attributes": {
        "nomor_pb_umku": null,
        "nama": "KlikDiabetes",
        "website": "www.klikdiabetes.com",
        "sektor": "Sektor Kesehatan, Sektor Perdagangan, Sektor Teknologi Informasi dan Komunikasi",
        "nama_perusahaan": "MEDIKA KOMUNIKA TEKNOLOGI",
        "tanggal_daftar": "2021-02-23",
        "nomor_tanda_daftar": "000081.01/DJAI.PSE/02/2021",
        "qr_code": "https://pse.kominfo.go.id/storage/images/qr_code/7131fa92aa7c04d856964d166d630ec8.png",
        "status_id": "TERDAFTAR",
        "sistem_elektronik_id": 2425
      }
    },
    {
      "type": "tdpseTerbit",
      "id": 90,
      "attributes": {
        "nomor_pb_umku": null,
        "nama": "moringaku",
        "website": "www.moringaku.com",
        "sektor": "Sektor Perdagangan",
        "nama_perusahaan": "MORINGA WAHACARANA PRIMA",
        "tanggal_daftar": "2021-02-23",
        "nomor_tanda_daftar": "000080.01/DJAI.PSE/02/2021",
        "qr_code": "https://pse.kominfo.go.id/storage/images/qr_code/460e17648856ed4518ee4af79f7dbdcc.png",
        "status_id": "TERDAFTAR",
        "sistem_elektronik_id": 2493
      }
    },
    {
      "type": "tdpseTerbit",
      "id": 87,
      "attributes": {
        "nomor_pb_umku": null,
        "nama": "MCI WORLD",
        "website": "https://www.mci-world.com/",
        "sektor": "Sektor Perdagangan",
        "nama_perusahaan": "MILLIONAIRE GROUP INDONESIA",
        "tanggal_daftar": "2021-02-23",
        "nomor_tanda_daftar": "000077.01/DJAI.PSE/02/2021",
        "qr_code": "https://pse.kominfo.go.id/storage/images/qr_code/05e941607eb66cce231fb80c65af3619.png",
        "status_id": "TERDAFTAR",
        "sistem_elektronik_id": 2377
      }
    },
    {
      "type": "tdpseTerbit",
      "id": 86,
      "attributes": {
        "nomor_pb_umku": null,
        "nama": "GShield Technology / Insurance Tile within the Grab App",
        "website": "https://insurance.grab-sure.com/pax/id#/",
        "sektor": "Sektor Perdagangan",
        "nama_perusahaan": "JASA TEKNOLOGI GSHIELD",
        "tanggal_daftar": "2021-02-23",
        "nomor_tanda_daftar": "000076.01/DJAI.PSE/02/2021",
        "qr_code": "https://pse.kominfo.go.id/storage/images/qr_code/977996b6487734ea5dee36decd9f0e39.png",
        "status_id": "TERDAFTAR",
        "sistem_elektronik_id": 2371
      }
    },
    {
      "type": "tdpseTerbit",
      "id": 85,
      "attributes": {
        "nomor_pb_umku": null,
        "nama": "www.oriflame.co.id",
        "website": "www.oriflame.co.id",
        "sektor": "Sektor Perdagangan",
        "nama_perusahaan": "ORINDO ALAM AYU",
        "tanggal_daftar": "2021-02-23",
        "nomor_tanda_daftar": "000075.01/DJAI.PSE/02/2021",
        "qr_code": "https://pse.kominfo.go.id/storage/images/qr_code/23df22fe4ec1125c90ed58c7c6b8b396.png",
        "status_id": "TERDAFTAR",
        "sistem_elektronik_id": 2460
      }
    },
    {
      "type": "tdpseTerbit",
      "id": 84,
      "attributes": {
        "nomor_pb_umku": null,
        "nama": "https://nuamooreaindonesia.com/",
        "website": "https://nuamooreaindonesia.com",
        "sektor": "Sektor Perdagangan",
        "nama_perusahaan": "DUTA ELOK PERSADA",
        "tanggal_daftar": "2021-02-23",
        "nomor_tanda_daftar": "000074.01/DJAI.PSE/02/2021",
        "qr_code": "https://pse.kominfo.go.id/storage/images/qr_code/2528c35516c92babb067ef4ec7cd711b.png",
        "status_id": "TERDAFTAR",
        "sistem_elektronik_id": 2407
      }
    },
    {
      "type": "tdpseTerbit",
      "id": 82,
      "attributes": {
        "nomor_pb_umku": null,
        "nama": "e-commerce",
        "website": "www.cakravala.com",
        "sektor": "Sektor Perdagangan",
        "nama_perusahaan": "ANADAV",
        "tanggal_daftar": "2021-02-23",
        "nomor_tanda_daftar": "000073.01/DJAI.PSE/02/2021",
        "qr_code": "https://pse.kominfo.go.id/storage/images/qr_code/a94e7bb544e6bc273f2228f995a11d44.png",
        "status_id": "TERDAFTAR",
        "sistem_elektronik_id": 2503
      }
    },
    {
      "type": "tdpseTerbit",
      "id": 81,
      "attributes": {
        "nomor_pb_umku": null,
        "nama": "VAVE Global",
        "website": "www.vave.co.id",
        "sektor": "Sektor Perdagangan",
        "nama_perusahaan": "VAVE GLOBAL MADANI",
        "tanggal_daftar": "2021-02-23",
        "nomor_tanda_daftar": "000072.01/DJAI.PSE/02/2021",
        "qr_code": "https://pse.kominfo.go.id/storage/images/qr_code/55a74581dddf1442b8662224dab7b21d.png",
        "status_id": "TERDAFTAR",
        "sistem_elektronik_id": 2496
      }
    },
    {
      "type": "tdpseTerbit",
      "id": 80,
      "attributes": {
        "nomor_pb_umku": null,
        "nama": "MONEY KAYA",
        "website": "-",
        "sektor": "Sektor Keuangan",
        "nama_perusahaan": "SIMPAN PINJAM DANA GUNUNG MULIA",
        "tanggal_daftar": "2021-02-23",
        "nomor_tanda_daftar": "000071.01/DJAI.PSE/02/2021",
        "qr_code": "https://pse.kominfo.go.id/storage/images/qr_code/3dba0fb163f41e0dbcd3d1aa5d838159.png",
        "status_id": "TERDAFTAR",
        "sistem_elektronik_id": 2502
      }
    }
  ]
}