{
  "meta": {
    "page": {
      "currentPage": 985,
      "from": 9841,
      "lastPage": 1012,
      "perPage": 10,
      "to": 9850,
      "total": 10114
    }
  },
  "data": [
    {
      "type": "tdpseTerbit",
      "id": 1666,
      "attributes": {
        "nomor_pb_umku": null,
        "nama": "All In One",
        "website": "www.syde.co",
        "sektor": "Sektor Teknologi Informasi dan Komunikasi",
        "nama_perusahaan": "SYDECO",
        "tanggal_daftar": "2021-07-08",
        "nomor_tanda_daftar": "000156.04/DJAI.PSE/07/2021",
        "qr_code": "https://pse.kominfo.go.id/storage/images/qr_code/fa06ccb16ccd60afcbd948315ec2c8d3.png",
        "status_id": "TERDAFTAR",
        "sistem_elektronik_id": 2660
      }
    },
    {
      "type": "tdpseTerbit",
      "id": 177,
      "attributes": {
        "nomor_pb_umku": null,
        "nama": "sydecloud",
        "website": "sydeloud.com",
        "sektor": "Sektor Teknologi Informasi dan Komunikasi",
        "nama_perusahaan": "SYDECO",
        "tanggal_daftar": "2021-02-25",
        "nomor_tanda_daftar": "000156.03/DJAI.PSE/02/2021",
        "qr_code": "https://pse.kominfo.go.id/storage/images/qr_code/1724c9abc8c25c7afacad8755e5f752e.png",
        "status_id": "TERDAFTAR",
        "sistem_elektronik_id": 2659
      }
    },
    {
      "type": "tdpseTerbit",
      "id": 176,
      "attributes": {
        "nomor_pb_umku": null,
        "nama": "SST (Secure Sistem of Transmition)",
        "website": "www.syde.co",
        "sektor": "Sektor Teknologi Informasi dan Komunikasi",
        "nama_perusahaan": "SYDECO",
        "tanggal_daftar": "2021-02-25",
        "nomor_tanda_daftar": "000156.02/DJAI.PSE/02/2021",
        "qr_code": "https://pse.kominfo.go.id/storage/images/qr_code/f4c374d5eafed33bb1474ea872daab4c.png",
        "status_id": "TERDAFTAR",
        "sistem_elektronik_id": 2658
      }
    },
    {
      "type": "tdpseTerbit",
      "id": 175,
      "attributes": {
        "nomor_pb_umku": null,
        "nama": "SP-ONE",
        "website": "www.syde.co",
        "sektor": "Sektor Teknologi Informasi dan Komunikasi",
        "nama_perusahaan": "SYDECO",
        "tanggal_daftar": "2021-02-25",
        "nomor_tanda_daftar": "000156.01/DJAI.PSE/02/2021",
        "qr_code": "https://pse.kominfo.go.id/storage/images/qr_code/de426ea429333cae1e60447e266538db.png",
        "status_id": "TERDAFTAR",
        "sistem_elektronik_id": 2657
      }
    },
    {
      "type": "tdpseTerbit",
      "id": 7479,
      "attributes": {
        "nomor_pb_umku": "912030111272600010010",
        "nama": "JFXGRIT",
        "website": "jfxgrit-app.jfx.co.id",
        "sektor": "Sektor Perdagangan",
        "nama_perusahaan": "BULLION ECOSYSTEM INTERNATIONAL",
        "tanggal_daftar": "2022-07-20",
        "nomor_tanda_daftar": "000155.12/DJAI.PSE/07/2022",
        "qr_code": "https://pse.kominfo.go.id/storage/images/qr_code/1f239298aea28b47c2299071d59bbb17.png",
        "status_id": "TERDAFTAR",
        "sistem_elektronik_id": 7386
      }
    },
    {
      "type": "tdpseTerbit",
      "id": 5117,
      "attributes": {
        "nomor_pb_umku": "912030111272600010009",
        "nama": "GOLDEX",
        "website": "goldex.icdx.co.id",
        "sektor": "Sektor Perdagangan",
        "nama_perusahaan": "BULLION ECOSYSTEM INTERNATIONAL",
        "tanggal_daftar": "2022-07-06",
        "nomor_tanda_daftar": "000155.11/DJAI.PSE/07/2022",
        "qr_code": "https://pse.kominfo.go.id/storage/images/qr_code/9a919770c78c283bb7a59b7a904bd163.png",
        "status_id": "TERDAFTAR",
        "sistem_elektronik_id": 4979
      }
    },
    {
      "type": "tdpseTerbit",
      "id": 5009,
      "attributes": {
        "nomor_pb_umku": "912030111272600010008",
        "nama": "GOLDX",
        "website": "goldex.icdx.co.id",
        "sektor": "Sektor Perdagangan",
        "nama_perusahaan": "BULLION ECOSYSTEM INTERNATIONAL",
        "tanggal_daftar": "2022-07-01",
        "nomor_tanda_daftar": "000155.10/DJAI.PSE/07/2022",
        "qr_code": "https://pse.kominfo.go.id/storage/images/qr_code/65457e9b330276b4df46e94624f985f6.png",
        "status_id": "TERDAFTAR",
        "sistem_elektronik_id": 4879
      }
    },
    {
      "type": "tdpseTerbit",
      "id": 5008,
      "attributes": {
        "nomor_pb_umku": "912030111272600010007",
        "nama": "JFXGOLDX",
        "website": "jfxgoldx.jfx.co.id",
        "sektor": "Sektor Perdagangan",
        "nama_perusahaan": "BULLION ECOSYSTEM INTERNATIONAL",
        "tanggal_daftar": "2022-07-01",
        "nomor_tanda_daftar": "000155.09/DJAI.PSE/07/2022",
        "qr_code": "https://pse.kominfo.go.id/storage/images/qr_code/9cd67409d1a7648cbfb18013bf4da071.png",
        "status_id": "TERDAFTAR",
        "sistem_elektronik_id": 4878
      }
    },
    {
      "type": "tdpseTerbit",
      "id": 4972,
      "attributes": {
        "nomor_pb_umku": "912030111272600010006",
        "nama": "METALGO",
        "website": "metalgo.co",
        "sektor": "Sektor Perdagangan",
        "nama_perusahaan": "BULLION ECOSYSTEM INTERNATIONAL",
        "tanggal_daftar": "2022-06-30",
        "nomor_tanda_daftar": "000155.08/DJAI.PSE/06/2022",
        "qr_code": "https://pse.kominfo.go.id/storage/images/qr_code/07b0cd701fdc94eca47d85391a74d3c7.png",
        "status_id": "TERDAFTAR",
        "sistem_elektronik_id": 4840
      }
    },
    {
      "type": "tdpseTerbit",
      "id": 3689,
      "attributes": {
        "nomor_pb_umku": null,
        "nama": "Pospay Gold",
        "website": "https://posgo.id/",
        "sektor": "Sektor Perdagangan",
        "nama_perusahaan": "BULLION ECOSYSTEM INTERNATIONAL",
        "tanggal_daftar": "2022-03-29",
        "nomor_tanda_daftar": "000155.07/DJAI.PSE/03/2022",
        "qr_code": "https://pse.kominfo.go.id/storage/images/qr_code/53e6fe05cd195d606d8b98891459c70c.png",
        "status_id": "TERDAFTAR",
        "sistem_elektronik_id": 3507
      }
    }
  ]
}