{
  "meta": {
    "page": {
      "currentPage": 987,
      "from": 9861,
      "lastPage": 1086,
      "perPage": 10,
      "to": 9870,
      "total": 10851
    }
  },
  "data": [
    {
      "type": "tdpseTerbit",
      "id": 2369,
      "attributes": {
        "nomor_pb_umku": null,
        "nama": "Login RUPIAH CEPAT",
        "website": "https://kufi.rupiahcepatweb.com/login",
        "sektor": "Sektor Keuangan, Sektor Teknologi Informasi dan Komunikasi",
        "nama_perusahaan": "KREDIT UTAMA FINTECH INDONESIA",
        "tanggal_daftar": "2021-11-08",
        "nomor_tanda_daftar": "000536.03/DJAI.PSE/11/2021",
        "qr_code": "https://pse.kominfo.go.id/storage/images/qr_code/98b5eb4b25201de7b24f841cd2c8a60c.png",
        "status_id": "TERDAFTAR",
        "sistem_elektronik_id": 3278
      }
    },
    {
      "type": "tdpseTerbit",
      "id": 1565,
      "attributes": {
        "nomor_pb_umku": null,
        "nama": "SISTEM BACKEND RUPIAH CEPAT",
        "website": "rupiahcepatweb.com",
        "sektor": "Sektor Keuangan, Sektor Teknologi Informasi dan Komunikasi",
        "nama_perusahaan": "KREDIT UTAMA FINTECH INDONESIA",
        "tanggal_daftar": "2021-06-24",
        "nomor_tanda_daftar": "000536.02/DJAI.PSE/06/2021",
        "qr_code": "https://pse.kominfo.go.id/storage/images/qr_code/af1d41563cd6b98ae665564da0bcaa77.png",
        "status_id": "TERDAFTAR",
        "sistem_elektronik_id": 3277
      }
    },
    {
      "type": "tdpseTerbit",
      "id": 658,
      "attributes": {
        "nomor_pb_umku": null,
        "nama": "RUPIAH CEPAT",
        "website": "www.rupiahcepat.co.id",
        "sektor": "Sektor Keuangan, Sektor Teknologi Informasi dan Komunikasi",
        "nama_perusahaan": "KREDIT UTAMA FINTECH INDONESIA",
        "tanggal_daftar": "2021-04-26",
        "nomor_tanda_daftar": "000536.01/DJAI.PSE/04/2021",
        "qr_code": "https://pse.kominfo.go.id/storage/images/qr_code/24c34572a786065807471b29872b8753.png",
        "status_id": "TERDAFTAR",
        "sistem_elektronik_id": 3276
      }
    },
    {
      "type": "tdpseTerbit",
      "id": 657,
      "attributes": {
        "nomor_pb_umku": null,
        "nama": "INDO MART",
        "website": "Http://www.indomart.com",
        "sektor": "Sektor Teknologi Informasi dan Komunikasi",
        "nama_perusahaan": "SIMPAN PINJAM MODAL HIDUP BARU",
        "tanggal_daftar": "2021-04-26",
        "nomor_tanda_daftar": "000535.01/DJAI.PSE/04/2021",
        "qr_code": "https://pse.kominfo.go.id/storage/images/qr_code/ba87e92908a4781ec1eaffb26bca1aef.png",
        "status_id": "TERDAFTAR",
        "sistem_elektronik_id": 3275
      }
    },
    {
      "type": "tdpseTerbit",
      "id": 656,
      "attributes": {
        "nomor_pb_umku": null,
        "nama": "CEKPREMi",
        "website": "https//www.cekpremi.com",
        "sektor": "Sektor Teknologi Informasi dan Komunikasi",
        "nama_perusahaan": "CEKPREMI MITRA PRATAMA",
        "tanggal_daftar": "2021-04-26",
        "nomor_tanda_daftar": "000534.01/DJAI.PSE/04/2021",
        "qr_code": "https://pse.kominfo.go.id/storage/images/qr_code/e8e2ef3c292f55cf7569dda9e8674150.png",
        "status_id": "TERDAFTAR",
        "sistem_elektronik_id": 364
      }
    },
    {
      "type": "tdpseTerbit",
      "id": 655,
      "attributes": {
        "nomor_pb_umku": null,
        "nama": "Minerva",
        "website": "https://www.minerva-global.com",
        "sektor": "Sektor Teknologi Informasi dan Komunikasi",
        "nama_perusahaan": "INTEGRITY INDONESIA",
        "tanggal_daftar": "2021-04-26",
        "nomor_tanda_daftar": "000533.01/DJAI.PSE/04/2021",
        "qr_code": "https://pse.kominfo.go.id/storage/images/qr_code/911f078c5808daa1304f7ae5a2a06a03.png",
        "status_id": "TERDAFTAR",
        "sistem_elektronik_id": 436
      }
    },
    {
      "type": "tdpseTerbit",
      "id": 653,
      "attributes": {
        "nomor_pb_umku": null,
        "nama": "BANDINGIN",
        "website": "https://www.bandingin.com",
        "sektor": "Sektor Teknologi Informasi dan Komunikasi",
        "nama_perusahaan": "SPARK INTEGRATED SOLUTIONS",
        "tanggal_daftar": "2021-04-26",
        "nomor_tanda_daftar": "000532.01/DJAI.PSE/04/2021",
        "qr_code": "https://pse.kominfo.go.id/storage/images/qr_code/4b5fd2c71509dde7803c8bce903bb9c2.png",
        "status_id": "TERDAFTAR",
        "sistem_elektronik_id": 453
      }
    },
    {
      "type": "tdpseTerbit",
      "id": 654,
      "attributes": {
        "nomor_pb_umku": null,
        "nama": "https://www.indopremier.com/",
        "website": "https://www.indopremier.com/",
        "sektor": "Sektor Keuangan",
        "nama_perusahaan": "INDO PREMIER SEKURITAS",
        "tanggal_daftar": "2021-04-26",
        "nomor_tanda_daftar": "000531.02/DJAI.PSE/04/2021",
        "qr_code": "https://pse.kominfo.go.id/storage/images/qr_code/e46d0cb128e4f8f00ccbb92b23533c89.png",
        "status_id": "TERDAFTAR",
        "sistem_elektronik_id": 3274
      }
    },
    {
      "type": "tdpseTerbit",
      "id": 652,
      "attributes": {
        "nomor_pb_umku": null,
        "nama": "IPOT - Investing, News, Education, Financial Plan",
        "website": "https://www.indopremier.com/",
        "sektor": "Sektor Keuangan",
        "nama_perusahaan": "INDO PREMIER SEKURITAS",
        "tanggal_daftar": "2021-04-26",
        "nomor_tanda_daftar": "000531.01/DJAI.PSE/04/2021",
        "qr_code": "https://pse.kominfo.go.id/storage/images/qr_code/5db91d07a1dfebbe69ff8841f757af37.png",
        "status_id": "TERDAFTAR",
        "sistem_elektronik_id": 3273
      }
    },
    {
      "type": "tdpseTerbit",
      "id": 651,
      "attributes": {
        "nomor_pb_umku": null,
        "nama": "SFAST",
        "website": "SFSEKURITAS.CO.ID",
        "sektor": "Sektor Keuangan",
        "nama_perusahaan": "SURYA FAJAR SEKURITAS",
        "tanggal_daftar": "2021-04-26",
        "nomor_tanda_daftar": "000530.01/DJAI.PSE/04/2021",
        "qr_code": "https://pse.kominfo.go.id/storage/images/qr_code/7a87ee3b301a77f0bb143393e5ec35ff.png",
        "status_id": "TERDAFTAR",
        "sistem_elektronik_id": 450
      }
    }
  ]
}