{
  "meta": {
    "page": {
      "currentPage": 989,
      "from": 9881,
      "lastPage": 1059,
      "perPage": 10,
      "to": 9890,
      "total": 10586
    }
  },
  "data": [
    {
      "type": "tdpseTerbit",
      "id": 452,
      "attributes": {
        "nomor_pb_umku": null,
        "nama": "Qlue",
        "website": "https://www.qlue.co.id/",
        "sektor": "Sektor Teknologi Informasi dan Komunikasi",
        "nama_perusahaan": "QLUE PERFORMA INDONESIA",
        "tanggal_daftar": "2021-04-14",
        "nomor_tanda_daftar": "000368.01/DJAI.PSE/04/2021",
        "qr_code": "https://pse.kominfo.go.id/storage/images/qr_code/a7513a6d017f3b733c2eb937da08f2b8.png",
        "status_id": "TERDAFTAR",
        "sistem_elektronik_id": 182
      }
    },
    {
      "type": "tdpseTerbit",
      "id": 451,
      "attributes": {
        "nomor_pb_umku": null,
        "nama": "Duta Sarana Informatika (DSI)",
        "website": "https://dutasaranainformatika.com",
        "sektor": "Sektor Teknologi Informasi dan Komunikasi",
        "nama_perusahaan": "DUTA SARANA INFORMATIKA",
        "tanggal_daftar": "2021-04-14",
        "nomor_tanda_daftar": "000367.01/DJAI.PSE/04/2021",
        "qr_code": "https://pse.kominfo.go.id/storage/images/qr_code/18f3404c8f16a37d6299c8695ecb055e.png",
        "status_id": "TERDAFTAR",
        "sistem_elektronik_id": 260
      }
    },
    {
      "type": "tdpseTerbit",
      "id": 3304,
      "attributes": {
        "nomor_pb_umku": null,
        "nama": "VEGA by Sinarmas MSIG Life",
        "website": "www.sinarmasmsiglife.co.id",
        "sektor": "Sektor Keuangan",
        "nama_perusahaan": "ASURANSI JIWA SINARMAS MSIG",
        "tanggal_daftar": "2022-02-18",
        "nomor_tanda_daftar": "000366.03/DJAI.PSE/02/2022",
        "qr_code": "https://pse.kominfo.go.id/storage/images/qr_code/4e74350c1f32ba748f24ab2b07a3f39c.png",
        "status_id": "TERDAFTAR",
        "sistem_elektronik_id": 2374
      }
    },
    {
      "type": "tdpseTerbit",
      "id": 1637,
      "attributes": {
        "nomor_pb_umku": null,
        "nama": "ORION by PT Asuransi Jiwa Sinarmas MSIG Tbk.",
        "website": "-",
        "sektor": "Sektor Keuangan",
        "nama_perusahaan": "ASURANSI JIWA SINARMAS MSIG",
        "tanggal_daftar": "2021-07-01",
        "nomor_tanda_daftar": "000366.02/DJAI.PSE/07/2021",
        "qr_code": "https://pse.kominfo.go.id/storage/images/qr_code/c70495bddbbb154daf5d3e254541b040.png",
        "status_id": "TERDAFTAR",
        "sistem_elektronik_id": 2373
      }
    },
    {
      "type": "tdpseTerbit",
      "id": 450,
      "attributes": {
        "nomor_pb_umku": null,
        "nama": "Situs Perusahaan (Corporate Website) PT Asuransi Jiwa Sinarmas MSIG Tbk.",
        "website": "https://www.sinarmasmsiglife.co.id/",
        "sektor": "Sektor Keuangan",
        "nama_perusahaan": "ASURANSI JIWA SINARMAS MSIG",
        "tanggal_daftar": "2021-04-14",
        "nomor_tanda_daftar": "000366.01/DJAI.PSE/04/2021",
        "qr_code": "https://pse.kominfo.go.id/storage/images/qr_code/0112d1ca4d947ac65d0bd75f96cfd359.png",
        "status_id": "TERDAFTAR",
        "sistem_elektronik_id": 2372
      }
    },
    {
      "type": "tdpseTerbit",
      "id": 449,
      "attributes": {
        "nomor_pb_umku": null,
        "nama": "iGrow",
        "website": "https://igrow.asia",
        "sektor": "Sektor Keuangan, Sektor Teknologi Informasi dan Komunikasi",
        "nama_perusahaan": "IGROW RESOURCES INDONESIA",
        "tanggal_daftar": "2021-04-14",
        "nomor_tanda_daftar": "000365.01/DJAI.PSE/04/2021",
        "qr_code": "https://pse.kominfo.go.id/storage/images/qr_code/27f358f6e4193245ed18f4685bf85054.png",
        "status_id": "TERDAFTAR",
        "sistem_elektronik_id": 106
      }
    },
    {
      "type": "tdpseTerbit",
      "id": 448,
      "attributes": {
        "nomor_pb_umku": null,
        "nama": "DITOKO DIBELI DIJUAL",
        "website": "https://ditoko.com/",
        "sektor": "Sektor Perdagangan",
        "nama_perusahaan": "DITOKO DIBELI DIJUAL",
        "tanggal_daftar": "2021-04-14",
        "nomor_tanda_daftar": "000364.01/DJAI.PSE/04/2021",
        "qr_code": "https://pse.kominfo.go.id/storage/images/qr_code/8314b3eab3ffa0dae40bc55b0f163753.png",
        "status_id": "TERDAFTAR",
        "sistem_elektronik_id": 3511
      }
    },
    {
      "type": "tdpseTerbit",
      "id": 447,
      "attributes": {
        "nomor_pb_umku": null,
        "nama": "Fundtastic",
        "website": "www.fundtastic.co.id",
        "sektor": "Sektor Keuangan",
        "nama_perusahaan": "CHANDHARWEALTH MANDIRI INDONESIA",
        "tanggal_daftar": "2021-04-14",
        "nomor_tanda_daftar": "000363.01/DJAI.PSE/04/2021",
        "qr_code": "https://pse.kominfo.go.id/storage/images/qr_code/58d4e1b847b644a09ad9b67af6617784.png",
        "status_id": "TERDAFTAR",
        "sistem_elektronik_id": 72
      }
    },
    {
      "type": "tdpseTerbit",
      "id": 6369,
      "attributes": {
        "nomor_pb_umku": "023401102252600020003",
        "nama": "STARME",
        "website": "starmakerstudios.com",
        "sektor": "Sektor Perdagangan, Sektor Teknologi Informasi dan Komunikasi",
        "nama_perusahaan": "KARYA BINTANG TEKNOLOGI",
        "tanggal_daftar": "2022-07-18",
        "nomor_tanda_daftar": "000362.03/DJAI.PSE/07/2022",
        "qr_code": "https://pse.kominfo.go.id/storage/images/qr_code/f9311ca0c7a2a9e785e270c7c5d124f7.png",
        "status_id": "TERDAFTAR",
        "sistem_elektronik_id": 6162
      }
    },
    {
      "type": "tdpseTerbit",
      "id": 5884,
      "attributes": {
        "nomor_pb_umku": "023401102252600020002",
        "nama": "STARFM",
        "website": "starfm.app",
        "sektor": "Sektor Perdagangan, Sektor Teknologi Informasi dan Komunikasi",
        "nama_perusahaan": "KARYA BINTANG TEKNOLOGI",
        "tanggal_daftar": "2022-07-15",
        "nomor_tanda_daftar": "000362.02/DJAI.PSE/07/2022",
        "qr_code": "https://pse.kominfo.go.id/storage/images/qr_code/7f825cad4fc928d4ebdd01170224232e.png",
        "status_id": "TERDAFTAR",
        "sistem_elektronik_id": 5722
      }
    }
  ]
}