{
  "meta": {
    "page": {
      "currentPage": 993,
      "from": 9921,
      "lastPage": 1074,
      "perPage": 10,
      "to": 9930,
      "total": 10738
    }
  },
  "data": [
    {
      "type": "tdpseTerbit",
      "id": 540,
      "attributes": {
        "nomor_pb_umku": null,
        "nama": "OTTOPAY",
        "website": "www.ottopay.id",
        "sektor": "Sektor Keuangan",
        "nama_perusahaan": "REKSA TRANSAKSI SUKSES MAKMUR",
        "tanggal_daftar": "2021-04-26",
        "nomor_tanda_daftar": "000440.01/DJAI.PSE/04/2021",
        "qr_code": "https://pse.kominfo.go.id/storage/images/qr_code/38acafeda4ac9715fa6f8a0421b3fbb3.png",
        "status_id": "TERDAFTAR",
        "sistem_elektronik_id": 3530
      }
    },
    {
      "type": "tdpseTerbit",
      "id": 539,
      "attributes": {
        "nomor_pb_umku": null,
        "nama": "Danafix",
        "website": "https://danafix.id",
        "sektor": "Sektor Keuangan",
        "nama_perusahaan": "DANAFIX ONLINE INDONESIA",
        "tanggal_daftar": "2021-04-26",
        "nomor_tanda_daftar": "000439.01/DJAI.PSE/04/2021",
        "qr_code": "https://pse.kominfo.go.id/storage/images/qr_code/b916d0e67c8dbf83892c74c2a819f1da.png",
        "status_id": "TERDAFTAR",
        "sistem_elektronik_id": 287
      }
    },
    {
      "type": "tdpseTerbit",
      "id": 538,
      "attributes": {
        "nomor_pb_umku": null,
        "nama": "1) Spots (Layanan Payment Gateway); 2) Gobiz (Layanan Manajemen Kasir)",
        "website": "1) https://spots.co.id/; 2) https://gobiz.co.id/",
        "sektor": "Sektor Keuangan",
        "nama_perusahaan": "MULTI ADIPRAKARSA MANUNGGAL",
        "tanggal_daftar": "2021-04-26",
        "nomor_tanda_daftar": "000438.01/DJAI.PSE/04/2021",
        "qr_code": "https://pse.kominfo.go.id/storage/images/qr_code/d90d50244b565cf41d06e06879f2e619.png",
        "status_id": "TERDAFTAR",
        "sistem_elektronik_id": 2743
      }
    },
    {
      "type": "tdpseTerbit",
      "id": 562,
      "attributes": {
        "nomor_pb_umku": null,
        "nama": "SIPLAH",
        "website": "-",
        "sektor": "Sektor Perdagangan",
        "nama_perusahaan": "FIA KURNIA GRUP",
        "tanggal_daftar": "2021-04-26",
        "nomor_tanda_daftar": "000437.03/DJAI.PSE/04/2021",
        "qr_code": "https://pse.kominfo.go.id/storage/images/qr_code/324debd73536c7e03be5501a50558e32.png",
        "status_id": "TERDAFTAR",
        "sistem_elektronik_id": 370
      }
    },
    {
      "type": "tdpseTerbit",
      "id": 543,
      "attributes": {
        "nomor_pb_umku": null,
        "nama": "SIPLAH KEMENDIKBUD",
        "website": "-",
        "sektor": "Sektor Perdagangan",
        "nama_perusahaan": "FIA KURNIA GRUP",
        "tanggal_daftar": "2021-04-26",
        "nomor_tanda_daftar": "000437.02/DJAI.PSE/04/2021",
        "qr_code": "https://pse.kominfo.go.id/storage/images/qr_code/11b2870191dab73c75904ca7d326136a.png",
        "status_id": "TERDAFTAR",
        "sistem_elektronik_id": 369
      }
    },
    {
      "type": "tdpseTerbit",
      "id": 537,
      "attributes": {
        "nomor_pb_umku": null,
        "nama": "siplah",
        "website": "-",
        "sektor": "Sektor Perdagangan",
        "nama_perusahaan": "FIA KURNIA GRUP",
        "tanggal_daftar": "2021-04-26",
        "nomor_tanda_daftar": "000437.01/DJAI.PSE/04/2021",
        "qr_code": "https://pse.kominfo.go.id/storage/images/qr_code/f76cb94097cb792509a46b5cb4398bb7.png",
        "status_id": "TERDAFTAR",
        "sistem_elektronik_id": 368
      }
    },
    {
      "type": "tdpseTerbit",
      "id": 536,
      "attributes": {
        "nomor_pb_umku": null,
        "nama": "bizhare",
        "website": "www.bizhare.id",
        "sektor": "Sektor Keuangan, Sektor Teknologi Informasi dan Komunikasi",
        "nama_perusahaan": "INVESTASI DIGITAL NUSANTARA",
        "tanggal_daftar": "2021-04-26",
        "nomor_tanda_daftar": "000436.01/DJAI.PSE/04/2021",
        "qr_code": "https://pse.kominfo.go.id/storage/images/qr_code/21ef6717dacc8f40ee1405839444c515.png",
        "status_id": "TERDAFTAR",
        "sistem_elektronik_id": 304
      }
    },
    {
      "type": "tdpseTerbit",
      "id": 1881,
      "attributes": {
        "nomor_pb_umku": null,
        "nama": "Ai Care",
        "website": "www.ai-care.id",
        "sektor": "Sektor Kesehatan, Sektor Perdagangan, Sektor Teknologi Informasi dan Komunikasi",
        "nama_perusahaan": "ATMATECH GLOBAL INFORMATIKA",
        "tanggal_daftar": "2021-08-16",
        "nomor_tanda_daftar": "000435.02/DJAI.PSE/08/2021",
        "qr_code": "https://pse.kominfo.go.id/storage/images/qr_code/9188c65c6ec690bf419ee5cc9f3c81b4.png",
        "status_id": "TERDAFTAR",
        "sistem_elektronik_id": 293
      }
    },
    {
      "type": "tdpseTerbit",
      "id": 535,
      "attributes": {
        "nomor_pb_umku": null,
        "nama": "NETRAY",
        "website": "Netray.id",
        "sektor": "Sektor Teknologi Informasi dan Komunikasi",
        "nama_perusahaan": "ATMATECH GLOBAL INFORMATIKA",
        "tanggal_daftar": "2021-04-26",
        "nomor_tanda_daftar": "000435.01/DJAI.PSE/04/2021",
        "qr_code": "https://pse.kominfo.go.id/storage/images/qr_code/fb1d575dda0233e815cb997e12ba4504.png",
        "status_id": "TERDAFTAR",
        "sistem_elektronik_id": 292
      }
    },
    {
      "type": "tdpseTerbit",
      "id": 534,
      "attributes": {
        "nomor_pb_umku": null,
        "nama": "Callink",
        "website": "www.callink.id",
        "sektor": "Sektor Teknologi Informasi dan Komunikasi",
        "nama_perusahaan": "DIGITAL SEKURITI INDONESIA",
        "tanggal_daftar": "2021-04-26",
        "nomor_tanda_daftar": "000434.01/DJAI.PSE/04/2021",
        "qr_code": "https://pse.kominfo.go.id/storage/images/qr_code/7356b4fc01669518282f0005f899300e.png",
        "status_id": "TERDAFTAR",
        "sistem_elektronik_id": 255
      }
    }
  ]
}