{
  "meta": {
    "page": {
      "currentPage": 994,
      "from": 9931,
      "lastPage": 1047,
      "perPage": 10,
      "to": 9940,
      "total": 10470
    }
  },
  "data": [
    {
      "type": "tdpseTerbit",
      "id": 363,
      "attributes": {
        "nomor_pb_umku": null,
        "nama": "Melindungi Impian",
        "website": "www.pfimegalife.co.id",
        "sektor": "Sektor Keuangan",
        "nama_perusahaan": "PFI MEGA LIFE INSURANCE",
        "tanggal_daftar": "2021-03-10",
        "nomor_tanda_daftar": "000296.01/DJAI.PSE/03/2021",
        "qr_code": "https://pse.kominfo.go.id/storage/images/qr_code/e368a26f20b03b8424f8c2341cb96784.png",
        "status_id": "TERDAFTAR",
        "sistem_elektronik_id": 112
      }
    },
    {
      "type": "tdpseTerbit",
      "id": 362,
      "attributes": {
        "nomor_pb_umku": null,
        "nama": "Chatat",
        "website": "https://chatat.id",
        "sektor": "Sektor Teknologi Informasi dan Komunikasi",
        "nama_perusahaan": "AZARA DIGITAL INDONESIARAYA",
        "tanggal_daftar": "2021-03-10",
        "nomor_tanda_daftar": "000295.01/DJAI.PSE/03/2021",
        "qr_code": "https://pse.kominfo.go.id/storage/images/qr_code/68998e9cc859af468fdf534fc478ea11.png",
        "status_id": "TERDAFTAR",
        "sistem_elektronik_id": 84
      }
    },
    {
      "type": "tdpseTerbit",
      "id": 5715,
      "attributes": {
        "nomor_pb_umku": "912011108157400020005",
        "nama": "SKYLAR",
        "website": "skylar.id",
        "sektor": "Sektor Perdagangan",
        "nama_perusahaan": "SALVUS INTI",
        "tanggal_daftar": "2022-07-15",
        "nomor_tanda_daftar": "000294.07/DJAI.PSE/07/2022",
        "qr_code": "https://pse.kominfo.go.id/storage/images/qr_code/57a9f87d736736e243030c5d31ded822.png",
        "status_id": "TERDAFTAR",
        "sistem_elektronik_id": 5579
      }
    },
    {
      "type": "tdpseTerbit",
      "id": 5710,
      "attributes": {
        "nomor_pb_umku": "912011108157400020004",
        "nama": "MOMENTIC BUSINESS",
        "website": "momentic.salvus.id",
        "sektor": "Sektor Teknologi Informasi dan Komunikasi",
        "nama_perusahaan": "SALVUS INTI",
        "tanggal_daftar": "2022-07-15",
        "nomor_tanda_daftar": "000294.06/DJAI.PSE/07/2022",
        "qr_code": "https://pse.kominfo.go.id/storage/images/qr_code/7f2dde213cc99546bb55090737369ba4.png",
        "status_id": "TERDAFTAR",
        "sistem_elektronik_id": 5572
      }
    },
    {
      "type": "tdpseTerbit",
      "id": 3395,
      "attributes": {
        "nomor_pb_umku": null,
        "nama": "SPECTRUM",
        "website": "spectrum.salvusnetwork.com",
        "sektor": "Sektor Teknologi Informasi dan Komunikasi",
        "nama_perusahaan": "SALVUS INTI",
        "tanggal_daftar": "2022-02-25",
        "nomor_tanda_daftar": "000294.05/DJAI.PSE/02/2022",
        "qr_code": "https://pse.kominfo.go.id/storage/images/qr_code/7939cacbfc158a0b3b7dc1de76109845.png",
        "status_id": "TERDAFTAR",
        "sistem_elektronik_id": 3182
      }
    },
    {
      "type": "tdpseTerbit",
      "id": 3394,
      "attributes": {
        "nomor_pb_umku": null,
        "nama": "ZAP",
        "website": "-",
        "sektor": "Sektor Perdagangan",
        "nama_perusahaan": "SALVUS INTI",
        "tanggal_daftar": "2022-02-25",
        "nomor_tanda_daftar": "000294.04/DJAI.PSE/02/2022",
        "qr_code": "https://pse.kominfo.go.id/storage/images/qr_code/0b5ee8d56769e808d17d8a3f3242b630.png",
        "status_id": "TERDAFTAR",
        "sistem_elektronik_id": 3181
      }
    },
    {
      "type": "tdpseTerbit",
      "id": 418,
      "attributes": {
        "nomor_pb_umku": null,
        "nama": "Sprint",
        "website": "-",
        "sektor": "Sektor Perdagangan",
        "nama_perusahaan": "SALVUS INTI",
        "tanggal_daftar": "2021-04-09",
        "nomor_tanda_daftar": "000294.03/DJAI.PSE/04/2021",
        "qr_code": "https://pse.kominfo.go.id/storage/images/qr_code/ffe96a1d9517b1041552b1eb94f62bf5.png",
        "status_id": "TERDAFTAR",
        "sistem_elektronik_id": 91
      }
    },
    {
      "type": "tdpseTerbit",
      "id": 367,
      "attributes": {
        "nomor_pb_umku": null,
        "nama": "Vitamin Mobil",
        "website": "vitaminmobil.id",
        "sektor": "Sektor Perdagangan",
        "nama_perusahaan": "SALVUS INTI",
        "tanggal_daftar": "2021-03-15",
        "nomor_tanda_daftar": "000294.02/DJAI.PSE/03/2021",
        "qr_code": "https://pse.kominfo.go.id/storage/images/qr_code/e97c01e661006f6f1ce99379a42e6d2c.png",
        "status_id": "TERDAFTAR",
        "sistem_elektronik_id": 90
      }
    },
    {
      "type": "tdpseTerbit",
      "id": 356,
      "attributes": {
        "nomor_pb_umku": null,
        "nama": "Salvusmart",
        "website": "salvusmart.id",
        "sektor": "Sektor Perdagangan",
        "nama_perusahaan": "SALVUS INTI",
        "tanggal_daftar": "2021-03-09",
        "nomor_tanda_daftar": "000294.01/DJAI.PSE/03/2021",
        "qr_code": "https://pse.kominfo.go.id/storage/images/qr_code/cb8469dc08662e4883c26ecfbbc1201c.png",
        "status_id": "TERDAFTAR",
        "sistem_elektronik_id": 89
      }
    },
    {
      "type": "tdpseTerbit",
      "id": 355,
      "attributes": {
        "nomor_pb_umku": null,
        "nama": "Tataskola.id",
        "website": "https://tatskola.id",
        "sektor": "Sektor Keuangan, Sektor Teknologi Informasi dan Komunikasi",
        "nama_perusahaan": "TATASKOLA TEKNOLOGI INDONESIA",
        "tanggal_daftar": "2021-03-09",
        "nomor_tanda_daftar": "000293.01/DJAI.PSE/03/2021",
        "qr_code": "https://pse.kominfo.go.id/storage/images/qr_code/a32ba4ba023584b55e92576c57ca6d65.png",
        "status_id": "TERDAFTAR",
        "sistem_elektronik_id": 5
      }
    }
  ]
}