{
  "meta": {
    "page": {
      "currentPage": 995,
      "from": 9941,
      "lastPage": 1025,
      "perPage": 10,
      "to": 9950,
      "total": 10245
    }
  },
  "data": [
    {
      "type": "tdpseTerbit",
      "id": 195,
      "attributes": {
        "nomor_pb_umku": null,
        "nama": "Dana Harapan",
        "website": "-",
        "sektor": "Sektor Keuangan",
        "nama_perusahaan": "KOMISI ORION TERAPAN ERGONOMIS",
        "tanggal_daftar": "2021-02-25",
        "nomor_tanda_daftar": "000170.01/DJAI.PSE/02/2021",
        "qr_code": "https://pse.kominfo.go.id/storage/images/qr_code/b13fe2d334768d2b50580c3bab2a94db.png",
        "status_id": "TERDAFTAR",
        "sistem_elektronik_id": 2672
      }
    },
    {
      "type": "tdpseTerbit",
      "id": 194,
      "attributes": {
        "nomor_pb_umku": null,
        "nama": "Stripe Payments Indonesia",
        "website": "stripeindonesia.id",
        "sektor": "Sektor Teknologi Informasi dan Komunikasi",
        "nama_perusahaan": "STRIPE PAYMENTS INDONESIA",
        "tanggal_daftar": "2021-02-25",
        "nomor_tanda_daftar": "000169.01/DJAI.PSE/02/2021",
        "qr_code": "https://pse.kominfo.go.id/storage/images/qr_code/cc7f92f7c23d7e67322b2dd4e706e721.png",
        "status_id": "TERDAFTAR",
        "sistem_elektronik_id": 2555
      }
    },
    {
      "type": "tdpseTerbit",
      "id": 755,
      "attributes": {
        "nomor_pb_umku": null,
        "nama": "https://www.floweradvisor.co.id/",
        "website": "https://www.floweradvisor.co.id/",
        "sektor": "Sektor Perdagangan",
        "nama_perusahaan": "ALDMIC TECHNOLOGY INDONESIA",
        "tanggal_daftar": "2021-05-07",
        "nomor_tanda_daftar": "000168.02/DJAI.PSE/05/2021",
        "qr_code": "https://pse.kominfo.go.id/storage/images/qr_code/6041b2a5841a105e2d9c55db48c4591f.png",
        "status_id": "TERDAFTAR",
        "sistem_elektronik_id": 2353
      }
    },
    {
      "type": "tdpseTerbit",
      "id": 193,
      "attributes": {
        "nomor_pb_umku": null,
        "nama": "Aldmic.com",
        "website": "www.aldmic.com",
        "sektor": "Sektor Perdagangan",
        "nama_perusahaan": "ALDMIC TECHNOLOGY INDONESIA",
        "tanggal_daftar": "2021-02-25",
        "nomor_tanda_daftar": "000168.01/DJAI.PSE/02/2021",
        "qr_code": "https://pse.kominfo.go.id/storage/images/qr_code/309d9a846dc658100fe9aa4756eaa76e.png",
        "status_id": "TERDAFTAR",
        "sistem_elektronik_id": 2352
      }
    },
    {
      "type": "tdpseTerbit",
      "id": 191,
      "attributes": {
        "nomor_pb_umku": null,
        "nama": "birucreative.com",
        "website": "https://www.birucreative.com",
        "sektor": "Sektor Perdagangan",
        "nama_perusahaan": "BIRUNI DIGITAL KREATIF",
        "tanggal_daftar": "2021-02-25",
        "nomor_tanda_daftar": "000167.01/DJAI.PSE/02/2021",
        "qr_code": "https://pse.kominfo.go.id/storage/images/qr_code/e1d09d15b13516be1949fa63b2c5d6e1.png",
        "status_id": "TERDAFTAR",
        "sistem_elektronik_id": 2553
      }
    },
    {
      "type": "tdpseTerbit",
      "id": 190,
      "attributes": {
        "nomor_pb_umku": null,
        "nama": "www.gcoop.co.id",
        "website": "www.gcoop.co.id",
        "sektor": "Sektor Perdagangan",
        "nama_perusahaan": "GCOOP GLOBAL INDONESIA",
        "tanggal_daftar": "2021-02-25",
        "nomor_tanda_daftar": "000166.01/DJAI.PSE/02/2021",
        "qr_code": "https://pse.kominfo.go.id/storage/images/qr_code/da5d961d726f9bd11bf6e48a68b1d83f.png",
        "status_id": "TERDAFTAR",
        "sistem_elektronik_id": 2630
      }
    },
    {
      "type": "tdpseTerbit",
      "id": 189,
      "attributes": {
        "nomor_pb_umku": null,
        "nama": "Mamikos",
        "website": "https://mamikos.co.id",
        "sektor": "Sektor Teknologi Informasi dan Komunikasi",
        "nama_perusahaan": "GIT GOW AYO",
        "tanggal_daftar": "2021-02-25",
        "nomor_tanda_daftar": "000165.01/DJAI.PSE/02/2021",
        "qr_code": "https://pse.kominfo.go.id/storage/images/qr_code/5567bba2f952c552eb47d528995280bc.png",
        "status_id": "TERDAFTAR",
        "sistem_elektronik_id": 2380
      }
    },
    {
      "type": "tdpseTerbit",
      "id": 221,
      "attributes": {
        "nomor_pb_umku": null,
        "nama": "Prudential Corporate Website",
        "website": "https://prudential.co.id",
        "sektor": "Sektor Keuangan",
        "nama_perusahaan": "PRUDENTIAL LIFE ASSURANCE",
        "tanggal_daftar": "2021-02-25",
        "nomor_tanda_daftar": "000164.07/DJAI.PSE/02/2021",
        "qr_code": "https://pse.kominfo.go.id/storage/images/qr_code/c427cc810aeac5709b2f56d18ba0e94f.png",
        "status_id": "TERDAFTAR",
        "sistem_elektronik_id": 2449
      }
    },
    {
      "type": "tdpseTerbit",
      "id": 220,
      "attributes": {
        "nomor_pb_umku": null,
        "nama": "PRUFast",
        "website": "-",
        "sektor": "Sektor Keuangan",
        "nama_perusahaan": "PRUDENTIAL LIFE ASSURANCE",
        "tanggal_daftar": "2021-02-25",
        "nomor_tanda_daftar": "000164.06/DJAI.PSE/02/2021",
        "qr_code": "https://pse.kominfo.go.id/storage/images/qr_code/461b2ca1ade89acd0a86ce908a438b0f.png",
        "status_id": "TERDAFTAR",
        "sistem_elektronik_id": 2448
      }
    },
    {
      "type": "tdpseTerbit",
      "id": 218,
      "attributes": {
        "nomor_pb_umku": null,
        "nama": "PRUForce",
        "website": "-",
        "sektor": "Sektor Keuangan",
        "nama_perusahaan": "PRUDENTIAL LIFE ASSURANCE",
        "tanggal_daftar": "2021-02-25",
        "nomor_tanda_daftar": "000164.05/DJAI.PSE/02/2021",
        "qr_code": "https://pse.kominfo.go.id/storage/images/qr_code/6a8168883f6394fff2d3532e802f273c.png",
        "status_id": "TERDAFTAR",
        "sistem_elektronik_id": 2447
      }
    }
  ]
}