{
  "meta": {
    "page": {
      "currentPage": 996,
      "from": 9951,
      "lastPage": 1070,
      "perPage": 10,
      "to": 9960,
      "total": 10698
    }
  },
  "data": [
    {
      "type": "tdpseTerbit",
      "id": 490,
      "attributes": {
        "nomor_pb_umku": null,
        "nama": "OTTO",
        "website": "www.ottocash.id",
        "sektor": "Sektor Teknologi Informasi dan Komunikasi",
        "nama_perusahaan": "TRANSAKSI ARTHA GEMILANG",
        "tanggal_daftar": "2021-04-20",
        "nomor_tanda_daftar": "000398.01/DJAI.PSE/04/2021",
        "qr_code": "https://pse.kominfo.go.id/storage/images/qr_code/486655cb86f644126b464bc9446efcfb.png",
        "status_id": "TERDAFTAR",
        "sistem_elektronik_id": 3519
      }
    },
    {
      "type": "tdpseTerbit",
      "id": 493,
      "attributes": {
        "nomor_pb_umku": null,
        "nama": "Aplikasi Kawan K-Vision",
        "website": "-",
        "sektor": "Sektor Teknologi Informasi dan Komunikasi",
        "nama_perusahaan": "DIGITAL VISION NUSANTARA",
        "tanggal_daftar": "2021-04-20",
        "nomor_tanda_daftar": "000397.02/DJAI.PSE/04/2021",
        "qr_code": "https://pse.kominfo.go.id/storage/images/qr_code/b6cad99e3396d929359896cc68850a01.png",
        "status_id": "TERDAFTAR",
        "sistem_elektronik_id": 3518
      }
    },
    {
      "type": "tdpseTerbit",
      "id": 489,
      "attributes": {
        "nomor_pb_umku": null,
        "nama": "Website Portal K-Vision",
        "website": "www.k-vision,tv",
        "sektor": "Sektor Teknologi Informasi dan Komunikasi",
        "nama_perusahaan": "DIGITAL VISION NUSANTARA",
        "tanggal_daftar": "2021-04-20",
        "nomor_tanda_daftar": "000397.01/DJAI.PSE/04/2021",
        "qr_code": "https://pse.kominfo.go.id/storage/images/qr_code/498ccae61428945ec6500738de90d57d.png",
        "status_id": "TERDAFTAR",
        "sistem_elektronik_id": 3517
      }
    },
    {
      "type": "tdpseTerbit",
      "id": 1359,
      "attributes": {
        "nomor_pb_umku": null,
        "nama": "Aplikasi McDonald’s",
        "website": "http://www.plexure.com/",
        "sektor": "Sektor Perdagangan",
        "nama_perusahaan": "REKSO NASIONAL FOOD",
        "tanggal_daftar": "2021-06-02",
        "nomor_tanda_daftar": "000396.05/DJAI.PSE/06/2021",
        "qr_code": "https://pse.kominfo.go.id/storage/images/qr_code/430065a88236f0e172bd6eef7801904e.png",
        "status_id": "TERDAFTAR",
        "sistem_elektronik_id": 309
      }
    },
    {
      "type": "tdpseTerbit",
      "id": 752,
      "attributes": {
        "nomor_pb_umku": null,
        "nama": "mcdonalds.co.id",
        "website": "https://mcdonalds.co.id",
        "sektor": "Sektor Perdagangan",
        "nama_perusahaan": "REKSO NASIONAL FOOD",
        "tanggal_daftar": "2021-05-07",
        "nomor_tanda_daftar": "000396.04/DJAI.PSE/05/2021",
        "qr_code": "https://pse.kominfo.go.id/storage/images/qr_code/604e40be2a8bcaed2d2dcb4a2a6f24b0.png",
        "status_id": "TERDAFTAR",
        "sistem_elektronik_id": 308
      }
    },
    {
      "type": "tdpseTerbit",
      "id": 714,
      "attributes": {
        "nomor_pb_umku": null,
        "nama": "Hi RNF",
        "website": "-",
        "sektor": "Sektor Perdagangan",
        "nama_perusahaan": "REKSO NASIONAL FOOD",
        "tanggal_daftar": "2021-04-26",
        "nomor_tanda_daftar": "000396.03/DJAI.PSE/04/2021",
        "qr_code": "https://pse.kominfo.go.id/storage/images/qr_code/64d883eef2ecce2ee946a301b4df3330.png",
        "status_id": "TERDAFTAR",
        "sistem_elektronik_id": 307
      }
    },
    {
      "type": "tdpseTerbit",
      "id": 488,
      "attributes": {
        "nomor_pb_umku": null,
        "nama": "Online Order for McDonald’s Indonesia Food Product (Aplikasi)",
        "website": "-",
        "sektor": "Sektor Perdagangan",
        "nama_perusahaan": "REKSO NASIONAL FOOD",
        "tanggal_daftar": "2021-04-20",
        "nomor_tanda_daftar": "000396.02/DJAI.PSE/04/2021",
        "qr_code": "https://pse.kominfo.go.id/storage/images/qr_code/3b6962a0459b3ee418704a3fcf0565a9.png",
        "status_id": "TERDAFTAR",
        "sistem_elektronik_id": 306
      }
    },
    {
      "type": "tdpseTerbit",
      "id": 487,
      "attributes": {
        "nomor_pb_umku": null,
        "nama": "Online Order for McDonald’s Indonesia Food Product (Website)",
        "website": "https://www.mcdelivery.co.id",
        "sektor": "Sektor Perdagangan",
        "nama_perusahaan": "REKSO NASIONAL FOOD",
        "tanggal_daftar": "2021-04-20",
        "nomor_tanda_daftar": "000396.01/DJAI.PSE/04/2021",
        "qr_code": "https://pse.kominfo.go.id/storage/images/qr_code/fd2d62692fe48d1ac2adc7d5b51b748b.png",
        "status_id": "TERDAFTAR",
        "sistem_elektronik_id": 305
      }
    },
    {
      "type": "tdpseTerbit",
      "id": 486,
      "attributes": {
        "nomor_pb_umku": null,
        "nama": "V-Tax",
        "website": "https://v-tax.id/",
        "sektor": "Sektor Teknologi Informasi dan Komunikasi",
        "nama_perusahaan": "MUTIARA BINTANG ABADI",
        "tanggal_daftar": "2021-04-20",
        "nomor_tanda_daftar": "000395.01/DJAI.PSE/04/2021",
        "qr_code": "https://pse.kominfo.go.id/storage/images/qr_code/8ff1b72ae127b801a69bb48c4b1de80d.png",
        "status_id": "TERDAFTAR",
        "sistem_elektronik_id": 312
      }
    },
    {
      "type": "tdpseTerbit",
      "id": 4600,
      "attributes": {
        "nomor_pb_umku": null,
        "nama": "DANA",
        "website": "dana.id",
        "sektor": "Sektor Keuangan",
        "nama_perusahaan": "ESPAY DEBIT INDONESIA KOE",
        "tanggal_daftar": "2021-04-20",
        "nomor_tanda_daftar": "000394.01/DJAI.PSE/04/2021",
        "qr_code": "https://pse.kominfo.go.id/storage/images/qr_code/a8bc2d3e88cf73c7acdd50a65f2685b0.png",
        "status_id": "TERDAFTAR",
        "sistem_elektronik_id": 4563
      }
    }
  ]
}