{
  "meta": {
    "page": {
      "currentPage": 998,
      "from": 9971,
      "lastPage": 1085,
      "perPage": 10,
      "to": 9980,
      "total": 10842
    }
  },
  "data": [
    {
      "type": "tdpseTerbit",
      "id": 1433,
      "attributes": {
        "nomor_pb_umku": null,
        "nama": "L'OREAL INDONESIA ONLINE STORE",
        "website": "www.lancome.co.id",
        "sektor": "Sektor Perdagangan",
        "nama_perusahaan": "L`OREAL INDONESIA",
        "tanggal_daftar": "2021-06-09",
        "nomor_tanda_daftar": "000473.02/DJAI.PSE/06/2021",
        "qr_code": "https://pse.kominfo.go.id/storage/images/qr_code/3aae7db0066db7966cfb05bd45e221c4.png",
        "status_id": "TERDAFTAR",
        "sistem_elektronik_id": 180
      }
    },
    {
      "type": "tdpseTerbit",
      "id": 579,
      "attributes": {
        "nomor_pb_umku": null,
        "nama": "L'OREAL INDONESIA ONLINE STORE",
        "website": "www.kiehls.co.id",
        "sektor": "Sektor Perdagangan",
        "nama_perusahaan": "L`OREAL INDONESIA",
        "tanggal_daftar": "2021-04-26",
        "nomor_tanda_daftar": "000473.01/DJAI.PSE/04/2021",
        "qr_code": "https://pse.kominfo.go.id/storage/images/qr_code/9ad8719ccd1993f793aa37bd68d17748.png",
        "status_id": "TERDAFTAR",
        "sistem_elektronik_id": 179
      }
    },
    {
      "type": "tdpseTerbit",
      "id": 1782,
      "attributes": {
        "nomor_pb_umku": null,
        "nama": "AegisPOC",
        "website": "-",
        "sektor": "Sektor Kesehatan",
        "nama_perusahaan": "ALERE HEALTH",
        "tanggal_daftar": "2021-07-27",
        "nomor_tanda_daftar": "000472.02/DJAI.PSE/07/2021",
        "qr_code": "https://pse.kominfo.go.id/storage/images/qr_code/07bc76b5206235c09ea18a6b3068f395.png",
        "status_id": "TERDAFTAR",
        "sistem_elektronik_id": 127
      }
    },
    {
      "type": "tdpseTerbit",
      "id": 578,
      "attributes": {
        "nomor_pb_umku": null,
        "nama": "Sympheos",
        "website": "Sympheos.abbott.com",
        "sektor": "Sektor Kesehatan",
        "nama_perusahaan": "ALERE HEALTH",
        "tanggal_daftar": "2021-04-26",
        "nomor_tanda_daftar": "000472.01/DJAI.PSE/04/2021",
        "qr_code": "https://pse.kominfo.go.id/storage/images/qr_code/c715091b579b1b6f02e87f3f3e4dcccf.png",
        "status_id": "TERDAFTAR",
        "sistem_elektronik_id": 126
      }
    },
    {
      "type": "tdpseTerbit",
      "id": 577,
      "attributes": {
        "nomor_pb_umku": null,
        "nama": "SolusiKita",
        "website": "www.jayindo.id",
        "sektor": "Sektor Keuangan",
        "nama_perusahaan": "JAYINDO FINTEK PRATAMA",
        "tanggal_daftar": "2021-04-26",
        "nomor_tanda_daftar": "000471.01/DJAI.PSE/04/2021",
        "qr_code": "https://pse.kominfo.go.id/storage/images/qr_code/4d1666291b927822523b74279c60c7b9.png",
        "status_id": "TERDAFTAR",
        "sistem_elektronik_id": 395
      }
    },
    {
      "type": "tdpseTerbit",
      "id": 953,
      "attributes": {
        "nomor_pb_umku": null,
        "nama": "Tri Website",
        "website": "http://www.tri.co.id",
        "sektor": "Sektor Perdagangan, Sektor Teknologi Informasi dan Komunikasi",
        "nama_perusahaan": "HUTCHISON 3 INDONESIA",
        "tanggal_daftar": "2021-05-11",
        "nomor_tanda_daftar": "000470.02/DJAI.PSE/05/2021",
        "qr_code": "https://pse.kominfo.go.id/storage/images/qr_code/bbeafedd7caa6a012f99e619d3120bde.png",
        "status_id": "TERDAFTAR",
        "sistem_elektronik_id": 2360
      }
    },
    {
      "type": "tdpseTerbit",
      "id": 576,
      "attributes": {
        "nomor_pb_umku": null,
        "nama": "bima+",
        "website": "mytri.tri.co.id, bima.tri.co.id, my.tri.co.id, internet.tri.co.id, bimaplus.tri.co.id",
        "sektor": "Sektor Perdagangan, Sektor Teknologi Informasi dan Komunikasi",
        "nama_perusahaan": "HUTCHISON 3 INDONESIA",
        "tanggal_daftar": "2021-04-26",
        "nomor_tanda_daftar": "000470.01/DJAI.PSE/04/2021",
        "qr_code": "https://pse.kominfo.go.id/storage/images/qr_code/dd19794246908b456e898db71beb666d.png",
        "status_id": "TERDAFTAR",
        "sistem_elektronik_id": 2359
      }
    },
    {
      "type": "tdpseTerbit",
      "id": 575,
      "attributes": {
        "nomor_pb_umku": null,
        "nama": "paydollar.co.id",
        "website": "https://www.paydollar.co.id/",
        "sektor": "Sektor Keuangan",
        "nama_perusahaan": "ASIAPAY TECHNOLOGY INDONESIA",
        "tanggal_daftar": "2021-04-26",
        "nomor_tanda_daftar": "000469.01/DJAI.PSE/04/2021",
        "qr_code": "https://pse.kominfo.go.id/storage/images/qr_code/ab79fca7c7200dde8cea36deb8cc2c7e.png",
        "status_id": "TERDAFTAR",
        "sistem_elektronik_id": 2560
      }
    },
    {
      "type": "tdpseTerbit",
      "id": 2828,
      "attributes": {
        "nomor_pb_umku": null,
        "nama": "Boost",
        "website": "myboost.co.id",
        "sektor": "Sektor Keuangan",
        "nama_perusahaan": "CREATIVE MOBILE ADVENTURE",
        "tanggal_daftar": "2021-12-21",
        "nomor_tanda_daftar": "000468.02/DJAI.PSE/12/2021",
        "qr_code": "https://pse.kominfo.go.id/storage/images/qr_code/c1f816369dd8500dd3a46efc76a5b488.png",
        "status_id": "TERDAFTAR",
        "sistem_elektronik_id": 2800
      }
    },
    {
      "type": "tdpseTerbit",
      "id": 574,
      "attributes": {
        "nomor_pb_umku": null,
        "nama": "Aspirasi",
        "website": "aspirasi.co.id",
        "sektor": "Sektor Keuangan",
        "nama_perusahaan": "CREATIVE MOBILE ADVENTURE",
        "tanggal_daftar": "2021-04-26",
        "nomor_tanda_daftar": "000468.01/DJAI.PSE/04/2021",
        "qr_code": "https://pse.kominfo.go.id/storage/images/qr_code/4bf8243acd6a5bd643da5a1db1180023.png",
        "status_id": "TERDAFTAR",
        "sistem_elektronik_id": 2799
      }
    }
  ]
}