{
  "meta": {
    "page": {
      "currentPage": 999,
      "from": 9981,
      "lastPage": 1053,
      "perPage": 10,
      "to": 9990,
      "total": 10528
    }
  },
  "data": [
    {
      "type": "tdpseTerbit",
      "id": 368,
      "attributes": {
        "nomor_pb_umku": null,
        "nama": "QUICKQRIS",
        "website": "quickqris.id",
        "sektor": "Sektor Teknologi Informasi dan Komunikasi",
        "nama_perusahaan": "IDE DEF GHI",
        "tanggal_daftar": "2021-03-15",
        "nomor_tanda_daftar": "000300.01/DJAI.PSE/03/2021",
        "qr_code": "https://pse.kominfo.go.id/storage/images/qr_code/53c8134eba669c4403caffae1180535d.png",
        "status_id": "TERDAFTAR",
        "sistem_elektronik_id": 111
      }
    },
    {
      "type": "tdpseTerbit",
      "id": 366,
      "attributes": {
        "nomor_pb_umku": null,
        "nama": "Viva Apotek",
        "website": "www.vivahealth.co.id",
        "sektor": "Sektor Kesehatan",
        "nama_perusahaan": "SUMBER HIDUP SEHAT",
        "tanggal_daftar": "2021-03-15",
        "nomor_tanda_daftar": "000299.01/DJAI.PSE/03/2021",
        "qr_code": "https://pse.kominfo.go.id/storage/images/qr_code/2444f148aa70104cab027d5f59358dd1.png",
        "status_id": "TERDAFTAR",
        "sistem_elektronik_id": 69
      }
    },
    {
      "type": "tdpseTerbit",
      "id": 365,
      "attributes": {
        "nomor_pb_umku": null,
        "nama": "Bukalapak.com",
        "website": "Bukalapak.com",
        "sektor": "Sektor Teknologi Informasi dan Komunikasi",
        "nama_perusahaan": "BUKALAPAK.COM",
        "tanggal_daftar": "2021-03-10",
        "nomor_tanda_daftar": "000298.01/DJAI.PSE/03/2021",
        "qr_code": "https://pse.kominfo.go.id/storage/images/qr_code/95807d3b2a32229f7d826d7a2c3057a5.png",
        "status_id": "TERDAFTAR",
        "sistem_elektronik_id": 65
      }
    },
    {
      "type": "tdpseTerbit",
      "id": 364,
      "attributes": {
        "nomor_pb_umku": null,
        "nama": "Essenzo",
        "website": "www.essenzo.co.id",
        "sektor": "Sektor Perdagangan",
        "nama_perusahaan": "SINERGI REZEKI ANANTA",
        "tanggal_daftar": "2021-03-10",
        "nomor_tanda_daftar": "000297.01/DJAI.PSE/03/2021",
        "qr_code": "https://pse.kominfo.go.id/storage/images/qr_code/347daa657e2ef7275a9e63d24ee7e9e3.png",
        "status_id": "TERDAFTAR",
        "sistem_elektronik_id": 129
      }
    },
    {
      "type": "tdpseTerbit",
      "id": 9631,
      "attributes": {
        "nomor_pb_umku": "126300034094900010003",
        "nama": "WAY.ID",
        "website": "way.id",
        "sektor": "Sektor Keuangan",
        "nama_perusahaan": "PFI MEGA LIFE INSURANCE",
        "tanggal_daftar": "2022-08-02",
        "nomor_tanda_daftar": "000296.03/DJAI.PSE/08/2022",
        "qr_code": "https://pse.kominfo.go.id/storage/images/qr_code/185474a907258b50502c5b9dbe73bb58.png",
        "status_id": "TERDAFTAR",
        "sistem_elektronik_id": 9522
      }
    },
    {
      "type": "tdpseTerbit",
      "id": 9628,
      "attributes": {
        "nomor_pb_umku": "126300034094900010002",
        "nama": "WAY",
        "website": "way.id",
        "sektor": "Sektor Keuangan",
        "nama_perusahaan": "PFI MEGA LIFE INSURANCE",
        "tanggal_daftar": "2022-08-02",
        "nomor_tanda_daftar": "000296.02/DJAI.PSE/08/2022",
        "qr_code": "https://pse.kominfo.go.id/storage/images/qr_code/2eb69f4d5b8375efd664335222fc49df.png",
        "status_id": "TERDAFTAR",
        "sistem_elektronik_id": 9519
      }
    },
    {
      "type": "tdpseTerbit",
      "id": 363,
      "attributes": {
        "nomor_pb_umku": null,
        "nama": "Melindungi Impian",
        "website": "www.pfimegalife.co.id",
        "sektor": "Sektor Keuangan",
        "nama_perusahaan": "PFI MEGA LIFE INSURANCE",
        "tanggal_daftar": "2021-03-10",
        "nomor_tanda_daftar": "000296.01/DJAI.PSE/03/2021",
        "qr_code": "https://pse.kominfo.go.id/storage/images/qr_code/e368a26f20b03b8424f8c2341cb96784.png",
        "status_id": "TERDAFTAR",
        "sistem_elektronik_id": 112
      }
    },
    {
      "type": "tdpseTerbit",
      "id": 362,
      "attributes": {
        "nomor_pb_umku": null,
        "nama": "Chatat",
        "website": "https://chatat.id",
        "sektor": "Sektor Teknologi Informasi dan Komunikasi",
        "nama_perusahaan": "AZARA DIGITAL INDONESIARAYA",
        "tanggal_daftar": "2021-03-10",
        "nomor_tanda_daftar": "000295.01/DJAI.PSE/03/2021",
        "qr_code": "https://pse.kominfo.go.id/storage/images/qr_code/68998e9cc859af468fdf534fc478ea11.png",
        "status_id": "TERDAFTAR",
        "sistem_elektronik_id": 84
      }
    },
    {
      "type": "tdpseTerbit",
      "id": 5715,
      "attributes": {
        "nomor_pb_umku": "912011108157400020005",
        "nama": "SKYLAR",
        "website": "skylar.id",
        "sektor": "Sektor Perdagangan",
        "nama_perusahaan": "SALVUS INTI",
        "tanggal_daftar": "2022-07-15",
        "nomor_tanda_daftar": "000294.07/DJAI.PSE/07/2022",
        "qr_code": "https://pse.kominfo.go.id/storage/images/qr_code/57a9f87d736736e243030c5d31ded822.png",
        "status_id": "TERDAFTAR",
        "sistem_elektronik_id": 5579
      }
    },
    {
      "type": "tdpseTerbit",
      "id": 5710,
      "attributes": {
        "nomor_pb_umku": "912011108157400020004",
        "nama": "MOMENTIC BUSINESS",
        "website": "momentic.salvus.id",
        "sektor": "Sektor Teknologi Informasi dan Komunikasi",
        "nama_perusahaan": "SALVUS INTI",
        "tanggal_daftar": "2022-07-15",
        "nomor_tanda_daftar": "000294.06/DJAI.PSE/07/2022",
        "qr_code": "https://pse.kominfo.go.id/storage/images/qr_code/7f2dde213cc99546bb55090737369ba4.png",
        "status_id": "TERDAFTAR",
        "sistem_elektronik_id": 5572
      }
    }
  ]
}