{
  "meta": {
    "page": {
      "currentPage": 1000,
      "from": 9991,
      "lastPage": 1072,
      "perPage": 10,
      "to": 10000,
      "total": 10718
    }
  },
  "data": [
    {
      "type": "tdpseTerbit",
      "id": 473,
      "attributes": {
        "nomor_pb_umku": null,
        "nama": "DOKU Payment Gateway",
        "website": "https://www.doku.com",
        "sektor": "Sektor Keuangan",
        "nama_perusahaan": "NUSA SATU INTI ARTHA",
        "tanggal_daftar": "2021-04-20",
        "nomor_tanda_daftar": "000385.01/DJAI.PSE/04/2021",
        "qr_code": "https://pse.kominfo.go.id/storage/images/qr_code/764f0bd5a0d8153541758b76dc106b96.png",
        "status_id": "TERDAFTAR",
        "sistem_elektronik_id": 273
      }
    },
    {
      "type": "tdpseTerbit",
      "id": 472,
      "attributes": {
        "nomor_pb_umku": null,
        "nama": "TRON",
        "website": "https://tron.id/",
        "sektor": "Sektor Transportasi",
        "nama_perusahaan": "TEKNOLOGI RANCANG OLAH NUSANTARA",
        "tanggal_daftar": "2021-04-19",
        "nomor_tanda_daftar": "000384.01/DJAI.PSE/04/2021",
        "qr_code": "https://pse.kominfo.go.id/storage/images/qr_code/52d5b4f720a0588f32720fb8726aa9e2.png",
        "status_id": "TERDAFTAR",
        "sistem_elektronik_id": 181
      }
    },
    {
      "type": "tdpseTerbit",
      "id": 471,
      "attributes": {
        "nomor_pb_umku": null,
        "nama": "Inkuisit",
        "website": "www.inkuisit.com›",
        "sektor": "Sektor Perdagangan",
        "nama_perusahaan": "INKUISIT KARYA ADIWARNA",
        "tanggal_daftar": "2021-04-19",
        "nomor_tanda_daftar": "000383.01/DJAI.PSE/04/2021",
        "qr_code": "https://pse.kominfo.go.id/storage/images/qr_code/72166785f2433714c75c909daacdae13.png",
        "status_id": "TERDAFTAR",
        "sistem_elektronik_id": 3515
      }
    },
    {
      "type": "tdpseTerbit",
      "id": 532,
      "attributes": {
        "nomor_pb_umku": null,
        "nama": "NYMPH SYSTEM",
        "website": "http://www.cnaindo.com/",
        "sektor": "Sektor Perdagangan",
        "nama_perusahaan": "CNAINDO TEKNOLOGI",
        "tanggal_daftar": "2021-04-26",
        "nomor_tanda_daftar": "000382.02/DJAI.PSE/04/2021",
        "qr_code": "https://pse.kominfo.go.id/storage/images/qr_code/511753e03c45d218540172978335849e.png",
        "status_id": "TERDAFTAR",
        "sistem_elektronik_id": 3514
      }
    },
    {
      "type": "tdpseTerbit",
      "id": 467,
      "attributes": {
        "nomor_pb_umku": null,
        "nama": "NYMPH SYSTEM",
        "website": "http://www.cnaindo.com/",
        "sektor": "Sektor Perdagangan",
        "nama_perusahaan": "CNAINDO TEKNOLOGI",
        "tanggal_daftar": "2021-04-14",
        "nomor_tanda_daftar": "000382.01/DJAI.PSE/04/2021",
        "qr_code": "https://pse.kominfo.go.id/storage/images/qr_code/18d299815d807903a03504bb3d3f24ac.png",
        "status_id": "TERDAFTAR",
        "sistem_elektronik_id": 3513
      }
    },
    {
      "type": "tdpseTerbit",
      "id": 466,
      "attributes": {
        "nomor_pb_umku": null,
        "nama": "L & E LIVING",
        "website": "https://l-eliving.com",
        "sektor": "Sektor Perdagangan",
        "nama_perusahaan": "BARESHAL ANUGRAH SEJAHTERA",
        "tanggal_daftar": "2021-04-14",
        "nomor_tanda_daftar": "000381.01/DJAI.PSE/04/2021",
        "qr_code": "https://pse.kominfo.go.id/storage/images/qr_code/25d8f320528941aefb0d845d109fead7.png",
        "status_id": "TERDAFTAR",
        "sistem_elektronik_id": 3512
      }
    },
    {
      "type": "tdpseTerbit",
      "id": 465,
      "attributes": {
        "nomor_pb_umku": null,
        "nama": "Pinjamindo",
        "website": "www.pinjamindo.co.id",
        "sektor": "Sektor Keuangan",
        "nama_perusahaan": "SERBA DIGITAL TEKNOLOGI",
        "tanggal_daftar": "2021-04-14",
        "nomor_tanda_daftar": "000380.01/DJAI.PSE/04/2021",
        "qr_code": "https://pse.kominfo.go.id/storage/images/qr_code/1d9500ae719b1b77a407d1659f5343aa.png",
        "status_id": "TERDAFTAR",
        "sistem_elektronik_id": 58
      }
    },
    {
      "type": "tdpseTerbit",
      "id": 464,
      "attributes": {
        "nomor_pb_umku": null,
        "nama": "Modal Nasional",
        "website": "www.modalnasional.co.id",
        "sektor": "Sektor Keuangan",
        "nama_perusahaan": "SOLUSI TEKNOLOGI FINANSIAL",
        "tanggal_daftar": "2021-04-14",
        "nomor_tanda_daftar": "000379.01/DJAI.PSE/04/2021",
        "qr_code": "https://pse.kominfo.go.id/storage/images/qr_code/aaf353be6d38be628786c0503147a04d.png",
        "status_id": "TERDAFTAR",
        "sistem_elektronik_id": 110
      }
    },
    {
      "type": "tdpseTerbit",
      "id": 463,
      "attributes": {
        "nomor_pb_umku": null,
        "nama": "Logisklik",
        "website": "https://logisklik.com/",
        "sektor": "Sektor Teknologi Informasi dan Komunikasi, Sektor Transportasi",
        "nama_perusahaan": "LOGISKLIK GEMILANG INDONESIA",
        "tanggal_daftar": "2021-04-14",
        "nomor_tanda_daftar": "000378.01/DJAI.PSE/04/2021",
        "qr_code": "https://pse.kominfo.go.id/storage/images/qr_code/b10492efa95da4538ab7ac200933afb2.png",
        "status_id": "TERDAFTAR",
        "sistem_elektronik_id": 2547
      }
    },
    {
      "type": "tdpseTerbit",
      "id": 462,
      "attributes": {
        "nomor_pb_umku": null,
        "nama": "bursadana.id",
        "website": "www.bursadana.id",
        "sektor": "Sektor Teknologi Informasi dan Komunikasi",
        "nama_perusahaan": "BURSADANA INVESTAMA TEKNOLOGI",
        "tanggal_daftar": "2021-04-14",
        "nomor_tanda_daftar": "000377.01/DJAI.PSE/04/2021",
        "qr_code": "https://pse.kominfo.go.id/storage/images/qr_code/d7b1542701e11f174e979a46c1cc6c7d.png",
        "status_id": "TERDAFTAR",
        "sistem_elektronik_id": 250
      }
    }
  ]
}