{
  "meta": {
    "page": {
      "currentPage": 1,
      "from": 1,
      "lastPage": 72,
      "perPage": 10,
      "to": 10,
      "total": 712
    }
  },
  "data": [
    {
      "type": "tdpseTerbit",
      "id": 12254,
      "attributes": {
        "nomor_pb_umku": null,
        "nama": "THE ROYAL  HOSPITALITY GROUP MANAGEMENT",
        "website": "theroyalbeachseminyak.com",
        "sektor": "Sektor Keuangan",
        "nama_perusahaan": "BUT. STANDARD CHARTERED BANK",
        "tanggal_daftar": "2022-11-12",
        "nomor_tanda_daftar": "008444.03/DJAI.PSE/11/2022",
        "qr_code": "https://pse.kominfo.go.id/storage/images/qr_code/70e459ed14ba2f08833c9b01028ca2bc.png",
        "status_id": "TERDAFTAR",
        "sistem_elektronik_id": 12050
      }
    },
    {
      "type": "tdpseTerbit",
      "id": 12253,
      "attributes": {
        "nomor_pb_umku": null,
        "nama": "D & K FINANCE LIMITED",
        "website": "dkfinance.in",
        "sektor": "Sektor Keuangan",
        "nama_perusahaan": "BUT. STANDARD CHARTERED BANK",
        "tanggal_daftar": "2022-11-12",
        "nomor_tanda_daftar": "008444.02/DJAI.PSE/11/2022",
        "qr_code": "https://pse.kominfo.go.id/storage/images/qr_code/135b2fa6fe906e13c2756d2005ff608a.png",
        "status_id": "TERDAFTAR",
        "sistem_elektronik_id": 12049
      }
    },
    {
      "type": "tdpseTerbit",
      "id": 12252,
      "attributes": {
        "nomor_pb_umku": null,
        "nama": "BCA FINANCE LIMITED",
        "website": "hsbc.com.hk",
        "sektor": "Sektor Keuangan",
        "nama_perusahaan": "BUT. STANDARD CHARTERED BANK",
        "tanggal_daftar": "2022-11-12",
        "nomor_tanda_daftar": "008444.01/DJAI.PSE/11/2022",
        "qr_code": "https://pse.kominfo.go.id/storage/images/qr_code/c3b5588d99f66998033c25fbd919cff5.png",
        "status_id": "TERDAFTAR",
        "sistem_elektronik_id": 12048
      }
    },
    {
      "type": "tdpseTerbit",
      "id": 12251,
      "attributes": {
        "nomor_pb_umku": null,
        "nama": "FLAMMING MOUNTAINS PTE. LTD.",
        "website": "grandpangandaran.co.id",
        "sektor": "Sektor Keuangan",
        "nama_perusahaan": "SHENZHEN AIRLINES SHIPENG (QINGDAO) HOLDINGS CO., LTD.",
        "tanggal_daftar": "2022-11-11",
        "nomor_tanda_daftar": "008443.03/DJAI.PSE/11/2022",
        "qr_code": "https://pse.kominfo.go.id/storage/images/qr_code/bf4a0017346a6520f5ee5dcdc2f58bbd.png",
        "status_id": "TERDAFTAR",
        "sistem_elektronik_id": 12047
      }
    },
    {
      "type": "tdpseTerbit",
      "id": 12250,
      "attributes": {
        "nomor_pb_umku": null,
        "nama": "VIER CORPORATION LIMITED",
        "website": "viercorp.com",
        "sektor": "Sektor Keuangan",
        "nama_perusahaan": "SHENZHEN AIRLINES SHIPENG (QINGDAO) HOLDINGS CO., LTD.",
        "tanggal_daftar": "2022-11-11",
        "nomor_tanda_daftar": "008443.02/DJAI.PSE/11/2022",
        "qr_code": "https://pse.kominfo.go.id/storage/images/qr_code/febdcfeeb22fc4ea51f70cedf06a1d15.png",
        "status_id": "TERDAFTAR",
        "sistem_elektronik_id": 12046
      }
    },
    {
      "type": "tdpseTerbit",
      "id": 12249,
      "attributes": {
        "nomor_pb_umku": null,
        "nama": "NANJING SINAR MAS & ZIJIN VENTURE CAPITAL MANAGEMENT CO., LIMITED",
        "website": "corp.bri.co.id",
        "sektor": "Sektor Keuangan",
        "nama_perusahaan": "SHENZHEN AIRLINES SHIPENG (QINGDAO) HOLDINGS CO., LTD.",
        "tanggal_daftar": "2022-11-11",
        "nomor_tanda_daftar": "008443.01/DJAI.PSE/11/2022",
        "qr_code": "https://pse.kominfo.go.id/storage/images/qr_code/886885f3c4ae0bbfc2b8c4f4a8bcab0a.png",
        "status_id": "TERDAFTAR",
        "sistem_elektronik_id": 12045
      }
    },
    {
      "type": "tdpseTerbit",
      "id": 12248,
      "attributes": {
        "nomor_pb_umku": null,
        "nama": "MULTISIA TENAN JAYA OF MARIA KALAIJ CORPORATION",
        "website": "merlynnparkhotel.com",
        "sektor": "Sektor Perdagangan",
        "nama_perusahaan": "FUJIAN TANGZHONG INTERNATIONAL TRADING CO., LTD.",
        "tanggal_daftar": "2022-11-11",
        "nomor_tanda_daftar": "008442.06/DJAI.PSE/11/2022",
        "qr_code": "https://pse.kominfo.go.id/storage/images/qr_code/b0f8778ce015d9da052d97663bc0265a.png",
        "status_id": "TERDAFTAR",
        "sistem_elektronik_id": 12044
      }
    },
    {
      "type": "tdpseTerbit",
      "id": 12247,
      "attributes": {
        "nomor_pb_umku": null,
        "nama": "WUHAN HUAJING TIANDI AGRICULTURAL TECHNOLOGY DEVELOPMENT CO., LTD",
        "website": "magnesiumgosari.co.id",
        "sektor": "Sektor Teknologi Informasi dan Komunikasi",
        "nama_perusahaan": "FUJIAN TANGZHONG INTERNATIONAL TRADING CO., LTD.",
        "tanggal_daftar": "2022-11-11",
        "nomor_tanda_daftar": "008442.05/DJAI.PSE/11/2022",
        "qr_code": "https://pse.kominfo.go.id/storage/images/qr_code/268737fe3d416871857505eaae6c28af.png",
        "status_id": "TERDAFTAR",
        "sistem_elektronik_id": 12043
      }
    },
    {
      "type": "tdpseTerbit",
      "id": 12246,
      "attributes": {
        "nomor_pb_umku": null,
        "nama": "GUANGXI PINGXIANG HUIER IMPORT AND EXPORT TRADING CO., LTD.",
        "website": "prestigecars.com",
        "sektor": "Sektor Perdagangan",
        "nama_perusahaan": "FUJIAN TANGZHONG INTERNATIONAL TRADING CO., LTD.",
        "tanggal_daftar": "2022-11-11",
        "nomor_tanda_daftar": "008442.04/DJAI.PSE/11/2022",
        "qr_code": "https://pse.kominfo.go.id/storage/images/qr_code/ed3aa1aa52e1f2bf6b3881a89c952f7b.png",
        "status_id": "TERDAFTAR",
        "sistem_elektronik_id": 12042
      }
    },
    {
      "type": "tdpseTerbit",
      "id": 12245,
      "attributes": {
        "nomor_pb_umku": null,
        "nama": "GOLDEN KNIGHT INTERNATIONAL LIMITED",
        "website": "triyasa.co.id",
        "sektor": "Sektor Keuangan",
        "nama_perusahaan": "FUJIAN TANGZHONG INTERNATIONAL TRADING CO., LTD.",
        "tanggal_daftar": "2022-11-11",
        "nomor_tanda_daftar": "008442.03/DJAI.PSE/11/2022",
        "qr_code": "https://pse.kominfo.go.id/storage/images/qr_code/7708c8436727498f7f37a77f7396e98f.png",
        "status_id": "TERDAFTAR",
        "sistem_elektronik_id": 12041
      }
    }
  ]
}