{
  "meta": {
    "page": {
      "currentPage": 2,
      "from": 11,
      "lastPage": 72,
      "perPage": 10,
      "to": 20,
      "total": 712
    }
  },
  "data": [
    {
      "type": "tdpseTerbit",
      "id": 12244,
      "attributes": {
        "nomor_pb_umku": null,
        "nama": "GRAHA VENTURA MILENIAL GROUP OF MARIA KALAIJ CORPORATION",
        "website": "royalambarukmo.com",
        "sektor": "Sektor Perdagangan",
        "nama_perusahaan": "FUJIAN TANGZHONG INTERNATIONAL TRADING CO., LTD.",
        "tanggal_daftar": "2022-11-11",
        "nomor_tanda_daftar": "008442.02/DJAI.PSE/11/2022",
        "qr_code": "https://pse.kominfo.go.id/storage/images/qr_code/f588e76300eaee7342768308249efad4.png",
        "status_id": "TERDAFTAR",
        "sistem_elektronik_id": 12040
      }
    },
    {
      "type": "tdpseTerbit",
      "id": 12243,
      "attributes": {
        "nomor_pb_umku": null,
        "nama": "GUANGXI XIN WEI HOTEL MANAGEMENT",
        "website": "langhamhotels.com",
        "sektor": "Sektor Perdagangan",
        "nama_perusahaan": "FUJIAN TANGZHONG INTERNATIONAL TRADING CO., LTD.",
        "tanggal_daftar": "2022-11-11",
        "nomor_tanda_daftar": "008442.01/DJAI.PSE/11/2022",
        "qr_code": "https://pse.kominfo.go.id/storage/images/qr_code/136ec740f1611b7ce2194211119f41f3.png",
        "status_id": "TERDAFTAR",
        "sistem_elektronik_id": 12039
      }
    },
    {
      "type": "tdpseTerbit",
      "id": 12225,
      "attributes": {
        "nomor_pb_umku": null,
        "nama": "THE LEGEND OF NEVERLAND",
        "website": "neverland.game-ark.com",
        "sektor": "Sektor Teknologi Informasi dan Komunikasi",
        "nama_perusahaan": "ARK GAMES GLOBAL PTE. LTD.",
        "tanggal_daftar": "2022-11-11",
        "nomor_tanda_daftar": "008423.01/DJAI.PSE/11/2022",
        "qr_code": "https://pse.kominfo.go.id/storage/images/qr_code/6658cac7044a0308d35c913b62213af9.png",
        "status_id": "TERDAFTAR",
        "sistem_elektronik_id": 12022
      }
    },
    {
      "type": "tdpseTerbit",
      "id": 12206,
      "attributes": {
        "nomor_pb_umku": null,
        "nama": "RINCOS",
        "website": "rincos.asia",
        "sektor": "Sektor Transportasi",
        "nama_perusahaan": "RINCOS",
        "tanggal_daftar": "2022-11-10",
        "nomor_tanda_daftar": "008412.04/DJAI.PSE/11/2022",
        "qr_code": "https://pse.kominfo.go.id/storage/images/qr_code/0615091edb3b40d1e4fb0c47871749ad.png",
        "status_id": "TERDAFTAR",
        "sistem_elektronik_id": 12001
      }
    },
    {
      "type": "tdpseTerbit",
      "id": 12205,
      "attributes": {
        "nomor_pb_umku": null,
        "nama": "RINCOS",
        "website": "rincos.co.kr",
        "sektor": "Sektor Transportasi",
        "nama_perusahaan": "RINCOS",
        "tanggal_daftar": "2022-11-10",
        "nomor_tanda_daftar": "008412.03/DJAI.PSE/11/2022",
        "qr_code": "https://pse.kominfo.go.id/storage/images/qr_code/081f40ef7b58c03ac06b8b2b8200d934.png",
        "status_id": "TERDAFTAR",
        "sistem_elektronik_id": 12000
      }
    },
    {
      "type": "tdpseTerbit",
      "id": 12204,
      "attributes": {
        "nomor_pb_umku": null,
        "nama": "RINCOS",
        "website": "Rincos.asia",
        "sektor": "Sektor Transportasi",
        "nama_perusahaan": "RINCOS",
        "tanggal_daftar": "2022-11-10",
        "nomor_tanda_daftar": "008412.02/DJAI.PSE/11/2022",
        "qr_code": "https://pse.kominfo.go.id/storage/images/qr_code/1497339c7536740bd0e1b69f6639c2e2.png",
        "status_id": "TERDAFTAR",
        "sistem_elektronik_id": 11999
      }
    },
    {
      "type": "tdpseTerbit",
      "id": 12203,
      "attributes": {
        "nomor_pb_umku": null,
        "nama": "RINCOS",
        "website": "rincos.asia",
        "sektor": "Sektor Transportasi",
        "nama_perusahaan": "RINCOS",
        "tanggal_daftar": "2022-11-10",
        "nomor_tanda_daftar": "008412.01/DJAI.PSE/11/2022",
        "qr_code": "https://pse.kominfo.go.id/storage/images/qr_code/5d682d6ca51bff87aaf5917f0556ee42.png",
        "status_id": "TERDAFTAR",
        "sistem_elektronik_id": 11998
      }
    },
    {
      "type": "tdpseTerbit",
      "id": 12176,
      "attributes": {
        "nomor_pb_umku": null,
        "nama": "SNOWFLAKE DATA CLOUD PLATFORM",
        "website": "snowflake.com",
        "sektor": "Sektor Teknologi Informasi dan Komunikasi",
        "nama_perusahaan": "SNOWFLAKE COMPUTING NETHERLANDS B.V.",
        "tanggal_daftar": "2022-11-08",
        "nomor_tanda_daftar": "008391.01/DJAI.PSE/11/2022",
        "qr_code": "https://pse.kominfo.go.id/storage/images/qr_code/30209d5a12688e354b4113eaa33dbdff.png",
        "status_id": "TERDAFTAR",
        "sistem_elektronik_id": 11969
      }
    },
    {
      "type": "tdpseTerbit",
      "id": 12175,
      "attributes": {
        "nomor_pb_umku": null,
        "nama": "WEF",
        "website": "tekkon.com",
        "sektor": "Sektor Teknologi Informasi dan Komunikasi",
        "nama_perusahaan": "WHOLE EARTH FOUNDATION",
        "tanggal_daftar": "2022-11-08",
        "nomor_tanda_daftar": "008390.02/DJAI.PSE/11/2022",
        "qr_code": "https://pse.kominfo.go.id/storage/images/qr_code/c9100e9903f0053d0a5d5db9e07988d5.png",
        "status_id": "TERDAFTAR",
        "sistem_elektronik_id": 11968
      }
    },
    {
      "type": "tdpseTerbit",
      "id": 12174,
      "attributes": {
        "nomor_pb_umku": null,
        "nama": "WEF",
        "website": "wholeearthfoundation.org",
        "sektor": "Sektor Teknologi Informasi dan Komunikasi",
        "nama_perusahaan": "WHOLE EARTH FOUNDATION",
        "tanggal_daftar": "2022-11-08",
        "nomor_tanda_daftar": "008390.01/DJAI.PSE/11/2022",
        "qr_code": "https://pse.kominfo.go.id/storage/images/qr_code/8adddee1674542a7d79fc1bb22aa3dee.png",
        "status_id": "TERDAFTAR",
        "sistem_elektronik_id": 11967
      }
    }
  ]
}