{
  "meta": {
    "page": {
      "currentPage": 11,
      "from": 101,
      "lastPage": 63,
      "perPage": 10,
      "to": 110,
      "total": 630
    }
  },
  "data": [
    {
      "type": "tdpseTerbit",
      "id": 11631,
      "attributes": {
        "nomor_pb_umku": null,
        "nama": "REPINDO RESOURCES",
        "website": "repindoresources.com.au",
        "sektor": "Sektor Perdagangan",
        "nama_perusahaan": "SHANTOU JINJIA TRADING CO., LTD.",
        "tanggal_daftar": "2022-10-08",
        "nomor_tanda_daftar": "008043.03/DJAI.PSE/10/2022",
        "qr_code": "https://pse.kominfo.go.id/storage/images/qr_code/223dbe698508cc837de6c40782f1d531.png",
        "status_id": "TERDAFTAR",
        "sistem_elektronik_id": 11431
      }
    },
    {
      "type": "tdpseTerbit",
      "id": 11630,
      "attributes": {
        "nomor_pb_umku": null,
        "nama": "BANK MANDIRI HONG KONG",
        "website": "bankmandirihk.com",
        "sektor": "Sektor Keuangan",
        "nama_perusahaan": "SHANTOU JINJIA TRADING CO., LTD.",
        "tanggal_daftar": "2022-10-08",
        "nomor_tanda_daftar": "008043.02/DJAI.PSE/10/2022",
        "qr_code": "https://pse.kominfo.go.id/storage/images/qr_code/b99d60a1f67c64e745464a362e4bd152.png",
        "status_id": "TERDAFTAR",
        "sistem_elektronik_id": 11430
      }
    },
    {
      "type": "tdpseTerbit",
      "id": 11629,
      "attributes": {
        "nomor_pb_umku": null,
        "nama": "MANDIRI INVESTASI",
        "website": "mandiri-investasi.co.id",
        "sektor": "Sektor Keuangan",
        "nama_perusahaan": "SHANTOU JINJIA TRADING CO., LTD.",
        "tanggal_daftar": "2022-10-08",
        "nomor_tanda_daftar": "008043.01/DJAI.PSE/10/2022",
        "qr_code": "https://pse.kominfo.go.id/storage/images/qr_code/21da966d6b7d5887a634c2a3d36d590c.png",
        "status_id": "TERDAFTAR",
        "sistem_elektronik_id": 11429
      }
    },
    {
      "type": "tdpseTerbit",
      "id": 11765,
      "attributes": {
        "nomor_pb_umku": null,
        "nama": "REPINDO RESOURCES PTY. LTD.",
        "website": "repindoresources.com.au",
        "sektor": "Sektor Perdagangan",
        "nama_perusahaan": "COMMERCE KAPITAL",
        "tanggal_daftar": "2022-10-11",
        "nomor_tanda_daftar": "008042.05/DJAI.PSE/10/2022",
        "qr_code": "https://pse.kominfo.go.id/storage/images/qr_code/614a47e7479543ba51b475a153783a43.png",
        "status_id": "TERDAFTAR",
        "sistem_elektronik_id": 11565
      }
    },
    {
      "type": "tdpseTerbit",
      "id": 11764,
      "attributes": {
        "nomor_pb_umku": null,
        "nama": "THE ROYAL BEACH SEMINYAK",
        "website": "theroyalbeachseminyak.com",
        "sektor": "Sektor Perdagangan",
        "nama_perusahaan": "COMMERCE KAPITAL",
        "tanggal_daftar": "2022-10-11",
        "nomor_tanda_daftar": "008042.04/DJAI.PSE/10/2022",
        "qr_code": "https://pse.kominfo.go.id/storage/images/qr_code/a07f815f6860c89d60fdccc5ac0eb64f.png",
        "status_id": "TERDAFTAR",
        "sistem_elektronik_id": 11564
      }
    },
    {
      "type": "tdpseTerbit",
      "id": 11628,
      "attributes": {
        "nomor_pb_umku": null,
        "nama": "JPMORGAN CHASE BANK",
        "website": "-",
        "sektor": "Sektor Keuangan",
        "nama_perusahaan": "COMMERCE KAPITAL",
        "tanggal_daftar": "2022-10-08",
        "nomor_tanda_daftar": "008042.03/DJAI.PSE/10/2022",
        "qr_code": "https://pse.kominfo.go.id/storage/images/qr_code/b9d4a3d53530cc22823fd73c80fb6c61.png",
        "status_id": "TERDAFTAR",
        "sistem_elektronik_id": 11428
      }
    },
    {
      "type": "tdpseTerbit",
      "id": 11627,
      "attributes": {
        "nomor_pb_umku": null,
        "nama": "SEKAR JAGAD UTAMA",
        "website": "-",
        "sektor": "Sektor Perdagangan",
        "nama_perusahaan": "COMMERCE KAPITAL",
        "tanggal_daftar": "2022-10-08",
        "nomor_tanda_daftar": "008042.02/DJAI.PSE/10/2022",
        "qr_code": "https://pse.kominfo.go.id/storage/images/qr_code/654b83f96900fd1c34dd561320637158.png",
        "status_id": "TERDAFTAR",
        "sistem_elektronik_id": 11427
      }
    },
    {
      "type": "tdpseTerbit",
      "id": 11626,
      "attributes": {
        "nomor_pb_umku": null,
        "nama": "CAKRA ARTHA NUSANTARA",
        "website": "-",
        "sektor": "Sektor Perdagangan",
        "nama_perusahaan": "COMMERCE KAPITAL",
        "tanggal_daftar": "2022-10-08",
        "nomor_tanda_daftar": "008042.01/DJAI.PSE/10/2022",
        "qr_code": "https://pse.kominfo.go.id/storage/images/qr_code/877f47ef347cd276653c54309c0ba8f9.png",
        "status_id": "TERDAFTAR",
        "sistem_elektronik_id": 11426
      }
    },
    {
      "type": "tdpseTerbit",
      "id": 11625,
      "attributes": {
        "nomor_pb_umku": null,
        "nama": "WWW.PADI.COM",
        "website": "padi.com",
        "sektor": "Sektor Perdagangan",
        "nama_perusahaan": "Padi Asia Pacific Pty Limited",
        "tanggal_daftar": "2022-10-08",
        "nomor_tanda_daftar": "008041.01/DJAI.PSE/10/2022",
        "qr_code": "https://pse.kominfo.go.id/storage/images/qr_code/a2081ee369900e033514d4473cf6813b.png",
        "status_id": "TERDAFTAR",
        "sistem_elektronik_id": 11425
      }
    },
    {
      "type": "tdpseTerbit",
      "id": 11624,
      "attributes": {
        "nomor_pb_umku": null,
        "nama": "VOCO",
        "website": "3radical.com",
        "sektor": "Sektor Teknologi Informasi dan Komunikasi",
        "nama_perusahaan": "3RADICAL",
        "tanggal_daftar": "2022-10-08",
        "nomor_tanda_daftar": "008040.01/DJAI.PSE/10/2022",
        "qr_code": "https://pse.kominfo.go.id/storage/images/qr_code/a04edf694381fa16e797d546618c3d58.png",
        "status_id": "TERDAFTAR",
        "sistem_elektronik_id": 11424
      }
    }
  ]
}