{
  "meta": {
    "page": {
      "currentPage": 12,
      "from": 111,
      "lastPage": 69,
      "perPage": 10,
      "to": 120,
      "total": 690
    }
  },
  "data": [
    {
      "type": "tdpseTerbit",
      "id": 11643,
      "attributes": {
        "nomor_pb_umku": null,
        "nama": "ROYAL BEACH SEMINYAK",
        "website": "theroyalbeachseminyak.com",
        "sektor": "Sektor Perdagangan",
        "nama_perusahaan": "SHANTOU JINJIA TRADING CO., LTD.",
        "tanggal_daftar": "2022-10-09",
        "nomor_tanda_daftar": "008047.05/DJAI.PSE/10/2022",
        "qr_code": "https://pse.kominfo.go.id/storage/images/qr_code/7691b201d538c18327d3a48447b7a7cb.png",
        "status_id": "TERDAFTAR",
        "sistem_elektronik_id": 11443
      }
    },
    {
      "type": "tdpseTerbit",
      "id": 11642,
      "attributes": {
        "nomor_pb_umku": null,
        "nama": "REPINDO RESOURCES",
        "website": "repindoresources.com.au",
        "sektor": "Sektor Perdagangan",
        "nama_perusahaan": "SHANTOU JINJIA TRADING CO., LTD.",
        "tanggal_daftar": "2022-10-09",
        "nomor_tanda_daftar": "008047.04/DJAI.PSE/10/2022",
        "qr_code": "https://pse.kominfo.go.id/storage/images/qr_code/6b878385429dd0e1d41cd944753bd92b.png",
        "status_id": "TERDAFTAR",
        "sistem_elektronik_id": 11442
      }
    },
    {
      "type": "tdpseTerbit",
      "id": 11641,
      "attributes": {
        "nomor_pb_umku": null,
        "nama": "BRI REMITTANCE CO. LTD",
        "website": "brchk.com",
        "sektor": "Sektor Keuangan",
        "nama_perusahaan": "SHANTOU JINJIA TRADING CO., LTD.",
        "tanggal_daftar": "2022-10-09",
        "nomor_tanda_daftar": "008047.03/DJAI.PSE/10/2022",
        "qr_code": "https://pse.kominfo.go.id/storage/images/qr_code/a363213f22748dd169df1a6e7eb7409a.png",
        "status_id": "TERDAFTAR",
        "sistem_elektronik_id": 11441
      }
    },
    {
      "type": "tdpseTerbit",
      "id": 11640,
      "attributes": {
        "nomor_pb_umku": null,
        "nama": "BRI NEW YORK AGENCY",
        "website": "brinya.com",
        "sektor": "Sektor Keuangan",
        "nama_perusahaan": "SHANTOU JINJIA TRADING CO., LTD.",
        "tanggal_daftar": "2022-10-09",
        "nomor_tanda_daftar": "008047.02/DJAI.PSE/10/2022",
        "qr_code": "https://pse.kominfo.go.id/storage/images/qr_code/0715aa71565981bc00a56a2fd0b30f3e.png",
        "status_id": "TERDAFTAR",
        "sistem_elektronik_id": 11440
      }
    },
    {
      "type": "tdpseTerbit",
      "id": 11639,
      "attributes": {
        "nomor_pb_umku": null,
        "nama": "BRI HONG KONG REMMITANCE",
        "website": "brihongkong.com",
        "sektor": "Sektor Keuangan",
        "nama_perusahaan": "SHANTOU JINJIA TRADING CO., LTD.",
        "tanggal_daftar": "2022-10-09",
        "nomor_tanda_daftar": "008047.01/DJAI.PSE/10/2022",
        "qr_code": "https://pse.kominfo.go.id/storage/images/qr_code/daef2773fc3ed69a255eff356585bfd7.png",
        "status_id": "TERDAFTAR",
        "sistem_elektronik_id": 11439
      }
    },
    {
      "type": "tdpseTerbit",
      "id": 11638,
      "attributes": {
        "nomor_pb_umku": null,
        "nama": "REPINDO RESOURCES",
        "website": "repindoresources.com.au",
        "sektor": "Sektor Perdagangan",
        "nama_perusahaan": "SHANTOU JINJIA TRADING CO., LTD.",
        "tanggal_daftar": "2022-10-09",
        "nomor_tanda_daftar": "008046.03/DJAI.PSE/10/2022",
        "qr_code": "https://pse.kominfo.go.id/storage/images/qr_code/76f6c508be217ff8127512ae1cab83bf.png",
        "status_id": "TERDAFTAR",
        "sistem_elektronik_id": 11438
      }
    },
    {
      "type": "tdpseTerbit",
      "id": 11637,
      "attributes": {
        "nomor_pb_umku": null,
        "nama": "THE ROYAL BEACH SEMINYAK",
        "website": "theroyalbeachseminyak.com",
        "sektor": "Sektor Perdagangan",
        "nama_perusahaan": "SHANTOU JINJIA TRADING CO., LTD.",
        "tanggal_daftar": "2022-10-09",
        "nomor_tanda_daftar": "008046.02/DJAI.PSE/10/2022",
        "qr_code": "https://pse.kominfo.go.id/storage/images/qr_code/d1216bb96d86df46668fa09445ecfce8.png",
        "status_id": "TERDAFTAR",
        "sistem_elektronik_id": 11437
      }
    },
    {
      "type": "tdpseTerbit",
      "id": 11636,
      "attributes": {
        "nomor_pb_umku": null,
        "nama": "PANORAMA TOUR",
        "website": "panorama-jtb.com",
        "sektor": "Sektor Perdagangan",
        "nama_perusahaan": "SHANTOU JINJIA TRADING CO., LTD.",
        "tanggal_daftar": "2022-10-09",
        "nomor_tanda_daftar": "008046.01/DJAI.PSE/10/2022",
        "qr_code": "https://pse.kominfo.go.id/storage/images/qr_code/c36894e8873f372ec01d08ffed569d3c.png",
        "status_id": "TERDAFTAR",
        "sistem_elektronik_id": 11436
      }
    },
    {
      "type": "tdpseTerbit",
      "id": 11635,
      "attributes": {
        "nomor_pb_umku": null,
        "nama": "THE ROYAL BEACH SEMINYAK",
        "website": "theroyalbeachseminyak.com",
        "sektor": "Sektor Perdagangan",
        "nama_perusahaan": "SHANTOU JINJIA TRADING CO., LTD.",
        "tanggal_daftar": "2022-10-09",
        "nomor_tanda_daftar": "008045.02/DJAI.PSE/10/2022",
        "qr_code": "https://pse.kominfo.go.id/storage/images/qr_code/0d5d9f3f619bd00e7328c4f5a3e460d2.png",
        "status_id": "TERDAFTAR",
        "sistem_elektronik_id": 11435
      }
    },
    {
      "type": "tdpseTerbit",
      "id": 11634,
      "attributes": {
        "nomor_pb_umku": null,
        "nama": "REPINDO RESOURCES",
        "website": "repindoresources.com.au",
        "sektor": "Sektor Perdagangan",
        "nama_perusahaan": "SHANTOU JINJIA TRADING CO., LTD.",
        "tanggal_daftar": "2022-10-09",
        "nomor_tanda_daftar": "008045.01/DJAI.PSE/10/2022",
        "qr_code": "https://pse.kominfo.go.id/storage/images/qr_code/ac9c068a9833d65b60d0999f91377e9d.png",
        "status_id": "TERDAFTAR",
        "sistem_elektronik_id": 11434
      }
    }
  ]
}