{
  "meta": {
    "page": {
      "currentPage": 14,
      "from": 131,
      "lastPage": 64,
      "perPage": 10,
      "to": 140,
      "total": 638
    }
  },
  "data": [
    {
      "type": "tdpseTerbit",
      "id": 11716,
      "attributes": {
        "nomor_pb_umku": null,
        "nama": "BAHANA",
        "website": "bahana.co.id",
        "sektor": "Sektor Keuangan",
        "nama_perusahaan": "SHANTOU JINJIA TRADING CO., LTD.",
        "tanggal_daftar": "2022-10-09",
        "nomor_tanda_daftar": "008034.03/DJAI.PSE/10/2022",
        "qr_code": "https://pse.kominfo.go.id/storage/images/qr_code/a73c5e0700d2f5c67d0a4fc81373ef17.png",
        "status_id": "TERDAFTAR",
        "sistem_elektronik_id": 11516
      }
    },
    {
      "type": "tdpseTerbit",
      "id": 11715,
      "attributes": {
        "nomor_pb_umku": null,
        "nama": "UOB GROUP",
        "website": "uobgroup.com",
        "sektor": "Sektor Keuangan",
        "nama_perusahaan": "SHANTOU JINJIA TRADING CO., LTD.",
        "tanggal_daftar": "2022-10-09",
        "nomor_tanda_daftar": "008034.02/DJAI.PSE/10/2022",
        "qr_code": "https://pse.kominfo.go.id/storage/images/qr_code/d2da4a36b8f82e1e771f0c3411e93baf.png",
        "status_id": "TERDAFTAR",
        "sistem_elektronik_id": 11515
      }
    },
    {
      "type": "tdpseTerbit",
      "id": 11607,
      "attributes": {
        "nomor_pb_umku": null,
        "nama": "MARGO PUTRA PRATAMA",
        "website": "margopp.co.id",
        "sektor": "Sektor Perdagangan",
        "nama_perusahaan": "SHANTOU JINJIA TRADING CO., LTD.",
        "tanggal_daftar": "2022-10-07",
        "nomor_tanda_daftar": "008034.01/DJAI.PSE/10/2022",
        "qr_code": "https://pse.kominfo.go.id/storage/images/qr_code/5dce0f2fc44a79aa5b6ebf8b09d949db.png",
        "status_id": "TERDAFTAR",
        "sistem_elektronik_id": 11409
      }
    },
    {
      "type": "tdpseTerbit",
      "id": 11605,
      "attributes": {
        "nomor_pb_umku": null,
        "nama": "SHANTOU JINJIA TRADING",
        "website": "-",
        "sektor": "Sektor Perdagangan",
        "nama_perusahaan": "SHANTOU JINJIA TRADING CO., LTD.",
        "tanggal_daftar": "2022-10-07",
        "nomor_tanda_daftar": "008031.01/DJAI.PSE/10/2022",
        "qr_code": "https://pse.kominfo.go.id/storage/images/qr_code/e487a1a60d8624e3f6e9074a01826ab7.png",
        "status_id": "TERDAFTAR",
        "sistem_elektronik_id": 11406
      }
    },
    {
      "type": "tdpseTerbit",
      "id": 11604,
      "attributes": {
        "nomor_pb_umku": null,
        "nama": "SHANTOU JINJIA TRADING",
        "website": "-",
        "sektor": "Sektor Perdagangan",
        "nama_perusahaan": "SHANTOU JINJIA TRADING CO., LTD.",
        "tanggal_daftar": "2022-10-07",
        "nomor_tanda_daftar": "008029.01/DJAI.PSE/10/2022",
        "qr_code": "https://pse.kominfo.go.id/storage/images/qr_code/fc3e655b08c5ed37dc788e4182577a85.png",
        "status_id": "TERDAFTAR",
        "sistem_elektronik_id": 11405
      }
    },
    {
      "type": "tdpseTerbit",
      "id": 11599,
      "attributes": {
        "nomor_pb_umku": null,
        "nama": "MPY GLOBAL FINANCIAL LINK",
        "website": "-",
        "sektor": "Sektor Keuangan",
        "nama_perusahaan": "MPY GLOBAL SDN BHD",
        "tanggal_daftar": "2022-10-07",
        "nomor_tanda_daftar": "008024.01/DJAI.PSE/10/2022",
        "qr_code": "https://pse.kominfo.go.id/storage/images/qr_code/de935e77497f67d55cd5eaec7af27df5.png",
        "status_id": "TERDAFTAR",
        "sistem_elektronik_id": 11399
      }
    },
    {
      "type": "tdpseTerbit",
      "id": 11597,
      "attributes": {
        "nomor_pb_umku": null,
        "nama": "WARGAMING GAME CENTRE",
        "website": "asia.wargamingnet",
        "sektor": "Sektor Teknologi Informasi dan Komunikasi",
        "nama_perusahaan": "WARGAMING GROUP LIMITED",
        "tanggal_daftar": "2022-10-07",
        "nomor_tanda_daftar": "008023.01/DJAI.PSE/10/2022",
        "qr_code": "https://pse.kominfo.go.id/storage/images/qr_code/d64d7c66fde319e595e704f3c0e6938b.png",
        "status_id": "TERDAFTAR",
        "sistem_elektronik_id": 11397
      }
    },
    {
      "type": "tdpseTerbit",
      "id": 11680,
      "attributes": {
        "nomor_pb_umku": null,
        "nama": "ASURANSI BRINGIN SEJAHTERA ARTAMAKMUR / BRI INSURANCE",
        "website": "brins.co.id",
        "sektor": "Sektor Keuangan",
        "nama_perusahaan": "SHANTOU JINJIA TRADING CO., LTD.",
        "tanggal_daftar": "2022-10-09",
        "nomor_tanda_daftar": "008014.10/DJAI.PSE/10/2022",
        "qr_code": "https://pse.kominfo.go.id/storage/images/qr_code/51dccc5a822c7faa00a5fbb39f9b3606.png",
        "status_id": "TERDAFTAR",
        "sistem_elektronik_id": 11480
      }
    },
    {
      "type": "tdpseTerbit",
      "id": 11679,
      "attributes": {
        "nomor_pb_umku": null,
        "nama": "BANK BRI CABANG HONG KONG",
        "website": "brihongkong.com",
        "sektor": "Sektor Keuangan",
        "nama_perusahaan": "SHANTOU JINJIA TRADING CO., LTD.",
        "tanggal_daftar": "2022-10-09",
        "nomor_tanda_daftar": "008014.09/DJAI.PSE/10/2022",
        "qr_code": "https://pse.kominfo.go.id/storage/images/qr_code/93b6f631fae1776ccb9cb859d94414ea.png",
        "status_id": "TERDAFTAR",
        "sistem_elektronik_id": 11479
      }
    },
    {
      "type": "tdpseTerbit",
      "id": 11678,
      "attributes": {
        "nomor_pb_umku": null,
        "nama": "DANAREKSA",
        "website": "danareksa.co.id",
        "sektor": "Sektor Keuangan",
        "nama_perusahaan": "SHANTOU JINJIA TRADING CO., LTD.",
        "tanggal_daftar": "2022-10-09",
        "nomor_tanda_daftar": "008014.08/DJAI.PSE/10/2022",
        "qr_code": "https://pse.kominfo.go.id/storage/images/qr_code/ca87309fe60d4708cba315489f68c3f9.png",
        "status_id": "TERDAFTAR",
        "sistem_elektronik_id": 11478
      }
    }
  ]
}