{
  "meta": {
    "page": {
      "currentPage": 15,
      "from": 141,
      "lastPage": 30,
      "perPage": 10,
      "to": 150,
      "total": 293
    }
  },
  "data": [
    {
      "type": "tdpseTerbit",
      "id": 8232,
      "attributes": {
        "nomor_pb_umku": null,
        "nama": "RICHTHINKER",
        "website": "com.bcacrfzx.richthinker",
        "sektor": "Sektor Teknologi Informasi dan Komunikasi",
        "nama_perusahaan": "YANHAIGE2022",
        "tanggal_daftar": "2022-07-20",
        "nomor_tanda_daftar": "005811.01/DJAI.PSE/07/2022",
        "qr_code": "https://pse.kominfo.go.id/storage/images/qr_code/13604fda5c4ad109f652b8e91c53aec1.png",
        "status_id": "TERDAFTAR",
        "sistem_elektronik_id": 8151
      }
    },
    {
      "type": "tdpseTerbit",
      "id": 8231,
      "attributes": {
        "nomor_pb_umku": null,
        "nama": "TINDER",
        "website": "tinder.com",
        "sektor": "Sektor Teknologi Informasi dan Komunikasi",
        "nama_perusahaan": "MATCH GROUP, LLC.",
        "tanggal_daftar": "2022-07-20",
        "nomor_tanda_daftar": "005810.01/DJAI.PSE/07/2022",
        "qr_code": "https://pse.kominfo.go.id/storage/images/qr_code/99cb855d896038bc22208cd579c8a921.png",
        "status_id": "TERDAFTAR",
        "sistem_elektronik_id": 8150
      }
    },
    {
      "type": "tdpseTerbit",
      "id": 8230,
      "attributes": {
        "nomor_pb_umku": null,
        "nama": "Z DAY: HEARTS OF HEROES",
        "website": "play.google.com/store/apps/details?id=com.kingsgroup.ww2; apps.apple.com/us/app/z-day-hearts-of-heroes/id1374225046",
        "sektor": "Sektor Teknologi Informasi dan Komunikasi",
        "nama_perusahaan": "FUNPLUS INTERNATIONAL AG",
        "tanggal_daftar": "2022-07-20",
        "nomor_tanda_daftar": "005809.05/DJAI.PSE/07/2022",
        "qr_code": "https://pse.kominfo.go.id/storage/images/qr_code/0a790b5bd63d27d40f0b501458655123.png",
        "status_id": "TERDAFTAR",
        "sistem_elektronik_id": 8148
      }
    },
    {
      "type": "tdpseTerbit",
      "id": 8229,
      "attributes": {
        "nomor_pb_umku": null,
        "nama": "CALL OF ANTIA: MATCH 3 RPG",
        "website": "callofantia.com/; play.google.com/store/apps/details?id=com.funplus.coa",
        "sektor": "Sektor Teknologi Informasi dan Komunikasi",
        "nama_perusahaan": "FUNPLUS INTERNATIONAL AG",
        "tanggal_daftar": "2022-07-20",
        "nomor_tanda_daftar": "005809.04/DJAI.PSE/07/2022",
        "qr_code": "https://pse.kominfo.go.id/storage/images/qr_code/4dbad45656c450219547a635c2dc6061.png",
        "status_id": "TERDAFTAR",
        "sistem_elektronik_id": 8147
      }
    },
    {
      "type": "tdpseTerbit",
      "id": 8228,
      "attributes": {
        "nomor_pb_umku": null,
        "nama": "GUNS OF GLORY",
        "website": "gog.kingsgroupgames.com/; play.google.com/store/apps/details?id=com.diandian.gog",
        "sektor": "Sektor Teknologi Informasi dan Komunikasi",
        "nama_perusahaan": "FUNPLUS INTERNATIONAL AG",
        "tanggal_daftar": "2022-07-20",
        "nomor_tanda_daftar": "005809.03/DJAI.PSE/07/2022",
        "qr_code": "https://pse.kominfo.go.id/storage/images/qr_code/d95233b24342a89ca8471950ba8365eb.png",
        "status_id": "TERDAFTAR",
        "sistem_elektronik_id": 8146
      }
    },
    {
      "type": "tdpseTerbit",
      "id": 8227,
      "attributes": {
        "nomor_pb_umku": null,
        "nama": "ES DAN API: KING OF AVALON",
        "website": "koa.kingsgroupgames.com/; play.google.com/store/apps/details?id=com.funplus.kingofavalon",
        "sektor": "Sektor Teknologi Informasi dan Komunikasi",
        "nama_perusahaan": "FUNPLUS INTERNATIONAL AG",
        "tanggal_daftar": "2022-07-20",
        "nomor_tanda_daftar": "005809.02/DJAI.PSE/07/2022",
        "qr_code": "https://pse.kominfo.go.id/storage/images/qr_code/5eb0037470fcb9f711f55a7d6309a0c7.png",
        "status_id": "TERDAFTAR",
        "sistem_elektronik_id": 8145
      }
    },
    {
      "type": "tdpseTerbit",
      "id": 8226,
      "attributes": {
        "nomor_pb_umku": null,
        "nama": "STATE OF SURVIVAL",
        "website": "sos.kingsgroupgames.com; play.google.com/store/apps/details?id=com.kingsgroup.sos",
        "sektor": "Sektor Teknologi Informasi dan Komunikasi",
        "nama_perusahaan": "FUNPLUS INTERNATIONAL AG",
        "tanggal_daftar": "2022-07-20",
        "nomor_tanda_daftar": "005809.01/DJAI.PSE/07/2022",
        "qr_code": "https://pse.kominfo.go.id/storage/images/qr_code/1c29495b119444f0a415a64b232549c3.png",
        "status_id": "TERDAFTAR",
        "sistem_elektronik_id": 8144
      }
    },
    {
      "type": "tdpseTerbit",
      "id": 8224,
      "attributes": {
        "nomor_pb_umku": null,
        "nama": "MVP DOMINO",
        "website": "play.google.com/store/apps/details?id=com.ipoker.domino&hl=en&gl=US",
        "sektor": "Sektor Teknologi Informasi dan Komunikasi",
        "nama_perusahaan": "SHENZHEN ULOVE CREATIVE TECHNOLOGY CO., LTD",
        "tanggal_daftar": "2022-07-20",
        "nomor_tanda_daftar": "005808.05/DJAI.PSE/07/2022",
        "qr_code": "https://pse.kominfo.go.id/storage/images/qr_code/28722932f48da4a28c21599f2d5d85f7.png",
        "status_id": "TERDAFTAR",
        "sistem_elektronik_id": 8143
      }
    },
    {
      "type": "tdpseTerbit",
      "id": 8223,
      "attributes": {
        "nomor_pb_umku": null,
        "nama": "POP GAPLE",
        "website": "play.google.com/store/apps/details?id=com.popgames.gaple",
        "sektor": "Sektor Teknologi Informasi dan Komunikasi",
        "nama_perusahaan": "SHENZHEN ULOVE CREATIVE TECHNOLOGY CO., LTD",
        "tanggal_daftar": "2022-07-20",
        "nomor_tanda_daftar": "005808.04/DJAI.PSE/07/2022",
        "qr_code": "https://pse.kominfo.go.id/storage/images/qr_code/ef320b6de376fd4c47a655783a1ca5aa.png",
        "status_id": "TERDAFTAR",
        "sistem_elektronik_id": 8142
      }
    },
    {
      "type": "tdpseTerbit",
      "id": 8222,
      "attributes": {
        "nomor_pb_umku": null,
        "nama": "POP POKER",
        "website": "play.google.com/store/apps/details?id=com.seagames.texas&hl=en&gl=US",
        "sektor": "Sektor Teknologi Informasi dan Komunikasi",
        "nama_perusahaan": "SHENZHEN ULOVE CREATIVE TECHNOLOGY CO., LTD",
        "tanggal_daftar": "2022-07-20",
        "nomor_tanda_daftar": "005808.03/DJAI.PSE/07/2022",
        "qr_code": "https://pse.kominfo.go.id/storage/images/qr_code/e02b9dfbf10bfe55c83908216b348470.png",
        "status_id": "TERDAFTAR",
        "sistem_elektronik_id": 8141
      }
    }
  ]
}