{
  "meta": {
    "page": {
      "currentPage": 16,
      "from": 151,
      "lastPage": 72,
      "perPage": 10,
      "to": 160,
      "total": 712
    }
  },
  "data": [
    {
      "type": "tdpseTerbit",
      "id": 11625,
      "attributes": {
        "nomor_pb_umku": null,
        "nama": "WWW.PADI.COM",
        "website": "padi.com",
        "sektor": "Sektor Perdagangan",
        "nama_perusahaan": "Padi Asia Pacific Pty Limited",
        "tanggal_daftar": "2022-10-08",
        "nomor_tanda_daftar": "008041.01/DJAI.PSE/10/2022",
        "qr_code": "https://pse.kominfo.go.id/storage/images/qr_code/a2081ee369900e033514d4473cf6813b.png",
        "status_id": "TERDAFTAR",
        "sistem_elektronik_id": 11425
      }
    },
    {
      "type": "tdpseTerbit",
      "id": 11624,
      "attributes": {
        "nomor_pb_umku": null,
        "nama": "VOCO",
        "website": "3radical.com",
        "sektor": "Sektor Teknologi Informasi dan Komunikasi",
        "nama_perusahaan": "3RADICAL",
        "tanggal_daftar": "2022-10-08",
        "nomor_tanda_daftar": "008040.01/DJAI.PSE/10/2022",
        "qr_code": "https://pse.kominfo.go.id/storage/images/qr_code/a04edf694381fa16e797d546618c3d58.png",
        "status_id": "TERDAFTAR",
        "sistem_elektronik_id": 11424
      }
    },
    {
      "type": "tdpseTerbit",
      "id": 11623,
      "attributes": {
        "nomor_pb_umku": null,
        "nama": "IVALUA",
        "website": "ivalua.com",
        "sektor": "Sektor Teknologi Informasi dan Komunikasi",
        "nama_perusahaan": "IVALUA INC.",
        "tanggal_daftar": "2022-10-08",
        "nomor_tanda_daftar": "008039.01/DJAI.PSE/10/2022",
        "qr_code": "https://pse.kominfo.go.id/storage/images/qr_code/163158bb3ff73a5840733429516647aa.png",
        "status_id": "TERDAFTAR",
        "sistem_elektronik_id": 11423
      }
    },
    {
      "type": "tdpseTerbit",
      "id": 11622,
      "attributes": {
        "nomor_pb_umku": null,
        "nama": "DUTA MANDIRI",
        "website": "-",
        "sektor": "Sektor Keuangan",
        "nama_perusahaan": "SATRIA BALITAMA",
        "tanggal_daftar": "2022-10-08",
        "nomor_tanda_daftar": "008038.06/DJAI.PSE/10/2022",
        "qr_code": "https://pse.kominfo.go.id/storage/images/qr_code/4de36ca563b764450e82054f64c3c3f6.png",
        "status_id": "TERDAFTAR",
        "sistem_elektronik_id": 11422
      }
    },
    {
      "type": "tdpseTerbit",
      "id": 11621,
      "attributes": {
        "nomor_pb_umku": null,
        "nama": "AROMADUTA RASAPRIMA (ADRIANTO MULIA)",
        "website": "aroma.co.id",
        "sektor": "Sektor Perdagangan",
        "nama_perusahaan": "SATRIA BALITAMA",
        "tanggal_daftar": "2022-10-08",
        "nomor_tanda_daftar": "008038.05/DJAI.PSE/10/2022",
        "qr_code": "https://pse.kominfo.go.id/storage/images/qr_code/39e1471d14f9bb8bd1804d34fc2e864d.png",
        "status_id": "TERDAFTAR",
        "sistem_elektronik_id": 11421
      }
    },
    {
      "type": "tdpseTerbit",
      "id": 11620,
      "attributes": {
        "nomor_pb_umku": null,
        "nama": "GRAND LIVIO KUTA HOTEL",
        "website": "grand-livio-kuta.all-balihotels.net",
        "sektor": "Sektor Perdagangan",
        "nama_perusahaan": "SATRIA BALITAMA",
        "tanggal_daftar": "2022-10-08",
        "nomor_tanda_daftar": "008038.04/DJAI.PSE/10/2022",
        "qr_code": "https://pse.kominfo.go.id/storage/images/qr_code/847168f8b4b306f62711999dffc352ff.png",
        "status_id": "TERDAFTAR",
        "sistem_elektronik_id": 11420
      }
    },
    {
      "type": "tdpseTerbit",
      "id": 11619,
      "attributes": {
        "nomor_pb_umku": null,
        "nama": "THE ROYAL BEACH SEMINYAK",
        "website": "theroyalbeachseminyakmgallerycollection.com-bali.com",
        "sektor": "Sektor Keuangan",
        "nama_perusahaan": "SATRIA BALITAMA",
        "tanggal_daftar": "2022-10-08",
        "nomor_tanda_daftar": "008038.03/DJAI.PSE/10/2022",
        "qr_code": "https://pse.kominfo.go.id/storage/images/qr_code/70ba5e073dad1ef9ba448fc6b3ceca30.png",
        "status_id": "TERDAFTAR",
        "sistem_elektronik_id": 11419
      }
    },
    {
      "type": "tdpseTerbit",
      "id": 11618,
      "attributes": {
        "nomor_pb_umku": null,
        "nama": "LELANGAGUNAN@BNI.CO.ID",
        "website": "bni.co.id",
        "sektor": "Sektor Keuangan",
        "nama_perusahaan": "SATRIA BALITAMA",
        "tanggal_daftar": "2022-10-08",
        "nomor_tanda_daftar": "008038.02/DJAI.PSE/10/2022",
        "qr_code": "https://pse.kominfo.go.id/storage/images/qr_code/6a05e690bee920abdc3f7315d0613d66.png",
        "status_id": "TERDAFTAR",
        "sistem_elektronik_id": 11418
      }
    },
    {
      "type": "tdpseTerbit",
      "id": 11617,
      "attributes": {
        "nomor_pb_umku": null,
        "nama": "SATRIA BALITAMA",
        "website": "-",
        "sektor": "Sektor Perdagangan",
        "nama_perusahaan": "SATRIA BALITAMA",
        "tanggal_daftar": "2022-10-08",
        "nomor_tanda_daftar": "008038.01/DJAI.PSE/10/2022",
        "qr_code": "https://pse.kominfo.go.id/storage/images/qr_code/dad756337dbbf5b8a4093e23a852cc13.png",
        "status_id": "TERDAFTAR",
        "sistem_elektronik_id": 11417
      }
    },
    {
      "type": "tdpseTerbit",
      "id": 11614,
      "attributes": {
        "nomor_pb_umku": null,
        "nama": "BNI VENTURES LTD",
        "website": "owenpetro.com",
        "sektor": "Sektor Keuangan",
        "nama_perusahaan": "BNI SECURITIES PTD LTD",
        "tanggal_daftar": "2022-10-07",
        "nomor_tanda_daftar": "008037.03/DJAI.PSE/10/2022",
        "qr_code": "https://pse.kominfo.go.id/storage/images/qr_code/2c9cb78ee2773111342c219822ca8cc0.png",
        "status_id": "TERDAFTAR",
        "sistem_elektronik_id": 11416
      }
    }
  ]
}