{
  "meta": {
    "page": {
      "currentPage": 17,
      "from": 161,
      "lastPage": 75,
      "perPage": 10,
      "to": 170,
      "total": 741
    }
  },
  "data": [
    {
      "type": "tdpseTerbit",
      "id": 11636,
      "attributes": {
        "nomor_pb_umku": null,
        "nama": "PANORAMA TOUR",
        "website": "panorama-jtb.com",
        "sektor": "Sektor Perdagangan",
        "nama_perusahaan": "SHANTOU JINJIA TRADING CO., LTD.",
        "tanggal_daftar": "2022-10-09",
        "nomor_tanda_daftar": "008046.01/DJAI.PSE/10/2022",
        "qr_code": "https://pse.kominfo.go.id/storage/images/qr_code/c36894e8873f372ec01d08ffed569d3c.png",
        "status_id": "TERDAFTAR",
        "sistem_elektronik_id": 11436
      }
    },
    {
      "type": "tdpseTerbit",
      "id": 11635,
      "attributes": {
        "nomor_pb_umku": null,
        "nama": "THE ROYAL BEACH SEMINYAK",
        "website": "theroyalbeachseminyak.com",
        "sektor": "Sektor Perdagangan",
        "nama_perusahaan": "SHANTOU JINJIA TRADING CO., LTD.",
        "tanggal_daftar": "2022-10-09",
        "nomor_tanda_daftar": "008045.02/DJAI.PSE/10/2022",
        "qr_code": "https://pse.kominfo.go.id/storage/images/qr_code/0d5d9f3f619bd00e7328c4f5a3e460d2.png",
        "status_id": "TERDAFTAR",
        "sistem_elektronik_id": 11435
      }
    },
    {
      "type": "tdpseTerbit",
      "id": 11634,
      "attributes": {
        "nomor_pb_umku": null,
        "nama": "REPINDO RESOURCES",
        "website": "repindoresources.com.au",
        "sektor": "Sektor Perdagangan",
        "nama_perusahaan": "SHANTOU JINJIA TRADING CO., LTD.",
        "tanggal_daftar": "2022-10-09",
        "nomor_tanda_daftar": "008045.01/DJAI.PSE/10/2022",
        "qr_code": "https://pse.kominfo.go.id/storage/images/qr_code/ac9c068a9833d65b60d0999f91377e9d.png",
        "status_id": "TERDAFTAR",
        "sistem_elektronik_id": 11434
      }
    },
    {
      "type": "tdpseTerbit",
      "id": 11633,
      "attributes": {
        "nomor_pb_umku": null,
        "nama": "ROYAL BEACH SEMINYAK",
        "website": "theroyalbeachseminyak.com",
        "sektor": "Sektor Perdagangan",
        "nama_perusahaan": "SHANTOU JINJIA TRADING CO., LTD.",
        "tanggal_daftar": "2022-10-08",
        "nomor_tanda_daftar": "008044.02/DJAI.PSE/10/2022",
        "qr_code": "https://pse.kominfo.go.id/storage/images/qr_code/37b901ff3429054f55d63e114e3271be.png",
        "status_id": "TERDAFTAR",
        "sistem_elektronik_id": 11433
      }
    },
    {
      "type": "tdpseTerbit",
      "id": 11632,
      "attributes": {
        "nomor_pb_umku": null,
        "nama": "BAHANA TCW",
        "website": "bahana.co.id",
        "sektor": "Sektor Keuangan",
        "nama_perusahaan": "SHANTOU JINJIA TRADING CO., LTD.",
        "tanggal_daftar": "2022-10-08",
        "nomor_tanda_daftar": "008044.01/DJAI.PSE/10/2022",
        "qr_code": "https://pse.kominfo.go.id/storage/images/qr_code/8b9ec648db6de287918d178a51172ce9.png",
        "status_id": "TERDAFTAR",
        "sistem_elektronik_id": 11432
      }
    },
    {
      "type": "tdpseTerbit",
      "id": 11631,
      "attributes": {
        "nomor_pb_umku": null,
        "nama": "REPINDO RESOURCES",
        "website": "repindoresources.com.au",
        "sektor": "Sektor Perdagangan",
        "nama_perusahaan": "SHANTOU JINJIA TRADING CO., LTD.",
        "tanggal_daftar": "2022-10-08",
        "nomor_tanda_daftar": "008043.03/DJAI.PSE/10/2022",
        "qr_code": "https://pse.kominfo.go.id/storage/images/qr_code/223dbe698508cc837de6c40782f1d531.png",
        "status_id": "TERDAFTAR",
        "sistem_elektronik_id": 11431
      }
    },
    {
      "type": "tdpseTerbit",
      "id": 11630,
      "attributes": {
        "nomor_pb_umku": null,
        "nama": "BANK MANDIRI HONG KONG",
        "website": "bankmandirihk.com",
        "sektor": "Sektor Keuangan",
        "nama_perusahaan": "SHANTOU JINJIA TRADING CO., LTD.",
        "tanggal_daftar": "2022-10-08",
        "nomor_tanda_daftar": "008043.02/DJAI.PSE/10/2022",
        "qr_code": "https://pse.kominfo.go.id/storage/images/qr_code/b99d60a1f67c64e745464a362e4bd152.png",
        "status_id": "TERDAFTAR",
        "sistem_elektronik_id": 11430
      }
    },
    {
      "type": "tdpseTerbit",
      "id": 11629,
      "attributes": {
        "nomor_pb_umku": null,
        "nama": "MANDIRI INVESTASI",
        "website": "mandiri-investasi.co.id",
        "sektor": "Sektor Keuangan",
        "nama_perusahaan": "SHANTOU JINJIA TRADING CO., LTD.",
        "tanggal_daftar": "2022-10-08",
        "nomor_tanda_daftar": "008043.01/DJAI.PSE/10/2022",
        "qr_code": "https://pse.kominfo.go.id/storage/images/qr_code/21da966d6b7d5887a634c2a3d36d590c.png",
        "status_id": "TERDAFTAR",
        "sistem_elektronik_id": 11429
      }
    },
    {
      "type": "tdpseTerbit",
      "id": 11765,
      "attributes": {
        "nomor_pb_umku": null,
        "nama": "REPINDO RESOURCES PTY. LTD.",
        "website": "repindoresources.com.au",
        "sektor": "Sektor Perdagangan",
        "nama_perusahaan": "COMMERCE KAPITAL",
        "tanggal_daftar": "2022-10-11",
        "nomor_tanda_daftar": "008042.05/DJAI.PSE/10/2022",
        "qr_code": "https://pse.kominfo.go.id/storage/images/qr_code/614a47e7479543ba51b475a153783a43.png",
        "status_id": "TERDAFTAR",
        "sistem_elektronik_id": 11565
      }
    },
    {
      "type": "tdpseTerbit",
      "id": 11764,
      "attributes": {
        "nomor_pb_umku": null,
        "nama": "THE ROYAL BEACH SEMINYAK",
        "website": "theroyalbeachseminyak.com",
        "sektor": "Sektor Perdagangan",
        "nama_perusahaan": "COMMERCE KAPITAL",
        "tanggal_daftar": "2022-10-11",
        "nomor_tanda_daftar": "008042.04/DJAI.PSE/10/2022",
        "qr_code": "https://pse.kominfo.go.id/storage/images/qr_code/a07f815f6860c89d60fdccc5ac0eb64f.png",
        "status_id": "TERDAFTAR",
        "sistem_elektronik_id": 11564
      }
    }
  ]
}