{
  "meta": {
    "page": {
      "currentPage": 18,
      "from": 171,
      "lastPage": 50,
      "perPage": 10,
      "to": 180,
      "total": 498
    }
  },
  "data": [
    {
      "type": "tdpseTerbit",
      "id": 9260,
      "attributes": {
        "nomor_pb_umku": null,
        "nama": "CHAMET",
        "website": "ichamet.com",
        "sektor": "Sektor Teknologi Informasi dan Komunikasi",
        "nama_perusahaan": "FULIAO HONG KONG LIMITED",
        "tanggal_daftar": "2022-07-28",
        "nomor_tanda_daftar": "006495.01/DJAI.PSE/07/2022",
        "qr_code": "https://pse.kominfo.go.id/storage/images/qr_code/f9aaf89007004c2d39fc6b590b449a8b.png",
        "status_id": "TERDAFTAR",
        "sistem_elektronik_id": 9172
      }
    },
    {
      "type": "tdpseTerbit",
      "id": 9258,
      "attributes": {
        "nomor_pb_umku": null,
        "nama": "6ESTATES IDP",
        "website": "idp-sea.6estates.com",
        "sektor": "Sektor Teknologi Informasi dan Komunikasi",
        "nama_perusahaan": "6ESTATES PTE. LTD.",
        "tanggal_daftar": "2022-07-28",
        "nomor_tanda_daftar": "006494.01/DJAI.PSE/07/2022",
        "qr_code": "https://pse.kominfo.go.id/storage/images/qr_code/dcc4eb136aa1e6dc515218cc26ebf57b.png",
        "status_id": "TERDAFTAR",
        "sistem_elektronik_id": 9170
      }
    },
    {
      "type": "tdpseTerbit",
      "id": 9257,
      "attributes": {
        "nomor_pb_umku": null,
        "nama": "SEAL LIVE",
        "website": "seallive.app",
        "sektor": "Sektor Teknologi Informasi dan Komunikasi",
        "nama_perusahaan": "PLANET NINE INNOVATION LIMITED",
        "tanggal_daftar": "2022-07-28",
        "nomor_tanda_daftar": "006492.01/DJAI.PSE/07/2022",
        "qr_code": "https://pse.kominfo.go.id/storage/images/qr_code/9083b19c922268a783da88fc3d8a1a49.png",
        "status_id": "TERDAFTAR",
        "sistem_elektronik_id": 9169
      }
    },
    {
      "type": "tdpseTerbit",
      "id": 9256,
      "attributes": {
        "nomor_pb_umku": null,
        "nama": "PARAS.ID",
        "website": "paras.id",
        "sektor": "Sektor Teknologi Informasi dan Komunikasi",
        "nama_perusahaan": "PARAS DIGITAL PTE LTD",
        "tanggal_daftar": "2022-07-28",
        "nomor_tanda_daftar": "006491.01/DJAI.PSE/07/2022",
        "qr_code": "https://pse.kominfo.go.id/storage/images/qr_code/fdc31f4c2a760741db2ad72bf806c03d.png",
        "status_id": "TERDAFTAR",
        "sistem_elektronik_id": 9168
      }
    },
    {
      "type": "tdpseTerbit",
      "id": 9255,
      "attributes": {
        "nomor_pb_umku": null,
        "nama": "LITMATCH",
        "website": "litmatchapp.com/#/",
        "sektor": "Sektor Teknologi Informasi dan Komunikasi",
        "nama_perusahaan": "CONSTRUCT TECHNOLOGY PTE LTD",
        "tanggal_daftar": "2022-07-28",
        "nomor_tanda_daftar": "006490.01/DJAI.PSE/07/2022",
        "qr_code": "https://pse.kominfo.go.id/storage/images/qr_code/8ce26c5c2098be22f411b8259074f63d.png",
        "status_id": "TERDAFTAR",
        "sistem_elektronik_id": 9167
      }
    },
    {
      "type": "tdpseTerbit",
      "id": 9252,
      "attributes": {
        "nomor_pb_umku": null,
        "nama": "NARUTO:SLUGFESTX",
        "website": "narutoslugfest.com",
        "sektor": "Sektor Perdagangan",
        "nama_perusahaan": "HONGKONG YOYOO TECHNOLOGY CO.,LIMITED",
        "tanggal_daftar": "2022-07-28",
        "nomor_tanda_daftar": "006488.01/DJAI.PSE/07/2022",
        "qr_code": "https://pse.kominfo.go.id/storage/images/qr_code/e4bab0fcd44e8eda46b1297c7a6683c0.png",
        "status_id": "TERDAFTAR",
        "sistem_elektronik_id": 9164
      }
    },
    {
      "type": "tdpseTerbit",
      "id": 9251,
      "attributes": {
        "nomor_pb_umku": null,
        "nama": "UKI",
        "website": "uki.booyah.cc/",
        "sektor": "Sektor Teknologi Informasi dan Komunikasi",
        "nama_perusahaan": "QUYUE TECHNOLOGY PTE. LTD.",
        "tanggal_daftar": "2022-07-28",
        "nomor_tanda_daftar": "006487.01/DJAI.PSE/07/2022",
        "qr_code": "https://pse.kominfo.go.id/storage/images/qr_code/c65bdc3c7a9aa42f99ed4f178f038abd.png",
        "status_id": "TERDAFTAR",
        "sistem_elektronik_id": 9163
      }
    },
    {
      "type": "tdpseTerbit",
      "id": 9250,
      "attributes": {
        "nomor_pb_umku": null,
        "nama": "MEETYOU",
        "website": "play.google.com/store/apps/details?id=com.meetyou.intl",
        "sektor": "Sektor Teknologi Informasi dan Komunikasi",
        "nama_perusahaan": "INSPIRATION GROUP HONGKONG LIMITED",
        "tanggal_daftar": "2022-07-28",
        "nomor_tanda_daftar": "006486.01/DJAI.PSE/07/2022",
        "qr_code": "https://pse.kominfo.go.id/storage/images/qr_code/7442dc2a42adb4ea25e143dd80cdac47.png",
        "status_id": "TERDAFTAR",
        "sistem_elektronik_id": 9162
      }
    },
    {
      "type": "tdpseTerbit",
      "id": 9249,
      "attributes": {
        "nomor_pb_umku": null,
        "nama": "APKPURE",
        "website": "apkpure.com",
        "sektor": "Sektor Teknologi Informasi dan Komunikasi",
        "nama_perusahaan": "ELECYBER INTERNATIONAL PTE. LTD.",
        "tanggal_daftar": "2022-07-28",
        "nomor_tanda_daftar": "006485.01/DJAI.PSE/07/2022",
        "qr_code": "https://pse.kominfo.go.id/storage/images/qr_code/4138aa12b3b35f78f4c073e477956438.png",
        "status_id": "TERDAFTAR",
        "sistem_elektronik_id": 9161
      }
    },
    {
      "type": "tdpseTerbit",
      "id": 9248,
      "attributes": {
        "nomor_pb_umku": null,
        "nama": "COUNTER-STRIKE NEXON: STUDIO",
        "website": "store.steampowered.com/app/273110/CounterStrike_Nexon_Zombies",
        "sektor": "Sektor Teknologi Informasi dan Komunikasi",
        "nama_perusahaan": "NEXON KOREA CORPORATION",
        "tanggal_daftar": "2022-07-28",
        "nomor_tanda_daftar": "006484.09/DJAI.PSE/07/2022",
        "qr_code": "https://pse.kominfo.go.id/storage/images/qr_code/86873e04fc7f1b2b8ee6536c705481e8.png",
        "status_id": "TERDAFTAR",
        "sistem_elektronik_id": 9160
      }
    }
  ]
}