{
  "meta": {
    "page": {
      "currentPage": 19,
      "from": 181,
      "lastPage": 29,
      "perPage": 10,
      "to": 190,
      "total": 290
    }
  },
  "data": [
    {
      "type": "tdpseTerbit",
      "id": 6683,
      "attributes": {
        "nomor_pb_umku": null,
        "nama": "SHOPPINGMALL.99.COM",
        "website": "shoppingmall.99.com",
        "sektor": "Sektor Perdagangan",
        "nama_perusahaan": "NETDRAGON",
        "tanggal_daftar": "2022-07-19",
        "nomor_tanda_daftar": "004914.01/DJAI.PSE/07/2022",
        "qr_code": "https://pse.kominfo.go.id/storage/images/qr_code/075e538cdb7b0acbde35f42317c16d0d.png",
        "status_id": "TERDAFTAR",
        "sistem_elektronik_id": 6536
      }
    },
    {
      "type": "tdpseTerbit",
      "id": 6681,
      "attributes": {
        "nomor_pb_umku": null,
        "nama": "DISCORD",
        "website": "discord.com",
        "sektor": "Sektor Teknologi Informasi dan Komunikasi",
        "nama_perusahaan": "DISCORD INC.",
        "tanggal_daftar": "2022-07-19",
        "nomor_tanda_daftar": "004913.01/DJAI.PSE/07/2022",
        "qr_code": "https://pse.kominfo.go.id/storage/images/qr_code/cfb534eeca7cf00bd3f971e7fcb69ffd.png",
        "status_id": "TERDAFTAR",
        "sistem_elektronik_id": 6532
      }
    },
    {
      "type": "tdpseTerbit",
      "id": 6654,
      "attributes": {
        "nomor_pb_umku": null,
        "nama": "NETEASE GAME",
        "website": "neteasegames.com",
        "sektor": "Sektor Teknologi Informasi dan Komunikasi",
        "nama_perusahaan": "NETEASE INTERACTIVE ENTERTAINMENT PTE. LTD.",
        "tanggal_daftar": "2022-07-19",
        "nomor_tanda_daftar": "004884.02/DJAI.PSE/07/2022",
        "qr_code": "https://pse.kominfo.go.id/storage/images/qr_code/213d5a203599ad75d610a981c9a1e1a1.png",
        "status_id": "TERDAFTAR",
        "sistem_elektronik_id": 6508
      }
    },
    {
      "type": "tdpseTerbit",
      "id": 6653,
      "attributes": {
        "nomor_pb_umku": null,
        "nama": "NARAKA",
        "website": "narakathegame.com",
        "sektor": "Sektor Teknologi Informasi dan Komunikasi",
        "nama_perusahaan": "NETEASE INTERACTIVE ENTERTAINMENT PTE. LTD.",
        "tanggal_daftar": "2022-07-19",
        "nomor_tanda_daftar": "004884.01/DJAI.PSE/07/2022",
        "qr_code": "https://pse.kominfo.go.id/storage/images/qr_code/469eb8ef72a600a1e84f634d79d0e902.png",
        "status_id": "TERDAFTAR",
        "sistem_elektronik_id": 6507
      }
    },
    {
      "type": "tdpseTerbit",
      "id": 6650,
      "attributes": {
        "nomor_pb_umku": null,
        "nama": "EDGE COMPUTING SOLUTIONS",
        "website": "lumen.com",
        "sektor": "Sektor Teknologi Informasi dan Komunikasi",
        "nama_perusahaan": "LEVEL 3 COMMUNICATIONS HONG KONG LIMITED",
        "tanggal_daftar": "2022-07-19",
        "nomor_tanda_daftar": "004882.01/DJAI.PSE/07/2022",
        "qr_code": "https://pse.kominfo.go.id/storage/images/qr_code/c1ba68274fca90e341d96e635d5fb070.png",
        "status_id": "TERDAFTAR",
        "sistem_elektronik_id": 6505
      }
    },
    {
      "type": "tdpseTerbit",
      "id": 6649,
      "attributes": {
        "nomor_pb_umku": null,
        "nama": "MUMU PLAYER",
        "website": "mumuglobal.com",
        "sektor": "Sektor Teknologi Informasi dan Komunikasi",
        "nama_perusahaan": "HONG KONG NETEASE INTERACTIVE ENTERTAINMENT LIMITED",
        "tanggal_daftar": "2022-07-19",
        "nomor_tanda_daftar": "004879.02/DJAI.PSE/07/2022",
        "qr_code": "https://pse.kominfo.go.id/storage/images/qr_code/455442307d80d52cf9469acc70f2211a.png",
        "status_id": "TERDAFTAR",
        "sistem_elektronik_id": 6504
      }
    },
    {
      "type": "tdpseTerbit",
      "id": 6648,
      "attributes": {
        "nomor_pb_umku": null,
        "nama": "UU BOOSTER",
        "website": "uubooster.com",
        "sektor": "Sektor Teknologi Informasi dan Komunikasi",
        "nama_perusahaan": "HONG KONG NETEASE INTERACTIVE ENTERTAINMENT LIMITED",
        "tanggal_daftar": "2022-07-19",
        "nomor_tanda_daftar": "004879.01/DJAI.PSE/07/2022",
        "qr_code": "https://pse.kominfo.go.id/storage/images/qr_code/9eab2aa203da57d1d4d58434fe0d3730.png",
        "status_id": "TERDAFTAR",
        "sistem_elektronik_id": 6503
      }
    },
    {
      "type": "tdpseTerbit",
      "id": 6644,
      "attributes": {
        "nomor_pb_umku": null,
        "nama": "MERIDIA°COLLECT",
        "website": "refinery.meridia.land",
        "sektor": "Sektor Pangan",
        "nama_perusahaan": "MERIDIA LAND",
        "tanggal_daftar": "2022-07-19",
        "nomor_tanda_daftar": "004878.01/DJAI.PSE/07/2022",
        "qr_code": "https://pse.kominfo.go.id/storage/images/qr_code/3901fc8a712f4cb3241e33d411d51682.png",
        "status_id": "TERDAFTAR",
        "sistem_elektronik_id": 6501
      }
    },
    {
      "type": "tdpseTerbit",
      "id": 6640,
      "attributes": {
        "nomor_pb_umku": null,
        "nama": "OFFGAMERS GLOBAL PTE LTD",
        "website": "offgamers.com",
        "sektor": "Sektor Perdagangan",
        "nama_perusahaan": "OFFGAMERS",
        "tanggal_daftar": "2022-07-19",
        "nomor_tanda_daftar": "004877.01/DJAI.PSE/07/2022",
        "qr_code": "https://pse.kominfo.go.id/storage/images/qr_code/6c8bb614788b12b2134e8f4a13e97067.png",
        "status_id": "TERDAFTAR",
        "sistem_elektronik_id": 6497
      }
    },
    {
      "type": "tdpseTerbit",
      "id": 6576,
      "attributes": {
        "nomor_pb_umku": null,
        "nama": "NETFLIX",
        "website": "Netflix.com/id/",
        "sektor": "Sektor Perdagangan",
        "nama_perusahaan": "NETFLIX PTE. LTD.",
        "tanggal_daftar": "2022-07-19",
        "nomor_tanda_daftar": "004825.01/DJAI.PSE/07/2022",
        "qr_code": "https://pse.kominfo.go.id/storage/images/qr_code/2081f51103adc0a664e107482ec36491.png",
        "status_id": "TERDAFTAR",
        "sistem_elektronik_id": 6434
      }
    }
  ]
}