{
  "meta": {
    "page": {
      "currentPage": 20,
      "from": 191,
      "lastPage": 45,
      "perPage": 10,
      "to": 200,
      "total": 448
    }
  },
  "data": [
    {
      "type": "tdpseTerbit",
      "id": 9165,
      "attributes": {
        "nomor_pb_umku": null,
        "nama": "DRAGON RAJA - SEA",
        "website": "play.google.com/store/apps/details?id=com.archosaur.sea.dr.gp",
        "sektor": "Sektor Teknologi Informasi dan Komunikasi",
        "nama_perusahaan": "FAMOUSHEART",
        "tanggal_daftar": "2022-07-27",
        "nomor_tanda_daftar": "006438.01/DJAI.PSE/07/2022",
        "qr_code": "https://pse.kominfo.go.id/storage/images/qr_code/6e7f3af3b5c9383148e13c0b8cbf3e6e.png",
        "status_id": "TERDAFTAR",
        "sistem_elektronik_id": 9072
      }
    },
    {
      "type": "tdpseTerbit",
      "id": 11421,
      "attributes": {
        "nomor_pb_umku": null,
        "nama": "METAL SLUG: AWAKENING",
        "website": "metalslug.vnggames.net",
        "sektor": "Sektor Teknologi Informasi dan Komunikasi",
        "nama_perusahaan": "VNG SINGAPORE PTE., LTD.",
        "tanggal_daftar": "2022-09-29",
        "nomor_tanda_daftar": "006431.06/DJAI.PSE/09/2022",
        "qr_code": "https://pse.kominfo.go.id/storage/images/qr_code/47ca5607de89ed26130a429ac2f95af4.png",
        "status_id": "TERDAFTAR",
        "sistem_elektronik_id": 11234
      }
    },
    {
      "type": "tdpseTerbit",
      "id": 9211,
      "attributes": {
        "nomor_pb_umku": null,
        "nama": "[MUMSEA] MU STRONGEST - WEBZEN OFFICIALLY AUTHORIZED",
        "website": "mustrongestsea.vnggames.net",
        "sektor": "Sektor Teknologi Informasi dan Komunikasi",
        "nama_perusahaan": "VNG SINGAPORE PTE., LTD.",
        "tanggal_daftar": "2022-07-27",
        "nomor_tanda_daftar": "006431.05/DJAI.PSE/07/2022",
        "qr_code": "https://pse.kominfo.go.id/storage/images/qr_code/3bf87e1846d18f2354237bd1f61bce79.png",
        "status_id": "TERDAFTAR",
        "sistem_elektronik_id": 9119
      }
    },
    {
      "type": "tdpseTerbit",
      "id": 9150,
      "attributes": {
        "nomor_pb_umku": null,
        "nama": "PERFECT WORLD VNG: FLY WITH ME",
        "website": "perfectworld.vng.games",
        "sektor": "Sektor Teknologi Informasi dan Komunikasi",
        "nama_perusahaan": "VNG SINGAPORE PTE., LTD.",
        "tanggal_daftar": "2022-07-27",
        "nomor_tanda_daftar": "006431.04/DJAI.PSE/07/2022",
        "qr_code": "https://pse.kominfo.go.id/storage/images/qr_code/9d03d75d566483c80898dc7627959653.png",
        "status_id": "TERDAFTAR",
        "sistem_elektronik_id": 9059
      }
    },
    {
      "type": "tdpseTerbit",
      "id": 9149,
      "attributes": {
        "nomor_pb_umku": null,
        "nama": "DYNASTY WARRIORS: OVERLORDS",
        "website": "dynastywarriors.vnggames.net",
        "sektor": "Sektor Teknologi Informasi dan Komunikasi",
        "nama_perusahaan": "VNG SINGAPORE PTE., LTD.",
        "tanggal_daftar": "2022-07-27",
        "nomor_tanda_daftar": "006431.03/DJAI.PSE/07/2022",
        "qr_code": "https://pse.kominfo.go.id/storage/images/qr_code/5ebc34753dfc1f2aad5f69395a97010a.png",
        "status_id": "TERDAFTAR",
        "sistem_elektronik_id": 9058
      }
    },
    {
      "type": "tdpseTerbit",
      "id": 9148,
      "attributes": {
        "nomor_pb_umku": null,
        "nama": "CLOUD SONG: SAGA OF SKYWALKERS",
        "website": "cloudsong.vnggames.com",
        "sektor": "Sektor Teknologi Informasi dan Komunikasi",
        "nama_perusahaan": "VNG SINGAPORE PTE., LTD.",
        "tanggal_daftar": "2022-07-27",
        "nomor_tanda_daftar": "006431.02/DJAI.PSE/07/2022",
        "qr_code": "https://pse.kominfo.go.id/storage/images/qr_code/43ca3d290c07f13021b1e7f460844eab.png",
        "status_id": "TERDAFTAR",
        "sistem_elektronik_id": 9057
      }
    },
    {
      "type": "tdpseTerbit",
      "id": 9147,
      "attributes": {
        "nomor_pb_umku": null,
        "nama": "HEROES OF CROWN VNG",
        "website": "hoc.vnggames.com",
        "sektor": "Sektor Teknologi Informasi dan Komunikasi",
        "nama_perusahaan": "VNG SINGAPORE PTE., LTD.",
        "tanggal_daftar": "2022-07-27",
        "nomor_tanda_daftar": "006431.01/DJAI.PSE/07/2022",
        "qr_code": "https://pse.kominfo.go.id/storage/images/qr_code/666b7af16005b02784ed39457fd21189.png",
        "status_id": "TERDAFTAR",
        "sistem_elektronik_id": 9056
      }
    },
    {
      "type": "tdpseTerbit",
      "id": 8928,
      "attributes": {
        "nomor_pb_umku": null,
        "nama": "ROBLOX CORPORATION",
        "website": "roblox.com",
        "sektor": "Sektor Teknologi Informasi dan Komunikasi",
        "nama_perusahaan": "ROBLOX CORPORATION",
        "tanggal_daftar": "2022-07-19",
        "nomor_tanda_daftar": "006219.01/DJAI.PSE/07/2022",
        "qr_code": "https://pse.kominfo.go.id/storage/images/qr_code/0b2a98dca1d24b3fecc97844ef8c9086.png",
        "status_id": "TERDAFTAR",
        "sistem_elektronik_id": 8834
      }
    },
    {
      "type": "tdpseTerbit",
      "id": 8770,
      "attributes": {
        "nomor_pb_umku": null,
        "nama": "MIHCM",
        "website": "mihcm.com",
        "sektor": "Sektor Teknologi Informasi dan Komunikasi",
        "nama_perusahaan": "MIHCM ASIA",
        "tanggal_daftar": "2022-07-22",
        "nomor_tanda_daftar": "006145.01/DJAI.PSE/07/2022",
        "qr_code": "https://pse.kominfo.go.id/storage/images/qr_code/6bb2851a4a293b0844f1811f3a1a47f0.png",
        "status_id": "TERDAFTAR",
        "sistem_elektronik_id": 8687
      }
    },
    {
      "type": "tdpseTerbit",
      "id": 11467,
      "attributes": {
        "nomor_pb_umku": null,
        "nama": "INOVELS",
        "website": "inovelsapp.com",
        "sektor": "Sektor Teknologi Informasi dan Komunikasi",
        "nama_perusahaan": "AKURA PTE. LTD.",
        "tanggal_daftar": "2022-10-03",
        "nomor_tanda_daftar": "006144.08/DJAI.PSE/10/2022",
        "qr_code": "https://pse.kominfo.go.id/storage/images/qr_code/a76aeea8921b14c6f5c2091f3b465593.png",
        "status_id": "TERDAFTAR",
        "sistem_elektronik_id": 11282
      }
    }
  ]
}