{
  "meta": {
    "page": {
      "currentPage": 3,
      "from": 21,
      "lastPage": 63,
      "perPage": 10,
      "to": 30,
      "total": 630
    }
  },
  "data": [
    {
      "type": "tdpseTerbit",
      "id": 11724,
      "attributes": {
        "nomor_pb_umku": null,
        "nama": "THE ROYAL BEACH SEMINYAK",
        "website": "theroyalbeachseminyak.com",
        "sektor": "Sektor Perdagangan",
        "nama_perusahaan": "GRAHA VENTURA MILENIAL GROUP",
        "tanggal_daftar": "2022-10-09",
        "nomor_tanda_daftar": "008059.05/DJAI.PSE/10/2022",
        "qr_code": "https://pse.kominfo.go.id/storage/images/qr_code/f6a12efb03da81b91e88cb969ed3308b.png",
        "status_id": "TERDAFTAR",
        "sistem_elektronik_id": 11524
      }
    },
    {
      "type": "tdpseTerbit",
      "id": 11723,
      "attributes": {
        "nomor_pb_umku": null,
        "nama": "VIER CORPORATION LIMITED",
        "website": "viercorp.com",
        "sektor": "Sektor Keuangan",
        "nama_perusahaan": "GRAHA VENTURA MILENIAL GROUP",
        "tanggal_daftar": "2022-10-09",
        "nomor_tanda_daftar": "008059.04/DJAI.PSE/10/2022",
        "qr_code": "https://pse.kominfo.go.id/storage/images/qr_code/b79b98712e5d59f4c5c71d9113cf6df1.png",
        "status_id": "TERDAFTAR",
        "sistem_elektronik_id": 11523
      }
    },
    {
      "type": "tdpseTerbit",
      "id": 11722,
      "attributes": {
        "nomor_pb_umku": null,
        "nama": "LEMBANG ASRI HOTEL",
        "website": "lembangasrihotel.com",
        "sektor": "Sektor Perdagangan",
        "nama_perusahaan": "GRAHA VENTURA MILENIAL GROUP",
        "tanggal_daftar": "2022-10-09",
        "nomor_tanda_daftar": "008059.03/DJAI.PSE/10/2022",
        "qr_code": "https://pse.kominfo.go.id/storage/images/qr_code/45ac8a00d8fc523617991747de7f7cd9.png",
        "status_id": "TERDAFTAR",
        "sistem_elektronik_id": 11522
      }
    },
    {
      "type": "tdpseTerbit",
      "id": 11721,
      "attributes": {
        "nomor_pb_umku": null,
        "nama": "BRITAMA",
        "website": "britama.com",
        "sektor": "Sektor Keuangan",
        "nama_perusahaan": "GRAHA VENTURA MILENIAL GROUP",
        "tanggal_daftar": "2022-10-09",
        "nomor_tanda_daftar": "008059.02/DJAI.PSE/10/2022",
        "qr_code": "https://pse.kominfo.go.id/storage/images/qr_code/c03581ac81d1c1e67cd1f43be332ec24.png",
        "status_id": "TERDAFTAR",
        "sistem_elektronik_id": 11521
      }
    },
    {
      "type": "tdpseTerbit",
      "id": 11720,
      "attributes": {
        "nomor_pb_umku": null,
        "nama": "SEKOLAH TUNAS INDONESIA",
        "website": "sekolahtunasindonesia.com",
        "sektor": "Sektor Keuangan",
        "nama_perusahaan": "GRAHA VENTURA MILENIAL GROUP",
        "tanggal_daftar": "2022-10-09",
        "nomor_tanda_daftar": "008059.01/DJAI.PSE/10/2022",
        "qr_code": "https://pse.kominfo.go.id/storage/images/qr_code/f503ea0ba7f58930d37ee1e917aeac31.png",
        "status_id": "TERDAFTAR",
        "sistem_elektronik_id": 11520
      }
    },
    {
      "type": "tdpseTerbit",
      "id": 11719,
      "attributes": {
        "nomor_pb_umku": null,
        "nama": "BIONS",
        "website": "bions.id",
        "sektor": "Sektor Keuangan",
        "nama_perusahaan": "INDAH AGUNG MANDIRI",
        "tanggal_daftar": "2022-10-09",
        "nomor_tanda_daftar": "008058.01/DJAI.PSE/10/2022",
        "qr_code": "https://pse.kominfo.go.id/storage/images/qr_code/2eab3667d06a331453dcdc981e4a318f.png",
        "status_id": "TERDAFTAR",
        "sistem_elektronik_id": 11519
      }
    },
    {
      "type": "tdpseTerbit",
      "id": 11714,
      "attributes": {
        "nomor_pb_umku": null,
        "nama": "THE HONGKONG AND SHANGHAI BANKING CORPORATION",
        "website": "hsbc.com.hk",
        "sektor": "Sektor Keuangan",
        "nama_perusahaan": "BERKAH HIKMAH ENERGI",
        "tanggal_daftar": "2022-10-09",
        "nomor_tanda_daftar": "008057.10/DJAI.PSE/10/2022",
        "qr_code": "https://pse.kominfo.go.id/storage/images/qr_code/83f960cae136c3aa6f78ed46d0045507.png",
        "status_id": "TERDAFTAR",
        "sistem_elektronik_id": 11514
      }
    },
    {
      "type": "tdpseTerbit",
      "id": 11713,
      "attributes": {
        "nomor_pb_umku": null,
        "nama": "PETER JOHN GEORGE TURNER (RUMICORP PTY LTD - BRAWIJAYA CAPITAL INVESTAMA)",
        "website": "btinternet.com",
        "sektor": "Sektor Perdagangan",
        "nama_perusahaan": "BERKAH HIKMAH ENERGI",
        "tanggal_daftar": "2022-10-09",
        "nomor_tanda_daftar": "008057.09/DJAI.PSE/10/2022",
        "qr_code": "https://pse.kominfo.go.id/storage/images/qr_code/f3359adc9145f858c24779e5f875be78.png",
        "status_id": "TERDAFTAR",
        "sistem_elektronik_id": 11513
      }
    },
    {
      "type": "tdpseTerbit",
      "id": 11712,
      "attributes": {
        "nomor_pb_umku": null,
        "nama": "WILLIAM J KNOWLES (REPINDO RESOURCES PTY LTD) - MARIA TIURMA (OWEN PETRO BITUMEN)",
        "website": "repindoresources.com.au",
        "sektor": "Sektor Perdagangan",
        "nama_perusahaan": "BERKAH HIKMAH ENERGI",
        "tanggal_daftar": "2022-10-09",
        "nomor_tanda_daftar": "008057.08/DJAI.PSE/10/2022",
        "qr_code": "https://pse.kominfo.go.id/storage/images/qr_code/12f7c3236f283a9e42876c5f9c2831af.png",
        "status_id": "TERDAFTAR",
        "sistem_elektronik_id": 11512
      }
    },
    {
      "type": "tdpseTerbit",
      "id": 11711,
      "attributes": {
        "nomor_pb_umku": null,
        "nama": "BNI LIFE",
        "website": "bni-life.co.id",
        "sektor": "Sektor Keuangan",
        "nama_perusahaan": "BERKAH HIKMAH ENERGI",
        "tanggal_daftar": "2022-10-09",
        "nomor_tanda_daftar": "008057.07/DJAI.PSE/10/2022",
        "qr_code": "https://pse.kominfo.go.id/storage/images/qr_code/52ab64a7186d07a188f7fa90a615a45a.png",
        "status_id": "TERDAFTAR",
        "sistem_elektronik_id": 11511
      }
    }
  ]
}