{
  "meta": {
    "page": {
      "currentPage": 21,
      "from": 201,
      "lastPage": 62,
      "perPage": 10,
      "to": 210,
      "total": 617
    }
  },
  "data": [
    {
      "type": "tdpseTerbit",
      "id": 10683,
      "attributes": {
        "nomor_pb_umku": null,
        "nama": "RISE OF EMPIRES",
        "website": "longtech.hk",
        "sektor": "Sektor Teknologi Informasi dan Komunikasi",
        "nama_perusahaan": "LONG TECH NETWORK LIMITED",
        "tanggal_daftar": "2022-08-22",
        "nomor_tanda_daftar": "007433.01/DJAI.PSE/08/2022",
        "qr_code": "https://pse.kominfo.go.id/storage/images/qr_code/9365035d971c44819a9810dfea2a2be8.png",
        "status_id": "TERDAFTAR",
        "sistem_elektronik_id": 10516
      }
    },
    {
      "type": "tdpseTerbit",
      "id": 10682,
      "attributes": {
        "nomor_pb_umku": null,
        "nama": "MONKEY - LIVE VIDEO CHAT",
        "website": "monkey.app",
        "sektor": "Sektor Teknologi Informasi dan Komunikasi",
        "nama_perusahaan": "MONKEY, INC,",
        "tanggal_daftar": "2022-08-22",
        "nomor_tanda_daftar": "007431.01/DJAI.PSE/08/2022",
        "qr_code": "https://pse.kominfo.go.id/storage/images/qr_code/87a80271ffe92991a73d4f765eb05546.png",
        "status_id": "TERDAFTAR",
        "sistem_elektronik_id": 10515
      }
    },
    {
      "type": "tdpseTerbit",
      "id": 10681,
      "attributes": {
        "nomor_pb_umku": null,
        "nama": "MU ORIGIN 2",
        "website": "id.mu2sea.com",
        "sektor": "Sektor Teknologi Informasi dan Komunikasi",
        "nama_perusahaan": "GAMENOW TECHNOLOGY LIMITED",
        "tanggal_daftar": "2022-08-22",
        "nomor_tanda_daftar": "007430.01/DJAI.PSE/08/2022",
        "qr_code": "https://pse.kominfo.go.id/storage/images/qr_code/1161c4e1895c5aa927410ab454c071e2.png",
        "status_id": "TERDAFTAR",
        "sistem_elektronik_id": 10514
      }
    },
    {
      "type": "tdpseTerbit",
      "id": 10641,
      "attributes": {
        "nomor_pb_umku": null,
        "nama": "PAYNICORN",
        "website": "paynicorn.com/#/docs",
        "sektor": "Sektor Keuangan",
        "nama_perusahaan": "EASETREND TECHNOLOGY LIMITED",
        "tanggal_daftar": "2022-08-20",
        "nomor_tanda_daftar": "007394.01/DJAI.PSE/08/2022",
        "qr_code": "https://pse.kominfo.go.id/storage/images/qr_code/2cd97e477fd6d831af74204f1c02404e.png",
        "status_id": "TERDAFTAR",
        "sistem_elektronik_id": 10476
      }
    },
    {
      "type": "tdpseTerbit",
      "id": 10629,
      "attributes": {
        "nomor_pb_umku": null,
        "nama": "SCOOPER",
        "website": "scoopernews.com",
        "sektor": "Sektor Teknologi Informasi dan Komunikasi",
        "nama_perusahaan": "SCOOPER",
        "tanggal_daftar": "2022-08-19",
        "nomor_tanda_daftar": "007385.01/DJAI.PSE/08/2022",
        "qr_code": "https://pse.kominfo.go.id/storage/images/qr_code/b88605013fb5e2793156033aa50654d3.png",
        "status_id": "TERDAFTAR",
        "sistem_elektronik_id": 10464
      }
    },
    {
      "type": "tdpseTerbit",
      "id": 10628,
      "attributes": {
        "nomor_pb_umku": null,
        "nama": "PHONE MASTER",
        "website": "https://play.google.com/store/apps/details?id=com.transsion.phonemaster",
        "sektor": "Sektor Teknologi Informasi dan Komunikasi",
        "nama_perusahaan": "SHANGHAI XIAOCHUAN",
        "tanggal_daftar": "2022-08-19",
        "nomor_tanda_daftar": "007384.05/DJAI.PSE/08/2022",
        "qr_code": "https://pse.kominfo.go.id/storage/images/qr_code/697f3ba9eaffe8ad3a9a8eca88e97c13.png",
        "status_id": "TERDAFTAR",
        "sistem_elektronik_id": 10463
      }
    },
    {
      "type": "tdpseTerbit",
      "id": 10627,
      "attributes": {
        "nomor_pb_umku": null,
        "nama": "HI DICTIONARY",
        "website": "https://play.google.com/store/apps/details?id=com.talpa.translate",
        "sektor": "Sektor Teknologi Informasi dan Komunikasi",
        "nama_perusahaan": "SHANGHAI XIAOCHUAN",
        "tanggal_daftar": "2022-08-19",
        "nomor_tanda_daftar": "007384.04/DJAI.PSE/08/2022",
        "qr_code": "https://pse.kominfo.go.id/storage/images/qr_code/39cfa88ad7c0bd70cee0ed64e869459f.png",
        "status_id": "TERDAFTAR",
        "sistem_elektronik_id": 10462
      }
    },
    {
      "type": "tdpseTerbit",
      "id": 10626,
      "attributes": {
        "nomor_pb_umku": null,
        "nama": "HI TRANSLATE",
        "website": "https://play.google.com/store/apps/details?id=com.zaz.translate",
        "sektor": "Sektor Teknologi Informasi dan Komunikasi",
        "nama_perusahaan": "SHANGHAI XIAOCHUAN",
        "tanggal_daftar": "2022-08-19",
        "nomor_tanda_daftar": "007384.03/DJAI.PSE/08/2022",
        "qr_code": "https://pse.kominfo.go.id/storage/images/qr_code/b186bb52b157962ede86eaa8f40ca445.png",
        "status_id": "TERDAFTAR",
        "sistem_elektronik_id": 10461
      }
    },
    {
      "type": "tdpseTerbit",
      "id": 10625,
      "attributes": {
        "nomor_pb_umku": null,
        "nama": "XSHARE",
        "website": "https://play.google.com/store/apps/details?id=com.infinix.xshare",
        "sektor": "Sektor Teknologi Informasi dan Komunikasi",
        "nama_perusahaan": "SHANGHAI XIAOCHUAN",
        "tanggal_daftar": "2022-08-19",
        "nomor_tanda_daftar": "007384.02/DJAI.PSE/08/2022",
        "qr_code": "https://pse.kominfo.go.id/storage/images/qr_code/20335c84b41e070ee77e25f9ec4c43d7.png",
        "status_id": "TERDAFTAR",
        "sistem_elektronik_id": 10460
      }
    },
    {
      "type": "tdpseTerbit",
      "id": 10624,
      "attributes": {
        "nomor_pb_umku": null,
        "nama": "HI BROWSER",
        "website": "https://play.google.com/store/apps/details?id=com.talpa.hibrowser",
        "sektor": "Sektor Teknologi Informasi dan Komunikasi",
        "nama_perusahaan": "SHANGHAI XIAOCHUAN",
        "tanggal_daftar": "2022-08-19",
        "nomor_tanda_daftar": "007384.01/DJAI.PSE/08/2022",
        "qr_code": "https://pse.kominfo.go.id/storage/images/qr_code/2c6240dd58827e12cf5a4e7c3bda5d51.png",
        "status_id": "TERDAFTAR",
        "sistem_elektronik_id": 10459
      }
    }
  ]
}