{
  "meta": {
    "page": {
      "currentPage": 22,
      "from": 211,
      "lastPage": 49,
      "perPage": 10,
      "to": 220,
      "total": 488
    }
  },
  "data": [
    {
      "type": "tdpseTerbit",
      "id": 8928,
      "attributes": {
        "nomor_pb_umku": null,
        "nama": "ROBLOX CORPORATION",
        "website": "roblox.com",
        "sektor": "Sektor Teknologi Informasi dan Komunikasi",
        "nama_perusahaan": "ROBLOX CORPORATION",
        "tanggal_daftar": "2022-07-19",
        "nomor_tanda_daftar": "006219.01/DJAI.PSE/07/2022",
        "qr_code": "https://pse.kominfo.go.id/storage/images/qr_code/0b2a98dca1d24b3fecc97844ef8c9086.png",
        "status_id": "TERDAFTAR",
        "sistem_elektronik_id": 8834
      }
    },
    {
      "type": "tdpseTerbit",
      "id": 8770,
      "attributes": {
        "nomor_pb_umku": null,
        "nama": "MIHCM",
        "website": "mihcm.com",
        "sektor": "Sektor Teknologi Informasi dan Komunikasi",
        "nama_perusahaan": "MIHCM ASIA",
        "tanggal_daftar": "2022-07-22",
        "nomor_tanda_daftar": "006145.01/DJAI.PSE/07/2022",
        "qr_code": "https://pse.kominfo.go.id/storage/images/qr_code/6bb2851a4a293b0844f1811f3a1a47f0.png",
        "status_id": "TERDAFTAR",
        "sistem_elektronik_id": 8687
      }
    },
    {
      "type": "tdpseTerbit",
      "id": 11467,
      "attributes": {
        "nomor_pb_umku": null,
        "nama": "INOVELS",
        "website": "inovelsapp.com",
        "sektor": "Sektor Teknologi Informasi dan Komunikasi",
        "nama_perusahaan": "AKURA PTE. LTD.",
        "tanggal_daftar": "2022-10-03",
        "nomor_tanda_daftar": "006144.08/DJAI.PSE/10/2022",
        "qr_code": "https://pse.kominfo.go.id/storage/images/qr_code/a76aeea8921b14c6f5c2091f3b465593.png",
        "status_id": "TERDAFTAR",
        "sistem_elektronik_id": 11282
      }
    },
    {
      "type": "tdpseTerbit",
      "id": 10707,
      "attributes": {
        "nomor_pb_umku": null,
        "nama": "NOVELAME",
        "website": "novelame168.com",
        "sektor": "Sektor Teknologi Informasi dan Komunikasi",
        "nama_perusahaan": "AKURA PTE. LTD.",
        "tanggal_daftar": "2022-08-23",
        "nomor_tanda_daftar": "006144.07/DJAI.PSE/08/2022",
        "qr_code": "https://pse.kominfo.go.id/storage/images/qr_code/45de27ffaffb25d90475119270ea76a2.png",
        "status_id": "TERDAFTAR",
        "sistem_elektronik_id": 10540
      }
    },
    {
      "type": "tdpseTerbit",
      "id": 10381,
      "attributes": {
        "nomor_pb_umku": null,
        "nama": "FICNOVEL",
        "website": "ficnovel.net",
        "sektor": "Sektor Teknologi Informasi dan Komunikasi",
        "nama_perusahaan": "AKURA PTE. LTD.",
        "tanggal_daftar": "2022-08-15",
        "nomor_tanda_daftar": "006144.06/DJAI.PSE/08/2022",
        "qr_code": "https://pse.kominfo.go.id/storage/images/qr_code/92661573ac8c94c1e30be295735bbaf7.png",
        "status_id": "TERDAFTAR",
        "sistem_elektronik_id": 10238
      }
    },
    {
      "type": "tdpseTerbit",
      "id": 9917,
      "attributes": {
        "nomor_pb_umku": null,
        "nama": "SPARKAL",
        "website": "play.google.com/store/apps/details?id=com.sparkal.novel&hl=id&gl=id",
        "sektor": "Sektor Teknologi Informasi dan Komunikasi",
        "nama_perusahaan": "AKURA PTE. LTD.",
        "tanggal_daftar": "2022-08-05",
        "nomor_tanda_daftar": "006144.05/DJAI.PSE/08/2022",
        "qr_code": "https://pse.kominfo.go.id/storage/images/qr_code/fffee3a943eaec7c8e2cb33a3a5b425d.png",
        "status_id": "TERDAFTAR",
        "sistem_elektronik_id": 9804
      }
    },
    {
      "type": "tdpseTerbit",
      "id": 9491,
      "attributes": {
        "nomor_pb_umku": null,
        "nama": "UNINOVEL",
        "website": "play.google.com/store/apps/details?id=com.uninovel.novel",
        "sektor": "Sektor Teknologi Informasi dan Komunikasi",
        "nama_perusahaan": "AKURA PTE. LTD.",
        "tanggal_daftar": "2022-08-01",
        "nomor_tanda_daftar": "006144.04/DJAI.PSE/08/2022",
        "qr_code": "https://pse.kominfo.go.id/storage/images/qr_code/4b4b6f5a32d6e1772c292a4d7a93001c.png",
        "status_id": "TERDAFTAR",
        "sistem_elektronik_id": 9398
      }
    },
    {
      "type": "tdpseTerbit",
      "id": 9174,
      "attributes": {
        "nomor_pb_umku": null,
        "nama": "BACALAH",
        "website": "watpadd668.com",
        "sektor": "Sektor Teknologi Informasi dan Komunikasi",
        "nama_perusahaan": "AKURA PTE. LTD.",
        "tanggal_daftar": "2022-07-27",
        "nomor_tanda_daftar": "006144.03/DJAI.PSE/07/2022",
        "qr_code": "https://pse.kominfo.go.id/storage/images/qr_code/09f1a661351f326aacfa42494af026f7.png",
        "status_id": "TERDAFTAR",
        "sistem_elektronik_id": 9081
      }
    },
    {
      "type": "tdpseTerbit",
      "id": 9173,
      "attributes": {
        "nomor_pb_umku": null,
        "nama": "FUNNOVEL",
        "website": "hitnovelvip.com",
        "sektor": "Sektor Teknologi Informasi dan Komunikasi",
        "nama_perusahaan": "AKURA PTE. LTD.",
        "tanggal_daftar": "2022-07-27",
        "nomor_tanda_daftar": "006144.02/DJAI.PSE/07/2022",
        "qr_code": "https://pse.kominfo.go.id/storage/images/qr_code/96b0d38b23f4fecdf29f504c1ce23730.png",
        "status_id": "TERDAFTAR",
        "sistem_elektronik_id": 9080
      }
    },
    {
      "type": "tdpseTerbit",
      "id": 8769,
      "attributes": {
        "nomor_pb_umku": null,
        "nama": "KUBACA",
        "website": "play.google.com/store/apps/details?id=com.reader.kubaca",
        "sektor": "Sektor Teknologi Informasi dan Komunikasi",
        "nama_perusahaan": "AKURA PTE. LTD.",
        "tanggal_daftar": "2022-07-22",
        "nomor_tanda_daftar": "006144.01/DJAI.PSE/07/2022",
        "qr_code": "https://pse.kominfo.go.id/storage/images/qr_code/5cb37184670e054b6224cf7caf0ef553.png",
        "status_id": "TERDAFTAR",
        "sistem_elektronik_id": 8686
      }
    }
  ]
}