{
  "meta": {
    "page": {
      "currentPage": 23,
      "from": 221,
      "lastPage": 30,
      "perPage": 10,
      "to": 230,
      "total": 292
    }
  },
  "data": [
    {
      "type": "tdpseTerbit",
      "id": 5994,
      "attributes": {
        "nomor_pb_umku": null,
        "nama": "WATCHER OF REALMS",
        "website": "play.google.com/store/apps/details?id=com.td.watcherofrealms; m.watcherofrealms.com/#/home",
        "sektor": "Sektor Teknologi Informasi dan Komunikasi",
        "nama_perusahaan": "YOUNGJOY TECHNOLOGY LIMITED",
        "tanggal_daftar": "2022-07-17",
        "nomor_tanda_daftar": "004450.01/DJAI.PSE/07/2022",
        "qr_code": "https://pse.kominfo.go.id/storage/images/qr_code/1be0bf59b4763a60f1df586435d832ab.png",
        "status_id": "TERDAFTAR",
        "sistem_elektronik_id": 5858
      }
    },
    {
      "type": "tdpseTerbit",
      "id": 5280,
      "attributes": {
        "nomor_pb_umku": null,
        "nama": "MICHAT MOBILE APPLICATION SYSTEM",
        "website": "michat.sg",
        "sektor": "Sektor Teknologi Informasi dan Komunikasi",
        "nama_perusahaan": "MICHAT PTE LIMITED",
        "tanggal_daftar": "2022-07-11",
        "nomor_tanda_daftar": "003957.01/DJAI.PSE/07/2022",
        "qr_code": "https://pse.kominfo.go.id/storage/images/qr_code/a9d759b4c67cd7f7be39d3e90fef6f54.png",
        "status_id": "TERDAFTAR",
        "sistem_elektronik_id": 5149
      }
    },
    {
      "type": "tdpseTerbit",
      "id": 4917,
      "attributes": {
        "nomor_pb_umku": "",
        "nama": "IZZI",
        "website": "wefitec.com",
        "sektor": "Sektor Keuangan",
        "nama_perusahaan": "WeFi International A.G.",
        "tanggal_daftar": "2022-06-28",
        "nomor_tanda_daftar": "003535.01/DJAI.PSE/06/2022",
        "qr_code": "https://pse.kominfo.go.id/storage/images/qr_code/82669d4cb8f1a04412a774cda5f838af.png",
        "status_id": "TERDAFTAR",
        "sistem_elektronik_id": 4786
      }
    },
    {
      "type": "tdpseTerbit",
      "id": 4890,
      "attributes": {
        "nomor_pb_umku": "",
        "nama": "LEGO.COM",
        "website": "lego.com/en-id",
        "sektor": "Sektor Perdagangan",
        "nama_perusahaan": "LEGO SYSTEM A/S",
        "tanggal_daftar": "2022-06-28",
        "nomor_tanda_daftar": "003526.01/DJAI.PSE/06/2022",
        "qr_code": "https://pse.kominfo.go.id/storage/images/qr_code/d9c90443a37367024e41d5917ef2695a.png",
        "status_id": "TERDAFTAR",
        "sistem_elektronik_id": 4759
      }
    },
    {
      "type": "tdpseTerbit",
      "id": 4889,
      "attributes": {
        "nomor_pb_umku": "",
        "nama": "GLANCE",
        "website": "glance.com",
        "sektor": "Sektor Teknologi Informasi dan Komunikasi",
        "nama_perusahaan": "GLANCE INMOBI PTE. LTD.",
        "tanggal_daftar": "2022-06-28",
        "nomor_tanda_daftar": "003525.01/DJAI.PSE/06/2022",
        "qr_code": "https://pse.kominfo.go.id/storage/images/qr_code/29c2aba8ed2f249c460d9711b8bd6ca2.png",
        "status_id": "TERDAFTAR",
        "sistem_elektronik_id": 4758
      }
    },
    {
      "type": "tdpseTerbit",
      "id": 4886,
      "attributes": {
        "nomor_pb_umku": "",
        "nama": "DAZN",
        "website": "dazn.com",
        "sektor": "Sektor Perdagangan",
        "nama_perusahaan": "DAZN LIMITED",
        "tanggal_daftar": "2022-06-28",
        "nomor_tanda_daftar": "003524.01/DJAI.PSE/06/2022",
        "qr_code": "https://pse.kominfo.go.id/storage/images/qr_code/2789916bd000abee2de3432ccbee6d85.png",
        "status_id": "TERDAFTAR",
        "sistem_elektronik_id": 4755
      }
    },
    {
      "type": "tdpseTerbit",
      "id": 4720,
      "attributes": {
        "nomor_pb_umku": "",
        "nama": "YANDEX PRACTICUM PLATFORM",
        "website": "practicum.com/id-idn/",
        "sektor": "Sektor Teknologi Informasi dan Komunikasi",
        "nama_perusahaan": "INTERTECH SERVICES AG",
        "tanggal_daftar": "2022-06-24",
        "nomor_tanda_daftar": "003410.01/DJAI.PSE/06/2022",
        "qr_code": "https://pse.kominfo.go.id/storage/images/qr_code/bae4eb9fe0fbc41197e3af8d09fd39cd.png",
        "status_id": "TERDAFTAR",
        "sistem_elektronik_id": 4674
      }
    },
    {
      "type": "tdpseTerbit",
      "id": 4680,
      "attributes": {
        "nomor_pb_umku": "",
        "nama": "MARIAKALAIJ OWEN CAPITAL FINANCIAL LINK",
        "website": "owenpetrobitumen.blogspot.com",
        "sektor": "Sektor Keuangan",
        "nama_perusahaan": "OWEN PETRO BITUMEN",
        "tanggal_daftar": "2022-06-23",
        "nomor_tanda_daftar": "003370.01/DJAI.PSE/06/2022",
        "qr_code": "https://pse.kominfo.go.id/storage/images/qr_code/32d868e0d7c9156b69ab93ca01217780.png",
        "status_id": "TERDAFTAR",
        "sistem_elektronik_id": 4639
      }
    },
    {
      "type": "tdpseTerbit",
      "id": 4679,
      "attributes": {
        "nomor_pb_umku": "",
        "nama": "SMIC FINANCIAL LINK",
        "website": "transpeninsular.wordpress.com",
        "sektor": "Sektor Keuangan",
        "nama_perusahaan": "SHANTOU MARIA INVESTMENT CO., LTD.",
        "tanggal_daftar": "2022-06-23",
        "nomor_tanda_daftar": "003369.01/DJAI.PSE/06/2022",
        "qr_code": "https://pse.kominfo.go.id/storage/images/qr_code/9f686058eefbf02dd802d9eee631025d.png",
        "status_id": "TERDAFTAR",
        "sistem_elektronik_id": 4638
      }
    },
    {
      "type": "tdpseTerbit",
      "id": 4678,
      "attributes": {
        "nomor_pb_umku": "",
        "nama": "SMIC FINANCIAL TRADE LINK",
        "website": "transpeninsular.wordpress.com",
        "sektor": "Sektor Perdagangan",
        "nama_perusahaan": "SHANTOU JINJIA TRADING CO., LTD.",
        "tanggal_daftar": "2022-06-23",
        "nomor_tanda_daftar": "003368.01/DJAI.PSE/06/2022",
        "qr_code": "https://pse.kominfo.go.id/storage/images/qr_code/6eb6703274c3153914b1e9658c638a68.png",
        "status_id": "TERDAFTAR",
        "sistem_elektronik_id": 4637
      }
    }
  ]
}