{
  "meta": {
    "page": {
      "currentPage": 25,
      "from": 241,
      "lastPage": 69,
      "perPage": 10,
      "to": 250,
      "total": 684
    }
  },
  "data": [
    {
      "type": "tdpseTerbit",
      "id": 10620,
      "attributes": {
        "nomor_pb_umku": null,
        "nama": "MCOCEAN.COM",
        "website": "mcocean.com",
        "sektor": "Sektor Perdagangan",
        "nama_perusahaan": "MC OCEAN HOLDING SDN.BHD.",
        "tanggal_daftar": "2022-08-19",
        "nomor_tanda_daftar": "007380.01/DJAI.PSE/08/2022",
        "qr_code": "https://pse.kominfo.go.id/storage/images/qr_code/39ccd04febd3bc320d7887a58aa3626e.png",
        "status_id": "TERDAFTAR",
        "sistem_elektronik_id": 10455
      }
    },
    {
      "type": "tdpseTerbit",
      "id": 10545,
      "attributes": {
        "nomor_pb_umku": null,
        "nama": "ASCENTIS CRM, ASCENTIS ECOMMERCE, ASCENTIS CX, ASCENTIS POS",
        "website": "ascentis.com.sg",
        "sektor": "Sektor Teknologi Informasi dan Komunikasi",
        "nama_perusahaan": "ASCENTIS PTE LTD",
        "tanggal_daftar": "2022-08-18",
        "nomor_tanda_daftar": "007345.01/DJAI.PSE/08/2022",
        "qr_code": "https://pse.kominfo.go.id/storage/images/qr_code/cf95ce7e7cad56b0047e92fd47b87f63.png",
        "status_id": "TERDAFTAR",
        "sistem_elektronik_id": 10404
      }
    },
    {
      "type": "tdpseTerbit",
      "id": 10542,
      "attributes": {
        "nomor_pb_umku": null,
        "nama": "LINE POD",
        "website": "line.me",
        "sektor": "Sektor Teknologi Informasi dan Komunikasi",
        "nama_perusahaan": "LINE PLUS CORPORATION",
        "tanggal_daftar": "2022-08-18",
        "nomor_tanda_daftar": "007342.05/DJAI.PSE/08/2022",
        "qr_code": "https://pse.kominfo.go.id/storage/images/qr_code/68ca112adb76c40d8d7103854877f25f.png",
        "status_id": "TERDAFTAR",
        "sistem_elektronik_id": 10400
      }
    },
    {
      "type": "tdpseTerbit",
      "id": 10541,
      "attributes": {
        "nomor_pb_umku": null,
        "nama": "LINE STORE",
        "website": "line.me",
        "sektor": "Sektor Teknologi Informasi dan Komunikasi",
        "nama_perusahaan": "LINE PLUS CORPORATION",
        "tanggal_daftar": "2022-08-18",
        "nomor_tanda_daftar": "007342.04/DJAI.PSE/08/2022",
        "qr_code": "https://pse.kominfo.go.id/storage/images/qr_code/dee4e3a5b2090cd8d2b706bb5e74823b.png",
        "status_id": "TERDAFTAR",
        "sistem_elektronik_id": 10399
      }
    },
    {
      "type": "tdpseTerbit",
      "id": 10540,
      "attributes": {
        "nomor_pb_umku": null,
        "nama": "LINE GAME",
        "website": "line.me",
        "sektor": "Sektor Teknologi Informasi dan Komunikasi",
        "nama_perusahaan": "LINE PLUS CORPORATION",
        "tanggal_daftar": "2022-08-18",
        "nomor_tanda_daftar": "007342.03/DJAI.PSE/08/2022",
        "qr_code": "https://pse.kominfo.go.id/storage/images/qr_code/ef7627f0d755ffc6d7bec69ef213fe0e.png",
        "status_id": "TERDAFTAR",
        "sistem_elektronik_id": 10398
      }
    },
    {
      "type": "tdpseTerbit",
      "id": 10539,
      "attributes": {
        "nomor_pb_umku": null,
        "nama": "LINE WEBSITE",
        "website": "line.me",
        "sektor": "Sektor Teknologi Informasi dan Komunikasi",
        "nama_perusahaan": "LINE PLUS CORPORATION",
        "tanggal_daftar": "2022-08-18",
        "nomor_tanda_daftar": "007342.02/DJAI.PSE/08/2022",
        "qr_code": "https://pse.kominfo.go.id/storage/images/qr_code/607aa64c06e792068b1c80afc5f69292.png",
        "status_id": "TERDAFTAR",
        "sistem_elektronik_id": 10397
      }
    },
    {
      "type": "tdpseTerbit",
      "id": 10538,
      "attributes": {
        "nomor_pb_umku": null,
        "nama": "LINE MESSENGER",
        "website": "line.me",
        "sektor": "Sektor Teknologi Informasi dan Komunikasi",
        "nama_perusahaan": "LINE PLUS CORPORATION",
        "tanggal_daftar": "2022-08-18",
        "nomor_tanda_daftar": "007342.01/DJAI.PSE/08/2022",
        "qr_code": "https://pse.kominfo.go.id/storage/images/qr_code/3b88eec6e8c5692fa2c70727659efb5a.png",
        "status_id": "TERDAFTAR",
        "sistem_elektronik_id": 10396
      }
    },
    {
      "type": "tdpseTerbit",
      "id": 10537,
      "attributes": {
        "nomor_pb_umku": null,
        "nama": "LINE WEBTOON INDONESIA",
        "website": "webtoons.com",
        "sektor": "Sektor Teknologi Informasi dan Komunikasi",
        "nama_perusahaan": "NAVER WEBTOON LTD.",
        "tanggal_daftar": "2022-08-18",
        "nomor_tanda_daftar": "007341.01/DJAI.PSE/08/2022",
        "qr_code": "https://pse.kominfo.go.id/storage/images/qr_code/733e88e33652d065e56b1d9923fb19c8.png",
        "status_id": "TERDAFTAR",
        "sistem_elektronik_id": 10395
      }
    },
    {
      "type": "tdpseTerbit",
      "id": 10444,
      "attributes": {
        "nomor_pb_umku": null,
        "nama": "HOSTINGER",
        "website": "hostinger.com",
        "sektor": "Sektor Teknologi Informasi dan Komunikasi",
        "nama_perusahaan": "HOSTINGER INTERNATIONAL LIMITED",
        "tanggal_daftar": "2022-08-16",
        "nomor_tanda_daftar": "007310.01/DJAI.PSE/08/2022",
        "qr_code": "https://pse.kominfo.go.id/storage/images/qr_code/d7b4b871a17fe354067ee8ba5fbfe8e9.png",
        "status_id": "TERDAFTAR",
        "sistem_elektronik_id": 10301
      }
    },
    {
      "type": "tdpseTerbit",
      "id": 10443,
      "attributes": {
        "nomor_pb_umku": null,
        "nama": "BLAZE OF BATTLE",
        "website": "leyi-game.com",
        "sektor": "Sektor Teknologi Informasi dan Komunikasi",
        "nama_perusahaan": "SHENZHEN LEYI NETWORK CO., LTD.",
        "tanggal_daftar": "2022-08-16",
        "nomor_tanda_daftar": "007309.01/DJAI.PSE/08/2022",
        "qr_code": "https://pse.kominfo.go.id/storage/images/qr_code/921a353caa5d0dec14c465dd990b8ba5.png",
        "status_id": "TERDAFTAR",
        "sistem_elektronik_id": 10300
      }
    }
  ]
}