{
  "meta": {
    "page": {
      "currentPage": 27,
      "from": 261,
      "lastPage": 65,
      "perPage": 10,
      "to": 270,
      "total": 648
    }
  },
  "data": [
    {
      "type": "tdpseTerbit",
      "id": 10211,
      "attributes": {
        "nomor_pb_umku": null,
        "nama": "ORB MASTER",
        "website": "-",
        "sektor": "Sektor Teknologi Informasi dan Komunikasi",
        "nama_perusahaan": "HONG KONG TOUDA CO., LIMITED",
        "tanggal_daftar": "2022-08-11",
        "nomor_tanda_daftar": "007154.01/DJAI.PSE/08/2022",
        "qr_code": "https://pse.kominfo.go.id/storage/images/qr_code/e17bad5166df0926b5f9f42add8d93d3.png",
        "status_id": "TERDAFTAR",
        "sistem_elektronik_id": 10090
      }
    },
    {
      "type": "tdpseTerbit",
      "id": 10210,
      "attributes": {
        "nomor_pb_umku": null,
        "nama": "DOTA2",
        "website": "dota2.com",
        "sektor": "Sektor Teknologi Informasi dan Komunikasi",
        "nama_perusahaan": "Valve Corporation",
        "tanggal_daftar": "2022-08-11",
        "nomor_tanda_daftar": "007153.03/DJAI.PSE/08/2022",
        "qr_code": "https://pse.kominfo.go.id/storage/images/qr_code/045ff929033135bdaa9afa36fcc6d03b.png",
        "status_id": "TERDAFTAR",
        "sistem_elektronik_id": 10089
      }
    },
    {
      "type": "tdpseTerbit",
      "id": 10209,
      "attributes": {
        "nomor_pb_umku": null,
        "nama": "COUNTER-STRIKE: GLOBAL OFFENSIVE (CS:GO)",
        "website": "Counter-strike.net",
        "sektor": "Sektor Teknologi Informasi dan Komunikasi",
        "nama_perusahaan": "Valve Corporation",
        "tanggal_daftar": "2022-08-11",
        "nomor_tanda_daftar": "007153.02/DJAI.PSE/08/2022",
        "qr_code": "https://pse.kominfo.go.id/storage/images/qr_code/1958b717a5c2ec1e5820bdc07bd4ddbe.png",
        "status_id": "TERDAFTAR",
        "sistem_elektronik_id": 10088
      }
    },
    {
      "type": "tdpseTerbit",
      "id": 10208,
      "attributes": {
        "nomor_pb_umku": null,
        "nama": "STEAM",
        "website": "Steampowered.com",
        "sektor": "Sektor Teknologi Informasi dan Komunikasi",
        "nama_perusahaan": "Valve Corporation",
        "tanggal_daftar": "2022-08-11",
        "nomor_tanda_daftar": "007153.01/DJAI.PSE/08/2022",
        "qr_code": "https://pse.kominfo.go.id/storage/images/qr_code/6c1256078f3eb16d2e2625d3bde14895.png",
        "status_id": "TERDAFTAR",
        "sistem_elektronik_id": 10087
      }
    },
    {
      "type": "tdpseTerbit",
      "id": 10215,
      "attributes": {
        "nomor_pb_umku": null,
        "nama": "DYNASTY HEROES: ROMANCE SAMKOK",
        "website": "romancesamkok.com",
        "sektor": "Sektor Teknologi Informasi dan Komunikasi",
        "nama_perusahaan": "PLAYBSET LIMITED",
        "tanggal_daftar": "2022-08-11",
        "nomor_tanda_daftar": "007129.02/DJAI.PSE/08/2022",
        "qr_code": "https://pse.kominfo.go.id/storage/images/qr_code/601ffecc737dd99a1c0460604f738367.png",
        "status_id": "TERDAFTAR",
        "sistem_elektronik_id": 10093
      }
    },
    {
      "type": "tdpseTerbit",
      "id": 10159,
      "attributes": {
        "nomor_pb_umku": null,
        "nama": "MONKEY KING: ARENA OF HEROES",
        "website": "monkeykingaoh.com",
        "sektor": "Sektor Teknologi Informasi dan Komunikasi",
        "nama_perusahaan": "PLAYBSET LIMITED",
        "tanggal_daftar": "2022-08-10",
        "nomor_tanda_daftar": "007129.01/DJAI.PSE/08/2022",
        "qr_code": "https://pse.kominfo.go.id/storage/images/qr_code/bf035d5374b1a780c6cfca440d44a799.png",
        "status_id": "TERDAFTAR",
        "sistem_elektronik_id": 10040
      }
    },
    {
      "type": "tdpseTerbit",
      "id": 10146,
      "attributes": {
        "nomor_pb_umku": null,
        "nama": "EPIC GAMES STORE",
        "website": "store.epicgames.com",
        "sektor": "Sektor Teknologi Informasi dan Komunikasi",
        "nama_perusahaan": "EPIC GAMES INTERNATIONAL S.A R.L., BERTRANGE, ROOT BRANCH",
        "tanggal_daftar": "2022-08-09",
        "nomor_tanda_daftar": "007114.01/DJAI.PSE/08/2022",
        "qr_code": "https://pse.kominfo.go.id/storage/images/qr_code/59894f57fa928be54782164f4693f4fb.png",
        "status_id": "TERDAFTAR",
        "sistem_elektronik_id": 10028
      }
    },
    {
      "type": "tdpseTerbit",
      "id": 10141,
      "attributes": {
        "nomor_pb_umku": null,
        "nama": "ONE PUNCH MAN : THE STRONGEST",
        "website": "id-onepunchman.fingerfun.com",
        "sektor": "Sektor Teknologi Informasi dan Komunikasi",
        "nama_perusahaan": "FINGERFUN (HK) LIMITED",
        "tanggal_daftar": "2022-08-09",
        "nomor_tanda_daftar": "007109.02/DJAI.PSE/08/2022",
        "qr_code": "https://pse.kominfo.go.id/storage/images/qr_code/5ee965827243a6080f6685ee48260193.png",
        "status_id": "TERDAFTAR",
        "sistem_elektronik_id": 10023
      }
    },
    {
      "type": "tdpseTerbit",
      "id": 10140,
      "attributes": {
        "nomor_pb_umku": null,
        "nama": "MU ORIGIN 3",
        "website": "id-mu3.fingerfun.com",
        "sektor": "Sektor Teknologi Informasi dan Komunikasi",
        "nama_perusahaan": "FINGERFUN (HK) LIMITED",
        "tanggal_daftar": "2022-08-09",
        "nomor_tanda_daftar": "007109.01/DJAI.PSE/08/2022",
        "qr_code": "https://pse.kominfo.go.id/storage/images/qr_code/c0db53adb778ad10629128ed40b4e76d.png",
        "status_id": "TERDAFTAR",
        "sistem_elektronik_id": 10022
      }
    },
    {
      "type": "tdpseTerbit",
      "id": 9974,
      "attributes": {
        "nomor_pb_umku": null,
        "nama": "YALLA DOMINO",
        "website": "yalladomino.com",
        "sektor": "Sektor Teknologi Informasi dan Komunikasi",
        "nama_perusahaan": "FYXTECH TECHNOLOGY PTE. LTD.",
        "tanggal_daftar": "2022-08-05",
        "nomor_tanda_daftar": "007003.01/DJAI.PSE/08/2022",
        "qr_code": "https://pse.kominfo.go.id/storage/images/qr_code/aa881bac7639def641f04a44c2c9f7dc.png",
        "status_id": "TERDAFTAR",
        "sistem_elektronik_id": 9861
      }
    }
  ]
}