{
  "meta": {
    "page": {
      "currentPage": 28,
      "from": 271,
      "lastPage": 69,
      "perPage": 10,
      "to": 280,
      "total": 684
    }
  },
  "data": [
    {
      "type": "tdpseTerbit",
      "id": 10159,
      "attributes": {
        "nomor_pb_umku": null,
        "nama": "MONKEY KING: ARENA OF HEROES",
        "website": "monkeykingaoh.com",
        "sektor": "Sektor Teknologi Informasi dan Komunikasi",
        "nama_perusahaan": "PLAYBSET LIMITED",
        "tanggal_daftar": "2022-08-10",
        "nomor_tanda_daftar": "007129.01/DJAI.PSE/08/2022",
        "qr_code": "https://pse.kominfo.go.id/storage/images/qr_code/bf035d5374b1a780c6cfca440d44a799.png",
        "status_id": "TERDAFTAR",
        "sistem_elektronik_id": 10040
      }
    },
    {
      "type": "tdpseTerbit",
      "id": 10146,
      "attributes": {
        "nomor_pb_umku": null,
        "nama": "EPIC GAMES STORE",
        "website": "store.epicgames.com",
        "sektor": "Sektor Teknologi Informasi dan Komunikasi",
        "nama_perusahaan": "EPIC GAMES INTERNATIONAL S.A R.L., BERTRANGE, ROOT BRANCH",
        "tanggal_daftar": "2022-08-09",
        "nomor_tanda_daftar": "007114.01/DJAI.PSE/08/2022",
        "qr_code": "https://pse.kominfo.go.id/storage/images/qr_code/59894f57fa928be54782164f4693f4fb.png",
        "status_id": "TERDAFTAR",
        "sistem_elektronik_id": 10028
      }
    },
    {
      "type": "tdpseTerbit",
      "id": 10141,
      "attributes": {
        "nomor_pb_umku": null,
        "nama": "ONE PUNCH MAN : THE STRONGEST",
        "website": "id-onepunchman.fingerfun.com",
        "sektor": "Sektor Teknologi Informasi dan Komunikasi",
        "nama_perusahaan": "FINGERFUN (HK) LIMITED",
        "tanggal_daftar": "2022-08-09",
        "nomor_tanda_daftar": "007109.02/DJAI.PSE/08/2022",
        "qr_code": "https://pse.kominfo.go.id/storage/images/qr_code/5ee965827243a6080f6685ee48260193.png",
        "status_id": "TERDAFTAR",
        "sistem_elektronik_id": 10023
      }
    },
    {
      "type": "tdpseTerbit",
      "id": 10140,
      "attributes": {
        "nomor_pb_umku": null,
        "nama": "MU ORIGIN 3",
        "website": "id-mu3.fingerfun.com",
        "sektor": "Sektor Teknologi Informasi dan Komunikasi",
        "nama_perusahaan": "FINGERFUN (HK) LIMITED",
        "tanggal_daftar": "2022-08-09",
        "nomor_tanda_daftar": "007109.01/DJAI.PSE/08/2022",
        "qr_code": "https://pse.kominfo.go.id/storage/images/qr_code/c0db53adb778ad10629128ed40b4e76d.png",
        "status_id": "TERDAFTAR",
        "sistem_elektronik_id": 10022
      }
    },
    {
      "type": "tdpseTerbit",
      "id": 9974,
      "attributes": {
        "nomor_pb_umku": null,
        "nama": "YALLA DOMINO",
        "website": "yalladomino.com",
        "sektor": "Sektor Teknologi Informasi dan Komunikasi",
        "nama_perusahaan": "FYXTECH TECHNOLOGY PTE. LTD.",
        "tanggal_daftar": "2022-08-05",
        "nomor_tanda_daftar": "007003.01/DJAI.PSE/08/2022",
        "qr_code": "https://pse.kominfo.go.id/storage/images/qr_code/aa881bac7639def641f04a44c2c9f7dc.png",
        "status_id": "TERDAFTAR",
        "sistem_elektronik_id": 9861
      }
    },
    {
      "type": "tdpseTerbit",
      "id": 9911,
      "attributes": {
        "nomor_pb_umku": null,
        "nama": "NUADU",
        "website": "nuadu.com",
        "sektor": "Sektor Teknologi Informasi dan Komunikasi",
        "nama_perusahaan": "NUADU",
        "tanggal_daftar": "2022-08-04",
        "nomor_tanda_daftar": "006963.01/DJAI.PSE/08/2022",
        "qr_code": "https://pse.kominfo.go.id/storage/images/qr_code/253c21bbc947a521b2351878e5137d8d.png",
        "status_id": "TERDAFTAR",
        "sistem_elektronik_id": 9798
      }
    },
    {
      "type": "tdpseTerbit",
      "id": 12044,
      "attributes": {
        "nomor_pb_umku": null,
        "nama": "MOBILE ROYALE",
        "website": "mobileroyale.igg.com",
        "sektor": "Sektor Teknologi Informasi dan Komunikasi",
        "nama_perusahaan": "IGG SINGAPORE PTE. LTD.",
        "tanggal_daftar": "2022-10-31",
        "nomor_tanda_daftar": "006950.23/DJAI.PSE/10/2022",
        "qr_code": "https://pse.kominfo.go.id/storage/images/qr_code/3b8ec54e522c18df85db1e44f3353d3c.png",
        "status_id": "TERDAFTAR",
        "sistem_elektronik_id": 11847
      }
    },
    {
      "type": "tdpseTerbit",
      "id": 12043,
      "attributes": {
        "nomor_pb_umku": null,
        "nama": "CONQUERORS: ZAMAN KEEMASAN",
        "website": "cq.igg.com",
        "sektor": "Sektor Teknologi Informasi dan Komunikasi",
        "nama_perusahaan": "IGG SINGAPORE PTE. LTD.",
        "tanggal_daftar": "2022-10-31",
        "nomor_tanda_daftar": "006950.22/DJAI.PSE/10/2022",
        "qr_code": "https://pse.kominfo.go.id/storage/images/qr_code/f16d0ed9f950b617537d7c9bde5ac30c.png",
        "status_id": "TERDAFTAR",
        "sistem_elektronik_id": 11846
      }
    },
    {
      "type": "tdpseTerbit",
      "id": 12042,
      "attributes": {
        "nomor_pb_umku": null,
        "nama": "CONQUERORS: ZAMAN KEEMASAN",
        "website": "cq.igg.com",
        "sektor": "Sektor Teknologi Informasi dan Komunikasi",
        "nama_perusahaan": "IGG SINGAPORE PTE. LTD.",
        "tanggal_daftar": "2022-10-31",
        "nomor_tanda_daftar": "006950.21/DJAI.PSE/10/2022",
        "qr_code": "https://pse.kominfo.go.id/storage/images/qr_code/6648bf524f41d750fef934fe3c18c23a.png",
        "status_id": "TERDAFTAR",
        "sistem_elektronik_id": 11845
      }
    },
    {
      "type": "tdpseTerbit",
      "id": 12041,
      "attributes": {
        "nomor_pb_umku": null,
        "nama": "CONQUERORS: ZAMAN KEEMASAN",
        "website": "cq.igg.com",
        "sektor": "Sektor Teknologi Informasi dan Komunikasi",
        "nama_perusahaan": "IGG SINGAPORE PTE. LTD.",
        "tanggal_daftar": "2022-10-31",
        "nomor_tanda_daftar": "006950.20/DJAI.PSE/10/2022",
        "qr_code": "https://pse.kominfo.go.id/storage/images/qr_code/af0d1d67b29ed800472d04a60c6fe02e.png",
        "status_id": "TERDAFTAR",
        "sistem_elektronik_id": 11844
      }
    }
  ]
}