{
  "meta": {
    "page": {
      "currentPage": 30,
      "from": 291,
      "lastPage": 69,
      "perPage": 10,
      "to": 300,
      "total": 685
    }
  },
  "data": [
    {
      "type": "tdpseTerbit",
      "id": 12031,
      "attributes": {
        "nomor_pb_umku": null,
        "nama": "TIME PRINCESS",
        "website": "tp.igg.com",
        "sektor": "Sektor Teknologi Informasi dan Komunikasi",
        "nama_perusahaan": "IGG SINGAPORE PTE. LTD.",
        "tanggal_daftar": "2022-10-31",
        "nomor_tanda_daftar": "006950.10/DJAI.PSE/10/2022",
        "qr_code": "https://pse.kominfo.go.id/storage/images/qr_code/83abd755a0c7424fe3bfe6c684ea4db6.png",
        "status_id": "TERDAFTAR",
        "sistem_elektronik_id": 11834
      }
    },
    {
      "type": "tdpseTerbit",
      "id": 12030,
      "attributes": {
        "nomor_pb_umku": null,
        "nama": "SCRIPTS: ROMANCE EPISODE",
        "website": "sus.igg.com",
        "sektor": "Sektor Teknologi Informasi dan Komunikasi",
        "nama_perusahaan": "IGG SINGAPORE PTE. LTD.",
        "tanggal_daftar": "2022-10-31",
        "nomor_tanda_daftar": "006950.09/DJAI.PSE/10/2022",
        "qr_code": "https://pse.kominfo.go.id/storage/images/qr_code/424adec6833a359d883ed18135e7d646.png",
        "status_id": "TERDAFTAR",
        "sistem_elektronik_id": 11833
      }
    },
    {
      "type": "tdpseTerbit",
      "id": 12029,
      "attributes": {
        "nomor_pb_umku": null,
        "nama": "CONQUERORS: ZAMAN KEEMASAN",
        "website": "cq.igg.com",
        "sektor": "Sektor Teknologi Informasi dan Komunikasi",
        "nama_perusahaan": "IGG SINGAPORE PTE. LTD.",
        "tanggal_daftar": "2022-10-31",
        "nomor_tanda_daftar": "006950.08/DJAI.PSE/10/2022",
        "qr_code": "https://pse.kominfo.go.id/storage/images/qr_code/dc4ce03e406284ea52f46694ccfadd4f.png",
        "status_id": "TERDAFTAR",
        "sistem_elektronik_id": 11832
      }
    },
    {
      "type": "tdpseTerbit",
      "id": 12028,
      "attributes": {
        "nomor_pb_umku": null,
        "nama": "IGG.COM",
        "website": "igg.com",
        "sektor": "Sektor Teknologi Informasi dan Komunikasi",
        "nama_perusahaan": "IGG SINGAPORE PTE. LTD.",
        "tanggal_daftar": "2022-10-31",
        "nomor_tanda_daftar": "006950.07/DJAI.PSE/10/2022",
        "qr_code": "https://pse.kominfo.go.id/storage/images/qr_code/dc811007a56d80676c0502b0114ec73d.png",
        "status_id": "TERDAFTAR",
        "sistem_elektronik_id": 11831
      }
    },
    {
      "type": "tdpseTerbit",
      "id": 12027,
      "attributes": {
        "nomor_pb_umku": null,
        "nama": "CONQUERORS: ZAMAN KEEMASAN",
        "website": "cq.igg.com",
        "sektor": "Sektor Teknologi Informasi dan Komunikasi",
        "nama_perusahaan": "IGG SINGAPORE PTE. LTD.",
        "tanggal_daftar": "2022-10-31",
        "nomor_tanda_daftar": "006950.06/DJAI.PSE/10/2022",
        "qr_code": "https://pse.kominfo.go.id/storage/images/qr_code/ccf566f969d948ef9a1db8a83887e164.png",
        "status_id": "TERDAFTAR",
        "sistem_elektronik_id": 11830
      }
    },
    {
      "type": "tdpseTerbit",
      "id": 12026,
      "attributes": {
        "nomor_pb_umku": null,
        "nama": "CONQUERORS: ZAMAN KEEMASAN",
        "website": "cq.igg.com",
        "sektor": "Sektor Teknologi Informasi dan Komunikasi",
        "nama_perusahaan": "IGG SINGAPORE PTE. LTD.",
        "tanggal_daftar": "2022-10-31",
        "nomor_tanda_daftar": "006950.05/DJAI.PSE/10/2022",
        "qr_code": "https://pse.kominfo.go.id/storage/images/qr_code/f89fc6eb8b53473cda235af5f67c4d93.png",
        "status_id": "TERDAFTAR",
        "sistem_elektronik_id": 11829
      }
    },
    {
      "type": "tdpseTerbit",
      "id": 12025,
      "attributes": {
        "nomor_pb_umku": null,
        "nama": "CONQUERORS: ZAMAN KEEMASAN",
        "website": "cq.igg.com",
        "sektor": "Sektor Teknologi Informasi dan Komunikasi",
        "nama_perusahaan": "IGG SINGAPORE PTE. LTD.",
        "tanggal_daftar": "2022-10-31",
        "nomor_tanda_daftar": "006950.04/DJAI.PSE/10/2022",
        "qr_code": "https://pse.kominfo.go.id/storage/images/qr_code/3cd315f2b1a8ad57049b142c81e2977b.png",
        "status_id": "TERDAFTAR",
        "sistem_elektronik_id": 11828
      }
    },
    {
      "type": "tdpseTerbit",
      "id": 12024,
      "attributes": {
        "nomor_pb_umku": null,
        "nama": "CONQUERORS: ZAMAN KEEMASAN",
        "website": "cq.igg.com",
        "sektor": "Sektor Teknologi Informasi dan Komunikasi",
        "nama_perusahaan": "IGG SINGAPORE PTE. LTD.",
        "tanggal_daftar": "2022-10-31",
        "nomor_tanda_daftar": "006950.03/DJAI.PSE/10/2022",
        "qr_code": "https://pse.kominfo.go.id/storage/images/qr_code/80b51fb160634acbb009fbef8fd25c05.png",
        "status_id": "TERDAFTAR",
        "sistem_elektronik_id": 11827
      }
    },
    {
      "type": "tdpseTerbit",
      "id": 12023,
      "attributes": {
        "nomor_pb_umku": null,
        "nama": "CONQUERORS: ZAMAN KEEMASAN",
        "website": "cq.igg.com",
        "sektor": "Sektor Teknologi Informasi dan Komunikasi",
        "nama_perusahaan": "IGG SINGAPORE PTE. LTD.",
        "tanggal_daftar": "2022-10-31",
        "nomor_tanda_daftar": "006950.02/DJAI.PSE/10/2022",
        "qr_code": "https://pse.kominfo.go.id/storage/images/qr_code/7829a4b9b931e88ddcf5be78afa52bf9.png",
        "status_id": "TERDAFTAR",
        "sistem_elektronik_id": 11826
      }
    },
    {
      "type": "tdpseTerbit",
      "id": 9887,
      "attributes": {
        "nomor_pb_umku": null,
        "nama": "LORDS MOBILE",
        "website": "lordsmobile.igg.com",
        "sektor": "Sektor Teknologi Informasi dan Komunikasi",
        "nama_perusahaan": "IGG SINGAPORE PTE. LTD.",
        "tanggal_daftar": "2022-08-04",
        "nomor_tanda_daftar": "006950.01/DJAI.PSE/08/2022",
        "qr_code": "https://pse.kominfo.go.id/storage/images/qr_code/42abc4102ae2b409a51e8aa51be287fa.png",
        "status_id": "TERDAFTAR",
        "sistem_elektronik_id": 9773
      }
    }
  ]
}