{
  "meta": {
    "page": {
      "currentPage": 4,
      "from": 31,
      "lastPage": 75,
      "perPage": 10,
      "to": 40,
      "total": 741
    }
  },
  "data": [
    {
      "type": "tdpseTerbit",
      "id": 12247,
      "attributes": {
        "nomor_pb_umku": null,
        "nama": "WUHAN HUAJING TIANDI AGRICULTURAL TECHNOLOGY DEVELOPMENT CO., LTD",
        "website": "magnesiumgosari.co.id",
        "sektor": "Sektor Teknologi Informasi dan Komunikasi",
        "nama_perusahaan": "FUJIAN TANGZHONG INTERNATIONAL TRADING CO., LTD.",
        "tanggal_daftar": "2022-11-11",
        "nomor_tanda_daftar": "008442.05/DJAI.PSE/11/2022",
        "qr_code": "https://pse.kominfo.go.id/storage/images/qr_code/268737fe3d416871857505eaae6c28af.png",
        "status_id": "TERDAFTAR",
        "sistem_elektronik_id": 12043
      }
    },
    {
      "type": "tdpseTerbit",
      "id": 12246,
      "attributes": {
        "nomor_pb_umku": null,
        "nama": "GUANGXI PINGXIANG HUIER IMPORT AND EXPORT TRADING CO., LTD.",
        "website": "prestigecars.com",
        "sektor": "Sektor Perdagangan",
        "nama_perusahaan": "FUJIAN TANGZHONG INTERNATIONAL TRADING CO., LTD.",
        "tanggal_daftar": "2022-11-11",
        "nomor_tanda_daftar": "008442.04/DJAI.PSE/11/2022",
        "qr_code": "https://pse.kominfo.go.id/storage/images/qr_code/ed3aa1aa52e1f2bf6b3881a89c952f7b.png",
        "status_id": "TERDAFTAR",
        "sistem_elektronik_id": 12042
      }
    },
    {
      "type": "tdpseTerbit",
      "id": 12245,
      "attributes": {
        "nomor_pb_umku": null,
        "nama": "GOLDEN KNIGHT INTERNATIONAL LIMITED",
        "website": "triyasa.co.id",
        "sektor": "Sektor Keuangan",
        "nama_perusahaan": "FUJIAN TANGZHONG INTERNATIONAL TRADING CO., LTD.",
        "tanggal_daftar": "2022-11-11",
        "nomor_tanda_daftar": "008442.03/DJAI.PSE/11/2022",
        "qr_code": "https://pse.kominfo.go.id/storage/images/qr_code/7708c8436727498f7f37a77f7396e98f.png",
        "status_id": "TERDAFTAR",
        "sistem_elektronik_id": 12041
      }
    },
    {
      "type": "tdpseTerbit",
      "id": 12244,
      "attributes": {
        "nomor_pb_umku": null,
        "nama": "GRAHA VENTURA MILENIAL GROUP OF MARIA KALAIJ CORPORATION",
        "website": "royalambarukmo.com",
        "sektor": "Sektor Perdagangan",
        "nama_perusahaan": "FUJIAN TANGZHONG INTERNATIONAL TRADING CO., LTD.",
        "tanggal_daftar": "2022-11-11",
        "nomor_tanda_daftar": "008442.02/DJAI.PSE/11/2022",
        "qr_code": "https://pse.kominfo.go.id/storage/images/qr_code/f588e76300eaee7342768308249efad4.png",
        "status_id": "TERDAFTAR",
        "sistem_elektronik_id": 12040
      }
    },
    {
      "type": "tdpseTerbit",
      "id": 12243,
      "attributes": {
        "nomor_pb_umku": null,
        "nama": "GUANGXI XIN WEI HOTEL MANAGEMENT",
        "website": "langhamhotels.com",
        "sektor": "Sektor Perdagangan",
        "nama_perusahaan": "FUJIAN TANGZHONG INTERNATIONAL TRADING CO., LTD.",
        "tanggal_daftar": "2022-11-11",
        "nomor_tanda_daftar": "008442.01/DJAI.PSE/11/2022",
        "qr_code": "https://pse.kominfo.go.id/storage/images/qr_code/136ec740f1611b7ce2194211119f41f3.png",
        "status_id": "TERDAFTAR",
        "sistem_elektronik_id": 12039
      }
    },
    {
      "type": "tdpseTerbit",
      "id": 12225,
      "attributes": {
        "nomor_pb_umku": null,
        "nama": "THE LEGEND OF NEVERLAND",
        "website": "neverland.game-ark.com",
        "sektor": "Sektor Teknologi Informasi dan Komunikasi",
        "nama_perusahaan": "ARK GAMES GLOBAL PTE. LTD.",
        "tanggal_daftar": "2022-11-11",
        "nomor_tanda_daftar": "008423.01/DJAI.PSE/11/2022",
        "qr_code": "https://pse.kominfo.go.id/storage/images/qr_code/6658cac7044a0308d35c913b62213af9.png",
        "status_id": "TERDAFTAR",
        "sistem_elektronik_id": 12022
      }
    },
    {
      "type": "tdpseTerbit",
      "id": 12206,
      "attributes": {
        "nomor_pb_umku": null,
        "nama": "RINCOS",
        "website": "rincos.asia",
        "sektor": "Sektor Transportasi",
        "nama_perusahaan": "RINCOS",
        "tanggal_daftar": "2022-11-10",
        "nomor_tanda_daftar": "008412.04/DJAI.PSE/11/2022",
        "qr_code": "https://pse.kominfo.go.id/storage/images/qr_code/0615091edb3b40d1e4fb0c47871749ad.png",
        "status_id": "TERDAFTAR",
        "sistem_elektronik_id": 12001
      }
    },
    {
      "type": "tdpseTerbit",
      "id": 12205,
      "attributes": {
        "nomor_pb_umku": null,
        "nama": "RINCOS",
        "website": "rincos.co.kr",
        "sektor": "Sektor Transportasi",
        "nama_perusahaan": "RINCOS",
        "tanggal_daftar": "2022-11-10",
        "nomor_tanda_daftar": "008412.03/DJAI.PSE/11/2022",
        "qr_code": "https://pse.kominfo.go.id/storage/images/qr_code/081f40ef7b58c03ac06b8b2b8200d934.png",
        "status_id": "TERDAFTAR",
        "sistem_elektronik_id": 12000
      }
    },
    {
      "type": "tdpseTerbit",
      "id": 12204,
      "attributes": {
        "nomor_pb_umku": null,
        "nama": "RINCOS",
        "website": "Rincos.asia",
        "sektor": "Sektor Transportasi",
        "nama_perusahaan": "RINCOS",
        "tanggal_daftar": "2022-11-10",
        "nomor_tanda_daftar": "008412.02/DJAI.PSE/11/2022",
        "qr_code": "https://pse.kominfo.go.id/storage/images/qr_code/1497339c7536740bd0e1b69f6639c2e2.png",
        "status_id": "TERDAFTAR",
        "sistem_elektronik_id": 11999
      }
    },
    {
      "type": "tdpseTerbit",
      "id": 12203,
      "attributes": {
        "nomor_pb_umku": null,
        "nama": "RINCOS",
        "website": "rincos.asia",
        "sektor": "Sektor Transportasi",
        "nama_perusahaan": "RINCOS",
        "tanggal_daftar": "2022-11-10",
        "nomor_tanda_daftar": "008412.01/DJAI.PSE/11/2022",
        "qr_code": "https://pse.kominfo.go.id/storage/images/qr_code/5d682d6ca51bff87aaf5917f0556ee42.png",
        "status_id": "TERDAFTAR",
        "sistem_elektronik_id": 11998
      }
    }
  ]
}