{
  "meta": {
    "page": {
      "currentPage": 31,
      "from": 301,
      "lastPage": 69,
      "perPage": 10,
      "to": 310,
      "total": 690
    }
  },
  "data": [
    {
      "type": "tdpseTerbit",
      "id": 12026,
      "attributes": {
        "nomor_pb_umku": null,
        "nama": "CONQUERORS: ZAMAN KEEMASAN",
        "website": "cq.igg.com",
        "sektor": "Sektor Teknologi Informasi dan Komunikasi",
        "nama_perusahaan": "IGG SINGAPORE PTE. LTD.",
        "tanggal_daftar": "2022-10-31",
        "nomor_tanda_daftar": "006950.05/DJAI.PSE/10/2022",
        "qr_code": "https://pse.kominfo.go.id/storage/images/qr_code/f89fc6eb8b53473cda235af5f67c4d93.png",
        "status_id": "TERDAFTAR",
        "sistem_elektronik_id": 11829
      }
    },
    {
      "type": "tdpseTerbit",
      "id": 12025,
      "attributes": {
        "nomor_pb_umku": null,
        "nama": "CONQUERORS: ZAMAN KEEMASAN",
        "website": "cq.igg.com",
        "sektor": "Sektor Teknologi Informasi dan Komunikasi",
        "nama_perusahaan": "IGG SINGAPORE PTE. LTD.",
        "tanggal_daftar": "2022-10-31",
        "nomor_tanda_daftar": "006950.04/DJAI.PSE/10/2022",
        "qr_code": "https://pse.kominfo.go.id/storage/images/qr_code/3cd315f2b1a8ad57049b142c81e2977b.png",
        "status_id": "TERDAFTAR",
        "sistem_elektronik_id": 11828
      }
    },
    {
      "type": "tdpseTerbit",
      "id": 12024,
      "attributes": {
        "nomor_pb_umku": null,
        "nama": "CONQUERORS: ZAMAN KEEMASAN",
        "website": "cq.igg.com",
        "sektor": "Sektor Teknologi Informasi dan Komunikasi",
        "nama_perusahaan": "IGG SINGAPORE PTE. LTD.",
        "tanggal_daftar": "2022-10-31",
        "nomor_tanda_daftar": "006950.03/DJAI.PSE/10/2022",
        "qr_code": "https://pse.kominfo.go.id/storage/images/qr_code/80b51fb160634acbb009fbef8fd25c05.png",
        "status_id": "TERDAFTAR",
        "sistem_elektronik_id": 11827
      }
    },
    {
      "type": "tdpseTerbit",
      "id": 12023,
      "attributes": {
        "nomor_pb_umku": null,
        "nama": "CONQUERORS: ZAMAN KEEMASAN",
        "website": "cq.igg.com",
        "sektor": "Sektor Teknologi Informasi dan Komunikasi",
        "nama_perusahaan": "IGG SINGAPORE PTE. LTD.",
        "tanggal_daftar": "2022-10-31",
        "nomor_tanda_daftar": "006950.02/DJAI.PSE/10/2022",
        "qr_code": "https://pse.kominfo.go.id/storage/images/qr_code/7829a4b9b931e88ddcf5be78afa52bf9.png",
        "status_id": "TERDAFTAR",
        "sistem_elektronik_id": 11826
      }
    },
    {
      "type": "tdpseTerbit",
      "id": 9887,
      "attributes": {
        "nomor_pb_umku": null,
        "nama": "LORDS MOBILE",
        "website": "lordsmobile.igg.com",
        "sektor": "Sektor Teknologi Informasi dan Komunikasi",
        "nama_perusahaan": "IGG SINGAPORE PTE. LTD.",
        "tanggal_daftar": "2022-08-04",
        "nomor_tanda_daftar": "006950.01/DJAI.PSE/08/2022",
        "qr_code": "https://pse.kominfo.go.id/storage/images/qr_code/42abc4102ae2b409a51e8aa51be287fa.png",
        "status_id": "TERDAFTAR",
        "sistem_elektronik_id": 9773
      }
    },
    {
      "type": "tdpseTerbit",
      "id": 9830,
      "attributes": {
        "nomor_pb_umku": null,
        "nama": "E-APP FOR SHORT TIME DIVE ACCIDENT INSURANCE",
        "website": "apps.dan.org/short-term-prepay/",
        "sektor": "Sektor Keuangan",
        "nama_perusahaan": "DAN WORLD, LTD",
        "tanggal_daftar": "2022-08-03",
        "nomor_tanda_daftar": "006900.02/DJAI.PSE/08/2022",
        "qr_code": "https://pse.kominfo.go.id/storage/images/qr_code/86c1f08bb34347321a9bcd88754f34c0.png",
        "status_id": "TERDAFTAR",
        "sistem_elektronik_id": 9705
      }
    },
    {
      "type": "tdpseTerbit",
      "id": 9829,
      "attributes": {
        "nomor_pb_umku": null,
        "nama": "WEBSITE",
        "website": "world.dan.org",
        "sektor": "Sektor Kesehatan",
        "nama_perusahaan": "DAN WORLD, LTD",
        "tanggal_daftar": "2022-08-03",
        "nomor_tanda_daftar": "006900.01/DJAI.PSE/08/2022",
        "qr_code": "https://pse.kominfo.go.id/storage/images/qr_code/b6d41de45935fd1cd61a79186f62a4d3.png",
        "status_id": "TERDAFTAR",
        "sistem_elektronik_id": 9704
      }
    },
    {
      "type": "tdpseTerbit",
      "id": 9810,
      "attributes": {
        "nomor_pb_umku": null,
        "nama": "BINAMANDIRI",
        "website": "binamandiri.sg",
        "sektor": "Sektor Teknologi Informasi dan Komunikasi",
        "nama_perusahaan": "BINAMANDIRI",
        "tanggal_daftar": "2022-08-03",
        "nomor_tanda_daftar": "006882.01/DJAI.PSE/08/2022",
        "qr_code": "https://pse.kominfo.go.id/storage/images/qr_code/865334d122a2d41c1bce354ff8eccae1.png",
        "status_id": "TERDAFTAR",
        "sistem_elektronik_id": 9684
      }
    },
    {
      "type": "tdpseTerbit",
      "id": 9799,
      "attributes": {
        "nomor_pb_umku": null,
        "nama": "ORIGIN",
        "website": "origin.com",
        "sektor": "Sektor Teknologi Informasi dan Komunikasi",
        "nama_perusahaan": "EA SWISS SARL",
        "tanggal_daftar": "2022-08-03",
        "nomor_tanda_daftar": "006872.01/DJAI.PSE/08/2022",
        "qr_code": "https://pse.kominfo.go.id/storage/images/qr_code/8c1d6199bcab8d1e9e969a2ab7b5d4ad.png",
        "status_id": "TERDAFTAR",
        "sistem_elektronik_id": 9675
      }
    },
    {
      "type": "tdpseTerbit",
      "id": 9797,
      "attributes": {
        "nomor_pb_umku": null,
        "nama": "THREE KINGDOMS: EPIC WAR",
        "website": "three.hrgame.com.hk",
        "sektor": "Sektor Perdagangan",
        "nama_perusahaan": "Hong Kong GAE Information Technology Co., Limited",
        "tanggal_daftar": "2022-08-03",
        "nomor_tanda_daftar": "006870.01/DJAI.PSE/08/2022",
        "qr_code": "https://pse.kominfo.go.id/storage/images/qr_code/c4f8defcaa837411b0f429c209c40c9d.png",
        "status_id": "TERDAFTAR",
        "sistem_elektronik_id": 9673
      }
    }
  ]
}