{
  "meta": {
    "page": {
      "currentPage": 32,
      "from": 311,
      "lastPage": 72,
      "perPage": 10,
      "to": 320,
      "total": 712
    }
  },
  "data": [
    {
      "type": "tdpseTerbit",
      "id": 12037,
      "attributes": {
        "nomor_pb_umku": null,
        "nama": "MYTHIC HEROES",
        "website": "mythicheroes.com",
        "sektor": "Sektor Teknologi Informasi dan Komunikasi",
        "nama_perusahaan": "IGG SINGAPORE PTE. LTD.",
        "tanggal_daftar": "2022-10-31",
        "nomor_tanda_daftar": "006950.16/DJAI.PSE/10/2022",
        "qr_code": "https://pse.kominfo.go.id/storage/images/qr_code/05f652d241bbd273fb8d28988885fb96.png",
        "status_id": "TERDAFTAR",
        "sistem_elektronik_id": 11840
      }
    },
    {
      "type": "tdpseTerbit",
      "id": 12036,
      "attributes": {
        "nomor_pb_umku": null,
        "nama": "CONQUERORS: ZAMAN KEEMASAN",
        "website": "cq.igg.com",
        "sektor": "Sektor Teknologi Informasi dan Komunikasi",
        "nama_perusahaan": "IGG SINGAPORE PTE. LTD.",
        "tanggal_daftar": "2022-10-31",
        "nomor_tanda_daftar": "006950.15/DJAI.PSE/10/2022",
        "qr_code": "https://pse.kominfo.go.id/storage/images/qr_code/d09697ed20aa6ba9687fc9f04b97a47b.png",
        "status_id": "TERDAFTAR",
        "sistem_elektronik_id": 11839
      }
    },
    {
      "type": "tdpseTerbit",
      "id": 12035,
      "attributes": {
        "nomor_pb_umku": null,
        "nama": "CASTLE CLASH: WORLD RULER",
        "website": "castleclash.igg.com",
        "sektor": "Sektor Teknologi Informasi dan Komunikasi",
        "nama_perusahaan": "IGG SINGAPORE PTE. LTD.",
        "tanggal_daftar": "2022-10-31",
        "nomor_tanda_daftar": "006950.14/DJAI.PSE/10/2022",
        "qr_code": "https://pse.kominfo.go.id/storage/images/qr_code/1f423d6c72d291768857e8bdfbc71a01.png",
        "status_id": "TERDAFTAR",
        "sistem_elektronik_id": 11838
      }
    },
    {
      "type": "tdpseTerbit",
      "id": 12034,
      "attributes": {
        "nomor_pb_umku": null,
        "nama": "WAR OF SURVIVORS",
        "website": "wos.igg.com",
        "sektor": "Sektor Teknologi Informasi dan Komunikasi",
        "nama_perusahaan": "IGG SINGAPORE PTE. LTD.",
        "tanggal_daftar": "2022-10-31",
        "nomor_tanda_daftar": "006950.13/DJAI.PSE/10/2022",
        "qr_code": "https://pse.kominfo.go.id/storage/images/qr_code/0bf257f3309d13541fdfe93395ee608f.png",
        "status_id": "TERDAFTAR",
        "sistem_elektronik_id": 11837
      }
    },
    {
      "type": "tdpseTerbit",
      "id": 12033,
      "attributes": {
        "nomor_pb_umku": null,
        "nama": "CONQUERORS: ZAMAN KEEMASAN",
        "website": "cq.igg.com",
        "sektor": "Sektor Teknologi Informasi dan Komunikasi",
        "nama_perusahaan": "IGG SINGAPORE PTE. LTD.",
        "tanggal_daftar": "2022-10-31",
        "nomor_tanda_daftar": "006950.12/DJAI.PSE/10/2022",
        "qr_code": "https://pse.kominfo.go.id/storage/images/qr_code/ef7c46b441c9cfacc01e8b0093c56b5b.png",
        "status_id": "TERDAFTAR",
        "sistem_elektronik_id": 11836
      }
    },
    {
      "type": "tdpseTerbit",
      "id": 12032,
      "attributes": {
        "nomor_pb_umku": null,
        "nama": "CONQUERORS: ZAMAN KEEMASAN",
        "website": "cq.igg.com",
        "sektor": "Sektor Teknologi Informasi dan Komunikasi",
        "nama_perusahaan": "IGG SINGAPORE PTE. LTD.",
        "tanggal_daftar": "2022-10-31",
        "nomor_tanda_daftar": "006950.11/DJAI.PSE/10/2022",
        "qr_code": "https://pse.kominfo.go.id/storage/images/qr_code/546a1285fdad753c4f1a2b9c8557a36e.png",
        "status_id": "TERDAFTAR",
        "sistem_elektronik_id": 11835
      }
    },
    {
      "type": "tdpseTerbit",
      "id": 12031,
      "attributes": {
        "nomor_pb_umku": null,
        "nama": "TIME PRINCESS",
        "website": "tp.igg.com",
        "sektor": "Sektor Teknologi Informasi dan Komunikasi",
        "nama_perusahaan": "IGG SINGAPORE PTE. LTD.",
        "tanggal_daftar": "2022-10-31",
        "nomor_tanda_daftar": "006950.10/DJAI.PSE/10/2022",
        "qr_code": "https://pse.kominfo.go.id/storage/images/qr_code/83abd755a0c7424fe3bfe6c684ea4db6.png",
        "status_id": "TERDAFTAR",
        "sistem_elektronik_id": 11834
      }
    },
    {
      "type": "tdpseTerbit",
      "id": 12030,
      "attributes": {
        "nomor_pb_umku": null,
        "nama": "SCRIPTS: ROMANCE EPISODE",
        "website": "sus.igg.com",
        "sektor": "Sektor Teknologi Informasi dan Komunikasi",
        "nama_perusahaan": "IGG SINGAPORE PTE. LTD.",
        "tanggal_daftar": "2022-10-31",
        "nomor_tanda_daftar": "006950.09/DJAI.PSE/10/2022",
        "qr_code": "https://pse.kominfo.go.id/storage/images/qr_code/424adec6833a359d883ed18135e7d646.png",
        "status_id": "TERDAFTAR",
        "sistem_elektronik_id": 11833
      }
    },
    {
      "type": "tdpseTerbit",
      "id": 12029,
      "attributes": {
        "nomor_pb_umku": null,
        "nama": "CONQUERORS: ZAMAN KEEMASAN",
        "website": "cq.igg.com",
        "sektor": "Sektor Teknologi Informasi dan Komunikasi",
        "nama_perusahaan": "IGG SINGAPORE PTE. LTD.",
        "tanggal_daftar": "2022-10-31",
        "nomor_tanda_daftar": "006950.08/DJAI.PSE/10/2022",
        "qr_code": "https://pse.kominfo.go.id/storage/images/qr_code/dc4ce03e406284ea52f46694ccfadd4f.png",
        "status_id": "TERDAFTAR",
        "sistem_elektronik_id": 11832
      }
    },
    {
      "type": "tdpseTerbit",
      "id": 12028,
      "attributes": {
        "nomor_pb_umku": null,
        "nama": "IGG.COM",
        "website": "igg.com",
        "sektor": "Sektor Teknologi Informasi dan Komunikasi",
        "nama_perusahaan": "IGG SINGAPORE PTE. LTD.",
        "tanggal_daftar": "2022-10-31",
        "nomor_tanda_daftar": "006950.07/DJAI.PSE/10/2022",
        "qr_code": "https://pse.kominfo.go.id/storage/images/qr_code/dc811007a56d80676c0502b0114ec73d.png",
        "status_id": "TERDAFTAR",
        "sistem_elektronik_id": 11831
      }
    }
  ]
}