{
  "meta": {
    "page": {
      "currentPage": 33,
      "from": 321,
      "lastPage": 40,
      "perPage": 10,
      "to": 330,
      "total": 396
    }
  },
  "data": [
    {
      "type": "tdpseTerbit",
      "id": 4886,
      "attributes": {
        "nomor_pb_umku": "",
        "nama": "DAZN",
        "website": "dazn.com",
        "sektor": "Sektor Perdagangan",
        "nama_perusahaan": "DAZN LIMITED",
        "tanggal_daftar": "2022-06-28",
        "nomor_tanda_daftar": "003524.01/DJAI.PSE/06/2022",
        "qr_code": "https://pse.kominfo.go.id/storage/images/qr_code/2789916bd000abee2de3432ccbee6d85.png",
        "status_id": "TERDAFTAR",
        "sistem_elektronik_id": 4755
      }
    },
    {
      "type": "tdpseTerbit",
      "id": 4720,
      "attributes": {
        "nomor_pb_umku": "",
        "nama": "YANDEX PRACTICUM PLATFORM",
        "website": "practicum.com/id-idn/",
        "sektor": "Sektor Teknologi Informasi dan Komunikasi",
        "nama_perusahaan": "INTERTECH SERVICES AG",
        "tanggal_daftar": "2022-06-24",
        "nomor_tanda_daftar": "003410.01/DJAI.PSE/06/2022",
        "qr_code": "https://pse.kominfo.go.id/storage/images/qr_code/bae4eb9fe0fbc41197e3af8d09fd39cd.png",
        "status_id": "TERDAFTAR",
        "sistem_elektronik_id": 4674
      }
    },
    {
      "type": "tdpseTerbit",
      "id": 11022,
      "attributes": {
        "nomor_pb_umku": null,
        "nama": "SUBARI URSULA MARIA",
        "website": "-",
        "sektor": "Sektor Keuangan",
        "nama_perusahaan": "SUBARI URSULA MARIA",
        "tanggal_daftar": "2022-09-05",
        "nomor_tanda_daftar": "003370.03/DJAI.PSE/09/2022",
        "qr_code": "https://pse.kominfo.go.id/storage/images/qr_code/19a234bdce8b47fce5f852526ff6aecb.png",
        "status_id": "TERDAFTAR",
        "sistem_elektronik_id": 10825
      }
    },
    {
      "type": "tdpseTerbit",
      "id": 10299,
      "attributes": {
        "nomor_pb_umku": null,
        "nama": "APPOINTED CROSS CURRENCY DEALER & SUB DEPOSITORY ACCOUNT",
        "website": "-",
        "sektor": "Sektor Keuangan",
        "nama_perusahaan": "SUBARI URSULA MARIA",
        "tanggal_daftar": "2022-08-13",
        "nomor_tanda_daftar": "003370.02/DJAI.PSE/08/2022",
        "qr_code": "https://pse.kominfo.go.id/storage/images/qr_code/8c9cf8514f7f1ca964998ccb81cdba6b.png",
        "status_id": "TERDAFTAR",
        "sistem_elektronik_id": 10182
      }
    },
    {
      "type": "tdpseTerbit",
      "id": 4680,
      "attributes": {
        "nomor_pb_umku": "",
        "nama": "MARIAKALAIJ OWEN CAPITAL FINANCIAL LINK",
        "website": "owenpetrobitumen.blogspot.com",
        "sektor": "Sektor Keuangan",
        "nama_perusahaan": "SUBARI URSULA MARIA",
        "tanggal_daftar": "2022-06-23",
        "nomor_tanda_daftar": "003370.01/DJAI.PSE/06/2022",
        "qr_code": "https://pse.kominfo.go.id/storage/images/qr_code/32d868e0d7c9156b69ab93ca01217780.png",
        "status_id": "TERDAFTAR",
        "sistem_elektronik_id": 4639
      }
    },
    {
      "type": "tdpseTerbit",
      "id": 11017,
      "attributes": {
        "nomor_pb_umku": null,
        "nama": "PUTRA WIDJAJA",
        "website": "-",
        "sektor": "Sektor Keuangan",
        "nama_perusahaan": "PUTRA WIDJAJA",
        "tanggal_daftar": "2022-09-05",
        "nomor_tanda_daftar": "003369.02/DJAI.PSE/09/2022",
        "qr_code": "https://pse.kominfo.go.id/storage/images/qr_code/e51db7526776f9399bf13a7523dbf073.png",
        "status_id": "TERDAFTAR",
        "sistem_elektronik_id": 10820
      }
    },
    {
      "type": "tdpseTerbit",
      "id": 4679,
      "attributes": {
        "nomor_pb_umku": "",
        "nama": "SMIC FINANCIAL LINK",
        "website": "transpeninsular.wordpress.com",
        "sektor": "Sektor Keuangan",
        "nama_perusahaan": "PUTRA WIDJAJA",
        "tanggal_daftar": "2022-06-23",
        "nomor_tanda_daftar": "003369.01/DJAI.PSE/06/2022",
        "qr_code": "https://pse.kominfo.go.id/storage/images/qr_code/9f686058eefbf02dd802d9eee631025d.png",
        "status_id": "TERDAFTAR",
        "sistem_elektronik_id": 4638
      }
    },
    {
      "type": "tdpseTerbit",
      "id": 11019,
      "attributes": {
        "nomor_pb_umku": null,
        "nama": "TUNAS INDONESIA JAYA",
        "website": "-",
        "sektor": "Sektor Keuangan",
        "nama_perusahaan": "YAYASAN TUNAS INDONESIA JAYA",
        "tanggal_daftar": "2022-09-05",
        "nomor_tanda_daftar": "003368.02/DJAI.PSE/09/2022",
        "qr_code": "https://pse.kominfo.go.id/storage/images/qr_code/25d2b6ccbd8210dbe310249104f40a41.png",
        "status_id": "TERDAFTAR",
        "sistem_elektronik_id": 10822
      }
    },
    {
      "type": "tdpseTerbit",
      "id": 4678,
      "attributes": {
        "nomor_pb_umku": "",
        "nama": "SMIC FINANCIAL TRADE LINK",
        "website": "transpeninsular.wordpress.com",
        "sektor": "Sektor Perdagangan",
        "nama_perusahaan": "YAYASAN TUNAS INDONESIA JAYA",
        "tanggal_daftar": "2022-06-23",
        "nomor_tanda_daftar": "003368.01/DJAI.PSE/06/2022",
        "qr_code": "https://pse.kominfo.go.id/storage/images/qr_code/6eb6703274c3153914b1e9658c638a68.png",
        "status_id": "TERDAFTAR",
        "sistem_elektronik_id": 4637
      }
    },
    {
      "type": "tdpseTerbit",
      "id": 4677,
      "attributes": {
        "nomor_pb_umku": "",
        "nama": "NABITU",
        "website": "nabitu.id",
        "sektor": "Sektor Keuangan",
        "nama_perusahaan": "NABITU TEKNOLOGI ISLAMI",
        "tanggal_daftar": "2022-06-23",
        "nomor_tanda_daftar": "003367.01/DJAI.PSE/06/2022",
        "qr_code": "https://pse.kominfo.go.id/storage/images/qr_code/f1b7a0f1af6142165d29f2bedd25aaf6.png",
        "status_id": "TERDAFTAR",
        "sistem_elektronik_id": 4636
      }
    }
  ]
}