{
  "meta": {
    "page": {
      "currentPage": 34,
      "from": 331,
      "lastPage": 63,
      "perPage": 10,
      "to": 340,
      "total": 629
    }
  },
  "data": [
    {
      "type": "tdpseTerbit",
      "id": 9200,
      "attributes": {
        "nomor_pb_umku": null,
        "nama": "TAOBAO",
        "website": "world.taobao.com",
        "sektor": "Sektor Perdagangan",
        "nama_perusahaan": "ZHEJIANG TAOBAO NETWORK CO., LTD.",
        "tanggal_daftar": "2022-07-27",
        "nomor_tanda_daftar": "006454.01/DJAI.PSE/07/2022",
        "qr_code": "https://pse.kominfo.go.id/storage/images/qr_code/169563c68b945429b68fdda2cb70ad36.png",
        "status_id": "TERDAFTAR",
        "sistem_elektronik_id": 9108
      }
    },
    {
      "type": "tdpseTerbit",
      "id": 9193,
      "attributes": {
        "nomor_pb_umku": null,
        "nama": "SENTBE",
        "website": "sentbe.com",
        "sektor": "Sektor Keuangan",
        "nama_perusahaan": "SENTBE PTE LTD",
        "tanggal_daftar": "2022-07-27",
        "nomor_tanda_daftar": "006451.01/DJAI.PSE/07/2022",
        "qr_code": "https://pse.kominfo.go.id/storage/images/qr_code/c4efad6e4228b4a58eff98ecfca7bc23.png",
        "status_id": "TERDAFTAR",
        "sistem_elektronik_id": 9101
      }
    },
    {
      "type": "tdpseTerbit",
      "id": 9878,
      "attributes": {
        "nomor_pb_umku": null,
        "nama": "ELECTRONIC SOUL GAME",
        "website": "coco4game.com",
        "sektor": "Sektor Teknologi Informasi dan Komunikasi",
        "nama_perusahaan": "ELECTRONIC SOUL INTERACTIVE TECHNOLOGY(HONG KONG) CO.,LIMITED",
        "tanggal_daftar": "2022-08-04",
        "nomor_tanda_daftar": "006450.03/DJAI.PSE/08/2022",
        "qr_code": "https://pse.kominfo.go.id/storage/images/qr_code/0050d6a8a3a6790516071f1a64d1b6ce.png",
        "status_id": "TERDAFTAR",
        "sistem_elektronik_id": 9764
      }
    },
    {
      "type": "tdpseTerbit",
      "id": 9840,
      "attributes": {
        "nomor_pb_umku": null,
        "nama": "ELECTRONIC SOUL GAME",
        "website": "coco4game.com",
        "sektor": "Sektor Teknologi Informasi dan Komunikasi",
        "nama_perusahaan": "ELECTRONIC SOUL INTERACTIVE TECHNOLOGY(HONG KONG) CO.,LIMITED",
        "tanggal_daftar": "2022-08-04",
        "nomor_tanda_daftar": "006450.02/DJAI.PSE/08/2022",
        "qr_code": "https://pse.kominfo.go.id/storage/images/qr_code/fcf5b5523c100cbebe8481752c647b61.png",
        "status_id": "TERDAFTAR",
        "sistem_elektronik_id": 9715
      }
    },
    {
      "type": "tdpseTerbit",
      "id": 9191,
      "attributes": {
        "nomor_pb_umku": null,
        "nama": "E-SOUL GAME",
        "website": "coco4game.com",
        "sektor": "Sektor Teknologi Informasi dan Komunikasi",
        "nama_perusahaan": "ELECTRONIC SOUL INTERACTIVE TECHNOLOGY(HONG KONG) CO.,LIMITED",
        "tanggal_daftar": "2022-07-27",
        "nomor_tanda_daftar": "006450.01/DJAI.PSE/07/2022",
        "qr_code": "https://pse.kominfo.go.id/storage/images/qr_code/64388204ae6e6abf9cb7b3c22933e356.png",
        "status_id": "TERDAFTAR",
        "sistem_elektronik_id": 9099
      }
    },
    {
      "type": "tdpseTerbit",
      "id": 9180,
      "attributes": {
        "nomor_pb_umku": null,
        "nama": "OPERA NEWS",
        "website": "opera.com",
        "sektor": "Sektor Teknologi Informasi dan Komunikasi",
        "nama_perusahaan": "OPERA NORWAY AS",
        "tanggal_daftar": "2022-07-27",
        "nomor_tanda_daftar": "006445.06/DJAI.PSE/07/2022",
        "qr_code": "https://pse.kominfo.go.id/storage/images/qr_code/719c3769d1b0b67684f77e9b6c138f88.png",
        "status_id": "TERDAFTAR",
        "sistem_elektronik_id": 9088
      }
    },
    {
      "type": "tdpseTerbit",
      "id": 9179,
      "attributes": {
        "nomor_pb_umku": null,
        "nama": "OPERA FOR ANDROID",
        "website": "opera.com",
        "sektor": "Sektor Teknologi Informasi dan Komunikasi",
        "nama_perusahaan": "OPERA NORWAY AS",
        "tanggal_daftar": "2022-07-27",
        "nomor_tanda_daftar": "006445.05/DJAI.PSE/07/2022",
        "qr_code": "https://pse.kominfo.go.id/storage/images/qr_code/6138199a18ded3dc1660ad7ee752f249.png",
        "status_id": "TERDAFTAR",
        "sistem_elektronik_id": 9087
      }
    },
    {
      "type": "tdpseTerbit",
      "id": 9178,
      "attributes": {
        "nomor_pb_umku": null,
        "nama": "OPERA MINI",
        "website": "opera.com",
        "sektor": "Sektor Teknologi Informasi dan Komunikasi",
        "nama_perusahaan": "OPERA NORWAY AS",
        "tanggal_daftar": "2022-07-27",
        "nomor_tanda_daftar": "006445.04/DJAI.PSE/07/2022",
        "qr_code": "https://pse.kominfo.go.id/storage/images/qr_code/0aaca34ebe8f5e509d8887237b174179.png",
        "status_id": "TERDAFTAR",
        "sistem_elektronik_id": 9086
      }
    },
    {
      "type": "tdpseTerbit",
      "id": 9177,
      "attributes": {
        "nomor_pb_umku": null,
        "nama": "OPERA NEWS",
        "website": "opera.com",
        "sektor": "Sektor Teknologi Informasi dan Komunikasi",
        "nama_perusahaan": "OPERA NORWAY AS",
        "tanggal_daftar": "2022-07-27",
        "nomor_tanda_daftar": "006445.03/DJAI.PSE/07/2022",
        "qr_code": "https://pse.kominfo.go.id/storage/images/qr_code/bf9f1b5bc60987bd287942aaea9800c4.png",
        "status_id": "TERDAFTAR",
        "sistem_elektronik_id": 9085
      }
    },
    {
      "type": "tdpseTerbit",
      "id": 9176,
      "attributes": {
        "nomor_pb_umku": null,
        "nama": "OPERA FOR ANDROID",
        "website": "opera.com",
        "sektor": "Sektor Teknologi Informasi dan Komunikasi",
        "nama_perusahaan": "OPERA NORWAY AS",
        "tanggal_daftar": "2022-07-27",
        "nomor_tanda_daftar": "006445.02/DJAI.PSE/07/2022",
        "qr_code": "https://pse.kominfo.go.id/storage/images/qr_code/db45544dbd03e979bcfbae768082a433.png",
        "status_id": "TERDAFTAR",
        "sistem_elektronik_id": 9084
      }
    }
  ]
}