{
  "meta": {
    "page": {
      "currentPage": 35,
      "from": 341,
      "lastPage": 35,
      "perPage": 10,
      "to": 350,
      "total": 341
    }
  },
  "data": [
    {
      "type": "tdpseTerbit",
      "id": 4055,
      "attributes": {
        "nomor_pb_umku": "",
        "nama": "LIVEWELL APP AND WEB PORTAL",
        "website": "livewell-portal.zurich.com",
        "sektor": "Sektor Kesehatan",
        "nama_perusahaan": "Zurich LiveWell Services and Solutions Ltd.",
        "tanggal_daftar": "2022-05-23",
        "nomor_tanda_daftar": "000273.01/DJAI.PSE/05/2022",
        "qr_code": "https://pse.kominfo.go.id/storage/images/qr_code/6978494cb7ff055a21f95ac8ec64ecd6.png",
        "status_id": "TERDAFTAR",
        "sistem_elektronik_id": 4054
      }
    }
  ]
}