{
  "meta": {
    "page": {
      "currentPage": 37,
      "from": 361,
      "lastPage": 72,
      "perPage": 10,
      "to": 370,
      "total": 712
    }
  },
  "data": [
    {
      "type": "tdpseTerbit",
      "id": 9263,
      "attributes": {
        "nomor_pb_umku": null,
        "nama": "LIONSGATE PLAY",
        "website": "lionsgateplay.com",
        "sektor": "Sektor Teknologi Informasi dan Komunikasi",
        "nama_perusahaan": "LIONSGATE PLAY LLP",
        "tanggal_daftar": "2022-07-28",
        "nomor_tanda_daftar": "006497.01/DJAI.PSE/07/2022",
        "qr_code": "https://pse.kominfo.go.id/storage/images/qr_code/b5531cd9573b3a2f973b6c4456844a8f.png",
        "status_id": "TERDAFTAR",
        "sistem_elektronik_id": 9175
      }
    },
    {
      "type": "tdpseTerbit",
      "id": 10191,
      "attributes": {
        "nomor_pb_umku": null,
        "nama": "FARLIGHT 84",
        "website": "farlight84.farlightgames.com",
        "sektor": "Sektor Teknologi Informasi dan Komunikasi",
        "nama_perusahaan": "Farlight Pte Ltd.",
        "tanggal_daftar": "2022-08-10",
        "nomor_tanda_daftar": "006496.04/DJAI.PSE/08/2022",
        "qr_code": "https://pse.kominfo.go.id/storage/images/qr_code/b912ceb5d0e30b240bea54c641112eb0.png",
        "status_id": "TERDAFTAR",
        "sistem_elektronik_id": 10070
      }
    },
    {
      "type": "tdpseTerbit",
      "id": 10190,
      "attributes": {
        "nomor_pb_umku": null,
        "nama": "DISLYTE",
        "website": "dislyte.farlightgames.com",
        "sektor": "Sektor Teknologi Informasi dan Komunikasi",
        "nama_perusahaan": "Farlight Pte Ltd.",
        "tanggal_daftar": "2022-08-10",
        "nomor_tanda_daftar": "006496.03/DJAI.PSE/08/2022",
        "qr_code": "https://pse.kominfo.go.id/storage/images/qr_code/43c54db14212f30b1e4e50cc24ffb842.png",
        "status_id": "TERDAFTAR",
        "sistem_elektronik_id": 10069
      }
    },
    {
      "type": "tdpseTerbit",
      "id": 9262,
      "attributes": {
        "nomor_pb_umku": null,
        "nama": "DISLYTE",
        "website": "dislyte.farlightgames.com",
        "sektor": "Sektor Teknologi Informasi dan Komunikasi",
        "nama_perusahaan": "Farlight Pte Ltd.",
        "tanggal_daftar": "2022-07-28",
        "nomor_tanda_daftar": "006496.02/DJAI.PSE/07/2022",
        "qr_code": "https://pse.kominfo.go.id/storage/images/qr_code/99f837f1704b935f3c203c505c7436b8.png",
        "status_id": "TERDAFTAR",
        "sistem_elektronik_id": 9174
      }
    },
    {
      "type": "tdpseTerbit",
      "id": 9261,
      "attributes": {
        "nomor_pb_umku": null,
        "nama": "FARLIGHT 84",
        "website": "farlight84.farlightgames.com",
        "sektor": "Sektor Teknologi Informasi dan Komunikasi",
        "nama_perusahaan": "Farlight Pte Ltd.",
        "tanggal_daftar": "2022-07-28",
        "nomor_tanda_daftar": "006496.01/DJAI.PSE/07/2022",
        "qr_code": "https://pse.kominfo.go.id/storage/images/qr_code/306462d37c57007bf6fdec27d70d4db5.png",
        "status_id": "TERDAFTAR",
        "sistem_elektronik_id": 9173
      }
    },
    {
      "type": "tdpseTerbit",
      "id": 9260,
      "attributes": {
        "nomor_pb_umku": null,
        "nama": "CHAMET",
        "website": "ichamet.com",
        "sektor": "Sektor Teknologi Informasi dan Komunikasi",
        "nama_perusahaan": "FULIAO HONG KONG LIMITED",
        "tanggal_daftar": "2022-07-28",
        "nomor_tanda_daftar": "006495.01/DJAI.PSE/07/2022",
        "qr_code": "https://pse.kominfo.go.id/storage/images/qr_code/f9aaf89007004c2d39fc6b590b449a8b.png",
        "status_id": "TERDAFTAR",
        "sistem_elektronik_id": 9172
      }
    },
    {
      "type": "tdpseTerbit",
      "id": 9258,
      "attributes": {
        "nomor_pb_umku": null,
        "nama": "6ESTATES IDP",
        "website": "idp-sea.6estates.com",
        "sektor": "Sektor Teknologi Informasi dan Komunikasi",
        "nama_perusahaan": "6ESTATES PTE. LTD.",
        "tanggal_daftar": "2022-07-28",
        "nomor_tanda_daftar": "006494.01/DJAI.PSE/07/2022",
        "qr_code": "https://pse.kominfo.go.id/storage/images/qr_code/dcc4eb136aa1e6dc515218cc26ebf57b.png",
        "status_id": "TERDAFTAR",
        "sistem_elektronik_id": 9170
      }
    },
    {
      "type": "tdpseTerbit",
      "id": 9257,
      "attributes": {
        "nomor_pb_umku": null,
        "nama": "SEAL LIVE",
        "website": "seallive.app",
        "sektor": "Sektor Teknologi Informasi dan Komunikasi",
        "nama_perusahaan": "PLANET NINE INNOVATION LIMITED",
        "tanggal_daftar": "2022-07-28",
        "nomor_tanda_daftar": "006492.01/DJAI.PSE/07/2022",
        "qr_code": "https://pse.kominfo.go.id/storage/images/qr_code/9083b19c922268a783da88fc3d8a1a49.png",
        "status_id": "TERDAFTAR",
        "sistem_elektronik_id": 9169
      }
    },
    {
      "type": "tdpseTerbit",
      "id": 9256,
      "attributes": {
        "nomor_pb_umku": null,
        "nama": "PARAS.ID",
        "website": "paras.id",
        "sektor": "Sektor Teknologi Informasi dan Komunikasi",
        "nama_perusahaan": "PARAS DIGITAL PTE LTD",
        "tanggal_daftar": "2022-07-28",
        "nomor_tanda_daftar": "006491.01/DJAI.PSE/07/2022",
        "qr_code": "https://pse.kominfo.go.id/storage/images/qr_code/fdc31f4c2a760741db2ad72bf806c03d.png",
        "status_id": "TERDAFTAR",
        "sistem_elektronik_id": 9168
      }
    },
    {
      "type": "tdpseTerbit",
      "id": 9255,
      "attributes": {
        "nomor_pb_umku": null,
        "nama": "LITMATCH",
        "website": "litmatchapp.com/#/",
        "sektor": "Sektor Teknologi Informasi dan Komunikasi",
        "nama_perusahaan": "CONSTRUCT TECHNOLOGY PTE LTD",
        "tanggal_daftar": "2022-07-28",
        "nomor_tanda_daftar": "006490.01/DJAI.PSE/07/2022",
        "qr_code": "https://pse.kominfo.go.id/storage/images/qr_code/8ce26c5c2098be22f411b8259074f63d.png",
        "status_id": "TERDAFTAR",
        "sistem_elektronik_id": 9167
      }
    }
  ]
}