{
  "meta": {
    "page": {
      "currentPage": 38,
      "from": 371,
      "lastPage": 72,
      "perPage": 10,
      "to": 380,
      "total": 712
    }
  },
  "data": [
    {
      "type": "tdpseTerbit",
      "id": 9252,
      "attributes": {
        "nomor_pb_umku": null,
        "nama": "NARUTO:SLUGFESTX",
        "website": "narutoslugfest.com",
        "sektor": "Sektor Perdagangan",
        "nama_perusahaan": "HONGKONG YOYOO TECHNOLOGY CO.,LIMITED",
        "tanggal_daftar": "2022-07-28",
        "nomor_tanda_daftar": "006488.01/DJAI.PSE/07/2022",
        "qr_code": "https://pse.kominfo.go.id/storage/images/qr_code/e4bab0fcd44e8eda46b1297c7a6683c0.png",
        "status_id": "TERDAFTAR",
        "sistem_elektronik_id": 9164
      }
    },
    {
      "type": "tdpseTerbit",
      "id": 9251,
      "attributes": {
        "nomor_pb_umku": null,
        "nama": "UKI",
        "website": "uki.booyah.cc/",
        "sektor": "Sektor Teknologi Informasi dan Komunikasi",
        "nama_perusahaan": "QUYUE TECHNOLOGY PTE. LTD.",
        "tanggal_daftar": "2022-07-28",
        "nomor_tanda_daftar": "006487.01/DJAI.PSE/07/2022",
        "qr_code": "https://pse.kominfo.go.id/storage/images/qr_code/c65bdc3c7a9aa42f99ed4f178f038abd.png",
        "status_id": "TERDAFTAR",
        "sistem_elektronik_id": 9163
      }
    },
    {
      "type": "tdpseTerbit",
      "id": 9250,
      "attributes": {
        "nomor_pb_umku": null,
        "nama": "MEETYOU",
        "website": "play.google.com/store/apps/details?id=com.meetyou.intl",
        "sektor": "Sektor Teknologi Informasi dan Komunikasi",
        "nama_perusahaan": "INSPIRATION GROUP HONGKONG LIMITED",
        "tanggal_daftar": "2022-07-28",
        "nomor_tanda_daftar": "006486.01/DJAI.PSE/07/2022",
        "qr_code": "https://pse.kominfo.go.id/storage/images/qr_code/7442dc2a42adb4ea25e143dd80cdac47.png",
        "status_id": "TERDAFTAR",
        "sistem_elektronik_id": 9162
      }
    },
    {
      "type": "tdpseTerbit",
      "id": 9249,
      "attributes": {
        "nomor_pb_umku": null,
        "nama": "APKPURE",
        "website": "apkpure.com",
        "sektor": "Sektor Teknologi Informasi dan Komunikasi",
        "nama_perusahaan": "ELECYBER INTERNATIONAL PTE. LTD.",
        "tanggal_daftar": "2022-07-28",
        "nomor_tanda_daftar": "006485.01/DJAI.PSE/07/2022",
        "qr_code": "https://pse.kominfo.go.id/storage/images/qr_code/4138aa12b3b35f78f4c073e477956438.png",
        "status_id": "TERDAFTAR",
        "sistem_elektronik_id": 9161
      }
    },
    {
      "type": "tdpseTerbit",
      "id": 12265,
      "attributes": {
        "nomor_pb_umku": null,
        "nama": "CIVILIZATION: REIGN OF POWER",
        "website": "-",
        "sektor": "Sektor Teknologi Informasi dan Komunikasi",
        "nama_perusahaan": "NEXON KOREA CORPORATION",
        "tanggal_daftar": "2022-11-14",
        "nomor_tanda_daftar": "006484.17/DJAI.PSE/11/2022",
        "qr_code": "https://pse.kominfo.go.id/storage/images/qr_code/a3a957b5d06648da005b461ade059ae1.png",
        "status_id": "TERDAFTAR",
        "sistem_elektronik_id": 12059
      }
    },
    {
      "type": "tdpseTerbit",
      "id": 12052,
      "attributes": {
        "nomor_pb_umku": null,
        "nama": "DAVE THE DIVER",
        "website": "store.steampowered.com",
        "sektor": "Sektor Teknologi Informasi dan Komunikasi",
        "nama_perusahaan": "NEXON KOREA CORPORATION",
        "tanggal_daftar": "2022-10-31",
        "nomor_tanda_daftar": "006484.16/DJAI.PSE/10/2022",
        "qr_code": "https://pse.kominfo.go.id/storage/images/qr_code/18c584e1ee7b0929839263680bea6e0d.png",
        "status_id": "TERDAFTAR",
        "sistem_elektronik_id": 11855
      }
    },
    {
      "type": "tdpseTerbit",
      "id": 12015,
      "attributes": {
        "nomor_pb_umku": null,
        "nama": "DAVE THE DIVER",
        "website": "store.steampowered.com",
        "sektor": "Sektor Teknologi Informasi dan Komunikasi",
        "nama_perusahaan": "NEXON KOREA CORPORATION",
        "tanggal_daftar": "2022-10-28",
        "nomor_tanda_daftar": "006484.15/DJAI.PSE/10/2022",
        "qr_code": "https://pse.kominfo.go.id/storage/images/qr_code/e4dc1b0aa5d3755dfbf2ea0fd3cc977f.png",
        "status_id": "TERDAFTAR",
        "sistem_elektronik_id": 11819
      }
    },
    {
      "type": "tdpseTerbit",
      "id": 12012,
      "attributes": {
        "nomor_pb_umku": null,
        "nama": "DAVE THE DIVER",
        "website": "store.steampowered.com",
        "sektor": "Sektor Teknologi Informasi dan Komunikasi",
        "nama_perusahaan": "NEXON KOREA CORPORATION",
        "tanggal_daftar": "2022-10-28",
        "nomor_tanda_daftar": "006484.14/DJAI.PSE/10/2022",
        "qr_code": "https://pse.kominfo.go.id/storage/images/qr_code/89d4e382054feadfe09dd4167a7f8224.png",
        "status_id": "TERDAFTAR",
        "sistem_elektronik_id": 11816
      }
    },
    {
      "type": "tdpseTerbit",
      "id": 12011,
      "attributes": {
        "nomor_pb_umku": null,
        "nama": "DAVE THE DIVER",
        "website": "store.steampowered.com",
        "sektor": "Sektor Teknologi Informasi dan Komunikasi",
        "nama_perusahaan": "NEXON KOREA CORPORATION",
        "tanggal_daftar": "2022-10-28",
        "nomor_tanda_daftar": "006484.13/DJAI.PSE/10/2022",
        "qr_code": "https://pse.kominfo.go.id/storage/images/qr_code/ef7ec88203d4b1522829370f57f8659e.png",
        "status_id": "TERDAFTAR",
        "sistem_elektronik_id": 11815
      }
    },
    {
      "type": "tdpseTerbit",
      "id": 12010,
      "attributes": {
        "nomor_pb_umku": null,
        "nama": "DAVE THE DIVER",
        "website": "store.steampowered.com",
        "sektor": "Sektor Teknologi Informasi dan Komunikasi",
        "nama_perusahaan": "NEXON KOREA CORPORATION",
        "tanggal_daftar": "2022-10-28",
        "nomor_tanda_daftar": "006484.12/DJAI.PSE/10/2022",
        "qr_code": "https://pse.kominfo.go.id/storage/images/qr_code/499a93b407d1b81f61d098a22ed32589.png",
        "status_id": "TERDAFTAR",
        "sistem_elektronik_id": 11814
      }
    }
  ]
}