{
  "meta": {
    "page": {
      "currentPage": 39,
      "from": 381,
      "lastPage": 41,
      "perPage": 10,
      "to": 390,
      "total": 404
    }
  },
  "data": [
    {
      "type": "tdpseTerbit",
      "id": 4083,
      "attributes": {
        "nomor_pb_umku": "",
        "nama": "SIDEN",
        "website": "siden.io",
        "sektor": "Sektor Teknologi Informasi dan Komunikasi",
        "nama_perusahaan": "SIDEN INC",
        "tanggal_daftar": "2022-05-23",
        "nomor_tanda_daftar": "002757.01/DJAI.PSE/05/2022",
        "qr_code": "https://pse.kominfo.go.id/storage/images/qr_code/085263b980214fd3aca62ad0fd1daaa0.png",
        "status_id": "TERDAFTAR",
        "sistem_elektronik_id": 4082
      }
    },
    {
      "type": "tdpseTerbit",
      "id": 4082,
      "attributes": {
        "nomor_pb_umku": "",
        "nama": "BIOMARK LABORATORY PLATFORM",
        "website": "13.227.254.60",
        "sektor": "Sektor Kesehatan",
        "nama_perusahaan": "BIOMARK PTE LTD",
        "tanggal_daftar": "2022-05-23",
        "nomor_tanda_daftar": "002756.02/DJAI.PSE/05/2022",
        "qr_code": "https://pse.kominfo.go.id/storage/images/qr_code/37685d0a930dfe695a2c88a24d9a1b2b.png",
        "status_id": "TERDAFTAR",
        "sistem_elektronik_id": 4081
      }
    },
    {
      "type": "tdpseTerbit",
      "id": 4081,
      "attributes": {
        "nomor_pb_umku": "",
        "nama": "BIOMARK MOBILE APPLICATION",
        "website": "13.227.254.72",
        "sektor": "Sektor Kesehatan",
        "nama_perusahaan": "BIOMARK PTE LTD",
        "tanggal_daftar": "2022-05-23",
        "nomor_tanda_daftar": "002756.01/DJAI.PSE/05/2022",
        "qr_code": "https://pse.kominfo.go.id/storage/images/qr_code/4be1e2c770ebae54e798195a1c9ca8c0.png",
        "status_id": "TERDAFTAR",
        "sistem_elektronik_id": 4080
      }
    },
    {
      "type": "tdpseTerbit",
      "id": 9259,
      "attributes": {
        "nomor_pb_umku": null,
        "nama": "ABCD",
        "website": "ABCD.com",
        "sektor": "Sektor Keuangan",
        "nama_perusahaan": "ESO FOREIGN LTD",
        "tanggal_daftar": "2022-07-28",
        "nomor_tanda_daftar": "002755.01/DJAI.PSE/07/2022",
        "qr_code": "https://pse.kominfo.go.id/storage/images/qr_code/fc270f3b6ba4141ca9c627a1f5c57824.png",
        "status_id": "TERDAFTAR",
        "sistem_elektronik_id": 9171
      }
    },
    {
      "type": "tdpseTerbit",
      "id": 11015,
      "attributes": {
        "nomor_pb_umku": null,
        "nama": "DANA PENSIUN LEMBAGA KEUANGAN PT.BANK MUAMALAT INDONESIA",
        "website": "-",
        "sektor": "Sektor Keuangan",
        "nama_perusahaan": "DANA PENSIUN LEMBAGA KEUANGAN PT.BANK MUAMALAT INDONESIA",
        "tanggal_daftar": "2022-09-05",
        "nomor_tanda_daftar": "002754.03/DJAI.PSE/09/2022",
        "qr_code": "https://pse.kominfo.go.id/storage/images/qr_code/1ba12a9dcaca70095d160071fc104ca6.png",
        "status_id": "TERDAFTAR",
        "sistem_elektronik_id": 10818
      }
    },
    {
      "type": "tdpseTerbit",
      "id": 4887,
      "attributes": {
        "nomor_pb_umku": "",
        "nama": "BRAWIJAYA CAPITAL INVESTAMA (TRADE FINANCE LINK)",
        "website": "transpeninsular.wordpress.com",
        "sektor": "Sektor Keuangan",
        "nama_perusahaan": "DANA PENSIUN LEMBAGA KEUANGAN PT.BANK MUAMALAT INDONESIA",
        "tanggal_daftar": "2022-06-28",
        "nomor_tanda_daftar": "002754.02/DJAI.PSE/06/2022",
        "qr_code": "https://pse.kominfo.go.id/storage/images/qr_code/4bb6a3faee8f2d39c89ef9c335c46752.png",
        "status_id": "TERDAFTAR",
        "sistem_elektronik_id": 4756
      }
    },
    {
      "type": "tdpseTerbit",
      "id": 11016,
      "attributes": {
        "nomor_pb_umku": null,
        "nama": "BANK RAKYAT INDONESIA",
        "website": "-",
        "sektor": "Sektor Keuangan",
        "nama_perusahaan": "BANK RAKYAT INDONESIA",
        "tanggal_daftar": "2022-09-05",
        "nomor_tanda_daftar": "002753.02/DJAI.PSE/09/2022",
        "qr_code": "https://pse.kominfo.go.id/storage/images/qr_code/7c57c5b7ba47c2e7674bcfc25d433b65.png",
        "status_id": "TERDAFTAR",
        "sistem_elektronik_id": 10819
      }
    },
    {
      "type": "tdpseTerbit",
      "id": 5281,
      "attributes": {
        "nomor_pb_umku": null,
        "nama": "YANG INI HYPNO TEST",
        "website": "yanginihypnotest.com",
        "sektor": "Sektor Kesehatan",
        "nama_perusahaan": "HYPNOTHERAPY PTE LTD",
        "tanggal_daftar": "2022-07-11",
        "nomor_tanda_daftar": "002752.08/DJAI.PSE/07/2022",
        "qr_code": "https://pse.kominfo.go.id/storage/images/qr_code/1453e7ab8b7bbd4b87b8dae3613e779c.png",
        "status_id": "TERDAFTAR",
        "sistem_elektronik_id": 5150
      }
    },
    {
      "type": "tdpseTerbit",
      "id": 11021,
      "attributes": {
        "nomor_pb_umku": null,
        "nama": "MAHIR MUDA PRATAMA",
        "website": "-",
        "sektor": "Sektor Keuangan",
        "nama_perusahaan": "MAHIR MUDA PRATAMA",
        "tanggal_daftar": "2022-09-05",
        "nomor_tanda_daftar": "002749.02/DJAI.PSE/09/2022",
        "qr_code": "https://pse.kominfo.go.id/storage/images/qr_code/58dd08a366d859be930d713940ca304e.png",
        "status_id": "TERDAFTAR",
        "sistem_elektronik_id": 10824
      }
    },
    {
      "type": "tdpseTerbit",
      "id": 4888,
      "attributes": {
        "nomor_pb_umku": "",
        "nama": "TRADE FINANCE LINK",
        "website": "transpeninsular.wordpress.com",
        "sektor": "Sektor Keuangan",
        "nama_perusahaan": "WIJAYA KUSUMA RAJAWALI",
        "tanggal_daftar": "2022-06-28",
        "nomor_tanda_daftar": "002748.02/DJAI.PSE/06/2022",
        "qr_code": "https://pse.kominfo.go.id/storage/images/qr_code/5d0730dfe899fb2533f2c6e7cc302151.png",
        "status_id": "TERDAFTAR",
        "sistem_elektronik_id": 4757
      }
    }
  ]
}