{
  "meta": {
    "page": {
      "currentPage": 40,
      "from": 391,
      "lastPage": 69,
      "perPage": 10,
      "to": 400,
      "total": 684
    }
  },
  "data": [
    {
      "type": "tdpseTerbit",
      "id": 9211,
      "attributes": {
        "nomor_pb_umku": null,
        "nama": "[MUMSEA] MU STRONGEST - WEBZEN OFFICIALLY AUTHORIZED",
        "website": "mustrongestsea.vnggames.net",
        "sektor": "Sektor Teknologi Informasi dan Komunikasi",
        "nama_perusahaan": "VNG SINGAPORE PTE., LTD.",
        "tanggal_daftar": "2022-07-27",
        "nomor_tanda_daftar": "006431.05/DJAI.PSE/07/2022",
        "qr_code": "https://pse.kominfo.go.id/storage/images/qr_code/3bf87e1846d18f2354237bd1f61bce79.png",
        "status_id": "TERDAFTAR",
        "sistem_elektronik_id": 9119
      }
    },
    {
      "type": "tdpseTerbit",
      "id": 9150,
      "attributes": {
        "nomor_pb_umku": null,
        "nama": "PERFECT WORLD VNG: FLY WITH ME",
        "website": "perfectworld.vng.games",
        "sektor": "Sektor Teknologi Informasi dan Komunikasi",
        "nama_perusahaan": "VNG SINGAPORE PTE., LTD.",
        "tanggal_daftar": "2022-07-27",
        "nomor_tanda_daftar": "006431.04/DJAI.PSE/07/2022",
        "qr_code": "https://pse.kominfo.go.id/storage/images/qr_code/9d03d75d566483c80898dc7627959653.png",
        "status_id": "TERDAFTAR",
        "sistem_elektronik_id": 9059
      }
    },
    {
      "type": "tdpseTerbit",
      "id": 9149,
      "attributes": {
        "nomor_pb_umku": null,
        "nama": "DYNASTY WARRIORS: OVERLORDS",
        "website": "dynastywarriors.vnggames.net",
        "sektor": "Sektor Teknologi Informasi dan Komunikasi",
        "nama_perusahaan": "VNG SINGAPORE PTE., LTD.",
        "tanggal_daftar": "2022-07-27",
        "nomor_tanda_daftar": "006431.03/DJAI.PSE/07/2022",
        "qr_code": "https://pse.kominfo.go.id/storage/images/qr_code/5ebc34753dfc1f2aad5f69395a97010a.png",
        "status_id": "TERDAFTAR",
        "sistem_elektronik_id": 9058
      }
    },
    {
      "type": "tdpseTerbit",
      "id": 9148,
      "attributes": {
        "nomor_pb_umku": null,
        "nama": "CLOUD SONG: SAGA OF SKYWALKERS",
        "website": "cloudsong.vnggames.com",
        "sektor": "Sektor Teknologi Informasi dan Komunikasi",
        "nama_perusahaan": "VNG SINGAPORE PTE., LTD.",
        "tanggal_daftar": "2022-07-27",
        "nomor_tanda_daftar": "006431.02/DJAI.PSE/07/2022",
        "qr_code": "https://pse.kominfo.go.id/storage/images/qr_code/43ca3d290c07f13021b1e7f460844eab.png",
        "status_id": "TERDAFTAR",
        "sistem_elektronik_id": 9057
      }
    },
    {
      "type": "tdpseTerbit",
      "id": 9147,
      "attributes": {
        "nomor_pb_umku": null,
        "nama": "HEROES OF CROWN VNG",
        "website": "hoc.vnggames.com",
        "sektor": "Sektor Teknologi Informasi dan Komunikasi",
        "nama_perusahaan": "VNG SINGAPORE PTE., LTD.",
        "tanggal_daftar": "2022-07-27",
        "nomor_tanda_daftar": "006431.01/DJAI.PSE/07/2022",
        "qr_code": "https://pse.kominfo.go.id/storage/images/qr_code/666b7af16005b02784ed39457fd21189.png",
        "status_id": "TERDAFTAR",
        "sistem_elektronik_id": 9056
      }
    },
    {
      "type": "tdpseTerbit",
      "id": 8928,
      "attributes": {
        "nomor_pb_umku": null,
        "nama": "ROBLOX CORPORATION",
        "website": "roblox.com",
        "sektor": "Sektor Teknologi Informasi dan Komunikasi",
        "nama_perusahaan": "ROBLOX CORPORATION",
        "tanggal_daftar": "2022-07-19",
        "nomor_tanda_daftar": "006219.01/DJAI.PSE/07/2022",
        "qr_code": "https://pse.kominfo.go.id/storage/images/qr_code/0b2a98dca1d24b3fecc97844ef8c9086.png",
        "status_id": "TERDAFTAR",
        "sistem_elektronik_id": 8834
      }
    },
    {
      "type": "tdpseTerbit",
      "id": 8770,
      "attributes": {
        "nomor_pb_umku": null,
        "nama": "MIHCM",
        "website": "mihcm.com",
        "sektor": "Sektor Teknologi Informasi dan Komunikasi",
        "nama_perusahaan": "MIHCM ASIA",
        "tanggal_daftar": "2022-07-22",
        "nomor_tanda_daftar": "006145.01/DJAI.PSE/07/2022",
        "qr_code": "https://pse.kominfo.go.id/storage/images/qr_code/6bb2851a4a293b0844f1811f3a1a47f0.png",
        "status_id": "TERDAFTAR",
        "sistem_elektronik_id": 8687
      }
    },
    {
      "type": "tdpseTerbit",
      "id": 12119,
      "attributes": {
        "nomor_pb_umku": null,
        "nama": "NOVELKU",
        "website": "novelkuapp.com",
        "sektor": "Sektor Teknologi Informasi dan Komunikasi",
        "nama_perusahaan": "AKURA PTE. LTD.",
        "tanggal_daftar": "2022-11-03",
        "nomor_tanda_daftar": "006144.17/DJAI.PSE/11/2022",
        "qr_code": "https://pse.kominfo.go.id/storage/images/qr_code/f12fd49fe8811c3b621c32c2a41abe00.png",
        "status_id": "TERDAFTAR",
        "sistem_elektronik_id": 11913
      }
    },
    {
      "type": "tdpseTerbit",
      "id": 12118,
      "attributes": {
        "nomor_pb_umku": null,
        "nama": "BACANOVEL",
        "website": "bacanovel108.net",
        "sektor": "Sektor Teknologi Informasi dan Komunikasi",
        "nama_perusahaan": "AKURA PTE. LTD.",
        "tanggal_daftar": "2022-11-03",
        "nomor_tanda_daftar": "006144.16/DJAI.PSE/11/2022",
        "qr_code": "https://pse.kominfo.go.id/storage/images/qr_code/28a0614223de30aa9c10cf59ca779fe0.png",
        "status_id": "TERDAFTAR",
        "sistem_elektronik_id": 11912
      }
    },
    {
      "type": "tdpseTerbit",
      "id": 12117,
      "attributes": {
        "nomor_pb_umku": null,
        "nama": "NOVELAH",
        "website": "novelah668.com",
        "sektor": "Sektor Teknologi Informasi dan Komunikasi",
        "nama_perusahaan": "AKURA PTE. LTD.",
        "tanggal_daftar": "2022-11-03",
        "nomor_tanda_daftar": "006144.15/DJAI.PSE/11/2022",
        "qr_code": "https://pse.kominfo.go.id/storage/images/qr_code/d3adf95ef50077d54e2e95c2d026ecdd.png",
        "status_id": "TERDAFTAR",
        "sistem_elektronik_id": 11911
      }
    }
  ]
}