{
  "meta": {
    "page": {
      "currentPage": 5,
      "from": 41,
      "lastPage": 75,
      "perPage": 10,
      "to": 50,
      "total": 741
    }
  },
  "data": [
    {
      "type": "tdpseTerbit",
      "id": 12176,
      "attributes": {
        "nomor_pb_umku": null,
        "nama": "SNOWFLAKE DATA CLOUD PLATFORM",
        "website": "snowflake.com",
        "sektor": "Sektor Teknologi Informasi dan Komunikasi",
        "nama_perusahaan": "SNOWFLAKE COMPUTING NETHERLANDS B.V.",
        "tanggal_daftar": "2022-11-08",
        "nomor_tanda_daftar": "008391.01/DJAI.PSE/11/2022",
        "qr_code": "https://pse.kominfo.go.id/storage/images/qr_code/30209d5a12688e354b4113eaa33dbdff.png",
        "status_id": "TERDAFTAR",
        "sistem_elektronik_id": 11969
      }
    },
    {
      "type": "tdpseTerbit",
      "id": 12175,
      "attributes": {
        "nomor_pb_umku": null,
        "nama": "WEF",
        "website": "tekkon.com",
        "sektor": "Sektor Teknologi Informasi dan Komunikasi",
        "nama_perusahaan": "WHOLE EARTH FOUNDATION",
        "tanggal_daftar": "2022-11-08",
        "nomor_tanda_daftar": "008390.02/DJAI.PSE/11/2022",
        "qr_code": "https://pse.kominfo.go.id/storage/images/qr_code/c9100e9903f0053d0a5d5db9e07988d5.png",
        "status_id": "TERDAFTAR",
        "sistem_elektronik_id": 11968
      }
    },
    {
      "type": "tdpseTerbit",
      "id": 12174,
      "attributes": {
        "nomor_pb_umku": null,
        "nama": "WEF",
        "website": "wholeearthfoundation.org",
        "sektor": "Sektor Teknologi Informasi dan Komunikasi",
        "nama_perusahaan": "WHOLE EARTH FOUNDATION",
        "tanggal_daftar": "2022-11-08",
        "nomor_tanda_daftar": "008390.01/DJAI.PSE/11/2022",
        "qr_code": "https://pse.kominfo.go.id/storage/images/qr_code/8adddee1674542a7d79fc1bb22aa3dee.png",
        "status_id": "TERDAFTAR",
        "sistem_elektronik_id": 11967
      }
    },
    {
      "type": "tdpseTerbit",
      "id": 12143,
      "attributes": {
        "nomor_pb_umku": null,
        "nama": "DMMGROUP.ID",
        "website": "dmmgroup.id",
        "sektor": "Sektor Perdagangan",
        "nama_perusahaan": "SHANTOU MARIA INVESTMENT CO., LTD.",
        "tanggal_daftar": "2022-11-06",
        "nomor_tanda_daftar": "008370.04/DJAI.PSE/11/2022",
        "qr_code": "https://pse.kominfo.go.id/storage/images/qr_code/30df5eee2ace2d86ef324259a363c876.png",
        "status_id": "TERDAFTAR",
        "sistem_elektronik_id": 11938
      }
    },
    {
      "type": "tdpseTerbit",
      "id": 12142,
      "attributes": {
        "nomor_pb_umku": null,
        "nama": "PTNFC.COM",
        "website": "ptnfc.com",
        "sektor": "Sektor Perdagangan",
        "nama_perusahaan": "SHANTOU MARIA INVESTMENT CO., LTD.",
        "tanggal_daftar": "2022-11-06",
        "nomor_tanda_daftar": "008370.03/DJAI.PSE/11/2022",
        "qr_code": "https://pse.kominfo.go.id/storage/images/qr_code/0b449715a3ff0abba29a01df25ace38f.png",
        "status_id": "TERDAFTAR",
        "sistem_elektronik_id": 11937
      }
    },
    {
      "type": "tdpseTerbit",
      "id": 12141,
      "attributes": {
        "nomor_pb_umku": null,
        "nama": "RANSENTERTAINMENT.CO.ID",
        "website": "ransentertainment.co.id",
        "sektor": "Sektor Perdagangan",
        "nama_perusahaan": "SHANTOU MARIA INVESTMENT CO., LTD.",
        "tanggal_daftar": "2022-11-06",
        "nomor_tanda_daftar": "008370.02/DJAI.PSE/11/2022",
        "qr_code": "https://pse.kominfo.go.id/storage/images/qr_code/28c4a0d977a3dff15e68c0562d8447b8.png",
        "status_id": "TERDAFTAR",
        "sistem_elektronik_id": 11936
      }
    },
    {
      "type": "tdpseTerbit",
      "id": 12140,
      "attributes": {
        "nomor_pb_umku": null,
        "nama": "SURYA INDONESIA SATU PROPERTY",
        "website": "binkei-indo.com",
        "sektor": "Sektor Teknologi Informasi dan Komunikasi",
        "nama_perusahaan": "SHANTOU MARIA INVESTMENT CO., LTD.",
        "tanggal_daftar": "2022-11-06",
        "nomor_tanda_daftar": "008370.01/DJAI.PSE/11/2022",
        "qr_code": "https://pse.kominfo.go.id/storage/images/qr_code/201fe5bf49ca8d985bb58b143885b45a.png",
        "status_id": "TERDAFTAR",
        "sistem_elektronik_id": 11935
      }
    },
    {
      "type": "tdpseTerbit",
      "id": 12139,
      "attributes": {
        "nomor_pb_umku": null,
        "nama": "SPECIAL OLYMPICS INDONESIA",
        "website": "specialolympics.org",
        "sektor": "Sektor Teknologi Informasi dan Komunikasi",
        "nama_perusahaan": "SPECIAL OLYMPICS INDONESIA",
        "tanggal_daftar": "2022-11-06",
        "nomor_tanda_daftar": "008369.01/DJAI.PSE/11/2022",
        "qr_code": "https://pse.kominfo.go.id/storage/images/qr_code/1ee8b9b9423dad1dfd048a031c5d0165.png",
        "status_id": "TERDAFTAR",
        "sistem_elektronik_id": 11934
      }
    },
    {
      "type": "tdpseTerbit",
      "id": 12129,
      "attributes": {
        "nomor_pb_umku": null,
        "nama": "NINJA MUST DIE",
        "website": "pandadagames.com",
        "sektor": "Sektor Perdagangan",
        "nama_perusahaan": "PANDADA GAMES LIMITED",
        "tanggal_daftar": "2022-11-04",
        "nomor_tanda_daftar": "008360.01/DJAI.PSE/11/2022",
        "qr_code": "https://pse.kominfo.go.id/storage/images/qr_code/14511a4c7bc6009709f5c9ea2a50bc4b.png",
        "status_id": "TERDAFTAR",
        "sistem_elektronik_id": 11924
      }
    },
    {
      "type": "tdpseTerbit",
      "id": 12074,
      "attributes": {
        "nomor_pb_umku": null,
        "nama": "MU ONLINE",
        "website": "muonline.webzen.com",
        "sektor": "Sektor Teknologi Informasi dan Komunikasi",
        "nama_perusahaan": "WEBZEN INC.",
        "tanggal_daftar": "2022-11-01",
        "nomor_tanda_daftar": "008330.03/DJAI.PSE/11/2022",
        "qr_code": "https://pse.kominfo.go.id/storage/images/qr_code/d5f15d24e6c30a4e9d33bb106b6ae131.png",
        "status_id": "TERDAFTAR",
        "sistem_elektronik_id": 11877
      }
    }
  ]
}