{
  "meta": {
    "page": {
      "currentPage": 41,
      "from": 401,
      "lastPage": 75,
      "perPage": 10,
      "to": 410,
      "total": 741
    }
  },
  "data": [
    {
      "type": "tdpseTerbit",
      "id": 12319,
      "attributes": {
        "nomor_pb_umku": null,
        "nama": "CIVILIZATION: REIGN OF POWER",
        "website": "-",
        "sektor": "Sektor Teknologi Informasi dan Komunikasi",
        "nama_perusahaan": "NEXON KOREA CORPORATION",
        "tanggal_daftar": "2022-11-15",
        "nomor_tanda_daftar": "006484.19/DJAI.PSE/11/2022",
        "qr_code": "https://pse.kominfo.go.id/storage/images/qr_code/47d6fa7d63e8d15f8a4a002b2ddb58f5.png",
        "status_id": "TERDAFTAR",
        "sistem_elektronik_id": 12112
      }
    },
    {
      "type": "tdpseTerbit",
      "id": 12269,
      "attributes": {
        "nomor_pb_umku": null,
        "nama": "CIVILIZATION: REIGN OF POWER",
        "website": "-",
        "sektor": "Sektor Teknologi Informasi dan Komunikasi",
        "nama_perusahaan": "NEXON KOREA CORPORATION",
        "tanggal_daftar": "2022-11-14",
        "nomor_tanda_daftar": "006484.18/DJAI.PSE/11/2022",
        "qr_code": "https://pse.kominfo.go.id/storage/images/qr_code/6ddf659e4a2d32cd257b70b26ea3472d.png",
        "status_id": "TERDAFTAR",
        "sistem_elektronik_id": 12063
      }
    },
    {
      "type": "tdpseTerbit",
      "id": 12265,
      "attributes": {
        "nomor_pb_umku": null,
        "nama": "CIVILIZATION: REIGN OF POWER",
        "website": "-",
        "sektor": "Sektor Teknologi Informasi dan Komunikasi",
        "nama_perusahaan": "NEXON KOREA CORPORATION",
        "tanggal_daftar": "2022-11-14",
        "nomor_tanda_daftar": "006484.17/DJAI.PSE/11/2022",
        "qr_code": "https://pse.kominfo.go.id/storage/images/qr_code/a3a957b5d06648da005b461ade059ae1.png",
        "status_id": "TERDAFTAR",
        "sistem_elektronik_id": 12059
      }
    },
    {
      "type": "tdpseTerbit",
      "id": 12052,
      "attributes": {
        "nomor_pb_umku": null,
        "nama": "DAVE THE DIVER",
        "website": "store.steampowered.com",
        "sektor": "Sektor Teknologi Informasi dan Komunikasi",
        "nama_perusahaan": "NEXON KOREA CORPORATION",
        "tanggal_daftar": "2022-10-31",
        "nomor_tanda_daftar": "006484.16/DJAI.PSE/10/2022",
        "qr_code": "https://pse.kominfo.go.id/storage/images/qr_code/18c584e1ee7b0929839263680bea6e0d.png",
        "status_id": "TERDAFTAR",
        "sistem_elektronik_id": 11855
      }
    },
    {
      "type": "tdpseTerbit",
      "id": 12015,
      "attributes": {
        "nomor_pb_umku": null,
        "nama": "DAVE THE DIVER",
        "website": "store.steampowered.com",
        "sektor": "Sektor Teknologi Informasi dan Komunikasi",
        "nama_perusahaan": "NEXON KOREA CORPORATION",
        "tanggal_daftar": "2022-10-28",
        "nomor_tanda_daftar": "006484.15/DJAI.PSE/10/2022",
        "qr_code": "https://pse.kominfo.go.id/storage/images/qr_code/e4dc1b0aa5d3755dfbf2ea0fd3cc977f.png",
        "status_id": "TERDAFTAR",
        "sistem_elektronik_id": 11819
      }
    },
    {
      "type": "tdpseTerbit",
      "id": 12012,
      "attributes": {
        "nomor_pb_umku": null,
        "nama": "DAVE THE DIVER",
        "website": "store.steampowered.com",
        "sektor": "Sektor Teknologi Informasi dan Komunikasi",
        "nama_perusahaan": "NEXON KOREA CORPORATION",
        "tanggal_daftar": "2022-10-28",
        "nomor_tanda_daftar": "006484.14/DJAI.PSE/10/2022",
        "qr_code": "https://pse.kominfo.go.id/storage/images/qr_code/89d4e382054feadfe09dd4167a7f8224.png",
        "status_id": "TERDAFTAR",
        "sistem_elektronik_id": 11816
      }
    },
    {
      "type": "tdpseTerbit",
      "id": 12011,
      "attributes": {
        "nomor_pb_umku": null,
        "nama": "DAVE THE DIVER",
        "website": "store.steampowered.com",
        "sektor": "Sektor Teknologi Informasi dan Komunikasi",
        "nama_perusahaan": "NEXON KOREA CORPORATION",
        "tanggal_daftar": "2022-10-28",
        "nomor_tanda_daftar": "006484.13/DJAI.PSE/10/2022",
        "qr_code": "https://pse.kominfo.go.id/storage/images/qr_code/ef7ec88203d4b1522829370f57f8659e.png",
        "status_id": "TERDAFTAR",
        "sistem_elektronik_id": 11815
      }
    },
    {
      "type": "tdpseTerbit",
      "id": 12010,
      "attributes": {
        "nomor_pb_umku": null,
        "nama": "DAVE THE DIVER",
        "website": "store.steampowered.com",
        "sektor": "Sektor Teknologi Informasi dan Komunikasi",
        "nama_perusahaan": "NEXON KOREA CORPORATION",
        "tanggal_daftar": "2022-10-28",
        "nomor_tanda_daftar": "006484.12/DJAI.PSE/10/2022",
        "qr_code": "https://pse.kominfo.go.id/storage/images/qr_code/499a93b407d1b81f61d098a22ed32589.png",
        "status_id": "TERDAFTAR",
        "sistem_elektronik_id": 11814
      }
    },
    {
      "type": "tdpseTerbit",
      "id": 12009,
      "attributes": {
        "nomor_pb_umku": null,
        "nama": "DAVE THE DIVER",
        "website": "store.steampowered.com",
        "sektor": "Sektor Teknologi Informasi dan Komunikasi",
        "nama_perusahaan": "NEXON KOREA CORPORATION",
        "tanggal_daftar": "2022-10-28",
        "nomor_tanda_daftar": "006484.11/DJAI.PSE/10/2022",
        "qr_code": "https://pse.kominfo.go.id/storage/images/qr_code/60c2f17127c5bb78003de7dce73b74a9.png",
        "status_id": "TERDAFTAR",
        "sistem_elektronik_id": 11813
      }
    },
    {
      "type": "tdpseTerbit",
      "id": 11916,
      "attributes": {
        "nomor_pb_umku": null,
        "nama": "GODSOME: CLASH OF GODS",
        "website": "godsome.nexon.com",
        "sektor": "Sektor Teknologi Informasi dan Komunikasi",
        "nama_perusahaan": "NEXON KOREA CORPORATION",
        "tanggal_daftar": "2022-10-21",
        "nomor_tanda_daftar": "006484.10/DJAI.PSE/10/2022",
        "qr_code": "https://pse.kominfo.go.id/storage/images/qr_code/87107af0141600c54eded835b97d5297.png",
        "status_id": "TERDAFTAR",
        "sistem_elektronik_id": 11717
      }
    }
  ]
}