{
  "meta": {
    "page": {
      "currentPage": 42,
      "from": 411,
      "lastPage": 42,
      "perPage": 10,
      "to": 420,
      "total": 419
    }
  },
  "data": [
    {
      "type": "tdpseTerbit",
      "id": 4062,
      "attributes": {
        "nomor_pb_umku": "",
        "nama": "BIOMARK MOBILE APPLICATION",
        "website": "biomarking.com",
        "sektor": "Sektor Kesehatan",
        "nama_perusahaan": "BIOMARK PTE LTD",
        "tanggal_daftar": "2022-05-23",
        "nomor_tanda_daftar": "002746.02/DJAI.PSE/05/2022",
        "qr_code": "https://pse.kominfo.go.id/storage/images/qr_code/50c4208b893cfe419038c6b416ecb65e.png",
        "status_id": "TERDAFTAR",
        "sistem_elektronik_id": 4061
      }
    },
    {
      "type": "tdpseTerbit",
      "id": 4061,
      "attributes": {
        "nomor_pb_umku": "",
        "nama": "BIOMARK DOCTOR PLATFORM",
        "website": "biomarking.com",
        "sektor": "Sektor Kesehatan",
        "nama_perusahaan": "BIOMARK PTE LTD",
        "tanggal_daftar": "2022-05-23",
        "nomor_tanda_daftar": "002746.01/DJAI.PSE/05/2022",
        "qr_code": "https://pse.kominfo.go.id/storage/images/qr_code/88d624d0e8127ace3b1fee6123bffc94.png",
        "status_id": "TERDAFTAR",
        "sistem_elektronik_id": 4060
      }
    },
    {
      "type": "tdpseTerbit",
      "id": 4060,
      "attributes": {
        "nomor_pb_umku": "",
        "nama": "OMEGA: LAYANAN TAKSI",
        "website": "taxiomega.id",
        "sektor": "Sektor Transportasi",
        "nama_perusahaan": "GLOBAL SERVICE OMEGA L.L.C-FZ",
        "tanggal_daftar": "2022-05-23",
        "nomor_tanda_daftar": "002745.01/DJAI.PSE/05/2022",
        "qr_code": "https://pse.kominfo.go.id/storage/images/qr_code/989e8840b834c204e44d8bdeea10394d.png",
        "status_id": "TERDAFTAR",
        "sistem_elektronik_id": 4059
      }
    },
    {
      "type": "tdpseTerbit",
      "id": 11098,
      "attributes": {
        "nomor_pb_umku": null,
        "nama": "STANDARD CHARTERED BANK (HONG KONG) LIMITED",
        "website": "-",
        "sektor": "Sektor Keuangan",
        "nama_perusahaan": "MARIA TIURMA",
        "tanggal_daftar": "2022-09-08",
        "nomor_tanda_daftar": "002744.06/DJAI.PSE/09/2022",
        "qr_code": "https://pse.kominfo.go.id/storage/images/qr_code/71c039a4726369198dabd0b2bab2bb51.png",
        "status_id": "TERDAFTAR",
        "sistem_elektronik_id": 10900
      }
    },
    {
      "type": "tdpseTerbit",
      "id": 11097,
      "attributes": {
        "nomor_pb_umku": null,
        "nama": "HSBC BANK LONDON",
        "website": "-",
        "sektor": "Sektor Keuangan",
        "nama_perusahaan": "MARIA TIURMA",
        "tanggal_daftar": "2022-09-08",
        "nomor_tanda_daftar": "002744.05/DJAI.PSE/09/2022",
        "qr_code": "https://pse.kominfo.go.id/storage/images/qr_code/d811e2c9fd20516dc293eac1b0730ebb.png",
        "status_id": "TERDAFTAR",
        "sistem_elektronik_id": 10899
      }
    },
    {
      "type": "tdpseTerbit",
      "id": 11014,
      "attributes": {
        "nomor_pb_umku": null,
        "nama": "MARIA TIURMA",
        "website": "-",
        "sektor": "Sektor Keuangan",
        "nama_perusahaan": "MARIA TIURMA",
        "tanggal_daftar": "2022-09-05",
        "nomor_tanda_daftar": "002744.04/DJAI.PSE/09/2022",
        "qr_code": "https://pse.kominfo.go.id/storage/images/qr_code/6bd883ead6f915ffc8174efdac9b67c9.png",
        "status_id": "TERDAFTAR",
        "sistem_elektronik_id": 10817
      }
    },
    {
      "type": "tdpseTerbit",
      "id": 11011,
      "attributes": {
        "nomor_pb_umku": null,
        "nama": "MARIA TIURMA",
        "website": "abcd.com",
        "sektor": "Sektor Keuangan",
        "nama_perusahaan": "MARIA TIURMA",
        "tanggal_daftar": "2022-09-05",
        "nomor_tanda_daftar": "002744.03/DJAI.PSE/09/2022",
        "qr_code": "https://pse.kominfo.go.id/storage/images/qr_code/849546a01f9a83d45b4ccb21ca5cdb35.png",
        "status_id": "TERDAFTAR",
        "sistem_elektronik_id": 10814
      }
    },
    {
      "type": "tdpseTerbit",
      "id": 4056,
      "attributes": {
        "nomor_pb_umku": "",
        "nama": "SWIFT SERVICE BUREAU",
        "website": "bottomline.com/apac",
        "sektor": "Sektor Teknologi Informasi dan Komunikasi",
        "nama_perusahaan": "BOTTOMLINE TECHNOLOGIES PTE. LTD.",
        "tanggal_daftar": "2022-05-23",
        "nomor_tanda_daftar": "002743.01/DJAI.PSE/05/2022",
        "qr_code": "https://pse.kominfo.go.id/storage/images/qr_code/480afc81483b46d05c2d69066680cdb8.png",
        "status_id": "TERDAFTAR",
        "sistem_elektronik_id": 4055
      }
    },
    {
      "type": "tdpseTerbit",
      "id": 4055,
      "attributes": {
        "nomor_pb_umku": "",
        "nama": "LIVEWELL APP AND WEB PORTAL",
        "website": "livewell-portal.zurich.com",
        "sektor": "Sektor Kesehatan",
        "nama_perusahaan": "Zurich LiveWell Services and Solutions Ltd.",
        "tanggal_daftar": "2022-05-23",
        "nomor_tanda_daftar": "002742.01/DJAI.PSE/05/2022",
        "qr_code": "https://pse.kominfo.go.id/storage/images/qr_code/6978494cb7ff055a21f95ac8ec64ecd6.png",
        "status_id": "TERDAFTAR",
        "sistem_elektronik_id": 4054
      }
    }
  ]
}