{
  "meta": {
    "page": {
      "currentPage": 43,
      "from": 421,
      "lastPage": 45,
      "perPage": 10,
      "to": 430,
      "total": 448
    }
  },
  "data": [
    {
      "type": "tdpseTerbit",
      "id": 4887,
      "attributes": {
        "nomor_pb_umku": "",
        "nama": "BRAWIJAYA CAPITAL INVESTAMA (TRADE FINANCE LINK)",
        "website": "transpeninsular.wordpress.com",
        "sektor": "Sektor Keuangan",
        "nama_perusahaan": "DANA PENSIUN LEMBAGA KEUANGAN PT.BANK MUAMALAT INDONESIA",
        "tanggal_daftar": "2022-06-28",
        "nomor_tanda_daftar": "002754.02/DJAI.PSE/06/2022",
        "qr_code": "https://pse.kominfo.go.id/storage/images/qr_code/4bb6a3faee8f2d39c89ef9c335c46752.png",
        "status_id": "TERDAFTAR",
        "sistem_elektronik_id": 4756
      }
    },
    {
      "type": "tdpseTerbit",
      "id": 11449,
      "attributes": {
        "nomor_pb_umku": null,
        "nama": "PT BANK MANDIRI (PERSERO) TBK / ADR",
        "website": "shantoumariainvestment.com",
        "sektor": "Sektor Keuangan",
        "nama_perusahaan": "KENCANA PUTRA KENDARI",
        "tanggal_daftar": "2022-09-30",
        "nomor_tanda_daftar": "002753.10/DJAI.PSE/09/2022",
        "qr_code": "https://pse.kominfo.go.id/storage/images/qr_code/9228a858fea98cbebe81efe971a5c81f.png",
        "status_id": "TERDAFTAR",
        "sistem_elektronik_id": 11262
      }
    },
    {
      "type": "tdpseTerbit",
      "id": 11448,
      "attributes": {
        "nomor_pb_umku": null,
        "nama": "PT BANK MANDIRI (PERSERO) TBK / ADR",
        "website": "shantoumariainvestment.com",
        "sektor": "Sektor Keuangan",
        "nama_perusahaan": "KENCANA PUTRA KENDARI",
        "tanggal_daftar": "2022-09-30",
        "nomor_tanda_daftar": "002753.09/DJAI.PSE/09/2022",
        "qr_code": "https://pse.kominfo.go.id/storage/images/qr_code/73c724f27215d63f7695d8c7059904ec.png",
        "status_id": "TERDAFTAR",
        "sistem_elektronik_id": 11261
      }
    },
    {
      "type": "tdpseTerbit",
      "id": 11447,
      "attributes": {
        "nomor_pb_umku": null,
        "nama": "SHANTOUMARIAINVESTMENT.COM",
        "website": "shantoumariainvestment.com",
        "sektor": "Sektor Keuangan",
        "nama_perusahaan": "KENCANA PUTRA KENDARI",
        "tanggal_daftar": "2022-09-30",
        "nomor_tanda_daftar": "002753.08/DJAI.PSE/09/2022",
        "qr_code": "https://pse.kominfo.go.id/storage/images/qr_code/97a4d8a5329d378f9be21321bdb30a1b.png",
        "status_id": "TERDAFTAR",
        "sistem_elektronik_id": 11260
      }
    },
    {
      "type": "tdpseTerbit",
      "id": 11446,
      "attributes": {
        "nomor_pb_umku": null,
        "nama": "BANK MANDIRI (PERSERO) TBK, HONG KONG BRANCH",
        "website": "bankmandirihk.com",
        "sektor": "Sektor Keuangan",
        "nama_perusahaan": "KENCANA PUTRA KENDARI",
        "tanggal_daftar": "2022-09-30",
        "nomor_tanda_daftar": "002753.07/DJAI.PSE/09/2022",
        "qr_code": "https://pse.kominfo.go.id/storage/images/qr_code/faa6521bf45c5b2c21e2459851d7069d.png",
        "status_id": "TERDAFTAR",
        "sistem_elektronik_id": 11259
      }
    },
    {
      "type": "tdpseTerbit",
      "id": 11445,
      "attributes": {
        "nomor_pb_umku": null,
        "nama": "OWENPETROBITUMEN.COM",
        "website": "owenpetrobitumen.com",
        "sektor": "Sektor Keuangan",
        "nama_perusahaan": "KENCANA PUTRA KENDARI",
        "tanggal_daftar": "2022-09-30",
        "nomor_tanda_daftar": "002753.06/DJAI.PSE/09/2022",
        "qr_code": "https://pse.kominfo.go.id/storage/images/qr_code/2e889c3a7df75add4d3f5cd29b9c769f.png",
        "status_id": "TERDAFTAR",
        "sistem_elektronik_id": 11258
      }
    },
    {
      "type": "tdpseTerbit",
      "id": 11444,
      "attributes": {
        "nomor_pb_umku": null,
        "nama": "BANK MANDIRI (EUROPE) LTD",
        "website": "dkfinanceltd.co.uk",
        "sektor": "Sektor Keuangan",
        "nama_perusahaan": "KENCANA PUTRA KENDARI",
        "tanggal_daftar": "2022-09-30",
        "nomor_tanda_daftar": "002753.05/DJAI.PSE/09/2022",
        "qr_code": "https://pse.kominfo.go.id/storage/images/qr_code/21afac5af63afbcc7c7e1e5a4f327ad1.png",
        "status_id": "TERDAFTAR",
        "sistem_elektronik_id": 11257
      }
    },
    {
      "type": "tdpseTerbit",
      "id": 11443,
      "attributes": {
        "nomor_pb_umku": null,
        "nama": "BANK MANDIRI (PERSERO) TBK / ADR NEW YORK",
        "website": "shantoumariainvestment.com",
        "sektor": "Sektor Keuangan",
        "nama_perusahaan": "KENCANA PUTRA KENDARI",
        "tanggal_daftar": "2022-09-30",
        "nomor_tanda_daftar": "002753.04/DJAI.PSE/09/2022",
        "qr_code": "https://pse.kominfo.go.id/storage/images/qr_code/d438aa34a10553a371fb4f67514b5863.png",
        "status_id": "TERDAFTAR",
        "sistem_elektronik_id": 11256
      }
    },
    {
      "type": "tdpseTerbit",
      "id": 11442,
      "attributes": {
        "nomor_pb_umku": null,
        "nama": "BANK MANDIRI SHANGHAI",
        "website": "bankmandirsh.com",
        "sektor": "Sektor Keuangan",
        "nama_perusahaan": "KENCANA PUTRA KENDARI",
        "tanggal_daftar": "2022-09-30",
        "nomor_tanda_daftar": "002753.03/DJAI.PSE/09/2022",
        "qr_code": "https://pse.kominfo.go.id/storage/images/qr_code/0742ff822f4d946c8e4dbe1c52674cc3.png",
        "status_id": "TERDAFTAR",
        "sistem_elektronik_id": 11255
      }
    },
    {
      "type": "tdpseTerbit",
      "id": 11016,
      "attributes": {
        "nomor_pb_umku": null,
        "nama": "BANK MANDIRI CABANG MASJID AGUNG KENDARI",
        "website": "avienergi.co.id",
        "sektor": "Sektor Keuangan",
        "nama_perusahaan": "KENCANA PUTRA KENDARI",
        "tanggal_daftar": "2022-09-05",
        "nomor_tanda_daftar": "002753.02/DJAI.PSE/09/2022",
        "qr_code": "https://pse.kominfo.go.id/storage/images/qr_code/7c57c5b7ba47c2e7674bcfc25d433b65.png",
        "status_id": "TERDAFTAR",
        "sistem_elektronik_id": 10819
      }
    }
  ]
}