{
  "meta": {
    "page": {
      "currentPage": 44,
      "from": 431,
      "lastPage": 72,
      "perPage": 10,
      "to": 440,
      "total": 712
    }
  },
  "data": [
    {
      "type": "tdpseTerbit",
      "id": 12114,
      "attributes": {
        "nomor_pb_umku": null,
        "nama": "BOOKISH",
        "website": "bookishread.com",
        "sektor": "Sektor Teknologi Informasi dan Komunikasi",
        "nama_perusahaan": "AKURA PTE. LTD.",
        "tanggal_daftar": "2022-11-03",
        "nomor_tanda_daftar": "006144.12/DJAI.PSE/11/2022",
        "qr_code": "https://pse.kominfo.go.id/storage/images/qr_code/5c4b876d39feb519b3c5330c4490d038.png",
        "status_id": "TERDAFTAR",
        "sistem_elektronik_id": 11908
      }
    },
    {
      "type": "tdpseTerbit",
      "id": 12113,
      "attributes": {
        "nomor_pb_umku": null,
        "nama": "BOOKWORM",
        "website": "bookwormfic.com",
        "sektor": "Sektor Teknologi Informasi dan Komunikasi",
        "nama_perusahaan": "AKURA PTE. LTD.",
        "tanggal_daftar": "2022-11-03",
        "nomor_tanda_daftar": "006144.11/DJAI.PSE/11/2022",
        "qr_code": "https://pse.kominfo.go.id/storage/images/qr_code/06760a04bd52883e589d17579bb97385.png",
        "status_id": "TERDAFTAR",
        "sistem_elektronik_id": 11907
      }
    },
    {
      "type": "tdpseTerbit",
      "id": 11773,
      "attributes": {
        "nomor_pb_umku": null,
        "nama": "NOVELTY",
        "website": "noveltysroty.com",
        "sektor": "Sektor Teknologi Informasi dan Komunikasi",
        "nama_perusahaan": "AKURA PTE. LTD.",
        "tanggal_daftar": "2022-10-12",
        "nomor_tanda_daftar": "006144.10/DJAI.PSE/10/2022",
        "qr_code": "https://pse.kominfo.go.id/storage/images/qr_code/3386ee05a5bdaf24060271fd86239724.png",
        "status_id": "TERDAFTAR",
        "sistem_elektronik_id": 11573
      }
    },
    {
      "type": "tdpseTerbit",
      "id": 11756,
      "attributes": {
        "nomor_pb_umku": null,
        "nama": "CERITAKU",
        "website": "iceritaku.com",
        "sektor": "Sektor Teknologi Informasi dan Komunikasi",
        "nama_perusahaan": "AKURA PTE. LTD.",
        "tanggal_daftar": "2022-10-11",
        "nomor_tanda_daftar": "006144.09/DJAI.PSE/10/2022",
        "qr_code": "https://pse.kominfo.go.id/storage/images/qr_code/26d0dd72a174278bb191ade8535b5a21.png",
        "status_id": "TERDAFTAR",
        "sistem_elektronik_id": 11556
      }
    },
    {
      "type": "tdpseTerbit",
      "id": 11467,
      "attributes": {
        "nomor_pb_umku": null,
        "nama": "INOVELS",
        "website": "inovelsapp.com",
        "sektor": "Sektor Teknologi Informasi dan Komunikasi",
        "nama_perusahaan": "AKURA PTE. LTD.",
        "tanggal_daftar": "2022-10-03",
        "nomor_tanda_daftar": "006144.08/DJAI.PSE/10/2022",
        "qr_code": "https://pse.kominfo.go.id/storage/images/qr_code/a76aeea8921b14c6f5c2091f3b465593.png",
        "status_id": "TERDAFTAR",
        "sistem_elektronik_id": 11282
      }
    },
    {
      "type": "tdpseTerbit",
      "id": 10707,
      "attributes": {
        "nomor_pb_umku": null,
        "nama": "NOVELAME",
        "website": "novelame168.com",
        "sektor": "Sektor Teknologi Informasi dan Komunikasi",
        "nama_perusahaan": "AKURA PTE. LTD.",
        "tanggal_daftar": "2022-08-23",
        "nomor_tanda_daftar": "006144.07/DJAI.PSE/08/2022",
        "qr_code": "https://pse.kominfo.go.id/storage/images/qr_code/45de27ffaffb25d90475119270ea76a2.png",
        "status_id": "TERDAFTAR",
        "sistem_elektronik_id": 10540
      }
    },
    {
      "type": "tdpseTerbit",
      "id": 10381,
      "attributes": {
        "nomor_pb_umku": null,
        "nama": "FICNOVEL",
        "website": "ficnovel.net",
        "sektor": "Sektor Teknologi Informasi dan Komunikasi",
        "nama_perusahaan": "AKURA PTE. LTD.",
        "tanggal_daftar": "2022-08-15",
        "nomor_tanda_daftar": "006144.06/DJAI.PSE/08/2022",
        "qr_code": "https://pse.kominfo.go.id/storage/images/qr_code/92661573ac8c94c1e30be295735bbaf7.png",
        "status_id": "TERDAFTAR",
        "sistem_elektronik_id": 10238
      }
    },
    {
      "type": "tdpseTerbit",
      "id": 9917,
      "attributes": {
        "nomor_pb_umku": null,
        "nama": "SPARKAL",
        "website": "play.google.com/store/apps/details?id=com.sparkal.novel&hl=id&gl=id",
        "sektor": "Sektor Teknologi Informasi dan Komunikasi",
        "nama_perusahaan": "AKURA PTE. LTD.",
        "tanggal_daftar": "2022-08-05",
        "nomor_tanda_daftar": "006144.05/DJAI.PSE/08/2022",
        "qr_code": "https://pse.kominfo.go.id/storage/images/qr_code/fffee3a943eaec7c8e2cb33a3a5b425d.png",
        "status_id": "TERDAFTAR",
        "sistem_elektronik_id": 9804
      }
    },
    {
      "type": "tdpseTerbit",
      "id": 9491,
      "attributes": {
        "nomor_pb_umku": null,
        "nama": "UNINOVEL",
        "website": "play.google.com/store/apps/details?id=com.uninovel.novel",
        "sektor": "Sektor Teknologi Informasi dan Komunikasi",
        "nama_perusahaan": "AKURA PTE. LTD.",
        "tanggal_daftar": "2022-08-01",
        "nomor_tanda_daftar": "006144.04/DJAI.PSE/08/2022",
        "qr_code": "https://pse.kominfo.go.id/storage/images/qr_code/4b4b6f5a32d6e1772c292a4d7a93001c.png",
        "status_id": "TERDAFTAR",
        "sistem_elektronik_id": 9398
      }
    },
    {
      "type": "tdpseTerbit",
      "id": 9174,
      "attributes": {
        "nomor_pb_umku": null,
        "nama": "BACALAH",
        "website": "watpadd668.com",
        "sektor": "Sektor Teknologi Informasi dan Komunikasi",
        "nama_perusahaan": "AKURA PTE. LTD.",
        "tanggal_daftar": "2022-07-27",
        "nomor_tanda_daftar": "006144.03/DJAI.PSE/07/2022",
        "qr_code": "https://pse.kominfo.go.id/storage/images/qr_code/09f1a661351f326aacfa42494af026f7.png",
        "status_id": "TERDAFTAR",
        "sistem_elektronik_id": 9081
      }
    }
  ]
}