{
  "meta": {
    "page": {
      "currentPage": 45,
      "from": 441,
      "lastPage": 63,
      "perPage": 10,
      "to": 450,
      "total": 629
    }
  },
  "data": [
    {
      "type": "tdpseTerbit",
      "id": 8143,
      "attributes": {
        "nomor_pb_umku": null,
        "nama": "COOKPAD",
        "website": "cookpad.com",
        "sektor": "Sektor Teknologi Informasi dan Komunikasi",
        "nama_perusahaan": "COOKPAD INC",
        "tanggal_daftar": "2022-07-20",
        "nomor_tanda_daftar": "005781.01/DJAI.PSE/07/2022",
        "qr_code": "https://pse.kominfo.go.id/storage/images/qr_code/9760df398e890c9b81102b32e5539748.png",
        "status_id": "TERDAFTAR",
        "sistem_elektronik_id": 8064
      }
    },
    {
      "type": "tdpseTerbit",
      "id": 8139,
      "attributes": {
        "nomor_pb_umku": null,
        "nama": "GAMELOFT",
        "website": "gameloft.com",
        "sektor": "Sektor Teknologi Informasi dan Komunikasi",
        "nama_perusahaan": "GAMELOFT SE",
        "tanggal_daftar": "2022-07-20",
        "nomor_tanda_daftar": "005780.01/DJAI.PSE/07/2022",
        "qr_code": "https://pse.kominfo.go.id/storage/images/qr_code/de364507c29ebd895c57ddd0fa9eb48f.png",
        "status_id": "TERDAFTAR",
        "sistem_elektronik_id": 8062
      }
    },
    {
      "type": "tdpseTerbit",
      "id": 8137,
      "attributes": {
        "nomor_pb_umku": null,
        "nama": "HBO GO",
        "website": "hbogoasia.id",
        "sektor": "Sektor Teknologi Informasi dan Komunikasi",
        "nama_perusahaan": "AFFILIATES ASIA, LLC",
        "tanggal_daftar": "2022-07-20",
        "nomor_tanda_daftar": "005779.01/DJAI.PSE/07/2022",
        "qr_code": "https://pse.kominfo.go.id/storage/images/qr_code/4b543cf54543e9bf6863a1f03852d2ea.png",
        "status_id": "TERDAFTAR",
        "sistem_elektronik_id": 8060
      }
    },
    {
      "type": "tdpseTerbit",
      "id": 8134,
      "attributes": {
        "nomor_pb_umku": null,
        "nama": "PINGPONG",
        "website": "pingpongx.com",
        "sektor": "Sektor Keuangan",
        "nama_perusahaan": "PING PONG GLOBAL HOLDINGS LIMITED",
        "tanggal_daftar": "2022-07-20",
        "nomor_tanda_daftar": "005778.01/DJAI.PSE/07/2022",
        "qr_code": "https://pse.kominfo.go.id/storage/images/qr_code/3a85cf196c2f51ffc8173cf8a0851e37.png",
        "status_id": "TERDAFTAR",
        "sistem_elektronik_id": 8057
      }
    },
    {
      "type": "tdpseTerbit",
      "id": 8133,
      "attributes": {
        "nomor_pb_umku": null,
        "nama": "GETCONTACT",
        "website": "getcontact.com",
        "sektor": "Sektor Teknologi Informasi dan Komunikasi",
        "nama_perusahaan": "GETVERIFY LDA",
        "tanggal_daftar": "2022-07-20",
        "nomor_tanda_daftar": "005777.01/DJAI.PSE/07/2022",
        "qr_code": "https://pse.kominfo.go.id/storage/images/qr_code/0ea7300c86f67b57c375edd1c48abaa4.png",
        "status_id": "TERDAFTAR",
        "sistem_elektronik_id": 8054
      }
    },
    {
      "type": "tdpseTerbit",
      "id": 7663,
      "attributes": {
        "nomor_pb_umku": null,
        "nama": "TWITTER",
        "website": "twitter.com",
        "sektor": "Sektor Teknologi Informasi dan Komunikasi",
        "nama_perusahaan": "TWITTER, INC.",
        "tanggal_daftar": "2022-07-20",
        "nomor_tanda_daftar": "005625.01/DJAI.PSE/07/2022",
        "qr_code": "https://pse.kominfo.go.id/storage/images/qr_code/3dba4fb4dd37e389a9bcb6a8443656a6.png",
        "status_id": "TERDAFTAR",
        "sistem_elektronik_id": 7572
      }
    },
    {
      "type": "tdpseTerbit",
      "id": 11393,
      "attributes": {
        "nomor_pb_umku": null,
        "nama": "TOWER OF FANTASY",
        "website": "toweroffantasy-global.com",
        "sektor": "Sektor Teknologi Informasi dan Komunikasi",
        "nama_perusahaan": "PROXIMA BETA PTE. LIMITED",
        "tanggal_daftar": "2022-09-28",
        "nomor_tanda_daftar": "005222.04/DJAI.PSE/09/2022",
        "qr_code": "https://pse.kominfo.go.id/storage/images/qr_code/66f152b2453a9456b37c13165f6f4f6d.png",
        "status_id": "TERDAFTAR",
        "sistem_elektronik_id": 11209
      }
    },
    {
      "type": "tdpseTerbit",
      "id": 7141,
      "attributes": {
        "nomor_pb_umku": null,
        "nama": "CHIMERALAND",
        "website": "play.google.com/store/apps/details?id=com. levelinfinite.fancyworld",
        "sektor": "Sektor Teknologi Informasi dan Komunikasi",
        "nama_perusahaan": "PROXIMA BETA PTE. LIMITED",
        "tanggal_daftar": "2022-07-19",
        "nomor_tanda_daftar": "005222.03/DJAI.PSE/07/2022",
        "qr_code": "https://pse.kominfo.go.id/storage/images/qr_code/9ad8c34f06c905cda972e89ce6c4a2d9.png",
        "status_id": "TERDAFTAR",
        "sistem_elektronik_id": 7023
      }
    },
    {
      "type": "tdpseTerbit",
      "id": 7140,
      "attributes": {
        "nomor_pb_umku": null,
        "nama": "ALCHEMY STARS",
        "website": "apps.apple.com/id/app/alchemy-stars/id1529088856",
        "sektor": "Sektor Teknologi Informasi dan Komunikasi",
        "nama_perusahaan": "PROXIMA BETA PTE. LIMITED",
        "tanggal_daftar": "2022-07-19",
        "nomor_tanda_daftar": "005222.02/DJAI.PSE/07/2022",
        "qr_code": "https://pse.kominfo.go.id/storage/images/qr_code/91f6d2e9840296a23eed51e1f01610db.png",
        "status_id": "TERDAFTAR",
        "sistem_elektronik_id": 7021
      }
    },
    {
      "type": "tdpseTerbit",
      "id": 7139,
      "attributes": {
        "nomor_pb_umku": null,
        "nama": "PUBG MOBILE",
        "website": "apps.apple.com/us/app/pubg-mobile/id1330123889",
        "sektor": "Sektor Teknologi Informasi dan Komunikasi",
        "nama_perusahaan": "PROXIMA BETA PTE. LIMITED",
        "tanggal_daftar": "2022-07-19",
        "nomor_tanda_daftar": "005222.01/DJAI.PSE/07/2022",
        "qr_code": "https://pse.kominfo.go.id/storage/images/qr_code/7f11ebf8d2d06a8239b9b54a1e1479a5.png",
        "status_id": "TERDAFTAR",
        "sistem_elektronik_id": 7020
      }
    }
  ]
}