{
  "meta": {
    "page": {
      "currentPage": 47,
      "from": 461,
      "lastPage": 64,
      "perPage": 10,
      "to": 470,
      "total": 631
    }
  },
  "data": [
    {
      "type": "tdpseTerbit",
      "id": 6684,
      "attributes": {
        "nomor_pb_umku": null,
        "nama": "HTTP://HEPAYMENT.99.COM/INDEX.ASPX",
        "website": "hepayment.99.com/index.aspx",
        "sektor": "Sektor Perdagangan",
        "nama_perusahaan": "NETDRAGON",
        "tanggal_daftar": "2022-07-19",
        "nomor_tanda_daftar": "004914.02/DJAI.PSE/07/2022",
        "qr_code": "https://pse.kominfo.go.id/storage/images/qr_code/09d1b117be62a9cb6ea31b8b8182ec80.png",
        "status_id": "TERDAFTAR",
        "sistem_elektronik_id": 6537
      }
    },
    {
      "type": "tdpseTerbit",
      "id": 6683,
      "attributes": {
        "nomor_pb_umku": null,
        "nama": "SHOPPINGMALL.99.COM",
        "website": "shoppingmall.99.com",
        "sektor": "Sektor Perdagangan",
        "nama_perusahaan": "NETDRAGON",
        "tanggal_daftar": "2022-07-19",
        "nomor_tanda_daftar": "004914.01/DJAI.PSE/07/2022",
        "qr_code": "https://pse.kominfo.go.id/storage/images/qr_code/075e538cdb7b0acbde35f42317c16d0d.png",
        "status_id": "TERDAFTAR",
        "sistem_elektronik_id": 6536
      }
    },
    {
      "type": "tdpseTerbit",
      "id": 6681,
      "attributes": {
        "nomor_pb_umku": null,
        "nama": "DISCORD",
        "website": "discord.com",
        "sektor": "Sektor Teknologi Informasi dan Komunikasi",
        "nama_perusahaan": "DISCORD INC.",
        "tanggal_daftar": "2022-07-19",
        "nomor_tanda_daftar": "004913.01/DJAI.PSE/07/2022",
        "qr_code": "https://pse.kominfo.go.id/storage/images/qr_code/cfb534eeca7cf00bd3f971e7fcb69ffd.png",
        "status_id": "TERDAFTAR",
        "sistem_elektronik_id": 6532
      }
    },
    {
      "type": "tdpseTerbit",
      "id": 11458,
      "attributes": {
        "nomor_pb_umku": null,
        "nama": "WESTWARD ADVENTURE",
        "website": "westward-adventure.com",
        "sektor": "Sektor Teknologi Informasi dan Komunikasi",
        "nama_perusahaan": "NETEASE INTERACTIVE ENTERTAINMENT PTE. LTD.",
        "tanggal_daftar": "2022-10-01",
        "nomor_tanda_daftar": "004884.05/DJAI.PSE/10/2022",
        "qr_code": "https://pse.kominfo.go.id/storage/images/qr_code/3301f439e8570278239b57b0aef438c2.png",
        "status_id": "TERDAFTAR",
        "sistem_elektronik_id": 11274
      }
    },
    {
      "type": "tdpseTerbit",
      "id": 11134,
      "attributes": {
        "nomor_pb_umku": null,
        "nama": "GATE OF AGES: EON STRIFE",
        "website": "gateofages.com",
        "sektor": "Sektor Teknologi Informasi dan Komunikasi",
        "nama_perusahaan": "NETEASE INTERACTIVE ENTERTAINMENT PTE. LTD.",
        "tanggal_daftar": "2022-09-12",
        "nomor_tanda_daftar": "004884.04/DJAI.PSE/09/2022",
        "qr_code": "https://pse.kominfo.go.id/storage/images/qr_code/46f9c1d1b849b8572698d19473d6d707.png",
        "status_id": "TERDAFTAR",
        "sistem_elektronik_id": 10939
      }
    },
    {
      "type": "tdpseTerbit",
      "id": 11133,
      "attributes": {
        "nomor_pb_umku": null,
        "nama": "LOST BLADE",
        "website": "thelostblade.com",
        "sektor": "Sektor Teknologi Informasi dan Komunikasi",
        "nama_perusahaan": "NETEASE INTERACTIVE ENTERTAINMENT PTE. LTD.",
        "tanggal_daftar": "2022-09-12",
        "nomor_tanda_daftar": "004884.03/DJAI.PSE/09/2022",
        "qr_code": "https://pse.kominfo.go.id/storage/images/qr_code/2b7aef39af0285645250f2c0ee351562.png",
        "status_id": "TERDAFTAR",
        "sistem_elektronik_id": 10938
      }
    },
    {
      "type": "tdpseTerbit",
      "id": 6654,
      "attributes": {
        "nomor_pb_umku": null,
        "nama": "NETEASE GAME",
        "website": "neteasegames.com",
        "sektor": "Sektor Teknologi Informasi dan Komunikasi",
        "nama_perusahaan": "NETEASE INTERACTIVE ENTERTAINMENT PTE. LTD.",
        "tanggal_daftar": "2022-07-19",
        "nomor_tanda_daftar": "004884.02/DJAI.PSE/07/2022",
        "qr_code": "https://pse.kominfo.go.id/storage/images/qr_code/213d5a203599ad75d610a981c9a1e1a1.png",
        "status_id": "TERDAFTAR",
        "sistem_elektronik_id": 6508
      }
    },
    {
      "type": "tdpseTerbit",
      "id": 6653,
      "attributes": {
        "nomor_pb_umku": null,
        "nama": "NARAKA",
        "website": "narakathegame.com",
        "sektor": "Sektor Teknologi Informasi dan Komunikasi",
        "nama_perusahaan": "NETEASE INTERACTIVE ENTERTAINMENT PTE. LTD.",
        "tanggal_daftar": "2022-07-19",
        "nomor_tanda_daftar": "004884.01/DJAI.PSE/07/2022",
        "qr_code": "https://pse.kominfo.go.id/storage/images/qr_code/469eb8ef72a600a1e84f634d79d0e902.png",
        "status_id": "TERDAFTAR",
        "sistem_elektronik_id": 6507
      }
    },
    {
      "type": "tdpseTerbit",
      "id": 6650,
      "attributes": {
        "nomor_pb_umku": null,
        "nama": "EDGE COMPUTING SOLUTIONS",
        "website": "lumen.com",
        "sektor": "Sektor Teknologi Informasi dan Komunikasi",
        "nama_perusahaan": "LEVEL 3 COMMUNICATIONS HONG KONG LIMITED",
        "tanggal_daftar": "2022-07-19",
        "nomor_tanda_daftar": "004882.01/DJAI.PSE/07/2022",
        "qr_code": "https://pse.kominfo.go.id/storage/images/qr_code/c1ba68274fca90e341d96e635d5fb070.png",
        "status_id": "TERDAFTAR",
        "sistem_elektronik_id": 6505
      }
    },
    {
      "type": "tdpseTerbit",
      "id": 11384,
      "attributes": {
        "nomor_pb_umku": null,
        "nama": "PROJECT: BLOODSTRIKE",
        "website": "-",
        "sektor": "Sektor Teknologi Informasi dan Komunikasi",
        "nama_perusahaan": "HONG KONG NETEASE INTERACTIVE ENTERTAINMENT LIMITED",
        "tanggal_daftar": "2022-09-27",
        "nomor_tanda_daftar": "004879.03/DJAI.PSE/09/2022",
        "qr_code": "https://pse.kominfo.go.id/storage/images/qr_code/76b00720656a5c2a27079dd621c2b169.png",
        "status_id": "TERDAFTAR",
        "sistem_elektronik_id": 11200
      }
    }
  ]
}