{
  "meta": {
    "page": {
      "currentPage": 50,
      "from": 491,
      "lastPage": 64,
      "perPage": 10,
      "to": 500,
      "total": 631
    }
  },
  "data": [
    {
      "type": "tdpseTerbit",
      "id": 8772,
      "attributes": {
        "nomor_pb_umku": null,
        "nama": "T3 ARENA",
        "website": "apps.apple.com/us/app/t3-arena/id1602814337; taptap.io/app/219804",
        "sektor": "Sektor Teknologi Informasi dan Komunikasi",
        "nama_perusahaan": "XD ENTERTAINMENT PTE. LTD.",
        "tanggal_daftar": "2022-07-22",
        "nomor_tanda_daftar": "004713.03/DJAI.PSE/07/2022",
        "qr_code": "https://pse.kominfo.go.id/storage/images/qr_code/1778c6ddb63438aead2ed551ecd502d0.png",
        "status_id": "TERDAFTAR",
        "sistem_elektronik_id": 8689
      }
    },
    {
      "type": "tdpseTerbit",
      "id": 8771,
      "attributes": {
        "nomor_pb_umku": null,
        "nama": "SAUSAGE MAN",
        "website": "sausageman.xd.com; play.google.com/store/search?q=sausage+man&c=apps; apps.apple.com/id/app/sausage-man/id1563750315?l=id; taptap.io/app/211926",
        "sektor": "Sektor Teknologi Informasi dan Komunikasi",
        "nama_perusahaan": "XD ENTERTAINMENT PTE. LTD.",
        "tanggal_daftar": "2022-07-22",
        "nomor_tanda_daftar": "004713.02/DJAI.PSE/07/2022",
        "qr_code": "https://pse.kominfo.go.id/storage/images/qr_code/5b354aeb10404960c511e4b6b7c3b3ec.png",
        "status_id": "TERDAFTAR",
        "sistem_elektronik_id": 8688
      }
    },
    {
      "type": "tdpseTerbit",
      "id": 6384,
      "attributes": {
        "nomor_pb_umku": null,
        "nama": "XD ENTERTAINMENT",
        "website": "xd-1.com",
        "sektor": "Sektor Teknologi Informasi dan Komunikasi",
        "nama_perusahaan": "XD ENTERTAINMENT PTE. LTD.",
        "tanggal_daftar": "2022-07-18",
        "nomor_tanda_daftar": "004713.01/DJAI.PSE/07/2022",
        "qr_code": "https://pse.kominfo.go.id/storage/images/qr_code/8f28bd190c370646e7d3ff23cda0a288.png",
        "status_id": "TERDAFTAR",
        "sistem_elektronik_id": 6247
      }
    },
    {
      "type": "tdpseTerbit",
      "id": 6383,
      "attributes": {
        "nomor_pb_umku": null,
        "nama": "TAPTAP2-EDIT",
        "website": "taptap.io",
        "sektor": "Sektor Perdagangan",
        "nama_perusahaan": "TAPTAP PTE. LTD.",
        "tanggal_daftar": "2022-07-18",
        "nomor_tanda_daftar": "004712.02/DJAI.PSE/07/2022",
        "qr_code": "https://pse.kominfo.go.id/storage/images/qr_code/a5e9f3c3d2248a79b6ba04e602524fcb.png",
        "status_id": "TERDAFTAR",
        "sistem_elektronik_id": 6246
      }
    },
    {
      "type": "tdpseTerbit",
      "id": 6382,
      "attributes": {
        "nomor_pb_umku": null,
        "nama": "TAPTAP",
        "website": "taptap.io",
        "sektor": "Sektor Perdagangan",
        "nama_perusahaan": "TAPTAP PTE. LTD.",
        "tanggal_daftar": "2022-07-18",
        "nomor_tanda_daftar": "004712.01/DJAI.PSE/07/2022",
        "qr_code": "https://pse.kominfo.go.id/storage/images/qr_code/f4a86d80e4a6b8fb674073a48f795cc3.png",
        "status_id": "TERDAFTAR",
        "sistem_elektronik_id": 6245
      }
    },
    {
      "type": "tdpseTerbit",
      "id": 6381,
      "attributes": {
        "nomor_pb_umku": null,
        "nama": "EYOUGAME",
        "website": "eyougame.com",
        "sektor": "Sektor Perdagangan",
        "nama_perusahaan": "Eyou Technology Pte. Ltd.",
        "tanggal_daftar": "2022-07-18",
        "nomor_tanda_daftar": "004711.01/DJAI.PSE/07/2022",
        "qr_code": "https://pse.kominfo.go.id/storage/images/qr_code/2451edaafb4ba773baad06710f919ba3.png",
        "status_id": "TERDAFTAR",
        "sistem_elektronik_id": 6244
      }
    },
    {
      "type": "tdpseTerbit",
      "id": 6380,
      "attributes": {
        "nomor_pb_umku": null,
        "nama": "ZINGPLAY INTERNATIONAL PTE. LTD.",
        "website": "zingplay.com",
        "sektor": "Sektor Teknologi Informasi dan Komunikasi",
        "nama_perusahaan": "ZINGPLAY INTERNATIONAL PTE. LTD.",
        "tanggal_daftar": "2022-07-18",
        "nomor_tanda_daftar": "004710.01/DJAI.PSE/07/2022",
        "qr_code": "https://pse.kominfo.go.id/storage/images/qr_code/14de5027d85c19ead5f15701468f58de.png",
        "status_id": "TERDAFTAR",
        "sistem_elektronik_id": 6243
      }
    },
    {
      "type": "tdpseTerbit",
      "id": 6377,
      "attributes": {
        "nomor_pb_umku": null,
        "nama": "ISHOW",
        "website": "ishowlive.com",
        "sektor": "Sektor Teknologi Informasi dan Komunikasi",
        "nama_perusahaan": "APOTHEOSIS LIMITED",
        "tanggal_daftar": "2022-07-18",
        "nomor_tanda_daftar": "004709.01/DJAI.PSE/07/2022",
        "qr_code": "https://pse.kominfo.go.id/storage/images/qr_code/c499690511d100a7f2482dfaec70689a.png",
        "status_id": "TERDAFTAR",
        "sistem_elektronik_id": 6242
      }
    },
    {
      "type": "tdpseTerbit",
      "id": 6376,
      "attributes": {
        "nomor_pb_umku": null,
        "nama": "PROGATE",
        "website": "progate.com",
        "sektor": "Sektor Teknologi Informasi dan Komunikasi",
        "nama_perusahaan": "PROGATE",
        "tanggal_daftar": "2022-07-18",
        "nomor_tanda_daftar": "004708.01/DJAI.PSE/07/2022",
        "qr_code": "https://pse.kominfo.go.id/storage/images/qr_code/599253a30759b863a9de21e70c218a52.png",
        "status_id": "TERDAFTAR",
        "sistem_elektronik_id": 6241
      }
    },
    {
      "type": "tdpseTerbit",
      "id": 6374,
      "attributes": {
        "nomor_pb_umku": null,
        "nama": "MICROSOFT CLOUD SERVICES",
        "website": "microsoft.com",
        "sektor": "Sektor Teknologi Informasi dan Komunikasi",
        "nama_perusahaan": "MICROSOFT IRELAND OPERATIONS LIMITED",
        "tanggal_daftar": "2022-07-18",
        "nomor_tanda_daftar": "004707.01/DJAI.PSE/07/2022",
        "qr_code": "https://pse.kominfo.go.id/storage/images/qr_code/e9fd1dd8c02bf2da5a83706d073c4a5e.png",
        "status_id": "TERDAFTAR",
        "sistem_elektronik_id": 6240
      }
    }
  ]
}