{
  "meta": {
    "page": {
      "currentPage": 6,
      "from": 51,
      "lastPage": 39,
      "perPage": 10,
      "to": 60,
      "total": 386
    }
  },
  "data": [
    {
      "type": "tdpseTerbit",
      "id": 10537,
      "attributes": {
        "nomor_pb_umku": null,
        "nama": "LINE WEBTOON INDONESIA",
        "website": "webtoons.com",
        "sektor": "Sektor Teknologi Informasi dan Komunikasi",
        "nama_perusahaan": "NAVER WEBTOON LTD.",
        "tanggal_daftar": "2022-08-18",
        "nomor_tanda_daftar": "007341.01/DJAI.PSE/08/2022",
        "qr_code": "https://pse.kominfo.go.id/storage/images/qr_code/733e88e33652d065e56b1d9923fb19c8.png",
        "status_id": "TERDAFTAR",
        "sistem_elektronik_id": 10395
      }
    },
    {
      "type": "tdpseTerbit",
      "id": 10444,
      "attributes": {
        "nomor_pb_umku": null,
        "nama": "HOSTINGER",
        "website": "hostinger.com",
        "sektor": "Sektor Teknologi Informasi dan Komunikasi",
        "nama_perusahaan": "HOSTINGER INTERNATIONAL LIMITED",
        "tanggal_daftar": "2022-08-16",
        "nomor_tanda_daftar": "007310.01/DJAI.PSE/08/2022",
        "qr_code": "https://pse.kominfo.go.id/storage/images/qr_code/d7b4b871a17fe354067ee8ba5fbfe8e9.png",
        "status_id": "TERDAFTAR",
        "sistem_elektronik_id": 10301
      }
    },
    {
      "type": "tdpseTerbit",
      "id": 10443,
      "attributes": {
        "nomor_pb_umku": null,
        "nama": "BLAZE OF BATTLE",
        "website": "leyi-game.com",
        "sektor": "Sektor Teknologi Informasi dan Komunikasi",
        "nama_perusahaan": "SHENZHEN LEYI NETWORK CO., LTD.",
        "tanggal_daftar": "2022-08-16",
        "nomor_tanda_daftar": "007309.01/DJAI.PSE/08/2022",
        "qr_code": "https://pse.kominfo.go.id/storage/images/qr_code/921a353caa5d0dec14c465dd990b8ba5.png",
        "status_id": "TERDAFTAR",
        "sistem_elektronik_id": 10300
      }
    },
    {
      "type": "tdpseTerbit",
      "id": 10423,
      "attributes": {
        "nomor_pb_umku": null,
        "nama": "YAHOO INDONESIA",
        "website": "id.mail.yahoo.com",
        "sektor": "Sektor Teknologi Informasi dan Komunikasi",
        "nama_perusahaan": "YAHOO! SINGAPORE DIGITAL MARKETING PTE. LTD",
        "tanggal_daftar": "2022-08-16",
        "nomor_tanda_daftar": "007300.04/DJAI.PSE/08/2022",
        "qr_code": "https://pse.kominfo.go.id/storage/images/qr_code/61ab65dcbd9270b715e32af06e663bd7.png",
        "status_id": "TERDAFTAR",
        "sistem_elektronik_id": 10280
      }
    },
    {
      "type": "tdpseTerbit",
      "id": 10422,
      "attributes": {
        "nomor_pb_umku": null,
        "nama": "YAHOO INDONESIA",
        "website": "id.search.yahoo.com",
        "sektor": "Sektor Teknologi Informasi dan Komunikasi",
        "nama_perusahaan": "YAHOO! SINGAPORE DIGITAL MARKETING PTE. LTD",
        "tanggal_daftar": "2022-08-16",
        "nomor_tanda_daftar": "007300.03/DJAI.PSE/08/2022",
        "qr_code": "https://pse.kominfo.go.id/storage/images/qr_code/ea70d439fbfa5b8b6003323e6a9e366f.png",
        "status_id": "TERDAFTAR",
        "sistem_elektronik_id": 10279
      }
    },
    {
      "type": "tdpseTerbit",
      "id": 10421,
      "attributes": {
        "nomor_pb_umku": null,
        "nama": "YAHOO INDONESIA",
        "website": "id.berita.yahoo.com",
        "sektor": "Sektor Teknologi Informasi dan Komunikasi",
        "nama_perusahaan": "YAHOO! SINGAPORE DIGITAL MARKETING PTE. LTD",
        "tanggal_daftar": "2022-08-16",
        "nomor_tanda_daftar": "007300.02/DJAI.PSE/08/2022",
        "qr_code": "https://pse.kominfo.go.id/storage/images/qr_code/6cb6317cca4daede5fc4a487b46cef91.png",
        "status_id": "TERDAFTAR",
        "sistem_elektronik_id": 10278
      }
    },
    {
      "type": "tdpseTerbit",
      "id": 10420,
      "attributes": {
        "nomor_pb_umku": null,
        "nama": "YAHOO INDONESIA",
        "website": "id.yahoo.com",
        "sektor": "Sektor Teknologi Informasi dan Komunikasi",
        "nama_perusahaan": "YAHOO! SINGAPORE DIGITAL MARKETING PTE. LTD",
        "tanggal_daftar": "2022-08-16",
        "nomor_tanda_daftar": "007300.01/DJAI.PSE/08/2022",
        "qr_code": "https://pse.kominfo.go.id/storage/images/qr_code/bf209f4ca74eb99555f95b6bdb9af8d7.png",
        "status_id": "TERDAFTAR",
        "sistem_elektronik_id": 10277
      }
    },
    {
      "type": "tdpseTerbit",
      "id": 10378,
      "attributes": {
        "nomor_pb_umku": null,
        "nama": "STAFFANY",
        "website": "staffany.com",
        "sektor": "Sektor Perdagangan",
        "nama_perusahaan": "STAFFANY PRIVATE LIMITED",
        "tanggal_daftar": "2022-08-15",
        "nomor_tanda_daftar": "007274.01/DJAI.PSE/08/2022",
        "qr_code": "https://pse.kominfo.go.id/storage/images/qr_code/d4bc0c0f92e1075415f2f2cac8708c4d.png",
        "status_id": "TERDAFTAR",
        "sistem_elektronik_id": 10234
      }
    },
    {
      "type": "tdpseTerbit",
      "id": 10369,
      "attributes": {
        "nomor_pb_umku": null,
        "nama": "HISAVANA",
        "website": "hisavana.com",
        "sektor": "Sektor Teknologi Informasi dan Komunikasi",
        "nama_perusahaan": "HISAVANA",
        "tanggal_daftar": "2022-08-15",
        "nomor_tanda_daftar": "007264.01/DJAI.PSE/08/2022",
        "qr_code": "https://pse.kominfo.go.id/storage/images/qr_code/5c17fb599e5b5ebc2847737873fc4d3e.png",
        "status_id": "TERDAFTAR",
        "sistem_elektronik_id": 10224
      }
    },
    {
      "type": "tdpseTerbit",
      "id": 10353,
      "attributes": {
        "nomor_pb_umku": null,
        "nama": "JOYREAD ANDROID",
        "website": "joyread.com",
        "sektor": "Sektor Teknologi Informasi dan Komunikasi",
        "nama_perusahaan": "UNION READ LIMITED",
        "tanggal_daftar": "2022-08-15",
        "nomor_tanda_daftar": "007255.02/DJAI.PSE/08/2022",
        "qr_code": "https://pse.kominfo.go.id/storage/images/qr_code/d7860016a3fab7c0e6b9cdc2dcf66cd5.png",
        "status_id": "TERDAFTAR",
        "sistem_elektronik_id": 10208
      }
    }
  ]
}