{
  "meta": {
    "page": {
      "currentPage": 52,
      "from": 511,
      "lastPage": 69,
      "perPage": 10,
      "to": 520,
      "total": 684
    }
  },
  "data": [
    {
      "type": "tdpseTerbit",
      "id": 6690,
      "attributes": {
        "nomor_pb_umku": null,
        "nama": "MICO",
        "website": "micous.com",
        "sektor": "Sektor Teknologi Informasi dan Komunikasi",
        "nama_perusahaan": "MICO WORLD LIMITED",
        "tanggal_daftar": "2022-07-19",
        "nomor_tanda_daftar": "004920.01/DJAI.PSE/07/2022",
        "qr_code": "https://pse.kominfo.go.id/storage/images/qr_code/2b00562855b4538726161702e0d616b5.png",
        "status_id": "TERDAFTAR",
        "sistem_elektronik_id": 6543
      }
    },
    {
      "type": "tdpseTerbit",
      "id": 6684,
      "attributes": {
        "nomor_pb_umku": null,
        "nama": "HTTP://HEPAYMENT.99.COM/INDEX.ASPX",
        "website": "hepayment.99.com/index.aspx",
        "sektor": "Sektor Perdagangan",
        "nama_perusahaan": "NETDRAGON",
        "tanggal_daftar": "2022-07-19",
        "nomor_tanda_daftar": "004914.02/DJAI.PSE/07/2022",
        "qr_code": "https://pse.kominfo.go.id/storage/images/qr_code/09d1b117be62a9cb6ea31b8b8182ec80.png",
        "status_id": "TERDAFTAR",
        "sistem_elektronik_id": 6537
      }
    },
    {
      "type": "tdpseTerbit",
      "id": 6683,
      "attributes": {
        "nomor_pb_umku": null,
        "nama": "SHOPPINGMALL.99.COM",
        "website": "shoppingmall.99.com",
        "sektor": "Sektor Perdagangan",
        "nama_perusahaan": "NETDRAGON",
        "tanggal_daftar": "2022-07-19",
        "nomor_tanda_daftar": "004914.01/DJAI.PSE/07/2022",
        "qr_code": "https://pse.kominfo.go.id/storage/images/qr_code/075e538cdb7b0acbde35f42317c16d0d.png",
        "status_id": "TERDAFTAR",
        "sistem_elektronik_id": 6536
      }
    },
    {
      "type": "tdpseTerbit",
      "id": 6681,
      "attributes": {
        "nomor_pb_umku": null,
        "nama": "DISCORD",
        "website": "discord.com",
        "sektor": "Sektor Teknologi Informasi dan Komunikasi",
        "nama_perusahaan": "DISCORD INC.",
        "tanggal_daftar": "2022-07-19",
        "nomor_tanda_daftar": "004913.01/DJAI.PSE/07/2022",
        "qr_code": "https://pse.kominfo.go.id/storage/images/qr_code/cfb534eeca7cf00bd3f971e7fcb69ffd.png",
        "status_id": "TERDAFTAR",
        "sistem_elektronik_id": 6532
      }
    },
    {
      "type": "tdpseTerbit",
      "id": 12109,
      "attributes": {
        "nomor_pb_umku": null,
        "nama": "ACE RACER",
        "website": "aceracer-game.com",
        "sektor": "Sektor Teknologi Informasi dan Komunikasi",
        "nama_perusahaan": "NETEASE INTERACTIVE ENTERTAINMENT PTE. LTD.",
        "tanggal_daftar": "2022-11-03",
        "nomor_tanda_daftar": "004884.07/DJAI.PSE/11/2022",
        "qr_code": "https://pse.kominfo.go.id/storage/images/qr_code/2f1f71046e8b84f508fe669090a32539.png",
        "status_id": "TERDAFTAR",
        "sistem_elektronik_id": 11903
      }
    },
    {
      "type": "tdpseTerbit",
      "id": 11874,
      "attributes": {
        "nomor_pb_umku": null,
        "nama": "CASTLE CAPER",
        "website": "-",
        "sektor": "Sektor Teknologi Informasi dan Komunikasi",
        "nama_perusahaan": "NETEASE INTERACTIVE ENTERTAINMENT PTE. LTD.",
        "tanggal_daftar": "2022-10-19",
        "nomor_tanda_daftar": "004884.06/DJAI.PSE/10/2022",
        "qr_code": "https://pse.kominfo.go.id/storage/images/qr_code/4b6b27d98d5caaec529eaf0fd50a5a71.png",
        "status_id": "TERDAFTAR",
        "sistem_elektronik_id": 11676
      }
    },
    {
      "type": "tdpseTerbit",
      "id": 11458,
      "attributes": {
        "nomor_pb_umku": null,
        "nama": "WESTWARD ADVENTURE",
        "website": "westward-adventure.com",
        "sektor": "Sektor Teknologi Informasi dan Komunikasi",
        "nama_perusahaan": "NETEASE INTERACTIVE ENTERTAINMENT PTE. LTD.",
        "tanggal_daftar": "2022-10-01",
        "nomor_tanda_daftar": "004884.05/DJAI.PSE/10/2022",
        "qr_code": "https://pse.kominfo.go.id/storage/images/qr_code/3301f439e8570278239b57b0aef438c2.png",
        "status_id": "TERDAFTAR",
        "sistem_elektronik_id": 11274
      }
    },
    {
      "type": "tdpseTerbit",
      "id": 11134,
      "attributes": {
        "nomor_pb_umku": null,
        "nama": "GATE OF AGES: EON STRIFE",
        "website": "gateofages.com",
        "sektor": "Sektor Teknologi Informasi dan Komunikasi",
        "nama_perusahaan": "NETEASE INTERACTIVE ENTERTAINMENT PTE. LTD.",
        "tanggal_daftar": "2022-09-12",
        "nomor_tanda_daftar": "004884.04/DJAI.PSE/09/2022",
        "qr_code": "https://pse.kominfo.go.id/storage/images/qr_code/46f9c1d1b849b8572698d19473d6d707.png",
        "status_id": "TERDAFTAR",
        "sistem_elektronik_id": 10939
      }
    },
    {
      "type": "tdpseTerbit",
      "id": 11133,
      "attributes": {
        "nomor_pb_umku": null,
        "nama": "LOST BLADE",
        "website": "thelostblade.com",
        "sektor": "Sektor Teknologi Informasi dan Komunikasi",
        "nama_perusahaan": "NETEASE INTERACTIVE ENTERTAINMENT PTE. LTD.",
        "tanggal_daftar": "2022-09-12",
        "nomor_tanda_daftar": "004884.03/DJAI.PSE/09/2022",
        "qr_code": "https://pse.kominfo.go.id/storage/images/qr_code/2b7aef39af0285645250f2c0ee351562.png",
        "status_id": "TERDAFTAR",
        "sistem_elektronik_id": 10938
      }
    },
    {
      "type": "tdpseTerbit",
      "id": 6654,
      "attributes": {
        "nomor_pb_umku": null,
        "nama": "NETEASE GAME",
        "website": "neteasegames.com",
        "sektor": "Sektor Teknologi Informasi dan Komunikasi",
        "nama_perusahaan": "NETEASE INTERACTIVE ENTERTAINMENT PTE. LTD.",
        "tanggal_daftar": "2022-07-19",
        "nomor_tanda_daftar": "004884.02/DJAI.PSE/07/2022",
        "qr_code": "https://pse.kominfo.go.id/storage/images/qr_code/213d5a203599ad75d610a981c9a1e1a1.png",
        "status_id": "TERDAFTAR",
        "sistem_elektronik_id": 6508
      }
    }
  ]
}