{
  "meta": {
    "page": {
      "currentPage": 54,
      "from": 531,
      "lastPage": 65,
      "perPage": 10,
      "to": 540,
      "total": 648
    }
  },
  "data": [
    {
      "type": "tdpseTerbit",
      "id": 11524,
      "attributes": {
        "nomor_pb_umku": null,
        "nama": "MARIA TIURMA KALAIJ / BANK RAKYAT INDONESIA",
        "website": "lelangagunan.bni.co.id",
        "sektor": "Sektor Keuangan",
        "nama_perusahaan": "BRAWIJAYA CAPITAL INVESTAMA (d/h RUMICORP (PTY) LIMITED LONDON)",
        "tanggal_daftar": "2022-10-05",
        "nomor_tanda_daftar": "003370.06/DJAI.PSE/10/2022",
        "qr_code": "https://pse.kominfo.go.id/storage/images/qr_code/e638993d8463d525cf3ac32a64eb5a11.png",
        "status_id": "TERDAFTAR",
        "sistem_elektronik_id": 11340
      }
    },
    {
      "type": "tdpseTerbit",
      "id": 11523,
      "attributes": {
        "nomor_pb_umku": null,
        "nama": "SHANTOU INVESTMENTS LIMITED",
        "website": "owenstrategikmedia.com",
        "sektor": "Sektor Keuangan",
        "nama_perusahaan": "BRAWIJAYA CAPITAL INVESTAMA (d/h RUMICORP (PTY) LIMITED LONDON)",
        "tanggal_daftar": "2022-10-05",
        "nomor_tanda_daftar": "003370.05/DJAI.PSE/10/2022",
        "qr_code": "https://pse.kominfo.go.id/storage/images/qr_code/9dcfdb207afd540a6d0ea26c44ade9cd.png",
        "status_id": "TERDAFTAR",
        "sistem_elektronik_id": 11339
      }
    },
    {
      "type": "tdpseTerbit",
      "id": 11522,
      "attributes": {
        "nomor_pb_umku": null,
        "nama": "MARIA TIURMA KALAIJ / BNI SECURITIES",
        "website": "bnisecurities.com.sg",
        "sektor": "Sektor Keuangan",
        "nama_perusahaan": "BRAWIJAYA CAPITAL INVESTAMA (d/h RUMICORP (PTY) LIMITED LONDON)",
        "tanggal_daftar": "2022-10-05",
        "nomor_tanda_daftar": "003370.04/DJAI.PSE/10/2022",
        "qr_code": "https://pse.kominfo.go.id/storage/images/qr_code/bb8922b7c937e7428646198a0e8ef800.png",
        "status_id": "TERDAFTAR",
        "sistem_elektronik_id": 11338
      }
    },
    {
      "type": "tdpseTerbit",
      "id": 11022,
      "attributes": {
        "nomor_pb_umku": null,
        "nama": "MARIA TIURMA",
        "website": "bankbni.co.uk",
        "sektor": "Sektor Keuangan",
        "nama_perusahaan": "BRAWIJAYA CAPITAL INVESTAMA (d/h RUMICORP (PTY) LIMITED LONDON)",
        "tanggal_daftar": "2022-09-05",
        "nomor_tanda_daftar": "003370.03/DJAI.PSE/09/2022",
        "qr_code": "https://pse.kominfo.go.id/storage/images/qr_code/19a234bdce8b47fce5f852526ff6aecb.png",
        "status_id": "TERDAFTAR",
        "sistem_elektronik_id": 10825
      }
    },
    {
      "type": "tdpseTerbit",
      "id": 10299,
      "attributes": {
        "nomor_pb_umku": null,
        "nama": "MARIA TIURMA KALAIJ",
        "website": "bnisekuritas.co.id",
        "sektor": "Sektor Keuangan",
        "nama_perusahaan": "BRAWIJAYA CAPITAL INVESTAMA (d/h RUMICORP (PTY) LIMITED LONDON)",
        "tanggal_daftar": "2022-08-13",
        "nomor_tanda_daftar": "003370.02/DJAI.PSE/08/2022",
        "qr_code": "https://pse.kominfo.go.id/storage/images/qr_code/8c9cf8514f7f1ca964998ccb81cdba6b.png",
        "status_id": "TERDAFTAR",
        "sistem_elektronik_id": 10182
      }
    },
    {
      "type": "tdpseTerbit",
      "id": 4680,
      "attributes": {
        "nomor_pb_umku": "",
        "nama": "MARIA TIURMA KALAIJ",
        "website": "owenpetrobitumen.com",
        "sektor": "Sektor Keuangan",
        "nama_perusahaan": "BRAWIJAYA CAPITAL INVESTAMA (d/h RUMICORP (PTY) LIMITED LONDON)",
        "tanggal_daftar": "2022-06-23",
        "nomor_tanda_daftar": "003370.01/DJAI.PSE/06/2022",
        "qr_code": "https://pse.kominfo.go.id/storage/images/qr_code/32d868e0d7c9156b69ab93ca01217780.png",
        "status_id": "TERDAFTAR",
        "sistem_elektronik_id": 4639
      }
    },
    {
      "type": "tdpseTerbit",
      "id": 11521,
      "attributes": {
        "nomor_pb_umku": null,
        "nama": "440500000138099",
        "website": "english.shantou.gov.cn",
        "sektor": "Sektor Keuangan",
        "nama_perusahaan": "SHANTOU MARIA INVESTMENT CO.., LTD.",
        "tanggal_daftar": "2022-10-05",
        "nomor_tanda_daftar": "003369.12/DJAI.PSE/10/2022",
        "qr_code": "https://pse.kominfo.go.id/storage/images/qr_code/359745ae03e1b1ed9dcbc58a2c623f6d.png",
        "status_id": "TERDAFTAR",
        "sistem_elektronik_id": 11337
      }
    },
    {
      "type": "tdpseTerbit",
      "id": 11520,
      "attributes": {
        "nomor_pb_umku": null,
        "nama": "440500000138099",
        "website": "english.shantou.gov.cn",
        "sektor": "Sektor Keuangan",
        "nama_perusahaan": "SHANTOU MARIA INVESTMENT CO.., LTD.",
        "tanggal_daftar": "2022-10-05",
        "nomor_tanda_daftar": "003369.11/DJAI.PSE/10/2022",
        "qr_code": "https://pse.kominfo.go.id/storage/images/qr_code/5e89d82308f472dc2ba61a24381712f4.png",
        "status_id": "TERDAFTAR",
        "sistem_elektronik_id": 11336
      }
    },
    {
      "type": "tdpseTerbit",
      "id": 11519,
      "attributes": {
        "nomor_pb_umku": null,
        "nama": "440500000138099",
        "website": "english.shantou.gov.cn",
        "sektor": "Sektor Keuangan",
        "nama_perusahaan": "SHANTOU MARIA INVESTMENT CO.., LTD.",
        "tanggal_daftar": "2022-10-05",
        "nomor_tanda_daftar": "003369.10/DJAI.PSE/10/2022",
        "qr_code": "https://pse.kominfo.go.id/storage/images/qr_code/df60d7808301a2678801fb00b30b6706.png",
        "status_id": "TERDAFTAR",
        "sistem_elektronik_id": 11335
      }
    },
    {
      "type": "tdpseTerbit",
      "id": 11518,
      "attributes": {
        "nomor_pb_umku": null,
        "nama": "440500000138099",
        "website": "english.shantou.gov.cn",
        "sektor": "Sektor Keuangan",
        "nama_perusahaan": "SHANTOU MARIA INVESTMENT CO.., LTD.",
        "tanggal_daftar": "2022-10-05",
        "nomor_tanda_daftar": "003369.09/DJAI.PSE/10/2022",
        "qr_code": "https://pse.kominfo.go.id/storage/images/qr_code/2dca63b1190a4c680bc6f60158d528aa.png",
        "status_id": "TERDAFTAR",
        "sistem_elektronik_id": 11334
      }
    }
  ]
}