{
  "meta": {
    "page": {
      "currentPage": 55,
      "from": 541,
      "lastPage": 62,
      "perPage": 10,
      "to": 550,
      "total": 617
    }
  },
  "data": [
    {
      "type": "tdpseTerbit",
      "id": 4132,
      "attributes": {
        "nomor_pb_umku": "",
        "nama": "WARHAMMER 40,000 LOST CRUSADE",
        "website": "lostcrusade.com; apps.apple.com/app/id1532636309; play.google.com/store/apps/details?id=com.orcacorp.wargame",
        "sektor": "Sektor Teknologi Informasi dan Komunikasi",
        "nama_perusahaan": "NUVERSE (HONG KONG) LIMITED",
        "tanggal_daftar": "2022-05-25",
        "nomor_tanda_daftar": "002835.01/DJAI.PSE/05/2022",
        "qr_code": "https://pse.kominfo.go.id/storage/images/qr_code/378701a32eacd62c0247abb1b063931d.png",
        "status_id": "TERDAFTAR",
        "sistem_elektronik_id": 4134
      }
    },
    {
      "type": "tdpseTerbit",
      "id": 4131,
      "attributes": {
        "nomor_pb_umku": "",
        "nama": "THE HEROIC LEGEND OF EAGARLNIA",
        "website": "pixmain.com/the-heroic-legend-of-eagarlnia; apps.apple.com/us/app/the-heroic-legend-of-eagarlnia/id1580509302; play.google.com/store/apps/details?id=com.redhand.eagarlnia",
        "sektor": "Sektor Teknologi Informasi dan Komunikasi",
        "nama_perusahaan": "PIXMAIN PTE. LTD.",
        "tanggal_daftar": "2022-05-25",
        "nomor_tanda_daftar": "002834.04/DJAI.PSE/05/2022",
        "qr_code": "https://pse.kominfo.go.id/storage/images/qr_code/9fa22e4521b4566fddae9333639e6712.png",
        "status_id": "TERDAFTAR",
        "sistem_elektronik_id": 4133
      }
    },
    {
      "type": "tdpseTerbit",
      "id": 4130,
      "attributes": {
        "nomor_pb_umku": "",
        "nama": "MY TIME AT PORTIA",
        "website": "pixmain.com/my-time-at-portia; apps.apple.com/us/app/my-time-at-portia/id1555184523; play.google.com/store/apps/details?id=com.pathea.mtap",
        "sektor": "Sektor Teknologi Informasi dan Komunikasi",
        "nama_perusahaan": "PIXMAIN PTE. LTD.",
        "tanggal_daftar": "2022-05-25",
        "nomor_tanda_daftar": "002834.03/DJAI.PSE/05/2022",
        "qr_code": "https://pse.kominfo.go.id/storage/images/qr_code/8603bf3aaa36058f7c8ea7ac98a0806b.png",
        "status_id": "TERDAFTAR",
        "sistem_elektronik_id": 4132
      }
    },
    {
      "type": "tdpseTerbit",
      "id": 4129,
      "attributes": {
        "nomor_pb_umku": "",
        "nama": "HUNDRED DAYS",
        "website": "pixmain.com/hundred-days; apps.apple.com/us/app/hundred-days/id1581549121; play.google.com/store/apps/details?id=com.brokenarmsgames.hundred",
        "sektor": "Sektor Teknologi Informasi dan Komunikasi",
        "nama_perusahaan": "PIXMAIN PTE. LTD.",
        "tanggal_daftar": "2022-05-25",
        "nomor_tanda_daftar": "002834.02/DJAI.PSE/05/2022",
        "qr_code": "https://pse.kominfo.go.id/storage/images/qr_code/d75c46dc133747dbb797fe4abceed412.png",
        "status_id": "TERDAFTAR",
        "sistem_elektronik_id": 4131
      }
    },
    {
      "type": "tdpseTerbit",
      "id": 4128,
      "attributes": {
        "nomor_pb_umku": "",
        "nama": "INKED",
        "website": "pixmain.com/inked; apps.apple.com/us/app/inked/id1537777979; play.google.com/store/apps/details?id=com.somniumgames.inked",
        "sektor": "Sektor Teknologi Informasi dan Komunikasi",
        "nama_perusahaan": "PIXMAIN PTE. LTD.",
        "tanggal_daftar": "2022-05-25",
        "nomor_tanda_daftar": "002834.01/DJAI.PSE/05/2022",
        "qr_code": "https://pse.kominfo.go.id/storage/images/qr_code/b4fea688ad3872eab720e0d21efa9c69.png",
        "status_id": "TERDAFTAR",
        "sistem_elektronik_id": 4130
      }
    },
    {
      "type": "tdpseTerbit",
      "id": 4117,
      "attributes": {
        "nomor_pb_umku": "",
        "nama": "FIZZOTOON",
        "website": "fizzotoon.com/",
        "sektor": "Sektor Teknologi Informasi dan Komunikasi",
        "nama_perusahaan": "POLIGON PTE. LTD.",
        "tanggal_daftar": "2022-05-24",
        "nomor_tanda_daftar": "002804.04/DJAI.PSE/05/2022",
        "qr_code": "https://pse.kominfo.go.id/storage/images/qr_code/2b672d15807c7e47642814bb8ad2ec19.png",
        "status_id": "TERDAFTAR",
        "sistem_elektronik_id": 4117
      }
    },
    {
      "type": "tdpseTerbit",
      "id": 4116,
      "attributes": {
        "nomor_pb_umku": "",
        "nama": "GUA GUA LONG",
        "website": "rexandfriends.com",
        "sektor": "Sektor Teknologi Informasi dan Komunikasi",
        "nama_perusahaan": "POLIGON PTE. LTD.",
        "tanggal_daftar": "2022-05-24",
        "nomor_tanda_daftar": "002804.03/DJAI.PSE/05/2022",
        "qr_code": "https://pse.kominfo.go.id/storage/images/qr_code/c6d9695be82b4e2027be2a6b7952464e.png",
        "status_id": "TERDAFTAR",
        "sistem_elektronik_id": 4116
      }
    },
    {
      "type": "tdpseTerbit",
      "id": 4115,
      "attributes": {
        "nomor_pb_umku": "",
        "nama": "HELO",
        "website": "helo.com/; apps.apple.com/us/app/helo-share-your-life/id1437494436; play.google.com/store/apps/details?id=world.social.group.video.share&hl=en_SG&gl=US",
        "sektor": "Sektor Teknologi Informasi dan Komunikasi",
        "nama_perusahaan": "POLIGON PTE. LTD.",
        "tanggal_daftar": "2022-05-24",
        "nomor_tanda_daftar": "002804.02/DJAI.PSE/05/2022",
        "qr_code": "https://pse.kominfo.go.id/storage/images/qr_code/e97bb72e6ec6f56e412b370d38b25493.png",
        "status_id": "TERDAFTAR",
        "sistem_elektronik_id": 4115
      }
    },
    {
      "type": "tdpseTerbit",
      "id": 4114,
      "attributes": {
        "nomor_pb_umku": "",
        "nama": "FIZZO",
        "website": "fizzo.org",
        "sektor": "Sektor Teknologi Informasi dan Komunikasi",
        "nama_perusahaan": "POLIGON PTE. LTD.",
        "tanggal_daftar": "2022-05-24",
        "nomor_tanda_daftar": "002804.01/DJAI.PSE/05/2022",
        "qr_code": "https://pse.kominfo.go.id/storage/images/qr_code/fcee5b1bad3dd442c2109ebad10469fe.png",
        "status_id": "TERDAFTAR",
        "sistem_elektronik_id": 4114
      }
    },
    {
      "type": "tdpseTerbit",
      "id": 4113,
      "attributes": {
        "nomor_pb_umku": "",
        "nama": "DAILYMOTION S.A.",
        "website": "dailymotion.com",
        "sektor": "Sektor Teknologi Informasi dan Komunikasi",
        "nama_perusahaan": "DAILYMOTION S.A.",
        "tanggal_daftar": "2022-05-24",
        "nomor_tanda_daftar": "002803.01/DJAI.PSE/05/2022",
        "qr_code": "https://pse.kominfo.go.id/storage/images/qr_code/eadd77eb3983290b474382a1dec221ea.png",
        "status_id": "TERDAFTAR",
        "sistem_elektronik_id": 4113
      }
    }
  ]
}