{
  "meta": {
    "page": {
      "currentPage": 56,
      "from": 551,
      "lastPage": 72,
      "perPage": 10,
      "to": 560,
      "total": 712
    }
  },
  "data": [
    {
      "type": "tdpseTerbit",
      "id": 11384,
      "attributes": {
        "nomor_pb_umku": null,
        "nama": "PROJECT: BLOODSTRIKE",
        "website": "-",
        "sektor": "Sektor Teknologi Informasi dan Komunikasi",
        "nama_perusahaan": "HONG KONG NETEASE INTERACTIVE ENTERTAINMENT LIMITED",
        "tanggal_daftar": "2022-09-27",
        "nomor_tanda_daftar": "004879.03/DJAI.PSE/09/2022",
        "qr_code": "https://pse.kominfo.go.id/storage/images/qr_code/76b00720656a5c2a27079dd621c2b169.png",
        "status_id": "TERDAFTAR",
        "sistem_elektronik_id": 11200
      }
    },
    {
      "type": "tdpseTerbit",
      "id": 6649,
      "attributes": {
        "nomor_pb_umku": null,
        "nama": "MUMU PLAYER",
        "website": "mumuglobal.com",
        "sektor": "Sektor Teknologi Informasi dan Komunikasi",
        "nama_perusahaan": "HONG KONG NETEASE INTERACTIVE ENTERTAINMENT LIMITED",
        "tanggal_daftar": "2022-07-19",
        "nomor_tanda_daftar": "004879.02/DJAI.PSE/07/2022",
        "qr_code": "https://pse.kominfo.go.id/storage/images/qr_code/455442307d80d52cf9469acc70f2211a.png",
        "status_id": "TERDAFTAR",
        "sistem_elektronik_id": 6504
      }
    },
    {
      "type": "tdpseTerbit",
      "id": 6648,
      "attributes": {
        "nomor_pb_umku": null,
        "nama": "UU BOOSTER",
        "website": "uubooster.com",
        "sektor": "Sektor Teknologi Informasi dan Komunikasi",
        "nama_perusahaan": "HONG KONG NETEASE INTERACTIVE ENTERTAINMENT LIMITED",
        "tanggal_daftar": "2022-07-19",
        "nomor_tanda_daftar": "004879.01/DJAI.PSE/07/2022",
        "qr_code": "https://pse.kominfo.go.id/storage/images/qr_code/9eab2aa203da57d1d4d58434fe0d3730.png",
        "status_id": "TERDAFTAR",
        "sistem_elektronik_id": 6503
      }
    },
    {
      "type": "tdpseTerbit",
      "id": 6644,
      "attributes": {
        "nomor_pb_umku": null,
        "nama": "MERIDIA°COLLECT",
        "website": "refinery.meridia.land",
        "sektor": "Sektor Pangan",
        "nama_perusahaan": "MERIDIA LAND",
        "tanggal_daftar": "2022-07-19",
        "nomor_tanda_daftar": "004878.01/DJAI.PSE/07/2022",
        "qr_code": "https://pse.kominfo.go.id/storage/images/qr_code/3901fc8a712f4cb3241e33d411d51682.png",
        "status_id": "TERDAFTAR",
        "sistem_elektronik_id": 6501
      }
    },
    {
      "type": "tdpseTerbit",
      "id": 6640,
      "attributes": {
        "nomor_pb_umku": null,
        "nama": "OFFGAMERS GLOBAL PTE LTD",
        "website": "offgamers.com",
        "sektor": "Sektor Perdagangan",
        "nama_perusahaan": "OFFGAMERS",
        "tanggal_daftar": "2022-07-19",
        "nomor_tanda_daftar": "004877.01/DJAI.PSE/07/2022",
        "qr_code": "https://pse.kominfo.go.id/storage/images/qr_code/6c8bb614788b12b2134e8f4a13e97067.png",
        "status_id": "TERDAFTAR",
        "sistem_elektronik_id": 6497
      }
    },
    {
      "type": "tdpseTerbit",
      "id": 6576,
      "attributes": {
        "nomor_pb_umku": null,
        "nama": "NETFLIX",
        "website": "Netflix.com/id/",
        "sektor": "Sektor Perdagangan",
        "nama_perusahaan": "NETFLIX PTE. LTD.",
        "tanggal_daftar": "2022-07-19",
        "nomor_tanda_daftar": "004825.01/DJAI.PSE/07/2022",
        "qr_code": "https://pse.kominfo.go.id/storage/images/qr_code/2081f51103adc0a664e107482ec36491.png",
        "status_id": "TERDAFTAR",
        "sistem_elektronik_id": 6434
      }
    },
    {
      "type": "tdpseTerbit",
      "id": 6400,
      "attributes": {
        "nomor_pb_umku": null,
        "nama": "TEST YI XIA",
        "website": "guanmutong.com",
        "sektor": "Sektor Teknologi Informasi dan Komunikasi",
        "nama_perusahaan": "RUOCHENG",
        "tanggal_daftar": "2022-07-18",
        "nomor_tanda_daftar": "004723.01/DJAI.PSE/07/2022",
        "qr_code": "https://pse.kominfo.go.id/storage/images/qr_code/80d45adef2b157836fc4c5b55af44ef5.png",
        "status_id": "TERDAFTAR",
        "sistem_elektronik_id": 6261
      }
    },
    {
      "type": "tdpseTerbit",
      "id": 6398,
      "attributes": {
        "nomor_pb_umku": null,
        "nama": "SUZHOU NUOCHENG LEGAL CONSULTING SERVICE COMPANY",
        "website": "gamelawyer.com",
        "sektor": "Sektor Teknologi Informasi dan Komunikasi",
        "nama_perusahaan": "Suzhou nuocheng Legal Consulting Service Company",
        "tanggal_daftar": "2022-07-18",
        "nomor_tanda_daftar": "004722.01/DJAI.PSE/07/2022",
        "qr_code": "https://pse.kominfo.go.id/storage/images/qr_code/47d14fe6473da7e44e8e65999d1315eb.png",
        "status_id": "TERDAFTAR",
        "sistem_elektronik_id": 6260
      }
    },
    {
      "type": "tdpseTerbit",
      "id": 6397,
      "attributes": {
        "nomor_pb_umku": null,
        "nama": "KINGAME ACCOUNT SYSTEM",
        "website": "thebulletangel.com",
        "sektor": "Sektor Teknologi Informasi dan Komunikasi",
        "nama_perusahaan": "KINGAME",
        "tanggal_daftar": "2022-07-18",
        "nomor_tanda_daftar": "004721.01/DJAI.PSE/07/2022",
        "qr_code": "https://pse.kominfo.go.id/storage/images/qr_code/06cff365f5b5948c5eb6d15263827923.png",
        "status_id": "TERDAFTAR",
        "sistem_elektronik_id": 6259
      }
    },
    {
      "type": "tdpseTerbit",
      "id": 6394,
      "attributes": {
        "nomor_pb_umku": null,
        "nama": "YOHO",
        "website": "yoho.media",
        "sektor": "Sektor Teknologi Informasi dan Komunikasi",
        "nama_perusahaan": "MOBILE ALPHA LIMITED",
        "tanggal_daftar": "2022-07-18",
        "nomor_tanda_daftar": "004720.01/DJAI.PSE/07/2022",
        "qr_code": "https://pse.kominfo.go.id/storage/images/qr_code/81e4d48ca1ce58ccda845c46d505899b.png",
        "status_id": "TERDAFTAR",
        "sistem_elektronik_id": 6257
      }
    }
  ]
}