{
  "meta": {
    "page": {
      "currentPage": 57,
      "from": 561,
      "lastPage": 69,
      "perPage": 10,
      "to": 570,
      "total": 684
    }
  },
  "data": [
    {
      "type": "tdpseTerbit",
      "id": 4890,
      "attributes": {
        "nomor_pb_umku": "",
        "nama": "LEGO.COM",
        "website": "lego.com/en-id",
        "sektor": "Sektor Perdagangan",
        "nama_perusahaan": "LEGO SYSTEM A/S",
        "tanggal_daftar": "2022-06-28",
        "nomor_tanda_daftar": "003526.01/DJAI.PSE/06/2022",
        "qr_code": "https://pse.kominfo.go.id/storage/images/qr_code/d9c90443a37367024e41d5917ef2695a.png",
        "status_id": "TERDAFTAR",
        "sistem_elektronik_id": 4759
      }
    },
    {
      "type": "tdpseTerbit",
      "id": 4889,
      "attributes": {
        "nomor_pb_umku": "",
        "nama": "GLANCE",
        "website": "glance.com",
        "sektor": "Sektor Teknologi Informasi dan Komunikasi",
        "nama_perusahaan": "GLANCE INMOBI PTE. LTD.",
        "tanggal_daftar": "2022-06-28",
        "nomor_tanda_daftar": "003525.01/DJAI.PSE/06/2022",
        "qr_code": "https://pse.kominfo.go.id/storage/images/qr_code/29c2aba8ed2f249c460d9711b8bd6ca2.png",
        "status_id": "TERDAFTAR",
        "sistem_elektronik_id": 4758
      }
    },
    {
      "type": "tdpseTerbit",
      "id": 4886,
      "attributes": {
        "nomor_pb_umku": "",
        "nama": "DAZN",
        "website": "dazn.com",
        "sektor": "Sektor Perdagangan",
        "nama_perusahaan": "DAZN LIMITED",
        "tanggal_daftar": "2022-06-28",
        "nomor_tanda_daftar": "003524.01/DJAI.PSE/06/2022",
        "qr_code": "https://pse.kominfo.go.id/storage/images/qr_code/2789916bd000abee2de3432ccbee6d85.png",
        "status_id": "TERDAFTAR",
        "sistem_elektronik_id": 4755
      }
    },
    {
      "type": "tdpseTerbit",
      "id": 4720,
      "attributes": {
        "nomor_pb_umku": "",
        "nama": "YANDEX PRACTICUM PLATFORM",
        "website": "practicum.com/id-idn/",
        "sektor": "Sektor Teknologi Informasi dan Komunikasi",
        "nama_perusahaan": "INTERTECH SERVICES AG",
        "tanggal_daftar": "2022-06-24",
        "nomor_tanda_daftar": "003410.01/DJAI.PSE/06/2022",
        "qr_code": "https://pse.kominfo.go.id/storage/images/qr_code/bae4eb9fe0fbc41197e3af8d09fd39cd.png",
        "status_id": "TERDAFTAR",
        "sistem_elektronik_id": 4674
      }
    },
    {
      "type": "tdpseTerbit",
      "id": 11526,
      "attributes": {
        "nomor_pb_umku": null,
        "nama": "MARIA TIURMA KALAIJ",
        "website": "bnisyariah.co.id",
        "sektor": "Sektor Keuangan",
        "nama_perusahaan": "BRAWIJAYA CAPITAL INVESTAMA (d/h RUMICORP (PTY) LIMITED LONDON)",
        "tanggal_daftar": "2022-10-05",
        "nomor_tanda_daftar": "003370.08/DJAI.PSE/10/2022",
        "qr_code": "https://pse.kominfo.go.id/storage/images/qr_code/98f060f883278f9b5967db28980f6cc3.png",
        "status_id": "TERDAFTAR",
        "sistem_elektronik_id": 11342
      }
    },
    {
      "type": "tdpseTerbit",
      "id": 11525,
      "attributes": {
        "nomor_pb_umku": null,
        "nama": "MARIA TIURMA KALAIJ",
        "website": "aurasakti-engineering.com",
        "sektor": "Sektor Keuangan",
        "nama_perusahaan": "BRAWIJAYA CAPITAL INVESTAMA (d/h RUMICORP (PTY) LIMITED LONDON)",
        "tanggal_daftar": "2022-10-05",
        "nomor_tanda_daftar": "003370.07/DJAI.PSE/10/2022",
        "qr_code": "https://pse.kominfo.go.id/storage/images/qr_code/6a0e91d2153b6f2362ea019a88892ad5.png",
        "status_id": "TERDAFTAR",
        "sistem_elektronik_id": 11341
      }
    },
    {
      "type": "tdpseTerbit",
      "id": 11524,
      "attributes": {
        "nomor_pb_umku": null,
        "nama": "MARIA TIURMA KALAIJ / BANK RAKYAT INDONESIA",
        "website": "lelangagunan.bni.co.id",
        "sektor": "Sektor Keuangan",
        "nama_perusahaan": "BRAWIJAYA CAPITAL INVESTAMA (d/h RUMICORP (PTY) LIMITED LONDON)",
        "tanggal_daftar": "2022-10-05",
        "nomor_tanda_daftar": "003370.06/DJAI.PSE/10/2022",
        "qr_code": "https://pse.kominfo.go.id/storage/images/qr_code/e638993d8463d525cf3ac32a64eb5a11.png",
        "status_id": "TERDAFTAR",
        "sistem_elektronik_id": 11340
      }
    },
    {
      "type": "tdpseTerbit",
      "id": 11523,
      "attributes": {
        "nomor_pb_umku": null,
        "nama": "SHANTOU INVESTMENTS LIMITED",
        "website": "owenstrategikmedia.com",
        "sektor": "Sektor Keuangan",
        "nama_perusahaan": "BRAWIJAYA CAPITAL INVESTAMA (d/h RUMICORP (PTY) LIMITED LONDON)",
        "tanggal_daftar": "2022-10-05",
        "nomor_tanda_daftar": "003370.05/DJAI.PSE/10/2022",
        "qr_code": "https://pse.kominfo.go.id/storage/images/qr_code/9dcfdb207afd540a6d0ea26c44ade9cd.png",
        "status_id": "TERDAFTAR",
        "sistem_elektronik_id": 11339
      }
    },
    {
      "type": "tdpseTerbit",
      "id": 11522,
      "attributes": {
        "nomor_pb_umku": null,
        "nama": "MARIA TIURMA KALAIJ / BNI SECURITIES",
        "website": "bnisecurities.com.sg",
        "sektor": "Sektor Keuangan",
        "nama_perusahaan": "BRAWIJAYA CAPITAL INVESTAMA (d/h RUMICORP (PTY) LIMITED LONDON)",
        "tanggal_daftar": "2022-10-05",
        "nomor_tanda_daftar": "003370.04/DJAI.PSE/10/2022",
        "qr_code": "https://pse.kominfo.go.id/storage/images/qr_code/bb8922b7c937e7428646198a0e8ef800.png",
        "status_id": "TERDAFTAR",
        "sistem_elektronik_id": 11338
      }
    },
    {
      "type": "tdpseTerbit",
      "id": 11022,
      "attributes": {
        "nomor_pb_umku": null,
        "nama": "MARIA TIURMA",
        "website": "bankbni.co.uk",
        "sektor": "Sektor Keuangan",
        "nama_perusahaan": "BRAWIJAYA CAPITAL INVESTAMA (d/h RUMICORP (PTY) LIMITED LONDON)",
        "tanggal_daftar": "2022-09-05",
        "nomor_tanda_daftar": "003370.03/DJAI.PSE/09/2022",
        "qr_code": "https://pse.kominfo.go.id/storage/images/qr_code/19a234bdce8b47fce5f852526ff6aecb.png",
        "status_id": "TERDAFTAR",
        "sistem_elektronik_id": 10825
      }
    }
  ]
}