{
  "meta": {
    "page": {
      "currentPage": 60,
      "from": 591,
      "lastPage": 72,
      "perPage": 10,
      "to": 600,
      "total": 712
    }
  },
  "data": [
    {
      "type": "tdpseTerbit",
      "id": 4886,
      "attributes": {
        "nomor_pb_umku": "",
        "nama": "DAZN",
        "website": "dazn.com",
        "sektor": "Sektor Perdagangan",
        "nama_perusahaan": "DAZN LIMITED",
        "tanggal_daftar": "2022-06-28",
        "nomor_tanda_daftar": "003524.01/DJAI.PSE/06/2022",
        "qr_code": "https://pse.kominfo.go.id/storage/images/qr_code/2789916bd000abee2de3432ccbee6d85.png",
        "status_id": "TERDAFTAR",
        "sistem_elektronik_id": 4755
      }
    },
    {
      "type": "tdpseTerbit",
      "id": 4720,
      "attributes": {
        "nomor_pb_umku": "",
        "nama": "YANDEX PRACTICUM PLATFORM",
        "website": "practicum.com/id-idn/",
        "sektor": "Sektor Teknologi Informasi dan Komunikasi",
        "nama_perusahaan": "INTERTECH SERVICES AG",
        "tanggal_daftar": "2022-06-24",
        "nomor_tanda_daftar": "003410.01/DJAI.PSE/06/2022",
        "qr_code": "https://pse.kominfo.go.id/storage/images/qr_code/bae4eb9fe0fbc41197e3af8d09fd39cd.png",
        "status_id": "TERDAFTAR",
        "sistem_elektronik_id": 4674
      }
    },
    {
      "type": "tdpseTerbit",
      "id": 11526,
      "attributes": {
        "nomor_pb_umku": null,
        "nama": "MARIA TIURMA KALAIJ",
        "website": "bnisyariah.co.id",
        "sektor": "Sektor Keuangan",
        "nama_perusahaan": "BRAWIJAYA CAPITAL INVESTAMA (d/h RUMICORP (PTY) LIMITED LONDON)",
        "tanggal_daftar": "2022-10-05",
        "nomor_tanda_daftar": "003370.08/DJAI.PSE/10/2022",
        "qr_code": "https://pse.kominfo.go.id/storage/images/qr_code/98f060f883278f9b5967db28980f6cc3.png",
        "status_id": "TERDAFTAR",
        "sistem_elektronik_id": 11342
      }
    },
    {
      "type": "tdpseTerbit",
      "id": 11525,
      "attributes": {
        "nomor_pb_umku": null,
        "nama": "MARIA TIURMA KALAIJ",
        "website": "aurasakti-engineering.com",
        "sektor": "Sektor Keuangan",
        "nama_perusahaan": "BRAWIJAYA CAPITAL INVESTAMA (d/h RUMICORP (PTY) LIMITED LONDON)",
        "tanggal_daftar": "2022-10-05",
        "nomor_tanda_daftar": "003370.07/DJAI.PSE/10/2022",
        "qr_code": "https://pse.kominfo.go.id/storage/images/qr_code/6a0e91d2153b6f2362ea019a88892ad5.png",
        "status_id": "TERDAFTAR",
        "sistem_elektronik_id": 11341
      }
    },
    {
      "type": "tdpseTerbit",
      "id": 11524,
      "attributes": {
        "nomor_pb_umku": null,
        "nama": "MARIA TIURMA KALAIJ / BANK RAKYAT INDONESIA",
        "website": "lelangagunan.bni.co.id",
        "sektor": "Sektor Keuangan",
        "nama_perusahaan": "BRAWIJAYA CAPITAL INVESTAMA (d/h RUMICORP (PTY) LIMITED LONDON)",
        "tanggal_daftar": "2022-10-05",
        "nomor_tanda_daftar": "003370.06/DJAI.PSE/10/2022",
        "qr_code": "https://pse.kominfo.go.id/storage/images/qr_code/e638993d8463d525cf3ac32a64eb5a11.png",
        "status_id": "TERDAFTAR",
        "sistem_elektronik_id": 11340
      }
    },
    {
      "type": "tdpseTerbit",
      "id": 11523,
      "attributes": {
        "nomor_pb_umku": null,
        "nama": "SHANTOU INVESTMENTS LIMITED",
        "website": "owenstrategikmedia.com",
        "sektor": "Sektor Keuangan",
        "nama_perusahaan": "BRAWIJAYA CAPITAL INVESTAMA (d/h RUMICORP (PTY) LIMITED LONDON)",
        "tanggal_daftar": "2022-10-05",
        "nomor_tanda_daftar": "003370.05/DJAI.PSE/10/2022",
        "qr_code": "https://pse.kominfo.go.id/storage/images/qr_code/9dcfdb207afd540a6d0ea26c44ade9cd.png",
        "status_id": "TERDAFTAR",
        "sistem_elektronik_id": 11339
      }
    },
    {
      "type": "tdpseTerbit",
      "id": 11522,
      "attributes": {
        "nomor_pb_umku": null,
        "nama": "MARIA TIURMA KALAIJ / BNI SECURITIES",
        "website": "bnisecurities.com.sg",
        "sektor": "Sektor Keuangan",
        "nama_perusahaan": "BRAWIJAYA CAPITAL INVESTAMA (d/h RUMICORP (PTY) LIMITED LONDON)",
        "tanggal_daftar": "2022-10-05",
        "nomor_tanda_daftar": "003370.04/DJAI.PSE/10/2022",
        "qr_code": "https://pse.kominfo.go.id/storage/images/qr_code/bb8922b7c937e7428646198a0e8ef800.png",
        "status_id": "TERDAFTAR",
        "sistem_elektronik_id": 11338
      }
    },
    {
      "type": "tdpseTerbit",
      "id": 11022,
      "attributes": {
        "nomor_pb_umku": null,
        "nama": "MARIA TIURMA",
        "website": "bankbni.co.uk",
        "sektor": "Sektor Keuangan",
        "nama_perusahaan": "BRAWIJAYA CAPITAL INVESTAMA (d/h RUMICORP (PTY) LIMITED LONDON)",
        "tanggal_daftar": "2022-09-05",
        "nomor_tanda_daftar": "003370.03/DJAI.PSE/09/2022",
        "qr_code": "https://pse.kominfo.go.id/storage/images/qr_code/19a234bdce8b47fce5f852526ff6aecb.png",
        "status_id": "TERDAFTAR",
        "sistem_elektronik_id": 10825
      }
    },
    {
      "type": "tdpseTerbit",
      "id": 10299,
      "attributes": {
        "nomor_pb_umku": null,
        "nama": "MARIA TIURMA KALAIJ",
        "website": "bnisekuritas.co.id",
        "sektor": "Sektor Keuangan",
        "nama_perusahaan": "BRAWIJAYA CAPITAL INVESTAMA (d/h RUMICORP (PTY) LIMITED LONDON)",
        "tanggal_daftar": "2022-08-13",
        "nomor_tanda_daftar": "003370.02/DJAI.PSE/08/2022",
        "qr_code": "https://pse.kominfo.go.id/storage/images/qr_code/8c9cf8514f7f1ca964998ccb81cdba6b.png",
        "status_id": "TERDAFTAR",
        "sistem_elektronik_id": 10182
      }
    },
    {
      "type": "tdpseTerbit",
      "id": 4680,
      "attributes": {
        "nomor_pb_umku": "",
        "nama": "MARIA TIURMA KALAIJ",
        "website": "owenpetrobitumen.com",
        "sektor": "Sektor Keuangan",
        "nama_perusahaan": "BRAWIJAYA CAPITAL INVESTAMA (d/h RUMICORP (PTY) LIMITED LONDON)",
        "tanggal_daftar": "2022-06-23",
        "nomor_tanda_daftar": "003370.01/DJAI.PSE/06/2022",
        "qr_code": "https://pse.kominfo.go.id/storage/images/qr_code/32d868e0d7c9156b69ab93ca01217780.png",
        "status_id": "TERDAFTAR",
        "sistem_elektronik_id": 4639
      }
    }
  ]
}