{
  "meta": {
    "page": {
      "currentPage": 7,
      "from": 61,
      "lastPage": 63,
      "perPage": 10,
      "to": 70,
      "total": 630
    }
  },
  "data": [
    {
      "type": "tdpseTerbit",
      "id": 11671,
      "attributes": {
        "nomor_pb_umku": null,
        "nama": "RANSENTERTAINMENT.CO.ID",
        "website": "-",
        "sektor": "Sektor Perdagangan",
        "nama_perusahaan": "BRAWIJAYA CAPITAL INVESTAMA",
        "tanggal_daftar": "2022-10-09",
        "nomor_tanda_daftar": "008054.09/DJAI.PSE/10/2022",
        "qr_code": "https://pse.kominfo.go.id/storage/images/qr_code/057a0674f6c45ae408892da08719fd9b.png",
        "status_id": "TERDAFTAR",
        "sistem_elektronik_id": 11471
      }
    },
    {
      "type": "tdpseTerbit",
      "id": 11670,
      "attributes": {
        "nomor_pb_umku": null,
        "nama": "STANDARD CHARTERED BANK SG S/A OL MASTER LIMITED",
        "website": "viva.co.id",
        "sektor": "Sektor Keuangan",
        "nama_perusahaan": "BRAWIJAYA CAPITAL INVESTAMA",
        "tanggal_daftar": "2022-10-09",
        "nomor_tanda_daftar": "008054.08/DJAI.PSE/10/2022",
        "qr_code": "https://pse.kominfo.go.id/storage/images/qr_code/14d37fe032c3b207222468a9b55a524d.png",
        "status_id": "TERDAFTAR",
        "sistem_elektronik_id": 11470
      }
    },
    {
      "type": "tdpseTerbit",
      "id": 11669,
      "attributes": {
        "nomor_pb_umku": null,
        "nama": "DB SPORE DCS A/C MDS PACTR LTD OBO PT BAKRIE GV (FA)-864134125",
        "website": "vivagroup.co.id",
        "sektor": "Sektor Keuangan",
        "nama_perusahaan": "BRAWIJAYA CAPITAL INVESTAMA",
        "tanggal_daftar": "2022-10-09",
        "nomor_tanda_daftar": "008054.07/DJAI.PSE/10/2022",
        "qr_code": "https://pse.kominfo.go.id/storage/images/qr_code/e1642604a3a10d365a94654031fd83f4.png",
        "status_id": "TERDAFTAR",
        "sistem_elektronik_id": 11469
      }
    },
    {
      "type": "tdpseTerbit",
      "id": 11668,
      "attributes": {
        "nomor_pb_umku": null,
        "nama": "RAIFFEISEN BANK INTERNATIONAL AG, SINGAPORE BRANCH S/A PT BAKRIE GLOBAL VENTURA",
        "website": "vivagroup.co.id",
        "sektor": "Sektor Keuangan",
        "nama_perusahaan": "BRAWIJAYA CAPITAL INVESTAMA",
        "tanggal_daftar": "2022-10-09",
        "nomor_tanda_daftar": "008054.06/DJAI.PSE/10/2022",
        "qr_code": "https://pse.kominfo.go.id/storage/images/qr_code/e3112b22005e4c9f33321528e40339bf.png",
        "status_id": "TERDAFTAR",
        "sistem_elektronik_id": 11468
      }
    },
    {
      "type": "tdpseTerbit",
      "id": 11667,
      "attributes": {
        "nomor_pb_umku": null,
        "nama": "CREDIT SUISSE AG SINGAPORE TRUST A/C CLIENTS-2023904000",
        "website": "vivagroup.co.id",
        "sektor": "Sektor Keuangan",
        "nama_perusahaan": "BRAWIJAYA CAPITAL INVESTAMA",
        "tanggal_daftar": "2022-10-09",
        "nomor_tanda_daftar": "008054.05/DJAI.PSE/10/2022",
        "qr_code": "https://pse.kominfo.go.id/storage/images/qr_code/bc7f8218ac10d873295c3528a6f5c7ec.png",
        "status_id": "TERDAFTAR",
        "sistem_elektronik_id": 11467
      }
    },
    {
      "type": "tdpseTerbit",
      "id": 11666,
      "attributes": {
        "nomor_pb_umku": null,
        "nama": "FERAL INVESMENT INC",
        "website": "cowelldev.com",
        "sektor": "Sektor Keuangan",
        "nama_perusahaan": "BRAWIJAYA CAPITAL INVESTAMA",
        "tanggal_daftar": "2022-10-09",
        "nomor_tanda_daftar": "008054.04/DJAI.PSE/10/2022",
        "qr_code": "https://pse.kominfo.go.id/storage/images/qr_code/d7672e04fab9aa55241feb4b520c397a.png",
        "status_id": "TERDAFTAR",
        "sistem_elektronik_id": 11466
      }
    },
    {
      "type": "tdpseTerbit",
      "id": 11665,
      "attributes": {
        "nomor_pb_umku": null,
        "nama": "EARVIN LIMITED",
        "website": "cowelldev.com",
        "sektor": "Sektor Keuangan",
        "nama_perusahaan": "BRAWIJAYA CAPITAL INVESTAMA",
        "tanggal_daftar": "2022-10-09",
        "nomor_tanda_daftar": "008054.03/DJAI.PSE/10/2022",
        "qr_code": "https://pse.kominfo.go.id/storage/images/qr_code/8ff98662f3cc1236a0d374fb14cb0310.png",
        "status_id": "TERDAFTAR",
        "sistem_elektronik_id": 11465
      }
    },
    {
      "type": "tdpseTerbit",
      "id": 11664,
      "attributes": {
        "nomor_pb_umku": null,
        "nama": "RDW GLOBAL INVESTASI D/H PT INDIGO SUPER MEKANI",
        "website": "caprinusa.com",
        "sektor": "Sektor Perdagangan",
        "nama_perusahaan": "BRAWIJAYA CAPITAL INVESTAMA",
        "tanggal_daftar": "2022-10-09",
        "nomor_tanda_daftar": "008054.02/DJAI.PSE/10/2022",
        "qr_code": "https://pse.kominfo.go.id/storage/images/qr_code/4548257d3c5d4f1dfccd636eebd9cd9d.png",
        "status_id": "TERDAFTAR",
        "sistem_elektronik_id": 11464
      }
    },
    {
      "type": "tdpseTerbit",
      "id": 11663,
      "attributes": {
        "nomor_pb_umku": null,
        "nama": "RANS ENTERTAINMENT",
        "website": "ransentertainment.com",
        "sektor": "Sektor Perdagangan",
        "nama_perusahaan": "BRAWIJAYA CAPITAL INVESTAMA",
        "tanggal_daftar": "2022-10-09",
        "nomor_tanda_daftar": "008054.01/DJAI.PSE/10/2022",
        "qr_code": "https://pse.kominfo.go.id/storage/images/qr_code/888eff9c45fb24a8087c04525e42d809.png",
        "status_id": "TERDAFTAR",
        "sistem_elektronik_id": 11463
      }
    },
    {
      "type": "tdpseTerbit",
      "id": 11662,
      "attributes": {
        "nomor_pb_umku": null,
        "nama": "BRAWIJAYA CAPITAL",
        "website": "caramail.fr",
        "sektor": "Sektor Keuangan",
        "nama_perusahaan": "BRAWIJAYA CAPITAL INVESTAMA",
        "tanggal_daftar": "2022-10-09",
        "nomor_tanda_daftar": "008053.01/DJAI.PSE/10/2022",
        "qr_code": "https://pse.kominfo.go.id/storage/images/qr_code/5ff9b23908cbbd2110b5f14f6cef8341.png",
        "status_id": "TERDAFTAR",
        "sistem_elektronik_id": 11462
      }
    }
  ]
}