{
  "meta": {
    "page": {
      "currentPage": 61,
      "from": 601,
      "lastPage": 69,
      "perPage": 10,
      "to": 610,
      "total": 685
    }
  },
  "data": [
    {
      "type": "tdpseTerbit",
      "id": 4140,
      "attributes": {
        "nomor_pb_umku": "",
        "nama": "PANGLE",
        "website": "pangleglobal.com/",
        "sektor": "Sektor Teknologi Informasi dan Komunikasi",
        "nama_perusahaan": "BYTEDANCE PTE. LTD.",
        "tanggal_daftar": "2022-05-25",
        "nomor_tanda_daftar": "002839.04/DJAI.PSE/05/2022",
        "qr_code": "https://pse.kominfo.go.id/storage/images/qr_code/eedc2c9b97ae6b394ba0882b871d443e.png",
        "status_id": "TERDAFTAR",
        "sistem_elektronik_id": 4142
      }
    },
    {
      "type": "tdpseTerbit",
      "id": 4139,
      "attributes": {
        "nomor_pb_umku": "",
        "nama": "FACEU",
        "website": "play.google.com/store/apps/details?id=com.lemon.faceu.oversea&hl=en_US&gl=US",
        "sektor": "Sektor Teknologi Informasi dan Komunikasi",
        "nama_perusahaan": "BYTEDANCE PTE. LTD.",
        "tanggal_daftar": "2022-05-25",
        "nomor_tanda_daftar": "002839.03/DJAI.PSE/05/2022",
        "qr_code": "https://pse.kominfo.go.id/storage/images/qr_code/4618a27642681aa9cc026f76df2e8cde.png",
        "status_id": "TERDAFTAR",
        "sistem_elektronik_id": 4141
      }
    },
    {
      "type": "tdpseTerbit",
      "id": 4138,
      "attributes": {
        "nomor_pb_umku": "",
        "nama": "LEMON8",
        "website": "lemon8-app.com/feed/foryou?region=id; play.google.com/store/apps/details?id=com.bd.nproject&hl=en_SG&gl=US; https://apps.apple.com/th/app/lemon8-%E3%83%AC%E3%83%A2%E3%83%B3%E3%82%A8%E3%82%A4%E3%83%88/id1498607143",
        "sektor": "Sektor Teknologi Informasi dan Komunikasi",
        "nama_perusahaan": "BYTEDANCE PTE. LTD.",
        "tanggal_daftar": "2022-05-25",
        "nomor_tanda_daftar": "002839.02/DJAI.PSE/05/2022",
        "qr_code": "https://pse.kominfo.go.id/storage/images/qr_code/7a6eb90719f21327b4627d7cb6a61e1b.png",
        "status_id": "TERDAFTAR",
        "sistem_elektronik_id": 4140
      }
    },
    {
      "type": "tdpseTerbit",
      "id": 5485,
      "attributes": {
        "nomor_pb_umku": "",
        "nama": "ULIKE",
        "website": "play.google.com/store/apps/details?id=com.gorgeous.liteinternational; apps.apple.com/tw/app/ulike-define-trendy-selfie/id1398796436",
        "sektor": "Sektor Teknologi Informasi dan Komunikasi",
        "nama_perusahaan": "BYTEDANCE PTE. LTD.",
        "tanggal_daftar": "2022-05-25",
        "nomor_tanda_daftar": "002839.01/DJAI.PSE/05/2022",
        "qr_code": "https://pse.kominfo.go.id/storage/images/qr_code/026e7bcadb9aa6a07fa2a46f90c809ba.png",
        "status_id": "TERDAFTAR",
        "sistem_elektronik_id": 4139
      }
    },
    {
      "type": "tdpseTerbit",
      "id": 4136,
      "attributes": {
        "nomor_pb_umku": "",
        "nama": "GAUTHMATH",
        "website": "gauthmath.com/en; apps.apple.com/bb/app/gauthmath-students-must-have/id1542571008; play.google.com/store/apps/details?id=com.education.android.h.intelligence&hl=en_SG&gl=US",
        "sektor": "Sektor Teknologi Informasi dan Komunikasi",
        "nama_perusahaan": "GAUTHTECH PTE. LTD.",
        "tanggal_daftar": "2022-05-25",
        "nomor_tanda_daftar": "002838.01/DJAI.PSE/05/2022",
        "qr_code": "https://pse.kominfo.go.id/storage/images/qr_code/8a6d6987f60b9133585c8e98a48b50fe.png",
        "status_id": "TERDAFTAR",
        "sistem_elektronik_id": 4138
      }
    },
    {
      "type": "tdpseTerbit",
      "id": 4135,
      "attributes": {
        "nomor_pb_umku": "",
        "nama": "LARK",
        "website": "larksuite.com; https://play.google.com/store/apps/details?id=com.larksuite.suite",
        "sektor": "Sektor Teknologi Informasi dan Komunikasi",
        "nama_perusahaan": "LARK TECHNOLOGIES PTE. LTD.",
        "tanggal_daftar": "2022-05-25",
        "nomor_tanda_daftar": "002837.01/DJAI.PSE/05/2022",
        "qr_code": "https://pse.kominfo.go.id/storage/images/qr_code/11cc92151777afbca6dc94b7722ca28f.png",
        "status_id": "TERDAFTAR",
        "sistem_elektronik_id": 4137
      }
    },
    {
      "type": "tdpseTerbit",
      "id": 4134,
      "attributes": {
        "nomor_pb_umku": "",
        "nama": "BYTEPLUS",
        "website": "byteplus.com",
        "sektor": "Sektor Teknologi Informasi dan Komunikasi",
        "nama_perusahaan": "BYTEPLUS PTE. LTD.",
        "tanggal_daftar": "2022-05-25",
        "nomor_tanda_daftar": "002836.01/DJAI.PSE/05/2022",
        "qr_code": "https://pse.kominfo.go.id/storage/images/qr_code/a39b7d17c89e64ddf7b56c8c312bad40.png",
        "status_id": "TERDAFTAR",
        "sistem_elektronik_id": 4136
      }
    },
    {
      "type": "tdpseTerbit",
      "id": 4133,
      "attributes": {
        "nomor_pb_umku": "",
        "nama": "RAGNAROK X: NEXT GENERATION",
        "website": "ragnarokx.com/main; play.google.com/store/apps/details?id=com.play.rosea; apps.apple.com/SG/app/id1545808948?mt=8",
        "sektor": "Sektor Teknologi Informasi dan Komunikasi",
        "nama_perusahaan": "NUVERSE (HONG KONG) LIMITED",
        "tanggal_daftar": "2022-05-25",
        "nomor_tanda_daftar": "002835.02/DJAI.PSE/05/2022",
        "qr_code": "https://pse.kominfo.go.id/storage/images/qr_code/bfdb6942ef523f51486f2ea75e3441ea.png",
        "status_id": "TERDAFTAR",
        "sistem_elektronik_id": 4135
      }
    },
    {
      "type": "tdpseTerbit",
      "id": 4132,
      "attributes": {
        "nomor_pb_umku": "",
        "nama": "WARHAMMER 40,000 LOST CRUSADE",
        "website": "lostcrusade.com; apps.apple.com/app/id1532636309; play.google.com/store/apps/details?id=com.orcacorp.wargame",
        "sektor": "Sektor Teknologi Informasi dan Komunikasi",
        "nama_perusahaan": "NUVERSE (HONG KONG) LIMITED",
        "tanggal_daftar": "2022-05-25",
        "nomor_tanda_daftar": "002835.01/DJAI.PSE/05/2022",
        "qr_code": "https://pse.kominfo.go.id/storage/images/qr_code/378701a32eacd62c0247abb1b063931d.png",
        "status_id": "TERDAFTAR",
        "sistem_elektronik_id": 4134
      }
    },
    {
      "type": "tdpseTerbit",
      "id": 4131,
      "attributes": {
        "nomor_pb_umku": "",
        "nama": "THE HEROIC LEGEND OF EAGARLNIA",
        "website": "pixmain.com/the-heroic-legend-of-eagarlnia; apps.apple.com/us/app/the-heroic-legend-of-eagarlnia/id1580509302; play.google.com/store/apps/details?id=com.redhand.eagarlnia",
        "sektor": "Sektor Teknologi Informasi dan Komunikasi",
        "nama_perusahaan": "PIXMAIN PTE. LTD.",
        "tanggal_daftar": "2022-05-25",
        "nomor_tanda_daftar": "002834.04/DJAI.PSE/05/2022",
        "qr_code": "https://pse.kominfo.go.id/storage/images/qr_code/9fa22e4521b4566fddae9333639e6712.png",
        "status_id": "TERDAFTAR",
        "sistem_elektronik_id": 4133
      }
    }
  ]
}