{
  "meta": {
    "page": {
      "currentPage": 62,
      "from": 611,
      "lastPage": 64,
      "perPage": 10,
      "to": 620,
      "total": 634
    }
  },
  "data": [
    {
      "type": "tdpseTerbit",
      "id": 11016,
      "attributes": {
        "nomor_pb_umku": null,
        "nama": "BANK MANDIRI CABANG MASJID AGUNG KENDARI",
        "website": "avienergi.co.id",
        "sektor": "Sektor Keuangan",
        "nama_perusahaan": "KENCANA PUTRA KENDARI",
        "tanggal_daftar": "2022-09-05",
        "nomor_tanda_daftar": "002753.02/DJAI.PSE/09/2022",
        "qr_code": "https://pse.kominfo.go.id/storage/images/qr_code/7c57c5b7ba47c2e7674bcfc25d433b65.png",
        "status_id": "TERDAFTAR",
        "sistem_elektronik_id": 10819
      }
    },
    {
      "type": "tdpseTerbit",
      "id": 5281,
      "attributes": {
        "nomor_pb_umku": null,
        "nama": "YANG INI HYPNO TEST",
        "website": "yanginihypnotest.com",
        "sektor": "Sektor Kesehatan",
        "nama_perusahaan": "HYPNOTHERAPY PTE LTD",
        "tanggal_daftar": "2022-07-11",
        "nomor_tanda_daftar": "002752.08/DJAI.PSE/07/2022",
        "qr_code": "https://pse.kominfo.go.id/storage/images/qr_code/1453e7ab8b7bbd4b87b8dae3613e779c.png",
        "status_id": "TERDAFTAR",
        "sistem_elektronik_id": 5150
      }
    },
    {
      "type": "tdpseTerbit",
      "id": 11531,
      "attributes": {
        "nomor_pb_umku": null,
        "nama": "DEVA TRADE SERVICES PTE. LTD. (D/H PEDRO PTE. LTD.)",
        "website": "aurasakti-engineering.com",
        "sektor": "Sektor Keuangan",
        "nama_perusahaan": "DEVA TRADE SERVICES PTE. LTD. (d/h Pedro Pte. Ltd.)",
        "tanggal_daftar": "2022-10-05",
        "nomor_tanda_daftar": "002749.03/DJAI.PSE/10/2022",
        "qr_code": "https://pse.kominfo.go.id/storage/images/qr_code/be4ca754fcc82de6f4781ae4d12fae7b.png",
        "status_id": "TERDAFTAR",
        "sistem_elektronik_id": 11347
      }
    },
    {
      "type": "tdpseTerbit",
      "id": 11021,
      "attributes": {
        "nomor_pb_umku": null,
        "nama": "THE HONGKONG AND SHANGHAI BANKING CORPORATION LIMITED",
        "website": "hsbc.com.cn",
        "sektor": "Sektor Keuangan",
        "nama_perusahaan": "DEVA TRADE SERVICES PTE. LTD. (d/h Pedro Pte. Ltd.)",
        "tanggal_daftar": "2022-09-05",
        "nomor_tanda_daftar": "002749.02/DJAI.PSE/09/2022",
        "qr_code": "https://pse.kominfo.go.id/storage/images/qr_code/58dd08a366d859be930d713940ca304e.png",
        "status_id": "TERDAFTAR",
        "sistem_elektronik_id": 10824
      }
    },
    {
      "type": "tdpseTerbit",
      "id": 11450,
      "attributes": {
        "nomor_pb_umku": null,
        "nama": "BANK RAKYAT INDONESIA",
        "website": "-",
        "sektor": "Sektor Keuangan",
        "nama_perusahaan": "BANK RAKYAT INDONESIA",
        "tanggal_daftar": "2022-09-30",
        "nomor_tanda_daftar": "002748.03/DJAI.PSE/09/2022",
        "qr_code": "https://pse.kominfo.go.id/storage/images/qr_code/6ff2af64ef9bf03a583aaa5f9fdd6db5.png",
        "status_id": "TERDAFTAR",
        "sistem_elektronik_id": 11265
      }
    },
    {
      "type": "tdpseTerbit",
      "id": 4888,
      "attributes": {
        "nomor_pb_umku": "",
        "nama": "MARIA TIURMA",
        "website": "transpeninsular.wordpress.com",
        "sektor": "Sektor Keuangan",
        "nama_perusahaan": "BANK RAKYAT INDONESIA",
        "tanggal_daftar": "2022-06-28",
        "nomor_tanda_daftar": "002748.02/DJAI.PSE/06/2022",
        "qr_code": "https://pse.kominfo.go.id/storage/images/qr_code/5d0730dfe899fb2533f2c6e7cc302151.png",
        "status_id": "TERDAFTAR",
        "sistem_elektronik_id": 4757
      }
    },
    {
      "type": "tdpseTerbit",
      "id": 4067,
      "attributes": {
        "nomor_pb_umku": "",
        "nama": "BANK RAKYAT INDONESIA",
        "website": "belumada.com",
        "sektor": "Sektor Teknologi Informasi dan Komunikasi",
        "nama_perusahaan": "BANK RAKYAT INDONESIA",
        "tanggal_daftar": "2022-05-23",
        "nomor_tanda_daftar": "002748.01/DJAI.PSE/05/2022",
        "qr_code": "https://pse.kominfo.go.id/storage/images/qr_code/79c9bff26dc477ac3f7fea8cd82467cd.png",
        "status_id": "TERDAFTAR",
        "sistem_elektronik_id": 4066
      }
    },
    {
      "type": "tdpseTerbit",
      "id": 4066,
      "attributes": {
        "nomor_pb_umku": "",
        "nama": "BIOMARK MOBILE APPLICATION",
        "website": "biomarking.com",
        "sektor": "Sektor Kesehatan",
        "nama_perusahaan": "BIOMARK PTE LTD",
        "tanggal_daftar": "2022-05-23",
        "nomor_tanda_daftar": "002747.03/DJAI.PSE/05/2022",
        "qr_code": "https://pse.kominfo.go.id/storage/images/qr_code/fded7cccfae01e02c0d92b083e76fb3d.png",
        "status_id": "TERDAFTAR",
        "sistem_elektronik_id": 4065
      }
    },
    {
      "type": "tdpseTerbit",
      "id": 4065,
      "attributes": {
        "nomor_pb_umku": "",
        "nama": "BIOMARK DOCTOR PLATFORM",
        "website": "biomarking.com",
        "sektor": "Sektor Kesehatan",
        "nama_perusahaan": "BIOMARK PTE LTD",
        "tanggal_daftar": "2022-05-23",
        "nomor_tanda_daftar": "002747.02/DJAI.PSE/05/2022",
        "qr_code": "https://pse.kominfo.go.id/storage/images/qr_code/197ff3ea4e6a24ff153dc9e4dd718831.png",
        "status_id": "TERDAFTAR",
        "sistem_elektronik_id": 4064
      }
    },
    {
      "type": "tdpseTerbit",
      "id": 4064,
      "attributes": {
        "nomor_pb_umku": "",
        "nama": "BIOMARK LABORATORY PLATFORM",
        "website": "biomarking.com",
        "sektor": "Sektor Kesehatan",
        "nama_perusahaan": "BIOMARK PTE LTD",
        "tanggal_daftar": "2022-05-23",
        "nomor_tanda_daftar": "002747.01/DJAI.PSE/05/2022",
        "qr_code": "https://pse.kominfo.go.id/storage/images/qr_code/40fc9f0f6c3d9b717b7755af0d7af802.png",
        "status_id": "TERDAFTAR",
        "sistem_elektronik_id": 4063
      }
    }
  ]
}