{
  "meta": {
    "page": {
      "currentPage": 65,
      "from": 641,
      "lastPage": 69,
      "perPage": 10,
      "to": 650,
      "total": 684
    }
  },
  "data": [
    {
      "type": "tdpseTerbit",
      "id": 4082,
      "attributes": {
        "nomor_pb_umku": "",
        "nama": "BIOMARK LABORATORY PLATFORM",
        "website": "13.227.254.60",
        "sektor": "Sektor Kesehatan",
        "nama_perusahaan": "BIOMARK PTE LTD",
        "tanggal_daftar": "2022-05-23",
        "nomor_tanda_daftar": "002756.02/DJAI.PSE/05/2022",
        "qr_code": "https://pse.kominfo.go.id/storage/images/qr_code/37685d0a930dfe695a2c88a24d9a1b2b.png",
        "status_id": "TERDAFTAR",
        "sistem_elektronik_id": 4081
      }
    },
    {
      "type": "tdpseTerbit",
      "id": 4081,
      "attributes": {
        "nomor_pb_umku": "",
        "nama": "BIOMARK MOBILE APPLICATION",
        "website": "13.227.254.72",
        "sektor": "Sektor Kesehatan",
        "nama_perusahaan": "BIOMARK PTE LTD",
        "tanggal_daftar": "2022-05-23",
        "nomor_tanda_daftar": "002756.01/DJAI.PSE/05/2022",
        "qr_code": "https://pse.kominfo.go.id/storage/images/qr_code/4be1e2c770ebae54e798195a1c9ca8c0.png",
        "status_id": "TERDAFTAR",
        "sistem_elektronik_id": 4080
      }
    },
    {
      "type": "tdpseTerbit",
      "id": 9259,
      "attributes": {
        "nomor_pb_umku": null,
        "nama": "ABCD",
        "website": "ABCD.com",
        "sektor": "Sektor Keuangan",
        "nama_perusahaan": "ESO FOREIGN LTD",
        "tanggal_daftar": "2022-07-28",
        "nomor_tanda_daftar": "002755.01/DJAI.PSE/07/2022",
        "qr_code": "https://pse.kominfo.go.id/storage/images/qr_code/fc270f3b6ba4141ca9c627a1f5c57824.png",
        "status_id": "TERDAFTAR",
        "sistem_elektronik_id": 9171
      }
    },
    {
      "type": "tdpseTerbit",
      "id": 11511,
      "attributes": {
        "nomor_pb_umku": null,
        "nama": "ZHUHAI QIXIA ENERGY TECHNOLOGY CO., LTD.",
        "website": "qq.com",
        "sektor": "Sektor Keuangan",
        "nama_perusahaan": "BRAWIJAYA CAPITAL INVESTAMA",
        "tanggal_daftar": "2022-10-05",
        "nomor_tanda_daftar": "002754.10/DJAI.PSE/10/2022",
        "qr_code": "https://pse.kominfo.go.id/storage/images/qr_code/906f7065dada22c46714c205120da834.png",
        "status_id": "TERDAFTAR",
        "sistem_elektronik_id": 11327
      }
    },
    {
      "type": "tdpseTerbit",
      "id": 11510,
      "attributes": {
        "nomor_pb_umku": null,
        "nama": "SHANTOU HAIYI INVESTMENT (GROUP) CO., LTD.",
        "website": "qq.com",
        "sektor": "Sektor Keuangan",
        "nama_perusahaan": "BRAWIJAYA CAPITAL INVESTAMA",
        "tanggal_daftar": "2022-10-05",
        "nomor_tanda_daftar": "002754.09/DJAI.PSE/10/2022",
        "qr_code": "https://pse.kominfo.go.id/storage/images/qr_code/1a61f765e9b34dbb0a3bef5f42315c59.png",
        "status_id": "TERDAFTAR",
        "sistem_elektronik_id": 11326
      }
    },
    {
      "type": "tdpseTerbit",
      "id": 11509,
      "attributes": {
        "nomor_pb_umku": null,
        "nama": "QINGDAO ZHONGXINYU INVESTMENT CO., LTD.",
        "website": "qq.com",
        "sektor": "Sektor Keuangan",
        "nama_perusahaan": "BRAWIJAYA CAPITAL INVESTAMA",
        "tanggal_daftar": "2022-10-05",
        "nomor_tanda_daftar": "002754.08/DJAI.PSE/10/2022",
        "qr_code": "https://pse.kominfo.go.id/storage/images/qr_code/ead1bd10a535e1fc6d22f99974c10ebc.png",
        "status_id": "TERDAFTAR",
        "sistem_elektronik_id": 11325
      }
    },
    {
      "type": "tdpseTerbit",
      "id": 11508,
      "attributes": {
        "nomor_pb_umku": null,
        "nama": "MARIA TIURMA (ICBC WEALTH MANAGEMENT CO., LTD. - THE BANK OF NEW YORK DEPOSITORY (NOMINEES) LIMITED)",
        "website": "owenpetrobitumen.com",
        "sektor": "Sektor Keuangan",
        "nama_perusahaan": "BRAWIJAYA CAPITAL INVESTAMA",
        "tanggal_daftar": "2022-10-05",
        "nomor_tanda_daftar": "002754.07/DJAI.PSE/10/2022",
        "qr_code": "https://pse.kominfo.go.id/storage/images/qr_code/994ccebd366ee17c6005c9034459777e.png",
        "status_id": "TERDAFTAR",
        "sistem_elektronik_id": 11324
      }
    },
    {
      "type": "tdpseTerbit",
      "id": 11507,
      "attributes": {
        "nomor_pb_umku": null,
        "nama": "SHANTOU HAIYI INVESTMENT (GROUP) CO., LTD.",
        "website": "qq.com",
        "sektor": "Sektor Keuangan",
        "nama_perusahaan": "BRAWIJAYA CAPITAL INVESTAMA",
        "tanggal_daftar": "2022-10-05",
        "nomor_tanda_daftar": "002754.06/DJAI.PSE/10/2022",
        "qr_code": "https://pse.kominfo.go.id/storage/images/qr_code/4c8efc2a1923725a37fae45ea46aa4f7.png",
        "status_id": "TERDAFTAR",
        "sistem_elektronik_id": 11323
      }
    },
    {
      "type": "tdpseTerbit",
      "id": 11506,
      "attributes": {
        "nomor_pb_umku": null,
        "nama": "CHIFENG MENGTANG CONSTRUCTION LABOR SERVICE CO., LTD.",
        "website": "qq.com",
        "sektor": "Sektor Keuangan",
        "nama_perusahaan": "BRAWIJAYA CAPITAL INVESTAMA",
        "tanggal_daftar": "2022-10-05",
        "nomor_tanda_daftar": "002754.05/DJAI.PSE/10/2022",
        "qr_code": "https://pse.kominfo.go.id/storage/images/qr_code/3ed36faa3b712cca7470334e73ef9756.png",
        "status_id": "TERDAFTAR",
        "sistem_elektronik_id": 11322
      }
    },
    {
      "type": "tdpseTerbit",
      "id": 11505,
      "attributes": {
        "nomor_pb_umku": null,
        "nama": "QINGDAO SHENGYU PETROCHEMICAL CO., LTD.",
        "website": "qq.com",
        "sektor": "Sektor Energi dan Sumber Daya Mineral",
        "nama_perusahaan": "BRAWIJAYA CAPITAL INVESTAMA",
        "tanggal_daftar": "2022-10-05",
        "nomor_tanda_daftar": "002754.04/DJAI.PSE/10/2022",
        "qr_code": "https://pse.kominfo.go.id/storage/images/qr_code/4456d97543b83d55234355e960b63664.png",
        "status_id": "TERDAFTAR",
        "sistem_elektronik_id": 11321
      }
    }
  ]
}