{
  "meta": {
    "page": {
      "currentPage": 70,
      "from": 691,
      "lastPage": 75,
      "perPage": 10,
      "to": 700,
      "total": 741
    }
  },
  "data": [
    {
      "type": "tdpseTerbit",
      "id": 4089,
      "attributes": {
        "nomor_pb_umku": "",
        "nama": "MCB",
        "website": "mycashback.co",
        "sektor": "Sektor Perdagangan",
        "nama_perusahaan": "MANKIND MEDIA PTE LTD",
        "tanggal_daftar": "2022-05-23",
        "nomor_tanda_daftar": "002763.01/DJAI.PSE/05/2022",
        "qr_code": "https://pse.kominfo.go.id/storage/images/qr_code/5cf44649c0176c454d3a7a2d5c977918.png",
        "status_id": "TERDAFTAR",
        "sistem_elektronik_id": 4088
      }
    },
    {
      "type": "tdpseTerbit",
      "id": 4088,
      "attributes": {
        "nomor_pb_umku": "",
        "nama": "LINKTREE",
        "website": "linktr.ee",
        "sektor": "Sektor Teknologi Informasi dan Komunikasi",
        "nama_perusahaan": "LINKTREE PTY LTD",
        "tanggal_daftar": "2022-05-23",
        "nomor_tanda_daftar": "002762.01/DJAI.PSE/05/2022",
        "qr_code": "https://pse.kominfo.go.id/storage/images/qr_code/4af5ca9f140bb111af1f9a2406231da3.png",
        "status_id": "TERDAFTAR",
        "sistem_elektronik_id": 4087
      }
    },
    {
      "type": "tdpseTerbit",
      "id": 4087,
      "attributes": {
        "nomor_pb_umku": "",
        "nama": "SMARTER HEALTH PLATFORM",
        "website": "smarterhealth.sg/",
        "sektor": "Sektor Teknologi Informasi dan Komunikasi",
        "nama_perusahaan": "SMARTER HEALTH PTE LTD",
        "tanggal_daftar": "2022-05-23",
        "nomor_tanda_daftar": "002761.01/DJAI.PSE/05/2022",
        "qr_code": "https://pse.kominfo.go.id/storage/images/qr_code/9dd690e683c9fa2972debcdd47947bb9.png",
        "status_id": "TERDAFTAR",
        "sistem_elektronik_id": 4086
      }
    },
    {
      "type": "tdpseTerbit",
      "id": 4086,
      "attributes": {
        "nomor_pb_umku": "",
        "nama": "CHANGE.ORG",
        "website": "change.org",
        "sektor": "Sektor Teknologi Informasi dan Komunikasi",
        "nama_perusahaan": "CHANGE.ORG, PBC",
        "tanggal_daftar": "2022-05-23",
        "nomor_tanda_daftar": "002760.01/DJAI.PSE/05/2022",
        "qr_code": "https://pse.kominfo.go.id/storage/images/qr_code/9f4aac48e390a9a2942ba7ad1f72033d.png",
        "status_id": "TERDAFTAR",
        "sistem_elektronik_id": 4085
      }
    },
    {
      "type": "tdpseTerbit",
      "id": 4085,
      "attributes": {
        "nomor_pb_umku": "",
        "nama": "TREBEL",
        "website": "trebel.io",
        "sektor": "Sektor Perdagangan",
        "nama_perusahaan": "M&M MEDIA, INC",
        "tanggal_daftar": "2022-05-23",
        "nomor_tanda_daftar": "002759.01/DJAI.PSE/05/2022",
        "qr_code": "https://pse.kominfo.go.id/storage/images/qr_code/51397e3cfda2be92ed14fd5dbfa10884.png",
        "status_id": "TERDAFTAR",
        "sistem_elektronik_id": 4084
      }
    },
    {
      "type": "tdpseTerbit",
      "id": 4084,
      "attributes": {
        "nomor_pb_umku": "",
        "nama": "SPOTIFY",
        "website": "spotify.com",
        "sektor": "Sektor Teknologi Informasi dan Komunikasi",
        "nama_perusahaan": "SPOTIFY AB",
        "tanggal_daftar": "2022-05-23",
        "nomor_tanda_daftar": "002758.01/DJAI.PSE/05/2022",
        "qr_code": "https://pse.kominfo.go.id/storage/images/qr_code/c457489bed39cfb367ab76e77e0e8b80.png",
        "status_id": "TERDAFTAR",
        "sistem_elektronik_id": 4083
      }
    },
    {
      "type": "tdpseTerbit",
      "id": 4083,
      "attributes": {
        "nomor_pb_umku": "",
        "nama": "SIDEN",
        "website": "siden.io",
        "sektor": "Sektor Teknologi Informasi dan Komunikasi",
        "nama_perusahaan": "SIDEN INC",
        "tanggal_daftar": "2022-05-23",
        "nomor_tanda_daftar": "002757.01/DJAI.PSE/05/2022",
        "qr_code": "https://pse.kominfo.go.id/storage/images/qr_code/085263b980214fd3aca62ad0fd1daaa0.png",
        "status_id": "TERDAFTAR",
        "sistem_elektronik_id": 4082
      }
    },
    {
      "type": "tdpseTerbit",
      "id": 4082,
      "attributes": {
        "nomor_pb_umku": "",
        "nama": "BIOMARK LABORATORY PLATFORM",
        "website": "13.227.254.60",
        "sektor": "Sektor Kesehatan",
        "nama_perusahaan": "BIOMARK PTE LTD",
        "tanggal_daftar": "2022-05-23",
        "nomor_tanda_daftar": "002756.02/DJAI.PSE/05/2022",
        "qr_code": "https://pse.kominfo.go.id/storage/images/qr_code/37685d0a930dfe695a2c88a24d9a1b2b.png",
        "status_id": "TERDAFTAR",
        "sistem_elektronik_id": 4081
      }
    },
    {
      "type": "tdpseTerbit",
      "id": 4081,
      "attributes": {
        "nomor_pb_umku": "",
        "nama": "BIOMARK MOBILE APPLICATION",
        "website": "13.227.254.72",
        "sektor": "Sektor Kesehatan",
        "nama_perusahaan": "BIOMARK PTE LTD",
        "tanggal_daftar": "2022-05-23",
        "nomor_tanda_daftar": "002756.01/DJAI.PSE/05/2022",
        "qr_code": "https://pse.kominfo.go.id/storage/images/qr_code/4be1e2c770ebae54e798195a1c9ca8c0.png",
        "status_id": "TERDAFTAR",
        "sistem_elektronik_id": 4080
      }
    },
    {
      "type": "tdpseTerbit",
      "id": 9259,
      "attributes": {
        "nomor_pb_umku": null,
        "nama": "ABCD",
        "website": "ABCD.com",
        "sektor": "Sektor Keuangan",
        "nama_perusahaan": "ESO FOREIGN LTD",
        "tanggal_daftar": "2022-07-28",
        "nomor_tanda_daftar": "002755.01/DJAI.PSE/07/2022",
        "qr_code": "https://pse.kominfo.go.id/storage/images/qr_code/fc270f3b6ba4141ca9c627a1f5c57824.png",
        "status_id": "TERDAFTAR",
        "sistem_elektronik_id": 9171
      }
    }
  ]
}