{
  "meta": {
    "page": {
      "currentPage": 8,
      "from": 71,
      "lastPage": 75,
      "perPage": 10,
      "to": 80,
      "total": 741
    }
  },
  "data": [
    {
      "type": "tdpseTerbit",
      "id": 11763,
      "attributes": {
        "nomor_pb_umku": null,
        "nama": "THE ROYAL BEACH SEMINYAK",
        "website": "theroyalbeachseminyak.com",
        "sektor": "Sektor Perdagangan",
        "nama_perusahaan": "REPINDO RESOURCES PTY. LTD.",
        "tanggal_daftar": "2022-10-11",
        "nomor_tanda_daftar": "008086.04/DJAI.PSE/10/2022",
        "qr_code": "https://pse.kominfo.go.id/storage/images/qr_code/b7ade885b40201150dc0bc7f8fee49af.png",
        "status_id": "TERDAFTAR",
        "sistem_elektronik_id": 11563
      }
    },
    {
      "type": "tdpseTerbit",
      "id": 11762,
      "attributes": {
        "nomor_pb_umku": null,
        "nama": "MACH ENERGY",
        "website": "machenergy.com",
        "sektor": "Sektor Perdagangan",
        "nama_perusahaan": "REPINDO RESOURCES PTY. LTD.",
        "tanggal_daftar": "2022-10-11",
        "nomor_tanda_daftar": "008086.03/DJAI.PSE/10/2022",
        "qr_code": "https://pse.kominfo.go.id/storage/images/qr_code/24e629cd209cdb49715ae6e707c68f0d.png",
        "status_id": "TERDAFTAR",
        "sistem_elektronik_id": 11562
      }
    },
    {
      "type": "tdpseTerbit",
      "id": 11761,
      "attributes": {
        "nomor_pb_umku": null,
        "nama": "REPINDO RESOURCES",
        "website": "repindoresources.com.au",
        "sektor": "Sektor Perdagangan",
        "nama_perusahaan": "REPINDO RESOURCES PTY. LTD.",
        "tanggal_daftar": "2022-10-11",
        "nomor_tanda_daftar": "008086.02/DJAI.PSE/10/2022",
        "qr_code": "https://pse.kominfo.go.id/storage/images/qr_code/66888eb236c2dbe910082db193fbc168.png",
        "status_id": "TERDAFTAR",
        "sistem_elektronik_id": 11561
      }
    },
    {
      "type": "tdpseTerbit",
      "id": 11760,
      "attributes": {
        "nomor_pb_umku": null,
        "nama": "YUANTA SEKURITAS KOREA",
        "website": "yuantakorea.com",
        "sektor": "Sektor Keuangan",
        "nama_perusahaan": "REPINDO RESOURCES PTY. LTD.",
        "tanggal_daftar": "2022-10-11",
        "nomor_tanda_daftar": "008086.01/DJAI.PSE/10/2022",
        "qr_code": "https://pse.kominfo.go.id/storage/images/qr_code/155ffd18ab4785c1616f1dfda94c5828.png",
        "status_id": "TERDAFTAR",
        "sistem_elektronik_id": 11560
      }
    },
    {
      "type": "tdpseTerbit",
      "id": 11735,
      "attributes": {
        "nomor_pb_umku": null,
        "nama": "ISLAND KING PRO",
        "website": "forevernine.com",
        "sektor": "Sektor Teknologi Informasi dan Komunikasi",
        "nama_perusahaan": "HK FOREVER9 TECHNOLOGY CO., LIMITED",
        "tanggal_daftar": "2022-10-10",
        "nomor_tanda_daftar": "008063.01/DJAI.PSE/10/2022",
        "qr_code": "https://pse.kominfo.go.id/storage/images/qr_code/f681b631a37d2e943374c056160c5cb5.png",
        "status_id": "TERDAFTAR",
        "sistem_elektronik_id": 11535
      }
    },
    {
      "type": "tdpseTerbit",
      "id": 11734,
      "attributes": {
        "nomor_pb_umku": null,
        "nama": "BANK MANDIRI HONG KONG",
        "website": "bankmandirihk.com",
        "sektor": "Sektor Keuangan",
        "nama_perusahaan": "AVI ENERGI INDONESIA",
        "tanggal_daftar": "2022-10-10",
        "nomor_tanda_daftar": "008062.05/DJAI.PSE/10/2022",
        "qr_code": "https://pse.kominfo.go.id/storage/images/qr_code/dc49bd7d67196b320e46053b427cc4c6.png",
        "status_id": "TERDAFTAR",
        "sistem_elektronik_id": 11534
      }
    },
    {
      "type": "tdpseTerbit",
      "id": 11733,
      "attributes": {
        "nomor_pb_umku": null,
        "nama": "REPINDO RESOURCES",
        "website": "repindoresources.com.au",
        "sektor": "Sektor Perdagangan",
        "nama_perusahaan": "AVI ENERGI INDONESIA",
        "tanggal_daftar": "2022-10-10",
        "nomor_tanda_daftar": "008062.04/DJAI.PSE/10/2022",
        "qr_code": "https://pse.kominfo.go.id/storage/images/qr_code/25c0e9dd04528391d4bfac80d5771501.png",
        "status_id": "TERDAFTAR",
        "sistem_elektronik_id": 11533
      }
    },
    {
      "type": "tdpseTerbit",
      "id": 11732,
      "attributes": {
        "nomor_pb_umku": null,
        "nama": "MANDIRI INVESTASI",
        "website": "mandiri-investasi.co.id",
        "sektor": "Sektor Keuangan",
        "nama_perusahaan": "AVI ENERGI INDONESIA",
        "tanggal_daftar": "2022-10-10",
        "nomor_tanda_daftar": "008062.03/DJAI.PSE/10/2022",
        "qr_code": "https://pse.kominfo.go.id/storage/images/qr_code/f2dd1ea1f1081fc078c01d478783c2ea.png",
        "status_id": "TERDAFTAR",
        "sistem_elektronik_id": 11532
      }
    },
    {
      "type": "tdpseTerbit",
      "id": 11731,
      "attributes": {
        "nomor_pb_umku": null,
        "nama": "UOB ASSET MANAGEMENT (D/H PG ASSET MANAGEMENT )",
        "website": "pg-am.com",
        "sektor": "Sektor Keuangan",
        "nama_perusahaan": "AVI ENERGI INDONESIA",
        "tanggal_daftar": "2022-10-10",
        "nomor_tanda_daftar": "008062.02/DJAI.PSE/10/2022",
        "qr_code": "https://pse.kominfo.go.id/storage/images/qr_code/b97abdc0aac56a5e04a13d24dc85ff37.png",
        "status_id": "TERDAFTAR",
        "sistem_elektronik_id": 11531
      }
    },
    {
      "type": "tdpseTerbit",
      "id": 11730,
      "attributes": {
        "nomor_pb_umku": null,
        "nama": "UOB INTERNATIONAL INVESTMENT PRIVATE LIMITED",
        "website": "uobgroup.com",
        "sektor": "Sektor Keuangan",
        "nama_perusahaan": "AVI ENERGI INDONESIA",
        "tanggal_daftar": "2022-10-10",
        "nomor_tanda_daftar": "008062.01/DJAI.PSE/10/2022",
        "qr_code": "https://pse.kominfo.go.id/storage/images/qr_code/f20f5c64b56b2aa50e57a6e1f4844be3.png",
        "status_id": "TERDAFTAR",
        "sistem_elektronik_id": 11530
      }
    }
  ]
}