{
  "meta": {
    "page": {
      "currentPage": 9,
      "from": 81,
      "lastPage": 41,
      "perPage": 10,
      "to": 90,
      "total": 404
    }
  },
  "data": [
    {
      "type": "tdpseTerbit",
      "id": 10146,
      "attributes": {
        "nomor_pb_umku": null,
        "nama": "EPIC GAMES STORE",
        "website": "store.epicgames.com",
        "sektor": "Sektor Teknologi Informasi dan Komunikasi",
        "nama_perusahaan": "EPIC GAMES INTERNATIONAL S.A R.L., BERTRANGE, ROOT BRANCH",
        "tanggal_daftar": "2022-08-09",
        "nomor_tanda_daftar": "007114.01/DJAI.PSE/08/2022",
        "qr_code": "https://pse.kominfo.go.id/storage/images/qr_code/59894f57fa928be54782164f4693f4fb.png",
        "status_id": "TERDAFTAR",
        "sistem_elektronik_id": 10028
      }
    },
    {
      "type": "tdpseTerbit",
      "id": 10141,
      "attributes": {
        "nomor_pb_umku": null,
        "nama": "ONE PUNCH MAN : THE STRONGEST",
        "website": "id-onepunchman.fingerfun.com",
        "sektor": "Sektor Teknologi Informasi dan Komunikasi",
        "nama_perusahaan": "FINGERFUN (HK) LIMITED",
        "tanggal_daftar": "2022-08-09",
        "nomor_tanda_daftar": "007109.02/DJAI.PSE/08/2022",
        "qr_code": "https://pse.kominfo.go.id/storage/images/qr_code/5ee965827243a6080f6685ee48260193.png",
        "status_id": "TERDAFTAR",
        "sistem_elektronik_id": 10023
      }
    },
    {
      "type": "tdpseTerbit",
      "id": 10140,
      "attributes": {
        "nomor_pb_umku": null,
        "nama": "MU ORIGIN 3",
        "website": "id-mu3.fingerfun.com",
        "sektor": "Sektor Teknologi Informasi dan Komunikasi",
        "nama_perusahaan": "FINGERFUN (HK) LIMITED",
        "tanggal_daftar": "2022-08-09",
        "nomor_tanda_daftar": "007109.01/DJAI.PSE/08/2022",
        "qr_code": "https://pse.kominfo.go.id/storage/images/qr_code/c0db53adb778ad10629128ed40b4e76d.png",
        "status_id": "TERDAFTAR",
        "sistem_elektronik_id": 10022
      }
    },
    {
      "type": "tdpseTerbit",
      "id": 9974,
      "attributes": {
        "nomor_pb_umku": null,
        "nama": "YALLA DOMINO",
        "website": "yalladomino.com",
        "sektor": "Sektor Teknologi Informasi dan Komunikasi",
        "nama_perusahaan": "FYXTECH TECHNOLOGY PTE. LTD.",
        "tanggal_daftar": "2022-08-05",
        "nomor_tanda_daftar": "007003.01/DJAI.PSE/08/2022",
        "qr_code": "https://pse.kominfo.go.id/storage/images/qr_code/aa881bac7639def641f04a44c2c9f7dc.png",
        "status_id": "TERDAFTAR",
        "sistem_elektronik_id": 9861
      }
    },
    {
      "type": "tdpseTerbit",
      "id": 9911,
      "attributes": {
        "nomor_pb_umku": null,
        "nama": "NUADU",
        "website": "nuadu.com",
        "sektor": "Sektor Teknologi Informasi dan Komunikasi",
        "nama_perusahaan": "NUADU",
        "tanggal_daftar": "2022-08-04",
        "nomor_tanda_daftar": "006963.01/DJAI.PSE/08/2022",
        "qr_code": "https://pse.kominfo.go.id/storage/images/qr_code/253c21bbc947a521b2351878e5137d8d.png",
        "status_id": "TERDAFTAR",
        "sistem_elektronik_id": 9798
      }
    },
    {
      "type": "tdpseTerbit",
      "id": 9887,
      "attributes": {
        "nomor_pb_umku": null,
        "nama": "LORDS MOBILE",
        "website": "lordsmobile.igg.com",
        "sektor": "Sektor Teknologi Informasi dan Komunikasi",
        "nama_perusahaan": "IGG SINGAPORE PTE. LTD.",
        "tanggal_daftar": "2022-08-04",
        "nomor_tanda_daftar": "006950.01/DJAI.PSE/08/2022",
        "qr_code": "https://pse.kominfo.go.id/storage/images/qr_code/42abc4102ae2b409a51e8aa51be287fa.png",
        "status_id": "TERDAFTAR",
        "sistem_elektronik_id": 9773
      }
    },
    {
      "type": "tdpseTerbit",
      "id": 9830,
      "attributes": {
        "nomor_pb_umku": null,
        "nama": "E-APP FOR SHORT TIME DIVE ACCIDENT INSURANCE",
        "website": "apps.dan.org/short-term-prepay/",
        "sektor": "Sektor Keuangan",
        "nama_perusahaan": "DAN WORLD, LTD",
        "tanggal_daftar": "2022-08-03",
        "nomor_tanda_daftar": "006900.02/DJAI.PSE/08/2022",
        "qr_code": "https://pse.kominfo.go.id/storage/images/qr_code/86c1f08bb34347321a9bcd88754f34c0.png",
        "status_id": "TERDAFTAR",
        "sistem_elektronik_id": 9705
      }
    },
    {
      "type": "tdpseTerbit",
      "id": 9829,
      "attributes": {
        "nomor_pb_umku": null,
        "nama": "WEBSITE",
        "website": "world.dan.org",
        "sektor": "Sektor Kesehatan",
        "nama_perusahaan": "DAN WORLD, LTD",
        "tanggal_daftar": "2022-08-03",
        "nomor_tanda_daftar": "006900.01/DJAI.PSE/08/2022",
        "qr_code": "https://pse.kominfo.go.id/storage/images/qr_code/b6d41de45935fd1cd61a79186f62a4d3.png",
        "status_id": "TERDAFTAR",
        "sistem_elektronik_id": 9704
      }
    },
    {
      "type": "tdpseTerbit",
      "id": 9810,
      "attributes": {
        "nomor_pb_umku": null,
        "nama": "BINAMANDIRI",
        "website": "binamandiri.sg",
        "sektor": "Sektor Teknologi Informasi dan Komunikasi",
        "nama_perusahaan": "BINAMANDIRI",
        "tanggal_daftar": "2022-08-03",
        "nomor_tanda_daftar": "006882.01/DJAI.PSE/08/2022",
        "qr_code": "https://pse.kominfo.go.id/storage/images/qr_code/865334d122a2d41c1bce354ff8eccae1.png",
        "status_id": "TERDAFTAR",
        "sistem_elektronik_id": 9684
      }
    },
    {
      "type": "tdpseTerbit",
      "id": 9799,
      "attributes": {
        "nomor_pb_umku": null,
        "nama": "ORIGIN",
        "website": "origin.com",
        "sektor": "Sektor Teknologi Informasi dan Komunikasi",
        "nama_perusahaan": "EA SWISS SARL",
        "tanggal_daftar": "2022-08-03",
        "nomor_tanda_daftar": "006872.01/DJAI.PSE/08/2022",
        "qr_code": "https://pse.kominfo.go.id/storage/images/qr_code/8c1d6199bcab8d1e9e969a2ab7b5d4ad.png",
        "status_id": "TERDAFTAR",
        "sistem_elektronik_id": 9675
      }
    }
  ]
}