{
  "meta": {
    "page": {
      "currentPage": 10,
      "from": 91,
      "lastPage": 72,
      "perPage": 10,
      "to": 100,
      "total": 712
    }
  },
  "data": [
    {
      "type": "tdpseTerbit",
      "id": 11692,
      "attributes": {
        "nomor_pb_umku": null,
        "nama": "BANTEN GLOBAL DEVELOPMENT",
        "website": "bankbanten.co.id",
        "sektor": "Sektor Keuangan",
        "nama_perusahaan": "WIJAYA KUSUMA RAJAWALI",
        "tanggal_daftar": "2022-10-09",
        "nomor_tanda_daftar": "008055.12/DJAI.PSE/10/2022",
        "qr_code": "https://pse.kominfo.go.id/storage/images/qr_code/e952a0151383391a53e3298f60aca2c7.png",
        "status_id": "TERDAFTAR",
        "sistem_elektronik_id": 11492
      }
    },
    {
      "type": "tdpseTerbit",
      "id": 11691,
      "attributes": {
        "nomor_pb_umku": null,
        "nama": "NV III HOLDINGS LIMITED",
        "website": "buvagroup.com",
        "sektor": "Sektor Perdagangan",
        "nama_perusahaan": "WIJAYA KUSUMA RAJAWALI",
        "tanggal_daftar": "2022-10-09",
        "nomor_tanda_daftar": "008055.11/DJAI.PSE/10/2022",
        "qr_code": "https://pse.kominfo.go.id/storage/images/qr_code/2a1445e5c8f213f9282d9bb330c80f28.png",
        "status_id": "TERDAFTAR",
        "sistem_elektronik_id": 11491
      }
    },
    {
      "type": "tdpseTerbit",
      "id": 11690,
      "attributes": {
        "nomor_pb_umku": null,
        "nama": "A WINOTO DOERIAT",
        "website": "ramayanains.com",
        "sektor": "Sektor Keuangan",
        "nama_perusahaan": "WIJAYA KUSUMA RAJAWALI",
        "tanggal_daftar": "2022-10-09",
        "nomor_tanda_daftar": "008055.10/DJAI.PSE/10/2022",
        "qr_code": "https://pse.kominfo.go.id/storage/images/qr_code/4b001709ac7d4389d698e901e578a3f6.png",
        "status_id": "TERDAFTAR",
        "sistem_elektronik_id": 11490
      }
    },
    {
      "type": "tdpseTerbit",
      "id": 11689,
      "attributes": {
        "nomor_pb_umku": null,
        "nama": "ARCHIPELAGO RESORTS AND HOTELS LIMITED",
        "website": "buvagroup.com",
        "sektor": "Sektor Perdagangan",
        "nama_perusahaan": "WIJAYA KUSUMA RAJAWALI",
        "tanggal_daftar": "2022-10-09",
        "nomor_tanda_daftar": "008055.09/DJAI.PSE/10/2022",
        "qr_code": "https://pse.kominfo.go.id/storage/images/qr_code/c0892a80d3a18da4515ebc7a5377ef40.png",
        "status_id": "TERDAFTAR",
        "sistem_elektronik_id": 11489
      }
    },
    {
      "type": "tdpseTerbit",
      "id": 11688,
      "attributes": {
        "nomor_pb_umku": null,
        "nama": "ASIA SURYA PERKASA",
        "website": "tunasgroup.com",
        "sektor": "Sektor Keuangan",
        "nama_perusahaan": "WIJAYA KUSUMA RAJAWALI",
        "tanggal_daftar": "2022-10-09",
        "nomor_tanda_daftar": "008055.08/DJAI.PSE/10/2022",
        "qr_code": "https://pse.kominfo.go.id/storage/images/qr_code/07d47bad9eb0481a88b079279d056bf1.png",
        "status_id": "TERDAFTAR",
        "sistem_elektronik_id": 11488
      }
    },
    {
      "type": "tdpseTerbit",
      "id": 11687,
      "attributes": {
        "nomor_pb_umku": null,
        "nama": "MAKASSAR PERMATA SULAWESI",
        "website": "tanjungbunga.com",
        "sektor": "Sektor Perdagangan",
        "nama_perusahaan": "WIJAYA KUSUMA RAJAWALI",
        "tanggal_daftar": "2022-10-09",
        "nomor_tanda_daftar": "008055.07/DJAI.PSE/10/2022",
        "qr_code": "https://pse.kominfo.go.id/storage/images/qr_code/db52c70b30e3f841432f6ec795a297fa.png",
        "status_id": "TERDAFTAR",
        "sistem_elektronik_id": 11487
      }
    },
    {
      "type": "tdpseTerbit",
      "id": 11686,
      "attributes": {
        "nomor_pb_umku": null,
        "nama": "SYAHRIL",
        "website": "ramayanains.com",
        "sektor": "Sektor Keuangan",
        "nama_perusahaan": "WIJAYA KUSUMA RAJAWALI",
        "tanggal_daftar": "2022-10-09",
        "nomor_tanda_daftar": "008055.06/DJAI.PSE/10/2022",
        "qr_code": "https://pse.kominfo.go.id/storage/images/qr_code/e858845e679049543226aa09cfe48ac7.png",
        "status_id": "TERDAFTAR",
        "sistem_elektronik_id": 11486
      }
    },
    {
      "type": "tdpseTerbit",
      "id": 11685,
      "attributes": {
        "nomor_pb_umku": null,
        "nama": "MODERN SEVEL INDONESIA",
        "website": "moderninternasional.co.id",
        "sektor": "Sektor Perdagangan",
        "nama_perusahaan": "WIJAYA KUSUMA RAJAWALI",
        "tanggal_daftar": "2022-10-09",
        "nomor_tanda_daftar": "008055.05/DJAI.PSE/10/2022",
        "qr_code": "https://pse.kominfo.go.id/storage/images/qr_code/3070b271c9895a9a949435b74451ae81.png",
        "status_id": "TERDAFTAR",
        "sistem_elektronik_id": 11485
      }
    },
    {
      "type": "tdpseTerbit",
      "id": 11684,
      "attributes": {
        "nomor_pb_umku": null,
        "nama": "PONDOK INDAH GROUP",
        "website": "pondokindahgroup.co.id",
        "sektor": "Sektor Perdagangan",
        "nama_perusahaan": "WIJAYA KUSUMA RAJAWALI",
        "tanggal_daftar": "2022-10-09",
        "nomor_tanda_daftar": "008055.04/DJAI.PSE/10/2022",
        "qr_code": "https://pse.kominfo.go.id/storage/images/qr_code/a8bc721580c3d3da85c23fe2d79e2ac6.png",
        "status_id": "TERDAFTAR",
        "sistem_elektronik_id": 11484
      }
    },
    {
      "type": "tdpseTerbit",
      "id": 11683,
      "attributes": {
        "nomor_pb_umku": null,
        "nama": "KOREAN REINSURANCE COMPANY",
        "website": "ramayanains.com",
        "sektor": "Sektor Keuangan",
        "nama_perusahaan": "WIJAYA KUSUMA RAJAWALI",
        "tanggal_daftar": "2022-10-09",
        "nomor_tanda_daftar": "008055.03/DJAI.PSE/10/2022",
        "qr_code": "https://pse.kominfo.go.id/storage/images/qr_code/7a4f6b90b256c90a56b5551a0761ab68.png",
        "status_id": "TERDAFTAR",
        "sistem_elektronik_id": 11483
      }
    }
  ]
}